X,Y,Z,Magnitude,Seconds,
-0.898543883056641,5.74191807348633,-3.39670177929687,6.73161104416216,0.0,
-0.939245311279297,5.8257151315918,-3.25065547802734,6.73705422169415,0.00294700000000603,
-0.941639512939453,5.93106000463867,-3.09503237011719,6.7559886858273,0.00598700000000463,
-0.951216319580078,6.03161647436523,-2.99447590039062,6.80088933143966,0.00896900000000755,
-0.953610521240235,6.0771063059082,-2.78378615429687,6.75204113082735,0.0119980000000055,
-1.02064816772461,6.10583672583008,-2.76223833935547,6.77885871280559,0.0149550000000147,
-1.06134959594727,6.25906563208008,-2.70956590283203,6.90247150905336,0.0178980000000024,
-1.18345388061523,6.39074672338867,-2.72871951611328,7.04897985297616,0.0209540000000175,
-1.30076976196289,6.5152452097168,-2.65689346630859,7.15538293927641,0.0239109999999982,
-1.40850883666992,6.67086831762695,-2.65210506298828,7.3156026764187,0.0269780000000139,
-1.4587870715332,6.86240445043945,-2.6233746430664,7.49017683899168,0.0299630000000093,
-1.50188270141602,7.02281596166992,-2.61140363476562,7.64166373402845,0.032935000000009,
-1.54497833129883,7.24787091772461,-2.57788481152344,7.84627816137462,0.0359630000000095,
-1.63595799438477,7.45377226049805,-2.55154859326172,8.04645758669847,0.03894200000002,
-1.68384202758789,7.67164461157227,-2.6233746430664,8.28079401615696,0.0419630000000097,
-1.71975505249023,7.90388217260742,-2.65928766796875,8.51473556489207,0.044934000000012,
-1.76045648071289,8.03316906225586,-2.61379783642578,8.62919181227146,0.0478750000000048,
-1.86101295043945,8.20794578344727,-2.66886447460937,8.82930239427471,0.0509040000000027,
-1.92086799194336,8.42102973120117,-2.65449926464844,9.03603020813154,0.0538640000000044,
-2.03100126831055,8.49285578100586,-2.67365287792969,9.13246873416523,0.0569190000000219,
-2.08606790649414,8.60777746069336,-2.69759489453125,9.25864624760696,0.0598920000000192,
-2.19141277954102,8.75142956030274,-2.64252825634765,9.40067895978115,0.0629080000000215,
-2.27042143432617,8.86874544165039,-2.60900943310547,9.51926412178356,0.0658610000000124,
-2.3949199206543,8.98366712133789,-2.63534565136719,9.66369303504277,0.068805999999995,
-2.46914017211914,9.0818293894043,-2.57788481152344,9.75816418950324,0.0718250000000182,
-2.5864560534668,9.14407863256836,-2.47972254345703,9.82104642325029,0.0747910000000047,
-2.68222411987305,9.19435686743164,-2.33846464550781,9.85895234460569,0.0777960000000064,
-2.78278058959961,9.21590468237305,-2.2570617890625,9.88792672121329,0.080758000000003,
-2.89770226928711,9.21351048071289,-2.22114876416016,9.91054769688175,0.0836940000000084,
-2.96713411743164,9.06746417944336,-1.988911203125,9.74569439753943,0.0867220000000088,
-3.0461427722168,8.95254249975586,-1.86680691845703,9.63908559301465,0.0896670000000199,
-3.12515142700195,8.84959182836914,-1.75188523876953,9.54730060594348,0.0927090000000135,
-3.18979487182617,8.5838354440918,-1.51725347607422,9.28219157129578,0.0956560000000195,
-3.24725571166992,8.34441527807617,-1.37838977978515,9.05946435364587,0.0985940000000198,
-3.33344697143555,8.0858414987793,-1.28262171337891,8.83955993895541,0.10161100000002,
-3.37654260131836,7.83205612280273,-1.10066238720703,8.59962794194387,0.104565000000008,
-3.38851360961914,7.59024175512695,-0.897155246093748,8.36054315935516,0.107574,
-3.41724402954102,7.40588822729492,-0.810963986328122,8.19648703895397,0.110528000000016,
-3.5058294909668,7.32687957250977,-0.657735080078123,8.149025716327,0.113458000000008,
-3.50822369262695,7.20956369116211,-0.530842392089841,8.03537402612173,0.116487000000006,
-3.51061789428711,7.16167965795899,-0.502111972167967,7.99163374758296,0.119426000000004,
-3.53216570922852,7.08267100317383,-0.502111972167967,7.93048167321781,0.122450000000015,
-3.54653091918945,7.13773764135742,-0.494929367187497,7.98562053168832,0.125484999999998,
-3.5273773059082,7.18322747290039,-0.454227938964841,8.01545199013776,0.128512000000001,
-3.54174251586914,7.20956369116211,-0.48774676220703,8.04733779393419,0.131615000000011,
-3.63032797729492,7.26702453100586,-0.492535165527341,8.13827485688781,0.134607000000017,
-3.49864688598633,7.31251436254883,-0.473381552246092,8.12019004884194,0.137616000000008,
-3.49146428100586,7.27181293432617,-0.530842392089841,8.08402002858806,0.140568999999999,
-3.61117436401367,7.37236940405274,-0.530842392089841,8.22643328316483,0.143489000000017,
-3.65426999389648,7.36758100073242,-0.492535165527341,8.23878206289781,0.146558999999996,
-3.65187579223633,7.42504184057617,-0.648158273437499,8.29985254589827,0.149504000000007,
-3.66863520385742,7.5495403269043,-0.664917685058592,8.42000943790682,0.15251600000002,
-3.60638596069336,7.65249099829102,-0.796598776367185,8.4971293850877,0.155473000000001,
-3.52498310424805,7.84163292944336,-0.806175583007811,8.6351972737166,0.158482000000021,
-3.42682083618164,7.95655460913086,-0.937856674316404,8.71374990649433,0.161468000000013,
-3.39569621459961,8.01162124731445,-0.947433480957029,8.75296852462665,0.164412999999996,
-3.32865856811523,8.05950528051758,-0.988134909179685,8.77564834234584,0.167468000000014,
-3.29992814819336,8.06668788549805,-1.069537765625,8.78093903050112,0.170433000000003,
-3.2759861315918,7.94458360083008,-1.04320154736328,8.65660228919991,0.173434000000015,
-3.29513974487305,7.8559981394043,-1.07193196728515,8.58625010391927,0.176404000000019,
-3.27119772827148,7.78177788793945,-1.18924784863281,8.52473531085568,0.179333000000014,
-3.27359192993164,7.5710881418457,-1.18206524365234,8.33277012856836,0.182359000000019,
-3.19458327514648,7.52799251196289,-1.14136381542969,8.25704214117787,0.185305,
-3.21373688842773,7.36279259741211,-1.17248843701172,8.11871595484618,0.18832900000001,
-3.11796882202148,7.14731444799805,-1.17967104199219,7.88653644897268,0.191274000000021,
-3.10839201538086,7.09464201147461,-1.17727684033203,7.83466827319741,0.194214000000017,
-3.06290218383789,7.01084495336914,-1.14854642041015,7.73643817449461,0.197216999999995,
-3.02459495727539,6.92225949194336,-1.13178700878906,7.63850724701099,0.200175000000002,
-2.8929138659668,6.87198125708008,-1.11023919384765,7.53828283504396,0.203190000000006,
-2.82348201782227,6.8217030222168,-1.15572902539062,7.47284366278446,0.206149000000011,
-2.75883857299805,6.77860739233398,-1.06714356396484,7.39591129188138,0.209074000000015,
-2.6846183215332,6.72593495581055,-1.09347978222656,7.32400673103488,0.212101000000018,
-2.5696966418457,6.66607991430664,-1.03841314404297,7.21929803462613,0.215040000000016,
-2.48111118041992,6.61819588110352,-0.961798690917966,7.13312597197833,0.218060000000008,
-2.44040975219727,6.44581336157227,-0.925885666015624,6.954234243781,0.221024,
-2.38055471069336,6.31413227026367,-0.995317514160154,6.8209943564691,0.223962,
-2.32309387084961,6.18005697729492,-0.957010287597654,6.6712621044266,0.226966000000004,
-2.30394025756836,6.04119328100586,-0.971375497558592,6.53817461728973,0.229929999999996,
-2.23211420776367,5.97176143286133,-1.00250011914062,6.4536249454386,0.232939000000016,
-2.8929138659668,5.19843429663086,-1.82849969189453,6.22383168920476,14.321867,
-2.92164428588867,5.25589513647461,-1.83328809521484,6.28660355509554,14.326155,
-2.89530806762695,5.29180816137695,-1.83089389355469,6.3038254157882,14.329091,
-2.92164428588867,5.29420236303711,-1.82371128857422,6.31589319559211,14.332028,
-2.91685588256836,5.33490379125977,-1.8572301118164,6.35755852430074,14.335048,
-2.88333705932617,5.37321101782227,-1.91469095166016,6.39148423138942,14.337994,
-2.92164428588867,5.42348925268555,-1.93623876660156,6.45749654034381,14.341015,
-2.94798050415039,5.46897908422852,-1.90271994335937,6.49774302811655,14.343962,
-2.88812546264649,5.52643992407227,-2.0487662446289,6.56355468077304,14.346882,
-2.91925008422852,5.5408051340332,-1.94581557324219,6.55810497267837,14.349892,
-2.88573126098633,5.54798773901367,-2.0870734711914,6.59268447121738,14.352849,
-2.93361529418945,5.56235294897461,-2.09665027783203,6.62886199968003,14.355859,
-2.88812546264649,5.57671815893555,-2.12059229443359,6.62857192699903,14.358808,
-2.90967327758789,5.60066017553711,-2.08946767285156,6.64826805567045,14.361738,
-2.94319210083008,5.59826597387695,-2.1253806977539,6.67234627151813,14.364748,
-2.90249067260742,5.58629496557617,-2.14932271435547,6.65212234384179,14.367697,
-2.9144616809082,5.64375580541992,-2.21396615917969,6.72664200286341,14.370711,
-2.94558630249024,5.65333261206055,-2.27621540234375,6.76888505190274,14.373662,
-2.90727907592774,5.63657320043945,-2.25227338574219,6.73022766876144,14.376588,
-2.95516310913086,5.65093841040039,-2.28579220898437,6.77428519789063,14.379591,
-2.9312210925293,5.62939059545899,-2.26185019238281,6.73780838717701,14.382534,
-2.89770226928711,5.67009202368164,-2.295369015625,6.76870304536557,14.385546,
-2.91685588256836,5.65812101538086,-2.40071388867187,6.80336746322218,14.388492,
-2.95755731079102,5.62460219213867,-2.35043565380859,6.77553266017655,14.391496,
-2.94558630249024,5.61981378881836,-2.32649363720703,6.75805876937866,14.394451,
-2.95755731079102,5.60784278051758,-2.37437767041015,6.76998635296696,14.397384,
-2.93361529418945,5.60544857885742,-2.3336762421875,6.74338173825769,14.400396,
-2.95995151245117,5.50728631079102,-2.41268489697265,6.70168365988488,14.403349,
-3.0078355456543,5.53122832739258,-2.39113708203125,6.73491633389135,14.406354,
-2.99347033569336,5.50489210913086,-2.4102906953125,6.71373242092335,14.409306,
-2.97671092407227,5.50728631079102,-2.35043565380859,6.68696928340574,14.412237,
-3.02698915893555,5.51686311743164,-2.38634867871094,6.73001501047184,14.415254,
-3.01741235229492,5.47855589086914,-2.36001246044922,6.68498397654284,14.418288,
-3.03896016723633,5.4809500925293,-2.29058061230469,6.67254466873861,14.421406,
-3.05093117553711,5.49052689916992,-2.30494582226562,6.69080278531302,14.424461,
-3.01980655395508,5.48573849584961,-2.30494582226562,6.67273060386347,14.427446,
-3.05811378051758,5.49770950415039,-2.33846464550781,6.71157854643057,14.430464,
-3.05571957885742,5.42109505102539,-2.25945599072266,6.62048601470293,14.433418,
-3.01741235229492,5.41391244604492,-2.2403023774414,6.59046129034923,14.436434,
-3.0293833605957,5.43067185766602,-2.34804145214844,6.64700376350932,14.439422,
-2.97431672241211,5.40194143774414,-2.23790817578125,6.56016495716884,14.442364,
-3.00304714233399,5.4043356394043,-2.26185019238281,6.58339594245993,14.445372,
-2.99586453735352,5.4426428659668,-2.29058061230469,6.62150475602772,14.448341,
-2.98628773071289,5.4426428659668,-2.30973422558594,6.62383181926509,14.451367,
-3.00304714233399,5.41630664770508,-2.2403023774414,6.58586551513346,14.454346,
-3.0078355456543,5.44503706762695,-2.26903279736328,6.621481191776,14.457285,
-2.98868193237305,5.40672984106445,-2.22354296582031,6.56575133461502,14.460339,
-2.98628773071289,5.47376748754883,-2.19481254589844,6.61038932514464,14.463304,
-3.01022974731445,5.48334429418945,-2.19481254589844,6.62915906370258,14.466323,
-2.9910761340332,5.49052689916992,-2.22354296582031,6.63600522836898,14.469278,
-3.0293833605957,5.44982547094727,-2.13735170605469,6.59136052151713,14.472187,
-3.0293833605957,5.47616168920899,-2.12777489941406,6.61006326856187,14.47518,
-3.03417176391602,5.50489210913086,-2.14453431103516,6.64146541339511,14.478107,
-3.04135436889649,5.48573849584961,-2.13016910107422,6.62425721430134,14.481101,
-3.01022974731445,5.50010370581055,-2.15411111767578,6.62969219599086,14.48403,
-3.09642100708008,5.47616168920899,-2.19241834423828,6.66204683979327,14.487028,
-3.09163260375977,5.51207471411133,-2.12298649609375,6.66695068777116,14.489977,
-3.05811378051758,5.49052689916992,-2.0870734711914,6.62222177212836,14.492887,
-3.06050798217774,5.49292110083008,-2.06552565625,6.61855630523341,14.49588,
-3.09402680541992,5.46179647924805,-2.01285321972656,6.5921013901143,14.498823,
-3.03896016723633,5.44503706762695,-2.07270826123047,6.5711359065274,14.501813,
-3.04374857055664,5.46179647924805,-2.08946767285156,6.59253375398137,14.504752,
-3.01262394897461,5.43067185766602,-2.11340968945312,6.56007624948486,14.507664,
-3.05571957885742,5.3875762277832,-2.05116044628906,6.52461944723277,14.510664,
-2.98868193237305,5.35884580786133,-2.02482422802734,6.46137456271748,14.513631,
-3.03656596557617,5.3492690012207,-2.03200683300781,6.47799841618588,14.516635,
-3.04374857055664,5.32293278295898,-1.95539237988281,6.43595976774007,14.519567,
-3.01980655395508,5.30138496801758,-2.01285321972656,6.42460055463345,14.52248,
-2.9527689074707,5.28223135473633,-2.05355464794922,6.39045373960247,14.525473,
-2.94798050415039,5.33011538793945,-2.03679523632812,6.4225582080919,14.528399,
-2.92643268920899,5.30617337133789,-2.09665027783203,6.41213119942967,14.5314,
-2.89051966430664,5.29899076635742,-2.06791985791016,6.3804936807761,14.534331,
-2.89770226928711,5.28223135473633,-2.15889952099609,6.39996044270185,14.537259,
-2.8761544543457,5.33011538793945,-2.1038328828125,6.41159163490663,14.540277,
-2.84981823608399,5.34448059790039,-2.11340968945312,6.41493860886641,14.543229,
-2.84263563110352,5.32053858129883,-2.11819809277344,6.39339278368987,14.546243,
-2.82348201782227,5.31575017797852,-2.11580389111328,6.38011573290755,14.549195,
-2.80911680786133,5.35405740454102,-2.142140109375,6.41450170937093,14.552126,
-2.77559798461914,5.34448059790039,-2.2403023774414,6.4254472043528,14.555167,
-2.80911680786133,5.35166320288086,-2.22833136914062,6.44180851686653,14.558225,
-2.78278058959961,5.40194143774414,-2.26903279736328,6.48639722358875,14.561345,
-2.7612327746582,5.43546026098633,-2.28339800732422,6.51018748919418,14.564406,
-2.7779921862793,5.49052689916992,-2.32409943554687,6.57758043689673,14.56735,
-2.78756899291992,5.45221967260742,-2.38395447705078,6.57118552449301,14.570358,
-2.75405016967773,5.48334429418945,-2.30494582226562,6.55474120231316,14.573306,
-2.75883857299805,5.5192573190918,-2.36001246044922,6.60628870393096,14.57632,
-2.78996319458008,5.53841093237305,-2.3336762421875,6.62600445866822,14.579305,
-2.80672260620117,5.54559353735352,-2.31931103222656,6.63404123697657,14.582305,
-2.80672260620117,5.57671815893555,-2.29297481396484,6.6509556238062,14.585262,
-2.85221243774414,5.57432395727539,-2.36240666210937,6.69247103900013,14.588204,
-2.92164428588867,5.55277614233399,-2.38874288037109,6.71382311121339,14.591217,
-2.90727907592774,5.58150656225586,-2.30734002392578,6.70293257580906,14.594183,
-2.92164428588867,5.6341789987793,-2.21157195751953,6.72093958065674,14.597213,
-2.95037470581055,5.62460219213867,-2.2570617890625,6.74056293228865,14.600196,
-3.01980655395508,5.61263118383789,-2.15889952099609,6.72916841599738,14.603134,
-3.07966159545898,5.61502538549805,-2.23311977246094,6.78230414685809,14.606152,
-3.09881520874023,5.57671815893555,-2.19720674755859,6.7476039164757,14.609117,
-3.09881520874023,5.63896740209961,-2.22833136914062,6.80926352482836,14.612133,
-3.12036302368164,5.63657320043945,-2.18284153759766,6.80238340743401,14.615078,
-3.13472823364258,5.68206303198242,-2.03440103466797,6.80081972765602,14.618008,
-3.1610644519043,5.58390076391602,-2.1636879243164,6.77154499683695,14.621029,
-3.22810209838867,5.53362252905274,-2.11340968945312,6.74597079501058,14.623974,
-3.2376789050293,5.49531530249024,-2.05594884960937,6.7013417043205,14.627002,
-3.20655428344727,5.47616168920899,-2.06313145458984,6.67284411761373,14.629957,
-3.16345865356445,5.51207471411133,-2.0272184296875,6.67083599471775,14.632896,
-3.18740067016602,5.46897908422852,-1.96736338818359,6.62870831739253,14.635916,
-3.12515142700195,5.41870084936523,-1.93623876660156,6.54812270027789,14.638866,
-3.1059978137207,5.39954723608398,-2.00806481640625,6.54481910219287,14.641893,
-3.08923840209961,5.39475883276367,-1.93623876660156,6.51120859211094,14.644845,
-3.07966159545898,5.35884580786133,-1.9338445649414,6.47621021403192,14.647774,
-3.06290218383789,5.31575017797852,-1.99848800976562,6.4523270273301,14.6508,
-3.00065294067383,5.26547194311523,-1.89793154003906,6.35068948892821,14.653777,
-2.96713411743164,5.29180816137695,-1.99609380810547,6.38682307398597,14.656801,
-2.93361529418945,5.25828933813477,-2.04397784130859,6.35873815104888,14.659756,
-2.92643268920899,5.30856757299805,-2.0272184296875,6.39175347797629,14.662692,
-2.88333705932617,5.29659656469727,-2.03440103466797,6.36446033350077,14.665704,
-2.87136605102539,5.33250958959961,-2.11340968945312,6.41458510253214,14.668657,
-2.80432840454102,5.29899076635742,-2.02003582470703,6.32646075428881,14.671683,
-2.78996319458008,5.36124000952148,-2.00806481640625,6.36860372245707,14.674633,
-2.79714579956055,5.35645160620117,-2.05834305126953,6.38375865382487,14.677644,
-2.78996319458008,5.35166320288086,-2.07749666455078,6.38280393364861,14.6806,
-2.77320378295898,5.38039362280273,-2.10622708447266,6.40901609371365,14.683529,
-2.75644437133789,5.35645160620117,-2.2019951508789,6.41391783751161,14.686542,
-2.7779921862793,5.41391244604492,-2.142140109375,6.45108152240088,14.689492,
-2.79235739624023,5.43306605932617,-2.12777489941406,6.46860824721331,14.692496,
-2.78517479125977,5.41630664770508,-2.11819809277344,6.44828190141158,14.695516,
-2.8546066394043,5.4641906809082,-2.23790817578125,6.5585358020128,14.698546,
-2.85939504272461,5.47855589086914,-2.2019951508789,6.56044947425321,14.701672,
-2.85700084106445,5.58629496557617,-2.22114876416016,6.65602336840811,14.704688,
-2.88094285766602,5.59108336889649,-2.142140109375,6.64445703088528,14.707712,
-2.90009647094727,5.62220799047852,-2.19002414257812,6.69447443598647,14.710665,
-2.95755731079102,5.67966883032227,-2.16847632763672,6.76077457487443,14.713597,
-3.03656596557617,5.6557268137207,-2.15171691601562,6.77036663271663,14.716658,
-3.05571957885742,5.68685143530274,-2.18762994091797,6.81640859619038,14.71962,
-3.10839201538086,5.68445723364258,-2.13495750439453,6.8215246468781,14.722647,
-3.09642100708008,5.69882244360352,-2.17565893261719,6.84089848542448,14.725589,
-3.12993983032227,5.70600504858399,-2.09904447949219,6.8382018603424,14.728538,
-3.13472823364258,5.72276446020508,-2.07989086621094,6.84854000361609,14.731569,
-3.25443831665039,5.6724862253418,-2.07270826123047,6.86036356687805,14.734527,
-3.25683251831055,5.67727462866211,-2.0870734711914,6.86980938132394,14.737578,
-3.21852529174805,5.65093841040039,-2.09186187451172,6.83139049343514,14.740551,
-3.21852529174805,5.62699639379883,-2.0487662446289,6.79848781675585,14.743481,
-3.19697747680664,5.63657320043945,-2.00088221142578,6.78197257847017,14.746512,
-3.1993716784668,5.60305437719727,-1.98412279980469,6.75032893831921,14.749474,
-3.22570789672852,5.59347757055664,-2.02003582470703,6.765554485808,14.752488,
-3.2209194934082,5.56235294897461,-2.00327641308594,6.73254848472775,14.755438,
-3.17303546020508,5.54559353735352,-2.0104590180664,6.69803756159821,14.758362,
-3.1826122668457,5.51686311743164,-1.99848800976562,6.67523436462955,14.761385,
-3.1610644519043,5.47855589086914,-2.00327641308594,6.63475843612233,14.764334,
-3.15388184692383,5.45940227758789,-1.94581557324219,6.59835147426684,14.767369,
-3.1059978137207,5.40194143774414,-1.97694019482422,6.53731491130469,14.770321,
-3.0844499987793,5.37799942114258,-2.03440103466797,6.5249902021871,14.773317,
-3.09881520874023,5.33969219458008,-2.05594884960937,6.50706493766501,14.776282,
-3.06050798217774,5.32293278295898,-2.02243002636719,6.46456075324725,14.7792,
-2.99586453735352,5.32532698461914,-1.97694019482422,6.42204051320114,14.782221,
-3.00065294067383,5.33729799291992,-2.01764162304687,6.44682446283849,14.785171,
-2.94798050415039,5.30856757299805,-1.9721517915039,6.38442334268877,14.788171,
-2.8929138659668,5.2894139597168,-2.03918943798828,6.36436518728717,14.791126,
-2.90009647094727,5.25589513647461,-2.15650531933594,6.37851929672886,14.794069,
-2.88573126098633,5.27744295141602,-2.10862128613281,6.37378480531126,14.797086,
-2.88573126098633,5.31335597631836,-2.11340968945312,6.40513053396932,14.80004,
-2.78278058959961,5.30617337133789,-2.15889952099609,6.36868831065745,14.803052,
-2.78517479125977,5.38997042944336,-2.16847632763672,6.4429239815214,14.806007,
-2.77080958129883,5.36363421118164,-2.19720674755859,6.42445913510955,14.808944,
-2.82587621948242,5.41391244604492,-2.21396615917969,6.49597340937209,14.811956,
-2.78756899291992,5.45221967260742,-2.22114876416016,6.51388839950349,14.81491,
-2.7995400012207,5.45700807592773,-2.20678355419922,6.51814812767088,14.817931,
-2.78278058959961,5.50968051245117,-2.24987918408203,6.56981000502314,14.820893,
-2.86418344604492,5.57192975561524,-2.27621540234375,6.66566610114662,14.823833,
-2.85700084106445,5.5958717722168,-2.19002414257812,6.65375386094277,14.826857,
-2.86178924438477,5.57671815893555,-2.21396615917969,6.64765140914223,14.829816,
-2.90009647094727,5.66051521704102,-2.1636879243164,6.71814985669316,14.832861,
-2.90249067260742,5.64375580541992,-2.17326473095703,6.70816750585478,14.835918,
-2.95516310913086,5.66290941870117,-2.13016910107422,6.73343541479041,14.83895,
-2.97910512573242,5.66769782202149,-2.17565893261719,6.76249641352875,14.842079,
-2.98868193237305,5.66530362036133,-2.16608212597656,6.76164155958059,14.845052,
-3.02220075561524,5.64375580541992,-2.13256330273437,6.7478517498995,14.848075,
-3.00304714233399,5.68445723364258,-2.15171691601562,6.77947135600259,14.851024,
-3.02459495727539,5.6557268137207,-2.12059229443359,6.75517076958282,14.85397,
-3.03896016723633,5.64136160375977,-2.08467926953125,6.73840688139544,14.857,
-3.03177756225586,5.62699639379883,-2.09904447949219,6.72761111611765,14.859939,
-3.02220075561524,5.58390076391602,-2.06552565625,6.67682869221086,14.862973,
-2.9695283190918,5.57192975561524,-2.09425607617187,6.65209802633586,14.865932,
-2.98149932739258,5.5192573190918,-2.12059229443359,6.62181631222144,14.86895,
-3.01741235229492,5.48813269750977,-2.07989086621094,6.59926691569643,14.871919,
-2.95755731079102,5.41391244604492,-2.06313145458984,6.50492925549321,14.874873,
-2.97910512573242,5.42109505102539,-2.142140109375,6.54615178181886,14.877926,
-2.94798050415039,5.42109505102539,-2.06073725292969,6.50580499482693,14.88089,
-2.90009647094727,5.36842261450195,-2.07270826123047,6.44411673116416,14.883897,
-2.86178924438477,5.34208639624023,-2.08467926953125,6.4088698224402,14.886857,
-2.85939504272461,5.36842261450195,-2.0487662446289,6.41821973006416,14.889796,
-2.86178924438477,5.36124000952148,-2.06313145458984,6.41788466068753,14.892821,
-2.84742403442383,5.36124000952148,-2.04397784130859,6.40535428272855,14.895776,
-2.78996319458008,5.37321101782227,-2.02243002636719,6.38322132474738,14.898796,
-2.80911680786133,5.40194143774414,-2.03200683300781,6.41881299824326,14.901748,
-2.79714579956055,5.44503706762695,-2.04397784130859,6.453704262483,14.904692,
-2.74207916137695,5.45221967260742,-2.03440103466797,6.43307741718404,14.907712,
-2.7612327746582,5.40912404272461,-2.02961263134766,6.40330826829023,14.910665,
-2.78278058959961,5.39954723608398,-2.04397784130859,6.4091203437223,14.913688,
-2.75883857299805,5.39715303442383,-2.15650531933594,6.4335811443687,14.916643,
-2.7779921862793,5.41391244604492,-2.13495750439453,6.44870003225762,14.91958,
-2.78756899291992,5.4043356394043,-2.09904447949219,6.43299093116963,14.922603,
-2.84024142944336,5.4258834543457,-2.0487662446289,6.45791187326056,14.925546,
-2.83305882446289,5.39236463110352,-2.0104590180664,6.41449640119688,14.928567,
-2.85700084106445,5.41630664770508,-2.13495750439453,6.4851272195222,14.931537,
-2.8761544543457,5.40672984106445,-2.12298649609375,6.48167136486461,14.934467,
-2.8761544543457,5.42109505102539,-2.08946767285156,6.48277804289151,14.937481,
-2.89770226928711,5.44982547094727,-2.11101548779297,6.52331683232687,14.940439,
-2.91925008422852,5.49292110083008,-2.08467926953125,6.56049471694215,14.943458,
-2.93840369750977,5.52404572241211,-2.15650531933594,6.61814268697516,14.946409,
-2.94558630249024,5.46179647924805,-2.13735170605469,6.56322876041353,14.949347,
-2.95516310913086,5.47855589086914,-2.07989086621094,6.56304119035471,14.952354,
-2.95037470581055,5.48573849584961,-2.09904447949219,6.57297691129519,14.955305,
-2.98149932739258,5.50968051245117,-2.04158363964844,6.58892869487952,14.958329,
-2.98389352905274,5.49292110083008,-2.06073725292969,6.58197848965486,14.961281,
-2.95995151245117,5.52165152075195,-2.11819809277344,6.61337369524159,14.964281,
-2.97192252075195,5.50489210913086,-2.08467926953125,6.59409192075279,14.967229,
-3.00304714233399,5.4809500925293,-2.11819809277344,6.59892939923638,14.970155,
-2.9910761340332,5.50010370581055,-2.09665027783203,6.60254644828698,14.973237,
-3.00065294067383,5.46179647924805,-2.02961263134766,6.55396569142888,14.976289,
-3.00544134399414,5.46658488256836,-2.04637204296875,6.56535349305415,14.979399,
-2.96234571411133,5.47137328588867,-2.02243002636719,6.54229630749033,14.982422,
-2.97671092407227,5.43546026098633,-2.02961263134766,6.52107074088134,14.98536,
-2.96713411743164,5.38278782446289,-2.00567061474609,6.46536961425012,14.988376,
-2.99586453735352,5.42109505102539,-2.04637204296875,6.52312152398439,14.991324,
-2.96713411743164,5.40672984106445,-2.00088221142578,6.48383698662172,14.994358,
-2.95755731079102,5.35166320288086,-2.05594884960937,6.45092008599491,14.997331,
-2.94558630249024,5.33729799291992,-1.99369960644531,6.41389637049004,15.000262,
-2.98868193237305,5.32293278295898,-2.06791985791016,6.44531811810183,15.003274,
-2.93600949584961,5.31575017797852,-2.02243002636719,6.40059176373164,15.006229,
-2.94798050415039,5.33011538793945,-2.03200683300781,6.42104126065159,15.009255,
-2.91925008422852,5.2726545480957,-2.12059229443359,6.38903895097171,15.012209,
-2.92164428588867,5.32532698461914,-2.12777489941406,6.43603440395988,15.015175,
-2.8929138659668,5.3492690012207,-2.15889952099609,6.45325318154192,15.018221,
-2.90009647094727,5.37799942114258,-2.17087052929687,6.48429766201247,15.021175,
-2.86178924438477,5.41391244604492,-2.142140109375,6.48760740958557,15.024208,
-2.90249067260742,5.44503706762695,-2.2570617890625,6.57017569719796,15.027163,
-2.86657764770508,5.47616168920899,-2.15411111767578,6.54567100945174,15.030087,
-2.84742403442383,5.51207471411133,-2.15411111767578,6.56741851818919,15.033099,
-2.8929138659668,5.53362252905274,-2.19002414257812,6.61710923855863,15.036041,
