X,Y,Z,Magnitude,Seconds,
-0.0568862314453125,-0.0181001645507813,-0.0342849677734396,0.0688412543468,0.0,
-0.0281558115234375,-0.0157059628906251,-0.0510443793945328,0.0603734681846093,0.00371300000006158,
-0.0113963999023437,-0.0276769711914063,-0.0127371528320328,0.032528875285362,0.00741900000002715,
-0.03294421484375,-0.0540131894531251,0.0135990654296858,0.0647122902324683,0.0111510000000408,
-0.0473094248046875,-0.00852335791015631,-0.137235639160158,0.145411313043766,0.0149170000000822,
0.0101514150390625,-0.00852335791015631,-0.0390733710937532,0.0412604797110998,0.0186400000000049,
-0.0377326181640625,-0.0204943662109376,0.030358477050779,0.0525871338708018,0.0223410000000968,
-0.0113963999023437,-0.00852335791015631,0.0088106621093722,0.0167377814421234,0.0260110000000395,
-0.0544920297851562,-0.0635899960937501,0.030358477050779,0.0890769669564033,0.0296970000000556,
-0.0497036264648437,-0.0564073911132813,-0.0510443793945328,0.0908722890860377,0.0335090000000946,
-0.0209732065429687,0.0154186586914062,-0.043861774414065,0.0510045653180814,0.0375080000000025,
-0.0449152231445312,-0.0468305844726563,-0.0558327827148464,0.0856024563774713,0.0413740000000189,
-0.0497036264648437,-0.0133117612304688,-0.0366791694335955,0.0631903073354778,0.0451480000000402,
0.000574608398437537,-0.00134075292968756,-0.0845632026367209,0.0845757827833071,0.0489330000000336,
-0.0281558115234375,0.00584185205078119,-0.0989284125976582,0.103022850751758,0.0527460000000701,
-0.03294421484375,-0.0372537778320313,-0.0630153876953141,0.0802751788588493,0.0565510000000131,
-0.00660799658203121,-0.0779552060546876,-0.0127371528320328,0.0792648398227328,0.0603300000000218,
-0.0281558115234375,-0.0133117612304688,-0.108505219238284,0.112886382312254,0.0641480000000456,
-0.0497036264648437,-0.00134075292968756,-0.082169000976565,0.0960416202677876,0.0679410000000189,
-0.0137906015624999,-0.0348595761718751,-0.0223139594726582,0.0436266378453098,0.0716620000000603,
-0.0353384165039062,-0.0635899960937501,-0.0606211860351582,0.0946964597042358,0.0753910000000815,
-0.0568862314453125,-0.0204943662109376,-0.0462559760742209,0.076129348460476,0.0790749999999889,
-0.0233674082031249,-0.00852335791015631,-0.0869574042968768,0.0904448647422649,0.0827710000000934,
-0.0281558115234375,-0.0133117612304688,-0.101322614257814,0.106001060700533,0.0864440000000286,
-0.0209732065429687,-0.0300711728515626,-0.127658832519533,0.13281915656114,0.0902419999999893,
-0.03294421484375,-0.0324653745117188,-0.043861774414065,0.0637430552186483,0.0939130000000432,
-0.0305500131835937,-0.0204943662109376,-0.139629840820314,0.144394649483324,0.0975690000000213,
0.00536301171875003,-0.0252827695312501,-0.0558327827148464,0.0615246288534031,0.101281000000085,
-0.0401268198242187,-0.00612915625000006,-0.0749863959960955,0.0852683282938365,0.105181000000016,
-0.0209732065429687,-0.0348595761718751,-0.149206647460939,0.154653448361522,0.109042000000045,
-0.0377326181640625,-0.00134075292968756,-0.0606211860351582,0.071417618892278,0.112858000000074,
-0.03294421484375,-0.0204943662109376,-0.00316034619140915,0.0389272157507923,0.116614000000027,
-0.0209732065429687,-0.00134075292968756,-0.0103429511718769,0.02342327154896,0.120314000000008,
-0.042521021484375,0.0010534487304687,-0.127658832519533,0.134558257058244,0.12410900000009,
-0.03294421484375,-0.0588015927734376,-0.0414675727539091,0.0791360107313042,0.12785800000006,
-0.0544920297851562,-0.0324653745117188,-0.0223139594726582,0.067240572868172,0.131565000000023,
-0.042521021484375,-0.0228885678710938,-0.0414675727539091,0.0636512639101934,0.135354000000007,
-0.0233674082031249,-0.00373495458984381,-0.0893516059570327,0.0924321109735167,0.139120000000048,
-0.0401268198242187,-0.0228885678710938,-0.0749863959960955,0.088073876903871,0.142831000000001,
-0.0401268198242187,0.0010534487304687,0.00162805712890446,0.0401736479977611,0.146570999999994,
-0.0137906015624999,-0.0157059628906251,-0.000766144531251456,0.020915184417549,0.150289000000043,
-0.0161848032226562,-0.00134075292968756,-0.0582269843750023,0.0604493770288936,0.153991000000019,
-0.0592804331054687,-0.0324653745117188,-0.0630153876953141,0.0924073015391579,0.157670000000053,
-0.104770264648437,-0.00134075292968756,-0.0965342109375023,0.142469154044826,0.161482000000092,
0.0652180532226563,-0.106685625976563,0.0183874687499976,0.126385585662275,0.165194000000042,
0.00296881005859378,-0.0707726010742188,-0.0342849677734396,0.0786958315999032,0.168904999999995,
-0.22448034765625,-0.0348595761718751,-0.103716815917972,0.249727440300252,0.172640000000001,
0.0963426748046876,-0.00612915625000006,-0.0893516059570327,0.131541579099384,0.176614000000086,
0.0628238515625,-0.0731668027343751,-0.0462559760742209,0.106957153431161,0.180433999999991,
-0.140683289550781,-0.0564073911132813,-0.0366791694335955,0.155945321191032,0.184304999999995,
0.0412760366210938,0.0010534487304687,-0.0127371528320328,0.0432094435932721,0.188123000000019,
0.0580354482421875,-0.0276769711914063,-0.00555454785156506,0.0645366639115851,0.191968000000088,
-0.0927992563476562,-0.00373495458984381,-0.0869574042968768,0.127229092689199,0.195787999999993,
0.00296881005859378,0.00344765039062495,-0.0558327827148464,0.0560178520836281,0.199608000000012,
0.0556412465820313,0.0010534487304687,-0.0486501777343769,0.0739181836155123,0.203438000000006,
-0.080828248046875,-0.00612915625000006,-0.103716815917972,0.131635671999753,0.207229000000098,
-0.0449152231445312,-0.00612915625000006,-0.0534385810546905,0.0700758572662416,0.211099999999988,
-0.0161848032226562,0.00823605371093744,-0.0917458076171904,0.0935257913701673,0.214873000000011,
-0.0664630380859375,-0.0181001645507813,-0.0462559760742209,0.0829732891414884,0.218582000000083,
-0.0473094248046875,-0.0133117612304688,-0.0486501777343769,0.0691536293768725,0.222307999999998,
-0.0209732065429687,-0.00852335791015631,-0.0462559760742209,0.0514989159627419,0.226018000000067,
0.0245166250000001,0.0800621035156249,-0.0486501777343769,0.0968392746478604,0.229765000000043,
-0.0113963999023437,-0.0611957944335938,-0.101322614257814,0.118916253502751,0.233536000000072,
-0.155048499511719,-0.0779552060546876,-0.0725921943359396,0.188113471156031,0.237275000000068,
-0.145471692871094,0.070485296875,-0.0342849677734396,0.165244211752075,0.241018000000054,
0.0676122548828125,-0.0827436093750001,-0.0294965644531278,0.110851112837348,0.244858000000022,
-0.0281558115234375,-0.0228885678710938,-0.0654095893554718,0.0748000711322152,0.248766000000046,
-0.080828248046875,0.0369664736328124,-0.0318907661132837,0.0944285275669632,0.25253500000008,
-0.0305500131835937,-0.0252827695312501,-0.0558327827148464,0.0684822704528063,0.256349999999998,
-0.0185790048828124,-0.0827436093750001,-0.0510443793945328,0.0989808718016323,0.26009600000009,
-0.0592804331054687,-0.00852335791015631,-0.0175255561523464,0.0624016225565139,0.26385700000003,
0.0293050283203126,-0.0204943662109376,-0.0247081611328142,0.0434660437330964,0.267651999999998,
0.0125456166992188,-0.0731668027343751,-0.0223139594726582,0.0775157165230517,0.271396000000095,
-0.0161848032226562,0.05133168359375,-0.0414675727539091,0.0679444566246997,0.275145000000066,
-0.0688572397460937,0.0154186586914062,-0.0725921943359396,0.101235770258343,0.278920000000085,
-0.00421379492187496,-0.0133117612304688,-0.00794874951172098,0.0160667879024003,0.282762000000048,
-0.080828248046875,0.0154186586914062,-0.0534385810546905,0.0981153538611972,0.286474999999996,
0.0221224233398438,0.250050421386719,0.0471178886718722,0.255410865632216,0.290231000000063,
-0.0281558115234375,0.0489374819335937,-0.0678037910156277,0.0882325389900748,0.293920000000071,
-0.12871228125,-0.654957806152344,-0.0582269843750023,0.670020119767964,0.297594000000004,
-0.0473094248046875,-0.224001507324219,-0.0151313544921905,0.229442399847196,0.301116000000093,
0.1394383046875,0.60678646875,0.0423294853515603,0.624038976989696,0.304073000000017,
0.0245166250000001,0.386519916015625,-0.00794874951172098,0.38737822989543,0.307014000000095,
-0.190961524414062,-0.487363689941406,-0.11089942089844,0.535059203860148,0.310004000000049,
-0.159836902832031,-0.307798565429688,-0.142024042480472,0.374778095717992,0.312913000000094,
0.0508528432617188,0.367366302734375,0.0566946953124976,0.375177691939569,0.315959000000021,
-0.0113963999023437,0.209348993164062,-0.0199197578125023,0.210603123483128,0.318896999999993,
-0.10955866796875,-0.288644952148438,-0.0462559760742209,0.312183640587459,0.321830000000091,
-0.0544920297851562,-0.200059490722656,-0.0342849677734396,0.210163365393545,0.324925000000007,
0.053247044921875,0.104004120117187,-0.0845632026367209,0.144232590056622,0.32798600000001,
0.0125456166992188,0.0776679018554687,-0.0414675727539091,0.0889339927535877,0.331115000000068,
-0.0688572397460937,-0.156963860839844,-0.0247081611328142,0.17317466991961,0.334067000000005,
-0.0257616098632812,-0.10189722265625,-0.0917458076171904,0.139513432124422,0.336981000000037,
-0.0113963999023437,0.099215716796875,-0.0582269843750023,0.115602846416767,0.339991000000055,
-0.0497036264648437,0.0824563051757812,-0.00316034619140915,0.0963300603915924,0.34294900000009,
-0.03294421484375,-0.0611957944335938,-0.0678037910156277,0.0970958321665804,0.345951000000014,
0.0197282216796875,-0.14020444921875,-0.139629840820314,0.198854174607631,0.348913000000039,
-0.0305500131835937,0.00344765039062495,-0.108505219238284,0.112776647408414,0.351836000000048,
-0.061674634765625,0.0273896669921875,-0.0869574042968768,0.110070634564659,0.354840000000081,
-0.080828248046875,0.0202070620117187,-0.0199197578125023,0.0856640402314842,0.35779100000002,
-0.0161848032226562,-0.0468305844726563,-0.170754462402346,0.177798025657545,0.360793000000058,
-0.061674634765625,-0.0707726010742188,-0.0965342109375023,0.134652796174494,0.363728000000037,
-0.0449152231445312,-0.0157059628906251,-0.0486501777343769,0.0680506747507413,0.366745000000037,
-0.0544920297851562,-0.00134075292968756,-0.0654095893554718,0.0851445436195196,0.369645999999989,
-0.0712514414062499,-0.0300711728515626,-0.0462559760742209,0.090114697256972,0.372548000000052,
0.000574608398437537,-0.00134075292968756,-0.0797747993164091,0.0797881344512037,0.375553000000082,
-0.0161848032226562,0.00584185205078119,-0.0462559760742209,0.0493527143460035,0.378496000000041,
-0.0736456430664062,-0.0276769711914063,-0.0606211860351582,0.0993208118840341,0.381460000000061,
-0.0281558115234375,-0.0611957944335938,-0.103716815917972,0.123672361031333,0.384390000000053,
-0.03294421484375,0.00823605371093744,-0.0869574042968768,0.093352793393937,0.387313000000063,
-0.0401268198242187,-0.0324653745117188,-0.0749863959960955,0.0910336300269011,0.39029000000005,
-0.042521021484375,0.0130244570312499,0.0088106621093722,0.0453354333368402,0.393239999999992,
-0.0185790048828124,-0.0109175595703126,-0.108505219238284,0.110624387597649,0.396239000000037,
-0.0257616098632812,0.0249954653320312,-0.0893516059570327,0.0962919691200337,0.399172000000021,
0.00536301171875003,0.0465432802734375,-0.0199197578125023,0.0509100735082552,0.402120000000082,
-0.052097828125,-0.0133117612304688,-0.0103429511718769,0.0547573129485266,0.405097000000069,
-0.0736456430664062,-0.0444363828125001,-0.0366791694335955,0.0935074025436594,0.408019000000081,
-0.0449152231445312,-0.0157059628906251,-0.00555454785156506,0.0479051932704592,0.411000000000058,
0.00296881005859378,0.00823605371093744,-0.118082025878909,0.118406128429067,0.413968000000068,
-0.0377326181640625,-0.0228885678710938,-0.0342849677734396,0.0558846671988874,0.41686100000004,
-0.0568862314453125,-0.00612915625000006,-0.0175255561523464,0.0598394101143688,0.4198540000001,
-0.080828248046875,0.00823605371093744,0.0088106621093722,0.0817231058505618,0.422810000000027,
-0.0233674082031249,0.0249954653320312,-0.043861774414065,0.0556297070641809,0.425820000000044,
-0.0568862314453125,0.0130244570312499,-0.0462559760742209,0.0744667384245304,0.428758000000016,
0.0484586416015626,0.0393606752929687,-0.00794874951172098,0.0629339759127555,0.431698000000097,
0.249571581054688,-0.147387054199219,-0.0103429511718769,0.290027402937384,0.434720000000084,
0.249571581054688,-0.444268060058594,-0.149206647460939,0.530963941247328,0.437680999999998,
0.206475951171875,-0.336528985351563,-0.0845632026367209,0.40377594236688,0.440668000000073,
-0.0832224497070312,0.00344765039062495,-0.0510443793945328,0.0976902814830028,0.44362799999999,
-0.523755555175781,0.288357647949219,-0.0773805976562532,0.602874590277228,0.446562000000085,
-0.0880108530273437,0.0537258852539062,-0.0797747993164091,0.130370240480295,0.449583000000075,
0.498568553710938,-0.365259405273438,-0.0271023627929718,0.618643333399046,0.452511000000072,
0.180139732910156,-0.142598650878906,-0.0151313544921905,0.23024694676411,0.455547000000024,
-0.325036817382812,0.221320001464844,-0.0342849677734396,0.394723871482296,0.458486999999991,
-0.284335389160156,0.161464959960937,-0.0630153876953141,0.332999228092852,0.461583000000019,
0.072400658203125,-0.17851167578125,-0.0414675727539091,0.19704779442708,0.464636000000041,
0.187322337890625,-0.243155120605469,-0.0151313544921905,0.307315845407031,0.467669000000001,
0.0700064565429688,-0.113868230957031,0.00162805712890446,0.133676955938566,0.470753000000059,
-0.061674634765625,0.0537258852539062,-0.0414675727539091,0.0917049121361003,0.473688000000038,
-0.0377326181640625,-0.0133117612304688,-0.0701979926757836,0.080800443292604,0.476657000000046,
-0.0305500131835937,-0.0324653745117188,0.0183874687499976,0.0482224310330374,0.479608000000098,
0.053247044921875,-0.0827436093750001,0.0351468803710908,0.104484716036053,0.48255800000004,
0.0173340200195313,-0.0611957944335938,0.0758483085937485,0.0989866628537839,0.485581000000025,
0.0604296499023438,-0.00612915625000006,0.00641646044921629,0.0610776563757411,0.488538000000062,
0.160986119628906,-0.0635899960937501,0.0231758720703095,0.174634874416867,0.491577000000007,
0.2926672109375,-0.0875320126953126,0.0830309135742162,0.316559760887887,0.494532000000049,
0.2160527578125,-0.0635899960937501,0.030358477050779,0.227253424375591,0.497503000000052,
0.168168724609375,-0.0923204160156251,0.0590888969726535,0.200736834924452,0.500516000000061,
0.101131078125,-0.147387054199219,0.0758483085937485,0.194173645546405,0.503528000000074,
0.211264354492188,-0.137810247558594,0.0926077202148416,0.268701473115709,0.506566000000021,
0.407588890625,-0.161752264160156,0.236259819824216,0.498107620083478,0.509534000000031,
0.678133678222656,-0.226395708984375,0.31766267626953,0.782323384848649,0.512456000000043,
0.989379894042969,-0.358076800292969,0.609755278808592,1.21609747540215,0.515467000000058,
1.23598266503906,-0.470604278320313,0.545111833984373,1.43047839780972,0.518417999999997,
1.39639417626953,-0.5041231015625,0.813262419921873,1.69276476827279,0.521416000000045,
2.05240543115234,-0.573554949707031,1.40941863330078,2.55495483679311,0.524358000000007,
3.29739029443359,-0.777062090820313,2.40540652392578,4.15482716754375,0.527287000000001,
3.94621894433594,-0.434691253417969,2.57060643847656,4.72965304266297,0.530290000000036,
4.15690869042969,0.0489374819335937,2.853122234375,5.04208203245374,0.533258000000046,
3.67327995507812,0.688189325195312,3.10930181201172,4.86151704037648,0.536278000000038,
2.88319340722656,1.00901234765625,2.086977703125,3.6995115994599,0.539238000000068,
2.55758198144531,0.697766131835937,2.55624122851562,3.68272621639378,0.542169000000058,
1.51131585595703,1.11914562402344,1.73503005908203,2.5586894790412,0.545191000000045,
0.826574181152344,1.34659478173828,1.81403871386719,2.40567637860153,0.54814900000008,
0.611096031738281,1.12153982568359,1.57940695117187,2.03121054005012,0.551175000000057,
-0.0927992563476562,1.22927890039063,2.68073971484375,2.95061073943426,0.554108000000042,
-0.0353384165039062,1.54770772119141,3.15479164355469,3.51416537860115,0.55711800000006,
0.254359984375,1.13351083398438,2.70228752978515,2.94141185590246,0.560096000000044,
-0.0377326181640625,1.52615990625,2.99916853564453,3.36535283664561,0.563022000000046,
-1.16061319677734,0.774380584960937,3.87784054492187,4.12120559724192,0.566014999999993,
-0.997807483886719,0.642699493652344,4.6535618828125,4.8025327288012,0.568961000000058,
-1.97943016455078,0.815082013183594,6.25767699511719,6.61369970891995,0.571940000000041,
-1.53410865576172,0.764803778320313,5.55857011035156,5.81688197049844,0.574876000000017,
-2.05125621435547,-0.0564073911132813,6.77482455371094,7.07877684238377,0.57775300000003,
-2.59473999121094,-0.468210076660156,8.49146714404297,8.89139530986204,0.58075800000006,
-2.76951671240234,-0.86804175390625,6.9735432915039,7.55341150376965,0.583662000000004,
-2.81500654394531,-2.31892795996094,7.34225034716797,8.19819058612519,0.586646000000087,
-2.9251398203125,-3.34125206884766,6.33189724658203,7.73390788005842,0.589550000000031,
-4.56277375585938,-4.20077046484375,4.28006642382812,7.53553882863352,0.592452000000094,
-5.10146912939453,-4.4497674375,3.4109712211914,7.58024684280114,0.595428000000084,
-4.71360846044922,-4.76580205664063,1.69432863085937,6.91387904658798,0.598387000000002,
-4.342507203125,-5.29013222021484,-0.951264203613285,6.90997621570608,0.601460000000088,
-3.93309871923828,-5.30449743017578,-2.86423133007813,7.19797052190521,0.60449600000004,
-2.85091956884766,-5.26858440527344,-3.68544249951172,7.0333640912963,0.607494000000088,
-2.42235747167969,-3.71235332617188,-3.43644552685547,5.60879138478039,0.610512000000085,
-2.79824713232422,-2.47694526953125,-3.64234686962891,5.21844187478499,0.6134330000001,
-2.48460671484375,-1.33251687597656,-3.03421964794922,4.14190301965293,0.616427000000044,
-2.36489663183594,-0.702841839355469,-2.95042258984375,3.8460000245811,0.619362000000024,
-2.17336049902344,-0.118656634277344,-2.8331067084961,3.57268370798466,0.622275000000059,
-1.81423025,0.0872447084960937,-2.35426637646485,2.97348502779626,0.625290000000064,
-1.71367378027344,0.173435968261719,-2.02626074902344,2.65941544015157,0.62823000000003,
-1.77831722509766,0.240473614746094,-1.43249873730469,2.29614728291711,0.631250000000023,
-1.72803899023438,0.257233026367187,-1.18829016796875,2.11289401175626,0.634192000000098,
-1.7759230234375,0.317088067871094,-0.956052606933596,2.04168656144525,0.637135000000058,
-1.81183604833984,0.578056048828125,-0.977600421875003,2.13836415198645,0.64016300000003,
-2.11350545751953,1.15027024560547,-1.08294529492188,2.63871132727389,0.643112000000087,
-2.43911688330078,1.70811923242188,-1.66952470166016,3.41383585018757,0.646135000000072,
-2.55164436132813,2.16541174951172,-2.04541436230469,3.92219541904063,0.649080000000026,
-2.45827049658203,2.30666964746094,-2.31117074658203,4.08721530100138,0.652091000000041,
-2.24518654882813,2.54369561181641,-2.40215040966797,4.15711156877955,0.655012000000056,
-2.01773739111328,2.93155628076172,-2.66790679394532,4.44780991814507,0.657936000000063,
-1.88366209814453,3.28589812646484,-2.45242864453125,4.5121741604252,0.660952000000066,
-1.62748252050781,3.63545156884766,-2.06217377392578,4.48528350696616,0.663894000000028,
-1.45510000097656,3.76473845849609,-1.68867831494141,4.375180696277,0.666879999999992,
-1.277929078125,3.30744594140625,-1.66473629833985,3.91709692592005,0.669814000000088,
-0.83739597265625,2.62270426660156,-1.49953638378907,3.13503094903035,0.672745000000077,
-0.284335389160156,1.92838578515625,-1.0326670600586,2.20588295402354,0.675762000000077,
0.259148387695313,1.44236284814453,-0.367078998535158,1.51073341914391,0.678715000000011,
0.931919054199219,1.27237453027344,0.406248137695311,1.62863366606767,0.681761000000051,
1.20964644677734,1.35377738671875,0.944943511230466,2.04667437038936,0.684707000000003,
1.62863173730469,1.34659478173828,1.37589981005859,2.5216778401057,0.687655000000063,
1.89199391992188,1.45193965478516,1.93853720019531,3.07338514194041,0.690676000000053,
2.28943139550781,1.55967872949219,2.50596299365234,3.73549787572182,0.693646000000058,
2.50251534326172,1.50461209130859,2.93452509082031,4.13979203550448,0.696679000000017,
2.54800517480469,1.35856579003906,3.03268735888672,4.18750808876201,0.69964200000004,
2.33970963037109,1.02098335595703,3.00874534228515,3.94578214075678,0.702574000000027,
1.95424316308594,0.601998065429687,2.7980555961914,3.46562882181968,0.705609000000095,
1.60229551904297,0.302722857910156,2.64722089160156,3.10914305042052,0.708564000000024,
1.33175073144531,-0.14020444921875,2.33358047412109,2.69050462320455,0.711588000000006,
1.13063779199219,-0.389201421875,2.14922694628906,2.45947068088349,0.714538000000061,
1.11627258203125,-0.63819839453125,2.12289072802734,2.48194011034139,0.717469000000051,
1.01571611230469,-0.690870831054688,1.8188271171875,2.19479242941425,0.720472000000086,
0.948678465820313,-0.628621587890625,1.8020677055664,2.13133853428278,0.723415000000045,
0.793055357910156,-0.530459319824219,1.68235762255859,1.93407628103945,0.726405,
0.548846788574219,-0.362865203613281,1.67038661425781,1.79529813524473,0.729343000000085,
0.414771495605469,-0.252731927246094,1.69432863085937,1.76257151059641,0.732258000000002,
0.187322337890625,-0.200059490722656,1.77573148730469,1.79675701559959,0.735254000000054,
-0.0137906015624999,-0.21681890234375,1.8786821586914,1.89120259900689,0.738259000000085,
-0.12871228125,-0.221607305664063,1.98402703173828,2.00050991298131,0.741372000000069,
-0.202932532714844,-0.288644952148438,2.00078644335937,2.03166038332333,0.744403000000034,
-0.337007825683594,-0.281462347167969,2.1085255180664,2.15375838658436,0.747463000000039,
-0.3968628671875,-0.429902850097656,2.04388207324219,2.12597519392752,0.750403000000006,
-0.370526648925781,-0.494546294921875,1.98402703173828,2.07803496073895,0.753314000000046,
-0.348978833984375,-0.556795538085938,1.92177778857422,2.03101880012439,0.756282000000056,
-0.298700599121094,-0.626227386230469,1.71108804248047,1.84640328105752,0.759275000000002,
-0.337007825683594,-0.650169402832031,1.53152291796875,1.69760330325269,0.762251999999989,
-0.370526648925781,-0.585525958007813,1.42138964160156,1.58129034598879,0.76519200000007,
-0.432775892089844,-0.56158394140625,1.35435199511718,1.52870560367176,0.768094000000019,
-0.516572950195313,-0.499334698242188,1.27773754199218,1.46587720493851,0.771102000000042,
-0.631494629882813,-0.422720245117188,1.06225939257812,1.30609068993053,0.774029000000041,
-0.7799351328125,-0.374836211914063,0.968885527832029,1.29905356440744,0.777013000000011,
-0.99062487890625,-0.310192767089844,0.851569646484373,1.34265709184304,0.779961000000071,
-1.05766252539063,-0.192876885742188,0.736647966796873,1.30326579700967,0.782861000000025,
-1.17497840673828,-0.130627642578125,0.791714604980466,1.42283163200926,0.785843999999997,
-1.19892042333984,-0.0204943662109376,0.715100151855466,1.39613696596412,0.78877900000009,
-1.23483344824219,0.0417548769531249,0.703129143554685,1.42160040347596,0.79177900000002,
-1.1630073984375,0.175830169921875,0.825233428222655,1.4368412120103,0.794702000000029,
-1.15343059179688,0.264415631347656,0.880300066406248,1.47487150732147,0.797608000000082,
-1.17737260839844,0.326664874511719,0.894665276367185,1.51437847184377,0.800612999999998,
-1.14624798681641,0.30032865625,0.978462334472654,1.53670761338235,0.803546000000097,
-1.16779580175781,0.400885125976562,1.00240435107422,1.59036800831912,0.806548000000021,
-1.2396218515625,0.367366302734375,0.997615947753903,1.63305171824682,0.809492000000091,
-1.32820731298828,0.458345965820313,0.990433342773436,1.71906192358992,0.812412999999992,
-1.39045655615234,0.484682184082031,0.968885527832029,1.76267564235622,0.815426000000002,
-1.39763916113281,0.441586554199219,0.923395696289059,1.73235490633609,0.818374000000063,
-1.42397537939453,0.39609672265625,0.978462334472654,1.77256510030027,0.82138400000008,
-1.41200437109375,0.412856134277344,0.937760906249999,1.74459222997499,0.824327000000039,
-1.43355218603516,0.410461932617187,0.794108806640622,1.68942583885716,0.827242000000069,
-1.45510000097656,0.331453277832031,0.825233428222655,1.70534087480589,0.830230000000029,
-1.49819563085938,0.276386639648437,0.858752251464841,1.74883822931059,0.833172999999988,
-1.59396369726563,0.216531598144531,0.815656621582029,1.80358030747908,0.836184000000003,
-1.68973176367188,0.144705548339844,0.758195781738278,1.8576851111875,0.839112,
-1.73282739355469,0.099215716796875,0.779743596679685,1.90277024647644,0.842100000000073,
-1.80704764501953,0.0800621035156249,0.774955193359373,1.96783807349707,0.845023000000083,
-1.90520991308594,0.0441490786132812,0.786926201660155,2.06180183357242,0.847936000000004,
-1.94351713964844,0.0633026918945312,0.722282756835936,2.0743573664465,0.85093100000006,
-2.01294898779297,0.0489374819335937,0.772560991699217,2.15666617502339,0.853848000000085,
-2.06562142431641,0.0537258852539062,0.825233428222655,2.22501428094234,0.856828000000064,
-2.14463007910156,0.0633026918945312,0.796503008300778,2.28863768413012,0.859761000000049,
-2.23082133886719,0.022601263671875,0.755801580078122,2.35548523483238,0.862662,
-2.16138949072266,0.022601263671875,0.791714604980466,2.3019399130875,0.86566300000004,
-2.15181268408203,0.0273896669921875,0.798897209960936,2.29549227254583,0.868589000000043,
-1.96745915625,0.0369664736328124,0.839598638183592,2.13943635682966,0.871596000000068,
-1.83577806494141,0.0800621035156249,0.834810234863278,2.01826637795209,0.874549000000002,
-1.74719260351563,0.206954791503906,0.863540654785155,1.9599017174269,0.877568999999994,
-1.61072310888672,0.297934454589844,0.937760906249999,1.88748228866505,0.880666000000019,
-1.51256084082031,0.350606891113281,1.07662460253906,1.88941420129932,0.8836960000001,
-1.43834058935547,0.314693866210938,1.23943031542968,1.92458914764278,0.886727000000064,
-1.33538991796875,0.362577899414062,1.3806882133789,1.95474522859618,0.889649000000077,
-1.34257252294922,0.420038739257812,1.48363888476562,2.04453365397689,0.892564999999991,
-1.39045655615234,0.467922772460938,1.54349392626953,2.12948225068102,0.895587000000091,
-1.48143621923828,0.566085040527344,1.55546493457031,2.22139071472303,0.89854200000002,
-1.66578974707031,0.652276300292969,1.55546493457031,2.37060984053603,0.901545000000056,
-1.81183604833984,0.70255453515625,1.53152291796875,2.47424638813435,0.904481000000033,
-1.92196932470703,0.681006720214844,1.58419535449219,2.58213306382285,0.907412000000022,
-2.01534318945313,0.671429913574219,1.48842728808594,2.5938084146745,0.910407000000077,
-1.99618957617188,0.659458905273438,1.50279249804687,2.58419120112031,0.913371000000097,
-1.97464176123047,0.621151678710937,1.51476350634765,2.56506295699022,0.916393000000085,
-2.06083302099609,0.618757477050781,1.44533165820312,2.59207969747042,0.919347000000016,
-2.16378369238281,0.599603863769531,1.40702443164062,2.64975516078425,0.922263000000044,
-2.24518654882813,0.575661847167969,1.37350560839844,2.69420987631356,0.925254999999993,
-2.33856041357422,0.525383612304687,1.32801577685547,2.74016763202396,0.928185000000099,
-2.40559806005859,0.544537225585938,1.27294913867187,2.77557603503344,0.93119200000001,
-2.51333713476563,0.494258990722656,1.26816073535156,2.85821397967148,0.934120000000007,
-2.60671099951172,0.532566217285156,1.19633468554687,2.91715369677556,0.93710800000008,
-2.66177763769531,0.556508233886719,1.1891520805664,2.96796972316666,0.94003500000008,
-2.74557469580078,0.520595208984375,1.33040997851562,3.09502673538905,0.9429540000001,
-2.80064133398438,0.578056048828125,1.28970855029297,3.1370509753441,0.945948000000044,
-2.82937175390625,0.5684792421875,1.23464191210937,3.13892558397578,0.948892999999998,
-2.91316881201172,0.58763285546875,1.30886216357422,3.24730427637145,0.951866999999993,
-2.90838040869141,0.630728485351562,1.28970855029297,3.24343077135811,0.954802000000086,
-2.95147603857422,0.642699493652344,1.34477518847656,3.30646242273535,0.957707000000028,
-2.96823545019531,0.762409576660156,1.2825259453125,3.32213227472643,0.960710000000063,
-3.00893687841797,0.8749370546875,1.29449695361328,3.39041860997768,0.963636000000065,
-3.08794553320313,0.922821087890625,1.17957527392578,3.43196797816382,0.966630000000009,
-3.10709914648438,0.975493524414062,1.14605645068359,3.45240468520293,0.969557000000009,
-3.09273393652344,1.04013696923828,1.02155796435547,3.41913275428698,0.972491999999988,
-3.18610780126953,1.01140654931641,0.921001494628904,3.4673433464858,0.975487000000044,
-3.15737738134766,0.97070512109375,0.849175444824217,3.41063033711597,0.978421000000026,
-3.21962662451172,0.886908062988281,0.669610320312497,3.40602106489777,0.981417000000079,
-3.21723242285156,0.781563189941406,0.458920574218748,3.34245921081469,0.984350000000063,
-3.22202082617188,0.613969073730469,0.437372759277341,3.30902873338093,0.987254000000007,
-3.18610780126953,0.417644537597656,0.379911919433592,3.23574457391548,0.99026200000003,
-3.07118612158203,0.218925799804687,0.370335112792967,3.10117087484479,0.993188000000032,
-2.88204419042969,-0.0444363828125001,0.418219145996092,2.91256940892139,0.9961780000001,
-2.74557469580078,-0.245549322265625,0.35596990283203,2.77942250325655,0.999089000000026,
-2.58755738623047,-0.415537640136719,0.379911919433592,2.64810457194084,1.00199000000009,
-2.58276898291016,-0.540036126464844,0.329633684570311,2.65913388210773,1.00495699999999,
-2.55403856298828,-0.552007134765625,0.391882927734374,2.64223335213093,1.00786900000003,
