X,Y,Z,Magnitude,Seconds,
-0.055976434814453,-0.0255700737304688,0.0331836350097667,0.0699166901217422,0.0,
0.039791631591797,-0.0159932670898438,0.0164242233886736,0.0459229098693172,0.00390700000002653,
0.0469742365722658,-0.00881066210937509,0.026001030029299,0.0544082735522575,0.00777399999992667,
-0.00569819995117171,-0.0135990654296876,0.00684741674804812,0.0162570347654764,0.0116519999999127,
-0.00809240161132796,0.0390733710937499,-0.0338540114746078,0.0523288580554916,0.0155099999999493,
-0.0104866032714842,0.000766144531249902,-0.0530076247558586,0.054040393298663,0.019315000000006,
-0.00809240161132796,-0.0255700737304688,-0.00272938989257732,0.0269585831157043,0.0231249999999363,
-0.0416112248535155,0.000766144531249902,-0.0817380446777332,0.0917234373483228,0.0269009999999525,
0.0230322199707033,-0.0710599052734376,0.0188184250488295,0.077033281220309,0.0307889999999134,
-0.0511880314941405,0.0127371528320311,0.0690966599121108,0.0869298455164941,0.0348559999999907,
-0.00330399829101546,-0.0255700737304688,0.0547314499511735,0.0605002205702298,0.0387020000000575,
-0.0296402165527342,0.0199197578124999,-0.0625844313964823,0.0720565766729355,0.0426449999999932,
-0.0224576115722654,0.0342849677734374,-0.0194888015136705,0.0453830003106409,0.0465320000000702,
-0.0392170231933592,-0.0207816704101563,-0.0434308181152332,0.0620974129520974,0.0503830000000107,
-0.0104866032714842,0.0055545478515624,0.083461869873048,0.0843012785947782,0.0542430000000422,
-0.000909796630859216,-0.0399352836914064,-0.0530076247558586,0.0663736611592321,0.0581319999998868,
0.020638018310547,-0.0255700737304688,-0.000335188232421402,0.0328613575726755,0.0621699999999237,
0.00627280834960953,-0.0447236870117189,0.0307894333496108,0.0546584440914965,0.066086999999925,
-0.0152750065917967,0.0271023627929686,0.0667024582519549,0.0736008276597139,0.0700440000000526,
0.0373974299316408,0.0055545478515624,0.0523372482910176,0.0645647607135882,0.073957000000064,
-0.0296402165527342,-0.0495120903320314,0.0379720383300786,0.0690786886187135,0.0777659999998832,
-0.0248518132324217,0.0342849677734374,0.0571256516113294,0.0711084503289433,0.081621000000041,
0.00627280834960953,0.00316034619140615,0.0307894333496108,0.0315804546932211,0.0855169999999816,
0.00866701000976578,-0.0495120903320314,0.0164242233886736,0.0528802351117851,0.0893160000000535,
0.00387860668945328,0.0199197578124999,0.00924161840820403,0.0222990549567236,0.0932219999999688,
-0.017669208251953,0.0055545478515624,0.0212126267089854,0.0281607786465669,0.0970279999999093,
0.00148440502929703,-0.0207816704101563,0.0164242233886736,0.0265299151383569,0.100862000000006,
0.039791631591797,0.0151313544921874,-0.0170945998535146,0.0458754528877625,0.104798999999957,
-0.0703416447753905,0.0630153876953123,0.0571256516113294,0.110373122399055,0.108841999999868,
0.0158496149902345,-0.00641646044921884,-0.012306196533201,0.0210671244632205,0.112836000000016,
0.00627280834960953,0.000766144531249902,0.0355778366699226,0.036134714114621,0.116825999999946,
-0.017669208251953,-0.0112048637695313,0.00684741674804812,0.0220144727047024,0.120719000000008,
0.00148440502929703,0.00794874951171864,0.0140300217285176,0.0161934427097429,0.124603999999863,
0.0134554133300783,-0.0423294853515627,-0.0242772048339823,0.0506183381054983,0.128420000000006,
-0.0440054265136717,-0.00881066210937509,-0.000335188232421402,0.0448800365486359,0.132384000000002,
-0.0200634099121092,-0.00881066210937509,-0.0170945998535146,0.0277919687726271,0.136350999999877,
-0.0104866032714842,-0.0327526787109377,-0.0194888015136705,0.0395287262045548,0.140247000000045,
-0.00330399829101546,0.00794874951171864,0.0236068283691413,0.0251273032607396,0.144278999999869,
-0.0128808049316405,-0.0159932670898438,0.00205901342773629,0.0206382960582906,0.148224000000027,
-0.0296402165527342,-0.0183874687500001,0.026001030029299,0.0435051147212568,0.152151999999887,
0.0302148249511721,-0.0231758720703126,0.0116358200683599,0.0398176970920307,0.156048000000055,
0.00866701000976578,0.0199197578124999,0.0164242233886736,0.0272335992431974,0.160010000000057,
0.00148440502929703,-0.00402225878906259,0.00684741674804812,0.00807893187114754,0.163888999999926,
0.0350032282714846,-0.00162805712890635,-0.0458250197753891,0.0576871649230177,0.167788999999857,
-0.0104866032714842,0.0342849677734374,0.0140300217285176,0.0385002515979028,0.171716999999944,
0.049368438232422,-0.0327526787109377,-0.0242772048339823,0.0640262706301212,0.175547000000051,
-0.0511880314941405,0.0175255561523436,0.0403662399902363,0.0675040222330745,0.179513999999926,
0.0326090266113283,-0.0135990654296876,-0.00991199487304506,0.0366951064784191,0.183383999999933,
0.0637336481933595,-0.0758483085937501,0.0786734665527362,0.126508727635654,0.187525000000051,
-0.0583706364746092,0.0247081611328124,0.0236068283691413,0.0676380571473346,0.19141599999989,
0.0661278498535158,-0.0399352836914064,-0.000335188232421402,0.0772517427694249,0.195338999999876,
-0.0272460148925779,-0.0112048637695313,0.119374894775392,0.122956332908298,0.199168999999983,
0.00387860668945328,0.00316034619140615,-0.000335188232421402,0.00501435230634634,0.203078999999889,
-0.0200634099121092,0.00794874951171864,0.0595198532714853,0.0633114205302686,0.207120000000032,
0.0230322199707033,0.0151313544921874,-0.0721612380371077,0.0772443222547471,0.211142999999993,
0.0445800349121095,-0.00881066210937509,0.116980693115236,0.125496971442707,0.215157999999974,
-0.0631590397949217,0.0055545478515624,0.026001030029299,0.0685271542692115,0.219163999999864,
0.0517626398925783,0.0175255561523436,-0.0601902297363264,0.0812980919998092,0.223025999999891,
-0.0104866032714842,-0.0399352836914064,0.0044532150878922,0.0415286269494387,0.226877999999942,
-0.0152750065917967,-0.0207816704101563,-0.00991199487304506,0.027630622392177,0.230673999999908,
0.039791631591797,-0.0135990654296876,0.0212126267089854,0.0470986630085503,0.234518999999864,
-0.00569819995117171,0.0534385810546874,-0.02667140649414,0.0599959611323761,0.238481999999976,
-0.00809240161132796,0.0342849677734374,-0.0314598098144518,0.0472299228522146,0.242336999999907,
-0.055976434814453,0.0151313544921874,0.0212126267089854,0.0617437824821229,0.246110000000044,
0.0134554133300783,-0.0447236870117189,-0.0530076247558586,0.0706474671171116,0.24998000000005,
0.0230322199707033,-0.0471178886718752,-0.0673728347167959,0.0853796079134285,0.254010999999991,
-0.0104866032714842,-0.0255700737304688,0.0140300217285176,0.0309941773315214,0.257853999999952,
0.011061211669922,0.0151313544921874,-0.0194888015136705,0.0270392617653349,0.261901999999964,
-0.00569819995117171,0.0055545478515624,-0.00272938989257732,0.00841261277514501,0.265854999999874,
-0.0631590397949217,-0.0327526787109377,-0.00272938989257732,0.0711986786376272,0.269694999999956,
0.00866701000976578,0.0103429511718749,-0.0194888015136705,0.0237045794287183,0.273574000000053,
0.011061211669922,0.0199197578124999,0.0307894333496108,0.0383032160647849,0.277577000000065,
-0.0272460148925779,-0.0399352836914064,-0.00512359155273323,0.0486150532390836,0.281547000000046,
0.00866701000976578,0.0055545478515624,0.0164242233886736,0.0193836317099177,0.285521999999901,
0.00387860668945328,0.0151313544921874,-0.0170945998535146,0.0231565719132062,0.289537999999993,
-0.00330399829101546,-0.0303584770507814,0.00684741674804812,0.0312960165144273,0.293447999999898,
-0.0200634099121092,-0.00881066210937509,0.0164242233886736,0.0273847274594426,0.297354999999925,
0.0421858332519533,-0.0207816704101563,0.00924161840820403,0.0479262961535818,0.301263000000063,
-0.065553241455078,0.0247081611328124,-0.122439472900389,0.141064330062415,0.305084999999963,
0.0158496149902345,-0.748618975097656,1.62772194067383,1.79169202049978,0.30887000000007,
-1.31293230639648,-5.91291195605469,-6.13667404321289,8.62235973233992,0.312666000000036,
0.765234734619141,9.72601328808594,1.67800017553711,9.89932337426121,0.31571299999996,
0.693408684814453,4.66227677685547,9.25564842993164,10.3867544597279,0.31871000000001,
-0.304973407470703,0.781275885742188,-16.1013413527832,16.1231694820762,0.321786999999858,
-0.723958697998047,-3.75094785693359,1.90544933325195,4.26901196805913,0.324712999999974,
0.343855242431641,-7.72771681445313,9.14551515356445,11.9781589159689,0.327816999999868,
0.0541568415527345,-0.0519062919921877,-4.82225733178711,4.82284076044502,0.330758999999944,
0.413287090576172,6.9702871772461,-1.03941870874023,7.05946887553146,0.333763999999974,
0.114011883056641,2.49791847607422,1.45533942114258,2.89320034794044,0.336904000000004,
-0.678468866455078,-5.50589767382813,1.23267866674805,5.68284487672069,0.339960999999903,
0.068522051513672,-3.26731912158203,-1.98033996118164,3.82123224570977,0.343047999999953,
-0.0296402165527342,3.32391804882813,0.155287919677736,3.32767547632886,0.346056999999973,
0.626371038330078,3.22575578076172,1.06508455053711,3.45430834387569,0.349048999999923,
-0.199628534423828,-1.52434031298828,0.0738850632324226,1.53913090545485,0.352155000000039,
-0.477355927001953,-2.86030483935547,-0.972381062255858,3.05855151751904,0.355162000000064,
0.188232134521485,0.225821100585937,0.354006657470704,0.460159993339206,0.358246999999892,
0.21696255444336,2.27286352001953,0.176835734619141,2.2900332328821,0.361239999999952,
0.0158496149902345,0.465241266601562,0.145711113037111,0.487783122818818,0.364244999999983,
-0.194840131103516,-1.68235762255859,-0.290033589111326,1.71825764356869,0.367311999999856,
-0.139773492919922,-0.837204436523438,-0.136804682861326,0.859746136432348,0.370263000000023,
0.343855242431641,1.07336848828125,0.15289371801758,1.1374237681674,0.373327000000018,
0.039791631591797,1.02787865673828,0.0547314499511735,1.03010360572934,0.376295999999911,
-0.199628534423828,-0.609755278808594,-0.00512359155273323,0.641622399064708,0.379300000000057,
0.176261126220703,-1.06465359423828,-0.0554018264160145,1.08056680622316,0.382284000000027,
0.078098858154297,0.448481854980469,0.0355778366699226,0.45661930352739,0.38535499999989,
0.0278206232910158,0.711844037597656,0.0762792648925803,0.716459661946286,0.388451999999916,
-0.304973407470703,-0.106972930175781,-0.13441048120117,0.35002594834014,0.391401999999971,
0.116406084716797,-0.679187126953125,0.138528508056641,0.702876715734939,0.394452000000001,
0.173866924560547,0.0271023627929686,-0.0194888015136705,0.177042534181885,0.397469000000001,
0.240904571044922,0.515519501464844,-0.02667140649414,0.569654924199971,0.40046899999993,
-0.290608197509766,-0.00162805712890635,0.0954328781738294,0.305881037768657,0.403522000000066,
-0.441442902099609,-0.456526372558594,0.0307894333496108,0.635795685626777,0.406514999999899,
0.367797259033203,-0.19076998828125,-0.155958296142577,0.442708710459667,0.409603999999945,
0.590458013427735,0.453270258300781,0.181624137939455,0.766212712086751,0.412591999999904,
-0.269060382568359,0.199484882324219,0.0667024582519549,0.341521486411313,0.415545000000066,
-0.733535504638672,-0.348787297851563,-0.184688716064452,0.83296868941734,0.418578000000025,
0.23611616772461,-0.315268474609375,0.0116358200683599,0.394056402120485,0.421552999999903,
0.781994146240235,0.321589166992187,0.212748759521485,0.871892465708159,0.424627999999984,
-0.163715509521484,0.335954376953125,-0.100891657958982,0.387101069615616,0.427645999999868,
-0.762265924560547,-0.327239482910156,-0.175111909423826,0.84782026381982,0.430577999999969,
0.212174151123047,-0.327239482910156,0.083461869873048,0.398835095375016,0.433639999999968,
0.633553643310547,0.23060950390625,0.0140300217285176,0.674364740888532,0.436617999999953,
-0.134985089599609,0.323983368652344,0.0714908615722667,0.358185902662123,0.439677999999958,
-0.474961725341797,-0.135703350097656,-0.0242772048339823,0.494563870942808,0.442651999999953,
-0.0799184514160154,-0.296114861328125,0.0164242233886736,0.307149353067901,0.445584000000053,
0.444411712158203,-0.00641646044921884,0.064308256591799,0.449086286512914,0.448644999999942,
0.137953899658203,0.309618158691406,0.0236068283691413,0.339782231683784,0.451694999999972,
-0.441442902099609,-0.0303584770507814,0.026001030029299,0.443248831364001,0.454782999999907,
0.104435076416016,-0.310480071289063,0.0714908615722667,0.335284212485505,0.457779000000073,
0.367797259033203,0.0462559760742186,0.0667024582519549,0.376647921820591,0.460755000000063,
-0.0344286198730467,0.264128327148437,0.047548844970704,0.270573457173173,0.463796999999886,
-0.293002399169922,-0.0327526787109377,-0.0314598098144518,0.296501034594542,0.466719999999896,
0.0254264216308596,-0.200346794921875,0.0283952316894549,0.203940261682474,0.469826999999896,
0.231327764404297,0.0390733710937499,-0.0554018264160145,0.241057307051975,0.472847999999885,
-0.0392170231933592,0.0917458076171874,-0.0147003981933587,0.100853209321874,0.47596099999987,
-0.223570551025391,0.0749863959960937,0.0954328781738294,0.254389829016061,0.47898599999985,
0.14034810131836,-0.183587383300781,-0.0362482131347637,0.233914193255475,0.481980000000021,
0.039791631591797,-0.0375410820312502,0.0188184250488295,0.0578518790198967,0.48507399999994,
-0.0440054265136717,0.120476227539062,-0.02667140649414,0.131005201763402,0.488063999999895,
-0.10864887133789,0.0893516059570312,-0.0458250197753891,0.147946676770764,0.4911689999999,
0.068522051513672,-0.0495120903320314,-0.110468464599608,0.139104278524006,0.494248999999854,
-0.0224576115722654,0.244974713867187,0.00924161840820403,0.246175470473083,0.49721599999998,
-0.094283661376953,-0.162039568359375,0.195989347900392,0.271215882660211,0.50027,
0.0948582697753907,-0.384700322753906,0.0331836350097667,0.397609838037494,0.503297999999859,
0.00148440502929703,-0.245836626464844,0.406679093994143,0.475211253930084,0.506396999999879,
0.286394402587891,0.235397907226562,-0.651558039794921,0.749641119324254,0.509393000000046,
-0.00569819995117171,0.647200592773437,0.210354557861329,0.680551332951459,0.512365999999929,
-0.199628534423828,-0.245836626464844,0.124163298095704,0.340152500008192,0.515370999999959,
-0.00569819995117171,-0.57384225390625,-0.17990031274414,0.601407951706933,0.518346999999949,
0.097252471435547,0.187513874023437,-0.155958296142577,0.262569012427772,0.521385999999893,
0.0182438166503908,0.467635468261719,0.169653129638673,0.497793081931164,0.524425000000065,
0.0804930598144533,-0.181193181640625,0.0667024582519549,0.209187283763138,0.527475999999979,
-0.0894952580566405,-0.365546709472656,-0.0889206496582027,0.386704900352385,0.530493999999862,
-0.0631590397949217,0.0606211860351561,0.00924161840820403,0.0880306765561208,0.533535999999913,
0.0350032282714846,0.333560175292969,0.085856071533204,0.346206414657522,0.536593000000039,
0.116406084716797,-0.0734541069335939,-0.0601902297363264,0.150228979029406,0.539567000000034,
-0.101466266357422,-0.332027886230469,-0.0194888015136705,0.347732273204009,0.542517999999973,
-0.0918894597167967,-0.00162805712890635,-0.0147003981933587,0.093072149884394,0.545571999999993,
0.0302148249511721,0.221032697265625,0.0595198532714853,0.23089175351408,0.548587999999882,
0.068522051513672,-0.0135990654296876,-0.02667140649414,0.0747768015401762,0.551670999999942,
-0.0487938298339842,-0.281749651367188,-0.0601902297363264,0.292209800710228,0.554597000000058,
-0.094283661376953,-0.0303584770507814,0.026001030029299,0.102406540289531,0.557552999999871,
0.078098858154297,0.168360260742187,-0.0817380446777332,0.202794765686695,0.560674000000063,
0.039791631591797,0.0869574042968749,0.0930386765136735,0.133420985733892,0.563634999999977,
-0.046399628173828,-0.181193181640625,0.0188184250488295,0.187984115523202,0.566728000000012,
0.0421858332519533,-0.102184526855469,-0.02667140649414,0.113721967887534,0.569700000000012,
0.078098858154297,0.204273285644531,-0.0458250197753891,0.223443369358842,0.57277299999987,
-0.0966778630371092,0.110899420898437,-0.00272938989257732,0.147148701408529,0.575732000000016,
-0.0703416447753905,-0.174010576660156,-0.0194888015136705,0.188699340655304,0.578706999999895,
0.128377093017578,-0.195558391601563,0.047548844970704,0.238714589406433,0.581766000000016,
0.0733104548339845,0.118082025878906,-0.0434308181152332,0.145616014180415,0.584754999999859,
-0.0607648381347655,0.142024042480469,-0.0170945998535146,0.155420138785776,0.58774799999992,
-0.0320344182128905,-0.109367131835938,-0.0386424147949214,0.120335405003849,0.590743999999859,
0.0565510432128908,-0.236259819824219,0.0140300217285176,0.243338374412137,0.593726000000061,
0.049368438232422,0.0366791694335936,0.0331836350097667,0.0698838879593011,0.596833999999944,
-0.046399628173828,0.197090680664062,0.0667024582519549,0.213182738128927,0.599815999999919,
-0.0296402165527342,-0.0519062919921877,0.00924161840820403,0.060483163743922,0.602881999999909,
0.106829278076172,-0.197952593261719,0.0283952316894549,0.226724531129769,0.605825999999979,
0.00387860668945328,0.0199197578124999,0.0044532150878922,0.020776704882612,0.608846999999969,
-0.0535822331542967,0.180331269042969,0.0116358200683599,0.188482929235282,0.611926000000039,
-0.00809240161132796,0.0127371528320311,0.0212126267089854,0.0260326248772632,0.614939999999933,
0.0709162531738283,-0.138097551757813,-0.0218830031738264,0.156776639183336,0.618029999999862,
-0.00569819995117171,0.0462559760742186,0.0307894333496108,0.05585762267813,0.621067000000039,
-0.00809240161132796,0.101322614257812,0.047548844970704,0.112216985264819,0.624055999999882,
0.00866701000976578,-0.0255700737304688,-0.0170945998535146,0.0319557675114019,0.627142000000049,
0.0373974299316408,-0.116549736816406,-0.0937090529785145,0.154155102178279,0.630112999999938,
0.0134554133300783,-0.0519062919921877,-0.000335188232421402,0.0536229768607884,0.633229000000028,
-0.0248518132324217,0.0797747993164062,0.0331836350097667,0.0899043094594106,0.636264999999867,
0.011061211669922,0.0151313544921874,0.0140300217285176,0.0234125992166127,0.639245000000074,
0.0134554133300783,-0.0471178886718752,-0.0338540114746078,0.0595586910005697,0.642291999999998,
0.0182438166503908,-0.0710599052734376,-0.0218830031738264,0.0765585580542679,0.645293999999922,
-0.0487938298339842,0.0342849677734374,-0.048219221435545,0.0766902220686808,0.648402000000033,
-0.00330399829101546,0.0151313544921874,0.0044532150878922,0.016115378310617,0.651360999999952,
0.039791631591797,-0.0447236870117189,-0.0314598098144518,0.0676261913626738,0.654293999999936,
-0.00569819995117171,-0.0375410820312502,0.0164242233886736,0.0413709733591275,0.657334999999875,
-0.055976434814453,0.0199197578124999,0.0355778366699226,0.0692527289567497,0.660315999999966,
-0.00330399829101546,0.0271023627929686,-0.0314598098144518,0.0416554211025432,0.663360000000011,
0.0134554133300783,-0.0662715019531251,0.0140300217285176,0.0690637504680204,0.666384999999991,
-0.0392170231933592,-0.0231758720703126,-0.00512359155273323,0.0458404531474898,0.669462000000067,
-0.046399628173828,-0.00162805712890635,-0.0506134230957009,0.0686825644698049,0.672448000000031,
0.0613394465332033,-0.0183874687500001,-0.02667140649414,0.0693685132636385,0.675422000000026,
0.0158496149902345,-0.0327526787109377,-0.000335188232421402,0.0363876436339553,0.678490000000011,
-0.0272460148925779,-0.0279642753906251,-0.00272938989257732,0.0391381603404529,0.681450000000041,
-0.0128808049316405,0.0821690009765624,0.0499430466308599,0.0970152965461918,0.68448699999999,
0.00627280834960953,0.0151313544921874,0.0044532150878922,0.0169746027340318,0.687523000000056,
0.0182438166503908,-0.0255700737304688,-0.00512359155273323,0.0318263523978782,0.690509999999904,
-0.0200634099121092,-0.0112048637695313,0.0307894333496108,0.0384197682890619,0.693575999999894,
0.00866701000976578,0.0462559760742186,0.0188184250488295,0.0506839768211461,0.696549000000005,
0.0254264216308596,-0.00641646044921884,-0.012306196533201,0.0289675051525049,0.699613999999883,
0.039791631591797,-0.0351468803710939,-0.0147003981933587,0.0550888269216235,0.70256100000006,
0.049368438232422,0.0223139594726561,-0.0338540114746078,0.0638846583600373,0.705525999999963,
-0.0128808049316405,0.0294965644531249,0.0738850632324226,0.0805913458076201,0.708656000000019,
-0.00809240161132796,0.00316034619140615,0.0044532150878922,0.0097624728684688,0.711628000000019,
0.0278206232910158,-0.0471178886718752,0.0283952316894549,0.061647154807774,0.714692999999897,
0.0158496149902345,-0.0638773002929689,0.0307894333496108,0.0726602297962711,0.717648999999938,
-0.0296402165527342,0.00794874951171864,0.00684741674804812,0.0314422036793619,0.720626999999922,
-0.0104866032714842,0.00316034619140615,0.0140300217285176,0.0177988242849272,0.723696000000018,
-0.00809240161132796,-0.0686657036132814,-0.0170945998535146,0.0712228275252942,0.726619000000028,
-0.0320344182128905,-0.0231758720703126,-0.0242772048339823,0.0463972808579231,0.729646000000002,
-0.0248518132324217,0.000766144531249902,0.0236068283691413,0.0342853021575139,0.732653000000028,
-0.00809240161132796,0.000766144531249902,0.0403662399902363,0.0411765378854407,0.735683999999992,
0.00866701000976578,-0.0112048637695313,0.0140300217285176,0.0199375912363007,0.738759000000073,
0.00627280834960953,-0.0710599052734376,0.0044532150878922,0.0714750962691195,0.741733000000067,
0.00148440502929703,-0.00162805712890635,0.0547314499511735,0.05477577605168,0.744803000000047,
0.011061211669922,0.0462559760742186,0.0236068283691413,0.0530965919041476,0.747767999999951,
-0.00330399829101546,-0.0183874687500001,0.0212126267089854,0.0282664278541528,0.750753000000032,
-0.0200634099121092,-0.0375410820312502,0.0307894333496108,0.0525343931474277,0.753817000000026,
-0.00569819995117171,-0.00641646044921884,-0.00751779321288915,0.0114086660995791,0.75683099999992,
0.049368438232422,0.0534385810546874,0.0212126267089854,0.0757819250912882,0.759956999999986,
0.020638018310547,-0.0112048637695313,0.0379720383300786,0.0446469760098171,0.762966000000006,
-0.0272460148925779,-0.0112048637695313,-0.0769496413574213,0.0823962475156248,0.766016000000036,
-0.0344286198730467,0.00316034619140615,-0.0170945998535146,0.0385686789839121,0.76902599999994,
0.00148440502929703,0.0151313544921874,-0.00272938989257732,0.0154470358400874,0.772064999999884,
0.0373974299316408,-0.0231758720703126,0.00684741674804812,0.0445261263510866,0.775249999999915,
-0.017669208251953,-0.0303584770507814,0.0307894333496108,0.0467100337730967,0.778188999999884,
-0.0200634099121092,-0.0231758720703126,-0.0673728347167959,0.0740186484698114,0.781203999999889,
0.00387860668945328,0.0175255561523436,-0.0218830031738264,0.0283029068508187,0.784245999999939,
0.0158496149902345,-0.0112048637695313,-0.0194888015136705,0.0275058657720797,0.787248999999974,
-0.0248518132324217,-0.00641646044921884,0.0140300217285176,0.0292510699862114,0.790336999999909,
-0.0128808049316405,-0.0351468803710939,0.0355778366699226,0.0516430130571276,0.793276999999989,
0.00627280834960953,0.0342849677734374,0.0451546433105481,0.0570416422652731,0.796341999999868,
-0.0296402165527342,0.0103429511718749,0.0140300217285176,0.0343854705644615,0.799318999999969,
-0.0104866032714842,-0.0112048637695313,0.0547314499511735,0.0568423208008353,0.802236999999877,
-0.00569819995117171,-0.0279642753906251,-0.0506134230957009,0.0581049806666407,0.805302999999867,
0.00387860668945328,-0.00162805712890635,0.0499430466308599,0.050119876961528,0.808352999999897,
0.0302148249511721,-0.0183874687500001,-0.00512359155273323,0.0357391360312674,0.811408000000029,
0.020638018310547,-0.00641646044921884,0.0978270798339853,0.100186008570697,0.814435000000003,
-0.0535822331542967,-0.0447236870117189,-0.00991199487304506,0.0704947624443609,0.817342999999937,
0.00387860668945328,-0.0207816704101563,-0.0147003981933587,0.025749235365951,0.820406000000048,
0.00866701000976578,0.000766144531249902,0.0212126267089854,0.0229277031524508,0.823413999999957,
-0.00330399829101546,-0.00162805712890635,0.0236068283691413,0.0238924532095829,0.826485000000048,
0.00148440502929703,-0.0159932670898438,-0.0434308181152332,0.0463057665162402,0.829471999999896,
-0.0200634099121092,-0.0112048637695313,0.0355778366699226,0.0423541243742185,0.832450999999992,
0.0230322199707033,0.0318907661132811,0.0331836350097667,0.0514651119937796,0.835530000000063,
0.0182438166503908,-0.00402225878906259,-0.00512359155273323,0.0193717991456268,0.838469999999916,
0.00148440502929703,-0.0159932670898438,-0.0194888015136705,0.0252547309416935,0.841586000000007,
-0.0104866032714842,-0.00402225878906259,0.0810676682128921,0.081842007816373,0.844515999999885,
0.0158496149902345,0.0294965644531249,0.0116358200683599,0.035449258363741,0.84753499999988,
0.0158496149902345,-0.0112048637695313,-0.012306196533201,0.0229826399820863,0.850606999999854,
0.0445800349121095,-0.0447236870117189,0.0116358200683599,0.0642104352994928,0.853599000000031,
-0.000909796630859216,-0.0327526787109377,-0.0242772048339823,0.040779263936498,0.856616000000031,
-0.0104866032714842,0.0247081611328124,-0.0362482131347637,0.0451042684255246,0.859608999999864,
0.0134554133300783,-0.0231758720703126,-0.06497863305664,0.0702879217790099,0.862619999999879,
0.0373974299316408,-0.0255700737304688,-0.02667140649414,0.0525714785834415,0.865606999999954,
0.00387860668945328,0.0223139594726561,0.047548844970704,0.0526673431572816,0.868574999999964,
0.0158496149902345,-0.00641646044921884,-0.0673728347167959,0.0695088492050599,0.871658000000025,
0.011061211669922,-0.0351468803710939,0.0690966599121108,0.0783071006642227,0.874651999999969,
0.020638018310547,-0.0183874687500001,-0.000335188232421402,0.027643067086882,0.877701999999999,
-0.0152750065917967,-0.0231758720703126,0.0236068283691413,0.0364380188573559,0.880707999999913,
0.00866701000976578,0.0103429511718749,-0.0170945998535146,0.0217788669495213,0.883708999999953,
-0.00809240161132796,-0.0279642753906251,0.0188184250488295,0.0346644022489954,0.886735000000044,
0.020638018310547,0.0199197578124999,-0.000335188232421402,0.0286851338195637,0.889750999999933,
0.0134554133300783,-0.0183874687500001,-0.02667140649414,0.0350786413546923,0.892824000000019,
0.011061211669922,-0.0231758720703126,-0.0170945998535146,0.0308495833679824,0.895829000000049,
0.0302148249511721,-0.0279642753906251,0.0188184250488295,0.0452666484983271,0.898856999999907,
0.0182438166503908,-0.00881066210937509,0.00924161840820403,0.0222681863559094,0.901977999999872,
-0.0128808049316405,-0.0590888969726564,0.0355778366699226,0.0701654854130139,0.904948999999988,
-0.00809240161132796,0.000766144531249902,-0.00991199487304506,0.0128187980577377,0.908032999999932,
0.0326090266113283,-0.0159932670898438,0.0044532150878922,0.0365918615728201,0.911018999999897,
0.0134554133300783,-0.00881066210937509,0.00684741674804812,0.0174803612894664,0.914037999999891,
-0.0152750065917967,-0.00641646044921884,-0.0841322463378891,0.085748070910867,0.917128000000048,
-0.0320344182128905,-0.00881066210937509,-0.0314598098144518,0.045755342317651,0.920057000000043,
0.020638018310547,-0.00402225878906259,0.0427604416503922,0.047650411705349,0.923131999999896,
0.00148440502929703,-0.0255700737304688,0.00684741674804812,0.0265126242570226,0.926140999999916,
0.00387860668945328,0.00316034619140615,-0.0362482131347637,0.0365918615728178,0.929169999999885,
0.011061211669922,0.00794874951171864,0.0355778366699226,0.0380961347713723,0.932236999999986,
-0.0104866032714842,0.00794874951171864,0.00205901342773629,0.0133188213918931,0.935187999999926,
0.0254264216308596,0.00794874951171864,-0.000335188232421402,0.0266420323342917,0.938245000000052,
-0.00809240161132796,0.0390733710937499,-0.0242772048339823,0.046707579331625,0.941241999999875,
0.0182438166503908,-0.0159932670898438,0.0547314499511735,0.0598677964513307,0.944193999999925,
-0.036822821533203,-0.0255700737304688,-0.000335188232421402,0.0448314756326276,0.94728699999996,
0.0182438166503908,-0.00162805712890635,0.0307894333496108,0.0358256419618433,0.950331000000006,
-0.0248518132324217,-0.0183874687500001,-0.00512359155273323,0.0313362859696333,0.953379000000041,
-0.00569819995117171,-0.0112048637695313,0.0714908615722667,0.0725876142542396,0.95635500000003,
0.00148440502929703,0.00316034619140615,-0.0242772048339823,0.0245270039118453,0.959405999999944,
0.039791631591797,-0.0255700737304688,0.0044532150878922,0.047508249177779,0.962415999999848,
0.0350032282714846,-0.00162805712890635,-0.0194888015136705,0.0400960090767134,0.965347000000065,
0.00387860668945328,-0.00162805712890635,0.00205901342773629,0.00468334241349625,0.968452999999954,
0.0134554133300783,-0.00402225878906259,0.0116358200683599,0.018237845879179,0.971453999999994,
0.0134554133300783,0.0055545478515624,0.0403662399902363,0.0429107734801867,0.974500000000035,
0.0302148249511721,-0.0231758720703126,-0.06497863305664,0.0753145367572485,0.977472999999918,
-0.00569819995117171,-0.0638773002929689,-0.0194888015136705,0.0670268032942114,0.980419999999867,
-0.0152750065917967,-0.00162805712890635,0.0212126267089854,0.0261906839981161,0.983449000000064,
-0.0583706364746092,-0.0183874687500001,0.0307894333496108,0.0685070756599151,0.986376999999948,
0.039791631591797,0.0103429511718749,0.00924161840820403,0.0421397448317375,0.989509999999882,
0.0661278498535158,0.000766144531249902,0.0140300217285176,0.067604149380009,0.992485999999872,
0.011061211669922,-0.0375410820312502,-0.012306196533201,0.0410259151853757,0.995429000000058,
-0.00569819995117171,-0.0327526787109377,-0.0290656081542959,0.0441589970765247,0.998444000000063,
0.00387860668945328,0.00316034619140615,0.026001030029299,0.0264780086200891,1.00143800000001,
0.020638018310547,-0.0183874687500001,-0.02667140649414,0.0384108152893734,1.00449400000002,
0.0469742365722658,-0.00881066210937509,-0.00512359155273323,0.0480672222907878,1.00743199999988,
0.0230322199707033,0.00794874951171864,-0.048219221435545,0.0540255411026029,1.01039100000003,
0.00627280834960953,-0.00162805712890635,0.0595198532714853,0.0598716262353467,1.01350600000001,
0.049368438232422,0.0199197578124999,0.00924161840820403,0.0540319068293909,1.01654800000006,
0.011061211669922,-0.0135990654296876,0.0331836350097667,0.037529170209707,1.019632,
0.00148440502929703,0.0223139594726561,0.0307894333496108,0.0380539807592907,1.02262100000007,
-0.0128808049316405,-0.00162805712890635,-0.0362482131347637,0.0385032292303543,1.02555600000005,
-0.00569819995117171,0.0223139594726561,-0.0194888015136705,0.0301694490249676,1.02859999999987,
-0.00809240161132796,-0.0112048637695313,-0.00991199487304506,0.0170083384931054,1.03158899999994,
