X,Y,Z,Magnitude,Seconds,
-0.0272460148925779,0.0055545478515624,0.00205901342773629,0.0278825727948027,0.0,
-0.0128808049316405,0.0151313544921874,-0.048219221435545,0.0521532965430311,0.00392299999998613,
0.0158496149902345,-0.0159932670898438,0.0236068283691413,0.0326232621482868,0.00784900000007838,
-0.00569819995117171,-0.0159932670898438,0.00205901342773629,0.0171024445967883,0.0117099999999937,
0.011061211669922,0.00316034619140615,0.0212126267089854,0.0241311774174224,0.0155700000000252,
-0.017669208251953,0.00316034619140615,-0.00512359155273323,0.0186665449052485,0.019371000000092,
-0.0272460148925779,-0.0231758720703126,0.0236068283691413,0.042857306487881,0.0233089999999265,
0.0302148249511721,-0.0399352836914064,-0.0506134230957009,0.0712002888182872,0.0271569999999883,
0.011061211669922,-0.0399352836914064,0.0188184250488295,0.0455116513481805,0.0310079999999289,
-0.017669208251953,-0.0543004936523439,0.0164242233886736,0.0594180077506826,0.0349330000001373,
-0.00809240161132796,-0.0159932670898438,-0.00272938989257732,0.0181306680856445,0.0388970000001336,
0.00148440502929703,-0.0566946953125002,0.0954328781738294,0.111013180169785,0.0428690000001097,
-0.0272460148925779,-0.0255700737304688,0.0164242233886736,0.0408157948842019,0.0467960000000858,
0.0158496149902345,0.0151313544921874,0.0331836350097667,0.0397658373050075,0.0507669999999507,
0.011061211669922,-0.00881066210937509,0.00924161840820403,0.0168933620459414,0.054585999999972,
-0.000909796630859216,-0.0255700737304688,0.0547314499511735,0.0604167858649312,0.0583970000000136,
-0.00569819995117171,-0.0590888969726564,0.0116358200683599,0.060492640352294,0.0623350000000755,
0.00148440502929703,-0.0183874687500001,-0.012306196533201,0.0221753227358025,0.0661979999999858,
0.0254264216308596,0.00316034619140615,0.00924161840820403,0.0272378085719581,0.070077000000083,
-0.0152750065917967,0.0247081611328124,0.0044532150878922,0.0293879257104595,0.0741150000001198,
-0.00569819995117171,-0.00641646044921884,0.0188184250488295,0.0206826876565483,0.07798200000002,
0.0373974299316408,-0.00881066210937509,0.0044532150878922,0.0386785038091779,0.0818409999999403,
0.0254264216308596,0.0294965644531249,-0.0242772048339823,0.0458904446049363,0.0856770000000324,
0.00866701000976578,0.000766144531249902,0.0451546433105481,0.0459852786493131,0.0895009999999274,
-0.00330399829101546,0.0366791694335936,0.0044532150878922,0.0370959431698984,0.0933270000000448,
-0.017669208251953,-0.0207816704101563,-0.0147003981933587,0.03098677866979,0.0972320000000764,
-0.00809240161132796,0.0342849677734374,-0.0194888015136705,0.0402586557587795,0.101057999999966,
-0.00330399829101546,-0.0255700737304688,0.0595198532714853,0.0648641504125953,0.104921999999988,
-0.0128808049316405,-0.0399352836914064,-0.00512359155273323,0.0422728424594245,0.108905999999934,
0.00387860668945328,-0.0351468803710939,0.0116358200683599,0.037225516763837,0.112777000000051,
-0.0128808049316405,-0.0279642753906251,-0.000335188232421402,0.0307900663357656,0.116772999999966,
-0.0200634099121092,-0.0255700737304688,-0.0170945998535146,0.0367232138031888,0.12071200000014,
-0.0344286198730467,0.00316034619140615,-0.0506134230957009,0.0612946674016322,0.124624999999924,
-0.0128808049316405,-0.0112048637695313,-0.0147003981933587,0.0225292213541443,0.128443000000061,
0.011061211669922,-0.0351468803710939,0.0403662399902363,0.0546542490056917,0.132415000000037,
-0.000909796630859216,-0.0183874687500001,0.0427604416503922,0.046555151241064,0.136418000000049,
0.020638018310547,0.0151313544921874,0.00684741674804812,0.0264909947845709,0.140393000000131,
0.0350032282714846,0.0127371528320311,0.0164242233886736,0.0407089199760105,0.144381000000067,
0.0302148249511721,-0.0327526787109377,0.0762792648925803,0.0883413825006396,0.148451000000023,
-0.017669208251953,0.0151313544921874,-0.0386424147949214,0.0451042684255258,0.152360000000044,
0.020638018310547,-0.0543004936523439,0.064308256591799,0.0866603904707991,0.156273000000056,
-0.017669208251953,-0.0135990654296876,0.0116358200683599,0.0251501055559426,0.160115000000133,
0.0373974299316408,0.0271023627929686,-0.00512359155273323,0.046468882328424,0.163988000000018,
-0.00330399829101546,-0.0447236870117189,0.0116358200683599,0.0463305179475956,0.167875000000095,
0.0230322199707033,-0.0135990654296876,0.0427604416503922,0.0504368229320244,0.171831000000111,
-0.000909796630859216,-0.0135990654296876,0.00205901342773629,0.0137841157411727,0.175668999999971,
0.00148440502929703,-0.00881066210937509,-0.000335188232421402,0.00894111717000365,0.179603999999927,
-0.0104866032714842,-0.0183874687500001,-0.00751779321288915,0.0224629710857111,0.183561000000054,
0.0182438166503908,-0.0159932670898438,-0.00512359155273323,0.024796625346595,0.187452000000121,
0.0302148249511721,0.106111017578125,0.0595198532714853,0.125359868505652,0.191462000000001,
-0.00569819995117171,-0.130914946777344,0.0188184250488295,0.132383253826595,0.195345000000088,
0.0278206232910158,0.0247081611328124,0.0547314499511735,0.0661816584910309,0.199327000000039,
0.011061211669922,0.0606211860351561,-0.0554018264160145,0.0828651975810474,0.20313699999997,
-0.00330399829101546,-0.0471178886718752,-0.000335188232421402,0.0472347773230001,0.207100000000082,
-0.00569819995117171,-0.0662715019531251,0.047548844970704,0.0817635255591064,0.210970000000088,
-0.00569819995117171,0.0199197578124999,0.0451546433105481,0.0496810632584993,0.214809999999943,
0.00866701000976578,-0.0590888969726564,-0.02667140649414,0.0654062591219696,0.218773999999939,
0.0350032282714846,-0.0495120903320314,0.0595198532714853,0.0849663816572887,0.222741000000042,
-0.0631590397949217,0.0247081611328124,-0.0410366164550773,0.0792689184009889,0.226660999999922,
0.0637336481933595,-0.0519062919921877,0.145711113037111,0.167296053518685,0.23050000000012,
0.0134554133300783,-0.0471178886718752,-0.124833674560545,0.134106636245439,0.234327000000121,
0.00387860668945328,0.0773805976562499,0.188806742919922,0.204085243600608,0.238170000000082,
0.0373974299316408,-0.118943938476563,-0.110468464599608,0.166581841557845,0.242073000000119,
0.0445800349121095,0.0558327827148436,0.0667024582519549,0.0977440385665623,0.246049000000085,
-0.0727358464355467,-0.0806367119140626,-0.012306196533201,0.10928963875007,0.24991799999998,
0.0900698664550782,-0.0255700737304688,0.0595198532714853,0.110946033941175,0.253891999999951,
-0.0703416447753905,0.0223139594726561,-0.00751779321288915,0.0741780088155938,0.257884999999987,
0.0182438166503908,-0.0495120903320314,-0.000335188232421402,0.0527673789966061,0.261913999999933,
0.00627280834960953,-0.0207816704101563,-0.0290656081542959,0.0362772039579454,0.265799000000015,
-0.0152750065917967,-0.0543004936523439,-0.00272938989257732,0.0564740560474753,0.269712000000027,
0.0541568415527345,-0.0471178886718752,-0.0625844313964823,0.0952358649516253,0.273666999999932,
0.0517626398925783,0.00316034619140615,-0.0434308181152332,0.0676431418464336,0.277563999999984,
0.0350032282714846,-0.00881066210937509,0.064308256591799,0.0737455464560938,0.281574000000091,
-0.0392170231933592,-0.0662715019531251,0.047548844970704,0.090502925573263,0.285464999999931,
0.0326090266113283,0.0606211860351561,0.047548844970704,0.0836610391454431,0.289444000000003,
0.00387860668945328,-0.0375410820312502,0.0667024582519549,0.0766393786951741,0.29338800000005,
-0.00330399829101546,0.0342849677734374,0.0379720383300786,0.0512664716444737,0.297413000000006,
0.0254264216308596,-0.0351468803710939,0.102615483154299,0.111408004648501,0.301337999999987,
-0.16610971118164,-0.169222173339844,-0.143987287841796,0.277418310784895,0.305174000000079,
0.111617681396485,0.374261603515625,0.164864726318362,0.423922908853063,0.30902900000001,
0.10204087475586,-0.30569166796875,-0.0601902297363264,0.327845389996824,0.312714000000142,
-0.293002399169922,-0.195558391601563,-0.0194888015136705,0.35280774343764,0.315659000000096,
-0.00330399829101546,0.1348414375,0.0667024582519549,0.150473743917759,0.31865300000004,
0.147530706298828,0.187513874023437,0.0140300217285176,0.239005447138787,0.321744999999964,
0.0804930598144533,-0.193164189941406,-0.0841322463378891,0.225543281495752,0.32471200000009,
-0.240329962646484,-0.159645366699219,0.0188184250488295,0.289135378629989,0.327731999999969,
-0.0392170231933592,0.0941400092773437,-0.000335188232421402,0.101982491664197,0.330711999999949,
0.185837932861328,0.15399505078125,0.0188184250488295,0.242083345310266,0.333691999999928,
0.0278206232910158,-0.116549736816406,-0.00991199487304506,0.120233422452484,0.336753000000044,
-0.118225677978515,-0.0950019218750001,-0.0147003981933587,0.152377090799328,0.339742000000115,
-0.0583706364746092,0.0318907661132811,0.00205901342773629,0.0665461621886535,0.342865000000074,
0.166684319580078,0.0486501777343749,0.0571256516113294,0.182794535639004,0.345872000000099,
0.0182438166503908,-0.00641646044921884,-0.0242772048339823,0.0310385322658885,0.348848000000089,
-0.0751300480957029,-0.0878193168945314,-0.02667140649414,0.118609107875662,0.351902000000109,
-0.0392170231933592,0.0127371528320311,-0.0290656081542959,0.0504481867641848,0.354925000000094,
0.0828872614746095,0.0725921943359373,0.0451546433105481,0.119075046108618,0.358042999999952,
-0.0392170231933592,-0.0495120903320314,0.0116358200683599,0.0642247172501286,0.360971999999947,
-0.0272460148925779,-0.0399352836914064,0.0044532150878922,0.0485489787293072,0.363919000000124,
-0.0128808049316405,0.0103429511718749,0.0379720383300786,0.0414097508996579,0.367029000000002,
0.0565510432128908,0.0558327827148436,-0.00991199487304506,0.080084753583391,0.370057999999972,
0.011061211669922,0.0318907661132811,0.0140300217285176,0.0365542456713512,0.373137000000042,
-0.036822821533203,-0.0351468803710939,-0.0194888015136705,0.054507217594786,0.376062000000047,
-0.0344286198730467,-0.0423294853515627,-0.0290656081542959,0.0618217176554484,0.379063000000087,
0.0661278498535158,-0.0135990654296876,0.083461869873048,0.107348548334459,0.382074999999986,
-0.00569819995117171,-0.0159932670898438,0.00684741674804812,0.0183068618559289,0.385011999999961,
-0.00569819995117171,-0.0183874687500001,0.0212126267089854,0.0286451395809223,0.388116000000082,
0.00148440502929703,-0.0135990654296876,-0.048219221435545,0.0501221643058443,0.391141000000061,
0.00627280834960953,-0.00881066210937509,-0.00991199487304506,0.0146704987563402,0.394185999999991,
-0.0128808049316405,0.00316034619140615,0.0140300217285176,0.0193065904146534,0.397216000000071,
0.0134554133300783,-0.0255700737304688,0.0499430466308599,0.0576990877331445,0.400188999999955,
-0.0272460148925779,-0.0231758720703126,-0.0290656081542959,0.0460898682046841,0.403240000000096,
-0.0248518132324217,-0.00881066210937509,0.0738850632324226,0.0784489831457606,0.406191000000035,
-0.0416112248535155,0.0127371528320311,0.0307894333496108,0.053307769621946,0.409294000000045,
0.0158496149902345,-0.00402225878906259,0.0212126267089854,0.0267836590666701,0.41230500000006,
0.020638018310547,0.0294965644531249,0.00205901342773629,0.0360584893002941,0.415279000000055,
0.0302148249511721,-0.0183874687500001,0.0331836350097667,0.0484993637723591,0.418337999999949,
0.011061211669922,0.00316034619140615,-0.0242772048339823,0.0268648630409219,0.42134800000008,
0.0278206232910158,0.0103429511718749,-0.0218830031738264,0.0368758667308322,0.424416999999949,
0.0302148249511721,-0.00641646044921884,0.0547314499511735,0.0628461472588748,0.427380999999968,
0.0230322199707033,0.00316034619140615,0.085856071533204,0.0889479396273069,0.430413000000044,
-0.0128808049316405,-0.0135990654296876,-0.00272938989257732,0.0189287951395117,0.433444000000009,
-0.00330399829101546,-0.0135990654296876,0.0188184250488295,0.023451739947952,0.436402000000044,
0.0541568415527345,0.0055545478515624,0.0283952316894549,0.0614011862385501,0.439468000000033,
0.0134554133300783,0.0151313544921874,0.0140300217285176,0.0246342758439164,0.442463999999973,
0.0182438166503908,-0.0231758720703126,0.00684741674804812,0.0302794486131108,0.445422000000008,
-0.0224576115722654,-0.0375410820312502,0.00684741674804812,0.0442782596059201,0.448452000000088,
0.039791631591797,-0.0279642753906251,-0.0362482131347637,0.0606572963321254,0.451389999999947,
0.0182438166503908,0.0223139594726561,0.0140300217285176,0.0320560625002993,0.454500000000053,
0.00148440502929703,-0.0399352836914064,0.0571256516113294,0.0697163568599443,0.457535000000007,
0.0134554133300783,-0.0159932670898438,-0.0218830031738264,0.03026051169422,0.460509000000002,
-0.0152750065917967,-0.00641646044921884,-0.00751779321288915,0.0181937903106413,0.463533999999981,
0.011061211669922,0.0175255561523436,-0.0625844313964823,0.0659265240648767,0.466519000000062,
0.020638018310547,-0.0231758720703126,-0.048219221435545,0.0573423243499607,0.469556000000011,
0.0326090266113283,-0.0255700737304688,-0.0601902297363264,0.0730755844508388,0.47255999999993,
-0.00330399829101546,-0.0231758720703126,-0.00991199487304506,0.0254221378583667,0.475590000000011,
0.0182438166503908,0.0247081611328124,0.0212126267089854,0.0373270090475095,0.478665000000092,
0.0254264216308596,-0.0231758720703126,-0.0147003981933587,0.0374129078021615,0.48163999999997,
0.0134554133300783,0.0175255561523436,0.00684741674804812,0.0231318045654386,0.484767000000147,
0.00866701000976578,-0.0183874687500001,-0.0338540114746078,0.0394881015302646,0.487763000000086,
0.00627280834960953,0.0223139594726561,-0.0147003981933587,0.0274474519579063,0.49083799999994,
0.00866701000976578,-0.0207816704101563,0.00684741674804812,0.0235346978664948,0.493901000000051,
-0.00809240161132796,-0.0135990654296876,0.0140300217285176,0.0211485946129435,0.496963999999934,
0.0373974299316408,0.0247081611328124,-0.0434308181152332,0.0624123141232199,0.500043000000005,
0.0182438166503908,0.0199197578124999,0.00684741674804812,0.0278661212479092,0.503051000000141,
-0.0128808049316405,0.0223139594726561,0.0810676682128921,0.0850634748438475,0.506139000000076,
0.0469742365722658,-0.0279642753906251,-0.0362482131347637,0.0655935404985366,0.509152999999969,
0.00627280834960953,0.0103429511718749,-0.0601902297363264,0.0613937172620006,0.512163999999984,
-0.000909796630859216,-0.0135990654296876,0.0523372482910176,0.0540828056700655,0.5152250000001,
0.00387860668945328,0.0151313544921874,-0.012306196533201,0.0198857725958404,0.518181000000141,
0.00148440502929703,-0.0135990654296876,-0.0194888015136705,0.0238107417627249,0.521271999999954,
0.0158496149902345,0.0294965644531249,0.0427604416503922,0.0543112601585768,0.52424300000007,
0.0158496149902345,0.0151313544921874,0.0236068283691413,0.0322094788805563,0.527242999999999,
-0.0320344182128905,0.0103429511718749,0.0331836350097667,0.0472687446590617,0.530387000000019,
-0.000909796630859216,-0.0112048637695313,-0.0314598098144518,0.0334080280107156,0.533323999999993,
0.0326090266113283,-0.00402225878906259,0.0140300217285176,0.0357263025235916,0.536450999999943,
0.00627280834960953,0.0247081611328124,0.00205901342773629,0.0255750051310171,0.539416999999958,
0.00387860668945328,-0.0231758720703126,0.0403662399902363,0.0467075793316279,0.542390999999952,
0.0350032282714846,-0.0183874687500001,0.0619140549316413,0.073462066364459,0.545478000000003,
0.00627280834960953,-0.0255700737304688,0.0283952316894549,0.0387229386523075,0.548475999999937,
0.0326090266113283,-0.00881066210937509,-0.0625844313964823,0.0711181231231878,0.551564999999982,
-0.0296402165527342,-0.00881066210937509,-0.00751779321288915,0.0318227500208628,0.554520000000139,
0.039791631591797,-0.00881066210937509,0.064308256591799,0.0761351008235987,0.557469999999967,
-0.0128808049316405,-0.0279642753906251,-0.00512359155273323,0.031211648854377,0.560474999999997,
-0.017669208251953,0.00316034619140615,0.0499430466308599,0.0530706756606006,0.563491000000113,
-0.000909796630859216,-0.00162805712890635,0.0212126267089854,0.0212944554243415,0.566506000000118,
-0.0344286198730467,-0.0423294853515627,-0.0577960280761705,0.0794826777220823,0.569496000000072,
-0.00569819995117171,0.000766144531249902,0.0164242233886736,0.0174014819497464,0.572573000000148,
0.0278206232910158,0.0151313544921874,-0.0242772048339823,0.0399039802979601,0.575569000000087,
-0.0152750065917967,0.0247081611328124,0.0164242233886736,0.0333702587173894,0.578526000000011,
0.00866701000976578,-0.00641646044921884,0.0116358200683599,0.0158644361976409,0.581599000000097,
0.020638018310547,-0.0495120903320314,-0.0362482131347637,0.0647403108140281,0.584567000000106,
0.0302148249511721,-0.0447236870117189,0.0236068283691413,0.0589103231395165,0.587620000000015,
0.020638018310547,-0.0159932670898438,-0.0242772048339823,0.0356524202059929,0.590568000000076,
-0.00569819995117171,-0.00641646044921884,0.0355778366699226,0.0365981271309286,0.59354600000006,
0.0182438166503908,-0.0327526787109377,0.0116358200683599,0.0392551540231118,0.59660800000006,
-0.00569819995117171,-0.0447236870117189,0.00205901342773629,0.0451322190779639,0.59959200000003,
0.00148440502929703,0.00316034619140615,-0.0194888015136705,0.0197991068177275,0.602671999999984,
0.020638018310547,-0.0112048637695313,-0.00751779321288915,0.0246575340752475,0.60566300000005,
0.0373974299316408,-0.0112048637695313,0.0044532150878922,0.0392931019671999,0.608623999999963,
0.0158496149902345,0.0175255561523436,-0.0147003981933587,0.0278290697083269,0.611697999999933,
-0.00809240161132796,0.00794874951171864,0.00684741674804812,0.0132497810834942,0.614724000000024,
0.0373974299316408,-0.0303584770507814,0.0283952316894549,0.0559150612718311,0.617805000000089,
0.0350032282714846,0.0055545478515624,0.00684741674804812,0.0360966218278442,0.620836000000054,
0.0158496149902345,-0.0351468803710939,-0.0386424147949214,0.0545870837867477,0.623857999999927,
0.011061211669922,-0.0590888969726564,0.00684741674804812,0.0605040103230643,0.626960999999937,
-0.0272460148925779,-0.00402225878906259,-0.0147003981933587,0.0312189942236465,0.629932000000053,
0.00627280834960953,-0.0135990654296876,0.0451546433105481,0.0475733593269876,0.633000999999922,
0.0350032282714846,-0.0327526787109377,0.00684741674804812,0.0484236622767115,0.636024000000134,
-0.0272460148925779,0.0103429511718749,0.0188184250488295,0.0346908502027376,0.639047000000119,
0.0134554133300783,-0.00881066210937509,-0.00272938989257732,0.0163133529317099,0.642080999999962,
0.00866701000976578,0.00794874951171864,0.0331836350097667,0.0352058704447262,0.645060000000058,
-0.017669208251953,-0.0423294853515627,0.047548844970704,0.0660672302160994,0.648138000000017,
0.0373974299316408,-0.0183874687500001,0.00205901342773629,0.0417241693604536,0.651184999999941,
-0.00809240161132796,-0.0255700737304688,-0.0170945998535146,0.0318047320154158,0.654105000000072,
0.011061211669922,-0.0279642753906251,0.0762792648925803,0.0819931543135277,0.657146000000012,
0.049368438232422,-0.00881066210937509,0.0331836350097667,0.060133385841606,0.660129000000097,
0.0182438166503908,-0.0207816704101563,0.0595198532714853,0.0656302339205689,0.663219000000026,
0.0182438166503908,-0.0207816704101563,0.0140300217285176,0.0310089693590761,0.666188000000147,
0.0134554133300783,-0.0207816704101563,0.0236068283691413,0.0342083077419756,0.669304000000011,
-0.0248518132324217,0.000766144531249902,0.0690966599121108,0.0734339704046556,0.672365000000127,
0.0469742365722658,0.0151313544921874,0.0188184250488295,0.0528173258659869,0.675373000000036,
-0.00809240161132796,0.0103429511718749,0.0212126267089854,0.0249487301215427,0.678458999999975,
0.0254264216308596,-0.0231758720703126,0.0140300217285176,0.0371546157680633,0.681453000000147,
-0.00569819995117171,-0.00641646044921884,-0.0841322463378891,0.0845687609063723,0.684492999999975,
0.00148440502929703,0.0366791694335936,-0.00512359155273323,0.0370650255500858,0.687478000000056,
0.011061211669922,-0.0303584770507814,-0.00272938989257732,0.0324258708693436,0.690477999999985,
0.011061211669922,-0.0135990654296876,0.0283952316894549,0.0333702587173904,0.693598999999949,
-0.000909796630859216,0.0175255561523436,0.026001030029299,0.0313691952549469,0.696572999999944,
0.0278206232910158,-0.0135990654296876,-0.0745554396972636,0.0807306338963956,0.699602000000141,
-0.00569819995117171,-0.00641646044921884,0.00205901342773629,0.00882496366426068,0.702592000000095,
0.0254264216308596,-0.0399352836914064,0.0307894333496108,0.0564740560474762,0.705547000000024,
-0.000909796630859216,0.00794874951171864,0.0379720383300786,0.0388057475594856,0.708589999999958,
0.0469742365722658,-0.0327526787109377,-0.000335188232421402,0.0572663008709333,0.711587000000009,
-0.0200634099121092,-0.0112048637695313,0.00205901342773629,0.0230722544561791,0.714649000000009,
-0.0224576115722654,-0.0255700737304688,-0.0458250197753891,0.0570798162709654,0.717591999999968,
-0.0296402165527342,-0.0135990654296876,0.0499430466308599,0.0596471702985662,0.720520000000079,
0.00627280834960953,-0.0327526787109377,0.00205901342773629,0.0334114594657049,0.723603000000139,
0.0158496149902345,-0.0279642753906251,0.0307894333496108,0.044510675117903,0.726585999999998,
0.00387860668945328,0.0151313544921874,-0.00512359155273323,0.0164393634006597,0.729632999999922,
-0.0104866032714842,0.000766144531249902,-0.00751779321288915,0.0129256736926177,0.732568000000128,
0.0302148249511721,-0.0279642753906251,-0.0410366164550773,0.0581286524446749,0.735558000000083,
0.00627280834960953,0.0127371528320311,-0.0290656081542959,0.0323479947483074,0.738700000000108,
-0.0224576115722654,0.0175255561523436,0.0164242233886736,0.0328822832221358,0.741712000000007,
0.00148440502929703,-0.0207816704101563,0.0188184250488295,0.0280751563601306,0.744776000000002,
0.00148440502929703,0.000766144531249902,0.00205901342773629,0.00265140944204489,0.747767000000067,
0.0469742365722658,-0.0255700737304688,-0.00751779321288915,0.0540085621630549,0.750673000000006,
0.00148440502929703,0.0271023627929686,0.00924161840820403,0.0286731414054259,0.753793000000087,
0.011061211669922,-0.0351468803710939,0.0116358200683599,0.0386399522785685,0.756800000000112,
-0.000909796630859216,-0.0303584770507814,-0.0362482131347637,0.0472905679202058,0.759876000000077,
0.00627280834960953,-0.0231758720703126,-0.0194888015136705,0.0309238185748408,0.762879000000112,
-0.0296402165527342,-0.0447236870117189,-0.0170945998535146,0.0563114194579302,0.766000000000076,
-0.00569819995117171,-0.0183874687500001,0.0212126267089854,0.0286451395809223,0.769023999999945,
-0.000909796630859216,-0.0207816704101563,-0.0314598098144518,0.0377150525454674,0.772008000000142,
-0.000909796630859216,-0.0231758720703126,-0.0554018264160145,0.0600608953176626,0.775094999999965,
-0.0128808049316405,-0.00881066210937509,0.0499430466308599,0.0523244761967552,0.778205000000071,
0.011061211669922,-0.0112048637695313,0.0954328781738294,0.0967229735494186,0.781263000000081,
-0.0224576115722654,-0.0135990654296876,0.0044532150878922,0.0266291198260608,0.78427099999999,
0.00148440502929703,-0.0207816704101563,0.00924161840820403,0.0227922968155959,0.787271000000146,
-0.0296402165527342,0.00316034619140615,0.0451546433105481,0.0541061183032505,0.79039499999999,
0.00148440502929703,0.0055545478515624,-0.012306196533201,0.0135830384391736,0.793415000000095,
-0.0128808049316405,0.0247081611328124,0.0595198532714853,0.0657192612231082,0.796483999999964,
-0.017669208251953,-0.0231758720703126,0.0188184250488295,0.0346908502027377,0.799430000000029,
0.0134554133300783,0.0175255561523436,0.0140300217285176,0.0261731690101691,0.802433999999948,
0.0278206232910158,-0.00402225878906259,0.00205901342773629,0.0281851943822,0.805481999999984,
-0.000909796630859216,0.00794874951171864,-0.0410366164550773,0.0418092602038196,0.808465999999953,
-0.000909796630859216,0.0390733710937499,-0.0458250197753891,0.0602286351825626,0.811613000000079,
-0.0200634099121092,-0.00162805712890635,-0.0170945998535146,0.0264086412272212,0.814554999999928,
0.0350032282714846,0.00794874951171864,0.0044532150878922,0.0361695968023523,0.817631000000119,
0.00627280834960953,0.0055545478515624,0.026001030029299,0.0273176625832214,0.820709999999963,
0.00148440502929703,0.00316034619140615,0.0283952316894549,0.0286090969630005,0.823732999999947,
0.00148440502929703,-0.0279642753906251,-0.00512359155273323,0.0284684974456496,0.826802999999927,
-0.0344286198730467,-0.0255700737304688,0.0140300217285176,0.0451220572076123,0.829797999999982,
0.00148440502929703,-0.0159932670898438,-0.0218830031738264,0.027145052558501,0.832810000000109,
0.011061211669922,0.0294965644531249,-0.00512359155273323,0.0319162796789257,0.835908000000018,
-0.00569819995117171,0.00794874951171864,-0.0218830031738264,0.0239691036417568,0.838874000000033,
-0.0152750065917967,0.0462559760742186,0.0236068283691413,0.0541315388161856,0.841963000000078,
-0.00330399829101546,-0.00881066210937509,0.0140300217285176,0.0168933620459424,0.844956000000138,
-0.00809240161132796,-0.0231758720703126,0.00924161840820403,0.0262300499591856,0.847903000000088,
0.0278206232910158,-0.00641646044921884,-0.00272938989257732,0.0286811369053374,0.850990000000138,
-0.0320344182128905,-0.00641646044921884,0.0307894333496108,0.0448928070065226,0.853984000000082,
-0.0296402165527342,0.00794874951171864,-0.0338540114746078,0.0456926596841977,0.857069000000138,
0.0254264216308596,-0.0255700737304688,0.0810676682128921,0.0887259737450506,0.860022000000072,
0.00627280834960953,-0.0399352836914064,-0.012306196533201,0.0422565673146531,0.863051000000041,
0.0182438166503908,-0.0183874687500001,-0.02667140649414,0.0371792923195286,0.866042999999991,
-0.0152750065917967,-0.0255700737304688,0.0164242233886736,0.0340133740002678,0.869011,
0.00387860668945328,0.0103429511718749,-0.00272938989257732,0.0113784795988288,0.872057000000041,
0.020638018310547,-0.0183874687500001,-0.0147003981933587,0.0313070042300762,0.875043000000005,
-0.017669208251953,0.0127371528320311,0.026001030029299,0.0339188670963803,0.878094000000146,
0.0302148249511721,-0.0183874687500001,0.0116358200683599,0.0372347547665544,0.881106999999929,
0.00866701000976578,0.00794874951171864,0.026001030029299,0.0285368751599389,0.884107000000085,
0.00148440502929703,-0.0183874687500001,0.00924161840820403,0.020632740393028,0.887185999999929,
0.0134554133300783,-0.0159932670898438,-0.0290656081542959,0.0358000323668765,0.890129000000115,
0.0134554133300783,-0.00881066210937509,-0.0506134230957009,0.0531073866063211,0.893201999999974,
0.020638018310547,0.0055545478515624,0.00924161840820403,0.0232849374580355,0.89623000000006,
-0.036822821533203,0.0271023627929686,0.0116358200683599,0.0471789207516562,0.899237999999968,
0.0254264216308596,-0.0159932670898438,-0.00751779321288915,0.0309645720776033,0.902354000000059,
0.00627280834960953,-0.0112048637695313,-0.02667140649414,0.029601706387645,0.905349999999999,
-0.0104866032714842,-0.0327526787109377,-0.012306196533201,0.036526008323237,0.908429999999953,
0.0230322199707033,-0.0159932670898438,0.00924161840820403,0.0295241470628501,0.91141800000014,
0.0158496149902345,-0.0135990654296876,-0.00512359155273323,0.0215033966223671,0.914394000000129,
0.00866701000976578,-0.0279642753906251,-0.00512359155273323,0.0297215233632352,0.917468999999983,
0.0373974299316408,0.000766144531249902,0.0451546433105481,0.0586352842189545,0.920526999999993,
0.0230322199707033,0.0486501777343749,0.0188184250488295,0.0570215404183677,0.923596999999972,
-0.00330399829101546,-0.0207816704101563,0.00684741674804812,0.0221287447873767,0.926529000000073,
0.00627280834960953,0.0223139594726561,-0.0434308181152332,0.0492290247120206,0.929548999999952,
0.00627280834960953,-0.00641646044921884,0.00924161840820403,0.0128812499428501,0.932679000000007,
-0.0104866032714842,-0.0279642753906251,-0.0386424147949214,0.0488385684421542,0.935611000000108,
-0.000909796630859216,0.000766144531249902,0.0140300217285176,0.0140803486126929,0.938665000000128,
0.0350032282714846,-0.0207816704101563,-0.012306196533201,0.0425270065673072,0.941600000000108,
0.0134554133300783,0.0151313544921874,0.0283952316894549,0.0348754242891655,0.944598999999926,
0.0302148249511721,-0.0351468803710939,0.0451546433105481,0.064708428038029,0.947632999999996,
0.0278206232910158,0.0127371528320311,-0.02667140649414,0.0405904676856868,0.950663000000077,
-0.00330399829101546,-0.0135990654296876,0.0403662399902363,0.0427233462666176,0.953778000000057,
-0.00569819995117171,0.0055545478515624,0.0930386765136735,0.0933783583703141,0.95674299999996,
-0.00330399829101546,-0.0135990654296876,0.047548844970704,0.0495655489560642,0.959790999999996,
-0.000909796630859216,-0.0447236870117189,0.0140300217285176,0.0468815253541776,0.962754000000132,
-0.000909796630859216,-0.00402225878906259,-0.0362482131347637,0.036482040117556,0.96570399999996,
-0.0104866032714842,0.0175255561523436,-0.00272938989257732,0.0206049395972945,0.968739000000141,
-0.000909796630859216,0.0127371528320311,0.026001030029299,0.0289675051525075,0.971733000000086,
0.049368438232422,0.0223139594726561,-0.00991199487304506,0.0550763390506221,0.97483299999999,
0.00627280834960953,0.0175255561523436,-0.0170945998535146,0.0252728824472331,0.977849000000106,
0.00866701000976578,-0.00402225878906259,0.00924161840820403,0.0132929732971381,0.98080600000003,
0.011061211669922,-0.00881066210937509,-0.012306196533201,0.0187462167790241,0.983872000000019,
-0.0320344182128905,-0.00881066210937509,-0.0410366164550773,0.0527999584007892,0.986822000000075,
-0.0200634099121092,-0.0207816704101563,-0.0290656081542959,0.040978382346266,0.98982500000011,
0.0302148249511721,-0.0255700737304688,-0.0218830031738264,0.0452286429745275,0.992831000000024,
0.0254264216308596,0.00316034619140615,-0.00512359155273323,0.0261293301750929,0.995820999999978,
0.0134554133300783,0.0199197578124999,0.026001030029299,0.0354104287149479,0.998914000000013,
-0.0152750065917967,-0.0471178886718752,0.026001030029299,0.0559417091431712,1.00184800000011,
0.0230322199707033,-0.0159932670898438,0.0140300217285176,0.031354573170251,1.00492400000007,
-0.00330399829101546,-0.00641646044921884,-0.0290656081542959,0.0299482377909368,1.00787000000014,
0.011061211669922,-0.0112048637695313,-0.012306196533201,0.0199835394466131,1.01080300000012,
-0.0152750065917967,-0.0375410820312502,-0.00512359155273323,0.0408522931652034,1.01380300000005,
0.00627280834960953,-0.0112048637695313,-0.00991199487304506,0.0162217366224445,1.01679899999999,
0.00387860668945328,0.00316034619140615,-0.00991199487304506,0.0111031085856295,1.01992100000007,
0.0134554133300783,-0.0231758720703126,0.0164242233886736,0.0314312632266633,1.02292299999999,
-0.0200634099121092,-0.00402225878906259,0.0140300217285176,0.024810491586629,1.02588100000003,
-0.00569819995117171,0.00316034619140615,0.0690966599121108,0.0694032108892879,1.02895000000012,
-0.00569819995117171,-0.0231758720703126,0.0403662399902363,0.0468937507547901,1.03188300000011,
