X,Y,Z,Magnitude,Seconds,
0.00689530078125,0.000718260498046866,0.0307415493164065,0.0315135514561595,0.0,
-0.00507570751953124,-0.0256179577636719,0.0211647426757811,0.0336153075151356,0.00385400000004665,
-0.0122583125,-0.00167594116210938,-0.0554497104492189,0.0568132501537161,0.00777599999992162,
0.0308373173828125,0.00550666381835938,-0.00756567724609347,0.0322258120451416,0.0116110000003573,
0.00450109912109375,-0.00167594116210938,-0.0339018955078121,0.0342404321102899,0.0155220000001464,
0.0212605107421875,-0.0232237561035156,-0.0650265170898443,0.0722481839869354,0.0194110000002183,
0.00689530078125,-0.0184353527832031,-0.0578439121093748,0.0611009457637289,0.0232630000000427,
-0.00268150585937499,-0.00167594116210938,0.0714429775390624,0.0715129239515466,0.0271920000000136,
-0.00507570751953124,-0.0615309826660156,0.0570777675781251,0.0840814853958457,0.0310450000001765,
-0.0290177241210937,0.00311246215820311,-0.0219308872070325,0.0365058837386761,0.0348850000000311,
0.0212605107421875,-0.00167594116210938,0.00679953271484379,0.0223841850630697,0.038778000000093,
0.0260489140625,-0.0208295544433594,0.0570777675781251,0.0661081524007959,0.0426190000002862,
0.0260489140625,-0.0280121594238281,0.0475009609374997,0.0609882635382197,0.0465460000000348,
-0.000287304199218741,0.0126892687988281,-0.014748282226563,0.019457952486995,0.0507320000001528,
0.0140779057617187,-0.0208295544433594,0.00919373437499971,0.0267690590178803,0.0547270000001845,
0.0404141240234375,0.0390254870605469,-0.0554497104492189,0.0789364329685406,0.0587100000002465,
0.0308373173828125,0.0150834704589844,0.0187705410156251,0.0391252403759342,0.0626790000001165,
0.0284431157226562,0.00790086547851562,0.0259531459960929,0.039306491759206,0.0665050000002338,
-0.00986411083984373,-0.0160411511230469,-0.0434787021484375,0.0473816077452601,0.070306999999957,
0.0188663090820312,0.00550666381835938,0.0259531459960929,0.0325549804466486,0.0743230000002768,
0.0308373173828125,0.0102950671386719,-0.0578439121093748,0.0663539502883976,0.0783810000002632,
-0.00507570751953124,0.0222660754394531,0.0163763393554675,0.0281020535367911,0.0823239999999714,
0.00450109912109375,-0.0160411511230469,-0.0219308872070325,0.0275416454907459,0.0862740000002304,
0.0380199223632812,0.0557848986816406,0.0139821376953115,0.0689417840787537,0.0901590000003125,
-0.00746990917968748,0.0270544787597656,-0.014748282226563,0.031705775384774,0.0940500000001521,
0.0260489140625,0.0102950671386719,-0.0171424838867189,0.0328389872717124,0.0978840000002492,
0.0380199223632812,0.0246602770996094,0.00201112939453019,0.0453617504576377,0.101752000000033,
-0.00746990917968748,0.0294486804199219,-0.000383072265625728,0.0303837302842847,0.105651000000307,
0.0380199223632812,-0.00885854614257814,0.00919373437499971,0.0401062724274915,0.109488000000056,
0.0188663090820312,-0.0112527478027344,0.0522893642578115,0.0567163077604385,0.113333000000239,
0.035625720703125,0.0246602770996094,-0.0219308872070325,0.0485621772157527,0.117329000000154,
0.0332315190429687,0.00790086547851562,-0.000383072265625728,0.0341599806436345,0.121169000000009,
-0.0122583125,-0.00646434448242188,0.0211647426757811,0.0252982273581985,0.125159000000167,
-0.000287304199218741,0.0557848986816406,-0.0243250888671884,0.06085842105264,0.129063000000315,
0.0332315190429687,0.000718260498046866,-0.0602381137695325,0.0688002914714566,0.132934000000205,
0.0236547124023437,0.0486022937011719,-0.0123540805664071,0.0554468365057362,0.13675400000011,
0.0499909306640626,0.0126892687988281,-0.0267192905273443,0.0580864112989661,0.140742000000046,
0.0380199223632812,0.000718260498046866,0.00919373437499971,0.0391223100853086,0.144710000000032,
0.0260489140625,0.0342370837402344,0.0283473476562488,0.051519859724339,0.148599999999988,
0.0116837041015625,0.0270544787597656,-0.0626323154296884,0.0692189330933341,0.152712000000065,
0.0260489140625,0.000718260498046866,-0.00756567724609347,0.027134872289558,0.156664000000092,
0.0212605107421875,-0.00885854614257814,-0.0746033237304697,0.078077775765016,0.16056400000025,
0.00689530078125,-0.00646434448242188,-0.0626323154296884,0.0633414545028397,0.164381999999932,
0.0140779057617187,0.00311246215820311,-0.00756567724609347,0.0162823316362902,0.168226000000232,
-0.00986411083984373,-0.0160411511230469,-0.014748282226563,0.0239192608716805,0.172076000000288,
-0.0266235224609375,-0.0447715710449219,-0.00995987890625116,0.0530330529942009,0.175998000000163,
0.016472107421875,-0.0256179577636719,0.0283473476562488,0.041607477717873,0.179912999999942,
0.0260489140625,0.0246602770996094,-0.0315076938476562,0.0477431666530684,0.183833999999933,
0.00450109912109375,0.0150834704589844,0.0427125576171878,0.0455206936742681,0.187822000000324,
0.0332315190429687,-0.0160411511230469,0.00679953271484379,0.0375218074244279,0.191835000000083,
0.0428083256835937,0.000718260498046866,0.023558944335937,0.0488681133685296,0.195721999999932,
0.0380199223632812,-0.0280121594238281,0.0283473476562488,0.0550796486121701,0.19962600000008,
-0.00746990917968748,0.0126892687988281,0.00440533105468788,0.0153695812403295,0.20359899999994,
0.0308373173828125,-0.0112527478027344,-0.0458729038085934,0.0564082244031198,0.207507999999962,
0.0452025273437501,0.0390254870605469,-0.0243250888671884,0.0644823004162537,0.21149000000014,
0.0188663090820312,0.0294486804199219,-0.0841801303710934,0.0911562216535312,0.215376000000106,
0.00210689746093751,0.00550666381835938,0.0259531459960929,0.0266144350008383,0.219382000000223,
0.00450109912109375,-0.00885854614257814,-0.0219308872070325,0.0240769089948373,0.223273999999947,
-0.0266235224609375,0.0222660754394531,-0.0362960971679698,0.0502194855940417,0.227215000000342,
0.0212605107421875,-0.00646434448242188,-0.0291134921875003,0.0366250255147724,0.231101000000308,
-0.00507570751953124,-0.0208295544433594,-0.0386902988281257,0.044233159151731,0.234918000000107,
0.0188663090820312,0.0150834704589844,0.0259531459960929,0.0354544001015431,0.238753999999972,
0.00210689746093751,-0.00407014282226563,-0.0841801303710934,0.0843048007458581,0.24262200000021,
0.0140779057617187,-0.0351947644042969,-0.00517147558593756,0.0382570651232651,0.246440000000348,
0.035625720703125,0.0294486804199219,0.0211647426757811,0.0508366313461443,0.250437000000147,
-0.00507570751953124,0.0222660754394531,0.0451067592773438,0.0505584874655431,0.254526000000169,
0.0260489140625,-0.00167594116210938,0.0139821376953115,0.0296117354632418,0.258418000000347,
-0.000287304199218741,0.0318428820800781,-0.0243250888671884,0.0400719556705842,0.262352000000192,
0.0116837041015625,0.0150834704589844,-0.0482671054687511,0.0519011897065131,0.266273000000183,
0.0475967290039063,0.0102950671386719,0.0379241542968742,0.0617225930951883,0.270108000000164,
-0.00746990917968748,0.00550666381835938,-0.00517147558593756,0.010623890497231,0.273938000000271,
0.035625720703125,-0.0112527478027344,-0.0362960971679698,0.0520886069918914,0.278025000000071,
-0.0194409174804687,0.00790086547851562,0.0283473476562488,0.0352696054264324,0.281953000000158,
0.0140779057617187,-0.00167594116210938,0.0618661708984369,0.0634698299276852,0.285873000000265,
0.00210689746093751,-0.0184353527832031,-0.000383072265625728,0.0185593101572432,0.289782000000287,
-0.0146525141601562,-0.0112527478027344,0.00201112939453019,0.0185840024151706,0.293630000000121,
0.0404141240234375,0.000718260498046866,-0.00756567724609347,0.0411224609054091,0.297534000000269,
0.016472107421875,-0.0280121594238281,0.00679953271484379,0.0332000759584068,0.3014390000003,
-0.000287304199218741,0.0438138903808594,-0.014748282226563,0.0462304159903759,0.305268999999953,
-0.225342260253906,0.726161363525391,5.61641402246094,5.66764465468939,0.309177000000091,
0.174489416992188,-6.37264655883789,9.32203964196778,11.2934270178245,0.312918999999965,
-1.71453569287109,2.33506487915039,-8.21488896826172,8.7107153203878,0.315828000000238,
-1.91325443066406,0.666306322021484,-7.12552721289063,7.40794470098598,0.318819000000076,
2.36518393603516,-0.324893165283203,2.35072295800781,3.35045505050157,0.321871000000101,
0.883173108398438,0.0390254870605469,2.01553472558594,2.20088572126797,0.324896999999964,
-0.306745116699219,-0.207577283935547,-2.29402826269531,2.32373547665601,0.327955000000202,
0.282228491699219,-0.892318958740234,-0.201496011718751,0.95733311255416,0.330975000000308,
0.174489416992188,-0.0782903942871094,0.133692220703125,0.233344278602321,0.334002999999939,
-0.172669823730469,0.551384642333985,-0.206284415039063,0.61350888479051,0.337077000000136,
-0.134362597167969,0.264080443115234,-0.0626323154296884,0.302844175921784,0.340110000000095,
-0.0433829340820312,-0.133357032470703,-0.0793917270507816,0.161149692531707,0.343227000000297,
0.0260489140625,-0.284191737060547,-0.014748282226563,0.285763890591448,0.34619100000009,
0.105057568847656,-0.0567425793457031,-0.00756567724609347,0.119641349688039,0.349160000000211,
0.0763271489257813,0.244926829833984,-0.0793917270507816,0.268548006806548,0.35228300000017,
0.0667503422851563,0.144370360107422,0.0355299526367183,0.162974803595831,0.355336000000079,
-0.0769017573242188,-0.114203419189453,0.0379241542968742,0.142809462968138,0.358364000000165,
-0.155910412109375,-0.200394678955078,-0.0961511386718747,0.271497928952547,0.361275000000205,
-0.0649307490234375,-0.00885854614257814,0.0163763393554675,0.0675474684883916,0.364246000000094,
0.114634375488281,0.137187755126953,-0.00756567724609347,0.178937865396213,0.367282000000159,
0.162518408691406,0.101274730224609,0.0115879360351556,0.191841300056086,0.370284000000083,
-0.0266235224609375,-0.0328005627441406,-0.053055508789063,0.0678201730860861,0.373387000000093,
-0.131968395507812,-0.114203419189453,0.0786255825195301,0.191415936102519,0.376334000000043,
-0.0864785639648438,-0.0687135876464844,-0.0746033237304697,0.133288240532711,0.37937200000033,
0.100269165527344,0.0533906970214844,0.0570777675781251,0.127131206380229,0.382372999999916,
0.136182190429687,0.118034141845703,0.0451067592773438,0.18577477590885,0.385375000000295,
0.00210689746093751,-0.0543483776855469,0.0115879360351556,0.0556099400783404,0.388421000000108,
-0.040988732421875,-0.0591367810058594,-0.0171424838867189,0.0739668831781727,0.391394000000219,
-0.0649307490234375,-0.0447715710449219,-0.0339018955078121,0.0858477388263531,0.394423000000188,
0.0188663090820312,0.0222660754394531,0.00440533105468788,0.0295147874048848,0.397433000000092,
0.0619619389648438,0.0988805285644531,0.0786255825195301,0.140707579881128,0.400384999999915,
0.035625720703125,0.00550666381835938,-0.0817859287109375,0.0893781486557875,0.403463000000102,
-0.0146525141601562,-0.0615309826660156,-0.0482671054687511,0.0795642600002705,0.406398000000081,
-0.021835119140625,-0.0495599743652344,-0.203890213378907,0.210960144573955,0.409453000000212,
-0.060142345703125,0.00311246215820311,0.289315328613281,0.295516748320584,0.412464,
-0.0194409174804687,-0.135751234130859,-0.847930459960939,0.858948433708394,0.415431000000353,
-0.00986411083984373,-0.0304063610839844,-0.211072818359375,0.213479699566961,0.418443000000025,
0.0188663090820312,0.0988805285644531,0.0618661708984369,0.118155489289321,0.421459000000141,
-0.021835119140625,0.0198718737792969,0.114538607421874,0.118282527811709,0.42449600000009,
-0.00507570751953124,-0.0615309826660156,0.0929907924804692,0.111620392943292,0.427457000000231,
-0.00507570751953124,-0.0854729992675781,0.00440533105468788,0.0857368261152735,0.430360000000292,
-0.00986411083984373,0.0246602770996094,-0.0458729038085934,0.053007105685207,0.43344500000012,
0.0667503422851563,0.0605733020019531,0.0283473476562488,0.0944897096500438,0.436493000000155,
-0.0170467158203125,-0.0351947644042969,-0.000383072265625728,0.0391076553387332,0.439520000000357,
-0.0457771357421874,-0.0399831677246094,-0.0626323154296884,0.0872754650181647,0.44246800000019,
-0.021835119140625,0.0222660754394531,-0.000383072265625728,0.0311880952884493,0.445418000000245,
0.00689530078125,0.0462080920410156,0.0163763393554675,0.0495067412946995,0.44848200000024,
0.093086560546875,-0.0160411511230469,-0.0123540805664071,0.0952630546982446,0.451489999999922,
0.0475967290039063,0.0150834704589844,0.023558944335937,0.0552085459977179,0.454572000000098,
0.0188663090820312,0.0318428820800781,-0.000383072265625728,0.0370142337743899,0.457597000000078,
-0.0146525141601562,-0.00885854614257814,0.0283473476562488,0.0331170972477661,0.46060800000032,
0.0140779057617187,-0.0351947644042969,0.0331357509765624,0.0503471634244726,0.463724000000184,
0.0308373173828125,-0.0160411511230469,-0.050661307128907,0.0614396184292366,0.466729000000214,
0.0212605107421875,0.00790086547851562,-0.000383072265625728,0.0226843500389357,0.469825000000128,
0.0308373173828125,0.0126892687988281,-0.00995987890625116,0.0348016791813902,0.472951000000194,
-0.0242293208007812,0.0629675036621094,-0.0267192905273443,0.0725664315657699,0.476020000000062,
0.0212605107421875,0.00790086547851562,-0.014748282226563,0.0270544787597659,0.479016000000229,
0.0332315190429687,-0.0208295544433594,-0.0578439121093748,0.0698864962945571,0.482033000000229,
-0.000287304199218741,-0.0280121594238281,0.0498951625976556,0.0572214196777338,0.485131000000365,
0.0116837041015625,0.00790086547851562,-0.0339018955078121,0.0367188117436428,0.488158000000112,
0.00689530078125,-0.0256179577636719,0.00679953271484379,0.0273871973371759,0.491201000000274,
0.00210689746093751,0.0150834704589844,0.00440533105468788,0.0158542435864773,0.494196999999986,
-0.0170467158203125,0.0174776721191406,-0.0219308872070325,0.032818034015618,0.497177000000192,
0.0499909306640626,-0.00167594116210938,0.0307415493164065,0.0587106871175173,0.500250000000051,
0.0452025273437501,0.00311246215820311,0.0642603725585928,0.0786279300269177,0.503318999999919,
0.035625720703125,0.0126892687988281,-0.0291134921875003,0.0477263548327087,0.506433000000015,
-0.0194409174804687,0.00311246215820311,-0.0123540805664071,0.0232434937092064,0.509467000000313,
0.00689530078125,0.00550666381835938,-0.014748282226563,0.0171866328263185,0.512468000000354,
0.0691445439453125,-0.00885854614257814,0.0115879360351556,0.0706662724269528,0.515550999999959,
0.0308373173828125,0.0102950671386719,0.0570777675781251,0.0656871380291495,0.518589000000247,
0.0284431157226562,0.0318428820800781,0.0283473476562488,0.0512498984420692,0.521682999999939,
0.0140779057617187,-0.00646434448242188,-0.0267192905273443,0.0308852014160161,0.524699000000055,
0.0116837041015625,0.0102950671386719,-0.00756567724609347,0.0173129090887316,0.527684000000136,
-0.000287304199218741,0.00550666381835938,-0.000383072265625728,0.00552744375566216,0.530740000000151,
0.0428083256835937,0.0126892687988281,-0.0123540805664071,0.0463270287966196,0.533760000000257,
-0.00746990917968748,0.0342370837402344,-0.014748282226563,0.0380195906714282,0.536841000000095,
0.0404141240234375,0.0174776721191406,0.00679953271484379,0.0445533847022446,0.539815999999973,
0.0188663090820312,-0.0136469494628906,0.0546835659179692,0.0594345794090133,0.542836999999963,
0.0236547124023437,0.0150834704589844,0.00440533105468788,0.028398299977746,0.545938000000206,
-0.000287304199218741,0.0102950671386719,0.0187705410156251,0.0214103750810656,0.548913000000084,
-0.000287304199218741,0.000718260498046866,-0.0195366855468748,0.019551995396977,0.551977000000079,
-0.00507570751953124,-0.0160411511230469,-0.000383072265625728,0.0168293814662615,0.55494200000021,
-0.0290177241210937,0.00550666381835938,-0.00517147558593756,0.0299849265350489,0.557917000000089,
0.00928950244140625,0.00790086547851562,0.023558944335937,0.0265281433414076,0.560983000000306,
0.035625720703125,-0.00646434448242188,0.00679953271484379,0.0368403769028591,0.563992000000326,
0.0188663090820312,0.0270544787597656,-0.014748282226563,0.0361302403531404,0.567109999999957,
0.0428083256835937,0.00311246215820311,-0.00995987890625116,0.0440617675127322,0.570122999999967,
-0.03141192578125,-0.00885854614257814,-0.014748282226563,0.0358147281112295,0.573162000000139,
0.00210689746093751,-0.0328005627441406,0.00201112939453019,0.0329296306490789,0.576182000000244,
-0.000287304199218741,-0.00167594116210938,0.0331357509765624,0.0331793507359999,0.579111000000012,
-0.00507570751953124,0.00790086547851562,-0.0123540805664071,0.0155180471959169,0.582232000000204,
0.0212605107421875,-0.00407014282226563,0.023558944335937,0.0319937374783892,0.58524400000033,
-0.0194409174804687,0.0294486804199219,-0.0243250888671884,0.0428588847189669,0.588368000000173,
-0.00986411083984373,0.0222660754394531,0.00679953271484379,0.0252846285967655,0.591436000000158,
0.00689530078125,0.0174776721191406,0.00919373437499971,0.0209174316618017,0.594458000000031,
0.0404141240234375,-0.0232237561035156,0.0427125576171878,0.0632218858176419,0.597563000000264,
0.0212605107421875,0.00311246215820311,-0.00517147558593756,0.0221006990260685,0.600578999999925,
0.0116837041015625,-0.00407014282226563,0.0139821376953115,0.0186701681475331,0.60372899999993,
0.00689530078125,0.0222660754394531,0.0139821376953115,0.0271813072325445,0.606778000000304,
0.0404141240234375,-0.0256179577636719,0.0139821376953115,0.0498505903184076,0.609756000000289,
0.00928950244140625,0.0126892687988281,0.0115879360351556,0.019534396837698,0.612842000000001,
-0.00746990917968748,-0.0160411511230469,0.0475009609374997,0.0506898349029771,0.61585500000001,
0.0116837041015625,0.0222660754394531,-0.0626323154296884,0.06749143644265,0.618972000000213,
0.00689530078125,0.00311246215820311,0.0139821376953115,0.0158975711377809,0.621963000000051,
0.0116837041015625,-0.00646434448242188,0.0331357509765624,0.0357249868285636,0.624917000000096,
0.0284431157226562,-0.0328005627441406,-0.00995987890625116,0.0445430907792882,0.628018000000338,
-0.0194409174804687,0.0102950671386719,-0.000383072265625728,0.0220019186489008,0.630981000000247,
-0.0122583125,-0.0136469494628906,0.00201112939453019,0.0184539994698139,0.634094000000005,
-0.021835119140625,-0.0112527478027344,0.00679953271484379,0.0254878482053205,0.637152000000242,
0.00689530078125,-0.0328005627441406,0.0331357509765624,0.0471317311582862,0.640137000000323,
0.0284431157226562,0.0270544787597656,-0.0171424838867189,0.0428348036855714,0.643256000000292,
0.0236547124023437,-0.0256179577636719,0.0139821376953115,0.0375676104290587,0.646254000000226,
0.0116837041015625,0.0605733020019531,0.0283473476562488,0.0678911332656697,0.649385000000166,
0.00210689746093751,-0.0232237561035156,-0.0362960971679698,0.0431414943423752,0.652327000000241,
-0.0170467158203125,0.0294486804199219,0.0714429775390624,0.0791322585193937,0.655377000000044,
0.0140779057617187,0.0174776721191406,0.023558944335937,0.0325373679261829,0.658484000000044,
0.0116837041015625,-0.00407014282226563,0.0163763393554675,0.0205246070562128,0.661471000000347,
0.0140779057617187,0.0438138903808594,0.0163763393554675,0.0488469949088706,0.664565000000039,
0.016472107421875,0.000718260498046866,0.0738371791992183,0.0756556359642711,0.667607000000316,
0.016472107421875,0.0222660754394531,-0.014748282226563,0.0313786594204972,0.670634000000064,
0.0236547124023437,0.00311246215820311,0.0163763393554675,0.0289381639052873,0.673685000000205,
0.0188663090820312,0.00311246215820311,-0.000383072265625728,0.019125161003915,0.676668999999947,
-0.0170467158203125,0.0102950671386719,-0.0578439121093748,0.0611759519400011,0.67975800000022,
0.0116837041015625,0.0294486804199219,-0.0339018955078121,0.0464012094565451,0.682743000000301,
0.00210689746093751,0.00311246215820311,0.0283473476562488,0.0285954289483719,0.685803000000305,
-0.0146525141601562,-0.00167594116210938,-0.0434787021484375,0.0459118992256362,0.688778000000184,
-0.00746990917968748,-0.0112527478027344,-0.014748282226563,0.0199983925578802,0.69170800000029,
0.00210689746093751,0.00790086547851562,0.00679953271484379,0.0106346761756405,0.694784000000254,
0.0284431157226562,0.0198718737792969,0.023558944335937,0.0419395524265162,0.697807000000012,
0.016472107421875,0.00550666381835938,0.0307415493164065,0.0353085899420986,0.700944000000163,
0.0547793339843751,-0.00407014282226563,0.0115879360351556,0.0561393066925502,0.70394400000032,
0.0260489140625,-0.0208295544433594,-0.00756567724609347,0.0342002300333848,0.706916999999976,
-0.00268150585937499,0.0174776721191406,0.0115879360351556,0.0211409497878621,0.709987000000183,
0.016472107421875,0.0318428820800781,0.0403183559570301,0.0539524725027625,0.713015000000269,
0.00689530078125,0.00550666381835938,0.0163763393554675,0.0186025000996578,0.716146000000208,
0.0188663090820312,-0.0112527478027344,-0.0267192905273443,0.0345902072525637,0.719156000000112,
0.00689530078125,0.0126892687988281,0.00201112939453019,0.0145810615853018,0.72215499999993,
-0.0362003291015625,0.0174776721191406,0.023558944335937,0.0465935264601145,0.725287000000208,
0.0116837041015625,-0.0375889660644531,0.00919373437499971,0.0404223213470668,0.728313000000071,
-0.000287304199218741,-0.0136469494628906,-0.0243250888671884,0.0278932199959451,0.731384000000162,
-0.00986411083984373,0.0294486804199219,0.0187705410156251,0.0362885473828132,0.734401000000162,
0.0140779057617187,-0.00407014282226563,-0.0386902988281257,0.0413726082890496,0.737450999999965,
-0.00268150585937499,-0.00885854614257814,0.0115879360351556,0.0148305284797578,0.740504000000328,
0.0452025273437501,0.0174776721191406,-0.00277727392578164,0.0485432873982128,0.743486000000303,
0.035625720703125,0.0198718737792969,0.0307415493164065,0.0510796064735274,0.746593000000303,
-0.0194409174804687,-0.0160411511230469,0.0307415493164065,0.0397531213391839,0.749608999999964,
0.0499909306640626,-0.00167594116210938,0.00679953271484379,0.0504790607339142,0.752585000000181,
0.0380199223632812,-0.0280121594238281,-0.00277727392578164,0.0473065410123666,0.755611999999928,
0.016472107421875,0.0150834704589844,-0.00277727392578164,0.0225067690809603,0.758577000000059,
0.00450109912109375,0.0126892687988281,-0.0793917270507816,0.0805252988821068,0.761678000000302,
0.00928950244140625,-0.0232237561035156,0.0187705410156251,0.0312725264918544,0.764646000000084,
0.00450109912109375,0.0318428820800781,-0.0434787021484375,0.0540798166877091,0.767778000000362,
0.0212605107421875,-0.0447715710449219,0.0451067592773438,0.0670158386006875,0.77076500000021,
0.00689530078125,-0.0160411511230469,-0.0386902988281257,0.0424476492355701,0.773807999999917,
0.00450109912109375,-0.00407014282226563,-0.0434787021484375,0.0439001537173174,0.776861000000281,
0.0212605107421875,0.0438138903808594,0.0139821376953115,0.0506672130855377,0.779863000000205,
0.0475967290039063,-0.0112527478027344,0.0475009609374997,0.0681792801001089,0.782920999999988,
0.00928950244140625,0.00550666381835938,0.0451067592773438,0.0463814395477497,0.785941999999977,
0.0308373173828125,-0.00407014282226563,0.0451067592773438,0.0547916593877771,0.788944000000356,
0.0236547124023437,0.00550666381835938,-0.00277727392578164,0.0244454907028853,0.792026999999962,
0.016472107421875,-0.0160411511230469,-0.000383072265625728,0.0229955560191727,0.794972000000143,
-0.00746990917968748,-0.0184353527832031,-0.00995987890625116,0.0222454706226036,0.798056999999972,
0.00928950244140625,-0.0160411511230469,0.0882023891601555,0.0901292119044699,0.801013000000239,
0.0284431157226562,-0.0375889660644531,0.0115879360351556,0.0485409256541517,0.804003000000193,
0.0116837041015625,0.0102950671386719,-0.0410845004882816,0.0439366991169596,0.807136000000355,
0.0140779057617187,0.00311246215820311,0.0259531459960929,0.0296890659741359,0.810132999999951,
-0.00507570751953124,-0.0136469494628906,0.0139821376953115,0.020186684002014,0.813172000000122,
-0.0194409174804687,-0.0184353527832031,-0.00277727392578164,0.026935566732155,0.816115999999965,
-0.0266235224609375,0.0222660754394531,0.0522893642578115,0.0627596022787713,0.819108000000142,
0.0499909306640626,0.000718260498046866,0.0858081874999996,0.0993108961234227,0.822191000000203,
-0.00986411083984373,0.0102950671386719,0.0355299526367183,0.0382840257080931,0.825126000000182,
0.016472107421875,-0.0399831677246094,-0.0410845004882816,0.0596483042892558,0.828216000000339,
0.0332315190429687,0.0126892687988281,0.0570777675781251,0.0672549102464242,0.831257000000278,
-0.00986411083984373,-0.0184353527832031,-0.0339018955078121,0.0398309105334599,0.834189000000151,
0.0212605107421875,-0.0304063610839844,-0.0219308872070325,0.0430989550346165,0.837277000000086,
0.00450109912109375,0.0222660754394531,0.0163763393554675,0.0280039729227615,0.840254000000186,
0.00450109912109375,0.00550666381835938,-0.0315076938476562,0.0323004336086061,0.843311000000085,
-0.0242293208007812,0.0174776721191406,0.0570777675781251,0.0644236025139376,0.846346000000267,
-0.00746990917968748,0.0246602770996094,0.0139821376953115,0.0293160192439722,0.849364000000151,
0.00210689746093751,0.0150834704589844,-0.0386902988281257,0.0415799148797544,0.85249500000009,
0.0188663090820312,0.0246602770996094,-0.0267192905273443,0.0409632441500046,0.855501000000004,
0.0332315190429687,0.0150834704589844,0.0403183559570301,0.0543821180726536,0.858646000000135,
0.0212605107421875,-0.0184353527832031,0.00919373437499971,0.0296039913021517,0.861654000000271,
0.0236547124023437,-0.00646434448242188,0.023558944335937,0.0340052499865652,0.864710000000287,
0.0212605107421875,-0.0112527478027344,0.0115879360351556,0.0267004477806173,0.867799999999988,
0.0212605107421875,-0.00885854614257814,0.0139821376953115,0.0269440778522759,0.870802000000367,
0.00210689746093751,-0.0304063610839844,-0.0841801303710934,0.0895280970454238,0.873884000000089,
0.0547793339843751,0.0390254870605469,-0.00995987890625116,0.067992376483778,0.876908000000185,
0.0380199223632812,0.00790086547851562,-0.0243250888671884,0.0458219174655115,0.880020000000059,
-0.0170467158203125,-0.0304063610839844,0.0642603725585928,0.0731063116016482,0.883031000000301,
-0.0194409174804687,0.0366312854003906,0.0379241542968742,0.0561964573767812,0.885995000000094,
0.0188663090820312,-0.0184353527832031,0.0355299526367183,0.0442512981164094,1.46475899999996,
0.035625720703125,0.0222660754394531,0.0307415493164065,0.0520577846768909,1.46938500000033,
0.0140779057617187,-0.0208295544433594,0.0451067592773438,0.051639882856654,1.47243800000024,
-0.0194409174804687,-0.0280121594238281,0.0427125576171878,0.0546533889733285,1.47535300000027,
-0.00507570751953124,0.0126892687988281,-0.0267192905273443,0.0300116783229024,1.47827700000016,
-0.0122583125,0.00550666381835938,-0.00517147558593756,0.0143990878701407,1.4812850000003,
0.0523851323242188,0.0126892687988281,-0.0291134921875003,0.0612602241150526,1.48424700000032,
0.0308373173828125,0.0246602770996094,-0.00277727392578164,0.0395826055289019,1.48729400000002,
0.016472107421875,0.0174776721191406,0.0283473476562488,0.0371533506532884,1.49027000000024,
0.00689530078125,0.0318428820800781,0.00679953271484379,0.0332828477923674,1.49321700000019,
-0.000287304199218741,0.0222660754394531,-0.0650265170898443,0.0687336059290804,1.49623100000008,
0.0284431157226562,0.0126892687988281,-0.00277727392578164,0.0312688603105414,1.49918200000002,
0.0332315190429687,0.00311246215820311,-0.0123540805664071,0.0355899506213582,1.50222800000029,
0.016472107421875,0.0126892687988281,0.00201112939453019,0.0208900097416982,1.50519000000031,
-0.0194409174804687,0.0102950671386719,-0.0195366855468748,0.0294214167237002,1.50811000000022,
0.0332315190429687,0.0198718737792969,-0.00756567724609347,0.0394520556827595,1.51115100000015,
0.00689530078125,-0.0184353527832031,-0.00756567724609347,0.0210866516378755,1.51409200000035,
0.0116837041015625,-0.0208295544433594,-0.0339018955078121,0.0414694803302905,1.51711599999999,
-0.00507570751953124,0.0150834704589844,0.0810197841796878,0.0825680284155682,1.52007700000013,
0.0380199223632812,0.00311246215820311,0.00201112939453019,0.038200085845947,1.52303100000017,
0.0212605107421875,0.00550666381835938,-0.0410845004882816,0.046586144332824,1.52605799999992,
-0.00746990917968748,0.0174776721191406,-0.0315076938476562,0.0367967843357894,1.52900600000021,
0.0260489140625,-0.00167594116210938,0.0283473476562488,0.0385347482379034,1.53204700000015,
-0.000287304199218741,0.0102950671386719,-0.00517147558593756,0.0115245438447081,1.53498500000023,
0.00689530078125,0.0174776721191406,-0.0171424838867189,0.0254338150770683,1.53801599999997,
-0.00746990917968748,0.00311246215820311,0.0738371791992183,0.0742793106856579,1.5409810000001,
0.035625720703125,-0.00646434448242188,-0.0219308872070325,0.0423313540876272,1.54390700000022,
0.0523851323242188,0.0246602770996094,-0.0578439121093748,0.0818428342823763,1.54694500000005,
0.035625720703125,0.00790086547851562,0.00679953271484379,0.0371193924528258,1.54992500000026,
-0.000287304199218741,-0.00885854614257814,0.0475009609374997,0.0483207788994439,1.55296500000031,
-0.0146525141601562,-0.0256179577636719,0.0475009609374997,0.0559224214531231,1.5560230000001,
0.0380199223632812,0.0198718737792969,0.0115879360351556,0.0444374405829712,1.55908600000021,
0.00450109912109375,0.0198718737792969,-0.0458729038085934,0.0501943678576659,1.56219800000008,
0.0188663090820312,0.0318428820800781,-0.0123540805664071,0.0390196112767128,1.56515400000035,
0.00210689746093751,-0.00646434448242188,0.00679953271484379,0.00961563370967063,1.56821100000025,
0.016472107421875,0.000718260498046866,-0.00517147558593756,0.0172797679613122,1.57118900000023,
0.0140779057617187,0.0486022937011719,0.00679953271484379,0.05105491189681,1.57416700000022,
0.016472107421875,-0.0280121594238281,0.0810197841796878,0.0872938533175558,1.57719399999996,
-0.0170467158203125,0.00790086547851562,0.0163763393554675,0.0249238577722937,1.58014900000035,
0.0284431157226562,0.0126892687988281,-0.00995987890625116,0.0326990452840525,1.58320200000026,
0.0332315190429687,0.0150834704589844,-0.0434787021484375,0.0567647996517454,1.586186,
0.00928950244140625,0.00311246215820311,0.0331357509765624,0.0345537301760012,1.58916100000033,
0.0236547124023437,-0.0184353527832031,-0.0315076938476562,0.0434987634614638,1.59221200000002,
0.035625720703125,0.0102950671386719,-0.0458729038085934,0.0589873180170051,1.59520300000031,
0.0116837041015625,-0.0208295544433594,-0.00756567724609347,0.025052320292416,1.59822500000018,
0.0212605107421875,-0.0112527478027344,0.0307415493164065,0.0390342990779092,1.60117700000001,
0.0116837041015625,0.00311246215820311,0.00919373437499971,0.0151895067061826,1.60413999999992,
0.0404141240234375,0.0174776721191406,0.0427125576171878,0.0613443805208559,1.60717199999999,
0.0452025273437501,-0.00407014282226563,0.0187705410156251,0.0491138244374777,1.61011600000029,
