X,Y,Z,Magnitude,Seconds,
0.0140779057617187,-0.0304063610839844,-0.00756567724609347,0.0343507452204101,0.0,
-0.000287304199218741,-0.00646434448242188,-0.0171424838867189,0.0183230741715664,0.00370000000020809,
0.0260489140625,0.00550666381835938,0.0498951625976556,0.0565543678321173,0.00743800000009287,
0.00928950244140625,-0.00167594116210938,-0.00995987890625116,0.0137223475475201,0.0111299999998664,
-0.0146525141601562,0.00550666381835938,0.0307415493164065,0.0344972806463794,0.0151040000000648,
0.0260489140625,0.0174776721191406,-0.00517147558593756,0.031792437878773,0.0190920000000006,
0.0452025273437501,0.0270544787597656,0.0163763393554675,0.0551669991019134,0.0228700000002391,
-0.00507570751953124,-0.00646434448242188,0.00679953271484379,0.0106669677768087,0.0266150000002199,
0.00210689746093751,-0.0399831677246094,0.0139821376953115,0.0424098207109604,0.0304289999999128,
0.00450109912109375,-0.0136469494628906,0.00440533105468788,0.0150301718101291,0.0342610000002423,
-0.03141192578125,-0.0280121594238281,-0.0362960971679698,0.0555769450986596,0.0381379999998899,
0.0236547124023437,0.0102950671386719,0.00201112939453019,0.0258762143225956,0.041939000000184,
0.0284431157226562,0.00790086547851562,0.0307415493164065,0.0426201520609097,0.0457280000000537,
-0.021835119140625,-0.00885854614257814,0.0163763393554675,0.0286954832391947,0.0494840000001204,
0.016472107421875,-0.00407014282226563,-0.000383072265625728,0.0169718334269495,0.0532530000000406,
0.00928950244140625,0.0294486804199219,-0.000383072265625728,0.0308814892523705,0.0570109999998749,
0.0308373173828125,-0.0304063610839844,0.00440533105468788,0.043530378811117,0.0608270000002449,
-0.0242293208007812,0.00550666381835938,-0.0243250888671884,0.0347720186539725,0.064581999999973,
-0.000287304199218741,0.0246602770996094,0.00440533105468788,0.0250523202924161,0.0683260000000701,
-0.0266235224609375,0.0126892687988281,-0.0219308872070325,0.0367531400640073,0.0720470000001114,
-0.000287304199218741,0.00550666381835938,0.0307415493164065,0.0312321748279618,0.0757800000001225,
0.0308373173828125,0.0198718737792969,0.059471969238281,0.0698766530104845,0.0794949999999517,
-0.060142345703125,-0.00167594116210938,0.0259531459960929,0.0655246237116061,0.0831849999999577,
0.0116837041015625,0.000718260498046866,-0.0458729038085934,0.0473428784877767,0.0872549999999137,
0.0284431157226562,0.0150834704589844,0.00919373437499971,0.0334820349569365,0.0911740000001373,
0.0284431157226562,0.00311246215820311,0.0187705410156251,0.0342203369755169,0.0949580000001333,
0.00450109912109375,-0.0208295544433594,0.00440533105468788,0.021760909294149,0.0987519999998767,
-0.0146525141601562,0.0126892687988281,0.0355299526367183,0.0404733399687985,0.102503999999954,
0.00689530078125,0.0174776721191406,0.00919373437499971,0.0209174316618017,0.106350999999904,
0.0116837041015625,0.0102950671386719,-0.0362960971679698,0.0394956202451529,0.110234000000219,
0.016472107421875,-0.0136469494628906,0.00201112939453019,0.0214852087260521,0.114030000000184,
-0.00268150585937499,-0.00407014282226563,0.0163763393554675,0.0170862818352307,0.117780999999923,
0.0116837041015625,-0.00407014282226563,-0.0195366855468748,0.023124815378376,0.121558000000277,
0.0116837041015625,-0.00167594116210938,-0.00277727392578164,0.0121256327987676,0.125295000000278,
0.0140779057617187,-0.00167594116210938,0.0139821376953115,0.0199122169520458,0.129030000000057,
0.035625720703125,-0.0112527478027344,0.023558944335937,0.0441683163246324,0.132826000000023,
-0.0242293208007812,0.0126892687988281,0.0403183559570301,0.048720091914875,0.136559000000034,
-0.000287304199218741,0.0222660754394531,0.0379241542968742,0.0439784281018709,0.140306000000237,
0.0380199223632812,0.0174776721191406,-0.0171424838867189,0.0452199985959811,0.14403799999991,
0.0236547124023437,-0.0136469494628906,-0.0219308872070325,0.0350249691244385,0.147753000000193,
-0.021835119140625,-0.0351947644042969,-0.014748282226563,0.043965392048674,0.151439000000209,
0.0236547124023437,0.0126892687988281,-0.0195366855468748,0.0332000759584067,0.155330000000049,
-0.000287304199218741,0.0390254870605469,-0.0482671054687511,0.0620708035580928,0.159337999999934,
0.0236547124023437,-0.00167594116210938,-0.0267192905273443,0.0357249868285641,0.163128000000142,
0.016472107421875,0.0198718737792969,0.0810197841796878,0.0850319182362793,0.166985000000295,
0.0140779057617187,0.0318428820800781,0.0498951625976556,0.0608414646474597,0.170777000000271,
0.016472107421875,-0.0351947644042969,-0.0410845004882816,0.0565503133922648,0.174578999999994,
-0.0290177241210937,0.0102950671386719,-0.0554497104492189,0.0634246569518502,0.178419000000304,
0.0332315190429687,-0.0256179577636719,0.0139821376953115,0.0442279752240041,0.182314000000133,
-0.00986411083984373,0.0102950671386719,0.00919373437499971,0.0169650771235658,0.186087999999927,
-0.00507570751953124,0.0270544787597656,-0.014748282226563,0.0312285039094221,0.189865000000282,
0.00210689746093751,0.0557848986816406,0.0403183559570301,0.0688619181036195,0.193670999999995,
0.0116837041015625,0.0318428820800781,-0.0315076938476562,0.0462948469302606,0.197427000000062,
0.0188663090820312,-0.0280121594238281,-0.0386902988281257,0.0513571603320741,0.201144999999997,
0.0332315190429687,0.0126892687988281,-0.00995987890625116,0.0369398238812706,0.204983999999968,
-0.00746990917968748,0.0150834704589844,0.0307415493164065,0.0350478740954838,0.20874300000014,
0.00689530078125,0.00311246215820311,0.00440533105468788,0.00875440090763215,0.212479000000258,
0.0140779057617187,0.0150834704589844,-0.0482671054687511,0.0524920182699659,0.21621499999992,
0.0308373173828125,0.0486022937011719,-0.00517147558593756,0.0577915846479332,0.219955999999911,
0.0332315190429687,0.0342370837402344,-0.014748282226563,0.0499402001354957,0.223703000000114,
0.00450109912109375,0.00550666381835938,-0.0698149204101561,0.0701762520485582,0.227674000000206,
-0.00268150585937499,0.00311246215820311,0.0905965908203115,0.0906896916006613,0.231657000000268,
0.00450109912109375,0.00311246215820311,0.00440533105468788,0.00702525840703065,0.235451999999896,
-0.00986411083984373,-0.0136469494628906,0.0211647426757811,0.0270460023817836,0.239210000000185,
0.00689530078125,0.0150834704589844,-0.0195366855468748,0.0256269064872924,0.243003000000044,
-0.00746990917968748,-0.0232237561035156,0.0307415493164065,0.0392451939106104,0.246816000000308,
0.00450109912109375,0.0462080920410156,-0.014748282226563,0.0487130320551209,0.25066599999991,
0.035625720703125,-0.0160411511230469,0.0618661708984369,0.0731705788319602,0.254554999999982,
0.0236547124023437,-0.0112527478027344,-0.0171424838867189,0.0313055028031168,0.258317000000261,
0.00210689746093751,-0.0232237561035156,0.104961800781249,0.10752098161619,0.262115999999878,
0.0188663090820312,-0.0328005627441406,0.0666545742187488,0.076646244519831,0.265889000000243,
-0.0338061274414062,-0.00885854614257814,0.0331357509765624,0.0481591744647429,0.269600999999966,
0.0260489140625,-0.00646434448242188,0.0355299526367183,0.0445276454328137,0.273372000000109,
0.00210689746093751,-0.0208295544433594,0.0187705410156251,0.028118367044319,0.277196000000004,
0.0212605107421875,-0.0136469494628906,-0.0650265170898443,0.0697617120740107,0.280940000000101,
0.0188663090820312,-0.00885854614257814,0.059471969238281,0.0630184622409811,0.284656000000268,
0.0428083256835937,-0.0280121594238281,0.0522893642578115,0.073153341946248,0.288374000000204,
-0.000287304199218741,0.0294486804199219,0.0379241542968742,0.0480161306365965,0.292100000000119,
0.00450109912109375,-0.00407014282226563,-0.0123540805664071,0.0137640569067709,0.295824000000266,
0.0787213505859375,-0.272220728759766,-1.12086944921875,1.15613558824063,0.299785000000156,
-0.177458227050781,0.302387669677734,-1.44169247167969,1.48371389021571,0.303775000000314,
-0.0122583125,-0.557130726318359,-1.27888675878906,1.39502553892012,0.306718000000274,
0.164912610351563,-0.308133753662109,-0.158400381835937,0.383709864565193,0.309674000000086,
0.0571735356445313,0.0964863269042969,0.332410958496093,0.350821136458267,0.312723999999889,
0.0739329472656251,-0.0328005627441406,0.248613900390625,0.261439914846899,0.315676000000167,
0.0284431157226562,-0.183635267333984,0.152845833984374,0.240609166922657,0.318686000000071,
0.0499909306640626,-0.0735019909667969,-0.0410845004882816,0.0979263601136783,0.321648999999979,
0.0571735356445313,0.0701501086425781,0.0259531459960929,0.0941457206024603,0.324607000000015,
-0.0745075556640625,0.0940921252441406,0.0738371791992183,0.140913565408338,0.32765500000005,
-0.0338061274414062,-0.116597620849609,0.00679953271484379,0.121589856014036,0.330662000000302,
-0.040988732421875,-0.121386024169922,-0.0434787021484375,0.135296121858113,0.333689999999933,
0.0140779057617187,0.0174776721191406,0.0475009609374997,0.0525356806687216,0.33667000000014,
0.0308373173828125,0.108457335205078,0.0522893642578115,0.124290431319716,0.339616000000206,
0.016472107421875,0.0701501086425781,0.0403183559570301,0.0825708053282823,0.342661000000135,
-0.0721133540039063,-0.0711077893066406,-0.0554497104492189,0.115461352472039,0.345585000000028,
-0.0385945307617187,-0.0902614025878906,0.0714429775390624,0.121411521864679,0.348592000000281,
0.08350975390625,0.0509964953613281,-0.050661307128907,0.110186612510912,0.351583000000119,
0.0667503422851563,0.0366312854003906,0.0211647426757811,0.0790278786113004,0.354534999999942,
-0.00507570751953124,0.000718260498046866,0.0187705410156251,0.0194579524869948,0.357559999999921,
-0.0649307490234375,-0.0423773693847656,0.0187705410156251,0.0797757909063694,0.36050699999987,
0.0332315190429687,-0.0112527478027344,0.00201112939453019,0.0351426070811014,0.363542999999936,
0.0715387456054688,0.0318428820800781,0.0498951625976556,0.0928508939785516,0.366516999999931,
-0.000287304199218741,0.0198718737792969,0.00679953271484379,0.0210049412363716,0.369525999999951,
-0.0505655390624999,-0.0112527478027344,-0.0195366855468748,0.0553640691780384,0.372448999999961,
-0.0242293208007812,-0.0256179577636719,0.0522893642578115,0.0630675618756151,0.375387000000046,
0.0188663090820312,0.0102950671386719,0.0307415493164065,0.0375095838438865,0.378427999999985,
0.0236547124023437,0.0557848986816406,0.0546835659179692,0.0816198059374279,0.38140999999996,
-0.0385945307617187,-0.0208295544433594,0.0953849941406251,0.104984309543061,0.38439500000004,
0.0332315190429687,-0.0830787976074219,0.023558944335937,0.092528073188746,0.387373999999909,
0.00689530078125,0.0270544787597656,-0.00756567724609347,0.0289262763939394,0.390338000000156,
0.0452025273437501,0.0677559069824219,-0.0769975253906257,0.11208367555337,0.393391000000065,
-0.00986411083984373,-0.00646434448242188,0.0331357509765624,0.0351719550925009,0.396346999999878,
-0.00986411083984373,-0.0950498059082031,0.0379241542968742,0.10281054306335,0.399362999999994,
-0.0362003291015625,0.00311246215820311,0.0379241542968742,0.0525204029580962,0.402336000000105,
0.0595677373046876,0.101274730224609,-0.00517147558593756,0.117607952407155,0.40529800000013,
0.016472107421875,0.00550666381835938,-0.0195366855468748,0.0261406914882465,0.408343999999943,
-0.0457771357421874,-0.0495599743652344,0.0187705410156251,0.070029068434905,0.411301999999978,
0.0140779057617187,-0.0543483776855469,0.0259531459960929,0.0618506214583265,0.414330000000064,
0.016472107421875,0.0174776721191406,0.0283473476562488,0.0371533506532884,0.41731400000026,
0.0188663090820312,0.0486022937011719,0.00919373437499971,0.0529400162745702,0.420262999999977,
-0.0194409174804687,-0.0447715710449219,-0.00995987890625116,0.0498160820834002,0.423271000000113,
-0.00746990917968748,-0.0304063610839844,0.0307415493164065,0.0438792569660822,0.426324000000022,
0.0236547124023437,-0.00646434448242188,0.0522893642578115,0.0577538811069101,0.42946400000028,
0.0691445439453125,0.0581791003417969,0.0211647426757811,0.0928101395673886,0.432542999999896,
-0.0122583125,0.0246602770996094,0.0618661708984369,0.0677186724147172,0.435523000000103,
-0.0146525141601562,-0.0256179577636719,0.00440533105468788,0.0298392840546862,0.438525000000027,
0.0188663090820312,-0.0304063610839844,0.0115879360351556,0.0376133576579283,0.441495999999916,
0.0188663090820312,0.0366312854003906,-0.0123540805664071,0.0430164154144076,0.444551999999931,
0.0188663090820312,0.0414196887207031,0.0259531459960929,0.0523936448359263,0.447558000000299,
0.00210689746093751,-0.0495599743652344,-0.00756567724609347,0.0501783772972547,0.450474000000213,
-0.0745075556640625,-0.0591367810058594,-0.0339018955078121,0.100984519792842,0.453475000000253,
0.0140779057617187,0.0749385119628906,0.0139821376953115,0.0775207596736435,0.456478000000061,
0.0188663090820312,0.0629675036621094,0.0379241542968742,0.0758886395644936,0.459533000000192,
0.0188663090820312,-0.0184353527832031,-0.014748282226563,0.0302210469582747,0.462487000000237,
-0.0290177241210937,0.0246602770996094,0.0115879360351556,0.0398049976931576,0.46554100000003,
-0.00268150585937499,0.0198718737792969,0.00919373437499971,0.0220591612019183,0.468534000000091,
0.0452025273437501,0.0342370837402344,0.00201112939453019,0.0567405588863895,0.471497999999883,
-0.00746990917968748,0.0102950671386719,-0.0195366855468748,0.0233124437307634,0.474502999999913,
-0.0170467158203125,-0.0495599743652344,-0.0219308872070325,0.0568132501537165,0.477450000000317,
0.0212605107421875,-0.00167594116210938,-0.00517147558593756,0.0219445267785266,0.480452000000241,
0.0116837041015625,0.0126892687988281,0.0115879360351556,0.0207799601957424,0.483445000000302,
0.0236547124023437,0.0294486804199219,0.0427125576171878,0.0570187054878824,0.486398999999892,
-0.00268150585937499,-0.0543483776855469,-0.0219308872070325,0.0586677121116232,0.489390000000185,
0.0212605107421875,0.0294486804199219,-0.0195366855468748,0.0412421650456281,0.49236400000018,
0.0236547124023437,0.0150834704589844,-0.00756567724609347,0.0290567715363683,0.495419000000311,
0.035625720703125,0.0174776721191406,-0.0315076938476562,0.0506694757217685,0.498411000000033,
-0.0146525141601562,-0.0375889660644531,0.00440533105468788,0.0405836602921617,0.501350000000002,
-0.00268150585937499,-0.00646434448242188,0.059471969238281,0.0598823291826589,0.504367000000002,
-0.00746990917968748,0.000718260498046866,0.00919373437499971,0.0118676110929658,0.507339000000229,
0.0260489140625,0.000718260498046866,0.00679953271484379,0.0269313101634286,0.510389999999916,
0.00450109912109375,-0.0112527478027344,-0.000383072265625728,0.0121256327987675,0.513343999999961,
-0.0290177241210937,-0.0375889660644531,-0.0339018955078121,0.0583463555158771,0.516259999999875,
0.00210689746093751,0.0342370837402344,-0.00756567724609347,0.035126292035152,0.519311000000016,
0.00210689746093751,0.0390254870605469,-0.0339018955078121,0.0517374736167744,0.522303000000193,
0.00928950244140625,-0.0280121594238281,0.0738371791992183,0.0795166961291296,0.525355000000218,
0.0236547124023437,0.0150834704589844,-0.0362960971679698,0.0458744282749262,0.528326000000106,
-0.00507570751953124,0.000718260498046866,0.0187705410156251,0.0194579524869948,0.531297999999879,
0.0284431157226562,0.000718260498046866,0.0427125576171878,0.0513214312773627,0.53434100000004,
0.0116837041015625,0.0486022937011719,-0.0482671054687511,0.0694867279764948,0.537310000000161,
0.016472107421875,-0.0280121594238281,0.0451067592773438,0.0555934450363349,0.540355000000091,
-0.040988732421875,0.0246602770996094,0.0115879360351556,0.0492187536792272,0.543317000000116,
0.00689530078125,0.0126892687988281,0.0810197841796878,0.0822968294895739,0.546282000000247,
0.00450109912109375,-0.0160411511230469,0.0307415493164065,0.0349660017305867,0.549309999999878,
-0.0266235224609375,-0.0112527478027344,0.0403183559570301,0.049608528585494,0.552255999999943,
0.0188663090820312,-0.0232237561035156,-0.0386902988281257,0.0489103229323216,0.555286000000251,
0.0404141240234375,0.0198718737792969,-0.00756567724609347,0.0456665332631474,0.558256000000256,
0.0404141240234375,-0.00407014282226563,-0.0626323154296884,0.0746503477504252,0.561274000000139,
0.0260489140625,0.0150834704589844,-0.00517147558593756,0.0305417937367554,0.564302000000225,
0.0260489140625,-0.00646434448242188,-0.0195366855468748,0.0331966226532217,0.567351000000144,
-0.0481713374023437,0.00790086547851562,0.0163763393554675,0.0514886969453051,0.570492000000286,
0.00689530078125,-0.0112527478027344,-0.00517147558593756,0.0141744017761526,0.573550000000068,
0.00689530078125,-0.00407014282226563,-0.0291134921875003,0.0301944806679828,0.576562000000195,
-0.000287304199218741,-0.00646434448242188,-0.050661307128907,0.0510728727731244,0.579497000000174,
0.0260489140625,-0.0112527478027344,-0.0243250888671884,0.0373748606063497,0.582432000000153,
0.0212605107421875,0.0414196887207031,-0.0315076938476562,0.0562168542550741,0.585499000000254,
0.00450109912109375,-0.00167594116210938,-0.0339018955078121,0.0342404321102899,0.588467999999921,
0.016472107421875,-0.00407014282226563,0.0211647426757811,0.0271264210327027,0.591517000000295,
0.016472107421875,0.0198718737792969,0.00679953271484379,0.0266918589753192,0.594493999999941,
0.0140779057617187,0.0150834704589844,0.00919373437499971,0.0225881221769526,0.597459000000072,
0.00210689746093751,-0.0256179577636719,-0.0123540805664071,0.0285191529245428,0.600486000000274,
0.00689530078125,-0.0328005627441406,-0.0195366855468748,0.0387956720698802,0.603446000000076,
0.0188663090820312,0.0222660754394531,0.0139821376953115,0.0323607155110143,0.606526999999915,
0.00450109912109375,0.0126892687988281,0.0546835659179692,0.056316692174272,0.609522000000197,
0.0140779057617187,0.0294486804199219,-0.00517147558593756,0.0330477891673024,0.612474999999904,
-0.00507570751953124,-0.0136469494628906,-0.0554497104492189,0.0573295074579289,0.615478000000167,
-0.0122583125,0.0174776721191406,0.0283473476562488,0.0354867209980871,0.618447000000288,
0.0188663090820312,-0.0160411511230469,0.0355299526367183,0.0433085867016993,0.621482000000015,
-0.000287304199218741,0.00550666381835938,0.0259531459960929,0.0265324645897404,0.624438000000282,
0.0140779057617187,-0.0208295544433594,-0.00995987890625116,0.0270417631964318,0.627374000000145,
0.0140779057617187,-0.00885854614257814,-0.0171424838867189,0.0238856865968395,0.630395000000135,
-0.00507570751953124,-0.0184353527832031,-0.0171424838867189,0.0256805333447613,0.633338999999978,
-0.00746990917968748,-0.00167594116210938,0.0451067592773438,0.0457518093023202,0.636359000000084,
0.0475967290039063,-0.0208295544433594,0.059471969238281,0.0789698301584802,0.639335000000301,
0.00450109912109375,0.0174776721191406,0.0139821376953115,0.0228304421887257,0.64229800000021,
0.0140779057617187,-0.0256179577636719,0.0379241542968742,0.0478822375182096,0.645320000000083,
-0.03141192578125,-0.0208295544433594,-0.0386902988281257,0.0540140596789881,0.648255999999947,
0.016472107421875,-0.00885854614257814,0.0307415493164065,0.03598398278472,0.651294000000235,
-0.000287304199218741,-0.00167594116210938,-0.0769975253906257,0.077016298526752,0.654230000000098,
0.0404141240234375,0.0509964953613281,0.0522893642578115,0.0834752752268948,0.657259000000067,
0.016472107421875,0.0414196887207031,-0.014748282226563,0.046951387256098,0.660227000000305,
0.0236547124023437,0.0150834704589844,0.00201112939453019,0.0281265202498672,0.663201000000299,
0.035625720703125,0.00790086547851562,0.0475009609374997,0.0598995571011384,0.666238000000249,
-0.00986411083984373,-0.0112527478027344,-0.00756567724609347,0.0167679601611145,0.6691679999999,
-0.00268150585937499,0.0222660754394531,-0.00277727392578164,0.0225982707216306,0.672183000000132,
0.0404141240234375,-0.0256179577636719,0.0115879360351556,0.0492327273479534,0.675153000000137,
0.016472107421875,0.000718260498046866,0.00679953271484379,0.0178347936966222,0.67810499999996,
0.035625720703125,0.0102950671386719,0.0331357509765624,0.0497308593912028,0.681145000000015,
0.0284431157226562,0.00550666381835938,-0.00995987890625116,0.030635491937425,0.684103999999934,
0.0428083256835937,-0.0280121594238281,0.0259531459960929,0.0573654914605733,0.687146000000212,
0.0116837041015625,-0.0208295544433594,-0.000383072265625728,0.0238856865968394,0.690089000000171,
-0.000287304199218741,-0.00407014282226563,0.0666545742187488,0.0667793446402345,0.693023000000267,
0.035625720703125,0.0102950671386719,-0.00277727392578164,0.0371872778442528,0.696054000000004,
0.00450109912109375,0.00790086547851562,-0.0291134921875003,0.0305004753398885,0.699032999999872,
0.00928950244140625,0.0222660754394531,-0.0602381137695325,0.0648899323593071,0.70206700000017,
-0.00746990917968748,-0.0112527478027344,-0.0171424838867189,0.0218240378956585,0.705101999999897,
0.00210689746093751,0.0174776721191406,-0.050661307128907,0.053632789221003,0.708157000000028,
0.0547793339843751,0.0462080920410156,-0.0219308872070325,0.0749461607791237,0.711314000000129,
-0.000287304199218741,0.000718260498046866,-0.00517147558593756,0.00522901535491066,0.714328000000023,
0.0116837041015625,-0.0184353527832031,0.0307415493164065,0.0377016448997531,0.717370000000301,
0.00210689746093751,0.00311246215820311,-0.00277727392578164,0.00467329520317066,0.72034100000019,
0.0116837041015625,0.0198718737792969,0.0163763393554675,0.0282769305215154,0.723335000000134,
0.016472107421875,-0.00407014282226563,-0.0578439121093748,0.0602811293327232,0.726371000000199,
-0.0146525141601562,-0.0280121594238281,-0.0434787021484375,0.0537566255201355,0.729307999999946,
0.0523851323242188,0.0294486804199219,0.0163763393554675,0.0622865262941034,0.732367999999951,
-0.0170467158203125,0.0174776721191406,0.0211647426757811,0.0323110797636771,0.735347000000274,
-0.00268150585937499,-0.0232237561035156,0.00919373437499971,0.025120869272131,0.738284000000021,
0.00210689746093751,0.0150834704589844,0.0259531459960929,0.0300917909917717,0.741359000000102,
0.00210689746093751,0.00790086547851562,0.0115879360351556,0.0141824875736016,0.744339000000309,
0.0140779057617187,-0.00646434448242188,0.0427125576171878,0.0454349838607305,0.747409000000061,
0.00450109912109375,0.0246602770996094,0.0642603725585928,0.0689766963640372,0.75039599999991,
-0.00746990917968748,0.00790086547851562,0.0475009609374997,0.0487295034701591,0.753403000000162,
0.0116837041015625,0.0270544787597656,-0.00756567724609347,0.0304252072250549,0.756394999999884,
0.0188663090820312,0.0102950671386719,-0.0195366855468748,0.029044932568797,0.759360000000015,
-0.00268150585937499,-0.00646434448242188,0.0259531459960929,0.0268801787634642,0.762383000000227,
0.016472107421875,0.0102950671386719,0.00919373437499971,0.0214905440151152,0.765366999999969,
0.0667503422851563,-0.0304063610839844,-0.00277727392578164,0.0734020996975835,0.768363000000136,
-0.00986411083984373,0.0198718737792969,-0.0243250888671884,0.0329226669417537,0.771332000000257,
0.0284431157226562,0.00311246215820311,-0.0554497104492189,0.0623968640365914,0.774294000000282,
0.00210689746093751,-0.0160411511230469,0.0187705410156251,0.0247808546318039,0.777355000000171,
0.0428083256835937,0.0222660754394531,0.00201112939453019,0.0482946736685278,0.780342000000019,
0.00689530078125,0.0126892687988281,-0.0123540805664071,0.0190048946893714,0.783382000000074,
-0.00986411083984373,0.0102950671386719,0.00679953271484379,0.0157962886524245,0.786372000000028,
0.0116837041015625,-0.0112527478027344,0.0211647426757811,0.0266660759613566,0.789330999999947,
0.016472107421875,0.0150834704589844,-0.00517147558593756,0.0229256529621468,0.792390999999952,
-0.00746990917968748,0.0102950671386719,0.00201112939453019,0.0128776003969716,0.795382000000245,
-0.000287304199218741,-0.0519541760253906,0.0929907924804692,0.10652045078916,0.798387000000275,
0.00689530078125,-0.00407014282226563,0.0355299526367183,0.0364209935315471,0.801375000000007,
-0.0385945307617187,0.0174776721191406,-0.00277727392578164,0.0424584511950243,0.804319000000305,
-0.00986411083984373,0.0438138903808594,-0.0219308872070325,0.0499792105445281,0.807346999999936,
0.0116837041015625,0.0102950671386719,-0.0554497104492189,0.0575948586058239,0.810327000000143,
0.016472107421875,0.00550666381835938,-0.0171424838867189,0.0244032461597353,0.813383000000158,
-0.00507570751953124,0.0174776721191406,-0.0243250888671884,0.0303799568453384,0.81635499999993,
0.00928950244140625,-0.0304063610839844,0.0139821376953115,0.0347324318830281,0.819320999999945,
-0.0290177241210937,0.00311246215820311,-0.0219308872070325,0.0365058837386761,0.822357999999895,
0.00210689746093751,0.00311246215820311,0.0714429775390624,0.0715417743506835,0.825352000000294,
-0.000287304199218741,-0.00167594116210938,-0.00517147558593756,0.00544384810751452,0.828355000000101,
0.00210689746093751,0.0126892687988281,-0.00277727392578164,0.0131594000630213,0.83134199999995,
0.0332315190429687,-0.0328005627441406,-0.0362960971679698,0.0591406581284162,0.834279000000151,
-0.0146525141601562,0.0294486804199219,-0.000383072265625728,0.0328947973705412,0.837300000000141,
0.0188663090820312,-0.0184353527832031,0.0355299526367183,0.0442512981164094,0.840271999999914,
0.0188663090820312,0.0533906970214844,-0.0434787021484375,0.0713925884621872,0.843364000000292,
0.0140779057617187,0.0222660754394531,-0.000383072265625728,0.0263460109024486,0.846446000000014,
0.0260489140625,0.00550666381835938,-0.014748282226563,0.0304365093083667,0.84958400000005,
0.00928950244140625,0.00550666381835938,0.023558944335937,0.0259160579610615,0.852674000000206,
0.00450109912109375,-0.0351947644042969,0.0570777675781251,0.0672071639520248,0.855624000000262,
-0.0146525141601562,0.0318428820800781,-0.00756567724609347,0.0358595145334038,0.858647000000019,
0.00450109912109375,0.0246602770996094,0.0259531459960929,0.0360826128075829,0.8616320000001,
0.0212605107421875,-0.00167594116210938,-0.00277727392578164,0.0215065419409153,0.864646999999877,
0.0308373173828125,0.000718260498046866,0.0475009609374997,0.056637419887361,0.867661000000226,
-0.0146525141601562,0.000718260498046866,0.0786255825195301,0.0799824624270351,0.870589999999993,
0.0188663090820312,0.000718260498046866,0.0522893642578115,0.0555934450363339,0.873646999999892,
0.00928950244140625,-0.0232237561035156,0.00440533105468788,0.0253977291281301,0.876600000000053,
-0.0122583125,-0.00646434448242188,0.0427125576171878,0.044904527089556,0.879647000000205,
0.0236547124023437,0.00550666381835938,0.0738371791992183,0.0777290022922171,0.882646999999906,
-0.00746990917968748,0.0102950671386719,0.0403183559570301,0.0422771543226401,0.885607000000164,
0.00450109912109375,-0.00167594116210938,0.023558944335937,0.02404355485989,0.888675000000148,
0.0236547124023437,-0.0280121594238281,0.0403183559570301,0.0544958376529928,0.891648000000259,
0.0188663090820312,0.0150834704589844,-0.0267192905273443,0.0360190114488227,0.894682000000103,
0.0380199223632812,-0.0160411511230469,0.00201112939453019,0.0413143760367248,0.897652999999991,
0.00928950244140625,-0.00646434448242188,-0.0578439121093748,0.0589406546732676,0.900572000000011,
-0.00986411083984373,-0.00885854614257814,0.0403183559570301,0.0424422472248902,0.903589999999895,
0.0140779057617187,0.00550666381835938,0.00440533105468788,0.0157454030988622,0.906569000000218,
0.00210689746093751,0.0438138903808594,0.0307415493164065,0.0535643431919959,0.909610000000157,
-0.0170467158203125,0.0174776721191406,0.0115879360351556,0.0270247998053184,0.912565000000086,
0.0547793339843751,-0.00407014282226563,0.0498951625976556,0.0742082794909829,0.915515000000141,
0.00450109912109375,-0.0256179577636719,0.0163763393554675,0.0307363651716435,0.918555000000197,
0.0188663090820312,0.00790086547851562,0.059471969238281,0.0628909883748648,0.921530999999959,
-0.00746990917968748,-0.00407014282226563,-0.00517147558593756,0.00995538876600848,0.924518000000262,
0.0140779057617187,-0.00167594116210938,0.0690487758789065,0.0704892166206303,0.927484000000277,
0.0547793339843751,-0.00646434448242188,-0.0171424838867189,0.0577618207397027,0.93041600000015,
0.00928950244140625,0.0150834704589844,-0.0554497104492189,0.0582106203849277,0.933457000000089,
-0.00507570751953124,0.0222660754394531,-0.00277727392578164,0.0230055248311807,0.936408999999912,
-0.00268150585937499,-0.00407014282226563,-0.0386902988281257,0.0389960992879694,0.939417000000049,
0.0380199223632812,-0.0136469494628906,0.0187705410156251,0.044543090779288,0.942401000000245,
0.0116837041015625,0.0150834704589844,0.00919373437499971,0.0211788756636884,0.945431999999983,
0.00689530078125,-0.0160411511230469,-0.0195366855468748,0.0262020187079889,0.948378999999932,
-0.00746990917968748,0.0198718737792969,0.00201112939453019,0.021324529352242,0.951343000000179,
-0.00507570751953124,-0.0256179577636719,-0.0243250888671884,0.0356896695866145,0.954342999999881,
0.0212605107421875,-0.00885854614257814,0.0187705410156251,0.0297122258809084,0.957312999999886,
0.0284431157226562,-0.0280121594238281,0.0690487758789065,0.079758544106408,0.960340000000087,
0.0188663090820312,0.0102950671386719,-0.0386902988281257,0.0442590696827007,0.963314000000082,
0.0260489140625,-0.0328005627441406,-0.0291134921875003,0.0510099820380232,0.966257000000041,
-0.00746990917968748,0.0294486804199219,-0.0362960971679698,0.0473331912219552,0.969286000000011,
-0.0170467158203125,-0.0256179577636719,0.0451067592773438,0.0546030220110939,0.97222899999997,
-0.03141192578125,0.0342370837402344,0.0163763393554675,0.049265317161346,0.975251000000299,
0.0284431157226562,0.00790086547851562,0.00679953271484379,0.0302930380196877,0.978227999999945,
0.0284431157226562,0.0222660754394531,-0.000383072265625728,0.0361238936418615,0.981177000000116,
0.0380199223632812,-0.00646434448242188,0.00201112939453019,0.0386179606859152,0.984303000000182,
-0.0242293208007812,-0.0112527478027344,0.0522893642578115,0.0587184973757436,0.987356000000091,
-0.0266235224609375,0.0174776721191406,0.0379241542968742,0.0495229487214297,0.990495999999894,
0.00928950244140625,-0.0256179577636719,0.059471969238281,0.0654178090482188,0.993531999999959,
-0.0170467158203125,0.0294486804199219,0.0905965908203115,0.0967758108568258,0.996470000000045,
-0.00986411083984373,0.0174776721191406,0.00440533105468788,0.0205469376566511,0.999498000000131,
-0.000287304199218741,0.00550666381835938,0.0522893642578115,0.0525793068097841,1.00247500000023,
0.0260489140625,-0.00407014282226563,0.0522893642578115,0.0585601366196771,1.00553799999989,
-0.00746990917968748,0.0126892687988281,-0.0195366855468748,0.0244642426402118,1.0084810000003,
-0.00986411083984373,0.00311246215820311,0.0211647426757811,0.0235570464167093,1.01145300000007,
-0.00268150585937499,0.0390254870605469,0.0187705410156251,0.0433879283212052,1.01448400000027,
0.00210689746093751,-0.0112527478027344,0.00440533105468788,0.0122666332677001,1.01746899999989,
