X,Y,Z,Magnitude,Seconds,
0.0188663090820312,0.00311246215820311,-0.0386902988281257,0.0431574357726991,0.0,
-0.000287304199218741,-0.00646434448242188,0.0211647426757811,0.0221318012331201,0.00398399999994581,
-0.00746990917968748,0.0414196887207031,0.0355299526367183,0.0550796486121704,0.00787999999965905,
0.0188663090820312,-0.0232237561035156,0.00919373437499971,0.0313018404841052,0.0117310000000543,
-0.00507570751953124,0.0174776721191406,-0.000383072265625728,0.0182038065768867,0.0156170000000202,
-0.00268150585937499,-0.0136469494628906,0.0211647426757811,0.0253254029750482,0.0194609999998647,
-0.00507570751953124,-0.0208295544433594,-0.0434787021484375,0.0484771150713947,0.0232689999998001,
0.0116837041015625,-0.0136469494628906,0.0115879360351556,0.0213782233296038,0.0271599999996397,
-0.0146525141601562,-0.00167594116210938,-0.0195366855468748,0.0244782971660591,0.0309879999999794,
0.0140779057617187,0.00550666381835938,0.0475009609374997,0.0498482905126157,0.0350089999997181,
0.00928950244140625,0.00790086547851562,-0.000383072265625728,0.0122010358281248,0.0391339999996489,
-0.0170467158203125,0.000718260498046866,-0.0195366855468748,0.0259381668696732,0.0431749999997919,
0.0499909306640626,0.00550666381835938,0.0187705410156251,0.0536819308993893,0.0471309999998084,
0.016472107421875,0.0390254870605469,-0.0315076938476562,0.0527925537820281,0.0510939999999209,
0.0140779057617187,0.0366312854003906,0.0259531459960929,0.0470489562882666,0.054964999999811,
-0.00986411083984373,-0.0112527478027344,-0.00517147558593756,0.0158325353468298,0.0588319999997111,
0.0188663090820312,-0.00167594116210938,0.0211647426757811,0.0284023366941809,0.0628269999997428,
-0.000287304199218741,-0.00646434448242188,-0.0243250888671884,0.0251710198777666,0.0667690000000221,
0.0499909306640626,0.000718260498046866,0.00679953271484379,0.0504563444171533,0.0707299999999123,
0.00928950244140625,0.000718260498046866,-0.000383072265625728,0.00932510043445318,0.0746739999999591,
0.0499909306640626,-0.00885854614257814,0.00679953271484379,0.0512230478745606,0.0786009999997077,
0.00450109912109375,-0.00646434448242188,-0.050661307128907,0.0512700271395947,0.0824999999999818,
0.0212605107421875,0.0102950671386719,-0.0482671054687511,0.0537374282482887,0.0863420000000588,
0.0212605107421875,0.0174776721191406,0.0139821376953115,0.0308703500831057,0.0901739999999336,
0.0547793339843751,-0.0280121594238281,-0.014748282226563,0.0632690156078947,0.0941639999996369,
0.00210689746093751,0.00790086547851562,0.00440533105468788,0.00928814480517516,0.0980019999997239,
-0.040988732421875,0.0509964953613281,0.0498951625976556,0.0822815044547468,0.101881999999932,
0.0140779057617187,-0.00407014282226563,0.0379241542968742,0.0406570408707102,0.105803999999807,
-0.040988732421875,-0.0256179577636719,0.00201112939453019,0.048377686870859,0.109590000000026,
0.0452025273437501,0.0318428820800781,0.0307415493164065,0.0632635793470563,0.113550999999916,
-0.0122583125,0.0102950671386719,-0.0123540805664071,0.0202207304363293,0.117473999999675,
0.0452025273437501,0.0294486804199219,-0.000383072265625728,0.0539503475530775,0.121318999999858,
0.0140779057617187,0.00311246215820311,0.0451067592773438,0.0473549847832973,0.125140999999985,
-0.00746990917968748,-0.0208295544433594,0.097779195800781,0.100251887827158,0.129030999999941,
0.0236547124023437,-0.0112527478027344,-0.0291134921875003,0.039163314202212,0.132898999999725,
0.0811155522460938,0.000718260498046866,-0.0171424838867189,0.0829102735982595,0.136807999999746,
-0.0338061274414062,0.00311246215820311,0.0475009609374997,0.0583856400432222,0.140817999999854,
-0.0146525141601562,0.0294486804199219,0.059471969238281,0.0679620193546904,0.144706000000042,
0.0428083256835937,0.00550666381835938,0.0187705410156251,0.0470660100737286,0.148629999999685,
0.0475967290039063,0.0246602770996094,-0.0458729038085934,0.0705542428372191,0.152458999999908,
-0.00507570751953124,-0.00167594116210938,0.00201112939453019,0.00571106181407817,0.156277000000046,
-0.0122583125,0.000718260498046866,0.00679953271484379,0.0140362305705963,0.160184999999728,
-0.000287304199218741,0.000718260498046866,0.00679953271484379,0.00684339732780249,0.164123999999902,
0.0308373173828125,-0.0184353527832031,-0.000383072265625728,0.0359297804052593,0.16796899999963,
0.035625720703125,-0.00646434448242188,0.00440533105468788,0.0364744659577886,0.171949000000041,
0.00210689746093751,0.0198718737792969,-0.0219308872070325,0.0296697522419516,0.175844999999754,
-0.000287304199218741,-0.0208295544433594,0.023558944335937,0.0314480005761183,0.179823999999826,
0.0260489140625,-0.00885854614257814,0.0642603725585928,0.0699028986878574,0.183730999999625,
-0.000287304199218741,-0.0208295544433594,-0.0243250888671884,0.0320259711860292,0.187668000000031,
0.0116837041015625,0.00311246215820311,0.00679953271484379,0.0138719143365055,0.191530000000057,
0.035625720703125,-0.0256179577636719,-0.0315076938476562,0.0540204267587361,0.195510000000013,
0.0380199223632812,-0.0375889660644531,0.0475009609374997,0.0715177331596186,0.199521000000004,
-0.00507570751953124,0.0246602770996094,0.00679953271484379,0.0260792200533984,0.203467999999702,
0.0308373173828125,-0.0112527478027344,-0.00995987890625116,0.0343039890436585,0.207460999999967,
0.0260489140625,0.000718260498046866,-0.0123540805664071,0.0288389515866968,0.211510999999973,
0.0140779057617187,0.0414196887207031,-0.00756567724609347,0.0443961430368431,0.215518999999858,
0.0236547124023437,-0.00407014282226563,0.0259531459960929,0.0353507746524139,0.219376999999895,
0.0332315190429687,0.0366312854003906,-0.0195366855468748,0.0531776927869716,0.223224999999729,
0.0739329472656251,-0.00646434448242188,0.00679953271484379,0.0745258484427339,0.227104999999938,
0.0116837041015625,0.0126892687988281,-0.0267192905273443,0.0318032540861217,0.230979999999818,
0.0116837041015625,-0.0208295544433594,0.023558944335937,0.0335470287516721,0.234874999999647,
0.0428083256835937,-0.0136469494628906,0.00440533105468788,0.0451464164599663,0.238878999999997,
0.035625720703125,0.0318428820800781,0.0115879360351556,0.0491674829164325,0.242934999999761,
-0.00746990917968748,0.0198718737792969,0.0283473476562488,0.0354155760901516,0.246934999999667,
0.0212605107421875,0.0366312854003906,0.023558944335937,0.0484652890771046,0.25077999999985,
-0.00268150585937499,0.0174776721191406,0.0810197841796878,0.0829268649166314,0.254662999999709,
-0.0122583125,-0.0304063610839844,0.023558944335937,0.0403712382512733,0.258446999999705,
0.0332315190429687,-0.0160411511230469,-0.0195366855468748,0.0417532569916778,0.262401999999838,
0.0523851323242188,0.0246602770996094,0.023558944335937,0.0625088410825158,0.266393999999764,
0.0619619389648438,-0.00885854614257814,-0.0123540805664071,0.0637995221509103,0.270233999999618,
0.035625720703125,0.000718260498046866,-0.050661307128907,0.0619376776588336,0.274212999999691,
-0.021835119140625,0.0102950671386719,-0.0243250888671884,0.0342705527190861,0.278084999999919,
0.0571735356445313,-0.0112527478027344,-0.00995987890625116,0.0591154522864845,0.281984999999622,
0.0236547124023437,0.00311246215820311,0.0259531459960929,0.0352533491546314,0.285861999999725,
0.0475967290039063,0.0509964953613281,0.0259531459960929,0.0744288716702314,0.28984599999967,
0.0452025273437501,0.0126892687988281,0.023558944335937,0.0525291336225448,0.293722999999773,
-0.000287304199218741,-0.0208295544433594,0.0211647426757811,0.0296967879499415,0.297627999999804,
0.0380199223632812,0.0126892687988281,0.0475009609374997,0.0621520179008269,0.301490999999714,
-0.021835119140625,-0.00646434448242188,0.0163763393554675,0.028048969110435,0.305352999999741,
0.0547793339843751,-0.207577283935547,-1.32437659033203,1.34166406274348,0.30938900000001,
-0.194217638671875,0.443645567626953,-1.03707239111328,1.14457897292225,0.313368999999966,
-0.141545202148437,-0.365594593505859,-2.27726885107422,2.31076780986858,0.316429999999855,
0.016472107421875,-0.135751234130859,-0.948486929687501,0.958293892122345,0.319410000000062,
-0.0266235224609375,0.0533906970214844,0.114538607421874,0.129145155026467,0.322517999999945,
-0.000287304199218741,-0.0782903942871094,0.148057430664062,0.167482748831566,0.325522999999976,
0.0260489140625,-0.186029468994141,0.140874825683593,0.23480039559051,0.328633999999965,
0.0188663090820312,-0.0567425793457031,-0.0650265170898443,0.0883408504261645,0.33159999999998,
-0.000287304199218741,0.180283385009766,-0.0769975253906257,0.196037752411525,0.334554000000026,
-0.0266235224609375,0.120428343505859,0.0307415493164065,0.127109561883307,0.337623999999778,
0.0212605107421875,-0.111809217529297,-0.0554497104492189,0.12660166203662,0.340610999999626,
0.00689530078125,-0.109415015869141,-0.050661307128907,0.120771515311011,0.343674999999621,
0.0404141240234375,-0.00646434448242188,0.0475009609374997,0.0627011200869257,0.34674700000005,
0.0619619389648438,0.120428343505859,-0.0195366855468748,0.136835484732601,0.349729999999909,
-0.00746990917968748,0.0222660754394531,0.00201112939453019,0.0235716418619862,0.352852999999868,
-0.0457771357421874,-0.0950498059082031,0.0427125576171878,0.113817284883041,0.355808999999681,
0.00928950244140625,-0.0112527478027344,-0.0267192905273443,0.0304440416995751,0.358901999999944,
0.0643561406250001,0.0414196887207031,0.0139821376953115,0.0777997662232694,0.361896999999772,
0.0452025273437501,0.0390254870605469,0.0331357509765624,0.0682952056249642,0.364893999999822,
-0.079295958984375,-0.0615309826660156,-0.0315076938476562,0.10519812598471,0.367952000000059,
-0.00268150585937499,-0.0495599743652344,-0.014748282226563,0.0517773440936372,0.3708859999997,
0.0643561406250001,-0.00646434448242188,0.0403183559570301,0.0762172579722597,0.373961999999665,
0.0428083256835937,0.0509964953613281,-0.0171424838867189,0.0687536183831586,0.376972999999907,
-0.0529597407226562,-0.0112527478027344,0.00679953271484379,0.0545673172848285,0.38000699999975,
-0.000287304199218741,-0.0375889660644531,0.0379241542968742,0.0533971384311053,0.382982999999967,
0.016472107421875,0.0486022937011719,0.0618661708984369,0.0803799500968205,0.386039999999866,
0.0452025273437501,0.0390254870605469,0.0187705410156251,0.0625986447824124,0.389148999999634,
-0.000287304199218741,-0.00407014282226563,0.0307415493164065,0.0310111505860325,0.392081999999846,
-0.0242293208007812,-0.0758961926269531,0.00440533105468788,0.0797915971981771,0.395078999999896,
-0.00507570751953124,0.0102950671386719,0.0139821376953115,0.0180900908992807,0.398091000000022,
0.0523851323242188,0.0270544787597656,0.0139821376953115,0.0605941175702657,0.401083999999628,
-0.00986411083984373,0.0605733020019531,-0.0339018955078121,0.0701125104179215,0.404113999999936,
-0.0194409174804687,-0.0304063610839844,0.00201112939453019,0.0361461022558944,0.407097999999678,
-0.00507570751953124,-0.0878672009277344,-0.0243250888671884,0.0913132945090434,0.41021099999989,
-0.0338061274414062,-0.0112527478027344,0.0498951625976556,0.0613107318203186,0.413188999999875,
0.0404141240234375,0.0318428820800781,0.00201112939453019,0.0514909234835528,0.416189000000031,
0.00450109912109375,-0.0232237561035156,-0.0339018955078121,0.0413393427605725,0.41925399999991,
-0.0146525141601562,-0.0591367810058594,0.0355299526367183,0.0705282395449936,0.422206999999617,
-0.0457771357421874,-0.0184353527832031,-0.0195366855468748,0.0530762703207118,0.425296999999773,
0.0547793339843751,-0.00167594116210938,0.00440533105468788,0.0549817347148302,0.428313999999773,
0.0308373173828125,0.0294486804199219,-0.00756567724609347,0.0433059394775712,0.431330999999773,
-0.00268150585937499,-0.0447715710449219,-0.00517147558593756,0.0451489557713166,0.434459999999945,
0.00928950244140625,-0.0280121594238281,0.023558944335937,0.0377624123887581,0.437478999999712,
-0.00986411083984373,0.00550666381835938,-0.00756567724609347,0.01359645178939,0.440574999999626,
0.016472107421875,-0.00885854614257814,-0.0769975253906257,0.0792365009257603,0.44353799999999,
-0.00746990917968748,-0.0208295544433594,-0.00277727392578164,0.0223020880618941,0.446557999999641,
0.0140779057617187,0.00790086547851562,-0.0386902988281257,0.0419231478941539,0.449701999999888,
0.0475967290039063,0.0150834704589844,0.00201112939453019,0.0499700343646059,0.452683999999863,
0.0523851323242188,0.0246602770996094,-0.0123540805664071,0.0592026575577204,0.455772999999681,
0.0260489140625,-0.00646434448242188,-0.00756567724609347,0.0278849985765641,0.458779999999933,
0.00450109912109375,-0.0711077893066406,-0.0195366855468748,0.0738800357033818,0.461767999999665,
0.0140779057617187,-0.00885854614257814,0.0738371791992183,0.0756874514202552,0.464852000000064,
0.0188663090820312,0.0150834704589844,0.00919373437499971,0.0258451823600423,0.467812999999751,
0.0428083256835937,-0.0136469494628906,-0.0339018955078121,0.0562861483537285,0.470894000000044,
0.0116837041015625,-0.0280121594238281,0.0187705410156251,0.0356864571951055,0.473852999999963,
0.0188663090820312,-0.00407014282226563,-0.0243250888671884,0.0310517894712847,0.476926999999705,
-0.00268150585937499,-0.0112527478027344,0.0163763393554675,0.0200499201362808,0.479984000000059,
0.0595677373046876,0.00311246215820311,0.0331357509765624,0.0682347473144531,0.483005000000048,
-0.0122583125,-0.0232237561035156,0.00679953271484379,0.0271264210327029,0.486085999999887,
0.0380199223632812,-0.00646434448242188,0.0331357509765624,0.050845651130437,0.489071999999851,
0.00210689746093751,0.0294486804199219,-0.0195366855468748,0.0354026252916795,0.49213299999974,
-0.0290177241210937,0.0366312854003906,0.0427125576171878,0.0633106780997832,0.495147999999972,
0.0212605107421875,-0.0184353527832031,-0.0171424838867189,0.032950512940867,0.498168999999962,
0.0380199223632812,-0.0280121594238281,0.0834139858398437,0.0958545179205735,0.501288999999815,
0.0284431157226562,-0.0112527478027344,0.0618661708984369,0.0690149133648588,0.504241999999977,
0.00210689746093751,-0.0423773693847656,0.0642603725585928,0.0770043890583707,0.507321999999931,
-0.00986411083984373,-0.0232237561035156,0.023558944335937,0.0345205357496097,0.510289999999713,
0.0140779057617187,-0.00167594116210938,0.0115879360351556,0.0183105562714393,0.513236999999663,
-0.00268150585937499,0.0222660754394531,0.0163763393554675,0.0277696431348102,0.516354999999749,
-0.00507570751953124,0.00790086547851562,0.0498951625976556,0.0507711899878259,0.519324999999753,
0.0212605107421875,0.0174776721191406,0.0115879360351556,0.0298623274591535,0.522420999999667,
-0.0170467158203125,-0.00646434448242188,-0.0362960971679698,0.0406175447248183,0.525338999999803,
0.035625720703125,0.00790086547851562,0.00919373437499971,0.0376316409778356,0.528325999999652,
0.0188663090820312,0.0390254870605469,-0.0410845004882816,0.0597232152438502,0.53142600000001,
0.035625720703125,0.0390254870605469,0.0427125576171878,0.0679451484223235,0.534401999999773,
0.0116837041015625,-0.00885854614257814,-0.0650265170898443,0.0666590631957041,0.53746000000001,
0.0308373173828125,-0.0160411511230469,0.0259531459960929,0.0433800006894335,0.540450999999848,
0.0140779057617187,0.0246602770996094,-0.0315076938476562,0.0424152268514856,0.543437999999696,
0.0428083256835937,0.00550666381835938,-0.000383072265625728,0.0431627482744293,0.546552999999676,
-0.0194409174804687,0.0174776721191406,0.0283473476562488,0.0385615146788973,0.549557999999706,
-0.00268150585937499,0.000718260498046866,0.0475009609374997,0.0475820098545951,0.552609999999731,
0.0236547124023437,0.0246602770996094,0.0115879360351556,0.0360826128075833,0.555620999999974,
-0.00507570751953124,0.00311246215820311,-0.0267192905273443,0.0273746363226017,0.558600999999726,
-0.0146525141601562,-0.0112527478027344,-0.0219308872070325,0.0286755003097261,0.56169299999965,
-0.0122583125,0.00550666381835938,-0.00517147558593756,0.0143990878701407,0.564665999999761,
0.0260489140625,0.00550666381835938,0.0163763393554675,0.0312578591866009,0.567841000000044,
0.00450109912109375,0.000718260498046866,-0.014748282226563,0.0154365676261052,0.570844999999736,
0.0404141240234375,0.000718260498046866,0.0475009609374997,0.0623711360222877,0.573948999999629,
0.00450109912109375,0.0150834704589844,-0.0291134921875003,0.0330963200633636,0.577002999999877,
0.00450109912109375,0.00311246215820311,0.0283473476562488,0.0288707366225455,0.580079999999725,
0.00450109912109375,0.0150834704589844,-0.0123540805664071,0.0200098545978286,0.583158999999796,
0.00450109912109375,-0.0208295544433594,0.00919373437499971,0.0232089418837834,0.586153999999624,
0.0116837041015625,-0.00407014282226563,0.00919373437499971,0.0154142711759123,0.589240999999674,
0.035625720703125,-0.0351947644042969,-0.0123540805664071,0.0515799062012748,0.592287999999826,
0.00210689746093751,0.00790086547851562,-0.014748282226563,0.0168634077473937,0.595268000000033,
-0.00746990917968748,0.00550666381835938,0.0259531459960929,0.027562450483506,0.598350999999639,
0.0523851323242188,-0.0112527478027344,-0.00517147558593756,0.0538290867605406,0.601320999999643,
0.0428083256835937,-0.00646434448242188,0.0187705410156251,0.0471876435885425,0.604405999999926,
-0.00507570751953124,0.0198718737792969,-0.0315076938476562,0.0375950654464354,0.607383000000027,
-0.00986411083984373,-0.0160411511230469,0.0618661708984369,0.0646687120147584,0.610410999999658,
0.0212605107421875,-0.0208295544433594,0.00919373437499971,0.0311513146927316,0.613489999999729,
-0.000287304199218741,0.0126892687988281,0.0139821376953115,0.0188838624460795,0.616514999999708,
0.0140779057617187,0.0150834704589844,0.0211647426757811,0.0295574837267132,0.619590999999673,
-0.021835119140625,-0.0160411511230469,0.0259531459960929,0.037518751902645,0.62257899999986,
0.0308373173828125,0.0270544787597656,0.00201112939453019,0.0410722486086708,0.625588999999763,
0.0380199223632812,-0.00646434448242188,0.0642603725585928,0.0749446310783268,0.628670000000056,
0.0116837041015625,-0.0184353527832031,0.0115879360351556,0.0247113624741511,0.631696999999804,
0.0260489140625,-0.0112527478027344,-0.0291134921875003,0.0406542209899426,0.634763000000021,
0.016472107421875,0.00790086547851562,0.0355299526367183,0.0399516148934538,0.637745999999879,
0.0188663090820312,-0.00167594116210938,0.023558944335937,0.0302286330385839,0.640754999999899,
0.0140779057617187,-0.0208295544433594,-0.0291134921875003,0.0384662604927532,0.643804999999702,
0.00928950244140625,0.0198718737792969,-0.00756567724609347,0.0232040017087841,0.646816999999828,
0.0260489140625,0.0438138903808594,-0.0315076938476562,0.0599244331282249,0.649940999999671,
-0.00507570751953124,-0.0160411511230469,0.0403183559570301,0.0436881123791592,0.652933999999732,
0.0619619389648438,-0.0447715710449219,-0.00277727392578164,0.0764950240510606,0.65587000000005,
-0.00746990917968748,0.0198718737792969,0.059471969238281,0.063147494294961,0.658967999999732,
-0.0122583125,0.00311246215820311,0.0139821376953115,0.018853482982318,0.661943999999949,
0.0284431157226562,0.000718260498046866,-0.0602381137695325,0.0666194947494095,0.665030999999999,
0.0140779057617187,0.00311246215820311,-0.00756567724609347,0.0162823316362902,0.668006999999761,
0.0475967290039063,0.0294486804199219,0.0498951625976556,0.0749813352841391,0.671100999999908,
-0.021835119140625,-0.0447715710449219,-0.0410845004882816,0.0645693594678419,0.674144999999953,
-0.00746990917968748,-0.00885854614257814,0.059471969238281,0.0605903334533819,0.67710999999963,
0.016472107421875,-0.0160411511230469,-0.000383072265625728,0.0229955560191727,0.680177999999614,
0.0260489140625,0.0390254870605469,0.0259531459960929,0.0536199622458179,0.683177999999771,
0.00689530078125,-0.0112527478027344,-0.0315076938476562,0.0341599806436345,0.686212999999952,
0.0140779057617187,0.0270544787597656,0.0211647426757811,0.0371224808455802,0.689296000000013,
-0.00268150585937499,-0.0112527478027344,-0.0123540805664071,0.0169244826634991,0.692263999999795,
-0.0242293208007812,-0.0208295544433594,0.0307415493164065,0.0443392961057017,0.695383999999649,
0.0260489140625,-0.0447715710449219,0.0163763393554675,0.054325169013556,0.698449999999866,
-0.00268150585937499,-0.0112527478027344,0.0115879360351556,0.0163736088978778,0.701551999999992,
-0.0170467158203125,0.0246602770996094,0.0115879360351556,0.0321403181135917,0.704561999999896,
0.00450109912109375,0.00311246215820311,0.0475009609374997,0.0478151503602156,0.70756799999981,
0.0284431157226562,-0.0232237561035156,0.0163763393554675,0.0402061956699888,0.710751999999957,
0.0308373173828125,-0.0232237561035156,0.0139821376953115,0.0410582898505837,0.713746999999785,
0.0404141240234375,-0.0232237561035156,-0.103333743652344,0.113360076064485,0.716801000000032,
0.00689530078125,0.0294486804199219,-0.0339018955078121,0.0454324605360661,0.719818000000032,
0.0116837041015625,0.00550666381835938,0.0475009609374997,0.0492257410094268,0.722853999999643,
-0.00746990917968748,0.0414196887207031,-0.0195366855468748,0.0464012094565453,0.725936999999703,
0.00689530078125,-0.00885854614257814,-0.0123540805664071,0.0166925827619746,0.728888999999981,
-0.00986411083984373,-0.0112527478027344,-0.0386902988281257,0.041483300726706,0.731925000000047,
-0.00507570751953124,0.0174776721191406,0.0355299526367183,0.0399200371229218,0.734912999999779,
0.0188663090820312,0.0246602770996094,0.0355299526367183,0.0471852139909919,0.737888999999996,
0.00928950244140625,0.0438138903808594,-0.0386902988281257,0.0591852267827413,0.74106699999993,
0.0404141240234375,0.00550666381835938,-0.0698149204101561,0.0808563409935588,0.744097999999667,
0.0116837041015625,-0.0208295544433594,0.00679953271484379,0.0248316919476296,0.747206999999889,
0.00689530078125,-0.0160411511230469,-0.00277727392578164,0.0176798459460246,0.75017600000001,
0.00450109912109375,-0.0304063610839844,-0.0219308872070325,0.0377593763369462,0.753153999999995,
0.0284431157226562,0.0677559069824219,0.00919373437499971,0.0740567249801196,0.756243999999697,
-0.0146525141601562,0.0102950671386719,0.0355299526367183,0.0397877130904855,0.759219999999914,
0.0140779057617187,0.000718260498046866,-0.0386902988281257,0.0411781805351882,0.762346999999863,
0.0380199223632812,0.0102950671386719,0.0546835659179692,0.0673928429835437,0.765366999999969,
-0.000287304199218741,0.0222660754394531,0.0211647426757811,0.0307214418885301,0.768393999999716,
0.0140779057617187,0.000718260498046866,0.0163763393554675,0.0216075870810306,0.771408000000065,
0.0212605107421875,0.0438138903808594,-0.00756567724609347,0.0492839302360991,0.774394999999913,
0.0308373173828125,0.0126892687988281,0.00679953271484379,0.0340322102008884,0.777447999999822,
-0.00986411083984373,-0.0304063610839844,-0.0315076938476562,0.0448840979482488,0.780441999999766,
0.0404141240234375,-0.0184353527832031,-0.0578439121093748,0.0729320356286592,0.783504999999877,
0.00450109912109375,0.00790086547851562,0.00440533105468788,0.0101039848727573,0.786523999999645,
0.016472107421875,0.00550666381835938,0.0115879360351556,0.0208790308894133,0.789472999999816,
-0.00746990917968748,-0.00885854614257814,-0.00995987890625116,0.0152798092507777,0.79250299999967,
0.0116837041015625,0.0318428820800781,0.00440533105468788,0.0342035820112459,0.795514999999796,
-0.00268150585937499,-0.00885854614257814,-0.0195366855468748,0.0216181959374855,0.798526000000038,
0.0308373173828125,-0.0328005627441406,-0.0291134921875003,0.0536135476074122,0.801512999999886,
0.0428083256835937,0.0198718737792969,-0.00517147558593756,0.047478292672219,0.804527999999664,
-0.00268150585937499,-0.0160411511230469,0.00919373437499971,0.0186824450965162,0.807594999999765,
0.0380199223632812,-0.0232237561035156,-0.0362960971679698,0.0574653287965206,0.810602999999901,
0.00689530078125,-0.0112527478027344,0.0546835659179692,0.0562535499989177,0.813679999999749,
0.0475967290039063,-0.0136469494628906,0.0475009609374997,0.068615079476015,0.816646999999648,
0.0332315190429687,0.000718260498046866,0.00919373437499971,0.0344873093732216,0.81968999999981,
-0.00986411083984373,-0.0495599743652344,0.0331357509765624,0.0604273922532172,0.822739999999612,
0.0188663090820312,0.0198718737792969,-0.0362960971679698,0.0454778589591215,0.825813999999809,
0.00210689746093751,0.0222660754394531,0.00919373437499971,0.024181436767578,0.828901999999744,
0.00210689746093751,0.0126892687988281,-0.053055508789063,0.0545925230450668,0.831932000000052,
0.016472107421875,-0.00167594116210938,-0.014748282226563,0.022173202978618,0.834914000000026,
0.0308373173828125,-0.00407014282226563,-0.0243250888671884,0.0394869111777379,0.83800599999995,
0.0380199223632812,-0.0351947644042969,-0.0482671054687511,0.0708088935679371,0.841026000000056,
-0.00746990917968748,0.0198718737792969,0.0163763393554675,0.0268118518819293,0.844162999999753,
0.00450109912109375,-0.00646434448242188,0.0618661708984369,0.0623656214954997,0.847172999999657,
0.0428083256835937,0.0150834704589844,0.0427125576171878,0.0623251667235738,0.850158999999621,
0.0380199223632812,-0.0136469494628906,-0.00517147558593756,0.0407246594324443,0.85324300000002,
0.0188663090820312,-0.0232237561035156,-0.0123540805664071,0.0323713418408257,0.856260999999904,
0.00689530078125,-0.0304063610839844,0.0355299526367183,0.0472701756036615,0.859320999999909,
-0.00268150585937499,0.000718260498046866,-0.014748282226563,0.0150072715858437,0.862280999999712,
0.00450109912109375,0.0222660754394531,0.023558944335937,0.0327270815533115,0.865382999999838,
0.0116837041015625,-0.0304063610839844,0.0403183559570301,0.0518326688776518,0.868363000000045,
0.0404141240234375,0.0246602770996094,0.0475009609374997,0.0670654305674479,0.871397999999772,
-0.000287304199218741,0.00311246215820311,-0.00995987890625116,0.0104388290634689,0.874485999999706,
0.00210689746093751,0.00550666381835938,-0.00277727392578164,0.00651733179899257,0.877502999999706,
0.0332315190429687,0.00550666381835938,0.0403183559570301,0.0525378628361433,0.880615000000034,
-0.00746990917968748,-0.0351947644042969,0.0283473476562488,0.0458044004847894,0.883565999999973,
0.0380199223632812,-0.00167594116210938,0.0115879360351556,0.0397819498874005,0.886588999999731,
0.0236547124023437,-0.0184353527832031,0.0211647426757811,0.0367063207582942,0.889660999999705,
0.00450109912109375,-0.0328005627441406,0.0187705410156251,0.0380587706008678,0.892691000000013,
0.0260489140625,0.0174776721191406,0.0331357509765624,0.045628860815502,0.895807999999761,
0.00689530078125,-0.00646434448242188,0.00919373437499971,0.0131855100094527,0.898788999999852,
0.016472107421875,0.000718260498046866,0.0115879360351556,0.0201525800486117,0.901769000000058,
-0.0122583125,0.00311246215820311,-0.00995987890625116,0.0160982245561767,0.904859999999644,
0.0212605107421875,-0.00167594116210938,0.0211647426757811,0.0300460384797988,0.907826999999997,
0.00928950244140625,-0.00167594116210938,-0.0386902988281257,0.0398251535815922,0.910906999999952,
0.0284431157226562,0.0270544787597656,0.00679953271484379,0.0398395444014519,0.913927999999942,
0.0236547124023437,-0.0256179577636719,0.0666545742187488,0.075224048303063,0.916903999999704,
0.00210689746093751,-0.0375889660644531,-0.0195366855468748,0.0424152268514856,0.91993599999978,
0.00210689746093751,0.00550666381835938,0.0546835659179692,0.0550004976779685,0.922969999999623,
0.0188663090820312,-0.00407014282226563,0.00440533105468788,0.0197967326262132,0.926034999999956,
-0.021835119140625,-0.00407014282226563,0.0139821376953115,0.026245736130076,0.928999999999633,
-0.00268150585937499,-0.0304063610839844,-0.000383072265625728,0.0305267753358293,0.931919999999991,
0.035625720703125,0.0462080920410156,-0.00277727392578164,0.0584131234924727,0.935033999999632,
-0.00507570751953124,-0.0208295544433594,0.0618661708984369,0.0654756156654315,0.938086999999996,
-0.0362003291015625,0.00550666381835938,-0.0291134921875003,0.0467801517827967,0.941143000000011,
-0.00746990917968748,0.0246602770996094,0.00440533105468788,0.0261406914882468,0.944153999999799,
0.0284431157226562,0.00790086547851562,0.0427125576171878,0.051921065912822,0.947142999999869,
0.0284431157226562,0.0198718737792969,0.0498951625976556,0.060773591716791,0.950225000000046,
0.0284431157226562,-0.0256179577636719,0.00679953271484379,0.0388783260587943,0.953262999999879,
0.00928950244140625,0.00550666381835938,0.0355299526367183,0.0371348318480745,0.956380999999965,
0.00928950244140625,0.0198718737792969,-0.0602381137695325,0.0641078511074918,0.959405000000061,
0.016472107421875,0.0174776721191406,0.00201112939453019,0.024100705115484,0.96254799999997,
0.0188663090820312,-0.0160411511230469,-0.0410845004882816,0.0479707445022774,0.965566999999737,
-0.00746990917968748,-0.0184353527832031,-0.000383072265625728,0.0198949370382172,0.968543999999838,
-0.0146525141601562,0.0318428820800781,0.0187705410156251,0.0397617720983183,0.971640999999636,
0.00689530078125,-0.0160411511230469,-0.0219308872070325,0.0280326152169918,0.974721999999929,
0.0116837041015625,-0.0184353527832031,0.023558944335937,0.0321153395124168,0.977779999999711,
0.0236547124023437,-0.00885854614257814,0.0929907924804692,0.0963602965164775,0.980777999999646,
0.0332315190429687,-0.00885854614257814,0.0115879360351556,0.0362917064798314,0.983777999999802,
0.0188663090820312,-0.0112527478027344,-0.014748282226563,0.0264589073872114,0.986889999999676,
0.0188663090820312,0.0462080920410156,0.0666545742187488,0.0832703888109837,0.989913999999771,
-0.0122583125,0.0198718737792969,0.0283473476562488,0.0367250556431464,0.992968000000019,
0.0428083256835937,0.000718260498046866,0.104961800781249,0.113358053393741,0.995957999999973,
0.0380199223632812,-0.00646434448242188,-0.0171424838867189,0.0422038742286033,0.998928999999862,
0.0212605107421875,-0.00407014282226563,0.0259531459960929,0.0337955791000365,1.00200199999972,
0.0308373173828125,0.0126892687988281,0.00440533105468788,0.0336357641167645,1.00508999999965,
0.0140779057617187,0.00550666381835938,0.097779195800781,0.0989408000194648,1.00816699999996,
-0.00268150585937499,0.0270544787597656,0.0379241542968742,0.0466623699973501,1.011211,
0.0212605107421875,-0.0136469494628906,0.00440533105468788,0.025644794566593,1.01420099999996,
0.00928950244140625,-0.00885854614257814,-0.00995987890625116,0.0162470884528972,1.01725699999997,
-0.000287304199218741,0.0174776721191406,0.00679953271484379,0.0187559380343214,1.02026499999965,
0.00210689746093751,-0.0208295544433594,0.0498951625976556,0.0541094872075708,1.02335499999981,
0.0284431157226562,-0.00885854614257814,0.0211647426757811,0.0365435494212676,1.02638099999967,
-0.00986411083984373,-0.00167594116210938,0.0355299526367183,0.0369118814991463,1.02933799999983,
0.0643561406250001,-0.00167594116210938,0.0570777675781251,0.0860371615444518,1.03241499999967,
0.00689530078125,0.0126892687988281,0.0379241542968742,0.0405808353123238,1.0354199999997,
