X,Y,Z,Magnitude,Seconds,
0.000957680664062543,-0.0109175595703124,-0.0912669672851543,0.0919226282079394,0.0,
0.0368707055664063,-0.0276769711914062,-0.0218351191406239,0.0510121171015259,0.00383300000021336,
0.0105344873046875,-0.00134075292968738,0.0140779057617202,0.0176340713344072,0.00756500000034066,
0.00335188232421879,0.0273896669921876,-0.0721133540039052,0.0772124653067812,0.0114340000000084,
0.0656011254882812,-0.0731668027343749,0.0236547124023456,0.101076377589117,0.0153980000000047,
0.024899697265625,0.0417548769531251,0.0188663090820338,0.0521478886597456,0.0191830000003392,
-0.0493205541992188,-0.0324653745117187,-0.0170467158203103,0.061458181952956,0.0229040000003806,
0.0392649072265625,0.0585142885742187,0.0116837041015643,0.0714294326478267,0.0267680000001747,
-0.0995987890625,0.0249954653320312,-0.0218351191406239,0.104983162925139,0.0305740000003425,
0.082360537109375,-0.0300711728515624,0.0236547124023456,0.0908134292296627,0.0343970000003537,
-0.0229843359375,0.0585142885742187,-0.0649307490234357,0.09037811590523,0.0381500000003143,
0.015322890625,-0.0444363828125001,0.0212605107421897,0.0515886849181439,0.0418980000004012,
-0.00622492431640631,-0.0204943662109374,-0.0314119257812475,0.0380194399014452,0.0456390000003921,
0.0177170922851563,-0.0468305844726562,0.0595677373046897,0.077815900230556,0.0494640000001709,
-0.04213794921875,-0.0564073911132812,0.0428083256835947,0.0824011728338945,0.0532090000001517,
0.0656011254882812,-0.0276769711914062,0.0954807622070337,0.119105408572807,0.056941000000279,
-0.08044517578125,-0.00373495458984374,0.0140779057617202,0.0817530649144133,0.0606540000003406,
0.0608127221679687,0.0249954653320312,-0.00268150585937299,0.0658038823954725,0.0643810000001395,
-0.0445321508789063,-0.00852335791015624,-0.0314119257812475,0.0551585820453436,0.0680600000000595,
0.0488417138671875,0.00823605371093761,0.00210689746093884,0.049576048764747,0.0718000000001666,
0.0416591088867188,-0.0516189877929687,0.0475967290039083,0.0816422064001067,0.075619000000188,
-0.00861912597656256,0.132734540039062,-0.0074699091796866,0.13322367280305,0.0793510000003153,
0.00574608398437504,-0.0971088193359375,0.00210689746093884,0.0973014865810701,0.0832780000000639,
0.0201112939453125,0.0321780703125001,-0.0290177241210916,0.047769453276741,0.0871540000002824,
-0.0253785375976563,-0.0420421811523437,0.00689530078125244,0.0495899217533773,0.0909160000001066,
0.082360537109375,0.00105344873046875,-0.0457771357421866,0.0942332955166645,0.0947000000001026,
-0.0469263525390625,-0.00373495458984374,0.0499909306640642,0.0686667721468532,0.0985290000003261,
0.0560243188476562,-0.0420421811523437,0.00210689746093884,0.0700764462234012,0.102373000000171,
-0.0134075292968751,0.0154186586914062,-0.0218351191406239,0.0299043358992284,0.106140000000323,
0.0177170922851563,-0.0324653745117187,0.0284431157226575,0.0466573331132351,0.10989600000039,
0.0272938989257813,-0.00612915624999988,0.00689530078125244,0.0288109119566115,0.113654000000224,
-0.0349553442382813,0.0537258852539062,0.00210689746093884,0.0641310054033425,0.117460000000392,
0.0656011254882812,-0.0540131894531251,0.0116837041015643,0.0857755282219895,0.121225000000322,
-0.0541089575195313,0.00105344873046875,-0.0649307490234357,0.084527458300972,0.125059000000419,
-0.00383072265624995,-0.0276769711914062,-0.0050757075195289,0.0283980981268612,0.128799000000072,
0.0177170922851563,-0.0468305844726562,0.0499909306640642,0.0707537430087667,0.132552000000032,
-0.0205901342773438,0.0130244570312501,-0.0122583124999984,0.0272737297754734,0.13629200000014,
0.0464475122070312,-0.0564073911132812,0.0380199223632829,0.0823691669190544,0.140016000000287,
0.00574608398437504,0.00584185205078125,-0.0050757075195289,0.00963885487817462,0.143755000000056,
0.03447650390625,-0.00612915624999988,0.0284431157226575,0.0451132653434338,0.147593000000143,
0.0105344873046875,-0.0588015927734374,0.0236547124023456,0.0642506665669974,0.151346000000103,
0.106302553710938,-0.0731668027343749,0.0595677373046897,0.142133491040776,0.155070000000251,
-0.0852335791015625,0.106398321777344,-0.0745075556640611,0.155360039052939,0.15879700000005,
-0.04213794921875,-0.0875320126953125,-0.143939403808591,0.173654864543517,0.162500000000364,
0.127850368652344,-0.0348595761718749,0.093086560546876,0.161944479899348,0.166213000000425,
-0.154665427246094,0.120763531738281,-0.0314119257812475,0.198725776044292,0.169994000000315,
0.271502468261719,-0.161752264160156,0.0643561406250015,0.322519918872133,0.173771000000215,
-0.130723410644531,0.0848505068359375,-0.0338061274414052,0.159471228920576,0.177492000000257,
0.00335188232421879,-0.0133117612304687,0.00928950244140836,0.0165750703703288,0.181217000000288,
0.0201112939453125,-0.0947146176757813,-0.0050757075195289,0.0969591963273623,0.18492200000037,
-0.0780509741210937,0.163859161621094,0.0140779057617202,0.182043859657653,0.188662000000022,
0.0679953271484375,-0.113868230957031,0.0260489140625015,0.135158738005141,0.192388000000392,
-0.0732625708007812,0.1087925234375,0.0188663090820338,0.132510962016798,0.196388000000297,
0.00574608398437504,-0.0683783994140624,0.00210689746093884,0.0686517443660061,0.200309000000289,
0.0679953271484375,-0.0300711728515624,-0.0338061274414052,0.081673093508671,0.204049000000396,
-0.0445321508789063,0.0249954653320312,-0.0314119257812475,0.0599549399995784,0.207824000000073,
0.0416591088867188,-0.0564073911132812,0.0164721074218761,0.0720319751801933,0.211571000000276,
-0.00861912597656256,-0.0157059628906249,0.00450109912109475,0.0184723170235751,0.215351000000283,
-0.0349553442382813,0.0249954653320312,0.0308373173828134,0.0528922444347929,0.21925500000043,
0.044053310546875,-0.0540131894531251,-0.0481713374023425,0.0847265988469318,0.223021000000244,
-0.00861912597656256,0.0321780703125001,0.0212605107421897,0.0395186899916333,0.226791000000048,
0.0296881005859375,-0.0372537778320312,0.00689530078125244,0.0481328624956279,0.230580000000373,
-0.0301669409179688,0.0249954653320312,0.0739329472656269,0.0836713708677883,0.234349000000293,
0.0201112939453125,-0.0492247861328126,-0.0697191523437475,0.0876829739316965,0.238062000000355,
0.024899697265625,-0.0133117612304687,0.0212605107421897,0.0353441257919269,0.241799000000356,
-0.032561142578125,0.0130244570312501,0.0475967290039083,0.0591211730163006,0.245636999999988,
0.0512359155273437,0.0321780703125001,-0.0194409174804662,0.0635491661742591,0.249357000000145,
-0.0110133276367188,-0.00134075292968738,0.00450109912109475,0.0119729235089054,0.253055000000131,
-0.0349553442382813,-0.00612915624999988,-0.0577481440429679,0.0677811978911632,0.256730000000061,
0.0464475122070312,-0.0252827695312499,0.0188663090820338,0.0561473725455737,0.260431000000153,
-0.0181959326171875,0.0154186586914062,0.00210689746093884,0.0239429742630739,0.264135000000351,
0.0177170922851563,-0.0276769711914062,0.0236547124023456,0.0404901903207228,0.268159000000196,
0.0129286889648438,0.0178128603515626,0.0284431157226575,0.0359647024771015,0.272008000000369,
0.0536301171875,-0.0181001645507812,0.0188663090820338,0.0596635822314515,0.27576500000032,
0.0225054956054688,-0.00373495458984374,-0.000287304199217076,0.0228151213439433,0.2795100000003,
-0.0134075292968751,0.0226012636718751,-0.0290177241210916,0.0391485283833245,0.283254000000397,
0.00574608398437504,-0.0181001645507812,0.0835097539062524,0.0856417680539331,0.287086000000272,
-0.032561142578125,-0.0204943662109374,-0.0625365473632797,0.0734238844552693,0.290885000000344,
-0.0014365209960937,0.00105344873046875,0.0212605107421897,0.0213350102840076,0.294651000000158,
3.539587734375,2.84536502099609,-13.8268018916016,14.5535299491787,0.298416000000088,
0.331357509765625,18.5555177645264,9.37480784655762,20.7919229382183,0.301812000000155,
-20.486225925293,-20.6704836850586,-24.4881818842773,38.0345290549767,0.304712000000109,
14.5026371362305,0.530172015625,-12.8164487910156,19.361532116133,0.307642000000214,
12.9416176538086,18.5555177645264,5.10175643359375,23.1909599998521,0.310656999999992,
-17.4695318334961,-6.57821271337891,9.37480784655762,20.8888594026546,0.313587000000098,
-9.97807483886719,-20.6704836850586,-13.2402224848633,26.4978181123086,0.316566000000421,
18.739775524292,8.18922312646485,3.39229644824219,20.7304181653105,0.319477000000006,
-1.13389390625,18.5555177645264,4.86712467089844,19.2167077685631,0.32241600000043,
-20.486225925293,-9.23098815283203,-4.92516011914062,23.0033431730921,0.325434000000314,
9.03667474609375,-2.77143207373047,1.35004243212891,9.54803334590632,0.328366000000187,
11.3063779199219,3.97303400292969,1.37159024707031,12.0623563478448,0.331419000000096,
-9.49923450683594,-5.99881591162109,-2.20534703320312,11.4492272269459,0.334342000000106,
-3.30543481201172,6.76706734033203,1.0004889897461,7.59737309230306,0.337276000000202,
5.24186511474609,1.30349915185547,0.665300757324221,5.44232349440716,0.340293000000202,
0.0967257470703125,-9.53984016699219,-1.544547375,9.66455031936423,0.343233000000055,
-0.762792648925781,5.14140441308594,0.672483362304689,5.241004277496,0.346262000000024,
-1.31106482910156,5.127039203125,0.162518408691408,5.29450981769336,0.349217000000408,
0.391212551269531,-7.09775447363281,-0.926843346679686,7.16869614487389,0.352142000000185,
2.40713034912109,0.616363275390625,0.504889246093752,2.53556568752048,0.355171000000155,
-2.18734263671875,3.85811232324219,0.12899958544922,4.43690651267378,0.358086000000185,
-1.11952869628906,-1.72516594824219,-0.20858284863281,2.06713542263995,0.361118000000261,
2.59627228027344,-0.777062090820313,0.394755969726564,2.73866528110703,0.364074000000073,
-0.748427438964844,-0.147387054199219,-0.136756798828124,0.774963868297558,0.367169000000104,
-1.05967365478516,0.853389239746094,-0.0912669672851543,1.36363892159089,0.370237000000088,
0.8197746484375,0.499047394042969,0.164912610351564,0.973794097730558,0.373293999999987,
0.123061965332031,-1.44265015234375,-0.119997387207029,1.45285342767443,0.376369000000068,
-0.0301669409179688,0.252444623046875,0.035625720703127,0.256724607323186,0.379325000000335,
-0.365355173339844,0.898879071289063,-0.0481713374023425,0.971487758664413,0.382321000000047,
0.137427175292969,-0.573554949707031,-0.0290177241210916,0.590502783359746,0.385258000000249,
0.415154567871094,-0.3508941953125,0.109845972167971,0.554568471092405,0.388229000000138,
-0.413239206542969,0.4152503359375,-0.0170467158203103,0.586080262285574,0.391246000000137,
-0.051714755859375,0.151888153320312,-0.0314119257812475,0.163496593768605,0.394190000000435,
0.489374819335938,-0.513699908203125,0.071538745605471,0.713087022466953,0.397233000000142,
-0.109175595703125,0.0273896669921876,-0.0170467158203103,0.113842413341134,0.400150000000394,
-0.298317526855469,0.405673529296875,-0.0457771357421866,0.505628228403146,0.403091000000131,
0.190099611816406,-0.355682598632812,0.0116837041015643,0.403465590012917,0.406126000000313,
0.214041628417969,-0.183300079101562,0.035625720703127,0.284045647159171,0.409100000000308,
-0.171424838867188,0.343424286132813,-0.0290177241210916,0.384926933325847,0.412123000000065,
-0.0349553442382813,-0.0995030209960938,0.00450109912109475,0.105560348481159,0.415046000000075,
0.235589443359375,-0.31258696875,0.0236547124023456,0.392138424887859,0.41800000000012,
-0.0373495458984375,0.223714203125,0.105057568847657,0.249960248901407,0.421027000000322,
-0.1762132421875,0.273992437988281,-0.0553539423828102,0.330434595244372,0.423958000000312,
0.0775721337890625,-0.25512612890625,-0.0314119257812475,0.268502302918547,0.426965000000109,
0.151792385253906,0.14709975,0.107451770507815,0.237118425383598,0.429931000000124,
-0.125935007324219,-0.161752264160156,-0.0170467158203103,0.205703698437696,0.432821000000331,
0.0320823022460938,-0.0348595761718749,-0.0122583124999984,0.0489359826062589,0.435835000000225,
0.0847547387695312,0.0417548769531251,0.0906923588867201,0.130965413196385,0.438816000000315,
-0.00622492431640631,0.0776679018554689,0.00450109912109475,0.0780468612736839,0.441836000000421,
-0.0732625708007812,-0.377230413574219,-0.0074699091796866,0.384351387078112,0.444753000000219,
0.118273562011719,-0.00852335791015624,0.035625720703127,0.123816295682845,0.447689000000082,
-0.0229843359375,0.355395294433594,0.00689530078125244,0.356204492078487,0.450707000000421,
-0.0876277807617187,-0.279068145507812,0.0308373173828134,0.294123439973358,0.453637000000072,
0.154186586914063,-0.168934869140625,-0.0194409174804662,0.229543988961267,0.456661000000167,
-0.0493205541992188,0.31948226953125,-0.0122583124999984,0.32349915585161,0.459603000000243,
-0.116358200683594,-0.0252827695312499,0.0404141240234388,0.125744784075029,0.462589000000207,
0.175734401855469,-0.271885540527344,0.0643561406250015,0.330069750173339,0.465540000000146,
0.0105344873046875,0.0441490786132812,0.0260489140625015,0.0523322318366979,0.468492000000424,
-0.133117612304688,0.0752737001953125,-0.0242293208007798,0.154833745137363,0.471499000000222,
0.0871489404296875,-0.149781255859375,0.0116837041015643,0.173683250103059,0.474449000000277,
0.0512359155273437,-0.0540131894531251,-0.0146525141601543,0.0758764775542316,0.477435000000241,
-0.070868369140625,0.113580926757813,0.0404141240234388,0.139843677327212,0.480408000000352,
0.0656011254882812,-0.0492247861328126,0.00928950244140836,0.0825401847027209,0.483338000000003,
0.0512359155273437,-0.0875320126953125,-0.0074699091796866,0.101699419022776,0.486351000000013,
-0.0110133276367188,0.0633026918945312,-0.0290177241210916,0.0705021453566871,0.489284000000225,
0.0129286889648438,0.0417548769531251,0.0116837041015643,0.0452452173080559,0.492328000000271,
-0.0253785375976563,-0.0468305844726562,0.00928950244140836,0.0540691101115524,0.495238000000427,
0.0392649072265625,-0.0204943662109374,0.0212605107421897,0.0491300448088269,0.4981700000003,
-0.00861912597656256,0.00823605371093761,-0.0266235224609357,0.0291707706712944,0.501186000000416,
-0.00861912597656256,0.1087925234375,-0.0912669672851543,0.142266516812384,0.504171000000042,
0.194888015136719,0.640305291992188,-0.591655114257811,0.893324117901534,0.507294000000002,
0.276290871582031,2.06964368310547,-0.895718725097655,2.27201973037835,0.510345000000143,
-0.566468112792969,-0.360471001953125,3.6053803959961,3.66736871147329,0.513354000000163,
-1.37331407226563,-11.6682854428711,-2.03057031201172,11.9230068568891,0.516358000000309,
2.35685211425781,7.87558270898438,-0.795162255371093,8.25904582302956,0.519316000000345,
-0.949540378417969,8.73988950830078,1.52960755664063,8.92339592447205,0.522367000000031,
-3.06840884765625,-10.4999150327148,-1.10880267285156,10.9951258254705,0.525288000000273,
5.04554057861328,-0.707630242675781,0.260680676757815,5.10158550903712,0.528235000000222,
-0.434787021484375,6.99930490136719,0.617416724121096,7.039922745853,0.531262000000424,
-4.55041967529297,-3.59503744482422,-0.80952746533203,5.85542040916863,0.534183000000212,
4.01363966308594,-1.16731696142578,0.610234119140626,4.22425353331121,0.537240000000111,
0.984974562988281,1.93556839013672,0.234344458496096,2.18438028004701,0.54019900000003,
-3.42514489501953,-0.56158394140625,-0.515040661132812,3.50888314962808,0.543091000000004,
0.0225054956054688,0.0130244570312501,0.133787988769534,0.136291451501565,0.546154000000115,
2.24432463623047,0.692977728515625,0.375602356445315,2.37871569027847,0.549115000000256,
-1.59836902832031,-1.65094569677734,-0.318716124999998,2.31991060447084,0.55213700000013,
-0.0684741674804688,1.1813948671875,0.0380199223632829,1.18398820024763,0.555079000000205,
0.870052883300781,0.546931427246094,0.294199500000001,1.06896181019235,0.558104000000185,
-0.669418784179688,-1.78741519140625,-0.27322629345703,1.92811492980028,0.561040000000048,
0.290656081542969,1.17181806054688,0.071538745605471,1.20944463159111,0.56398100000024,
-0.113963999023438,0.142311346679687,0.00928950244140836,0.182555764967336,0.566992000000027,
0.00335188232421879,-0.98296343359375,-0.0984495722656238,0.987886969838561,0.569925000000239,
0.384029946289063,0.860571844726563,0.0763271489257829,0.945456891267919,0.572947999999997,
-0.659841977539063,-0.281462347167969,-0.158304613769529,0.734624284200218,0.575863000000027,
0.348116921386719,-0.303010162109375,0.0667503422851574,0.466321946183645,0.578804000000218,
0.254743056640625,0.393702520996094,0.0763271489257829,0.475101603458068,0.581854000000021,
-0.5592855078125,-0.147387054199219,-0.00986411083984251,0.57846393463834,0.584763000000294,
0.266714064941406,-0.0444363828125001,-0.0362003291015611,0.272802947898459,0.587782000000061,
0.144609780273437,-0.00612915624999988,-0.0050757075195289,0.144828581136088,0.590716000000157,
-0.367749375,-0.0181001645507812,-0.10084377392578,0.381754745234751,0.593628000000081,
0.223618435058594,0.12794613671875,0.0499909306640642,0.262439538842696,0.596666000000369,
0.103908352050781,-0.202453692382813,0.0404141240234388,0.231122791186688,0.599617000000308,
-0.200155258789062,0.0369664736328126,-0.0625365473632797,0.212930663714463,0.602658000000247,
0.0703895288085937,0.209348993164063,0.0164721074218761,0.221479157095245,0.605622000000039,
0.0967257470703125,-0.166540667480469,-0.0242293208007798,0.1941100823183,0.608532000000196,
0.0129286889648438,-0.144992852539062,0.0404141240234388,0.151074086812881,0.611561000000165,
-0.0541089575195313,-0.195271087402344,-0.0362003291015611,0.205837413232399,0.614467000000332,
-0.0876277807617187,0.247656219726563,0.224767651855471,0.345735055282361,0.617499000000407,
-0.0732625708007812,-0.508911504882813,0.00928950244140836,0.514241790345784,0.620422000000417,
0.249954653320313,0.0585142885742187,-0.0242293208007798,0.2578532735303,0.623373000000356,
-0.135511813964844,0.422432940917969,0.0308373173828134,0.444706624011848,0.626411000000189,
-0.0732625708007812,-0.372442010253906,-0.0050757075195289,0.379613248042181,0.629327999999987,
0.254743056640625,0.0345722719726562,-0.0433829340820289,0.260713148624164,0.632357000000411,
-0.0876277807617187,0.111186725097656,0.00450109912109475,0.141638185855593,0.63532000000032,
-0.262404501953125,0.0106302553710937,0.0164721074218761,0.263135811506986,0.63824300000033,
0.180522805175781,-0.10189722265625,-0.00986411083984251,0.207530305874229,0.641246000000137,
-0.0373495458984375,-0.0348595761718749,0.0978749638671896,0.110406916367164,0.644266000000243,
-0.111569797363281,0.0465432802734376,-0.0529597407226543,0.131980418091875,0.647376000000349,
0.0679953271484375,0.0369664736328126,0.0667503422851574,0.102203194089295,0.650429000000258,
-0.0205901342773438,-0.0683783994140624,-0.0218351191406239,0.0746748388941907,0.653447000000142,
-0.0349553442382813,-0.0109175595703124,-0.00986411083984251,0.0379258471289536,0.656368000000384,
0.00335188232421879,0.0273896669921876,0.00450109912109475,0.0279586992965742,0.659316000000217,
-0.0110133276367188,-0.0588015927734374,0.0116837041015643,0.0609543242096883,0.662301000000298,
-0.0014365209960937,-0.0109175595703124,0.0691445439453133,0.0700158886035799,0.665254000000004,
-0.00383072265624995,0.0345722719726562,0.0978749638671896,0.103872156892134,0.668246000000181,
0.00574608398437504,-0.0420421811523437,0.0667503422851574,0.0790959586349875,0.6712050000001,
0.0129286889648438,-0.0348595761718749,0.0547793339843761,0.0662051091759861,0.674147000000175,
-0.0636857641601563,0.0130244570312501,0.102663367187501,0.121512468495614,0.677162000000408,
-0.0134075292968751,-0.0228885678710937,0.0404141240234388,0.0483420086634608,0.680098000000271,
0.0320823022460938,-0.0468305844726562,0.0404141240234388,0.0696827035930883,0.683142000000316,
-0.0301669409179688,-0.0157059628906249,-0.0170467158203103,0.0380435554979857,0.686075000000073,
0.0129286889648438,-0.0109175595703124,0.0236547124023456,0.029084179963662,0.689019000000371,
0.0751779321289062,-0.0468305844726562,0.00450109912109475,0.0886853145370018,0.692048000000341,
-0.0110133276367188,-0.0372537778320312,0.00450109912109475,0.0391075087635351,0.694984000000204,
0.0177170922851563,0.0154186586914062,0.0499909306640642,0.0552333553529215,0.698032000000239,
0.0105344873046875,-0.00373495458984374,-0.0553539423828102,0.0564710921257974,0.700950000000375,
-0.00861912597656256,-0.0252827695312499,0.0164721074218761,0.031382130117122,0.703878000000259,
-0.00383072265624995,0.0178128603515626,-0.0218351191406239,0.0284384397929742,0.706899000000249,
-0.0110133276367188,-0.00134075292968738,0.0787213505859388,0.0794993210167638,0.709835999999996,
-0.0014365209960937,-0.00852335791015624,0.00689530078125244,0.0110569614045081,0.712850000000344,
0.0129286889648438,-0.0204943662109374,-0.0050757075195289,0.0247574807191985,0.715797000000293,
-0.0158017309570313,-0.0181001645507812,0.0643561406250015,0.0686951489855632,0.718725000000177,
0.0225054956054688,-0.0276769711914062,0.0332315190429711,0.0487529068331423,0.721765000000232,
0.015322890625,0.00823605371093761,0.0499909306640642,0.0529312450873248,0.724727000000257,
-0.0253785375976563,-0.0396479794921876,-0.0074699091796866,0.0476637387492981,0.727707000000009,
0.0177170922851563,-0.0133117612304687,0.035625720703127,0.0419558139203015,0.730673000000024,
0.015322890625,-0.00612915624999988,-0.0170467158203103,0.0237265263724179,0.733587000000171,
0.000957680664062543,-0.0133117612304687,-0.0625365473632797,0.0639448191445645,0.736595000000307,
0.0488417138671875,0.00344765039062511,-0.00986411083984251,0.049946971773681,0.739548000000013,
0.0272938989257813,0.0106302553710937,0.00689530078125244,0.0300916005006276,0.742599000000155,
-0.00383072265624995,0.00105344873046875,0.0380199223632829,0.038226936665222,0.745528000000377,
0.0105344873046875,0.0202070620117187,-0.00268150585937299,0.0229453971765999,0.748540000000048,
0.015322890625,-0.0492247861328126,0.0164721074218761,0.0541220922530225,0.751494000000093,
-0.0205901342773438,-0.0300711728515624,0.0212605107421897,0.0421928712372879,0.75440000000026,
-0.0181959326171875,0.00584185205078125,-0.00986411083984251,0.0215062754063354,0.757422000000133,
-0.0134075292968751,0.00823605371093761,0.00210689746093884,0.0158755610762871,0.760377000000062,
0.00574608398437504,-0.0276769711914062,0.035625720703127,0.04547773291516,0.763385000000198,
-0.0277727392578125,-0.0204943662109374,-0.000287304199217076,0.0345170484829358,0.766304000000218,
-0.00622492431640631,-0.00852335791015624,0.00689530078125244,0.0126072394152546,0.769217000000026,
-0.0253785375976563,0.00584185205078125,-0.0362003291015611,0.0445944080916005,0.772231000000374,
0.015322890625,-0.0516189877929687,0.0140779057617202,0.0556551732412382,0.775179000000207,
-0.0110133276367188,-0.0372537778320312,0.0260489140625015,0.0467726765561652,0.778175000000374,
0.0225054956054688,0.0321780703125001,0.00928950244140836,0.0403512130808097,0.781175000000076,
-0.0229843359375,-0.0324653745117187,-0.00986411083984251,0.040982690533135,0.784167000000252,
0.0392649072265625,-0.0516189877929687,-0.00986411083984251,0.0656014750058405,0.787258000000293,
0.00574608398437504,-0.0564073911132812,-0.0194409174804662,0.0599396406883163,0.790287000000262,
0.00814028564453129,0.00584185205078125,0.0859039555664083,0.0864863056657713,0.793337000000065,
0.0225054956054688,-0.0109175595703124,0.0260489140625015,0.036114212759725,0.796271000000161,
0.00335188232421879,-0.0276769711914062,0.00689530078125244,0.0287192448074332,0.79920600000014,
-0.0110133276367188,-0.00612915624999988,0.0308373173828134,0.0333136621424152,0.80221500000016,
-0.0110133276367188,0.0178128603515626,0.0619619389648456,0.0654054528294181,0.805177000000185,
0.0105344873046875,0.0130244570312501,-0.00986411083984251,0.0194399739298231,0.808217000000241,
-0.0349553442382813,0.0417548769531251,0.0523851323242202,0.0755615505982601,0.811163000000306,
0.00335188232421879,-0.0133117612304687,0.0499909306640642,0.0518414047922286,0.814102000000275,
0.0201112939453125,-0.0468305844726562,-0.0218351191406239,0.055446733123698,0.817136000000119,
0.0177170922851563,0.00344765039062511,-0.00268150585937299,0.0182475238301139,0.82009700000026,
0.0177170922851563,-0.0157059628906249,-0.0170467158203103,0.0291747005061037,0.823146000000179,
0.00574608398437504,-0.0420421811523437,0.0452025273437524,0.0619986367226301,0.826110000000426,
0.0201112939453125,0.00344765039062511,0.0164721074218761,0.0262236679411666,0.829060000000027,
-0.00622492431640631,0.00584185205078125,-0.000287304199217076,0.00854163109898171,0.832064000000173,
0.0416591088867188,-0.0444363828125001,-0.000287304199217076,0.0609110500188384,0.834993000000395,
0.0392649072265625,-0.0109175595703124,-0.040988732421873,0.0578014033742588,0.838011000000279,
-0.0110133276367188,0.0178128603515626,-0.00986411083984251,0.0231493425867493,0.840946000000258,
0.0225054956054688,-0.0157059628906249,0.0236547124023456,0.0362314783248923,0.843959000000268,
-0.0158017309570313,-0.0109175595703124,0.0164721074218761,0.0253025321090113,0.846892000000025,
0.0296881005859375,-0.0181001645507812,0.00689530078125244,0.0354477706778585,0.849842000000081,
0.0201112939453125,-0.00134075292968738,0.0380199223632829,0.043032269973629,0.85287500000004,
0.015322890625,-0.0157059628906249,0.0595677373046897,0.0634805763602373,0.855832000000191,
0.0225054956054688,-0.0157059628906249,-0.0122583124999984,0.0300572924282457,0.858830000000125,
-0.0181959326171875,-0.0157059628906249,0.0260489140625015,0.0354445363626964,0.861780000000181,
0.00574608398437504,0.00344765039062511,0.0452025273437524,0.0456965234195573,0.864722000000256,
-0.00622492431640631,-0.0133117612304687,-0.00986411083984251,0.0176989647285567,0.867709999999988,
0.0464475122070312,-0.0300711728515624,0.0236547124023456,0.0601763429075625,0.870669000000362,
0.00814028564453129,-0.0181001645507812,0.0404141240234388,0.0450242337827287,0.873695000000225,
0.0296881005859375,0.00823605371093761,0.0452025273437524,0.0547036047751232,0.876662000000124,
-0.0229843359375,0.00105344873046875,0.0308373173828134,0.0384750516059946,0.879605000000083,
0.0488417138671875,-0.0204943662109374,-0.0433829340820289,0.0684661305277134,0.882614999999987,
0.00814028564453129,-0.0133117612304687,0.0212605107421897,0.026371889474407,0.885562000000391,
0.00574608398437504,-0.0133117612304687,0.0691445439453133,0.0706483434032099,0.888586000000032,
-0.0158017309570313,0.0130244570312501,0.0188663090820338,0.0278436491964705,0.891525000000001,
0.0201112939453125,-0.00134075292968738,-0.038594530761717,0.0435407805085112,0.89444100000037,
-0.00861912597656256,-0.0276769711914062,-0.0840843623046865,0.0889409020142902,0.89745000000039,
0.015322890625,0.00105344873046875,-0.0601423457031238,0.0620725581719289,0.900399999999991,
0.000957680664062543,-0.0372537778320312,-0.00986411083984251,0.0385494720803458,0.903422000000319,
0.0105344873046875,0.0321780703125001,0.0164721074218761,0.0376528080589834,0.906381000000238,
0.0201112939453125,-0.0540131894531251,0.0308373173828134,0.0653668793994505,0.909308000000237,
-0.0014365209960937,0.0609084902343751,0.0260489140625015,0.0662604987835043,0.912333000000217,
-0.0205901342773438,-0.0204943662109374,0.0571735356445338,0.0641310054033447,0.915250000000015,
0.00814028564453129,-0.0300711728515624,0.0667503422851574,0.0736623912334427,0.91827400000011,
0.0488417138671875,0.0249954653320312,0.035625720703127,0.06541772142368,0.921316000000388,
-0.0134075292968751,-0.0109175595703124,-0.0362003291015611,0.0401175619383733,0.924293000000034,
0.0105344873046875,-0.0133117612304687,-0.0290177241210916,0.0336185473064708,0.927396000000044,
0.0320823022460938,0.0130244570312501,0.071538745605471,0.079477686938995,0.930411000000277,
0.015322890625,-0.00852335791015624,-0.0362003291015611,0.0402231579345987,0.933418000000074,
0.0272938989257813,0.0106302553710937,0.0236547124023456,0.037649763168752,0.936376999999993,
0.0129286889648438,-0.0133117612304687,-0.0338061274414052,0.0385643389414523,0.939356000000316,
-0.0110133276367188,-0.0324653745117187,0.00928950244140836,0.0355188510995049,0.942320000000109,
0.03447650390625,-0.0276769711914062,-0.0050757075195289,0.0445017624679226,0.945235000000139,
-0.0229843359375,-0.00612915624999988,0.0260489140625015,0.0352759433418918,0.948248000000149,
-0.00861912597656256,-0.0157059628906249,0.0260489140625015,0.0316150680334098,0.95119300000033,
0.00814028564453129,0.0178128603515626,-0.000287304199217076,0.019586852426608,0.954201000000012,
0.0129286889648438,0.0130244570312501,-0.0050757075195289,0.0190407532973976,0.957195000000411,
0.024899697265625,-0.0252827695312499,0.0380199223632829,0.0520069981406361,0.960120000000188,
0.00335188232421879,-0.0228885678710937,0.0140779057617202,0.0270796802961362,0.963187000000289,
0.0225054956054688,-0.0396479794921876,-0.00268150585937299,0.0456689181384292,0.966113000000405,
-0.0301669409179688,-0.0564073911132812,0.0691445439453133,0.0941955734308161,0.969140000000152,
0.0177170922851563,-0.00852335791015624,-0.0553539423828102,0.0587418243368798,0.972082000000228,
-0.00383072265624995,-0.0252827695312499,0.0260489140625015,0.0365025861422858,0.97501900000043,
-0.0110133276367188,0.00344765039062511,-0.00986411083984251,0.0151815796777012,0.978037000000313,
-0.0205901342773438,0.0202070620117187,-0.000287304199217076,0.0288506763942786,0.98097800000005,
-0.0110133276367188,-0.0444363828125001,-0.0122583124999984,0.0473935831989984,0.983980000000429,
-0.0181959326171875,-0.0133117612304687,-0.038594530761717,0.0446971224530547,0.986904000000322,
0.00814028564453129,-0.00612915624999988,0.0619619389648456,0.0627942090243577,0.989850000000388,
0.00335188232421879,0.00105344873046875,-0.038594530761717,0.0387541310579951,0.992915000000266,
-0.0205901342773438,-0.0252827695312499,-0.038594530761717,0.0505243492728651,0.99583900000016,
0.0296881005859375,-0.0133117612304687,0.0763271489257829,0.0829724048500246,0.998886000000311,
-0.0110133276367188,-0.0204943662109374,-0.0505655390624984,0.0556613525949808,1.00180900000032,
-0.0158017309570313,-0.0348595761718749,0.0595677373046897,0.0708039552547855,1.00473900000043,
-0.0397437475585938,-0.0133117612304687,0.0164721074218761,0.045034417726624,1.00775700000031,
0.03447650390625,-0.00852335791015624,-0.0433829340820289,0.0560656393990825,1.01069100000041,
