X,Y,Z,Magnitude,Seconds,
-0.0277727392578125,0.00344765039062511,0.0380199223632829,0.0472093829191664,0.0,
0.00335188232421879,-0.0109175595703124,0.00210689746093884,0.0116132355094366,0.00373099999978876,
0.0105344873046875,-0.0300711728515624,-0.038594530761717,0.0500478637322142,0.00746299999991606,
-0.0110133276367188,-0.0109175595703124,-0.0146525141601543,0.021335010284004,0.0111619999997856,
0.0105344873046875,-0.00852335791015624,0.00928950244140836,0.0164291785688201,0.0151439999999639,
0.0392649072265625,0.0130244570312501,0.0116837041015643,0.0429869557191754,0.0190010000001166,
0.0272938989257813,-0.0348595761718749,0.0260489140625015,0.051368208974901,0.0228959999999461,
0.0320823022460938,-0.00373495458984374,-0.00268150585937299,0.0324100983780019,0.0266660000002048,
0.00814028564453129,-0.0779552060546874,0.0260489140625015,0.0825943359149944,0.0304540000001907,
0.0177170922851563,0.00344765039062511,0.0260489140625015,0.0316911277188476,0.0342949999999291,
-0.00622492431640631,-0.0588015927734374,-0.0122583124999984,0.0603874425753051,0.038043000000016,
0.0512359155273437,0.0441490786132812,0.0667503422851574,0.0950256195849965,0.0418349999999919,
-0.0110133276367188,-0.0683783994140624,-0.0338061274414052,0.0770697939834232,0.0456450000001496,
0.07278373046875,-0.0157059628906249,-0.0266235224609357,0.0790756640155318,0.0494330000001355,
-0.0397437475585938,-0.0157059628906249,-0.00986411083984251,0.0438582195601191,0.0531710000000203,
0.0177170922851563,-0.0492247861328126,-0.0122583124999984,0.0537330545773223,0.0569120000000112,
-0.0493205541992188,-0.0204943662109374,-0.0050757075195289,0.0536497802393438,0.0606600000000981,
0.024899697265625,-0.0181001645507812,-0.0194409174804662,0.0364082429288675,0.0644000000002052,
0.000957680664062543,-0.0707726010742187,0.0236547124023456,0.0746272311820726,0.0682369999999537,
0.0272938989257813,-0.0276769711914062,-0.040988732421873,0.0564893604004559,0.0719680000001972,
0.0225054956054688,-0.0468305844726562,0.00689530078125244,0.0524132249280876,0.0756940000001123,
0.044053310546875,0.0154186586914062,0.0140779057617202,0.0487505552441955,0.0794319999999971,
-0.0229843359375,-0.0324653745117187,0.0404141240234388,0.0567060989775871,0.0832319999999527,
-0.0158017309570313,-0.0252827695312499,-0.0218351191406239,0.0369551831857716,0.087188999999853,
0.00335188232421879,-0.0157059628906249,0.00210689746093884,0.0161972652737432,0.0909919999999147,
-0.0277727392578125,-0.0252827695312499,-0.0050757075195289,0.037898631741483,0.0948769999999968,
0.0536301171875,-0.0300711728515624,-0.0170467158203103,0.0638048229091809,0.0986590000002252,
0.0656011254882812,-0.0181001645507812,0.0954807622070337,0.117250584534708,0.102494000000206,
-0.00861912597656256,-0.0444363828125001,0.0523851323242202,0.0692320990486708,0.106308999999783,
0.000957680664062543,-0.0396479794921876,0.0260489140625015,0.0474491870731505,0.110119999999824,
0.00814028564453129,0.00105344873046875,0.0164721074218761,0.0184039215255911,0.113918999999896,
-0.0134075292968751,-0.0252827695312499,-0.0050757075195289,0.0290644642792648,0.117749000000003,
0.0392649072265625,-0.0109175595703124,-0.0170467158203103,0.0441759727311159,0.121533999999883,
0.00814028564453129,-0.0228885678710937,0.00689530078125244,0.0252526426820673,0.125272000000223,
0.0225054956054688,-0.0252827695312499,0.0428083256835947,0.0545735147800724,0.129003000000012,
0.00814028564453129,-0.0468305844726562,-0.0242293208007798,0.053351924790885,0.132708999999977,
0.0272938989257813,-0.00612915624999988,-0.0290177241210916,0.0403057289733787,0.136433000000125,
0.015322890625,-0.0133117612304687,-0.038594530761717,0.0436065564895905,0.140135999999984,
0.024899697265625,-0.0492247861328126,-0.0529597407226543,0.076470965935783,0.143974999999955,
0.0105344873046875,-0.0228885678710937,0.0188663090820338,0.0314769690462903,0.14771299999984,
0.0536301171875,0.0202070620117187,-0.0050757075195289,0.0575350122231171,0.151467000000139,
-0.04213794921875,-0.0611957944335937,-0.0218351191406239,0.0774422652600365,0.155334999999923,
0.00335188232421879,0.0297838686523437,0.0140779057617202,0.0331134621815863,0.15927099999999,
0.101514150390625,-0.0971088193359375,-0.0074699091796866,0.140680649221927,0.163006000000223,
-0.032561142578125,0.0441490786132812,-0.0218351191406239,0.0590435566025617,0.166885999999977,
0.0847547387695312,-0.0851378110351562,-0.0314119257812475,0.124171340062979,0.170642000000043,
0.0225054956054688,0.0106302553710937,0.0284431157226575,0.0377956411999443,0.174485999999888,
-0.0660799658203125,0.0249954653320312,-0.00268150585937299,0.0707002520762995,0.178273999999874,
0.0656011254882812,-0.0444363828125001,-0.076901757324217,0.110417299651554,0.182042999999794,
-0.0373495458984375,0.0154186586914062,0.0284431157226575,0.0494139094453581,0.18583099999978,
0.015322890625,-0.00134075292968738,-0.0314119257812475,0.034975672642721,0.189700999999786,
0.0584185205078125,-0.0731668027343749,0.0547793339843761,0.108475250598763,0.193487000000005,
-0.070868369140625,-0.0181001645507812,-0.0481713374023425,0.0875809308499719,0.197201999999834,
0.0272938989257813,-0.0181001645507812,-0.00986411083984251,0.0342034144201543,0.200936000000183,
0.00574608398437504,-0.0851378110351562,0.00689530078125244,0.0856096345154994,0.204689000000144,
-0.0397437475585938,0.0393606752929687,0.0332315190429711,0.0650627549941062,0.208423999999923,
0.00814028564453129,-0.0516189877929687,0.0188663090820338,0.0555582736370025,0.212160999999924,
0.015322890625,0.00584185205078125,-0.0481713374023425,0.0508861077271513,0.216003999999884,
0.0272938989257813,-0.0564073911132812,0.0595677373046897,0.0864584641222475,0.219739000000118,
0.0416591088867188,-0.0228885678710937,-0.0314119257812475,0.0569743536489161,0.223481999999876,
0.00814028564453129,-0.0157059628906249,-0.0649307490234357,0.0672974270640463,0.22747900000013,
0.0392649072265625,-0.0204943662109374,0.0332315190429711,0.0553722479569136,0.231304999999793,
-0.00861912597656256,-0.0228885678710937,-0.0194409174804662,0.0312430015246905,0.235032000000047,
0.0105344873046875,-0.00612915624999988,0.0763271489257829,0.0772940854286288,0.238921000000119,
0.044053310546875,0.0106302553710937,0.0595677373046897,0.0748465886129394,0.242792999999892,
0.0392649072265625,-0.0181001645507812,-0.0194409174804662,0.0474056765457283,0.246576999999888,
0.024899697265625,-0.0683783994140624,0.00450109912109475,0.0729099466715396,0.250410999999986,
-0.0277727392578125,-0.0348595761718749,0.0499909306640642,0.0669746836157101,0.254174000000148,
-0.0110133276367188,-0.0492247861328126,0.0380199223632829,0.0631655558984872,0.257970999999998,
0.0105344873046875,0.00105344873046875,0.00210689746093884,0.0107946372755762,0.261786000000029,
-0.0110133276367188,-0.0396479794921876,0.0116837041015643,0.0427757478599679,0.26564099999996,
-0.0110133276367188,0.0178128603515626,0.0212605107421897,0.0298429337793178,0.269405000000006,
-0.0014365209960937,-0.0588015927734374,0.00210689746093884,0.0588568596017176,0.273134999999911,
-0.0014365209960937,0.00584185205078125,0.0452025273437524,0.0456010888709702,0.276874000000134,
0.015322890625,-0.0276769711914062,0.0571735356445338,0.0653423208153216,0.280608000000029,
0.0105344873046875,-0.0204943662109374,-0.00986411083984251,0.0250658164004553,0.284318999999869,
-0.0158017309570313,0.0345722719726562,0.0404141240234388,0.055481871914812,0.288134999999784,
-0.0014365209960937,-0.0468305844726562,0.0284431157226575,0.0548103828360584,0.291854000000058,
0.101514150390625,-0.0300711728515624,-0.38814797314453,0.402328531454589,0.29571100000021,
-0.408450803222656,0.752832770019531,1.23512075244141,1.50303443452901,0.299688999999944,
-0.451546433105469,-4.16964584326172,-1.22611855419922,4.3695774793945,0.303076000000146,
3.64014420410156,3.93233257470703,0.899932520019533,5.43357781257846,0.306062000000111,
-4.31578791259766,3.14464022851562,-0.752066625488279,5.39262382171204,0.308988000000227,
-2.59914532226563,-7.52392236914063,-0.443214611328123,7.97254058721589,0.311996999999792,
9.62564835449219,0.872542853027344,1.85521898242188,9.84155855276214,0.314980999999989,
-4.36367194580078,6.28583280664063,-0.740095617187498,7.68772192825602,0.317987999999787,
-7.41149065917969,-4.3348457578125,-1.05134183300781,8.6502254990818,0.320932000000084,
10.236169777832,-1.98373972753906,1.25906276904297,10.5023632618382,0.323897000000215,
1.20763531738281,2.68495350976563,0.126605383789064,2.94675878425727,0.32696900000019,
-8.62056249755859,-0.6573520078125,-1.19259973095703,8.72745687785208,0.3298920000002,
4.60261327148438,0.788745794921875,0.765857227050782,4.7320932099946,0.332942000000003,
2.75907799316406,-0.994934441894531,0.270257483398439,2.9454108411838,0.335883000000194,
-4.27987488769531,-1.34927628759766,-0.826286876953123,4.56296236644827,0.338815000000068,
0.745554396972656,3.73361383691406,0.416303784667971,3.83001729541399,0.341866000000209,
0.996945571289063,-2.10584401220703,0.162518408691408,2.33557095996347,0.34481199999982,
-0.226491477050781,-1.78741519140625,-0.301956713378905,1.82683587451119,0.347834000000148,
-0.245645090332031,3.11351560693359,0.119422778808595,3.12547320339203,0.350781999999981,
-0.810676682128906,-1.29420964941406,0.00210689746093884,1.5271475824559,0.353708999999981,
1.38241203857422,-0.705236041015625,0.138576392089846,1.55808354538098,0.35676599999988,
-0.216914670410156,0.927609491210938,-0.0649307490234357,0.954844146755116,0.359700999999859,
-1.19135474609375,-0.506517303222656,-0.0936611689453102,1.29794388325238,0.362725999999839,
1.2794613671875,0.341030084472656,0.0811155522460947,1.32661322225316,0.365693000000192,
-0.0397437475585938,-0.365259405273437,-0.0242293208007798,0.368213332997562,0.368656999999985,
-0.798705673828125,0.0249954653320312,-0.103237975585936,0.805737926558932,0.371608999999808,
0.637815322265625,0.477499579101563,0.0763271489257829,0.800399941917858,0.374556000000211,
0.0464475122070312,-0.654957806152344,-0.10084377392578,0.664301562522404,0.377543999999943,
-0.362960971679688,-0.224001507324219,-0.0960553706054679,0.437200156070808,0.380478000000039,
0.044053310546875,0.551719830566406,0.0811155522460947,0.559388235867141,0.383507000000009,
0.0512359155273437,-0.405960833496094,-0.0553539423828102,0.412908435745854,0.386442999999872,
0.0272938989257813,-0.130627642578125,-0.00268150585937299,0.133475572288576,0.389365999999882,
-0.090021982421875,0.324270672851563,0.0643561406250015,0.342632659603422,0.392406999999821,
-0.0995987890625,-0.286250750488281,0.0332315190429711,0.30489956509599,0.395328000000063,
0.235589443359375,-0.0683783994140624,0.0188663090820338,0.246036438250898,0.39836299999979,
-0.0493205541992188,0.12794613671875,0.0260489140625015,0.139575344855769,0.401307000000088,
-0.130723410644531,-0.135416045898437,-0.0218351191406239,0.189480574215912,0.40420499999982,
0.137427175292969,0.0202070620117187,0.0475967290039083,0.146833247175227,0.407243999999992,
-0.0780509741210937,0.0633026918945312,0.00928950244140836,0.10092314015108,0.410181000000193,
-0.00383072265624995,-0.0995030209960938,-0.0481713374023425,0.110616469707492,0.413167000000158,
0.0368707055664063,-0.0109175595703124,0.0595677373046897,0.0709010392274786,0.416107000000011,
-0.032561142578125,0.0202070620117187,0.00210689746093884,0.0383795828279744,0.419034000000011,
0.0320823022460938,-0.0803494077148437,-0.0936611689453102,0.127505748912501,0.422075999999834,
0.0392649072265625,-0.0324653745117187,0.0380199223632829,0.0635708107405181,0.425118000000111,
-0.070868369140625,0.0130244570312501,-0.0529597407226543,0.0894242493008554,0.428230999999869,
-0.0110133276367188,-0.0444363828125001,-0.0050757075195289,0.0460613537568813,0.431231999999909,
0.0201112939453125,-0.0588015927734374,-0.00986411083984251,0.0629237009362024,0.434174999999868,
-0.0493205541992188,0.080062103515625,-0.00986411083984251,0.0945502943862442,0.437186999999994,
-0.0134075292968751,-0.0372537778320312,0.00928950244140836,0.0406681774882258,0.440110999999888,
0.07278373046875,-0.0995030209960938,0.035625720703127,0.128325814175925,0.443149000000176,
0.0129286889648438,0.0441490786132812,0.0643561406250015,0.0791075532227886,0.44613900000013,
-0.0253785375976563,-0.0659841977539062,-0.00986411083984251,0.0713812664953694,0.449012000000039,
0.0584185205078125,-0.0611957944335937,0.0332315190429711,0.0908954490201996,0.452044999999998,
0.03447650390625,0.0106302553710937,-0.000287304199217076,0.0360792765248311,0.454999999999927,
-0.0014365209960937,-0.00852335791015624,0.0308373173828134,0.0320257921994945,0.458027000000129,
0.0560243188476562,-0.0564073911132812,-0.0050757075195289,0.0796635480089503,0.460969000000205,
0.015322890625,0.0154186586914062,-0.0074699091796866,0.0229853334998768,0.464012999999795,
-0.00622492431640631,-0.0204943662109374,0.0140779057617202,0.0256311560365285,0.466977999999926,
0.0368707055664063,-0.0707726010742187,0.0595677373046897,0.0995817519396784,0.469926000000214,
0.0105344873046875,-0.0157059628906249,-0.0577481440429679,0.0607659512679731,0.472933000000012,
-0.0349553442382813,-0.0204943662109374,0.0236547124023456,0.0469195114642346,0.475882000000183,
0.044053310546875,-0.0300711728515624,0.0164721074218761,0.0558238294075727,0.478888000000097,
0.0201112939453125,-0.00373495458984374,-0.0194409174804662,0.0282199096813802,0.481830000000173,
0.0177170922851563,-0.00373495458984374,0.0667503422851574,0.069162514702797,0.484773000000132,
-0.00861912597656256,-0.0324653745117187,-0.00268150585937299,0.033696889299457,0.487768999999844,
-0.0445321508789063,-0.0276769711914062,0.0523851323242202,0.0741169972736191,0.490693000000192,
0.0512359155273437,-0.226395708984375,-0.0218351191406239,0.233145680882894,0.493719999999939,
0.123061965332031,0.309905462890625,-0.0170467158203103,0.333880568109456,0.496684000000187,
-0.08044517578125,0.640305291992188,0.035625720703127,0.646321502996221,0.499632999999903,
-0.262404501953125,-0.812975115722656,-0.0266235224609357,0.854689109195713,0.502633999999944,
0.683305153808594,-0.0779552060546874,0.150547400390627,0.704022348464018,0.505582000000231,
-0.279163913574219,0.956339911132813,-0.134362597167968,1.00527201482251,0.508600000000115,
-0.585621726074219,-0.901560577148438,-0.117603185546873,1.08147805783064,0.511516000000029,
1.04004120117188,0.0872447084960939,0.160124207031252,1.05590582012459,0.514471999999842,
-0.372537778320313,0.369760504394531,0.0116837041015643,0.525017843341982,0.517492999999831,
-0.494642062988281,-0.425114446777344,-0.0553539423828102,0.654566362008795,0.520418000000063,
0.740765993652344,0.250050421386719,0.100269165527346,0.78823434088028,0.523474999999962,
-0.305500131835938,-0.224001507324219,-0.0338061274414052,0.380328621178951,0.526373000000149,
-0.11875240234375,0.00344765039062511,-0.0266235224609357,0.12174905052548,0.529301999999916,
0.288261879882812,0.209348993164063,0.0906923588867201,0.3676234708133,0.532341999999971,
-0.221703073730469,-0.37004780859375,-0.0577481440429679,0.435226931251941,0.535248000000138,
0.0871489404296875,0.197377984863281,0.0164721074218761,0.216389318242895,0.538282999999865,
-0.0636857641601563,-0.0300711728515624,-0.00268150585937299,0.0704793761820111,0.541182999999819,
-0.051714755859375,-0.1976652890625,-0.0433829340820289,0.20887331433987,0.544074999999793,
0.228406838378906,0.194983783203125,0.0571735356445338,0.305707658897431,0.547110999999859,
-0.125935007324219,-0.202453692382813,-0.0218351191406239,0.239424092474151,0.550010999999813,
0.07278373046875,0.0130244570312501,-0.00986411083984251,0.0745949635335203,0.553053000000091,
0.0679953271484375,0.0752737001953125,0.0643561406250015,0.12012996000691,0.556009999999787,
-0.113963999023438,-0.137810247558594,-0.103237975585936,0.206488588083354,0.558974999999919,
0.0584185205078125,0.0393606752929687,0.0164721074218761,0.0723416658693871,0.562009000000216,
0.03447650390625,-0.0444363828125001,0.0428083256835947,0.0706807907913419,0.56503100000009,
-0.0277727392578125,-0.0827436093749999,0.0284431157226575,0.0917978255205291,0.568127999999888,
0.0368707055664063,0.0537258852539062,-0.0433829340820289,0.0782815345074825,0.571156999999857,
-0.0134075292968751,-0.0516189877929687,-0.00268150585937299,0.0533991780488339,0.574125000000095,
0.07278373046875,-0.0228885678710937,0.00928950244140836,0.0768612569227582,0.577084000000013,
0.0560243188476562,-0.0204943662109374,0.0595677373046897,0.0843033728645087,0.580011999999897,
-0.051714755859375,-0.0635899960937499,0.0571735356445338,0.0999345623640524,0.583035000000109,
0.0392649072265625,-0.00134075292968738,-0.0074699091796866,0.0399916253868456,0.585963999999876,
0.03447650390625,-0.0516189877929687,-0.00268150585937299,0.0621316320085202,0.588982000000215,
-0.0373495458984375,-0.0492247861328126,-0.000287304199217076,0.0617911862027548,0.591906000000108,
0.0320823022460938,0.0130244570312501,0.00928950244140836,0.0358497622583125,0.594869999999901,
-0.0158017309570313,-0.0540131894531251,0.0260489140625015,0.0620134280617768,0.597889000000123,
0.0296881005859375,-0.0588015927734374,-0.0146525141601543,0.0674811588542123,0.600827000000208,
0.00574608398437504,-0.0420421811523437,0.035625720703127,0.0554053648378854,0.603895000000193,
-0.0205901342773438,-0.0659841977539062,-0.0074699091796866,0.0695245821701822,0.606831000000057,
0.0679953271484375,-0.0420421811523437,0.00689530078125244,0.0802399818228635,0.609771999999793,
0.0320823022460938,0.0297838686523437,0.0428083256835947,0.061228307972232,0.612818999999945,
-0.0301669409179688,-0.0468305844726562,-0.038594530761717,0.0677693571691213,0.615726999999879,
0.0464475122070312,0.00823605371093761,0.035625720703127,0.0591134159609219,0.618773000000147,
0.03447650390625,-0.0252827695312499,-0.0122583124999984,0.0444759933235401,0.621696000000156,
0.015322890625,-0.0372537778320312,0.0308373173828134,0.0507304157604924,0.624639000000116,
0.0177170922851563,-0.0300711728515624,0.0260489140625015,0.0435513113412774,0.627665999999863,
-0.00383072265624995,-0.0396479794921876,0.0116837041015643,0.0415107896264928,0.630583000000115,
0.000957680664062543,0.0106302553710937,-0.0218351191406239,0.0243041541592014,0.633647999999994,
0.024899697265625,-0.00373495458984374,-0.00986411083984251,0.0270415512197187,0.636585000000196,
0.0392649072265625,-0.0492247861328126,-0.0074699091796866,0.0634082964010583,0.639501999999993,
0.0177170922851563,-0.0157059628906249,0.0308373173828134,0.038878178618999,0.642526000000089,
-0.032561142578125,-0.0468305844726562,-0.0146525141601543,0.0588899636547442,0.645434999999907,
0.0296881005859375,-0.0228885678710937,0.071538745605471,0.0807654751635543,0.648474999999962,
0.0201112939453125,0.00344765039062511,-0.0362003291015611,0.0415549547518954,0.651426999999785,
0.0129286889648438,-0.00612915624999988,0.00928950244140836,0.0170590858575575,0.654429000000164,
0.00814028564453129,-0.0181001645507812,-0.0792959589843729,0.0817418455773496,0.65738199999987,
0.0201112939453125,-0.0204943662109374,-0.0266235224609357,0.0391573127113024,0.660318000000188,
-0.00622492431640631,-0.0420421811523437,0.0404141240234388,0.0586480698691216,0.663332000000082,
0.0320823022460938,-0.0252827695312499,0.0308373173828134,0.0511803936673837,0.666279000000031,
0.00814028564453129,-0.0516189877929687,0.0547793339843761,0.075707064286743,0.669285999999829,
0.0105344873046875,-0.0133117612304687,-0.000287304199217076,0.016978249424853,0.672216999999819,
0.00574608398437504,-0.00852335791015624,-0.0218351191406239,0.0241337427496307,0.675135999999839,
-0.0205901342773438,-0.0157059628906249,-0.0625365473632797,0.0676864141168703,0.678124999999909,
0.03447650390625,0.00823605371093761,0.0212605107421897,0.0413336572220011,0.681078999999954,
0.0201112939453125,-0.0109175595703124,0.0404141240234388,0.0464430691460844,0.684100999999828,
-0.00861912597656256,-0.00134075292968738,-0.0122583124999984,0.0150450382640237,0.687007999999878,
-0.0205901342773438,-0.0779552060546874,-0.0936611689453102,0.123585526453504,0.689911999999822,
-0.0229843359375,-0.00612915624999988,0.035625720703127,0.0428373462114774,0.692907000000105,
0.0201112939453125,-0.0588015927734374,-0.0122583124999984,0.0633431739194963,0.695850000000064,
0.00574608398437504,-0.0492247861328126,-0.040988732421873,0.0643130875990924,0.69888600000013,
0.0225054956054688,-0.0133117612304687,-0.00268150585937299,0.026284801562474,0.701915999999983,
0.0105344873046875,-0.0540131894531251,-0.0242293208007798,0.0601286956796745,0.704922999999781,
0.00814028564453129,-0.0228885678710937,-0.0122583124999984,0.0272106048244401,0.708036999999877,
0.0512359155273437,-0.0181001645507812,0.0164721074218761,0.056780853459668,0.711018999999851,
0.0296881005859375,0.00344765039062511,0.00450109912109475,0.0302246505838304,0.714065000000119,
-0.0014365209960937,-0.0228885678710937,-0.00986411083984251,0.024964991776938,0.716964000000189,
0.0368707055664063,-0.00612915624999988,-0.0218351191406239,0.0432872719536213,0.719911000000138,
0.0105344873046875,-0.0133117612304687,-0.0290177241210916,0.0336185473064708,0.722948000000088,
-0.0253785375976563,-0.0133117612304687,0.0428083256835947,0.0515152977811968,0.725875999999971,
0.0225054956054688,-0.00134075292968738,0.0643561406250015,0.0681909655820418,0.72891299999992,
0.0225054956054688,-0.0300711728515624,0.0571735356445338,0.0684074992030339,0.731878999999935,
0.0895431420898437,0.00584185205078125,-0.0122583124999984,0.090566924183461,0.734836000000087,
0.0177170922851563,-0.0228885678710937,0.00689530078125244,0.0297544462407612,0.73787399999992,
0.015322890625,-0.0396479794921876,-0.0074699091796866,0.0431573029517764,0.740826000000197,
0.000957680664062543,-0.0276769711914062,-0.00986411083984251,0.0293978327304063,0.743865999999798,
0.0320823022460938,-0.0372537778320312,-0.0218351191406239,0.0537948929551244,0.746811999999863,
0.0416591088867188,-0.00612915624999988,0.0452025273437524,0.0617763416514371,0.749830000000202,
0.0368707055664063,-0.0300711728515624,-0.0050757075195289,0.0478485858981952,0.752786999999898,
-0.0014365209960937,-0.00612915624999988,0.00450109912109475,0.00773886569253212,0.755717000000004,
-0.00383072265624995,-0.00612915624999988,0.00689530078125244,0.00998930254171731,0.758726000000024,
-0.0134075292968751,-0.0181001645507812,0.0499909306640642,0.0548312953273147,0.761653999999908,
0.0129286889648438,-0.0372537778320312,-0.040988732421873,0.056877685841285,0.764642999999978,
0.0296881005859375,-0.0204943662109374,0.00689530078125244,0.0367280211235604,0.767612000000099,
0.0751779321289062,-0.0157059628906249,0.00689530078125244,0.0771099469742008,0.770555999999942,
0.0296881005859375,-0.0133117612304687,-0.0290177241210916,0.0435960390015599,0.773564999999962,
0.0368707055664063,-0.00612915624999988,-0.0074699091796866,0.0381158107411386,0.776495999999952,
0.00814028564453129,-0.00852335791015624,-0.0218351191406239,0.024812986686903,0.779512000000068,
-0.00861912597656256,0.00105344873046875,-0.0338061274414052,0.0349034860638893,0.782446000000164,
-0.00622492431640631,-0.0252827695312499,-0.000287304199217076,0.0260394059382731,0.785350000000108,
0.0464475122070312,-0.0324653745117187,0.00210689746093884,0.0567081206646754,0.788386000000173,
-0.00383072265624995,-0.0181001645507812,0.0547793339843761,0.057819251332115,0.791305000000193,
-0.0301669409179688,-0.00852335791015624,-0.0074699091796866,0.0322256341685561,0.794295000000147,
0.0272938989257813,-0.00134075292968738,0.00450109912109475,0.027695025370762,0.797251999999844,
-0.0134075292968751,-0.0516189877929687,0.0452025273437524,0.0699110164486249,0.800161000000116,
0.0225054956054688,-0.0300711728515624,0.0260489140625015,0.0457090657632805,0.803186000000096,
0.0129286889648438,-0.00852335791015624,-0.0290177241210916,0.0328911377362061,0.806121000000076,
-0.00861912597656256,-0.0348595761718749,-0.0673249506835916,0.0763028726066761,0.809110000000146,
-0.00383072265624995,-0.0252827695312499,-0.0146525141601543,0.0294718347317049,0.812011999999868,
0.0536301171875,-0.0133117612304687,0.0332315190429711,0.0644804335787636,0.814953999999943,
0.0177170922851563,-0.0468305844726562,-0.0266235224609357,0.0567081206646745,0.817966000000069,
0.0296881005859375,-0.0276769711914062,-0.0577481440429679,0.0705850280947599,0.820904000000155,
0.0584185205078125,-0.0133117612304687,0.00210689746093884,0.0599530277991832,0.823941000000104,
-0.00383072265624995,-0.0181001645507812,0.0404141240234388,0.0444476300089933,0.82686700000022,
0.0105344873046875,0.00105344873046875,-0.0122583124999984,0.0161972652737419,0.829819999999927,
-0.00622492431640631,-0.0396479794921876,0.0332315190429711,0.0521061015473357,0.832833999999821,
-0.00861912597656256,-0.0109175595703124,-0.0481713374023425,0.0501394075224418,0.835746000000199,
0.0296881005859375,0.00344765039062511,0.0284431157226575,0.0412587014050273,0.838854000000083,
-0.04213794921875,-0.0252827695312499,0.0308373173828134,0.0580152164772365,0.841860999999881,
0.0416591088867188,-0.0276769711914062,0.00210689746093884,0.0500593158610496,0.844974000000093,
-0.00622492431640631,-0.0109175595703124,-0.0050757075195289,0.0135538037664749,0.847965999999815,
0.00574608398437504,0.0178128603515626,0.0164721074218761,0.024932825711852,0.850921000000199,
0.0560243188476562,-0.0492247861328126,-0.0218351191406239,0.0777082769082562,0.85392499999989,
0.0129286889648438,-0.0588015927734374,0.00689530078125244,0.0605996987113532,0.856889000000137,
0.00335188232421879,-0.00373495458984374,0.0404141240234388,0.0407245186771495,0.859922999999981,
-0.0158017309570313,-0.0276769711914062,0.0882981572265642,0.0938737130680117,0.862856000000193,
0.0225054956054688,-0.0252827695312499,0.0164721074218761,0.0376436726494094,0.865792000000056,
-0.00383072265624995,-0.0468305844726562,-0.0050757075195289,0.0472603521457839,0.868797000000086,
0.0488417138671875,-0.0252827695312499,-0.0194409174804662,0.0583325014133357,0.871741999999813,
0.0105344873046875,-0.0348595761718749,0.0380199223632829,0.0526467470045911,0.874799000000166,
0.015322890625,-0.0492247861328126,-0.0218351191406239,0.05598788239264,0.877739999999903,
0.00335188232421879,-0.0492247861328126,0.0164721074218761,0.0520158149782772,0.880708000000141,
-0.0158017309570313,-0.0157059628906249,-0.0194409174804662,0.0295689236199491,0.883734000000004,
0.00335188232421879,0.00105344873046875,-0.0050757075195289,0.0061731415152205,0.886701999999786,
0.0416591088867188,-0.0348595761718749,-0.0266235224609357,0.0604936637371732,0.889729999999872,
0.0272938989257813,-0.0228885678710937,0.0595677373046897,0.069405754699167,0.892680999999811,
0.0105344873046875,-0.0516189877929687,-0.0194409174804662,0.0561555393173778,0.895602000000054,
0.0177170922851563,-0.0300711728515624,0.00450109912109475,0.03519134395,0.898631999999907,
0.00814028564453129,-0.00134075292968738,0.0212605107421897,0.0228050693007452,0.901576000000205,
0.0105344873046875,-0.0252827695312499,-0.0290177241210916,0.0399026586972685,0.904589000000215,
0.0320823022460938,-0.0300711728515624,0.0116837041015643,0.0454978955074975,0.907534999999825,
-0.0158017309570313,-0.0276769711914062,-0.0290177241210916,0.0431014819784206,0.910449999999855,
-0.032561142578125,-0.0468305844726562,0.0380199223632829,0.0685481301317084,0.913464000000204,
0.00814028564453129,-0.0157059628906249,-0.040988732421873,0.0446432268798767,0.916400000000067,
-0.0229843359375,-0.0444363828125001,0.0452025273437524,0.0674250717034071,0.919413999999961,
0.00814028564453129,-0.0516189877929687,0.0332315190429711,0.0619283296161665,0.922363000000132,
0.0320823022460938,-0.0396479794921876,-0.0194409174804662,0.0545819170394824,0.925282000000152,
0.015322890625,-0.0348595761718749,-0.0338061274414052,0.0509198908146216,0.928295000000162,
0.00814028564453129,-0.0420421811523437,-0.0290177241210916,0.0517284985243998,0.931219999999939,
0.0177170922851563,-0.00373495458984374,0.0140779057617202,0.0229354022302818,0.934263999999985,
0.00574608398437504,-0.0588015927734374,0.0667503422851574,0.0891417578300671,0.93722200000002,
0.00574608398437504,-0.0396479794921876,0.0284431157226575,0.0491323782345298,0.940227999999934,
0.0105344873046875,-0.0228885678710937,-0.0314119257812475,0.0402687353072938,0.943173999999999,
0.03447650390625,0.0321780703125001,0.0188663090820338,0.0507936526449192,0.946125999999822,
0.00335188232421879,-0.00852335791015624,-0.0050757075195289,0.0104711772023892,0.949125999999978,
0.00574608398437504,-0.0157059628906249,0.0619619389648456,0.0641792539046726,0.952081999999791,
0.0272938989257813,-0.0468305844726562,-0.0218351191406239,0.0584365723541909,0.95507600000019,
0.044053310546875,-0.0420421811523437,-0.0505655390624984,0.0791524662083687,0.958024999999907,
0.024899697265625,-0.0109175595703124,0.0188663090820338,0.0330926827149133,0.960959999999886,
0.015322890625,-0.0372537778320312,-0.040988732421873,0.0574692189386279,0.96397399999978,
-0.0134075292968751,-0.0204943662109374,0.0308373173828134,0.0393791954158911,0.966903999999886,
-0.0134075292968751,-0.0300711728515624,-0.0314119257812475,0.0455054541764139,0.969900000000052,
0.0392649072265625,0.00344765039062511,0.0475967290039083,0.0617986071412457,0.972862000000077,
-0.00622492431640631,-0.0109175595703124,0.0404141240234388,0.0423230931088242,0.975774999999885,
0.024899697265625,-0.0276769711914062,0.00928950244140836,0.0383706204518331,0.978908999999931,
-0.00383072265624995,0.00344765039062511,0.0452025273437524,0.0454953756721248,0.981941000000006,
0.00814028564453129,-0.0133117612304687,-0.0290177241210916,0.0329468594952441,0.9850449999999,
0.0129286889648438,-0.0611957944335937,0.00450109912109475,0.0627083419331611,0.988036000000193,
0.024899697265625,-0.0444363828125001,0.0164721074218761,0.0535342634608589,0.990964000000076,
0.0129286889648438,-0.0348595761718749,0.0452025273437524,0.0585287068667599,0.99398999999994,
0.0416591088867188,-0.0324653745117187,0.00450109912109475,0.0530069975448484,0.996960999999828,
0.0512359155273437,-0.0228885678710937,0.0452025273437524,0.0720574358229423,1.0000100000002,
-0.0181959326171875,-0.0181001645507812,0.0284431157226575,0.0383108176966646,1.00292099999979,
0.0105344873046875,-0.0276769711914062,-0.0146525141601543,0.0330406768743632,1.00585600000022,
0.0320823022460938,-0.00612915624999988,-0.0290177241210916,0.0436906052477464,1.00888399999985,
-0.0110133276367188,0.00344765039062511,-0.0194409174804662,0.0226081611665342,1.01183700000001,
