X,Y,Z,Magnitude,Seconds,
0.0368707055664063,-0.0492247861328126,0.0164721074218761,0.0636699208551698,0.0,
-0.0181959326171875,-0.0252827695312499,0.00928950244140836,0.0325054649957274,0.00376300000016272,
0.0392649072265625,-0.0564073911132812,-0.0074699091796866,0.0691326713997803,0.00750400000015361,
0.015322890625,-0.0204943662109374,0.00210689746093884,0.0256758454662088,0.0112319999998363,
0.0272938989257813,-0.0468305844726562,0.0475967290039083,0.0721353531390319,0.0149679999999535,
0.0320823022460938,-0.0564073911132812,0.0667503422851574,0.0930949842086138,0.0187030000001869,
0.0320823022460938,-0.0276769711914062,0.0667503422851574,0.0790626147235551,0.0224199999997836,
0.03447650390625,0.0154186586914062,-0.0122583124999984,0.0397068077637496,0.0262219999999616,
-0.00383072265624995,-0.0157059628906249,0.0188663090820338,0.0248453079024918,0.0301779999999781,
-0.00622492431640631,-0.0300711728515624,0.0260489140625015,0.0402687353072966,0.0340169999999489,
0.0392649072265625,-0.0468305844726562,0.0475967290039083,0.0774615078179649,0.0377960000000712,
-0.00861912597656256,-0.0372537778320312,0.0284431157226575,0.0476565224011434,0.0415649999999914,
0.0105344873046875,-0.0204943662109374,-0.0122583124999984,0.0261009711410946,0.0453309999998055,
-0.0134075292968751,-0.0133117612304687,0.0236547124023456,0.0302739202572323,0.0491630000001351,
0.0177170922851563,0.0273896669921876,0.0212605107421897,0.0389371099852369,0.0530979999998635,
0.0129286889648438,-0.0348595761718749,0.0475967290039083,0.0603969342028543,0.0568849999999657,
-0.0349553442382813,-0.00852335791015624,-0.0170467158203103,0.0398134932044374,0.06063899999981,
0.00574608398437504,-0.0396479794921876,-0.0242293208007798,0.0468192241011694,0.0644379999998819,
-0.070868369140625,0.0130244570312501,-0.0194409174804662,0.0746318397072795,0.0681960000001709,
0.00574608398437504,-0.0420421811523437,0.0428083256835947,0.0602753284937933,0.0719650000000911,
0.024899697265625,0.0369664736328126,-0.0194409174804662,0.0486257582896915,0.0758139999998093,
0.0488417138671875,-0.0444363828125001,0.0284431157226575,0.0718965643334628,0.0795939999998154,
-0.00383072265624995,-0.0348595761718749,0.0284431157226575,0.0451539070177137,0.0833090000000993,
0.0272938989257813,-0.0157059628906249,0.0380199223632829,0.0493674861158891,0.0870540000000801,
-0.00622492431640631,-0.0252827695312499,0.0164721074218761,0.0308106871204313,0.0907499999998436,
-0.0181959326171875,0.0297838686523437,-0.0170467158203103,0.0388427768828094,0.0944639999997889,
0.063206923828125,-0.0516189877929687,0.0308373173828134,0.0872386110845044,0.0982610000000932,
-0.0253785375976563,-0.00852335791015624,-0.0864785639648424,0.0905276743658072,0.102322000000186,
0.0225054956054688,-0.0252827695312499,0.0116837041015643,0.0358081653977271,0.106147999999848,
-0.0158017309570313,-0.0181001645507812,0.0236547124023456,0.0337172964046859,0.109922000000097,
-0.0493205541992188,-0.0611957944335937,0.0260489140625015,0.0828008952047762,0.113691999999901,
-0.0301669409179688,-0.0181001645507812,0.0260489140625015,0.0437744926292603,0.117509000000155,
0.0416591088867188,-0.0659841977539062,-0.0266235224609357,0.082451244106381,0.12131700000009,
-0.0732625708007812,0.0369664736328126,-0.0242293208007798,0.0855627514731265,0.12517200000002,
0.0536301171875,-0.0396479794921876,-0.0218351191406239,0.0701778040069875,0.1289569999999,
-0.032561142578125,-0.00373495458984374,0.00210689746093884,0.0328423036447216,0.132754000000205,
-0.0373495458984375,0.0154186586914062,0.00450109912109475,0.0406568998813177,0.136524000000009,
0.0392649072265625,-0.0492247861328126,0.0380199223632829,0.0735549250957525,0.140256000000136,
-0.0229843359375,0.0680910952148439,-0.0218351191406239,0.0751095824374629,0.143970999999965,
0.0177170922851563,-0.0276769711914062,-0.0362003291015611,0.0488914503817591,0.1477789999999,
0.03447650390625,-0.0276769711914062,0.0475967290039083,0.0649622403231223,0.151523999999881,
-0.0397437475585938,0.00584185205078125,0.0308373173828134,0.0506422042248638,0.155243000000155,
0.0608127221679687,-0.104291424316406,0.0523851323242202,0.131602015379892,0.15897700000005,
-0.0588973608398438,0.0824563051757814,0.0619619389648456,0.118773832376595,0.162707999999839,
0.0608127221679687,0.0154186586914062,0.0308373173828134,0.0699060967061457,0.16642499999989,
-0.0158017309570313,-0.0827436093749999,-0.0242293208007798,0.0876542045774649,0.170258999999987,
0.00574608398437504,0.0656968935546876,0.00210689746093884,0.0659813482796642,0.174268000000211,
0.0895431420898437,-0.176117474121094,0.0763271489257829,0.211804562390083,0.178003999999873,
-0.070868369140625,0.0872447084960939,0.0212605107421897,0.114393943118677,0.181766000000152,
0.0560243188476562,-0.147387054199219,-0.0625365473632797,0.169624549532156,0.185511000000133,
-0.0158017309570313,0.0848505068359375,0.0308373173828134,0.0916528414994442,0.189319000000069,
-0.0588973608398438,-0.0875320126953125,-0.000287304199217076,0.1055027720209,0.193103000000065,
0.063206923828125,0.0130244570312501,0.0475967290039083,0.0801885298072284,0.196965999999975,
-0.070868369140625,0.00344765039062511,-0.0170467158203103,0.0729712447346644,0.200737000000117,
0.0560243188476562,-0.0540131894531251,-0.0218351191406239,0.080826489254008,0.204521000000113,
-0.051714755859375,0.00584185205078125,0.0164721074218761,0.0545882178853258,0.208305000000109,
0.0225054956054688,-0.0324653745117187,-0.0218351191406239,0.0451361307880856,0.212062999999944,
-0.0014365209960937,-0.0396479794921876,-0.0266235224609357,0.0477790520899389,0.215807000000041,
-0.00622492431640631,-0.0204943662109374,-0.00268150585937299,0.021586088177501,0.219541999999819,
0.0129286889648438,-0.0204943662109374,0.0667503422851574,0.0710125217121837,0.223421000000144,
0.0296881005859375,-0.10189722265625,-0.0314119257812475,0.110684851640795,0.227144999999837,
-0.04213794921875,-0.0228885678710937,-0.0721133540039052,0.0866015538500561,0.230845999999929,
0.00814028564453129,-0.0396479794921876,0.0236547124023456,0.0468804004571758,0.234589000000142,
0.0320823022460938,0.0130244570312501,0.0212605107421897,0.0406315138210153,0.238374999999905,
-0.0277727392578125,-0.0252827695312499,0.0116837041015643,0.0393325872856802,0.242325000000164,
0.0225054956054688,0.0154186586914062,0.0188663090820338,0.0331688104500099,0.246255999999903,
-0.0229843359375,-0.0420421811523437,0.0236547124023456,0.0534356633099284,0.250036999999793,
0.0177170922851563,0.0249954653320312,0.0260489140625015,0.040214606426535,0.253847999999834,
0.0679953271484375,-0.0851378110351562,0.0428083256835947,0.117065640260982,0.257650000000012,
-0.0469263525390625,0.080062103515625,0.00928950244140836,0.0932647727578638,0.261512000000039,
0.0560243188476562,-0.0755610043945312,0.0691445439453133,0.116743983334729,0.265326000000186,
-0.04213794921875,0.0321780703125001,0.071538745605471,0.0890439615931505,0.269189000000097,
-0.00383072265624995,-0.0396479794921876,-0.0146525141601543,0.0424421121658142,0.272985000000062,
0.0512359155273437,-0.0755610043945312,0.0332315190429711,0.0971540955541186,0.276785999999902,
-0.0972045874023437,0.0776679018554689,-0.000287304199217076,0.124423138259704,0.280542999999852,
0.0919373437499999,-0.161752264160156,0.0164721074218761,0.186782227365615,0.284294999999929,
-0.0565031591796875,0.0273896669921876,-0.0338061274414052,0.0713137792282289,0.288054000000102,
0.0105344873046875,-0.0779552060546874,-0.0338061274414052,0.0856203470349538,0.291783000000123,
0.0296881005859375,-0.0276769711914062,0.0619619389648456,0.0740721265457792,0.295635999999831,
0.063206923828125,-0.092320416015625,-0.620385534179686,0.630393833609218,0.299351000000115,
-0.748427438964844,0.429615545898438,0.21279664355469,0.888816944134859,0.303138000000217,
0.817380446777344,-2.23273670019531,-0.20858284863281,2.3867825145825,0.306074999999964,
0.870052883300781,2.16301754785156,-0.258861083496091,2.3457719395974,0.309037999999873,
-3.26712758544922,1.37771940332031,0.112240173828127,3.54751057369946,0.312162000000171,
1.78703211914063,-3.57109542822266,-0.0721133540039052,3.99392121706709,0.315203999999994,
3.09187202392578,0.563690838867188,0.121816980468752,3.14519623408274,0.318341000000146,
-4.49056463378906,2.54369561181641,0.107451770507815,5.1620832983202,0.321348999999827,
-1.210508359375,-1.1170387265625,-0.21576545361328,1.66122266289925,0.324290999999903,
6.17320956054688,-1.51687040380859,0.164912610351564,6.35897855550958,0.327333000000181,
-2.6278757421875,-0.372442010253906,0.236738660156252,2.6646743066634,0.330245000000104,
-3.08516825927734,2.55566662011719,-0.448003014648435,4.03117870632991,0.333287999999811,
3.74309487548828,-0.456239068359375,0.495312439453127,3.8031891547859,0.336248000000069,
0.202070620117188,-3.48729837011719,-0.424060998046873,3.51879385412119,0.339184999999816,
-1.94552826904297,3.05366056542969,0.114634375488283,3.62257700187992,0.34222200000022,
0.00574608398437504,0.968310919433594,0.102663367187501,0.973755010840901,0.345186000000012,
1.59310178466797,-2.78579728369141,0.0140779057617202,3.20918026753957,0.348207999999886,
-0.4060566015625,0.451163360839844,-0.0362003291015611,0.608063159272005,0.351161999999931,
-1.15304751953125,1.99063502832031,-0.0218351191406239,2.30057018382419,0.354151000000002,
0.585142885742188,-1.50729359716797,0.0978749638671896,1.61984742903468,0.357204999999794,
0.865264479980469,-0.537641924804688,0.0260489140625015,1.01902895226161,0.360145999999986,
-0.956722983398438,1.09999201074219,-0.000287304199217076,1.45784134020241,0.363186000000042,
-0.303105930175781,-0.161752264160156,-0.0050757075195289,0.343602623208098,0.366104000000178,
1.11426145263672,-0.554401336425781,0.0452025273437524,1.24538455713127,0.369114999999965,
-0.461123239746094,0.178224371582031,-0.0314119257812475,0.495363783437011,0.372065000000021,
-0.542526096191406,0.446374957519531,-0.0242293208007798,0.702973845698201,0.375000999999884,
0.680910952148438,-0.623833184570313,0.0739329472656269,0.926430595143647,0.378025999999863,
0.00335188232421879,-0.00612915624999988,0.0308373173828134,0.031618694072031,0.380975999999919,
-0.489853659667969,0.448769159179688,-0.0122583124999984,0.664455139453593,0.383984999999939,
0.259531459960938,-0.389201421875,0.0308373173828134,0.468812612503488,0.386935999999878,
0.419942971191406,-0.379624615234375,0.0619619389648456,0.569478910430577,0.38987300000008,
-0.408450803222656,0.439192352539063,-0.0457771357421866,0.601512699233182,0.392887999999857,
-0.202549460449219,0.0848505068359375,0.0308373173828134,0.221758500585555,0.395841000000019,
0.403183559570313,-0.434691253417969,0.107451770507815,0.602544066016036,0.398865000000114,
-0.0110133276367188,0.199772186523438,0.0667503422851574,0.210916637772307,0.401808000000074,
-0.269587106933594,0.149493951660156,0.0116837041015643,0.308483644216881,0.404731000000083,
0.209253225097656,-0.391595623535156,-0.0266235224609357,0.444795297337872,0.407745999999861,
0.0272938989257813,0.0872447084960939,0.0308373173828134,0.0964755731908732,0.410738999999921,
-0.231279880371094,0.235685211425781,-0.0481713374023425,0.333704030087161,0.413731999999982,
0.132638771972656,-0.3508941953125,0.0140779057617202,0.375390420182851,0.416689000000133,
0.044053310546875,0.0561200869140626,-0.0194409174804662,0.073946653729994,0.419627000000219,
-0.159453830566406,0.192589581542969,-0.0146525141601543,0.250461508364877,0.422644000000219,
0.082360537109375,-0.235972515625,0.00689530078125244,0.250027661222113,0.425600000000031,
0.0871489404296875,-0.00852335791015624,0.00210689746093884,0.0875900934181072,0.428621000000021,
-0.101992990722656,0.130340338378906,-0.00986411083984251,0.165796485632055,0.43155999999999,
0.024899697265625,-0.192876885742188,0.0116837041015643,0.194828121479055,0.434497000000192,
0.0751779321289062,0.0417548769531251,0.105057568847657,0.135765547915255,0.437527000000046,
-0.0852335791015625,-0.0157059628906249,-0.0529597407226543,0.101568570011568,0.440434999999979,
0.0368707055664063,-0.0659841977539062,0.0164721074218761,0.0773608014766461,0.443458000000192,
0.0368707055664063,0.0321780703125001,0.0332315190429711,0.0591541291534595,0.44642500000009,
-0.0660799658203125,-0.0779552060546874,0.00450109912109475,0.102292892847648,0.449348999999984,
0.0584185205078125,0.0226012636718751,-0.0242293208007798,0.0671610053852265,0.452483000000029,
0.0368707055664063,0.0249954653320312,-0.0242293208007798,0.0507078120470258,0.455539999999928,
-0.0876277807617187,-0.0372537778320312,-0.0050757075195289,0.095353210385419,0.458641000000171,
0.0919373437499999,0.0321780703125001,-0.0242293208007798,0.100374117038751,0.461632000000009,
0.015322890625,-0.111474029296875,0.0164721074218761,0.113721504156884,0.464645999999902,
-0.0229843359375,0.00823605371093761,0.00210689746093884,0.0245061481291576,0.4675900000002,
0.0177170922851563,0.0154186586914062,0.0188663090820338,0.0301258695021679,0.470527999999831,
-0.0110133276367188,-0.0635899960937499,0.0260489140625015,0.0695954518102472,0.473543000000063,
0.00574608398437504,0.0369664736328126,0.0116837041015643,0.0391924303346173,0.476508000000194,
-0.00383072265624995,-0.00852335791015624,-0.0338061274414052,0.0350738694574502,0.479465999999775,
-0.0014365209960937,-0.00852335791015624,0.00928950244140836,0.0126888170546262,0.48241199999984,
0.0129286889648438,0.0106302553710937,0.0571735356445338,0.0595732029162535,0.485365999999885,
0.0201112939453125,-0.0803494077148437,0.0452025273437524,0.0943597368719499,0.488396000000193,
-0.0445321508789063,-0.0348595761718749,0.0523851323242202,0.0770876423391614,0.491344000000026,
-0.0229843359375,0.00105344873046875,-0.0242293208007798,0.0334133123048686,0.494379000000208,
0.015322890625,-0.0372537778320312,0.0691445439453133,0.0800225149396682,0.497330000000147,
-0.0014365209960937,0.00823605371093761,-0.0577481440429679,0.0583501869209434,0.500250000000051,
-0.0205901342773438,-0.0300711728515624,0.0212605107421897,0.0421928712372879,0.503263000000061,
0.024899697265625,-0.0444363828125001,0.0260489140625015,0.0572113010271084,0.506216000000222,
-0.0253785375976563,0.0106302553710937,-0.0218351191406239,0.0351261288464237,0.509222000000136,
-0.0565031591796875,-0.0444363828125001,0.0835097539062524,0.110186560488233,0.512157999999999,
-0.00861912597656256,0.00344765039062511,0.0978749638671896,0.0983142114743312,0.515100999999959,
0.00814028564453129,-0.252731927246094,-0.0697191523437475,0.262298401641013,0.518106999999873,
0.113485158691406,0.0728794985351564,0.0260489140625015,0.137363927119841,0.521088999999847,
-0.305500131835938,0.353001092773437,0.0404141240234388,0.468586601890833,0.524119000000155,
0.125456166992188,-0.563978143066406,-0.0074699091796866,0.577811729922607,0.527059999999892,
0.477403811035156,-0.360471001953125,0.138576392089846,0.614049801306555,0.530014999999821,
-0.288740720214844,0.5684792421875,0.0619619389648456,0.640608409395743,0.533030000000053,
-0.38690298828125,-0.137810247558594,-0.0290177241210916,0.411737313084799,0.535954999999831,
0.733583388671875,-0.334134783691406,0.0691445439453133,0.809055999152852,0.538971999999831,
-0.224097275390625,0.125551935058594,-0.0745075556640611,0.267458881111643,0.541916000000128,
-0.458729038085938,0.187801178222656,-0.0314119257812475,0.496677281548446,0.544839000000138,
0.506134230957031,-0.144992852539062,0.138576392089846,0.544424653628506,0.547858999999789,
-0.0541089575195313,-0.291039153808594,-0.0266235224609357,0.297221096629598,0.550772000000052,
-0.315076938476563,0.223714203125,0.00450109912109475,0.386447644232586,0.553793999999925,
0.216435830078125,0.0130244570312501,0.0332315190429711,0.219359154995795,0.556763000000046,
0.0201112939453125,-0.281462347167969,-0.0290177241210916,0.283668019576802,0.559745999999905,
-0.0780509741210937,0.159070758300781,-0.0122583124999984,0.177611167816061,0.562694000000192,
0.0608127221679687,0.080062103515625,-0.00268150585937299,0.100574937586354,0.565643999999793,
-0.111569797363281,-0.288644952148437,0.0547793339843761,0.314268203158113,0.568651999999929,
0.144609780273437,0.070485296875,0.0164721074218761,0.161714241640019,0.571618999999828,
-0.0636857641601563,-0.0204943662109374,0.0380199223632829,0.0769506991492677,0.574596999999812,
-0.0924161840820312,0.0249954653320312,-0.0745075556640611,0.121313231835945,0.577538999999888,
0.118273562011719,-0.0252827695312499,0.0164721074218761,0.122062214583498,0.580471000000216,
0.000957680664062543,-0.0947146176757813,-0.000287304199217076,0.0947198949399049,0.58348100000012,
-0.0732625708007812,0.0537258852539062,-0.0577481440429679,0.107650932030627,0.586421999999857,
0.015322890625,-0.0420421811523437,0.0308373173828134,0.0543440531845073,0.589519999999993,
0.0296881005859375,-0.0540131894531251,0.0475967290039083,0.0778733366639148,0.592579000000114,
-0.0349553442382813,0.0680910952148439,-0.0577481440429679,0.0958807669909928,0.595617999999831,
0.00574608398437504,-0.0731668027343749,-0.00268150585937299,0.0734410578436904,0.598700000000008,
0.03447650390625,-0.0444363828125001,-0.0362003291015611,0.0668856132970167,0.601653000000169,
-0.0660799658203125,0.0656968935546876,0.0260489140625015,0.0967532409244528,0.604683999999907,
0.000957680664062543,-0.0540131894531251,-0.00986411083984251,0.0549148656541578,0.607629000000088,
0.0560243188476562,-0.0396479794921876,0.00210689746093884,0.068666772146852,0.610595999999987,
-0.04213794921875,0.00105344873046875,0.0428083256835947,0.0600771942289451,0.61362599999984,
0.0201112939453125,-0.0348595761718749,0.0452025273437524,0.0605220841784236,0.616576999999779,
0.03447650390625,-0.0420421811523437,0.0164721074218761,0.0568111313085911,0.619600999999875,
-0.0588973608398438,-0.00373495458984374,-0.040988732421873,0.0718534980723893,0.622515999999905,
0.0608127221679687,-0.0228885678710937,0.0763271489257829,0.10023925069456,0.625472000000173,
0.0512359155273437,-0.0540131894531251,0.0428083256835947,0.0858783815791669,0.62849499999993,
-0.0995987890625,0.00344765039062511,0.0475967290039083,0.110441177500984,0.63148799999999,
-0.00622492431640631,0.070485296875,-0.00268150585937299,0.0708104316607075,0.634512000000086,
0.0656011254882812,-0.118656634277344,0.0380199223632829,0.140813419175399,0.637474999999995,
-0.0445321508789063,0.00823605371093761,-0.0218351191406239,0.0502764106765425,0.640395999999782,
-0.0301669409179688,0.0465432802734376,-0.0194409174804662,0.0587730425913299,0.643407999999908,
0.0751779321289062,-0.0899262143554688,-0.0050757075195289,0.117320962808477,0.646334999999908,
0.0416591088867188,-0.0396479794921876,0.0523851323242202,0.077792324297931,0.649361000000226,
-0.111569797363281,0.0656968935546876,-0.0338061274414052,0.133816126677632,0.65229700000009,
0.024899697265625,-0.0731668027343749,-0.0290177241210916,0.0825554617179172,0.65530200000012,
0.015322890625,-0.0731668027343749,0.0140779057617202,0.0760681236137222,0.658257000000049,
-0.0612915625,0.0154186586914062,-0.00986411083984251,0.0639663298321405,0.661199000000124,
-0.00622492431640631,0.00105344873046875,-0.0050757075195289,0.00810075575465123,0.664209000000028,
0.063206923828125,-0.0492247861328126,-0.0697191523437475,0.106202424610581,0.667159999999967,
-0.0229843359375,0.0321780703125001,0.0260489140625015,0.0473524427179807,0.670177999999851,
-0.0253785375976563,-0.0109175595703124,0.0284431157226575,0.0396519118023262,0.673115000000053,
0.0584185205078125,-0.0588015927734374,0.0116837041015643,0.0837069877163657,0.676055999999789,
0.00335188232421879,-0.0228885678710937,0.0140779057617202,0.0270796802961362,0.679082999999991,
-0.0373495458984375,0.00105344873046875,-0.0338061274414052,0.0503880202591027,0.682017999999971,
0.000957680664062543,-0.0611957944335937,0.0332315190429711,0.0696432068942573,0.685059999999794,
0.00335188232421879,-0.0564073911132812,-0.00986411083984251,0.0573613944215339,0.688012000000072,
-0.0301669409179688,-0.0133117612304687,0.00210689746093884,0.0330406768743641,0.690936999999849,
-0.0014365209960937,-0.0540131894531251,-0.0266235224609357,0.0602353731265885,0.693918999999823,
0.03447650390625,-0.0252827695312499,0.0188663090820338,0.0467309894518274,0.696884999999838,
-0.0134075292968751,0.0106302553710937,-0.0481713374023425,0.0511198779168295,0.699889999999868,
0.024899697265625,0.00823605371093761,-0.0481713374023425,0.0548480195793754,0.702857000000222,
-0.0014365209960937,-0.0300711728515624,0.0164721074218761,0.0343171874161998,0.705770999999913,
-0.0158017309570313,-0.00852335791015624,-0.0170467158203103,0.0247574807191976,0.70875500000011,
-0.0349553442382813,-0.00373495458984374,0.0380199223632829,0.0517816615522812,0.71169000000009,
0.024899697265625,-0.0444363828125001,0.00689530078125244,0.0514016752085257,0.714715000000069,
-0.0158017309570313,-0.00852335791015624,0.0811155522460947,0.0830787286102281,0.717642999999953,
0.0296881005859375,0.0106302553710937,0.0116837041015643,0.03362877617738,0.72059900000022,
0.015322890625,-0.092320416015625,-0.0314119257812475,0.098714534247447,0.723593000000164,
0.000957680664062543,-0.0109175595703124,0.0499909306640642,0.0511781536193415,0.726571000000149,
-0.0301669409179688,-0.0109175595703124,-0.0170467158203103,0.0363294364335308,0.729660999999851,
0.015322890625,-0.0396479794921876,0.00928950244140836,0.043509172717113,0.732726000000184,
-0.00861912597656256,-0.0324653745117187,0.0260489140625015,0.0425068911898012,0.735737999999856,
-0.032561142578125,-0.0133117612304687,0.0643561406250015,0.0733426467288641,0.738766999999825,
0.015322890625,-0.0659841977539062,0.00450109912109475,0.0678893601651263,0.74172899999985,
-0.0014365209960937,-0.0252827695312499,0.0188663090820338,0.0315787847473798,0.744722999999794,
-0.0110133276367188,0.0321780703125001,-0.0242293208007798,0.0417586108621565,0.74766499999987,
-0.0253785375976563,-0.00852335791015624,0.0571735356445338,0.0631310619169126,0.750684999999976,
0.000957680664062543,-0.0468305844726562,-0.0122583124999984,0.0484178378250467,0.753619000000072,
0.000957680664062543,0.00584185205078125,0.0284431157226575,0.0290526284464938,0.756582999999864,
0.0201112939453125,-0.0348595761718749,0.0188663090820338,0.0444476300089931,0.759605000000192,
0.015322890625,-0.0444363828125001,-0.0194409174804662,0.050865827104718,0.762538999999833,
0.00814028564453129,-0.00373495458984374,-0.000287304199217076,0.00896084147084663,0.765554000000066,
0.015322890625,-0.00612915624999988,-0.0721133540039052,0.0739776544581887,0.768516999999974,
0.0320823022460938,-0.00373495458984374,-0.0074699091796866,0.0331515240426541,0.771463999999924,
-0.0110133276367188,-0.00373495458984374,-0.000287304199217076,0.011632962439757,0.77446000000009,
0.00574608398437504,-0.0228885678710937,0.0164721074218761,0.0287790608474804,0.777403999999933,
0.000957680664062543,-0.0276769711914062,-0.0122583124999984,0.0302852787989787,0.780417999999827,
0.0177170922851563,-0.00612915624999988,-0.0074699091796866,0.0201807199705665,0.783350000000155,
-0.0014365209960937,-0.0348595761718749,0.0404141240234388,0.0533905896580742,0.786278999999922,
0.00814028564453129,-0.0348595761718749,-0.00986411083984251,0.037131590107589,0.789279999999962,
0.0272938989257813,-0.0372537778320312,-0.000287304199217076,0.0461831508781286,0.792219999999816,
-0.0229843359375,-0.0228885678710937,0.0212605107421897,0.0387837021788313,0.795218000000204,
0.00814028564453129,-0.0181001645507812,0.0380199223632829,0.0428881650767432,0.798178000000007,
-0.0253785375976563,-0.0228885678710937,-0.0074699091796866,0.0349822276726066,0.801094999999805,
-0.0229843359375,-0.00373495458984374,-0.000287304199217076,0.0232875960111588,0.804090999999971,
-0.0253785375976563,-0.0540131894531251,0.00689530078125244,0.0600752859199086,0.807025999999951,
0.0368707055664063,0.0226012636718751,-0.038594530761717,0.0579638150335825,0.810063999999784,
0.0105344873046875,-0.0300711728515624,0.00928950244140836,0.033189542254302,0.813023000000157,
0.0201112939453125,-0.0181001645507812,-0.0625365473632797,0.0681388278226141,0.815950000000157,
0.0225054956054688,-0.00134075292968738,-0.0673249506835916,0.070999605177876,0.818949999999859,
-0.00383072265624995,-0.00612915624999988,0.00928950244140836,0.0117701252336138,0.82190700000001,
-0.0205901342773438,-0.00612915624999988,0.0404141240234388,0.0457692211696666,0.82491200000004,
-0.0205901342773438,-0.0181001645507812,0.0164721074218761,0.031982806462883,0.827850000000126,
-0.00383072265624995,-0.0516189877929687,-0.0074699091796866,0.0522971689481613,0.830738999999994,
0.024899697265625,-0.0324653745117187,0.0140779057617202,0.0432687288551652,0.833755999999994,
-0.0014365209960937,0.0178128603515626,0.035625720703127,0.0398566627064246,0.836703999999827,
-0.00622492431640631,-0.0133117612304687,0.0164721074218761,0.0220744873716203,0.839711000000079,
-0.0134075292968751,-0.0300711728515624,0.00210689746093884,0.0329920641279992,0.842646000000059,
0.015322890625,0.0130244570312501,-0.0146525141601543,0.0248821950253212,0.845668999999816,
-0.00383072265624995,-0.0181001645507812,0.0452025273437524,0.0488421833162395,0.848603999999796,
-0.00383072265624995,-0.0181001645507812,-0.000287304199217076,0.0185033223108001,0.851505000000088,
-0.00861912597656256,-0.00612915624999988,0.0452025273437524,0.0464233170637284,0.854499999999916,
-0.0445321508789063,-0.0300711728515624,0.0332315190429711,0.0631800740461228,0.857433000000128,
0.015322890625,-0.0516189877929687,0.0643561406250015,0.0839108080882393,0.86044099999981,
0.0201112939453125,0.00344765039062511,0.00450109912109475,0.0208952226757377,0.863408000000163,
0.0105344873046875,-0.0300711728515624,0.00450109912109475,0.0321793528949711,0.866395999999895,
-0.0277727392578125,-0.0564073911132812,0.0212605107421897,0.0663711393235635,0.869489000000158,
-0.0110133276367188,-0.0133117612304687,0.0284431157226575,0.0332792308310034,0.872520999999779,
0.0368707055664063,-0.0324653745117187,0.0332315190429711,0.0593109039642301,0.875627999999779,
0.00335188232421879,0.00344765039062511,0.00450109912109475,0.00658644833193944,0.878595000000132,
0.0296881005859375,-0.0276769711914062,0.0571735356445338,0.0701156988756972,0.881523999999899,
-0.00861912597656256,-0.00612915624999988,-0.00986411083984251,0.0144622464229271,0.884498999999778,
-0.0181959326171875,-0.00612915624999988,0.00450109912109475,0.0197210145135605,0.887462000000141,
-0.0014365209960937,-0.0181001645507812,0.0404141240234388,0.0443055410746722,0.890472999999929,
-0.0110133276367188,-0.0228885678710937,0.0164721074218761,0.0302739202572314,0.893403999999919,
-0.0014365209960937,-0.0276769711914062,0.0164721074218761,0.0322398611941797,0.896296999999777,
-0.0565031591796875,0.00344765039062511,-0.0218351191406239,0.0606734350303848,0.899312000000009,
0.0272938989257813,-0.00373495458984374,-0.000287304199217076,0.0275497613068035,0.902258999999958,
-0.00383072265624995,0.0249954653320312,-0.00986411083984251,0.0271431097314692,0.90528200000017,
0.0129286889648438,-0.00612915624999988,-0.00986411083984251,0.0173786719097658,0.908249999999953,
0.0368707055664063,-0.00612915624999988,-0.0146525141601543,0.0401461287861614,0.911203999999998,
0.015322890625,-0.00373495458984374,0.0428083256835947,0.0456211969453523,0.914228000000094,
-0.00383072265624995,0.00584185205078125,0.0452025273437524,0.0457391533559051,0.917191999999886,
0.0201112939453125,-0.0157059628906249,0.0499909306640642,0.056126950417208,0.920214000000215,
-0.00383072265624995,-0.0372537778320312,0.00689530078125244,0.0380797002573732,0.923150000000078,
0.0105344873046875,-0.00612915624999988,0.00210689746093884,0.0123685486626542,0.926086999999825,
0.024899697265625,-0.0324653745117187,-0.0122583124999984,0.0427113766045248,0.929089000000204,
-0.0229843359375,-0.0324653745117187,0.0164721074218761,0.0430535778256795,0.932034999999814,
0.024899697265625,-0.0181001645507812,0.0547793339843761,0.0628361863296695,0.93506699999989,
-0.00383072265624995,-0.0204943662109374,-0.000287304199217076,0.0208512835614503,0.938000000000102,
-0.00383072265624995,-0.0109175595703124,-0.0290177241210916,0.0312393318783902,0.94098699999995,
0.0272938989257813,-0.0109175595703124,0.0284431157226575,0.0409042889872757,0.943938999999773,
0.0584185205078125,-0.0157059628906249,0.0475967290039083,0.0769730434666246,0.946880999999848,
0.024899697265625,-0.0109175595703124,0.0236547124023456,0.0360379445824644,0.949896000000081,
0.00814028564453129,-0.0204943662109374,-0.0314119257812475,0.0383795828279722,0.952836999999818,
-0.0301669409179688,0.00105344873046875,-0.0242293208007798,0.038706770273985,0.955832999999984,
-0.00861912597656256,0.0130244570312501,0.0284431157226575,0.0324489852779901,0.958783999999923,
-0.00861912597656256,-0.0468305844726562,0.0212605107421897,0.0521478886597454,0.961706999999933,
0.0177170922851563,-0.0276769711914062,-0.038594530761717,0.0506897218190019,0.964736999999786,
-0.0158017309570313,-0.0492247861328126,-0.0242293208007798,0.0570949582496269,0.967653000000155,
-0.0181959326171875,-0.0372537778320312,-0.0362003291015611,0.0550399832270042,0.970646000000215,
0.00574608398437504,-0.0109175595703124,-0.0218351191406239,0.0250795338077096,0.973579999999856,
0.0177170922851563,-0.0181001645507812,-0.040988732421873,0.0481828548485662,0.976504000000205,
0.0225054956054688,-0.0276769711914062,-0.0266235224609357,0.0445120659485229,0.9795009999998,
-0.00622492431640631,0.0106302553710937,-0.0457771357421866,0.0474056765457284,0.982450999999855,
-0.0373495458984375,-0.0109175595703124,-0.0505655390624984,0.0638048229091803,0.985430000000179,
0.0296881005859375,-0.00852335791015624,-0.0266235224609357,0.0407779707034731,0.988370999999916,
-0.0349553442382813,0.0130244570312501,-0.00268150585937299,0.0373992385677767,0.991293999999925,
0.0296881005859375,-0.0611957944335937,-0.0170467158203103,0.070120603912244,0.994306000000051,
0.0296881005859375,-0.0420421811523437,0.00689530078125244,0.0519275792360011,0.997257999999874,
0.000957680664062543,-0.0468305844726562,-0.0314119257812475,0.0563979598530967,1.00026699999989,
0.0320823022460938,-0.0204943662109374,0.00450109912109475,0.0383347499939108,1.0032299999998,
0.0296881005859375,-0.0228885678710937,-0.0122583124999984,0.0394402850007201,1.00626700000021,
-0.0301669409179688,0.00344765039062511,0.00928950244140836,0.0317525664029402,1.0094009999998,
0.0296881005859375,-0.0133117612304687,-0.0074699091796866,0.0333824182259243,1.01244799999995,
