X,Y,Z,Magnitude,Seconds,
-0.00383072265624995,-0.0731668027343749,-0.0170467158203103,0.0752239721013086,0.0,
-0.0229843359375,-0.0492247861328126,0.0236547124023456,0.0592528875848821,0.00375999999960186,
0.00335188232421879,0.0273896669921876,0.0260489140625015,0.0379470011581143,0.00751299999956245,
-0.0181959326171875,-0.0396479794921876,0.00210689746093884,0.043674858426022,0.0112419999995836,
0.00574608398437504,-0.0372537778320312,-0.00986411083984251,0.0389636000207184,0.0150919999996404,
0.0105344873046875,-0.0468305844726562,-0.0194409174804662,0.0517883030935124,0.0188099999995757,
0.00814028564453129,-0.0396479794921876,-0.0481713374023425,0.0629182348394947,0.0225219999992987,
-0.0277727392578125,-0.0396479794921876,-0.0194409174804662,0.0521654732191482,0.0262209999991683,
0.0129286889648438,-0.0444363828125001,-0.0242293208007798,0.0522379469569376,0.0299519999998665,
-0.0158017309570313,-0.0324653745117187,0.00689530078125244,0.0367592221937366,0.0336680000000342,
-0.0373495458984375,-0.0228885678710937,0.035625720703127,0.056462970995391,0.0374769999998534,
-0.0110133276367188,-0.0372537778320312,-0.00268150585937299,0.0389400542124161,0.04120199999943,
-0.0373495458984375,-0.0468305844726562,0.0787213505859388,0.0989198830313924,0.0449979999993957,
0.03447650390625,-0.0204943662109374,0.0260489140625015,0.0478246201429899,0.0488059999997859,
-0.0181959326171875,-0.0300711728515624,0.0164721074218761,0.0388162043919237,0.0525299999999334,
0.0368707055664063,-0.0157059628906249,0.00210689746093884,0.0401318479040926,0.0562809999992169,
0.015322890625,-0.0348595761718749,0.0260489140625015,0.0461359615898926,0.0601389999992534,
-0.00383072265624995,-0.0372537778320312,-0.00268150585937299,0.0375460899762052,0.063890999999785,
0.00814028564453129,0.00105344873046875,-0.0194409174804662,0.0211026841203811,0.0676579999999376,
0.0129286889648438,-0.00134075292968738,-0.0218351191406239,0.0254110417860696,0.071418999999878,
-0.0349553442382813,-0.00134075292968738,-0.0122583124999984,0.0370666957602485,0.0751469999995606,
-0.00622492431640631,-0.0396479794921876,-0.0218351191406239,0.0456889963606463,0.0788549999997485,
0.00335188232421879,-0.0372537778320312,0.00450109912109475,0.0376741153999888,0.0826419999993959,
-0.00622492431640631,-0.0300711728515624,0.0260489140625015,0.0402687353072966,0.0863569999992251,
-0.0158017309570313,-0.0276769711914062,0.00689530078125244,0.032607585136472,0.0900679999995191,
-0.0014365209960937,-0.0300711728515624,0.0452025273437524,0.0543102891495105,0.0938569999998435,
-0.0253785375976563,-0.0109175595703124,0.0212605107421897,0.0348607600976476,0.0978399999994508,
-0.00861912597656256,-0.00373495458984374,0.0404141240234388,0.0414914526013484,0.101616999999351,
0.0320823022460938,-0.0133117612304687,0.0571735356445338,0.0668976104398617,0.105499999999665,
-0.0134075292968751,-0.00134075292968738,0.0619619389648456,0.0634101044041743,0.109292999999525,
-0.0158017309570313,-0.0109175595703124,0.0404141240234388,0.0447458291776073,0.11307399999987,
0.0392649072265625,-0.0276769711914062,-0.0362003291015611,0.0601515710592984,0.116887999999562,
-0.0181959326171875,0.00105344873046875,-0.00986411083984251,0.0207244396956264,0.120672999999442,
-0.0205901342773438,-0.0396479794921876,0.00210689746093884,0.0447253275480782,0.124460999999428,
0.0272938989257813,-0.0181001645507812,0.0212605107421897,0.0390458985343517,0.128289999999652,
-0.0229843359375,-0.0133117612304687,-0.0050757075195289,0.0270415512197187,0.132178999999269,
0.0225054956054688,-0.0300711728515624,0.0236547124023456,0.044388266331926,0.135947999999189,
0.000957680664062543,-0.0228885678710937,0.0452025273437524,0.050676149910058,0.139694999999847,
0.00335188232421879,-0.0157059628906249,0.0571735356445338,0.0593862405236589,0.143456999999216,
-0.0229843359375,-0.0204943662109374,-0.0290177241210916,0.0423122565936118,0.147163999999975,
-0.0110133276367188,-0.0348595761718749,0.0308373173828134,0.0478270172589178,0.150879999999233,
-0.0134075292968751,-0.0204943662109374,0.0116837041015643,0.0271346610402172,0.154649000000063,
0.0105344873046875,-0.0252827695312499,-0.0122583124999984,0.0300076670751083,0.158380999999281,
-0.00861912597656256,-0.0516189877929687,0.0428083256835947,0.0676118479351306,0.162099999999555,
-0.0301669409179688,-0.0420421811523437,-0.0218351191406239,0.0561637049016528,0.16592799999944,
0.00814028564453129,-0.0348595761718749,0.0188663090820338,0.0404646996731242,0.169825999999375,
0.0105344873046875,-0.0181001645507812,0.0523851323242202,0.0564162518088896,0.173565999999482,
-0.0158017309570313,-0.0372537778320312,-0.0074699091796866,0.0411501908519208,0.1773919999996,
0.0177170922851563,-0.0228885678710937,-0.000287304199217076,0.0289458881697089,0.181150999999772,
0.0368707055664063,-0.00852335791015624,0.0212605107421897,0.0434062884389809,0.184941999999864,
0.000957680664062543,0.00584185205078125,-0.0314119257812475,0.0319648786783892,0.188746999999239,
-0.0229843359375,-0.0204943662109374,-0.0314119257812475,0.0439887238523973,0.192489000000023,
0.0105344873046875,-0.00852335791015624,0.0906923588867201,0.0916991113003549,0.196246999999858,
-0.0110133276367188,-0.00373495458984374,-0.0505655390624984,0.0518856146933132,0.200025999999525,
0.015322890625,-0.0300711728515624,0.0236547124023456,0.0412142188159856,0.203898999999183,
0.00574608398437504,-0.0252827695312499,-0.0601423457031238,0.0654930352251279,0.207623999999669,
-0.04213794921875,-0.00134075292968738,-0.0074699091796866,0.0428159307493506,0.211330999999518,
0.024899697265625,-0.0372537778320312,-0.00986411083984251,0.0458817999792817,0.215056000000004,
-0.0349553442382813,-0.00134075292968738,-0.0242293208007798,0.0425527166665339,0.218748999999661,
0.024899697265625,-0.0252827695312499,0.00689530078125244,0.0361491152305836,0.222492999999304,
-0.0445321508789063,-0.00612915624999988,-0.0314119257812475,0.0548396580908852,0.22625699999935,
0.0560243188476562,0.00823605371093761,-0.000287304199217076,0.0566271968825598,0.230000999999902,
0.00335188232421879,-0.0204943662109374,0.093086560546876,0.0953748494937247,0.233742999999777,
-0.0469263525390625,-0.0109175595703124,0.0236547124023456,0.053673280954581,0.237702999999783,
0.00335188232421879,-0.0348595761718749,0.0260489140625015,0.0436459744974694,0.241549999999734,
-0.00622492431640631,-0.0348595761718749,0.0236547124023456,0.0425850343720117,0.245336999999381,
-0.00861912597656256,-0.00852335791015624,0.00210689746093884,0.0123034946082562,0.249110999999175,
0.00335188232421879,-0.0276769711914062,0.0619619389648456,0.067945064057138,0.253034999999727,
0.0105344873046875,-0.0396479794921876,0.0380199223632829,0.055932568304125,0.256865999999718,
0.000957680664062543,-0.00612915624999988,-0.0433829340820289,0.0438242247867192,0.260652999999365,
-0.00861912597656256,0.00105344873046875,-0.0481713374023425,0.0489476948789001,0.264437999999245,
-0.0110133276367188,0.00823605371093761,0.0236547124023456,0.0273618600464378,0.268264999999701,
0.0105344873046875,-0.0133117612304687,0.00450109912109475,0.0175624116546548,0.272066999999879,
-0.0588973608398438,-0.0300711728515624,-0.0266235224609357,0.0712880529878271,0.275887999999213,
0.0129286889648438,-0.0372537778320312,-0.0721133540039052,0.0821908193583721,0.27965199999926,
0.07278373046875,-0.137810247558594,-0.0074699091796866,0.156028636141771,0.283439999999246,
-0.224097275390625,0.226108404785156,0.071538745605471,0.3262857515657,0.287205999999969,
0.204464821777344,-0.116262432617187,-0.0146525141601543,0.235663982724812,0.290960999999697,
0.00814028564453129,-0.264702935546875,-0.0481713374023425,0.269173524115278,0.294661999999335,
-0.441969626464844,0.594815460449219,0.131393787109376,0.752600099653085,0.298484999999346,
0.403183559570313,-0.578343353027344,-0.0505655390624984,0.706820267422617,0.301900999999816,
-0.0205901342773438,0.070485296875,-0.0433829340820289,0.0852889774512604,0.304873000000043,
-0.432392819824219,0.376943109375,-0.0601423457031238,0.576772710942106,0.307916999999179,
0.431913979492188,-0.415537640136719,0.0404141240234388,0.600711675824395,0.311062999999194,
0.218830031738281,-0.0181001645507812,0.0428083256835947,0.223711312845764,0.314128999999411,
-0.611957944335938,0.111186725097656,-0.0433829340820289,0.62348784466369,0.317197999999735,
0.0201112939453125,-0.0252827695312499,0.0452025273437524,0.0555603370902998,0.320165999999517,
0.542047255859375,-0.207242095703125,-0.0218351191406239,0.580724793894653,0.323096999999507,
-0.183395847167969,0.0178128603515626,0.0284431157226575,0.186441265776581,0.3261509999993,
-0.415633408203125,0.0920331118164064,-0.0194409174804662,0.426144544676614,0.329146999999466,
0.211647426757813,-0.0755610043945312,0.0308373173828134,0.226837031327961,0.332184999999299,
0.307415493164062,-0.130627642578125,-0.0242293208007798,0.334895396249768,0.335120999999162,
-0.190578452148437,0.0154186586914062,-0.0481713374023425,0.197175960011018,0.338062999999238,
-0.21452046875,-0.00373495458984374,-0.0074699091796866,0.214682977764099,0.341053999999531,
0.163763393554688,-0.0899262143554688,-0.0122583124999984,0.187230978532402,0.344029999999293,
0.180522805175781,-0.0540131894531251,0.0188663090820338,0.189372240420319,0.347085999999763,
-0.238462485351563,0.0130244570312501,0.0164721074218761,0.239385303901307,0.35006599999997,
-0.0158017309570313,0.0944273134765625,0.0332315190429711,0.101343702762149,0.353008000000045,
0.204464821777344,-0.1593580625,0.0260489140625015,0.260536756239941,0.356042999999772,
-0.0852335791015625,-0.0540131894531251,0.00210689746093884,0.100928819760623,0.358981999999742,
-0.123540805664063,0.113580926757813,0.0236547124023456,0.169477145969971,0.362019999999575,
0.108696755371094,-0.173723272460937,0.0404141240234388,0.208873314339871,0.364963999999418,
0.044053310546875,0.0297838686523437,0.0643561406250015,0.0834834464920109,0.367987999999968,
-0.15705962890625,0.099215716796875,-0.0170467158203103,0.186553145274866,0.370916999999281,
0.0799663354492187,-0.173723272460937,-0.0170467158203103,0.192002553941276,0.373823999999331,
0.0368707055664063,-0.0133117612304687,0.0140779057617202,0.0416514026973583,0.376859999999397,
-0.137906015625,0.137522943359375,-0.0601423457031238,0.203832604954317,0.379801999999472,
0.0368707055664063,-0.0947146176757813,0.0739329472656269,0.12568368399206,0.382806999999957,
0.0847547387695312,-0.152175457519531,0.0188663090820338,0.175204660992649,0.385764999999992,
-0.0565031591796875,0.120763531738281,-0.0242293208007798,0.135511983166269,0.388678999999684,
-0.0110133276367188,-0.0300711728515624,-0.0050757075195289,0.0324242444649996,0.391677999999956,
0.0584185205078125,-0.125839239257812,0.035625720703127,0.143239064681824,0.394625999999334,
-0.0636857641601563,0.0321780703125001,-0.0074699091796866,0.0717433223990359,0.397638999999799,
-0.0253785375976563,-0.0133117612304687,0.0643561406250015,0.0704484633884773,0.400570999999218,
0.00814028564453129,-0.0803494077148437,0.00928950244140836,0.0812932126693839,0.403511999999864,
0.044053310546875,-0.0588015927734374,-0.0050757075195289,0.0736483828040805,0.406527999999525,
-0.0636857641601563,-0.00134075292968738,-0.0912669672851543,0.11129839842743,0.409439999999449,
0.0272938989257813,-0.0659841977539062,0.00210689746093884,0.0714374571825473,0.412478999999621,
-0.00383072265624995,-0.0276769711914062,0.0452025273437524,0.0531409225424411,0.415404999999737,
-0.0181959326171875,-0.0109175595703124,0.00928950244140836,0.0231641949221094,0.418323999999302,
0.0416591088867188,-0.0204943662109374,0.0116837041015643,0.0478749343723457,0.421356999999261,
0.00335188232421879,-0.0827436093749999,-0.0218351191406239,0.0856417680539305,0.424295999999231,
-0.0158017309570313,0.00105344873046875,-0.0170467158203103,0.0232678958164365,0.427319999999781,
0.0320823022460938,-0.0181001645507812,0.0260489140625015,0.0451158065206715,0.430272999999943,
0.0129286889648438,-0.0204943662109374,-0.0122583124999984,0.0271557778398134,0.433188999999402,
-0.0134075292968751,0.0489374819335937,-0.0122583124999984,0.0522006245670968,0.436216999999488,
0.000957680664062543,-0.0109175595703124,0.00450109912109475,0.0118477910398335,0.439165999999204,
0.0225054956054688,-0.0324653745117187,-0.038594530761717,0.0552271281106582,0.442180000000008,
-0.0277727392578125,-0.0228885678710937,0.00450109912109475,0.0362694289777221,0.445179999999709,
-0.0134075292968751,-0.0181001645507812,0.00689530078125244,0.0235568030826736,0.448204999999689,
-0.0181959326171875,-0.0468305844726562,-0.0290177241210916,0.0580191685482272,0.451296999999613,
-0.032561142578125,-0.0276769711914062,-0.0242293208007798,0.0491253776249101,0.454303999999865,
0.024899697265625,-0.00852335791015624,-0.0290177241210916,0.0391748754580302,0.457331999999951,
0.000957680664062543,-0.0659841977539062,-0.0194409174804662,0.0687952089753582,0.460274000000027,
0.00814028564453129,-0.0252827695312499,-0.0074699091796866,0.0275913433652228,0.463289999999688,
0.0201112939453125,-0.0324653745117187,0.0188663090820338,0.0425958014916934,0.466253999999935,
-0.00622492431640631,0.00823605371093761,0.0188663090820338,0.0215062754063382,0.469215999999506,
-0.0253785375976563,-0.0540131894531251,0.035625720703127,0.069503142239125,0.472232999999505,
-0.0373495458984375,-0.00852335791015624,-0.0457771357421866,0.0596923978881958,0.475144999999429,
0.0201112939453125,-0.00852335791015624,0.0236547124023456,0.0321971612577424,0.478175999999621,
-0.0158017309570313,0.0202070620117187,0.0212605107421897,0.0333171033165041,0.481134999999995,
0.0536301171875,0.0249954653320312,0.0499909306640642,0.0774600277909131,0.484102999999777,
0.0105344873046875,-0.0635899960937499,0.00450109912109475,0.0646136434452792,0.487167999999656,
-0.0780509741210937,0.0249954653320312,0.0236547124023456,0.085301074244432,0.490142999999989,
-0.0229843359375,-0.00612915624999988,0.00689530078125244,0.0247667403525113,0.493150999999671,
0.03447650390625,-0.0755610043945312,-0.000287304199217076,0.0830552662412861,0.496083999999428,
-0.0349553442382813,0.0441490786132812,0.0164721074218761,0.0586715225312609,0.49904399999923,
-0.00622492431640631,-0.0420421811523437,0.0595677373046897,0.0731752007608588,0.502042999999503,
0.0368707055664063,-0.0755610043945312,0.00450109912109475,0.0841972339650947,0.504997000000003,
-0.04213794921875,0.0178128603515626,-0.0074699091796866,0.0463541184946817,0.508007999999791,
-0.051714755859375,0.00584185205078125,-0.0649307490234357,0.0832138532801022,0.510952999999972,
0.0703895288085937,-0.0276769711914062,-0.000287304199217076,0.0756358581886175,0.513866999999664,
0.00814028564453129,-0.0444363828125001,-0.038594530761717,0.059417120197387,0.516894999999749,
-0.0756567724609375,0.0345722719726562,-0.00268150585937299,0.0832248741797261,0.519825999999739,
0.0584185205078125,-0.0635899960937499,-0.0960553706054679,0.129162863717396,0.522843999999168,
0.0679953271484375,-0.0276769711914062,-0.040988732421873,0.0840800537220622,0.52577299999939,
-0.0229843359375,-0.0755610043945312,-0.000287304199217076,0.0789799191396212,0.528680999999779,
-0.0541089575195313,-0.0157059628906249,0.0619619389648456,0.083748065257983,0.531702999999652,
0.0416591088867188,-0.0157059628906249,-0.0242293208007798,0.0506874600865369,0.534649999999601,
0.0320823022460938,-0.0372537778320312,0.0667503422851574,0.0829019075495475,0.537679000000026,
-0.0541089575195313,-0.0348595761718749,-0.000287304199217076,0.0643665431605277,0.540610000000015,
-0.00622492431640631,-0.0396479794921876,-0.0457771357421866,0.0608790449770402,0.543533999999454,
0.0584185205078125,-0.0372537778320312,0.0140779057617202,0.0707018736082427,0.546563999999307,
-0.00622492431640631,0.0249954653320312,0.0188663090820338,0.031928992910654,0.549518999999236,
-0.0660799658203125,-0.0109175595703124,-0.0290177241210916,0.0729916659828557,0.552519999999276,
0.0129286889648438,-0.0276769711914062,-0.0218351191406239,0.0375491432733803,0.555456000000049,
0.0272938989257813,-0.0492247861328126,0.071538745605471,0.0910265269643756,0.558482999999796,
0.0177170922851563,-0.0611957944335937,0.0260489140625015,0.0688285299801978,0.561448999999811,
0.0560243188476562,-0.0276769711914062,-0.0218351191406239,0.0661929865209224,0.564384999999675,
-0.0205901342773438,0.00344765039062511,-0.0194409174804662,0.0285269906449545,0.567419999999402,
-0.0158017309570313,-0.00852335791015624,0.0595677373046897,0.0622146096901969,0.570363999999245,
-0.00622492431640631,-0.0228885678710937,0.0212605107421897,0.0318535012040029,0.573358999999982,
0.0512359155273437,-0.0420421811523437,0.035625720703127,0.0752453055784133,0.576335999999174,
-0.0301669409179688,-0.0181001645507812,-0.0242293208007798,0.0427167445807926,0.57923799999935,
-0.0134075292968751,0.00105344873046875,-0.0146525141601543,0.0198888855215121,0.582292999999481,
0.0177170922851563,-0.00134075292968738,-0.040988732421873,0.0446740323119719,0.5853419999994,
0.000957680664062543,-0.00373495458984374,0.0332315190429711,0.0334544600307024,0.588489999999183,
0.0129286889648438,-0.00134075292968738,-0.0146525141601543,0.0195868524266065,0.591519999999946,
-0.0445321508789063,0.00105344873046875,-0.000287304199217076,0.0445455358013829,0.594505000000026,
0.0272938989257813,0.00823605371093761,-0.0074699091796866,0.0294718347317058,0.597551999999268,
0.000957680664062543,-0.0276769711914062,0.00210689746093884,0.0277735648323214,0.600518999999622,
0.0560243188476562,-0.0348595761718749,0.035625720703127,0.0749873744629308,0.603558999999223,
-0.0134075292968751,-0.0588015927734374,-0.0050757075195289,0.0605239783999989,0.606500999999298,
-0.0253785375976563,-0.0204943662109374,0.0452025273437524,0.0557436785227379,0.609428999999182,
-0.0205901342773438,-0.0181001645507812,0.071538745605471,0.0766117596007865,0.612456999999267,
-0.00861912597656256,0.0106302553710937,0.0691445439453133,0.0704858824110182,0.615429999999833,
0.00574608398437504,-0.0420421811523437,0.00450109912109475,0.0426710952577959,0.61849600000005,
-0.00622492431640631,-0.0181001645507812,-0.0170467158203103,0.0256311560365263,0.621437999999216,
-0.0014365209960937,-0.0588015927734374,-0.0577481440429679,0.0824289939625176,0.624375999999756,
-0.00622492431640631,-0.0683783994140624,-0.0146525141601543,0.07020720305202,0.62741399999959,
-0.00383072265624995,-0.00612915624999988,0.0643561406250015,0.0647607429586087,0.630362999999306,
-0.0134075292968751,-0.0492247861328126,-0.0314119257812475,0.0599128574928145,0.633345999999619,
0.0201112939453125,-0.0564073911132812,0.035625720703127,0.0696810583442778,0.636319999999614,
0.0296881005859375,-0.0109175595703124,-0.0050757075195289,0.0320365296216033,0.639234999999644,
0.00335188232421879,-0.0252827695312499,-0.00268150585937299,0.0256445710426117,0.642245999999432,
-0.0469263525390625,-0.0300711728515624,-0.0074699091796866,0.0562330644944919,0.645157999999356,
0.00335188232421879,-0.0204943662109374,0.0260489140625015,0.0333136621424156,0.648189999999886,
-0.0541089575195313,0.00105344873046875,0.0188663090820338,0.0573134073010583,0.651128999999855,
0.000957680664062543,-0.0396479794921876,-0.0074699091796866,0.0403568949898281,0.654126999999789,
-0.0014365209960937,-0.0540131894531251,0.0332315190429711,0.0634336037552238,0.657075999999506,
0.024899697265625,-0.0252827695312499,-0.038594530761717,0.0524285338704717,0.660000999999284,
0.000957680664062543,-0.0396479794921876,-0.038594530761717,0.0553391112576301,0.663023000000067,
0.015322890625,-0.0252827695312499,0.0140779057617202,0.0327444169731557,0.665984999999637,
-0.0301669409179688,-0.0396479794921876,-0.00268150585937299,0.0498918538023493,0.668964999999844,
-0.00861912597656256,-0.0516189877929687,0.0212605107421897,0.0564873308839183,0.671920999999202,
0.0225054956054688,-0.0157059628906249,-0.0577481440429679,0.063937647307176,0.67485299999953,
-0.00622492431640631,-0.0133117612304687,-0.00268150585937299,0.0149379765522593,0.677867999999762,
0.0225054956054688,-0.0204943662109374,0.0499909306640642,0.0585287068667595,0.68082400000003,
0.03447650390625,-0.0300711728515624,-0.0625365473632797,0.0774837048313124,0.683847999999671,
-0.0301669409179688,-0.0204943662109374,-0.0050757075195289,0.0368215450186441,0.686766999999236,
0.015322890625,-0.0133117612304687,0.0404141240234388,0.04522494206458,0.689725999999609,
0.0225054956054688,-0.00373495458984374,-0.0457771357421866,0.0511467826455833,0.692744999999377,
0.0201112939453125,-0.0564073911132812,-0.0218351191406239,0.0637419041466968,0.695694999999432,
-0.0301669409179688,-0.0252827695312499,-0.0481713374023425,0.0622072383782533,0.698695999999472,
-0.0301669409179688,0.00584185205078125,-0.0864785639648424,0.0917753430129944,0.701626000000033,
-0.0349553442382813,-0.0324653745117187,-0.0362003291015611,0.0598860623189088,0.704523999999765,
-0.0301669409179688,-0.0157059628906249,-0.040988732421873,0.053261597612368,0.707523999999466,
-0.0134075292968751,-0.0133117612304687,-0.0266235224609357,0.0326462367989255,0.710431999999855,
-0.0110133276367188,-0.0181001645507812,-0.0194409174804662,0.028755149362877,0.713425999999345,
0.0272938989257813,-0.0348595761718749,-0.0457771357421866,0.0636843240225731,0.716361999999208,
-0.0014365209960937,-0.0181001645507812,0.00689530078125244,0.0194222738679465,0.719326999999794,
0.000957680664062543,-0.00612915624999988,0.00928950244140836,0.0111704325878707,0.722359999999753,
-0.0134075292968751,-0.0540131894531251,0.0332315190429711,0.0648191355592551,0.725300000000061,
-0.00861912597656256,-0.0133117612304687,0.0811155522460947,0.0826512258580947,0.728312999999616,
0.0320823022460938,-0.00373495458984374,0.00928950244140836,0.033608315322355,0.731262999999672,
-0.0253785375976563,-0.0181001645507812,-0.000287304199217076,0.0311732043759364,0.73415599999953,
0.00574608398437504,-0.0444363828125001,-0.0242293208007798,0.0509378992998498,0.737162999999782,
0.044053310546875,-0.0181001645507812,0.00450109912109475,0.047839001036839,0.740116999999373,
-0.0158017309570313,-0.00373495458984374,0.0212605107421897,0.0267517084322733,0.743125999999393,
-0.0253785375976563,-0.0157059628906249,-0.0194409174804662,0.0356187691168524,0.746027999999569,
-0.0397437475585938,-0.0635899960937499,-0.0074699091796866,0.0753594892256916,0.749008999999205,
-0.00622492431640631,-0.0109175595703124,-0.0362003291015611,0.0383197940596976,0.751923999999235,
0.00574608398437504,-0.0324653745117187,0.0140779057617202,0.0358497622583124,0.754863999999543,
-0.0301669409179688,-0.0444363828125001,0.00689530078125244,0.0541496224794893,0.757864999999583,
-0.0493205541992188,-0.0468305844726562,0.0475967290039083,0.0830124648498052,0.760793999999805,
0.00574608398437504,-0.0204943662109374,0.0332315190429711,0.0394635323488262,0.763795999999274,
-0.0158017309570313,0.00105344873046875,0.00450109912109475,0.0164640319716662,0.766765999999734,
-0.0014365209960937,-0.0300711728515624,0.00210689746093884,0.0301790994920602,0.769671999999446,
0.0201112939453125,0.00584185205078125,0.0332315190429711,0.0392800870345437,0.772723000000042,
-0.0014365209960937,0.0226012636718751,-0.0290177241210916,0.0368090888953478,0.775643999999375,
-0.0134075292968751,-0.0276769711914062,0.0643561406250015,0.0713266388688088,0.778659999999945,
-0.0134075292968751,0.0130244570312501,-0.0146525141601543,0.0237506735487431,0.781594000000041,
0.024899697265625,-0.0228885678710937,-0.038594530761717,0.0513168516944148,0.784517000000051,
0.0129286889648438,0.00823605371093761,-0.0218351191406239,0.0266787557236907,0.787555999999313,
0.024899697265625,-0.00134075292968738,-0.0290177241210916,0.0382599118596217,0.79048899999998,
-0.0110133276367188,-0.0516189877929687,-0.0050757075195289,0.0530242971969282,0.793486999999914,
0.0296881005859375,-0.0348595761718749,-0.0290177241210916,0.0542088708649357,0.796423999999206,
-0.0373495458984375,-0.0372537778320312,-0.000287304199217076,0.0527533419347127,0.799328999999489,
-0.032561142578125,0.0154186586914062,0.0428083256835947,0.0559510124096765,0.802361999999448,
-0.00622492431640631,-0.0204943662109374,0.00210689746093884,0.0215222616386826,0.805295999999544,
-0.0277727392578125,-0.0468305844726562,0.0643561406250015,0.0842979330949342,0.808352999999443,
-0.0110133276367188,-0.0228885678710937,0.0116837041015643,0.0279586992965747,0.811380999999528,
0.03447650390625,0.0249954653320312,-0.00268150585937299,0.0426684084825799,0.814439999999195,
0.0464475122070312,-0.0444363828125001,0.0188663090820338,0.0669917989462904,0.817575999999463,
-0.0110133276367188,-0.0300711728515624,0.0452025273437524,0.0553970874736654,0.82050899999922,
-0.0205901342773438,-0.0276769711914062,0.00450109912109475,0.0347883350735113,0.823515999999472,
0.0201112939453125,-0.0181001645507812,-0.0146525141601543,0.0307697298027403,0.826442999999927,
-0.0110133276367188,-0.0157059628906249,0.0284431157226575,0.0343071637995315,0.829383999999664,
-0.0181959326171875,0.0249954653320312,0.0380199223632829,0.0490038748211207,0.832431999999244,
0.00574608398437504,-0.00852335791015624,-0.00268150585937299,0.0106233509258598,0.835371999999552,
-0.0110133276367188,-0.0252827695312499,0.0188663090820338,0.033413312304871,0.838390999999319,
0.0201112939453125,0.00105344873046875,-0.0314119257812475,0.0373133083452686,0.841363999999885,
0.0105344873046875,-0.0396479794921876,0.0140779057617202,0.0433719394450078,0.8443929999994,
0.0177170922851563,-0.0492247861328126,0.0212605107421897,0.0564710921258005,0.847359999999753,
0.0201112939453125,-0.00852335791015624,0.0523851323242202,0.0567566195508986,0.85033199999998,
-0.00622492431640631,0.00584185205078125,0.0332315190429711,0.0343105053304604,0.853391999999985,
-0.00383072265624995,0.00823605371093761,-0.00986411083984251,0.0134092393318657,0.856329999999616,
-0.0110133276367188,-0.0324653745117187,0.0547793339843761,0.0646225143397538,0.859330999999656,
0.0105344873046875,-0.0204943662109374,-0.0170467158203103,0.0286633038817763,0.862278999999944,
0.0105344873046875,-0.0324653745117187,-0.0074699091796866,0.0349395979958491,0.865202999999383,
-0.0181959326171875,-0.0228885678710937,-0.038594530761717,0.0484202055728393,0.868198999999549,
-0.0110133276367188,-0.0468305844726562,-0.0146525141601543,0.050290090464204,0.871106999999938,
0.00574608398437504,-0.0133117612304687,0.00689530078125244,0.016055081472121,0.874136999999791,
-0.0181959326171875,-0.0133117612304687,-0.00268150585937299,0.0227043040972431,0.877045999999609,
-0.0181959326171875,-0.0348595761718749,0.0116837041015643,0.0410218351152759,0.879966999999851,
-0.0205901342773438,-0.0372537778320312,0.0595677373046897,0.073212792051102,0.882981999999174,
-0.0469263525390625,-0.00134075292968738,-0.0074699091796866,0.0475360886505359,0.885894999999437,
-0.00622492431640631,-0.0420421811523437,0.0188663090820338,0.0464998096466029,0.888911999999436,
0.0129286889648438,-0.0300711728515624,0.035625720703127,0.0483799381007812,0.891855999999279,
0.000957680664062543,-0.0252827695312499,-0.0266235224609357,0.0367280211235585,0.894772999999986,
-0.00383072265624995,-0.0204943662109374,0.0308373173828134,0.0372241000673687,0.897791999999754,
0.0201112939453125,-0.0396479794921876,0.0260489140625015,0.0515264237629906,0.900730999999723,
0.0129286889648438,-0.0109175595703124,0.0236547124023456,0.029084179963662,0.903755999999703,
0.0129286889648438,-0.0157059628906249,0.0332315190429711,0.0389636000207207,0.906708999999864,
0.00335188232421879,-0.0109175595703124,-0.0218351191406239,0.0246414417186164,0.909619000000021,
-0.0181959326171875,-0.00134075292968738,0.00210689746093884,0.0183665075378692,0.912621999999828,
-0.0014365209960937,-0.0252827695312499,0.0188663090820338,0.0315787847473798,0.915546999999606,
-0.00622492431640631,-0.00612915624999988,0.0140779057617202,0.0165681522722896,0.91855299999952,
-0.0134075292968751,-0.0611957944335937,0.0212605107421897,0.0661566052274751,0.921472999999423,
-0.0014365209960937,-0.0564073911132812,0.00928950244140836,0.057185244778595,0.924395999999433,
-0.0158017309570313,-0.0300711728515624,-0.0553539423828102,0.0649463553652275,0.92738399999962,
0.0177170922851563,-0.0109175595703124,0.00689530078125244,0.021923358293747,0.930335999999443,
-0.0134075292968751,-0.0157059628906249,0.0284431157226575,0.0351489678963797,0.933344000000034,
0.0225054956054688,-0.0396479794921876,-0.0170467158203103,0.0486728890710128,0.936278999999558,
0.0177170922851563,0.0321780703125001,0.0116837041015643,0.0385464980200518,0.939304999999877,
0.024899697265625,-0.0468305844726562,0.0380199223632829,0.0652580497906612,0.94224899999972,
-0.0014365209960937,0.0106302553710937,0.0380199223632829,0.0395041822891823,0.945181999999477,
0.00574608398437504,-0.0492247861328126,-0.0146525141601543,0.0516797177061771,0.948281999999381,
-0.00622492431640631,-0.0348595761718749,-0.040988732421873,0.0541665572025732,0.951304999999593,
-0.00622492431640631,-0.00373495458984374,-0.0673249506835916,0.0677152017872,0.954385000000002,
0.0416591088867188,-0.0540131894531251,-0.0170467158203103,0.0703100029042318,0.957399999999325,
0.0201112939453125,0.0321780703125001,-0.0242293208007798,0.0450216874368127,0.960344999999506,
-0.00622492431640631,-0.0109175595703124,0.0260489140625015,0.0289221146106556,0.963364999999612,
0.0177170922851563,-0.0157059628906249,-0.0433829340820289,0.049423188878583,0.966309999999794,
-0.0253785375976563,-0.0372537778320312,0.0667503422851574,0.0805451570768825,0.969351999999162,
0.00574608398437504,-0.00852335791015624,0.0284431157226575,0.0302436099570239,0.972305999999662,
0.03447650390625,-0.00852335791015624,0.0236547124023456,0.0426710952577969,0.975258999999824,
-0.00622492431640631,-0.00852335791015624,0.00928950244140836,0.0140603047057502,0.978266999999505,
-0.0014365209960937,-0.0372537778320312,-0.0314119257812475,0.0487505552441935,0.981178999999429,
0.00574608398437504,-0.0276769711914062,0.0212605107421897,0.0353700654862863,0.984248999999181,
-0.0158017309570313,-0.0300711728515624,0.0308373173828134,0.0458793012291524,0.987180999999509,
0.024899697265625,-0.0564073911132812,0.0284431157226575,0.0679028683351369,0.990150999999969,
-0.0014365209960937,-0.0133117612304687,-0.0074699091796866,0.0153318662524167,0.993162999999186,
0.000957680664062543,-0.0683783994140624,0.0499909306640642,0.0847090066483054,0.996108999999706,
-0.0301669409179688,-0.00852335791015624,-0.0218351191406239,0.0382029368281822,0.999101999999766,
0.00335188232421879,-0.0181001645507812,0.0452025273437524,0.0488069621073003,1.00204699999995,
0.024899697265625,-0.0635899960937499,0.0595677373046897,0.0906200742370222,1.00498199999947,
0.0296881005859375,-0.0396479794921876,0.0308373173828134,0.058346257271414,1.00800199999958,
0.00574608398437504,-0.0204943662109374,-0.0170467158203103,0.0272695259915151,1.01093299999957,
