X,Y,Z,Magnitude,Seconds,
-0.645476767578125,-0.0444363828125001,0.0523851323242202,0.649121754133375,0.0,
-0.700543405761719,-0.00134075292968738,0.0380199223632829,0.701575637740619,0.00386600000001636,
-0.628717355957031,-0.0827436093749999,0.0260489140625015,0.634673588939889,0.00766900000053283,
-0.695755002441406,-0.0444363828125001,-0.0122583124999984,0.69728034660748,0.0114760000005845,
-0.652659372558594,-0.0564073911132812,-0.0050757075195289,0.655112061534214,0.0152280000002065,
-0.607169541015625,-0.0564073911132812,-0.0816901606445288,0.615231604889947,0.0189799999998286,
-0.650265170898438,-0.00852335791015624,0.0332315190429711,0.651169543184832,0.0227720000002591,
-0.671812985839844,-0.0731668027343749,-0.0481713374023425,0.677500218976014,0.026625999999851,
-0.676601389160156,-0.0372537778320312,0.00450109912109475,0.677641161433918,0.030416000000514,
-0.6742071875,-0.0372537778320312,0.00450109912109475,0.675250646451165,0.034204999999929,
-0.643082565917969,-0.0683783994140624,-0.0122583124999984,0.646823823246652,0.0379579999998896,
-0.664630380859375,-0.0707726010742187,-0.0433829340820289,0.669794284234834,0.041693000000123,
-0.631111557617188,-0.0875320126953125,-0.0146525141601543,0.637321227934311,0.045418000000609,
-0.607169541015625,-0.0420421811523437,-0.00986411083984251,0.608703291609165,0.0492089999997916,
-0.643082565917969,-0.0492247861328126,-0.00986411083984251,0.645039197909802,0.0529329999999391,
-0.602381137695312,-0.0731668027343749,0.0260489140625015,0.607367238165927,0.0566840000001321,
-0.678995590820313,-0.0444363828125001,-0.0266235224609357,0.680968733804359,0.0606420000003709,
-0.652659372558594,-0.0659841977539062,0.00689530078125244,0.656022649086652,0.064527000000453,
-0.662236179199219,-0.0779552060546874,0.00210689746093884,0.666811975153656,0.068344000000252,
-0.688572397460938,-0.0683783994140624,0.035625720703127,0.69287570604485,0.0721579999999449,
-0.645476767578125,-0.0348595761718749,-0.0194409174804662,0.646709669640458,0.0760609999997541,
-0.647870969238281,-0.0588015927734374,0.0164721074218761,0.650742460899365,0.0799010000000635,
-0.669418784179688,-0.0611957944335937,0.0236547124023456,0.672626180941396,0.0837030000002414,
-0.640688364257813,-0.0731668027343749,0.0404141240234388,0.646117839514051,0.0874860000003537,
-0.662236179199219,-0.0372537778320312,0.0667503422851574,0.666633489406528,0.0912960000005114,
-0.623928952636719,-0.0564073911132812,0.0571735356445338,0.629077057989446,0.0950899999998001,
-0.6358999609375,-0.10189722265625,0.0452025273437524,0.645596679656606,0.0989330000002155,
-0.688572397460938,0.0297838686523437,0.035625720703127,0.690136375908864,0.102689000000282,
-0.588015927734375,-0.14020444921875,-0.0146525141601543,0.604677364402922,0.106469000000288,
-0.700543405761719,-0.0659841977539062,0.00450109912109475,0.703658466589263,0.110203000000183,
-0.695755002441406,0.00823605371093761,0.0164721074218761,0.695998697071976,0.113964000000124,
-0.664630380859375,-0.164146465820312,0.0452025273437524,0.686091009911105,0.117667999999867,
-0.669418784179688,-0.00134075292968738,-0.000287304199217076,0.669420188502507,0.121385999999802,
-0.643082565917969,-0.0683783994140624,0.0404141240234388,0.647969207227203,0.125207000000046,
-0.645476767578125,-0.0947146176757813,-0.000287304199217076,0.652388840208259,0.129063000000315,
-0.7125144140625,-0.00373495458984374,-0.0338061274414052,0.713325728111079,0.133026000000427,
-0.597592734375,-0.0731668027343749,0.00450109912109475,0.602072019855979,0.136825000000499,
-0.7125144140625,-0.0372537778320312,0.0164721074218761,0.713677773601297,0.14060900000004,
-0.7125144140625,-0.00134075292968738,-0.0050757075195289,0.712533754058059,0.144382000000405,
-0.61674634765625,-0.106685625976563,-0.0074699091796866,0.625950221407811,0.148259999999937,
-0.7125144140625,-0.00134075292968738,0.0236547124023456,0.712908222202609,0.152130999999827,
-0.611957944335938,-0.0635899960937499,0.0380199223632829,0.616426579355222,0.155881000000591,
-0.614352145996094,-0.0516189877929687,0.0404141240234388,0.617840093075351,0.159630000000107,
-0.705331809082031,-0.0420421811523437,-0.00986411083984251,0.70665253596208,0.163378000000193,
-0.607169541015625,-0.0851378110351562,0.00450109912109475,0.613126054166907,0.167159000000538,
-0.667024582519531,-0.0659841977539062,0.0595677373046897,0.67292200392481,0.170928000000458,
-0.671812985839844,-0.0420421811523437,-0.038594530761717,0.674232727434533,0.174654000000373,
-0.638294162597656,-0.0420421811523437,0.0404141240234388,0.640952638205719,0.178383000000395,
-0.702937607421875,-0.0588015927734374,0.0499909306640642,0.707161933639914,0.18209300000035,
-0.595198532714844,-0.0540131894531251,0.00928950244140836,0.597716498715245,0.185779999999795,
-0.690966599121094,-0.00612915624999988,-0.0242293208007798,0.691418446126348,0.189499000000069,
-0.667024582519531,-0.0252827695312499,-0.0050757075195289,0.667522864722512,0.193186999999853,
-0.662236179199219,-0.0468305844726562,-0.0218351191406239,0.664248924056574,0.197017999999844,
-0.678995590820313,-0.0396479794921876,-0.0242293208007798,0.680583598551791,0.200906000000032,
-0.638294162597656,-0.0827436093749999,0.0260489140625015,0.644161849865763,0.20479400000022,
-0.650265170898438,-0.0492247861328126,0.0140779057617202,0.652277593884714,0.208553000000393,
-0.6358999609375,-0.0707726010742187,-0.0338061274414052,0.64071863999396,0.212335000000166,
-0.638294162597656,-0.0947146176757813,-0.0457771357421866,0.646904817546192,0.216067000000294,
-0.645476767578125,-0.0516189877929687,0.0643561406250015,0.650727662098378,0.219981000000189,
-0.619140549316406,-0.0971088193359375,0.0954807622070337,0.633941415709904,0.223789000000579,
-0.6742071875,-0.0396479794921876,0.035625720703127,0.676310938792277,0.227555000000393,
-0.65505357421875,-0.0372537778320312,0.0404141240234388,0.65735555864395,0.23128799999995,
-0.599986936035156,-0.168934869140625,0.0571735356445338,0.625933004883519,0.235113000000638,
-0.707726010742188,0.0776679018554689,-0.0122583124999984,0.712080525983564,0.238854000000174,
-0.611957944335938,-0.104291424316406,0.0164721074218761,0.620999643433657,0.242635999999948,
-0.65505357421875,-0.0875320126953125,-0.038594530761717,0.662001945728235,0.246503000000303,
-0.671812985839844,0.0154186586914062,0.00450109912109475,0.672004972356742,0.250297000000501,
-0.633505759277344,-0.130627642578125,-0.0074699091796866,0.646876284606442,0.254017000000204,
-0.724485422363281,0.0345722719726562,0.0859039555664083,0.730379256816764,0.257798000000548,
-0.631111557617188,-0.0731668027343749,-0.0146525141601543,0.635507573008833,0.261520000000019,
-0.6742071875,-0.0635899960937499,-0.040988732421873,0.678438719019939,0.265266000000338,
-0.717302817382813,-0.00852335791015624,0.0188663090820338,0.717601502976244,0.269143999999869,
-0.621534750976562,-0.0683783994140624,0.0475967290039083,0.627093693788893,0.273199000000204,
-0.676601389160156,-0.0276769711914062,-0.040988732421873,0.678406611652138,0.277009999999791,
-0.662236179199219,-0.0133117612304687,0.0499909306640642,0.664253756614215,0.280870000000505,
-0.544920297851563,-0.25512612890625,0.0906923588867201,0.608483834314242,0.284657000000152,
-0.825041892089844,0.0441490786132812,-0.115208983886717,0.834216024069186,0.28854500000034,
-0.564073911132813,0.0537258852539062,0.119422778808595,0.57907482078342,0.292503000000579,
-0.73166802734375,-0.295827557128906,-0.227736461914061,0.821410945799413,0.296355000000403,
-0.82743609375,0.393702520996094,-0.0505655390624984,0.91771947675726,0.30016599999999,
-0.494642062988281,-0.348499993652344,-0.153516210449217,0.624251746432218,0.303794999999809,
-0.801099875488281,-0.0181001645507812,-0.0338061274414052,0.802017132433397,0.306784999999763,
-0.774763657226563,0.305117059570313,0.0978749638671896,0.838411982948667,0.309755000000223,
-0.403662399902344,-0.271885540527344,-0.0888727656249984,0.494735736239663,0.312773000000561,
-0.662236179199219,-0.295827557128906,-0.00986411083984251,0.725374386975372,0.315725999999813,
-0.853772312011719,0.159070758300781,0.0978749638671896,0.873962342127065,0.318772999999965,
-0.614352145996094,-0.0276769711914062,0.00450109912109475,0.614991734836846,0.321742000000086,
-0.465911643066406,-0.233578313964844,-0.0577481440429679,0.524373279296252,0.324680000000626,
-0.853772312011719,-0.0396479794921876,0.0308373173828134,0.855248538834775,0.32774100000006,
-0.755610043945313,0.0441490786132812,-0.0290177241210916,0.757454756382589,0.330726000000141,
-0.441969626464844,-0.0252827695312499,-0.0433829340820289,0.444812823693528,0.333762000000206,
-0.609563742675781,-0.185694280761719,0.0164721074218761,0.637433645656892,0.336731000000327,
-0.815465085449219,-0.0324653745117187,0.0284431157226575,0.816606586405535,0.339692000000468,
-0.645476767578125,-0.0252827695312499,-0.040988732421873,0.647270849107101,0.342724000000089,
-0.556891306152344,-0.1210508359375,0.0380199223632829,0.571162626793579,0.34570100000019,
-0.779552060546875,-0.0827436093749999,0.0308373173828134,0.784537354202239,0.348735999999917,
-0.760398447265625,0.0226012636718751,-0.0170467158203103,0.760925230389818,0.351714999999786,
-0.528160886230469,-0.0947146176757813,0.0523851323242202,0.53913725769404,0.354669000000285,
-0.623928952636719,-0.0971088193359375,0.0571735356445338,0.634023874873233,0.357708000000457,
-0.774763657226563,0.00823605371093761,-0.0266235224609357,0.775264709043328,0.360692000000199,
-0.6358999609375,-0.0875320126953125,0.0140779057617202,0.642050466083035,0.36373999999978,
-0.611957944335938,-0.0755610043945312,0.0452025273437524,0.618259864053328,0.366704000000027,
-0.726879624023438,0.0154186586914062,0.0260489140625015,0.727509634836633,0.369752000000517,
-0.698149204101563,-0.0875320126953125,-0.0074699091796866,0.703654719288722,0.372761999999966,
-0.57843912109375,-0.125839239257812,-0.0050757075195289,0.5919907885732,0.375799999999799,
-0.628717355957031,-0.0564073911132812,0.00928950244140836,0.631311018682088,0.378924999999981,
-0.688572397460938,-0.0157059628906249,0.035625720703127,0.6896722524439,0.381992000000537,
-0.676601389160156,-0.106685625976563,-0.0242293208007798,0.685389176008734,0.38499899999988,
-0.61674634765625,-0.0324653745117187,0.0212605107421897,0.617966072860419,0.387979000000087,
-0.698149204101563,0.0178128603515626,0.0452025273437524,0.699837750953614,0.390949000000546,
-0.688572397460938,-0.128233440917969,-0.0481713374023425,0.702065694690957,0.394002,
-0.61674634765625,-0.10189722265625,0.0212605107421897,0.625468712766194,0.396996000000399,
-0.657447775878906,-0.00134075292968738,0.00928950244140836,0.657514768261632,0.400040999999874,
-0.683783994140625,-0.0228885678710937,-0.0122583124999984,0.684276773979246,0.402990999999929,
-0.640688364257813,-0.0875320126953125,0.0212605107421897,0.646989522835465,0.405956999999944,
-0.628717355957031,-0.0731668027343749,0.00450109912109475,0.632976424993277,0.40900000000056,
-0.69336080078125,-0.0300711728515624,-0.00986411083984251,0.694082686845988,0.411979999999858,
-0.6742071875,-0.0707726010742187,-0.0122583124999984,0.678022388247481,0.415036000000327,
-0.638294162597656,-0.109079827636719,-0.00268150585937299,0.647553115409982,0.418021000000408,
-0.686178195800781,-0.0252827695312499,-0.0433829340820289,0.68801294595171,0.420951000000059,
-0.702937607421875,-0.0252827695312499,-0.0122583124999984,0.703498944269647,0.423988000000463,
-0.619140549316406,-0.0731668027343749,0.0452025273437524,0.625085329621849,0.426961000000119,
-0.650265170898438,-0.144992852539062,-0.0146525141601543,0.66639508997456,0.430003000000397,
-0.688572397460938,0.080062103515625,0.0284431157226575,0.693794564548082,0.432999000000564,
-0.604775339355469,-0.106685625976563,0.00928950244140836,0.614183465047816,0.435951000000387,
-0.676601389160156,-0.113868230957031,-0.143939403808591,0.701052042150588,0.438974000000599,
-0.726879624023438,0.08963891015625,-0.0577481440429679,0.734659084320654,0.441957000000002,
-0.573650717773438,-0.185694280761719,0.0236547124023456,0.603421127678199,0.444989000000533,
-0.647870969238281,-0.243155120605469,-0.00986411083984251,0.69206828141526,0.447963000000527,
-0.743639035644531,0.0728794985351564,0.0236547124023456,0.74757607108568,0.450923999999759,
-0.652659372558594,-0.0276769711914062,-0.0218351191406239,0.653610773894366,0.453940999999759,
-0.54013189453125,-0.233578313964844,-0.0840843623046865,0.594450563317726,0.456898000000365,
-0.758004245605469,0.099215716796875,-0.0242293208007798,0.764853747328142,0.459953000000496,
-0.602381137695312,0.0393606752929687,0.0954807622070337,0.611170085788117,0.462953000000198,
-0.599986936035156,-0.219213104003906,-0.0218351191406239,0.639152157790121,0.465967000000092,
-0.7891288671875,-0.0324653745117187,0.102663367187501,0.796440918419621,0.468945000000531,
-0.722091220703125,0.137522943359375,0.188854626953127,0.758942923472088,0.471934000000147,
-0.4826710546875,-0.235972515625,-0.0242293208007798,0.537811709755377,0.474949999999808,
-0.705331809082031,-0.0683783994140624,-0.076901757324217,0.71279902264868,0.477922000000035,
-0.738850632324219,0.115975128417969,0.0428083256835947,0.74912151220299,0.480961000000207,
-0.528160886230469,-0.245549322265625,-0.0266235224609357,0.583058490511106,0.483921000000009,
-0.659841977539063,-0.00852335791015624,-0.0673249506835916,0.663322494671539,0.486855000000105,
-0.805888278808594,0.0585142885742187,0.121816980468752,0.817140879297413,0.489912000000004,
-0.604775339355469,-0.125839239257812,0.035625720703127,0.618755135093944,0.492873000000145,
-0.580833322753906,-0.176117474121094,-0.0577481440429679,0.609688085542554,0.495902000000569,
-0.803494077148438,0.161464959960937,-0.0242293208007798,0.81991507200092,0.498888000000079,
-0.676601389160156,0.0824563051757814,-0.0146525141601543,0.681764752864145,0.501847000000453,
-0.588015927734375,-0.243155120605469,-0.0673249506835916,0.639859197738476,0.504867000000559,
-0.681389792480469,-0.0635899960937499,0.0475967290039083,0.686003779517031,0.507841999999982,
-0.686178195800781,0.00584185205078125,0.00689530078125244,0.686237705755566,0.510903999999755,
-0.597592734375,-0.171329070800781,-0.0338061274414052,0.622586203615076,0.513949000000139,
-0.657447775878906,-0.0947146176757813,-0.103237975585936,0.672210172797669,0.516983999999866,
-0.698149204101563,0.0321780703125001,0.0667503422851574,0.702070756827164,0.520132999999987,
-0.571256516113281,-0.0755610043945312,0.0212605107421897,0.576624212034157,0.523122999999941,
-0.650265170898438,-0.092320416015625,-0.117603185546873,0.667231864457659,0.526134000000638,
-0.683783994140625,-0.00612915624999988,-0.076901757324217,0.68812208035987,0.529105000000527,
-0.61674634765625,-0.0492247861328126,0.114634375488283,0.629237774581862,0.532052999999905,
-0.590410129394531,-0.0635899960937499,-0.00268150585937299,0.593830783109586,0.535133000000314,
-0.724485422363281,-0.0181001645507812,-0.0840843623046865,0.729573110221212,0.538180000000466,
-0.643082565917969,-0.0971088193359375,0.0978749638671896,0.65769660021355,0.541205999999875,
-0.614352145996094,-0.0803494077148437,-0.0673249506835916,0.623231285795795,0.544222999999874,
-0.662236179199219,-0.0635899960937499,-0.119997387207029,0.676017616323788,0.547153999999864,
-0.698149204101563,0.00344765039062511,0.0835097539062524,0.703134465432,0.550232999999935,
-1.67498348144531,0.218925799804688,-4.12310256298828,4.45572361282152,0.553189000000202,
-16.2341237768555,18.5555177645264,-22.7428088740234,33.542351882244,0.556236000000354,
18.739775524292,-20.6704836850586,9.37480784655762,29.4335710479548,0.559239000000161,
-6.879977890625,-20.6704836850586,-29.8511936030273,36.9553345415135,0.56220200000007,
-20.486225925293,18.5555177645264,-11.4685132563477,29.9252316362434,0.565145000000484,
-17.3043319189453,18.5555177645264,0.923874536621096,25.3889875109288,0.568092999999863,
18.739775524292,-2.78100888037109,7.3977958256836,20.3381557711622,0.571117000000413,
14.9168340234375,-20.6704836850586,6.2485790288086,26.245486715554,0.57408100000066,
-14.3738290869141,-6.00839271826172,-5.72721767529297,16.5984567950417,0.577113000000281,
-14.9101302587891,13.8946056826172,-3.91480701855469,20.7532591513237,0.580116000000089,
5.02638696533203,7.43026120019531,1.91507402392578,9.17283249304722,0.583083999999872,
13.9399997460938,-8.77608983740234,0.413909583007815,16.4777021121926,0.586139000000003,
-3.59752741455078,-3.74587214941406,2.54714326220703,5.78460892856268,0.589074000000437,
-10.8399874365234,4.24118458886719,-2.44476719921875,11.8941103492109,0.592133000000103,
-2.13227599853516,3.0201417421875,-0.0529597407226543,3.69738580769844,0.595081000000391,
7.95688979736328,-4.27259651464844,0.291805298339845,9.03616769192057,0.59803600000032,
0.807803640136719,-0.923108392089844,0.459399414550782,1.30985634580836,0.601145000000542,
-5.18248891357422,2.01457704492188,-0.129574193847654,5.5617894135752,0.60421099999985,
-4.07157934326172,1.98105822167969,0.12899958544922,4.52978927977961,0.607276000000638,
3.33129218994141,-3.0324000546875,-0.20858284863281,4.50959693888236,0.610217000000375,
1.55479455810547,-0.848888140625,-0.21576545361328,1.78453128977362,0.613174000000072,
-2.65660616210938,1.92838578515625,0.39715017138672,3.30665333767885,0.616224999999758,
-2.85053649658203,0.898879071289063,0.255892273437501,2.99983712203724,0.619200000000092,
0.91554271484375,-1.768261578125,-0.608414525878905,2.08209887053354,0.622288000000481,
0.956244143066406,-1.03324166845703,0.203219836914064,1.42242381472614,0.625296000000162,
-1.69413709472656,1.33222957177734,0.231950256835939,2.16765704143734,0.628308000000288,
-2.01974852050781,0.920426886230469,-0.189429235351561,2.22765643091463,0.631444000000556,
0.355299526367188,-1.38997771582031,0.0236547124023456,1.43486422679382,0.634512000000541,
0.139821376953125,-0.642986797851563,-0.038594530761717,0.659144580095438,0.637588000000505,
-1.46189953369141,1.01619495263672,0.0571735356445338,1.78131166322729,0.640583000000333,
-1.14107651123047,0.288357647949219,-0.0314119257812475,1.17736674264818,0.643638999999894,
0.0320823022460938,-0.915925787109375,-0.0194409174804662,0.916693662507721,0.646709999999985,
-0.456334836425781,-0.221607305664063,0.035625720703127,0.508547414539733,0.649653999999828,
-1.22247936767578,0.649882098632813,-0.0170467158203103,1.38459132491744,0.65274700000009,
-0.681389792480469,-0.0204943662109374,-0.0481713374023425,0.683397794911642,0.655730999999832,
-0.23367408203125,-0.652563604492188,-0.0649307490234357,0.69617442978734,0.658770000000004,
-0.777157858886719,0.00344765039062511,0.0571735356445338,0.779265703788318,0.661739000000125,
-1.00460701660156,0.47271117578125,0.0260489140625015,1.1105717714031,0.664685000000645,
-0.492247861328125,-0.233578313964844,-0.0362003291015611,0.5460560864635,0.66771400000016,
-0.473094248046875,-0.513699908203125,-0.172669823730468,0.71938906806404,0.670689999999922,
-0.880108530273438,0.257233026367188,0.00450109912109475,0.916940627743907,0.673746000000392,
-0.896867941894531,0.429615545898438,0.0739329472656269,0.997199931391457,0.676857000000382,
-0.403662399902344,-0.475392681640625,-0.151122008789061,0.641700394571193,0.679791000000478,
-0.525766684570313,-0.575949151367188,-0.0218351191406239,0.780144091814152,0.682893000000149,
-1.00221281494141,0.479893780761719,0.112240173828127,1.11683768913281,0.685899000000063,
-0.695755002441406,0.424827142578125,0.0164721074218761,0.815367680752833,0.689010000000053,
-0.291134921875,-0.631015789550781,-0.0577481440429679,0.697334437367011,0.691975000000639,
-0.717302817382813,-0.310192767089844,-0.0936611689453102,0.787092941874323,0.694938999999977,
-1.00460701660156,0.513412604003906,0.231950256835939,1.15179368004926,0.698057999999946,
-0.494642062988281,0.00823605371093761,0.035625720703127,0.495991728795602,0.701060999999754,
-0.46351744140625,-0.453844866699219,-0.117603185546873,0.659283012649196,0.704098000000158,
-0.868137521972656,0.106398321777344,0.0260489140625015,0.875021088807404,0.70707399999992,
-0.870531723632813,0.353001092773437,0.100269165527346,0.944716443651695,0.710095999999794,
-0.391691391601563,-0.398778228515625,-0.0122583124999984,0.559103289221389,0.713129000000663,
-0.707726010742188,-0.14020444921875,-0.038594530761717,0.722511544313654,0.716124000000491,
-0.848983908691406,0.214137396484375,0.0835097539062524,0.879546690510247,0.719248999999763,
-0.583227524414063,-0.109079827636719,0.0667503422851574,0.597083212146011,0.722214999999778,
-0.50182466796875,-0.271885540527344,-0.0457771357421866,0.572577759510925,0.725161000000298,
-0.724485422363281,0.0178128603515626,0.00210689746093884,0.724707433539713,0.728235000000495,
-0.743639035644531,0.0417548769531251,-0.0433829340820289,0.746072760562443,0.731222000000344,
-0.547314499511719,-0.171329070800781,0.0523851323242202,0.575891494958771,0.734282999999778,
-0.7125144140625,-0.0372537778320312,-0.0553539423828102,0.71563167421999,0.737212,
-0.803494077148438,0.125551935058594,-0.191823437011717,0.835561039898681,0.740198000000419,
-0.973482395019531,0.520595208984375,-0.756855028808593,1.33847558052559,0.743315000000621,
-1.16262432617188,1.08083839746094,-0.821498473632811,1.78739103371746,0.746358000000328,
0.0272938989257813,-0.092320416015625,2.27181007128906,2.27384894312316,0.749469000000317,
2.79977942138672,-6.44413742041016,3.73466728564453,7.95697251698248,0.752491000000191,
-4.25353866943359,0.812687811523438,-4.78150801953125,6.45103647735829,0.75552400000015,
-3.22403195556641,7.06394834619141,0.291805298339845,7.77038600201514,0.758531000000403,
3.79337311035156,-0.745937469238281,0.514466052734377,3.90009968869617,0.761540000000423,
0.999339772949219,-5.74024213232422,0.55037907763672,5.85251884649751,0.764656000000286,
-5.01010639404297,1.13111663232422,-0.594049315917967,5.17044345344704,0.767700000000332,
-2.22564986328125,3.96106299462891,-0.0577481440429679,4.54388294407798,0.77073400000063,
3.68802823730469,-1.53362981542969,0.0882981572265642,3.99516823857284,0.77382900000066,
0.297838686523437,-2.35962938818359,0.00928950244140836,2.37837024611924,0.776797000000442,
-4.16974161132813,1.07365579248047,0.148153198730471,4.30829795119398,0.779879000000619,
-1.62231104492188,1.51179469628906,-0.263649486816405,2.23314293812595,0.782909999999902,
2.38079413085938,-1.22956620458984,0.0523851323242202,2.68006678034197,0.786106999999902,
-0.212126267089844,-0.614256377929688,0.124211182128908,0.661616859506037,0.789040000000568,
-2.75955683349609,0.455951764160156,-0.153516210449217,2.80118067168229,0.792034000000058,
-1.20093155273438,0.400885125976563,0.0619619389648456,1.26759013898915,0.795164000000113,
1.0496180078125,-0.607073772949219,0.0236547124023456,1.21276381606062,0.798187000000325,
-0.415633408203125,-0.173723272460937,-0.0362003291015611,0.45193071287106,0.801222000000053,
-1.87849062255859,0.353001092773437,0.00689530078125244,1.91138283337292,0.804173000000446,
-0.839407102050781,-0.142598650878906,0.0739329472656269,0.854637197234685,0.807074000000284,
0.271502468261719,-0.329346380371094,-0.0505655390624984,0.429813334223623,0.810143000000608,
-0.547314499511719,0.171041766601563,0.117028577148439,0.585238528437196,0.813103999999839,
-1.32303583740234,0.0154186586914062,-0.0170467158203103,1.32323548645244,0.816208000000188,
-0.700543405761719,-0.238366717285156,-0.0960553706054679,0.74619460564097,0.81921500000044,
-0.169030637207031,-0.0157059628906249,-0.00268150585937299,0.169779928314894,0.822152000000642,
-0.657447775878906,0.139917145019531,0.0571735356445338,0.674598546290039,0.825263000000632,
-1.02376062988281,-0.195271087402344,-0.0074699091796866,1.0422439370975,0.828212000000349,
-0.523372482910156,-0.0611957944335937,-0.0553539423828102,0.529837465701719,0.831262000000606,
-0.415633408203125,0.0824563051757814,-0.0433829340820289,0.425948648603741,0.834236000000601,
-0.650265170898438,0.0728794985351564,0.0667503422851574,0.657732333085044,0.837233000000197,
-0.822647690429688,-0.17851167578125,0.035625720703127,0.842546635466041,0.840297000000646,
-0.645476767578125,-0.176117474121094,0.0332315190429711,0.669896974192153,0.843254000000343,
-0.470700046386719,-0.092320416015625,0.179277820312501,0.512076292887846,0.846301000000494,
-0.614352145996094,-0.149781255859375,0.229556055175783,0.672725030279597,0.849263000000064,
-0.839407102050781,-0.214424700683594,0.00450109912109475,0.866373184678426,0.85228300000017,
-0.746033237304688,0.0633026918945312,-0.112814782226561,0.757165765901518,0.855242999999973,
-0.492247861328125,0.123157733398437,0.0284431157226575,0.508217271558106,0.858271000000059,
-0.729273825683594,-0.180905877441406,-0.0074699091796866,0.751414032916063,0.861332000000402,
-0.853772312011719,-0.195271087402344,-0.0194409174804662,0.876034193171483,0.864285000000564,
-0.688572397460938,-0.0420421811523437,-0.0481713374023425,0.691534503324513,0.867259000000558,
-0.475488449707031,-0.0444363828125001,0.0332315190429711,0.478715146804609,0.870238999999856,
-0.647870969238281,-0.0372537778320312,0.0260489140625015,0.649463765477601,0.873172000000523,
-0.825041892089844,-0.0707726010742187,-0.0074699091796866,0.828105478975446,0.876216999999997,
-0.592804331054688,-0.0851378110351562,0.00689530078125244,0.598926512151464,0.879159000000072,
-0.544920297851563,-0.0300711728515624,-0.000287304199217076,0.545749474567779,0.882226000000628,
-0.741244833984375,-0.00134075292968738,-0.0218351191406239,0.741567578818564,0.885181999999986,
-0.722091220703125,-0.0516189877929687,-0.0218351191406239,0.724263089868029,0.888158000000658,
-0.643082565917969,-0.0611957944335937,-0.0314119257812475,0.646750972883137,0.891177999999854,
-0.621534750976562,-0.0181001645507812,-0.0074699091796866,0.621843117008957,0.894132000000354,
-0.676601389160156,-0.0659841977539062,0.00450109912109475,0.679826164589138,0.897168999999849,
-0.698149204101563,-0.1593580625,0.0428083256835947,0.717384036635352,0.900158000000374,
-0.681389792480469,-0.0228885678710937,-0.0529597407226543,0.683827953489163,0.903097999999773,
-0.638294162597656,-0.00134075292968738,0.0260489140625015,0.63882687916876,0.906183000000055,
-0.662236179199219,-0.0420421811523437,0.0763271489257829,0.667944710061817,0.909164000000601,
-0.698149204101563,-0.147387054199219,0.035625720703127,0.714425956211549,0.912312000000384,
-0.659841977539063,-0.0420421811523437,0.00928950244140836,0.66124524586141,0.915302000000338,
-0.633505759277344,0.0249954653320312,-0.0146525141601543,0.634167971830762,0.918306000000484,
-0.645476767578125,-0.109079827636719,0.0188663090820338,0.654900453426885,0.921377000000575,
-0.73166802734375,-0.0971088193359375,0.0404141240234388,0.739189777019742,0.924441000000115,
-0.676601389160156,-0.0181001645507812,-0.0338061274414052,0.67768717711257,0.927537999999913,
-0.659841977539063,-0.0348595761718749,-0.0194409174804662,0.661048087998162,0.930484999999862,
-0.652659372558594,-0.116262432617187,0.0332315190429711,0.663766181486031,0.933438000000024,
-0.698149204101563,-0.10189722265625,-0.0266235224609357,0.706048275347324,0.936534000000393,
-0.681389792480469,-0.0444363828125001,-0.0122583124999984,0.682947221708518,0.939527000000453,
-0.640688364257813,-0.0683783994140624,0.0308373173828134,0.645064435343593,0.942582000000584,
-0.650265170898438,-0.0851378110351562,-0.0362003291015611,0.65681329400256,0.945510000000468,
-0.683783994140625,-0.0803494077148437,0.00928950244140836,0.688551285539895,0.948534000000109,
-0.657447775878906,-0.0276769711914062,0.0140779057617202,0.658180659221377,0.951563999999962,
-0.652659372558594,-0.0731668027343749,0.0523851323242202,0.658833696542287,0.954523999999765,
-0.650265170898438,-0.0731668027343749,-0.0314119257812475,0.655122036407898,0.957672999999886,
-0.714908615722656,-0.0803494077148437,0.0332315190429711,0.720176846345753,0.960685000000012,
-0.686178195800781,-0.0564073911132812,-0.0050757075195289,0.68851149080567,0.963738000000376,
-0.633505759277344,-0.0659841977539062,-0.0074699091796866,0.636976656506299,0.966730000000098,
-0.681389792480469,-0.0492247861328126,0.0140779057617202,0.6833105562605,0.969721000000391,
-0.664630380859375,-0.0300711728515624,0.0619619389648456,0.668189419609612,0.972797000000355,
-0.676601389160156,-0.0659841977539062,0.0140779057617202,0.679957014521738,0.975742000000537,
-0.621534750976562,-0.10189722265625,0.0188663090820338,0.630114615189121,0.978853999999956,
-0.753215842285156,-0.0564073911132812,-0.040988732421873,0.756436365484299,0.981832999999824,
-0.638294162597656,-0.0444363828125001,-0.038594530761717,0.64100200306116,0.984793000000536,
-0.6358999609375,-0.0611957944335937,0.00689530078125244,0.638874972705565,0.987847999999758,
-0.640688364257813,-0.0468305844726562,0.0404141240234388,0.643667604558427,0.99085500000001,
-0.662236179199219,-0.0300711728515624,-0.0362003291015611,0.663906240597353,0.99389599999995,
-0.645476767578125,-0.0516189877929687,-0.0050757075195289,0.647557364401564,0.996869000000515,
-0.626323154296875,-0.0588015927734374,0.0499909306640642,0.63106054707115,0.999883999999838,
-0.710120212402344,-0.0659841977539062,-0.0218351191406239,0.713513421628116,1.00295300000016,
-0.667024582519531,-0.0540131894531251,0.0332315190429711,0.670032500837204,1.00594499999988,
-0.65505357421875,-0.0372537778320312,0.0475967290039083,0.657836208847909,1.00897900000018,
-0.69336080078125,-0.0276769711914062,0.00689530078125244,0.693947231399629,1.0119679999998,
-0.640688364257813,-0.0564073911132812,-0.0074699091796866,0.643210053878755,1.0149250000004,
-0.676601389160156,-0.0516189877929687,0.00210689746093884,0.67857085019262,1.01796699999977,
-0.652659372558594,-0.0468305844726562,-0.0194409174804662,0.654626083732622,1.0209160000004,
