X,Y,Z,Magnitude,Seconds,
-0.669418784179688,-0.0444363828125001,0.0763271489257829,0.675219915578035,0.0,
-0.640688364257813,-0.0348595761718749,0.00689530078125244,0.641673059524162,0.00376400000004651,
-0.667024582519531,-0.10189722265625,0.0260489140625015,0.675265417146657,0.0075459999998202,
-0.667024582519531,-0.0228885678710937,0.00450109912109475,0.66743234871996,0.0112859999999273,
-0.662236179199219,-0.0611957944335937,0.0380199223632829,0.666143525670894,0.0150039999998626,
-0.719697019042969,-0.123445037597656,-0.0840843623046865,0.735032418680297,0.0187639999994644,
-0.667024582519531,0.0154186586914062,-0.0122583124999984,0.66731536393713,0.0225170000003345,
-0.595198532714844,-0.109079827636719,0.0164721074218761,0.605335471012626,0.0262309999998251,
-0.722091220703125,-0.125839239257812,0.0140779057617202,0.733109427428232,0.0299359999999069,
-0.6358999609375,-0.0181001645507812,0.0308373173828134,0.636904479824446,0.0336459999998624,
-0.6742071875,-0.109079827636719,-0.0122583124999984,0.683084187124299,0.0373490000001766,
-0.717302817382813,-0.0851378110351562,-0.000287304199217076,0.722337775031101,0.0410249999995358,
-0.650265170898438,-0.0611957944335937,0.0140779057617202,0.653290062047915,0.0449900000003254,
-0.631111557617188,-0.0947146176757813,0.0212605107421897,0.638533214701068,0.0488919999997961,
-0.671812985839844,-0.10189722265625,-0.0218351191406239,0.679847412553721,0.0525950000001103,
-0.640688364257813,-0.0252827695312499,0.0284431157226575,0.641817582621834,0.0563160000001517,
-0.676601389160156,-0.0947146176757813,-0.00268150585937299,0.683203841535304,0.060073999999986,
-0.710120212402344,-0.113868230957031,-0.00268150585937299,0.719196691147357,0.063850999999886,
-0.659841977539063,-0.0851378110351562,0.0284431157226575,0.665919584501411,0.0677390000000742,
-0.662236179199219,-0.0683783994140624,-0.0050757075195289,0.665776332827799,0.0714630000002217,
-0.678995590820313,-0.106685625976563,-0.0433829340820289,0.688693628628146,0.0751709999995001,
-0.652659372558594,-0.0707726010742187,-0.000287304199217076,0.656485415066543,0.0789039999999659,
-0.650265170898438,-0.0755610043945312,0.0284431157226575,0.65525816950321,0.0826649999999063,
-0.650265170898438,-0.0516189877929687,0.0619619389648456,0.655246971961434,0.0863899999994828,
-0.710120212402344,-0.0540131894531251,-0.00986411083984251,0.712239735889475,0.0900899999996909,
-0.671812985839844,-0.0779552060546874,0.0164721074218761,0.676521272701009,0.0939170000001468,
-0.662236179199219,-0.092320416015625,0.0164721074218761,0.668843140487062,0.0976680000003398,
-0.664630380859375,-0.0252827695312499,0.035625720703127,0.666064526582872,0.101372999999512,
-0.650265170898438,-0.0827436093749999,-0.038594530761717,0.656643613523115,0.105054999999993,
-0.671812985839844,-0.0707726010742187,-0.00268150585937299,0.675535816577871,0.108750999999756,
-0.667024582519531,-0.0635899960937499,-0.0170467158203103,0.670265672557395,0.112433000000237,
-0.650265170898438,-0.0659841977539062,-0.000287304199217076,0.653604459425197,0.116438000000016,
-0.676601389160156,-0.0803494077148437,0.0140779057617202,0.681501030493876,0.120264999999563,
-0.671812985839844,-0.0659841977539062,-0.0218351191406239,0.675398678355353,0.123998999999458,
-0.695755002441406,-0.0707726010742187,0.0188663090820338,0.699599687037831,0.127762999999504,
-0.669418784179688,-0.0492247861328126,0.0452025273437524,0.672746502525799,0.131526000000122,
-0.686178195800781,-0.0659841977539062,0.00928950244140836,0.689406067279112,0.135334999999941,
-0.659841977539063,-0.0444363828125001,0.0140779057617202,0.661486367864641,0.139208999999937,
-0.726879624023438,-0.0564073911132812,0.0523851323242202,0.730944583180754,0.142979999999625,
-0.686178195800781,-0.0755610043945312,-0.0122583124999984,0.690434825311465,0.146748000000116,
-0.626323154296875,-0.0875320126953125,0.00210689746093884,0.632413619296573,0.150552000000062,
-0.707726010742188,-0.0731668027343749,-0.0218351191406239,0.711833027985712,0.154289999999492,
-0.619140549316406,-0.0731668027343749,-0.00268150585937299,0.623454562341047,0.15802900000017,
-0.671812985839844,-0.0947146176757813,0.0667503422851574,0.681732465810234,0.161775999999918,
-0.676601389160156,-0.0588015927734374,0.0116837041015643,0.679252218301626,0.16562199999953,
-0.6742071875,-0.0779552060546874,0.0978749638671896,0.685719953318913,0.169337999999698,
-0.667024582519531,-0.0995030209960938,-0.0242293208007798,0.674840503274049,0.173028999999588,
-0.702937607421875,-0.0635899960937499,-0.0266235224609357,0.706309974076128,0.176714000000175,
-0.65505357421875,-0.0827436093749999,0.0547793339843761,0.662527331829362,0.180414999999812,
-0.652659372558594,-0.0995030209960938,0.0188663090820338,0.660470321357671,0.18419300000005,
-0.611957944335938,-0.0564073911132812,0.0332315190429711,0.615449960001604,0.188263000000006,
-0.662236179199219,-0.0492247861328126,0.00210689746093884,0.664066469283845,0.19202899999982,
-0.698149204101563,-0.0755610043945312,0.035625720703127,0.703129410953896,0.195794999999634,
-0.657447775878906,-0.0731668027343749,0.00689530078125244,0.661542518817465,0.19955200000004,
-0.683783994140625,-0.0731668027343749,-0.0362003291015611,0.688639525072689,0.203354999999647,
-0.638294162597656,-0.0755610043945312,0.0332315190429711,0.64360953787934,0.20719199999985,
-0.678995590820313,-0.0516189877929687,0.0260489140625015,0.681452917066199,0.210954000000129,
-0.645476767578125,-0.0659841977539062,0.00450109912109475,0.648856248894645,0.214832999999999,
-0.671812985839844,-0.0827436093749999,-0.0457771357421866,0.678435508351536,0.218620999999985,
-0.657447775878906,-0.0276769711914062,0.0284431157226575,0.65864451988494,0.222399999999652,
-0.638294162597656,-0.0611957944335937,0.0404141240234388,0.64249331878486,0.226137999999992,
-0.681389792480469,-0.0420421811523437,-0.0266235224609357,0.683204512749185,0.229843000000074,
-0.657447775878906,-0.0516189877929687,-0.0577481440429679,0.661994672221234,0.233556000000135,
-0.650265170898438,-0.104291424316406,0.0308373173828134,0.659296923861235,0.237344000000121,
-0.671812985839844,-0.0659841977539062,0.0523851323242202,0.677075183701854,0.241042999999991,
-0.6742071875,-0.0827436093749999,-0.0553539423828102,0.68151734791301,0.244743999999628,
-0.65505357421875,-0.0635899960937499,0.00210689746093884,0.658136240999441,0.248442999999497,
-0.628717355957031,-0.0420421811523437,-0.0074699091796866,0.630165738691655,0.252136000000064,
-0.683783994140625,-0.0492247861328126,-0.0170467158203103,0.685765426901201,0.255990999999995,
-0.659841977539063,-0.0971088193359375,-0.0194409174804662,0.667232723559001,0.259936999999809,
-0.705331809082031,-0.0588015927734374,0.0284431157226575,0.7083499128592,0.263716999999815,
-0.645476767578125,-0.0683783994140624,-0.0218351191406239,0.649455645458117,0.26745899999969,
-0.671812985839844,-0.0755610043945312,-0.0290177241210916,0.676671398568998,0.271187999999711,
-0.65505357421875,-0.0564073911132812,-0.0074699091796866,0.657520173387949,0.274954999999864,
-0.707726010742188,-0.0779552060546874,-0.0170467158203103,0.71221044007536,0.278757000000041,
-0.657447775878906,-0.0851378110351562,-0.0050757075195289,0.662956852052079,0.282497000000149,
-0.638294162597656,-0.0276769711914062,0.035625720703127,0.639886431108045,0.286372999999912,
-0.657447775878906,-0.0588015927734374,0.00450109912109475,0.660087467851126,0.290128999999979,
-0.602381137695312,-0.10189722265625,0.0236547124023456,0.61139645440172,0.293877000000066,
-0.951934580078125,0.24286781640625,-0.474339232910154,1.09094542891579,0.297596999999769,
-0.0612915625,0.115975128417969,0.631781934082033,0.645255994375636,0.301422999999886,
-0.34859576171875,-1.78262678808594,-0.0721133540039052,1.81782221532128,0.304368000000068,
-2.66857717041016,0.985070331054688,0.124211182128908,2.84729627705378,0.307284999999865,
-0.0876277807617187,1.6793888125,-0.629962340820311,1.79579452119756,0.310289000000012,
1.90434800048828,-1.24632561621094,-0.0721133540039052,2.27707469890932,0.313255000000026,
-1.84257759765625,-2.15372804541016,0.698819580566408,2.9192439951388,0.316235000000233,
-3.3174058203125,1.09280940576172,0.526437061035159,3.53221598337303,0.319188999999824,
0.45585599609375,2.02175964990234,-0.948391161621092,2.27920217764657,0.322105999999621,
1.80857993408203,-0.48496948828125,-0.352234948242186,1.90531526034174,0.325130000000172,
-1.45471692871094,-2.49131047949219,0.928662939941407,3.03071676405539,0.328051999999843,
-2.64702935546875,-0.472998479980469,0.109845972167971,2.69120012417855,0.331043999999565,
-0.882502731933594,2.98662291894531,-0.0745075556640611,3.11516916197029,0.334012999999686,
1.41593086181641,0.499047394042969,-0.361811754882812,1.5442850296874,0.336949999999888,
0.384029946289063,-3.36758828710937,0.0667503422851574,3.39007160386299,0.339984000000186,
-3.08995666259766,-0.482575286621094,0.318141516601564,3.14355294349795,0.342991999999867,
-2.25198608154297,3.09436199365234,0.071538745605471,3.82774545278891,0.346088999999665,
2.17728698974609,-0.113868230957031,-0.428849401367186,2.22203879776927,0.349113000000216,
0.707247170410156,-2.43863804296875,-0.0816901606445288,2.54043841630018,0.352096999999958,
-3.56879699462891,0.0561200869140626,0.277440088378908,3.5800048122408,0.35513600000013,
-1.73483852294922,1.65784099755859,0.0595677373046897,2.40034368148028,0.358040000000074,
2.06715371337891,-0.365259405273437,-0.153516210449217,2.10478173090408,0.361038999999437,
0.0272938989257813,-1.08830830664063,-0.122391588867186,1.09550884444033,0.364039999999477,
-3.05404363769531,0.3386358828125,0.160124207031252,3.07692973006418,0.367056999999477,
-0.980665,0.247656219726563,0.0643561406250015,1.01349847470551,0.369996999999785,
1.24833674560547,-0.343711590332031,-0.213371251953124,1.31225362598755,0.372911999999815,
-0.65505357421875,0.115975128417969,0.155335803710939,0.683135877716027,0.375954999999522,
-2.20170784667969,-0.10189722265625,0.0547793339843761,2.2047451692991,0.378912000000128,
-0.473094248046875,-0.403566631835938,0.0284431157226575,0.62248952175796,0.381905999999617,
0.460644399414063,0.216531598144531,-0.0362003291015611,0.510283900915587,0.384895000000142,
-0.949540378417969,0.345818487792969,0.0691445439453133,1.01291575400078,0.387862999999925,
-1.36852566894531,-0.571160748046875,0.0212605107421897,1.48308432531286,0.390875000000051,
-0.477882651367188,-0.441873858398437,-0.129574193847654,0.663636803473801,0.393796999999722,
-0.240856687011719,0.604392267089844,0.071538745605471,0.654537812749628,0.396842000000106,
-0.786734665527344,0.106398321777344,0.0691445439453133,0.796902129986401,0.399784000000182,
-0.992636008300781,-0.779456292480469,-0.0074699091796866,1.26211495372088,0.4027159999996,
-0.631111557617188,-0.0755610043945312,-0.038594530761717,0.636789448207035,0.405697999999575,
-0.449152231445313,0.515806805664063,0.0499909306640642,0.685779469603988,0.408658000000287,
-0.664630380859375,-0.168934869140625,0.0236547124023456,0.686172047369809,0.411653999999544,
-0.882502731933594,-0.516094109863281,-0.0362003291015611,1.02297344341527,0.414617999999791,
-0.837012900390625,-0.14020444921875,0.00210689746093884,0.848676806574782,0.4175180000002,
-0.449152231445313,0.341030084472656,0.107451770507815,0.574095051810234,0.420540000000074,
-0.511401474609375,-0.0707726010742187,-0.0050757075195289,0.516300292564587,0.423453000000336,
-0.868137521972656,-0.420326043457031,-0.0314119257812475,0.965051008468647,0.426456999999573,
-0.76997525390625,-0.0228885678710937,-0.0362003291015611,0.771165508820412,0.429379000000154,
-0.420421811523438,0.194983783203125,0.0212605107421897,0.463923684062229,0.432321000000229,
-0.619140549316406,-0.156963860839844,0.0260489140625015,0.639258335371082,0.435317999999825,
-0.887291135253906,-0.240760918945313,-0.0840843623046865,0.923212629233235,0.438266000000112,
-0.662236179199219,0.0106302553710937,-0.0314119257812475,0.663065960859793,0.4412769999999,
-0.458729038085938,0.0441490786132812,0.071538745605471,0.466368163202052,0.444234999999935,
-0.683783994140625,-0.144992852539062,0.0380199223632829,0.70002070856999,0.447138999999879,
-0.868137521972656,-0.152175457519531,-0.0457771357421866,0.882561993904599,0.450112999999874,
-0.590410129394531,0.00823605371093761,0.0475967290039083,0.592382817175066,0.453064999999697,
-0.516189877929688,-0.0540131894531251,-0.0218351191406239,0.519467214691986,0.456051999999545,
-0.765186850585938,-0.0851378110351562,0.109845972167971,0.777705278867908,0.458985000000212,
-0.825041892089844,-0.0875320126953125,0.00210689746093884,0.829674885703185,0.461992999999893,
-0.590410129394531,-0.0157059628906249,0.0380199223632829,0.591841459056814,0.464922000000115,
-0.547314499511719,-0.00612915624999988,0.0667503422851574,0.55140396818239,0.46784899999966,
-0.767581052246094,-0.0971088193359375,-0.0050757075195289,0.773716070252431,0.470836999999847,
-0.729273825683594,-0.0683783994140624,-0.0553539423828102,0.734561077971691,0.47376499999973,
-0.583227524414063,-0.0181001645507812,0.0236547124023456,0.583987591143647,0.476754999999685,
-0.628717355957031,-0.0420421811523437,0.0188663090820338,0.63040383588302,0.479749999999513,
-0.779552060546875,-0.0827436093749999,0.0164721074218761,0.784104106811206,0.482769000000189,
-0.695755002441406,-0.0635899960937499,0.00210689746093884,0.69865810668907,0.485888000000159,
-0.592804331054688,-0.0348595761718749,-0.040988732421873,0.595241330179307,0.488913000000139,
-0.628717355957031,-0.106685625976563,0.0691445439453133,0.64144236251515,0.491938999999547,
-0.791523068847656,-0.204847894042969,0.0308373173828134,0.818182356418922,0.494880999999623,
-0.877714328613281,0.080062103515625,-0.0170467158203103,0.881523098728938,0.497847999999976,
-0.394085593261719,0.135128741699219,-0.0481713374023425,0.419384917941484,0.500882999999703,
-0.427604416503906,-0.317375372070313,0.105057568847657,0.542779657487821,0.503848999999718,
-1.22487356933594,-0.25512612890625,0.109845972167971,1.25597402047573,0.506875999999465,
-0.734062229003906,0.199772186523438,-0.282803100097654,0.811624220919622,0.509834999999839,
-0.109175595703125,0.28117504296875,-0.0314119257812475,0.303258016492388,0.512789000000339,
-0.554497104492188,-0.508911504882813,0.172095215332034,0.772058755427647,0.515817999999854,
-1.20093155273438,-0.492152093261719,0.0116837041015643,1.29791632480543,0.518780000000334,
-0.939963571777344,0.647487896972656,-0.124785790527342,1.14819144157759,0.521872000000258,
0.144609780273437,0.209348993164063,0.0643561406250015,0.262451333251869,0.524865000000318,
-0.477882651367188,-0.872830157226563,0.0739329472656269,0.997832847992719,0.527774000000136,
-1.65822406982422,-0.0779552060546874,-0.0673249506835916,1.66142009404003,0.530764999999519,
-1.18177793945313,0.609180670410156,0.00210689746093884,1.32955053548045,0.533746000000065,
0.22601263671875,0.202166388183594,0.0882981572265642,0.315831482023829,0.536785999999665,
-0.401268198242188,-0.738754864257813,-0.0218351191406239,0.84098257343003,0.539692999999716,
-1.57682121337891,-0.0995030209960938,0.0188663090820338,1.58007022874537,0.542607999999746,
-0.719697019042969,0.393702520996094,0.0140779057617202,0.820465515234279,0.545634000000064,
0.18770541015625,-0.195271087402344,-0.0290177241210916,0.27240805217612,0.548563999999715,
-0.781946262207031,-0.276673943847656,0.0475967290039083,0.830815188110831,0.551586999999927,
-1.39246768554688,-0.00373495458984374,0.0140779057617202,1.39254385661949,0.554505000000063,
-0.408450803222656,0.00823605371093761,0.0547793339843761,0.412190085598543,0.557522000000063,
-0.101992990722656,-0.0683783994140624,0.0212605107421897,0.12462016281485,0.560451000000285,
-1.00221281494141,-0.0803494077148437,0.00450109912109475,1.00543861754271,0.563382999999703,
-1.04052004150391,-0.128233440917969,-0.0433829340820289,1.04928921232924,0.566396999999597,
-0.322259543457031,-0.0516189877929687,0.0523851323242202,0.330544906689743,0.569338000000243,
-0.456334836425781,0.0202070620117187,0.0116837041015643,0.456931414144862,0.57234999999946,
-0.990241806640625,-0.0659841977539062,-0.038594530761717,0.993187941820093,0.575294000000213,
-0.729273825683594,-0.221607305664063,0.00450109912109475,0.76221412388132,0.578209999999672,
-0.403662399902344,-0.0300711728515624,0.035625720703127,0.406345666283283,0.581220999999459,
-0.626323154296875,0.104004120117188,-0.00268150585937299,0.634905300878337,0.584166999999979,
-0.805888278808594,-0.123445037597656,-0.0050757075195289,0.81530384399645,0.587166999999681,
-0.619140549316406,-0.212030499023438,-0.0122583124999984,0.654554977484166,0.590081999999711,
-0.544920297851563,0.0776679018554689,-0.00268150585937299,0.550434032798609,0.593010999999933,
-0.652659372558594,0.0489374819335937,0.0332315190429711,0.655334622604728,0.596042000000125,
-0.762792648925781,-0.168934869140625,0.0260489140625015,0.781709767874629,0.598971999999776,
-0.640688364257813,-0.135416045898437,-0.0960553706054679,0.661850224600909,0.601974000000155,
-0.583227524414063,0.0585142885742187,-0.0338061274414052,0.587129561046016,0.604927999999745,
-0.686178195800781,-0.0252827695312499,0.00210689746093884,0.686647051871991,0.607853999999861,
-0.714908615722656,-0.185694280761719,-0.000287304199217076,0.738631692581492,0.610861999999543,
-0.724485422363281,-0.10189722265625,0.00210689746093884,0.731619170210069,0.613816999999472,
-0.640688364257813,0.0417548769531251,-0.0074699091796866,0.642090997747107,0.616847999999663,
-0.676601389160156,-0.111474029296875,0.0284431157226575,0.686312545312372,0.619888999999603,
-0.734062229003906,-0.118656634277344,-0.000287304199217076,0.743590502529392,0.622897999999623,
-0.662236179199219,0.0249954653320312,-0.0218351191406239,0.663067344057472,0.626035000000229,
-0.638294162597656,-0.0420421811523437,0.0428083256835947,0.641108053100351,0.629031999999825,
-0.667024582519531,-0.149781255859375,-0.0242293208007798,0.6840637969361,0.632026999999653,
-0.741244833984375,-0.0995030209960938,-0.00986411083984251,0.747958592288727,0.634955999999875,
-0.643082565917969,-0.00134075292968738,0.0643561406250015,0.646296137263872,0.637899999999718,
-0.628717355957031,-0.0851378110351562,0.00689530078125244,0.634493109278834,0.640932000000248,
-0.667024582519531,-0.0947146176757813,0.00450109912109475,0.673730593323565,0.643876000000091,
-0.688572397460938,-0.0875320126953125,-0.0218351191406239,0.694457034106129,0.646889999999985,
-0.619140549316406,-0.0611957944335937,0.0380199223632829,0.623318104630926,0.649854000000232,
-0.602381137695312,-0.0611957944335937,-0.0218351191406239,0.605875179170877,0.652852999999595,
-0.669418784179688,-0.0731668027343749,0.0260489140625015,0.673909070690414,0.655829000000267,
-0.726879624023438,-0.0276769711914062,-0.0194409174804662,0.727666099132883,0.658744999999726,
-0.664630380859375,-0.0683783994140624,-0.0242293208007798,0.668577750642492,0.661801000000196,
-0.645476767578125,-0.125839239257812,-0.0218351191406239,0.657991294811698,0.664746999999807,
-0.700543405761719,-0.0492247861328126,-0.00986411083984251,0.702339977225211,0.667742999999973,
-0.667024582519531,-0.0611957944335937,0.00689530078125244,0.669861376789689,0.670680999999604,
-0.669418784179688,-0.0683783994140624,-0.0266235224609357,0.67342848623092,0.673595999999634,
-0.681389792480469,-0.0803494077148437,-0.0242293208007798,0.686538517931201,0.67659999999978,
-0.683783994140625,-0.0779552060546874,0.0116837041015643,0.688312482623603,0.679536999999982,
-0.676601389160156,-0.092320416015625,-0.0122583124999984,0.682980794204419,0.682528000000275,
-0.607169541015625,-0.0683783994140624,0.0619619389648456,0.614141464911658,0.685486999999739,
-0.669418784179688,-0.0827436093749999,0.00928950244140836,0.674577132995644,0.688411999999516,
-0.678995590820313,-0.0755610043945312,0.0212605107421897,0.683517729876522,0.691455999999562,
-0.6358999609375,-0.0564073911132812,-0.0074699091796866,0.638440563902133,0.694383999999445,
-0.6742071875,-0.0971088193359375,-0.0218351191406239,0.681514656406864,0.69738899999993,
-0.65505357421875,-0.0803494077148437,0.00450109912109475,0.65997838775992,0.700324999999793,
-0.676601389160156,-0.10189722265625,0.0691445439453133,0.687716112764501,0.703238000000056,
-0.650265170898438,-0.0611957944335937,0.0140779057617202,0.653290062047915,0.706242999999631,
-0.664630380859375,-0.0731668027343749,0.0212605107421897,0.668983507644746,0.709168999999747,
-0.657447775878906,-0.0635899960937499,0.0859039555664083,0.666078640397123,0.712163999999575,
-0.719697019042969,-0.0540131894531251,0.0164721074218761,0.72190896529767,0.715097000000242,
-0.633505759277344,-0.0611957944335937,0.00210689746093884,0.636458098629308,0.718022000000019,
-0.688572397460938,-0.0228885678710937,-0.00268150585937299,0.688957925825639,0.721019999999953,
-0.676601389160156,-0.0731668027343749,-0.00268150585937299,0.680551255460967,0.723938999999518,
-0.676601389160156,-0.0324653745117187,0.035625720703127,0.678316026886625,0.726939000000129,
-0.669418784179688,-0.0588015927734374,0.071538745605471,0.675793554310862,0.729865000000245,
-0.683783994140625,-0.0444363828125001,-0.0218351191406239,0.685574150029193,0.732769999999618,
-0.628717355957031,-0.0611957944335937,-0.0194409174804662,0.631987648779975,0.735759000000144,
-0.65505357421875,-0.0372537778320312,-0.0290177241210916,0.656753422048706,0.738679000000047,
-0.695755002441406,-0.0420421811523437,-0.0050757075195289,0.697042560555029,0.741676999999981,
-0.657447775878906,-0.0683783994140624,-0.0122583124999984,0.661107744425897,0.744590999999673,
-0.678995590820313,-0.0851378110351562,-0.00986411083984251,0.68438348891827,0.747567999999774,
-0.678995590820313,-0.0276769711914062,-0.0362003291015611,0.680522953995541,0.750476999999591,
-0.6742071875,-0.0611957944335937,-0.0242293208007798,0.677412220822363,0.753380999999536,
-0.662236179199219,-0.0827436093749999,0.0523851323242202,0.66943817042458,0.756416999999601,
-0.690966599121094,-0.0779552060546874,0.0212605107421897,0.695675114237255,0.759452000000238,
-0.686178195800781,-0.0564073911132812,0.0308373173828134,0.689183031065036,0.76253799999995,
-0.650265170898438,-0.0659841977539062,0.0212605107421897,0.653950086897937,0.765570999999909,
-0.681389792480469,-0.0492247861328126,-0.0457771357421866,0.684697506219466,0.768489000000045,
-0.645476767578125,-0.130627642578125,0.0188663090820338,0.658832130445231,0.771491999999853,
-0.657447775878906,-0.0731668027343749,0.0236547124023456,0.661929380258445,0.774422999999842,
-0.678995590820313,-0.0492247861328126,0.0595677373046897,0.683378670468172,0.777431999999862,
-0.671812985839844,-0.0611957944335937,-0.0170467158203103,0.674809753722976,0.780378999999812,
-0.686178195800781,-0.0875320126953125,0.0547793339843761,0.693904276590568,0.783301999999821,
-0.676601389160156,-0.0611957944335937,0.00210689746093884,0.679366472595405,0.786290000000008,
-0.6742071875,-0.0492247861328126,-0.0362003291015611,0.67697036498915,0.78921900000023,
-0.6742071875,-0.092320416015625,0.0116837041015643,0.680598927292345,0.792223999999806,
-0.659841977539063,-0.0588015927734374,-0.0625365473632797,0.665402045677253,0.795156000000134,
-0.690966599121094,-0.0779552060546874,0.0140779057617202,0.695492661846719,0.798093000000335,
-0.683783994140625,-0.0492247861328126,0.0332315190429711,0.686358480730464,0.801123999999618,
-0.671812985839844,-0.0827436093749999,-0.0194409174804662,0.677168473947164,0.804039999999986,
-0.667024582519531,-0.0995030209960938,-0.0170467158203103,0.674620808597662,0.807033000000047,
-0.638294162597656,-0.0659841977539062,0.0547793339843761,0.644029601642069,0.809959999999592,
-0.638294162597656,-0.125839239257812,0.00689530078125244,0.650617012777942,0.812877999999728,
-0.700543405761719,-0.0611957944335937,0.0164721074218761,0.703404093630045,0.81588499999998,
-0.6358999609375,-0.0635899960937499,-0.00986411083984251,0.639147673551409,0.818804999999884,
-0.700543405761719,-0.0971088193359375,0.0212605107421897,0.707561442891051,0.821820999999545,
-0.65505357421875,-0.0659841977539062,0.0140779057617202,0.658519010265172,0.824751999999535,
-0.657447775878906,-0.0779552060546874,0.0523851323242202,0.664122574716276,0.827675999999883,
-0.6358999609375,-0.0516189877929687,0.0811155522460947,0.643127524708182,0.830665999999837,
-0.6742071875,-0.0659841977539062,0.00450109912109475,0.677443359937334,0.833601000000272,
-0.6358999609375,-0.0396479794921876,0.00689530078125244,0.637172086465651,0.836602999999741,
-0.698149204101563,-0.0588015927734374,-0.0314119257812475,0.70132492297196,0.83951100000013,
-0.647870969238281,-0.0731668027343749,0.0236547124023456,0.652418362113574,0.842504999999619,
-0.669418784179688,-0.0683783994140624,0.0260489140625015,0.673406014260992,0.845443000000159,
-0.633505759277344,-0.0683783994140624,0.035625720703127,0.638180495251626,0.848353000000316,
-0.659841977539063,-0.0516189877929687,-0.0122583124999984,0.661971465736084,0.851340999999593,
-0.65505357421875,-0.0827436093749999,-0.0122583124999984,0.660372588933331,0.854268999999476,
-0.652659372558594,-0.0635899960937499,0.0236547124023456,0.656176416530355,0.85725900000034,
-0.659841977539063,-0.0803494077148437,-0.0362003291015611,0.665701078915941,0.860173000000032,
-0.6742071875,-0.0851378110351562,0.0116837041015643,0.679661892036071,0.863092999999935,
-0.671812985839844,-0.0803494077148437,0.00928950244140836,0.676664621595352,0.866090999999869,
-0.681389792480469,-0.0564073911132812,-0.0218351191406239,0.684069159878348,0.869005999999899,
-0.650265170898438,-0.0300711728515624,0.0475967290039083,0.652697875385016,0.872024000000238,
-0.667024582519531,-0.0755610043945312,0.0308373173828134,0.671998660128005,0.874942999999803,
-0.645476767578125,-0.111474029296875,-0.040988732421873,0.656313029640839,0.877844999999979,
-0.69336080078125,-0.10189722265625,-0.0050757075195289,0.700826659632678,0.88083800000004,
-0.65505357421875,-0.113868230957031,0.0284431157226575,0.66548491339027,0.883767999999691,
-0.645476767578125,-0.0372537778320312,-0.0577481440429679,0.649124756565539,0.886757000000216,
-0.683783994140625,-0.0611957944335937,-0.0433829340820289,0.68788629501454,0.889675999999781,
-0.659841977539063,-0.0372537778320312,-0.00986411083984251,0.660966398516657,0.89257600000019,
-0.638294162597656,-0.0588015927734374,-0.0338061274414052,0.641887778020053,0.895645999999942,
-0.6742071875,-0.0611957944335937,0.00450109912109475,0.67699373470241,0.898670999999922,
-0.678995590820313,-0.0348595761718749,0.0308373173828134,0.680588820469214,0.901780000000144,
-0.664630380859375,-0.0516189877929687,0.00689530078125244,0.666667539508946,0.904781000000185,
-0.633505759277344,-0.10189722265625,0.00450109912109475,0.6416641262498,0.907696000000215,
-0.669418784179688,-0.0779552060546874,-0.0170467158203103,0.674158077370507,0.91068499999983,
-0.645476767578125,-0.0516189877929687,0.0284431157226575,0.648161853410001,0.91361599999982,
-0.671812985839844,-0.0372537778320312,0.0523851323242202,0.674881273998939,0.916658999999527,
-0.647870969238281,-0.0707726010742187,-0.00986411083984251,0.651799704301269,0.919566999999915,
-0.678995590820313,-0.0659841977539062,-0.0673249506835916,0.685508260848256,0.922478999999839,
-0.671812985839844,-0.0659841977539062,-0.0338061274414052,0.675891601182362,0.925457999999708,
-0.695755002441406,-0.0779552060546874,0.0284431157226575,0.700686126882274,0.928391999999803,
-0.652659372558594,-0.0731668027343749,0.0284431157226575,0.65736340668078,0.931418000000122,
-0.695755002441406,-0.0947146176757813,-0.0505655390624984,0.70399059366187,0.934346999999434,
-0.652659372558594,-0.0659841977539062,-0.0362003291015611,0.656984501163357,0.937369000000217,
-0.669418784179688,-0.0779552060546874,-0.0146525141601543,0.674101786776191,0.940301999999974,
-0.662236179199219,-0.106685625976563,-0.0194409174804662,0.671056278640527,0.943204000000151,
-0.681389792480469,-0.0659841977539062,0.00928950244140836,0.684640240203139,0.946208999999726,
-0.657447775878906,-0.0468305844726562,-0.00986411083984251,0.659187365119229,0.949123999999756,
-0.645476767578125,-0.0875320126953125,0.0236547124023456,0.651814126993605,0.952123999999458,
-0.690966599121094,-0.0755610043945312,0.0284431157226575,0.695667533609334,0.955038999999488,
-0.688572397460938,-0.0947146176757813,0.035625720703127,0.69596838816299,0.95795999999973,
-0.669418784179688,-0.0659841977539062,0.0475967290039083,0.674344772040022,0.960959000000003,
-0.633505759277344,-0.123445037597656,-0.0505655390624984,0.647398716469018,0.963864999999714,
-0.698149204101563,-0.0420421811523437,-0.0601423457031238,0.701994984262969,0.966886999999588,
-0.667024582519531,-0.0971088193359375,0.0308373173828134,0.674761333081219,0.969820999999683,
-0.640688364257813,-0.0420421811523437,-0.0194409174804662,0.642360548573681,0.972724999999627,
-0.669418784179688,-0.0564073911132812,-0.000287304199217076,0.671791176578348,0.975730000000112,
-0.667024582519531,-0.0755610043945312,0.0595677373046897,0.673928463858046,0.978659000000334,
-0.638294162597656,-0.0707726010742187,0.0116837041015643,0.642312002075772,0.981670999999551,
-0.657447775878906,-0.0803494077148437,0.00450109912109475,0.662354788026436,0.984596000000238,
-0.669418784179688,-0.0611957944335937,-0.0481713374023425,0.673933907453914,0.98748599999999,
-0.645476767578125,-0.0755610043945312,-0.000287304199217076,0.649884455431824,0.990485000000263,
-0.683783994140625,-0.0851378110351562,-0.00986411083984251,0.689134455816443,0.993418999999449,
-0.678995590820313,-0.0444363828125001,-0.0290177241210916,0.681066540643462,0.996409000000313,
-0.678995590820313,-0.0564073911132812,-0.00268150585937299,0.681339853963722,0.999326999999539,
-0.690966599121094,-0.092320416015625,0.0475967290039083,0.698729811104507,1.00224199999957,
-0.717302817382813,-0.0683783994140624,0.00210689746093884,0.720557684261753,1.00523799999974,
-0.681389792480469,-0.0899262143554688,0.0284431157226575,0.687886461675831,1.0081739999996,
