X,Y,Z,Magnitude,Seconds,
-0.643082565917969,-0.0875320126953125,0.0332315190429711,0.649862580621499,0.0,
-0.6742071875,-0.0683783994140624,0.0164721074218761,0.677865965738071,0.00375099999928352,
-0.664630380859375,-0.0372537778320312,-0.038594530761717,0.666791515339505,0.00768499999958294,
-0.664630380859375,-0.092320416015625,0.0595677373046897,0.673650441773904,0.0117359999994733,
-0.659841977539063,-0.0492247861328126,0.0499909306640642,0.663561306919821,0.0155649999996967,
-0.65505357421875,-0.0731668027343749,0.0667503422851574,0.662498433442915,0.0195559999992838,
-0.645476767578125,-0.104291424316406,0.0332315190429711,0.654691753825381,0.0234899999995832,
-0.662236179199219,-0.0468305844726562,-0.0146525141601543,0.66405162213012,0.0273419999994076,
-0.6742071875,-0.0540131894531251,0.0164721074218761,0.6765678728956,0.03121099999953,
-0.678995590820313,-0.0611957944335937,0.00450109912109475,0.681762566809796,0.0352439999996932,
-0.671812985839844,-0.0971088193359375,0.00928950244140836,0.678858678659612,0.0392199999996592,
-0.681389792480469,-0.0851378110351562,0.0452025273437524,0.688174225500125,0.0430699999997159,
-0.678995590820313,-0.0851378110351562,0.0116837041015643,0.684412133266803,0.047019999999975,
-0.683783994140625,-0.0540131894531251,0.0164721074218761,0.686111729677261,0.0509199999996781,
-0.652659372558594,-0.0995030209960938,0.0236547124023456,0.660624441869028,0.0548109999999724,
-0.695755002441406,-0.0707726010742187,0.00210689746093884,0.699348427825474,0.0587550000000192,
-0.671812985839844,-0.0420421811523437,0.0499909306640642,0.67498098201931,0.0626039999997374,
-0.662236179199219,-0.092320416015625,0.0428083256835947,0.670009230534558,0.0663909999993848,
-0.643082565917969,-0.0516189877929687,0.0332315190429711,0.646006223148286,0.0702909999999974,
-0.652659372558594,-0.0851378110351562,0.0116837041015643,0.658292649509296,0.0741829999997208,
-0.657447775878906,-0.0779552060546874,-0.0362003291015611,0.663042273151728,0.0780089999998381,
-0.645476767578125,-0.0157059628906249,-0.0505655390624984,0.647644816619501,0.0819519999995464,
-0.690966599121094,-0.0396479794921876,0.0571735356445338,0.694460665953717,0.0860819999998057,
-0.652659372558594,-0.0875320126953125,0.00928950244140836,0.658568451028956,0.0900059999994482,
-0.65505357421875,-0.0492247861328126,-0.0122583124999984,0.657014863524356,0.0938969999997425,
-0.664630380859375,-0.106685625976563,0.0236547124023456,0.673553940950631,0.0978079999995316,
-0.667024582519531,-0.0468305844726562,-0.00268150585937299,0.668671883513192,0.101603999999497,
-0.678995590820313,-0.0516189877929687,-0.0050757075195289,0.680973784415391,0.105408999999781,
-0.662236179199219,-0.0516189877929687,-0.0673249506835916,0.667648055434672,0.109370000000126,
-0.657447775878906,-0.0779552060546874,-0.0362003291015611,0.663042273151728,0.113255999999637,
-0.638294162597656,-0.10189722265625,-0.0553539423828102,0.648742276199586,0.117073999999775,
-0.671812985839844,-0.0803494077148437,-0.0170467158203103,0.676815562604341,0.12097999999969,
-0.65505357421875,-0.0899262143554688,-0.0218351191406239,0.661557768870528,0.124868999999308,
-0.650265170898438,-0.0875320126953125,0.0284431157226575,0.656746264977639,0.128775999999561,
-0.710120212402344,-0.0492247861328126,0.00928950244140836,0.711884885699774,0.132727000000159,
-0.686178195800781,-0.0707726010742187,0.0260489140625015,0.69030994732733,0.136625999999524,
-0.650265170898438,-0.0707726010742187,0.0452025273437524,0.655665175241638,0.140493999999308,
-0.69336080078125,-0.0444363828125001,0.035625720703127,0.695696042933329,0.144400000000132,
-0.640688364257813,-0.0564073911132812,-0.0050757075195289,0.643186704366922,0.148232999999891,
-0.65505357421875,-0.0827436093749999,-0.0242293208007798,0.66070322382718,0.152087999999821,
-0.662236179199219,-0.0372537778320312,-0.000287304199217076,0.663283260415067,0.156057000000146,
-0.609563742675781,-0.109079827636719,0.0212605107421897,0.61961147060007,0.160055999999713,
-0.702937607421875,-0.0516189877929687,0.0260489140625015,0.705311523904577,0.164003999999295,
-0.717302817382813,-0.0851378110351562,0.0523851323242202,0.724234755298173,0.167888999999377,
-0.61674634765625,-0.0827436093749999,0.00928950244140836,0.622341431286184,0.171768999999586,
-0.705331809082031,-0.0683783994140624,-0.000287304199217076,0.708638588388371,0.175631000000067,
-0.664630380859375,-0.0444363828125001,0.0308373173828134,0.666827620470317,0.179536999999982,
-0.595198532714844,-0.0324653745117187,0.0332315190429711,0.59700890089344,0.183576999999786,
-0.676601389160156,-0.0540131894531251,0.00210689746093884,0.678757175627089,0.187469999999848,
-0.631111557617188,-0.0707726010742187,0.00210689746093884,0.635070860800363,0.191395999999258,
-0.6358999609375,-0.0875320126953125,-0.0266235224609357,0.642447994405021,0.195310000000063,
-0.714908615722656,-0.0133117612304687,-0.038594530761717,0.716073368884962,0.199204999999893,
-0.626323154296875,-0.0468305844726562,-0.000287304199217076,0.628071556268982,0.203125999999429,
-0.628717355957031,-0.104291424316406,-0.0050757075195289,0.637328783026758,0.207004999999299,
-0.736456430664063,-0.0516189877929687,0.0547793339843761,0.740292759385767,0.21098499999971,
-0.6358999609375,-0.0444363828125001,-0.0314119257812475,0.638224146769033,0.214883999999984,
-0.671812985839844,-0.0683783994140624,0.0164721074218761,0.675484732449515,0.218801999999414,
-0.702937607421875,-0.092320416015625,0.00689530078125244,0.709007675779432,0.222717999999986,
-0.6358999609375,-0.0492247861328126,0.0523851323242202,0.639950030845191,0.226706999999806,
-0.710120212402344,-0.0755610043945312,0.0212605107421897,0.714445372834396,0.230846999999812,
-0.664630380859375,-0.0588015927734374,-0.0146525141601543,0.66738734378559,0.234762999999475,
-0.592804331054688,-0.0755610043945312,0.0116837041015643,0.597714772482527,0.238827999999558,
-0.698149204101563,-0.0779552060546874,-0.00268150585937299,0.702493071718396,0.242706999999427,
-0.6358999609375,-0.0564073911132812,-0.0146525141601543,0.638564992983278,0.24655999999959,
-0.717302817382813,-0.0731668027343749,-0.00986411083984251,0.721092236492914,0.250388999999814,
-0.683783994140625,-0.0851378110351562,0.0308373173828134,0.689753533991768,0.254337999999734,
-0.669418784179688,-0.0755610043945312,0.0380199223632829,0.674741793943603,0.258353999999599,
-0.662236179199219,-0.0995030209960938,0.00210689746093884,0.669673089831628,0.262213999999403,
-0.690966599121094,-0.0707726010742187,0.0164721074218761,0.694776894036279,0.266174999999748,
-0.619140549316406,-0.0779552060546874,0.0284431157226575,0.624676752241399,0.270085999999537,
-0.643082565917969,-0.0564073911132812,0.00450109912109475,0.645567378554046,0.273973999999725,
-0.640688364257813,-0.0588015927734374,-0.00986411083984251,0.643456687035503,0.277812999999696,
-0.647870969238281,-0.0635899960937499,0.0619619389648456,0.653926419610981,0.281611999999768,
-0.671812985839844,-0.0420421811523437,-0.0050757075195289,0.673146340512905,0.285530999999537,
-0.61674634765625,-0.0611957944335937,-0.000287304199217076,0.619775011715853,0.289412999999513,
-0.722091220703125,-0.0971088193359375,-0.0481713374023425,0.730182396087772,0.293254000000161,
-0.676601389160156,-0.0683783994140624,-0.000287304199217076,0.680047886448877,0.297085000000152,
-0.609563742675781,-0.0803494077148437,0.0906923588867201,0.62148941074283,0.301022999999986,
-0.995030209960938,0.398490924316406,-0.383359569824217,1.13835174496869,0.305061999999452,
0.810197841796875,-0.798609905761719,0.574321094238282,1.27437947398729,0.309118000000126,
-2.78828725341797,0.192589581542969,-0.421666796386717,2.82655964764005,0.312618999999358,
-1.00221281494141,1.98105822167969,-0.646721752441405,2.31241675076063,0.315588999999818,
1.77027270751953,-0.439479656738281,0.0619619389648456,1.82506085091857,0.318598999999267,
-0.226491477050781,-2.50328148779297,0.840077478515626,2.65017862911404,0.321680000000015,
-3.87046640380859,0.273992437988281,0.145758997070315,3.88288909503127,0.324646999999459,
-0.748427438964844,2.20850737939453,-0.606020324218749,2.40933789859409,0.327671000000009,
2.19644060302734,0.288357647949219,-0.330687133300779,2.23983379648773,0.330627999999706,
-0.590410129394531,-2.15133384375,0.310958911621096,2.25244686349587,0.333576999999423,
-2.68773078369141,-1.72037754492188,0.454611011230471,3.22339368278307,0.336604999999508,
-1.51457197021484,2.39764931054688,-0.00986411083984251,2.83597386624225,0.339624999999614,
0.853293471679688,2.08161469140625,-0.538982677734374,2.31338103199348,0.342769999999291,
1.00891657958984,-2.72354804052734,0.0212605107421897,2.90449283058999,0.345719999999346,
-2.00538331054688,-2.30456275,0.231950256835939,3.06371875545941,0.348646999999801,
-3.12108128417969,2.69692451806641,0.339689331542971,4.13883305782784,0.351706999999806,
0.984974562988281,1.54770772119141,-0.299562511718749,1.85884689482397,0.354687000000013,
1.95462623535156,-2.39554241308594,-0.335475536621091,3.10994067604021,0.357710999999654,
-2.49140624755859,-1.14816334814453,0.28222849169922,2.75772317064699,0.360708000000159,
-3.0875624609375,1.65065839257813,0.181672021972657,3.50581228857831,0.363696999999775,
1.22918313232422,0.585238653808594,-0.0146525141601543,1.36147352191414,0.366747000000032,
1.37283523193359,-1.37321830419922,-0.179852428710936,1.95006460947815,0.369693999999981,
-2.56562649902344,-0.207242095703125,0.0499909306640642,2.57446843287529,0.372760999999628,
-2.11072818359375,0.633122687011719,0.196037231933596,2.21234002769242,0.375701999999364,
1.00652237792969,-0.271885540527344,-0.0505655390624984,1.04382274269234,0.378700999999637,
0.281079274902344,-0.183300079101562,-0.0457771357421866,0.33867391977391,0.381709999999657,
-2.07720936035156,0.151888153320312,0.148153198730471,2.08801774612796,0.384683999999652,
-1.20093155273438,-0.372442010253906,0.0475967290039083,1.25825875477457,0.387726999999359,
0.451067592773438,-0.1210508359375,-0.0721133540039052,0.47256281482707,0.390664999999899,
-0.42521021484375,0.503835797363281,0.0619619389648456,0.662188431937953,0.393724999999904,
-1.46189953369141,-0.192876885742188,0.0236547124023456,1.47475804289368,0.396684999999707,
-0.714908615722656,-0.717207049316406,0.0236547124023456,1.01293623977152,0.399620000000141,
-0.147482822265625,0.269204034667969,-0.0050757075195289,0.306997977113483,0.402662999999848,
-0.671812985839844,0.479893780761719,0.0523851323242202,0.82726956359185,0.405673999999635,
-0.959117185058594,-0.631015789550781,-0.0290177241210916,1.14844622410032,0.408781999999519,
-0.717302817382813,-0.420326043457031,-0.0553539423828102,0.833223483569014,0.411720999999488,
-0.511401474609375,0.522989410644531,-0.0194409174804662,0.731729008001897,0.41469700000016,
-0.556891306152344,0.137522943359375,0.00210689746093884,0.573624376953421,0.41777699999966,
-0.805888278808594,-0.595102764648438,-0.038594530761717,1.00254314431749,0.420682999999372,
-0.848983908691406,-0.133021844238281,-0.0242293208007798,0.859683400007211,0.423756999999569,
-0.516189877929688,0.379337311035156,0.0763271489257829,0.64511597351452,0.426750999999967,
-0.461123239746094,-0.0755610043945312,0.0284431157226575,0.468137926738538,0.429741999999351,
-0.834618698730469,-0.398778228515625,0.0212605107421897,0.925237513898793,0.432815999999548,
-0.813070883789063,-0.00373495458984374,0.0404141240234388,0.814083234916367,0.435862999999699,
-0.461123239746094,0.175830169921875,-0.0242293208007798,0.494103178369818,0.438970000000154,
-0.588015927734375,-0.125839239257812,-0.0314119257812475,0.602150275668449,0.441929999999957,
-0.908838950195313,-0.243155120605469,-0.0074699091796866,0.940833911810119,0.44490499999938,
-0.69336080078125,0.0130244570312501,-0.0266235224609357,0.693993983035302,0.448081999999886,
-0.437181223144531,0.099215716796875,-0.0074699091796866,0.448360323704963,0.45104099999935,
-0.667024582519531,-0.171329070800781,-0.0122583124999984,0.688785678141003,0.454091999999946,
-0.872925925292969,-0.147387054199219,-0.000287304199217076,0.88528114028133,0.457092999999986,
-0.609563742675781,0.0273896669921876,0.0571735356445338,0.61285150193252,0.460137000000032,
-0.4826710546875,-0.0492247861328126,0.0404141240234388,0.486854935297514,0.463203999999678,
-0.801099875488281,-0.161752264160156,0.0212605107421897,0.817543157750889,0.466143999999986,
-0.801099875488281,-0.0540131894531251,0.0380199223632829,0.803818356122046,0.469170999999733,
-0.535343491210938,-0.0420421811523437,-0.00268150585937299,0.536998500045983,0.472132999999303,
-0.571256516113281,-0.0468305844726562,-0.0122583124999984,0.573303913355981,0.475132999999914,
-0.791523068847656,-0.106685625976563,-0.00268150585937299,0.798685032902017,0.478094999999485,
-0.741244833984375,-0.0588015927734374,0.0236547124023456,0.743949646575664,0.481131999999889,
-0.552102902832031,-0.0468305844726562,0.0188663090820338,0.554406580566992,0.484171999999489,
-0.640688364257813,-0.0755610043945312,0.00689530078125244,0.645165552903536,0.487205999999787,
-0.765186850585938,-0.137810247558594,-0.0074699091796866,0.77753352351197,0.490203999999721,
-0.652659372558594,-0.0444363828125001,0.0140779057617202,0.654321813893341,0.49319800000012,
-0.573650717773438,-0.0971088193359375,0.0547793339843761,0.584385184810987,0.496159999999691,
-0.702937607421875,-0.0779552060546874,-0.0362003291015611,0.708172830533677,0.499197000000095,
-0.707726010742188,-0.0204943662109374,0.0164721074218761,0.708214272413623,0.502208999999311,
-0.523372482910156,-0.14020444921875,0.121816980468752,0.555351618507409,0.505287999999382,
-0.741244833984375,-0.212030499023438,0.035625720703127,0.771796623729509,0.508217999999943,
-0.944751975097656,0.161464959960937,0.00450109912109475,0.9584609995401,0.511201999999685,
-0.281558115234375,0.101609918457031,-0.076901757324217,0.309052468138876,0.514266000000134,
-0.401268198242188,-0.465815875,0.145758997070315,0.631859384317026,0.517194999999447,
-1.35176625732422,-0.168934869140625,0.13618219042969,1.3690714347477,0.520289999999477,
-0.650265170898438,0.31948226953125,-0.294774108398435,0.782179958839719,0.523279999999431,
-0.0445321508789063,0.190195379882813,-0.0242293208007798,0.196836111974242,0.526260999999977,
-0.611957944335938,-0.59989116796875,0.272651685058596,0.899277977272917,0.529297000000042,
-1.35655466064453,-0.391595623535156,-0.0745075556640611,1.41390913977501,0.532236999999441,
-0.844195505371094,0.745650165039063,-0.117603185546873,1.13247107210838,0.535304999999425,
0.257137258300781,0.070485296875,0.0619619389648456,0.273728019322617,0.538300999999592,
-0.611957944335938,-0.980569231933594,0.0404141240234388,1.15656467422764,0.541223999999602,
-1.74680953125,-0.0109175595703124,-0.0529597407226543,1.74764626446836,0.544283999999607,
-0.566468112792969,0.774380584960937,0.0452025273437524,0.960517923650535,0.547289000000092,
0.415154567871094,-0.372442010253906,0.035625720703127,0.558869893805188,0.55036999999993,
-1.04291424316406,-0.700447637695313,-0.00268150585937299,1.25630577576523,0.553337999999712,
-1.61273423828125,0.350606891113281,-0.0194409174804662,1.65051957416239,0.556316000000152,
-0.113963999023438,0.264415631347656,0.0140779057617202,0.288273492720072,0.5593659999995,
0.0919373437499999,-0.413143438476563,-0.0529597407226543,0.426549774433716,0.562333999999282,
-1.30867062744141,-0.137810247558594,-0.0146525141601543,1.31598828704182,0.565434000000096,
-1.14586491455078,0.070485296875,-0.0481713374023425,1.14904092930633,0.568460999999843,
-0.090021982421875,-0.0947146176757813,-0.0338061274414052,0.13497285050416,0.571546999999555,
-0.396479794921875,-0.0157059628906249,0.0739329472656269,0.403619853008986,0.57455200000004,
-1.24642138427734,-0.109079827636719,-0.0314119257812475,1.25157955602606,0.577557999999954,
-0.468305844726563,-0.144992852539062,0.00210689746093884,0.490242522135101,0.58064000000013,
-0.279163913574219,0.0226012636718751,0.0188663090820338,0.280712032837957,0.583624999999302,
-0.916021555175781,-0.00373495458984374,0.0164721074218761,0.916177258916288,0.586692999999286,
-0.916021555175781,-0.226395708984375,-0.000287304199217076,0.943583906781425,0.589731999999458,
-0.437181223144531,-0.109079827636719,-0.040988732421873,0.452444368793509,0.59264499999972,
-0.50182466796875,0.08963891015625,0.0140779057617202,0.509962076067017,0.595722000000023,
-0.875320126953125,-0.0276769711914062,-0.0194409174804662,0.875973337868252,0.598724999999831,
-0.702937607421875,-0.269491338867187,-0.0050757075195289,0.752843027768235,0.601812999999311,
-0.568862314453125,-0.0252827695312499,-0.0290177241210916,0.570162765842618,0.604730000000018,
-0.623928952636719,0.0728794985351564,-0.0170467158203103,0.628402219732989,0.607677999999396,
-0.7125144140625,-0.161752264160156,-0.00268150585937299,0.730648873044665,0.610692999999628,
-0.686178195800781,-0.192876885742188,-0.0697191523437475,0.716172304441851,0.613655999999537,
-0.643082565917969,0.080062103515625,0.0452025273437524,0.649621732614641,0.61670199999935,
-0.61674634765625,-0.0181001645507812,-0.00268150585937299,0.617017717555795,0.619691999999304,
-0.705331809082031,-0.231184112304688,-0.0170467158203103,0.742448412487559,0.622696999999789,
-0.772369455566406,-0.0468305844726562,0.0188663090820338,0.774017840332105,0.625725999999304,
-0.65505357421875,0.0537258852539062,0.0667503422851574,0.660633986438982,0.628725999999915,
-0.568862314453125,-0.142598650878906,0.0547793339843761,0.589015690342135,0.631761999999981,
-0.707726010742188,-0.17851167578125,0.0475967290039083,0.731442392320238,0.634732999999869,
-0.707726010742188,0.0489374819335937,0.0212605107421897,0.709734452267939,0.637698999999884,
-0.626323154296875,-0.0396479794921876,0.00928950244140836,0.627645561397362,0.640760999999657,
-0.65505357421875,-0.173723272460937,-0.00986411083984251,0.677770065120877,0.643759999999929,
-0.729273825683594,-0.0995030209960938,0.0499909306640642,0.737726410780577,0.646821999999702,
-0.681389792480469,0.0226012636718751,0.0811155522460947,0.686573083678883,0.649777999999969,
-0.597592734375,-0.0564073911132812,0.0188663090820338,0.60054542506656,0.65273199999956,
-0.657447775878906,-0.113868230957031,0.0308373173828134,0.667947971157015,0.655799000000115,
-0.736456430664063,-0.0444363828125001,-0.0074699091796866,0.737833630249437,0.658708999999362,
-0.592804331054688,0.00584185205078125,-0.0074699091796866,0.59288017482096,0.661811999999372,
-0.61674634765625,-0.113868230957031,-0.0146525141601543,0.62734099781524,0.664770999999746,
-0.7125144140625,-0.135416045898437,0.0140779057617202,0.725405047655606,0.667811999999685,
-0.702937607421875,-0.00852335791015624,0.00450109912109475,0.703003689500527,0.670763000000079,
-0.626323154296875,-0.0564073911132812,-0.00986411083984251,0.62893544029833,0.673718999999437,
-0.643082565917969,-0.10189722265625,-0.0266235224609357,0.651649478263371,0.676751999999397,
-0.700543405761719,-0.0707726010742187,0.0188663090820338,0.704361953854279,0.679690999999366,
-0.667024582519531,-0.0396479794921876,0.0499909306640642,0.670069286799378,0.68268099999932,
-0.614352145996094,-0.0228885678710937,-0.0218351191406239,0.615166008697718,0.685679999999593,
-0.667024582519531,-0.0276769711914062,0.0595677373046897,0.670250791679716,0.688672999999653,
-0.707726010742188,-0.0971088193359375,0.100269165527346,0.721359920309842,0.691733999999997,
-0.614352145996094,-0.0396479794921876,-0.000287304199217076,0.615630249509819,0.694696999999906,
-0.669418784179688,-0.0372537778320312,0.0164721074218761,0.670656904011498,0.69777299999987,
-0.662236179199219,-0.0659841977539062,-0.0266235224609357,0.66604765846134,0.700672999999369,
-0.669418784179688,-0.0683783994140624,-0.0074699091796866,0.672943469885988,0.703655999999683,
-0.681389792480469,-0.109079827636719,-0.00268150585937299,0.690070756203671,0.706695999999283,
-0.657447775878906,-0.0827436093749999,-0.0745075556640611,0.66680991200758,0.709677999999258,
-0.686178195800781,-0.0731668027343749,-0.0481713374023425,0.691747334770375,0.712727999999515,
-0.676601389160156,-0.0468305844726562,-0.0649307490234357,0.681321176556438,0.715764999999919,
-0.686178195800781,-0.0540131894531251,-0.0266235224609357,0.688815470917678,0.718751999999768,
-0.662236179199219,-0.0683783994140624,-0.0338061274414052,0.666614743910899,0.721829000000071,
-0.657447775878906,-0.0779552060546874,-0.000287304199217076,0.662053377533,0.72476800000004,
-0.6742071875,-0.10189722265625,-0.0122583124999984,0.681974077137149,0.72792599999957,
-0.669418784179688,-0.0611957944335937,-0.00986411083984251,0.672282481217256,0.730884999999944,
-0.681389792480469,-0.0995030209960938,0.0404141240234388,0.689801567049907,0.733852999999726,
-0.659841977539063,-0.0348595761718749,-0.0242293208007798,0.661206235118825,0.736895000000004,
-0.659841977539063,-0.0420421811523437,-0.000287304199217076,0.661180053285344,0.739876999999979,
-0.65505357421875,-0.0779552060546874,0.0284431157226575,0.660288732358656,0.742953999999372,
-0.695755002441406,-0.0707726010742187,-0.076901757324217,0.703560704392027,0.745882999999594,
-0.664630380859375,-0.104291424316406,0.0452025273437524,0.674279995866321,0.748815999999351,
-0.633505759277344,-0.0492247861328126,-0.0146525141601543,0.63558423735851,0.75183399999969,
-0.686178195800781,-0.0588015927734374,0.0523851323242202,0.690682521708588,0.754769999999553,
-0.700543405761719,-0.0755610043945312,-0.0170467158203103,0.704812825693174,0.757803999999851,
-0.6358999609375,-0.0444363828125001,-0.0194409174804662,0.637747051510437,0.760833999999704,
-0.688572397460938,-0.0803494077148437,0.0428083256835947,0.694564990920981,0.763847999999598,
-0.643082565917969,-0.0516189877929687,0.0739329472656269,0.649373380405904,0.766924999999901,
-0.638294162597656,-0.0611957944335937,0.0452025273437524,0.642812283439625,0.769876999999724,
-0.652659372558594,-0.0827436093749999,0.0763271489257829,0.662296455633064,0.772946000000047,
-0.686178195800781,-0.0707726010742187,0.0523851323242202,0.691804509629601,0.775906999999279,
-0.664630380859375,-0.0827436093749999,-0.0074699091796866,0.669802842332603,0.778905000000123,
-0.667024582519531,-0.0779552060546874,-0.0266235224609357,0.672091972712524,0.781893999999738,
-0.640688364257813,-0.0731668027343749,0.0212605107421897,0.645203045896981,0.784861000000092,
-0.676601389160156,-0.0827436093749999,0.0404141240234388,0.682839107057027,0.787892999999713,
-0.671812985839844,-0.0707726010742187,0.0236547124023456,0.675944520226841,0.790836000000127,
-0.681389792480469,-0.0516189877929687,0.0260489140625015,0.683838515382969,0.793910999999753,
-0.676601389160156,-0.0348595761718749,-0.038594530761717,0.67859720576278,0.796824999999444,
-0.69336080078125,-0.0731668027343749,0.00689530078125244,0.697244667426902,0.799815999999737,
-0.671812985839844,-0.0492247861328126,-0.0266235224609357,0.674139881227253,0.802869000000101,
-0.643082565917969,-0.0468305844726562,-0.0218351191406239,0.645155068690911,0.805824999999459,
-0.683783994140625,-0.0635899960937499,0.0212605107421897,0.68706349601993,0.808856999999989,
-0.650265170898438,-0.0564073911132812,0.035625720703127,0.65367865058559,0.811779999999999,
-0.676601389160156,-0.0755610043945312,-0.0242293208007798,0.681238552333198,0.81470999999965,
-0.664630380859375,-0.0851378110351562,-0.0266235224609357,0.67058989104919,0.817751999999928,
-0.676601389160156,-0.104291424316406,0.0140779057617202,0.684736685471163,0.820694999999432,
-0.614352145996094,-0.0755610043945312,-0.00268150585937299,0.61898724958499,0.823725999999624,
-0.645476767578125,-0.0444363828125001,-0.038594530761717,0.648154601468879,0.8266909999993,
-0.686178195800781,-0.0228885678710937,-0.038594530761717,0.687643760050451,0.829654999999548,
-0.698149204101563,-0.0731668027343749,-0.0170467158203103,0.702179665563077,0.832698999999593,
-0.681389792480469,-0.0755610043945312,-0.0888727656249984,0.691303032794969,0.835637000000133,
-0.681389792480469,-0.0827436093749999,0.0380199223632829,0.687447502494182,0.838681999999608,
-0.647870969238281,-0.118656634277344,-0.0242293208007798,0.659092747362801,0.841620999999577,
-0.659841977539063,-0.0540131894531251,-0.040988732421873,0.663316618322737,0.844602000000123,
-0.664630380859375,-0.0540131894531251,-0.0314119257812475,0.667560991129248,0.847673999999643,
-0.621534750976562,-0.113868230957031,-0.0170467158203103,0.632109176656248,0.850707999999941,
-0.657447775878906,-0.0947146176757813,0.00210689746093884,0.664238568457524,0.85379599999942,
-0.686178195800781,-0.0899262143554688,0.00450109912109475,0.69206032996699,0.856775999999627,
-0.667024582519531,-0.125839239257812,-0.0170467158203103,0.679005079761999,0.859803999999713,
-0.698149204101563,-0.0492247861328126,0.0188663090820338,0.700136649787629,0.862798999999541,
-0.6358999609375,-0.0564073911132812,0.0260489140625015,0.63892808673305,0.865815999999541,
-0.643082565917969,-0.0659841977539062,-0.00268150585937299,0.646464454873228,0.868910000000142,
-0.700543405761719,-0.0827436093749999,0.00450109912109475,0.705427408130651,0.871866999999838,
-0.705331809082031,-0.0540131894531251,-0.0122583124999984,0.707503110779859,0.874864999999772,
-0.65505357421875,-0.0755610043945312,0.0284431157226575,0.66001034939907,0.877885999999307,
-0.671812985839844,-0.0707726010742187,0.00928950244140836,0.675594363402675,0.880874999999833,
-0.676601389160156,-0.0707726010742187,-0.000287304199217076,0.680292792421004,0.883901000000151,
-0.686178195800781,-0.0516189877929687,-0.0122583124999984,0.688226200110497,0.886817999999948,
-0.681389792480469,-0.0492247861328126,0.0691445439453133,0.686655733846156,0.889828999999736,
-0.695755002441406,-0.092320416015625,0.071538745605471,0.705489811945108,0.892804000000069,
-0.643082565917969,-0.0683783994140624,-0.0074699091796866,0.646750795621637,0.895703999999569,
-0.643082565917969,-0.109079827636719,0.0164721074218761,0.652475996269451,0.898779000000104,
-0.638294162597656,-0.0348595761718749,-0.0074699091796866,0.639289001626243,0.901804999999513,
-0.681389792480469,-0.0707726010742187,0.0116837041015643,0.685154960064451,0.904840999999578,
-0.647870969238281,-0.0779552060546874,-0.00986411083984251,0.652618654051077,0.907815999999912,
-0.662236179199219,-0.0468305844726562,-0.0481713374023425,0.665635289351129,0.910742999999457,
-0.6358999609375,-0.0659841977539062,-0.0553539423828102,0.641706111557978,0.913797999999588,
-0.669418784179688,-0.0875320126953125,-0.00268150585937299,0.675122620220044,0.916730999999345,
-0.645476767578125,-0.0516189877929687,0.00689530078125244,0.647574183052984,0.919777999999496,
-0.643082565917969,-0.0707726010742187,0.0667503422851574,0.650399535551522,0.922780999999304,
-0.686178195800781,-0.0276769711914062,-0.0170467158203103,0.686947684796305,0.925715999999738,
-0.671812985839844,-0.0635899960937499,-0.00268150585937299,0.674821136316819,0.928736999999273,
-0.659841977539063,-0.0779552060546874,0.0380199223632829,0.665517816418313,0.931697999999415,
-0.664630380859375,-0.0875320126953125,-0.0194409174804662,0.670651433816594,0.934747999999672,
-0.657447775878906,-0.0444363828125001,0.00928950244140836,0.659013250990592,0.937680999999429,
-0.626323154296875,-0.0444363828125001,-0.000287304199217076,0.627897577849723,0.940647999999783,
-0.667024582519531,-0.0899262143554688,0.0164721074218761,0.673260609301167,0.943728999999621,
-0.65505357421875,-0.0947146176757813,0.0116837041015643,0.661968694758115,0.94667599999957,
-0.698149204101563,-0.0492247861328126,-0.040988732421873,0.701081640711706,0.949690999999802,
-0.678995590820313,-0.0468305844726562,0.102663367187501,0.688307985539723,0.952661999999691,
-0.657447775878906,-0.0707726010742187,0.0332315190429711,0.662080563775161,0.955666999999266,
-0.7125144140625,-0.0468305844726562,-0.00986411083984251,0.714119874090855,0.958622000000105,
-0.695755002441406,-0.0324653745117187,-0.0050757075195289,0.696530535419124,0.96155699999963,
-0.690966599121094,-0.0779552060546874,-0.0050757075195289,0.695368692176189,0.964608999999655,
-0.664630380859375,-0.0707726010742187,0.00928950244140836,0.668452391034468,0.967641999999614,
-0.69336080078125,-0.0468305844726562,0.0116837041015643,0.695038713053884,0.970665999999255,
-0.657447775878906,-0.0635899960937499,-0.0481713374023425,0.662270143792134,0.973640000000159,
-0.647870969238281,-0.0995030209960938,0.0140779057617202,0.655618663095961,0.976603000000068,
-0.662236179199219,-0.0516189877929687,-0.040988732421873,0.665508341891146,0.979628999999477,
-0.664630380859375,-0.0324653745117187,0.0260489140625015,0.665932496299212,0.982618999999431,
-0.714908615722656,-0.0540131894531251,-0.040988732421873,0.718116863508256,0.985697000000073,
-0.662236179199219,-0.0731668027343749,0.0164721074218761,0.666469405438591,0.988714000000073,
-0.676601389160156,-0.0540131894531251,0.0882981572265642,0.684473103210023,0.991697999999815,
-0.6358999609375,-0.0516189877929687,-0.0170467158203103,0.638219296747868,0.994770999999673,
-0.664630380859375,-0.0779552060546874,0.00689530078125244,0.669222012851618,0.997761999999966,
-0.702937607421875,-0.0683783994140624,0.00928950244140836,0.706316628920789,1.00081999999929,
-0.676601389160156,-0.0348595761718749,0.00689530078125244,0.67753389216865,1.00386499999968,
-0.669418784179688,-0.0731668027343749,0.0428083256835947,0.674764731134352,1.00684099999944,
-0.678995590820313,-0.0540131894531251,-0.0194409174804662,0.681417923348665,1.00987299999997,
-0.640688364257813,-0.0659841977539062,0.0380199223632829,0.645198426024962,1.01283299999977,
-0.640688364257813,-0.0372537778320312,-0.0625365473632797,0.644810238608406,1.01590499999929,
-0.647870969238281,-0.0947146176757813,0.0236547124023456,0.655184857122062,1.01888899999994,
-0.676601389160156,-0.0611957944335937,0.0499909306640642,0.681200013372336,1.02182999999968,
-0.664630380859375,-0.0611957944335937,0.0332315190429711,0.66826851061197,1.02484699999968,
-0.6742071875,-0.0707726010742187,0.00928950244140836,0.677975211637623,1.02781999999934,
