X,Y,Z,Magnitude,Seconds,
-1.18177793945313,-0.257520330566406,-0.0242293208007798,1.20975323054728,0.0,
-1.20571995605469,-0.245549322265625,-0.0362003291015611,1.23100184643269,0.0029500000000553,
-1.13868230957031,-0.226395708984375,-0.0074699091796866,1.1609944955589,0.00597800000014104,
-1.15783592285156,-0.2742797421875,0.0140779057617202,1.18996285179438,0.00894900000002963,
-1.16262432617188,-0.245549322265625,-0.0362003291015611,1.18882305550438,0.0119750000003478,
-1.15304751953125,-0.245549322265625,-0.0697191523437475,1.18096308670754,0.0149270000001707,
-1.16023012451172,-0.257520330566406,-0.0601423457031238,1.18998645548014,0.0178670000004786,
-1.17938373779297,-0.250337725585937,-0.0290177241210916,1.20600870897984,0.0208990000000995,
-1.20332575439453,-0.209636297363281,-0.038594530761717,1.22205964918496,0.0238660000004529,
-1.14825911621094,-0.283856548828125,-0.00268150585937299,1.18282742982559,0.0269060000000536,
-1.11234609130859,-0.257520330566406,-0.0242293208007798,1.14202347063929,0.0298670000001948,
-1.17938373779297,-0.204847894042969,-0.0170467158203103,1.19716300109242,0.0328170000002501,
-1.1722011328125,-0.267097137207031,-0.0505655390624984,1.20330929116823,0.0358450000003359,
-1.20571995605469,-0.21681890234375,-0.00986411083984251,1.22509932231012,0.0388220000004367,
-1.19135474609375,-0.202453692382813,-0.10084377392578,1.21263477409281,0.0418490000001839,
-1.19135474609375,-0.224001507324219,-0.0625365473632797,1.21384250464372,0.0448120000000927,
-1.16501852783203,-0.2742797421875,-0.0170467158203103,1.19699128555166,0.047762000000148,
-1.20571995605469,-0.221607305664063,-0.0745075556640611,1.22817823877613,0.050810000000638,
-1.1722011328125,-0.262308733886719,-0.0074699091796866,1.20121487136287,0.0537720000002082,
-1.15544172119141,-0.259914532226562,0.0499909306640642,1.18536923710757,0.0568270000003395,
-1.19374894775391,-0.233578313964844,-0.0242293208007798,1.21662748571807,0.0597930000003544,
-1.15065331787109,-0.21681890234375,-0.00986411083984251,1.17094440304566,0.0628160000005664,
-1.15304751953125,-0.257520330566406,-0.00268150585937299,1.18145778317546,0.0657760000003691,
-1.20093155273438,-0.231184112304688,-0.00268150585937299,1.22298400586793,0.0687230000003183,
-1.13389390625,-0.188088482421875,-0.0074699091796866,1.14941222692026,0.0717469999999594,
-1.15304751953125,-0.257520330566406,0.0499909306640642,1.18251190103984,0.0747360000004846,
-1.20811415771484,-0.240760918945313,-0.0553539423828102,1.23311382163195,0.0777470000002722,
-1.15065331787109,-0.247943523925781,-0.040988732421873,1.17777719674395,0.0807150000000547,
-1.15304751953125,-0.2742797421875,-0.0577481440429679,1.18662665038841,0.0836480000007214,
-1.18656634277344,-0.238366717285156,-0.0481713374023425,1.21123030653099,0.0866750000004686,
-1.20571995605469,-0.233578313964844,-0.0074699091796866,1.2281592896389,0.08962800000063,
-1.20571995605469,-0.252731927246094,-0.0840843623046865,1.23478913967617,0.0927390000006199,
-1.16501852783203,-0.250337725585937,-0.0218351191406239,1.19181119287886,0.0957880000005389,
-1.19135474609375,-0.21681890234375,-0.0050757075195289,1.21093448636187,0.0988280000001396,
-1.16501852783203,-0.21681890234375,-0.0649307490234357,1.18680015536492,0.10189900000023,
-1.16741272949219,-0.231184112304688,-0.0074699091796866,1.19010687516108,0.104859000000033,
-1.20093155273438,-0.252731927246094,-0.0290177241210916,1.22757975289416,0.10787000000073,
-1.14347071289063,-0.209636297363281,-0.0362003291015611,1.1630920480503,0.110845000000154,
-1.14825911621094,-0.221607305664063,0.0116837041015643,1.16950643641954,0.113816000000043,
-1.18896054443359,-0.2742797421875,-0.0649307490234357,1.22191348112827,0.11682700000074,
-1.17938373779297,-0.247943523925781,-0.0481713374023425,1.2061270537445,0.119802000000163,
-1.17938373779297,-0.245549322265625,-0.0194409174804662,1.20483128275626,0.122830000000249,
-1.19135474609375,-0.247943523925781,-0.0050757075195289,1.21689271708876,0.125792000000729,
-1.17938373779297,-0.235972515625,-0.00268150585937299,1.20276191308778,0.128750000000764,
-1.18417214111328,-0.221607305664063,-0.0146525141601543,1.20481872241583,0.131765000000087,
-1.17698953613281,-0.264702935546875,0.0404141240234388,1.20706475123493,0.134766000000127,
-1.23684457763672,-0.202453692382813,-0.0050757075195289,1.25331471290958,0.137794000000213,
-1.17459533447266,-0.252731927246094,-0.0457771357421866,1.20234902294268,0.140755000000354,
-1.18896054443359,-0.219213104003906,0.00450109912109475,1.20900861083789,0.143711000000621,
-1.18177793945313,-0.257520330566406,-0.040988732421873,1.21020489794855,0.146727000000283,
-1.18896054443359,-0.283856548828125,-0.0050757075195289,1.22238597805246,0.14967500000057,
-1.21290256103516,-0.257520330566406,-0.0625365473632797,1.24151526892616,0.152690000000803,
-1.18656634277344,-0.250337725585937,-0.038594530761717,1.21330054003902,0.155637000000752,
-1.23684457763672,-0.259914532226562,-0.0074699091796866,1.26388127323537,0.158645000000433,
-1.19374894775391,-0.219213104003906,0.0332315190429711,1.21416443247547,0.161622000000534,
-1.18656634277344,-0.231184112304688,-0.0122583124999984,1.20894005054435,0.164563000000271,
-1.19135474609375,-0.245549322265625,-0.0170467158203103,1.21651600533058,0.167579000000842,
-1.14825911621094,-0.2742797421875,-0.108026378906247,1.18549486438177,0.170522000000346,
-1.18656634277344,-0.231184112304688,-0.0314119257812475,1.20928594164744,0.173526000000493,
-1.17698953613281,-0.235972515625,-0.0122583124999984,1.20047393246246,0.176471000000674,
-1.18417214111328,-0.250337725585937,-0.0553539423828102,1.21160913481934,0.17941300000075,
-1.19614314941406,-0.25512612890625,-0.0625365473632797,1.22464631436877,0.18243000000075,
-1.16262432617188,-0.245549322265625,-0.0457771357421866,1.18915320275752,0.185377000000699,
-1.14347071289063,-0.235972515625,-0.0050757075195289,1.16757614834143,0.188397000000805,
-1.19135474609375,-0.250337725585937,-0.0290177241210916,1.21771800356438,0.191349000000628,
-1.17459533447266,-0.245549322265625,-0.0194409174804662,1.20014441576942,0.194279000000279,
-1.15304751953125,-0.257520330566406,-0.000287304199217076,1.18145477505316,0.197293000000172,
-1.18417214111328,-0.269491338867187,-0.00986411083984251,1.21449023964621,0.200240000000122,
-1.19614314941406,-0.240760918945313,-0.0697191523437475,1.22212315835398,0.203252000000248,
-1.17938373779297,-0.250337725585937,-0.0721133540039052,1.20781427117241,0.206202000000303,
-1.15065331787109,-0.243155120605469,-0.0074699091796866,1.17608812176111,0.209131999999954,
-1.18896054443359,-0.247943523925781,-0.0433829340820289,1.21531281826784,0.212140999999974,
-1.13868230957031,-0.262308733886719,-0.0074699091796866,1.16852859337921,0.2150900000006,
-1.22247936767578,-0.228789910644531,-0.0050757075195289,1.24371475444032,0.218105000000833,
-1.16501852783203,-0.243155120605469,-0.0601423457031238,1.19164159234866,0.221048000000337,
-1.19853735107422,-0.219213104003906,0.0260489140625015,1.21869795799077,0.223990000000413,
-1.15783592285156,-0.209636297363281,-0.0050757075195289,1.17667207165996,0.227000000000771,
-1.20332575439453,-0.228789910644531,0.0619619389648456,1.2264489293412,0.230002000000241,
-1.17698953613281,-0.240760918945313,-0.0074699091796866,1.20138502895644,0.233112000000801,
-0.611957944335938,-0.3508941953125,0.035625720703127,0.706320362098878,17.141095,
-0.604775339355469,-0.326952178710938,0.0116837041015643,0.687595409523569,17.1453200000005,
-0.607169541015625,-0.37004780859375,0.0380199223632829,0.712064425932564,17.1482720000004,
-0.599986936035156,-0.372442010253906,-0.0816901606445288,0.710894265528253,17.1511780000001,
-0.61674634765625,-0.336528985351563,0.0188663090820338,0.702839777579112,17.1542080000008,
-0.595198532714844,-0.348499993652344,-0.0146525141601543,0.689875521447747,17.1571320000003,
-0.623928952636719,-0.346105791992187,-0.040988732421873,0.714672395839131,17.1601340000007,
-0.597592734375,-0.343711590332031,-0.040988732421873,0.690604669613459,17.1630520000008,
-0.61674634765625,-0.314981170410156,0.0404141240234388,0.693702022831747,17.1659830000008,
-0.607169541015625,-0.329346380371094,-0.0625365473632797,0.693566658337024,17.1689740000002,
-0.595198532714844,-0.319769573730469,-0.00268150585937299,0.675663425163256,17.1719130000001,
-0.633505759277344,-0.295827557128906,-0.0074699091796866,0.699213336641667,17.1749090000003,
-0.623928952636719,-0.303010162109375,0.00928950244140836,0.693677728585481,17.1778600000007,
-0.602381137695312,-0.343711590332031,-0.0481713374023425,0.695213039382033,17.1807630000003,
-0.619140549316406,-0.348499993652344,-0.00986411083984251,0.710552296503337,17.1837610000002,
-0.614352145996094,-0.338923187011719,-0.0194409174804662,0.701908423696901,17.1866950000003,
-0.604775339355469,-0.353288396972656,-0.00986411083984251,0.700473556396451,17.1897070000005,
-0.609563742675781,-0.319769573730469,-0.00268150585937299,0.68835145611987,17.1926360000007,
-0.590410129394531,-0.341317388671875,-0.0218351191406239,0.682318439681459,17.1955540000008,
-0.607169541015625,-0.334134783691406,0.00689530078125244,0.69307174980841,17.1985610000002,
-0.604775339355469,-0.3508941953125,0.0667503422851574,0.702378498810801,17.2015010000005,
-0.619140549316406,-0.336528985351563,-0.00268150585937299,0.704694237427303,17.2044990000004,
-0.614352145996094,-0.319769573730469,-0.0290177241210916,0.693197784104176,17.2074260000009,
-0.607169541015625,-0.334134783691406,-0.038594530761717,0.694111261264608,17.210419,
-0.623928952636719,-0.348499993652344,0.0284431157226575,0.715226253954683,17.2133650000005,
-0.609563742675781,-0.319769573730469,0.0260489140625015,0.688838938063541,17.2162860000008,
-0.595198532714844,-0.322163775390625,0.0284431157226575,0.677391911932713,17.2192860000005,
-0.597592734375,-0.360471001953125,0.0499909306640642,0.699682436949462,17.2222240000001,
-0.599986936035156,-0.37004780859375,0.0284431157226575,0.705498912040199,17.2252320000007,
-0.607169541015625,-0.314981170410156,-0.0122583124999984,0.684118597521968,17.2282640000003,
-0.580833322753906,-0.33174058203125,-0.00986411083984251,0.668966713125875,17.2312650000003,
-0.607169541015625,-0.33174058203125,-0.000287304199217076,0.691886369172901,17.234348,
-0.614352145996094,-0.391595623535156,0.0236547124023456,0.728927456665429,17.2373210000005,
-0.607169541015625,-0.377230413574219,-0.0314119257812475,0.715502862009501,17.2403060000006,
-0.643082565917969,-0.319769573730469,0.0380199223632829,0.71920322675021,17.2432310000004,
-0.61674634765625,-0.324557977050781,0.0212605107421897,0.697256012617775,17.2461540000004,
-0.623928952636719,-0.3508941953125,-0.0314119257812475,0.716519911323926,17.249151,
-0.614352145996094,-0.3508941953125,0.0140779057617202,0.707639373568662,17.2520890000005,
-0.585621726074219,-0.37004780859375,0.0739329472656269,0.696673716589456,17.2550850000007,
-0.607169541015625,-0.322163775390625,0.0452025273437524,0.688830616472097,17.2580450000005,
-0.614352145996094,-0.374836211914062,0.00450109912109475,0.719688130335208,17.2609660000007,
-0.607169541015625,-0.3508941953125,0.0404141240234388,0.702434971553747,17.2639990000007,
-0.614352145996094,-0.355682598632812,0.00689530078125244,0.709919865501072,17.2669500000002,
-0.590410129394531,-0.346105791992187,0.0499909306640642,0.686201452410927,17.2699840000005,
-0.597592734375,-0.341317388671875,-0.0146525141601543,0.688352621959698,17.2729070000005,
-0.621534750976562,-0.334134783691406,-0.0481713374023425,0.707299072593151,17.2758200000008,
-0.592804331054688,-0.37004780859375,0.00450109912109475,0.698836615708944,17.2788350000001,
-0.599986936035156,-0.374836211914062,0.0212605107421897,0.707770102852584,17.2817840000007,
-0.580833322753906,-0.3508941953125,0.0164721074218761,0.678797035532911,17.284791,
-0.619140549316406,-0.377230413574219,-0.0074699091796866,0.725047311750309,17.2877280000002,
-0.611957944335938,-0.365259405273437,-0.0314119257812475,0.71336783489155,17.290634,
-0.597592734375,-0.348499993652344,-0.0218351191406239,0.692131558434781,17.293619,
-0.57843912109375,-0.310192767089844,-0.0242293208007798,0.656809279435843,17.2965520000007,
-0.611957944335938,-0.336528985351563,0.0260489140625015,0.698872541699453,17.2995860000001,
-0.614352145996094,-0.317375372070313,-0.00268150585937299,0.691493222353227,17.3025020000005,
-0.640688364257813,-0.317375372070313,0.00689530078125244,0.715021854256906,17.3054990000001,
-0.607169541015625,-0.355682598632812,-0.0242293208007798,0.704096600257225,17.308419,
-0.588015927734375,-0.33174058203125,-0.0290177241210916,0.67576369638278,17.311334,
-0.599986936035156,-0.338923187011719,0.0164721074218761,0.689292811822344,17.3143460000001,
-0.623928952636719,-0.326952178710938,0.0332315190429711,0.705187492061569,17.3172780000004,
-0.573650717773438,-0.362865203613281,-0.000287304199217076,0.678783017273555,17.3202460000002,
-0.607169541015625,-0.338923187011719,-0.0290177241210916,0.695963940548986,17.3231750000004,
-0.609563742675781,-0.298221758789063,0.0547793339843761,0.680811977885172,17.3260710000004,
-0.614352145996094,-0.334134783691406,0.0164721074218761,0.699532660628099,17.3290550000002,
-0.628717355957031,-0.338923187011719,0.00210689746093884,0.714254072016878,17.3319800000008,
-0.633505759277344,-0.358076800292969,-0.040988732421873,0.72885431886706,17.3349470000003,
-0.631111557617188,-0.341317388671875,-0.0577481440429679,0.719815397243063,17.3378540000003,
-0.61674634765625,-0.367653606933594,0.00928950244140836,0.718074875548654,17.3407580000003,
-0.588015927734375,-0.31258696875,0.0428083256835947,0.667312443349788,17.3437490000006,
-0.57843912109375,-0.341317388671875,0.093086560546876,0.678051977635893,17.3466760000001,
-0.588015927734375,-0.358076800292969,0.0428083256835947,0.689792924670296,17.3496590000004,
-0.621534750976562,-0.346105791992187,0.0835097539062524,0.7162880320929,17.3525870000003,
-0.597592734375,-0.3508941953125,-0.0050757075195289,0.693014844926586,17.3554680000007,
-0.609563742675781,-0.341317388671875,-0.0266235224609357,0.699123971941259,17.3584460000002,
-0.599986936035156,-0.353288396972656,0.0116837041015643,0.696371685086274,17.3613840000007,
-0.597592734375,-0.362865203613281,0.0523851323242202,0.70109374142102,17.3644540000005,
-0.590410129394531,-0.358076800292969,0.00450109912109475,0.690523986327061,17.3674790000005,
-0.588015927734375,-0.336528985351563,-0.040988732421873,0.678744845605933,17.3704830000006,
-0.61674634765625,-0.353288396972656,0.0260489140625015,0.711243484825463,17.3735490000008,
-0.6358999609375,-0.348499993652344,0.0284431157226575,0.725692783985076,17.3764710000005,
-0.604775339355469,-0.326952178710938,-0.0290177241210916,0.688108252071954,17.3794590000007,
-0.597592734375,-0.374836211914062,-0.0194409174804662,0.70568917464586,17.3823930000008,
-0.604775339355469,-0.343711590332031,-0.0146525141601543,0.695776950316917,17.3853200000003,
-0.611957944335938,-0.33174058203125,-0.0194409174804662,0.696363618144128,17.3883220000007,
-0.609563742675781,-0.329346380371094,0.0188663090820338,0.693103839454685,17.3912580000006,
-0.556891306152344,-0.329346380371094,0.0643561406250015,0.650183572514524,17.3942710000001,
-0.564073911132813,-0.336528985351563,-0.0457771357421866,0.658427430594427,17.3972010000007,
-0.614352145996094,-0.343711590332031,0.035625720703127,0.704865525184909,17.4002120000005,
-0.6358999609375,-0.355682598632812,-0.0290177241210916,0.72919194976609,17.4031370000002,
-0.623928952636719,-0.336528985351563,0.0475967290039083,0.710495984880968,17.406105,
-0.609563742675781,-0.37004780859375,0.0164721074218761,0.713284422480164,17.4091260000005,
-0.592804331054688,-0.317375372070313,0.0188663090820338,0.672681231589186,17.4120700000003,
-0.595198532714844,-0.362865203613281,-0.0170467158203103,0.697296952423764,17.4150560000007,
-0.6358999609375,-0.336528985351563,0.0260489140625015,0.719929902300149,17.4180100000003,
-0.614352145996094,-0.338923187011719,-0.0170467158203103,0.701846191486742,17.4209200000005,
-0.609563742675781,-0.326952178710938,-0.000287304199217076,0.691712198889421,17.4239150000003,
-0.640688364257813,-0.377230413574219,0.0140779057617202,0.743627966426333,17.4268580000007,
-0.585621726074219,-0.33174058203125,0.0236547124023456,0.673471725639182,17.4298580000004,
-0.597592734375,-0.360471001953125,0.0787213505859388,0.702320062695744,17.4328090000008,
-0.57843912109375,-0.353288396972656,0.035625720703127,0.678729474991941,17.4357450000007,
-0.614352145996094,-0.365259405273437,0.00210689746093884,0.714735917278278,17.4387590000006,
-0.597592734375,-0.334134783691406,0.00450109912109475,0.684677580868243,17.4417110000004,
-0.607169541015625,-0.358076800292969,-0.000287304199217076,0.704892849296174,17.4447110000001,
-0.61674634765625,-0.338923187011719,0.0404141240234388,0.704895939456376,17.4476650000006,
-0.595198532714844,-0.336528985351563,-0.00268150585937299,0.68375451866977,17.4505870000003,
-0.592804331054688,-0.33174058203125,-0.0314119257812475,0.680040805955727,17.4535880000003,
-0.628717355957031,-0.37004780859375,0.00928950244140836,0.729593852209739,17.4565230000007,
-0.61674634765625,-0.300615960449219,0.00928950244140836,0.686172214447466,17.4595390000004,
-0.652659372558594,-0.3508941953125,0.0332315190429711,0.741751526287939,17.4624890000005,
-0.564073911132813,-0.319769573730469,0.0188663090820338,0.648681659308179,17.4654170000003,
-0.623928952636719,-0.343711590332031,0.0906923588867201,0.718087807463241,17.4684230000003,
-0.628717355957031,-0.317375372070313,0.0164721074218761,0.704474251340166,17.4713650000003,
-0.6358999609375,-0.3508941953125,0.0140779057617202,0.726425277681715,17.4743690000005,
-0.566468112792969,-0.3508941953125,0.0428083256835947,0.66771656551494,17.4773140000007,
-0.602381137695312,-0.353288396972656,0.0236547124023456,0.698738342947806,17.4802250000002,
-0.588015927734375,-0.358076800292969,0.0499909306640642,0.690275900872997,17.4832280000001,
-0.585621726074219,-0.307798565429688,0.00210689746093884,0.661586881632059,17.4861640000008,
-0.61674634765625,-0.362865203613281,-0.0050757075195289,0.715592744616277,17.4891660000003,
-0.599986936035156,-0.365259405273437,0.0236547124023456,0.702821671530124,17.4921220000006,
-0.602381137695312,-0.300615960449219,0.0188663090820338,0.673490110058258,17.4951260000007,
-0.588015927734375,-0.3508941953125,-0.0218351191406239,0.685103087134491,17.4980520000008,
-0.626323154296875,-0.389201421875,-0.0146525141601543,0.737545345432484,17.500994,
-0.573650717773438,-0.314981170410156,-0.0457771357421866,0.656036454681972,17.504097,
-0.638294162597656,-0.353288396972656,0.035625720703127,0.730411747863744,17.5071590000007,
-0.614352145996094,-0.314981170410156,0.0643561406250015,0.693385469878842,17.5102540000007,
-0.604775339355469,-0.338923187011719,-0.00268150585937299,0.693274352807297,17.5132230000008,
-0.61674634765625,-0.341317388671875,-0.0218351191406239,0.705230734997417,17.5161360000002,
-0.621534750976562,-0.319769573730469,-0.000287304199217076,0.698969319426086,17.5191340000001,
-0.626323154296875,-0.367653606933594,-0.0697191523437475,0.729596209216577,17.5220630000003,
-0.611957944335938,-0.353288396972656,-0.038594530761717,0.707668534609313,17.5250890000007,
-0.590410129394531,-0.336528985351563,-0.0266235224609357,0.680106381988618,17.5280050000001,
-0.640688364257813,-0.324557977050781,0.0188663090820338,0.718453476699101,17.5309420000003,
-0.628717355957031,-0.365259405273437,-0.0050757075195289,0.727135276017557,17.533942,
-0.571256516113281,-0.314981170410156,-0.0218351191406239,0.652705076847669,17.5368800000006,
-0.592804331054688,-0.31258696875,0.0236547124023456,0.670587155683992,17.539914,
-0.631111557617188,-0.341317388671875,0.00210689746093884,0.71749829057963,17.5428850000008,
-0.595198532714844,-0.322163775390625,0.0188663090820338,0.677057404610734,17.545846,
-0.597592734375,-0.322163775390625,-0.0529597407226543,0.680963514800273,17.5488510000005,
-0.623928952636719,-0.334134783691406,-0.00986411083984251,0.707835215494056,17.5517950000003,
-0.595198532714844,-0.322163775390625,-0.0314119257812475,0.677523062781726,17.5548150000004,
-0.611957944335938,-0.33174058203125,-0.0577481440429679,0.698483491245646,17.5577650000005,
-0.57843912109375,-0.324557977050781,-0.0266235224609357,0.66380607802824,17.5606940000007,
-0.607169541015625,-0.317375372070313,0.0164721074218761,0.685312562745505,17.5637230000002,
-0.643082565917969,-0.341317388671875,0.0164721074218761,0.728233531719286,17.5666740000006,
-0.631111557617188,-0.367653606933594,-0.0338061274414052,0.731172911903784,17.5696820000003,
-0.583227524414063,-0.360471001953125,0.0212605107421897,0.68596333560932,17.5726460000005,
-0.573650717773438,-0.379624615234375,0.0140779057617202,0.688032108207505,17.5755950000003,
-0.592804331054688,-0.3508941953125,0.0188663090820338,0.68912963137539,17.5786100000005,
-0.590410129394531,-0.329346380371094,0.0188663090820338,0.676320261986573,17.5815540000003,
-0.6358999609375,-0.33174058203125,0.0164721074218761,0.717420312236603,17.5845640000007,
-0.626323154296875,-0.348499993652344,0.00928950244140836,0.716811854003322,17.5875060000008,
-0.597592734375,-0.346105791992187,-0.00268150585937299,0.690589230948472,17.5904950000004,
-0.611957944335938,-0.343711590332031,0.0452025273437524,0.703330257732954,17.5934470000002,
-0.621534750976562,-0.346105791992187,0.0404141240234388,0.712550326182382,17.596372,
-0.604775339355469,-0.326952178710938,-0.00986411083984251,0.68756689779178,17.5993770000005,
-0.595198532714844,-0.334134783691406,0.0140779057617202,0.682719220799475,17.6023360000008,
-0.619140549316406,-0.355682598632812,0.0428083256835947,0.715316491859264,17.6053330000004,
-0.580833322753906,-0.324557977050781,0.00928950244140836,0.665425821669289,17.6082820000001,
-0.6358999609375,-0.336528985351563,0.0236547124023456,0.719847250269739,17.6111940000001,
-0.6358999609375,-0.343711590332031,0.0188663090820338,0.723092217678539,17.6141990000006,
-0.583227524414063,-0.343711590332031,-0.0170467158203103,0.677187265889568,17.6171220000006,
-0.628717355957031,-0.367653606933594,0.0380199223632829,0.729314885950775,17.6201300000002,
-0.595198532714844,-0.353288396972656,0.0308373173828134,0.692838310809081,17.623063,
-0.604775339355469,-0.319769573730469,-0.0697191523437475,0.687652929594442,17.625978,
-0.647870969238281,-0.33174058203125,-0.0218351191406239,0.728193229147366,17.6289740000002,
-0.602381137695312,-0.322163775390625,0.00210689746093884,0.683122955434782,17.6319160000003,
-0.590410129394531,-0.326952178710938,-0.0457771357421866,0.676444671952004,17.6349070000006,
-0.6358999609375,-0.379624615234375,-0.0338061274414052,0.741367967385121,17.6378380000006,
-0.611957944335938,-0.336528985351563,-0.00268150585937299,0.698392063307776,17.6408160000001,
-0.566468112792969,-0.29343335546875,-0.0242293208007798,0.638417039950646,17.6439140000002,
-0.590410129394531,-0.348499993652344,0.035625720703127,0.686516976077772,17.6469610000004,
-0.633505759277344,-0.33174058203125,0.0428083256835947,0.716389498493542,17.6500500000002,
-0.576044919433594,-0.343711590332031,0.0260489140625015,0.671300195484602,17.6529920000003,
-0.619140549316406,-0.341317388671875,-0.0266235224609357,0.707489499261888,17.6559000000007,
-0.607169541015625,-0.367653606933594,0.0332315190429711,0.710583112722438,17.6589140000006,
-0.6358999609375,-0.343711590332031,0.0380199223632829,0.723845240466081,17.6618850000004,
-0.597592734375,-0.343711590332031,0.0284431157226575,0.689973727281247,17.6649020000004,
-0.611957944335938,-0.355682598632812,-0.040988732421873,0.709001207891502,17.6678360000005,
-0.599986936035156,-0.3508941953125,0.0428083256835947,0.696378928791426,17.6707750000005,
-0.590410129394531,-0.391595623535156,0.0164721074218761,0.708662531524331,17.673796,
-0.621534750976562,-0.348499993652344,-0.0362003291015611,0.713490123319337,17.6767480000008,
-0.61674634765625,-0.377230413574219,0.0308373173828134,0.723622679589348,17.6797840000008,
-0.576044919433594,-0.317375372070313,0.0404141240234388,0.658929569394641,17.6827590000003,
-0.631111557617188,-0.3508941953125,0.0619619389648456,0.7247536245803,17.6857900000005,
-0.592804331054688,-0.384413018554687,-0.00986411083984251,0.706602890196596,17.6887230000002,
-0.595198532714844,-0.362865203613281,-0.0266235224609357,0.697596775571275,17.6916460000002,
-0.5592855078125,-0.334134783691406,0.00928950244140836,0.651561683785348,17.6946500000004,
-0.611957944335938,-0.353288396972656,-0.00986411083984251,0.706684171150052,17.6975840000005,
-0.595198532714844,-0.338923187011719,-0.000287304199217076,0.68493087431053,17.7005650000001,
-0.607169541015625,-0.367653606933594,-0.0433829340820289,0.71113016051773,17.703493,
-0.640688364257813,-0.355682598632812,-0.0146525141601543,0.732943645334862,17.7064020000007,
-0.607169541015625,-0.314981170410156,0.0116837041015643,0.684108542697436,17.7094290000005,
-0.640688364257813,-0.33174058203125,0.0428083256835947,0.722748882122703,17.712372,
-0.597592734375,-0.307798565429688,0.0452025273437524,0.673721234292512,17.7153880000005,
-0.640688364257813,-0.322163775390625,-0.0290177241210916,0.717713805484094,17.7183150000001,
-0.602381137695312,-0.343711590332031,0.0332315190429711,0.694337832929746,17.7212510000008,
-0.623928952636719,-0.334134783691406,0.0619619389648456,0.71047355580003,17.7242550000001,
-0.607169541015625,-0.377230413574219,0.0284431157226575,0.715378674056274,17.7271960000007,
-0.571256516113281,-0.317375372070313,-0.0218351191406239,0.653863828657419,17.7301890000008,
-0.599986936035156,-0.398778228515625,-0.000287304199217076,0.720422432670317,17.7331140000006,
-0.609563742675781,-0.338923187011719,0.0763271489257829,0.701614364692047,17.7360400000007,
-0.6358999609375,-0.348499993652344,0.00450109912109475,0.725149133481724,17.7390610000002,
-0.604775339355469,-0.341317388671875,0.0404141240234388,0.695617763087525,17.742002,
-0.61674634765625,-0.343711590332031,-0.0649307490234357,0.709034355193486,17.7450000000008,
-0.599986936035156,-0.31258696875,0.00210689746093884,0.67653482945232,17.7479460000004,
-0.607169541015625,-0.336528985351563,0.00450109912109475,0.694209528465416,17.7508720000005,
-0.614352145996094,-0.365259405273437,-0.0146525141601543,0.714882989447871,17.7538680000007,
-0.604775339355469,-0.334134783691406,-0.0577481440429679,0.693349920967352,17.7568110000002,
-0.621534750976562,-0.353288396972656,0.0236547124023456,0.715316491859264,17.7598230000003,
-0.621534750976562,-0.303010162109375,0.0332315190429711,0.692260744857709,17.7627750000001,
-0.619140549316406,-0.319769573730469,0.0380199223632829,0.6978775785108,17.7657020000006,
-0.552102902832031,-0.329346380371094,0.035625720703127,0.643860113343507,17.7687150000002,
-0.573650717773438,-0.33174058203125,-0.0170467158203103,0.662885774691742,17.7716420000006,
-0.614352145996094,-0.358076800292969,0.0452025273437524,0.712524261114188,17.7746590000006,
-0.607169541015625,-0.319769573730469,-0.0290177241210916,0.686840199852963,17.777591,
-0.621534750976562,-0.307798565429688,-0.0553539423828102,0.695779751422381,17.7806900000005,
-0.592804331054688,-0.348499993652344,0.035625720703127,0.688577092610912,17.7837420000005,
-0.621534750976562,-0.3508941953125,-0.0170467158203103,0.71394871909386,17.786779,
-0.614352145996094,-0.358076800292969,-0.0433829340820289,0.712411140541487,17.789831,
-0.588015927734375,-0.341317388671875,-0.0314119257812475,0.680622509296006,17.7927750000008,
-0.599986936035156,-0.3508941953125,-0.00268150585937299,0.695067083230486,17.7957750000005,
-0.621534750976562,-0.391595623535156,0.0260489140625015,0.735072190310054,17.7987440000006,
-0.645476767578125,-0.322163775390625,0.0260489140625015,0.721878314940185,17.8017060000002,
-0.650265170898438,-0.372442010253906,0.0380199223632829,0.750335496949235,17.8047150000002,
-0.580833322753906,-0.300615960449219,0.0523851323242202,0.656110895037398,17.8076880000008,
-0.628717355957031,-0.353288396972656,-0.0290177241210916,0.721761895246817,17.8107100000007,
-0.571256516113281,-0.384413018554687,-0.000287304199217076,0.688554615538893,17.8136420000001,
-0.602381137695312,-0.393989825195313,0.0571735356445338,0.72205251234701,17.8166090000004,
-0.6358999609375,-0.324557977050781,0.0332315190429711,0.714710413136337,17.8196440000002,
-0.607169541015625,-0.341317388671875,0.0428083256835947,0.697843079850152,17.8226380000006,
-0.621534750976562,-0.367653606933594,-0.00268150585937299,0.722136975813074,17.8256440000005,
-0.57843912109375,-0.322163775390625,-0.0170467158203103,0.662323112616425,17.8285880000003,
-0.609563742675781,-0.329346380371094,-0.0218351191406239,0.693191003314622,17.8315080000002,
-0.607169541015625,-0.310192767089844,0.0236547124023456,0.682227198014574,17.834535,
-0.602381137695312,-0.314981170410156,0.0428083256835947,0.681108453560726,17.8374870000007,
-0.585621726074219,-0.353288396972656,-0.0122583124999984,0.684043685528201,17.8404910000008,
-0.592804331054688,-0.336528985351563,0.0643561406250015,0.684697338781956,17.843449,
-0.592804331054688,-0.310192767089844,0.0404141240234388,0.670275935039168,17.8463880000008,
-0.595198532714844,-0.338923187011719,0.0523851323242202,0.686931162583784,17.8494200000005,
-0.580833322753906,-0.391595623535156,0.0140779057617202,0.700651602883963,17.8523880000002,
