X,Y,Z,Magnitude,Seconds,
-0.00148440502929698,0.00526724365234373,0.00627280834960686,0.00832438818022412,0.0,
0.0128808049316406,-0.0138863696289063,0.00866701000976278,0.0208293893253478,0.0038460000005216,
-0.00866701000976572,-0.00191536132812502,-0.0152750065917999,0.0176666776136937,0.00762600000052771,
0.0128808049316406,0.00287304199218748,0.00866701000976278,0.0157888114969169,0.0114469999998619,
-0.00387860668945322,-0.0354341845703125,0.0302148249511696,0.0467285851791413,0.0152740000003178,
-0.020638018310547,-0.0162805712890625,0.0206380183105441,0.0334202423849839,0.0191089999998439,
-0.00627280834960947,-0.040222587890625,-0.0128808049316422,0.0426980074113184,0.0229840000001786,
0.0200634099121093,0.00526724365234373,-0.0200634099121118,0.0288587021588966,0.0268219999998109,
-0.030214824951172,-0.0186747729492188,-0.0248518132324236,0.0433508409661693,0.0306070000006002,
-0.00866701000976572,-0.0138863696289063,-0.0631590397949235,0.0652457863144949,0.0343819999998232,
-0.0278206232910157,-0.0282515795898438,0.0134554133300764,0.0418710756669217,0.0381470000002082,
-0.039791631591797,-0.0162805712890625,-0.051188031494144,0.0668479282736647,0.0418669999999111,
-0.0278206232910157,-0.0545877978515625,0.00627280834960686,0.061588658689523,0.0456119999998919,
0.00330399829101552,0.0244208569335937,-0.0368228215332049,0.0443081803253569,0.0494660000003933,
-0.011061211669922,-0.0474051928710938,0.0134554133300764,0.0505039687810336,0.0532290000001012,
0.0200634099121093,-0.0162805712890625,0.0302148249511696,0.0397559186238904,0.0569500000001426,
-0.011061211669922,-0.00191536132812502,-0.0559764348144558,0.0570909823629014,0.0606420000003709,
-0.020638018310547,0.00766144531249998,-0.0104866032714863,0.0243843062693292,0.0643780000000334,
-0.0326090266113282,-0.01149216796875,-0.0368228215332049,0.0505107783233097,0.0682070000002568,
-0.0350032282714844,-0.0258573779296875,-0.0200634099121118,0.0479204590976105,0.0722020000002885,
-0.020638018310547,0.00047884033203123,-0.034428619873049,0.0401433301335721,0.0759859999998298,
-0.00387860668945322,-0.0162805712890625,0.0182438166503882,0.0247575733326734,0.0797490000004473,
-0.0134554133300782,-0.0138863696289063,0.0254264216308577,0.0319434238350244,0.0835040000001754,
-0.030214824951172,0.0100556469726562,-0.0272460148925813,0.0419093904798843,0.0873030000002473,
0.00569819995117177,-0.0737414111328125,-0.000909796630862658,0.0739668366800389,0.0911089999999604,
-0.0230322199707032,-0.0186747729492188,-0.0583706364746117,0.0654703100949965,0.0949099999997998,
-0.0373974299316407,0.00526724365234373,0.00627280834960686,0.0382839358710155,0.098692999999912,
-0.0158496149902345,-0.0282515795898438,-0.0104866032714863,0.0340489484835213,0.102439000000231,
-0.0373974299316407,0.00047884033203123,0.0134554133300764,0.0397472665907827,0.106187000000318,
-0.0134554133300782,-0.0234631762695313,-0.0176692082519558,0.0323074249792416,0.109878000000208,
0.00330399829101552,-0.00670376464843752,0.0828872614746068,0.0832235241979605,0.113613000000441,
-0.00148440502929698,-0.03064578125,-0.00569819995117449,0.0312063591179333,0.117331000000377,
-0.00627280834960947,-0.00430956298828127,-0.0224576115722677,0.0237121229600334,0.121143999999731,
-0.030214824951172,-0.0282515795898438,0.00387860668945095,0.0415467325550722,0.124856000000364,
-0.0278206232910157,0.0220266552734375,0.00148440502929503,0.0355156878171668,0.12860400000045,
-0.0182438166503907,0.0100556469726562,0.00387860668945095,0.0211895368487189,0.13231900000028,
-0.0469742365722657,-0.0258573779296875,-0.034428619873049,0.0637221528301484,0.136018000000149,
-0.00148440502929698,-0.00430956298828127,0.0158496149902323,0.0164920006906246,0.13994300000013,
-0.0182438166503907,0.00287304199218748,-0.0152750065917999,0.0239669990328676,0.143879000000197,
-0.0158496149902345,-0.0282515795898438,0.0278206232910136,0.0427006923241349,0.147656000000097,
-0.049368438232422,-0.0474051928710938,0.0158496149902323,0.0702545749399472,0.151450000000295,
0.0128808049316406,-0.00670376464843752,-0.000909796630862658,0.0145493410867347,0.155198999999811,
-0.0254264216308595,-0.01149216796875,-0.0176692082519558,0.0330268642444781,0.159013000000414,
-0.0158496149902345,-0.00909796630859377,0.0110612116699187,0.0213619683057933,0.162804999999935,
-0.00387860668945322,-0.01149216796875,-0.0775242497558626,0.0784673359728925,0.166554999999789,
-0.030214824951172,-0.00909796630859377,-0.0871010563964862,0.0926407181706087,0.17040199999974,
0.0440054265136718,-0.021068974609375,-0.034428619873049,0.0597135589301422,0.174186000000191,
-0.00387860668945322,-0.04979939453125,-0.0440054265136745,0.0665695189120439,0.177948999999899,
-0.0134554133300782,-0.0330399829101563,-0.0703416447753931,0.0788710061321285,0.181671000000279,
-0.00627280834960947,-0.00430956298828127,0.00866701000976278,0.0115341891891117,0.185422000000472,
0.036822821533203,0.00047884033203123,0.0565510432128882,0.0674845905536638,0.189191000000392,
-0.00148440502929698,-0.0234631762695313,-0.0200634099121118,0.0309073537567926,0.192974000000504,
-0.0230322199707032,-0.040222587890625,-0.0248518132324236,0.052592322199511,0.196721000000252,
-0.020638018310547,-0.0138863696289063,-0.0176692082519558,0.0305116368211878,0.200407000000268,
-0.00387860668945322,0.0100556469726562,-0.0080924016113304,0.0134776329423688,0.204123999999865,
-0.020638018310547,-0.0282515795898438,-0.0104866032714863,0.0365246272709428,0.207886000000144,
-0.0158496149902345,-0.040222587890625,-0.0392170231933626,0.0583698704821799,0.211898000000474,
-0.0134554133300782,-0.0258573779296875,0.0134554133300764,0.0321045213196698,0.215764999999919,
-0.011061211669922,-0.0354341845703125,-0.034428619873049,0.0506286648661872,0.219547000000603,
-0.0254264216308595,-0.0474051928710938,-0.0128808049316422,0.055314287157866,0.223318999999719,
-0.0278206232910157,0.00526724365234373,-0.0463996281738304,0.0543567514726871,0.227143000000069,
0.0200634099121093,-0.0162805712890625,0.0134554133300764,0.0291315218737842,0.230972000000293,
-0.0134554133300782,0.0100556469726562,-0.0224576115722677,0.0280447588945383,0.234760999999708,
0.000909796630859272,-0.0162805712890625,0.0589452448730441,0.0611590273348988,0.238532999999734,
-0.00148440502929698,-0.0186747729492188,0.0158496149902323,0.0245389669369856,0.242436999999882,
-0.0182438166503907,-0.0330399829101563,-0.00569819995117449,0.0381699724830927,0.246175000000221,
-0.00387860668945322,-0.0186747729492188,0.0206380183105441,0.0281019311497039,0.24990600000001,
-0.0373974299316407,-0.00909796630859377,0.0326090266113255,0.050444914242988,0.253614000000198,
-0.0445800349121095,-0.0378283862304688,-0.0416112248535185,0.0717625274873767,0.257368999999926,
-0.0373974299316407,0.00047884033203123,-0.0320344182128931,0.0492442992009643,0.261097999999947,
-0.0254264216308595,0.00526724365234373,-0.00330399829101857,0.0261756218140171,0.264897000000019,
-0.0230322199707032,-0.00670376464843752,0.00627280834960686,0.0247945909793124,0.268646999999874,
0.00569819995117177,-0.0258573779296875,0.0469742365722627,0.053922651804498,0.272388999999748,
-0.0230322199707032,0.0220266552734375,-0.0128808049316422,0.0343739994036296,0.27610999999979,
-0.0517626398925782,-0.0665588061523438,-0.0248518132324236,0.0879036869875961,0.279999999999745,
-0.039791631591797,-0.0138863696289063,0.0134554133300764,0.0442408561636312,0.283879999999954,
0.0152750065917968,0.0818816967773437,0.0230322199707,0.0864200280623364,0.287661999999727,
-0.0134554133300782,-0.406535441894531,-0.2451183659668,0.474905387417851,0.291511000000355,
-0.0182438166503907,-0.00191536132812502,-0.0224576115722677,0.0289974097553764,0.295242000000144,
0.0176692082519531,0.472136567382813,0.286394402587888,0.552491532074428,0.29906099999971,
0.0535822331542968,-0.588494768066406,-0.190051727783205,0.620738920146559,0.302709000000505,
-0.0613394465332032,-0.456813676757813,-0.0152750065917999,0.461166552126637,0.305642000000262,
-0.111617681396484,0.587058247070313,0.0326090266113255,0.598464068152912,0.308582999999999,
0.0535822331542968,0.373974299316406,0.109223479736325,0.393265305849257,0.311627000000044,
0.0679474431152343,-0.576523759765625,-0.0823126530761744,0.586320623427685,0.314567999999781,
-0.0373974299316407,-0.282036955566406,-0.103860468017581,0.302870283929424,0.3175540000002,
-0.193020537841797,0.579875642089844,0.0110612116699187,0.611256933475157,0.320512000000235,
0.0511880314941405,0.172861359863281,0.0709162531738254,0.193727590358839,0.323481999999785,
0.154138702880859,-0.588494768066406,-0.125408282958986,0.621137721606125,0.326489000000038,
-0.078098858154297,-0.200634099121094,-0.0918894597167998,0.234087902682269,0.32941000000028,
-0.178655327880859,0.548751020507813,0.0613394465332,0.58035156275277,0.332437000000027,
0.0128808049316406,0.354820686035156,0.0350032282714814,0.356775644297045,0.33541200000036,
0.187657526123047,-0.361045610351563,-0.0248518132324236,0.407660266012882,0.338337000000138,
-0.00387860668945322,-0.243729729003906,-0.0679474431152371,0.253053510973603,0.341346000000158,
-0.193020537841797,0.304542451171875,-0.00330399829101857,0.360574470809038,0.344290000000001,
-0.0709162531738282,0.156101948242188,0.0613394465332,0.182097394023694,0.347342000000026,
0.182869122802734,-0.301190568847656,-0.00569819995117449,0.352405085548009,0.350288999999975,
0.0583706364746093,-0.135990654296875,0.00387860668945095,0.148039294946965,0.353208999999879,
-0.169078521240234,0.247081611328125,0.0541568415527323,0.304252908758905,0.356235000000197,
-0.0733104548339845,0.036391865234375,0.00148440502929503,0.0818595999348493,0.35917900000004,
0.123014081298828,-0.224576115722656,0.0182438166503882,0.256709432621483,0.362197000000378,
0.0296402165527343,-0.0162805712890625,0.0230322199707,0.0409155544453444,0.365139999999883,
-0.104435076416016,0.168072956542969,-0.0559764348144558,0.205641837089758,0.368140000000494,
-0.030214824951172,-0.0426167895507813,-0.0248518132324236,0.0578510070732118,0.37108200000057,
0.0703416447753905,-0.140779057617188,0.0110612116699187,0.157762607917394,0.374002999999902,
0.00330399829101552,0.036391865234375,0.0613394465332,0.0713989633044013,0.377042000000074,
-0.0517626398925782,0.105823713378906,0.0158496149902323,0.118866477601081,0.379988000000594,
-0.0469742365722657,-0.0330399829101563,0.0158496149902323,0.0595770901235467,0.382975999999871,
0.00809240161132801,-0.109654436035156,-0.0104866032714863,0.11045157832372,0.385927000000265,
-0.039791631591797,-0.00430956298828127,0.0350032282714814,0.0531711601087723,0.38886999999977,
-0.0254264216308595,0.0866701000976562,0.0110612116699187,0.0909975800309807,0.391978000000563,
-0.0182438166503907,-0.0378283862304688,0.0445800349121068,0.0612470665708918,0.395046000000548,
0.113437274658203,-0.147961662597656,-0.0272460148925813,0.188422435522074,0.398167000000285,
-0.248087176025391,0.0675164868164062,0.0900698664550763,0.272430364943995,0.401174999999967,
0.127802484619141,0.0435744702148437,-0.000909796630862658,0.135029764345642,0.404123000000254,
0.00809240161132801,0.0507570751953125,-0.0416112248535185,0.0661306410072646,0.407162999999855,
-0.00148440502929698,-0.152750065917969,-0.0463996281738304,0.159648713088783,0.410088999999971,
-0.133165496337891,-0.0330399829101563,-0.0559764348144558,0.148182492691131,0.413115999999718,
-0.0230322199707032,0.00287304199218748,0.00627280834960686,0.0240434118140215,0.416087999999945,
0.055976434814453,-0.0138863696289063,-0.0272460148925813,0.0637850910756901,0.419018000000506,
0.00809240161132801,-0.0426167895507813,0.00387860668945095,0.0435513639890424,0.422069000000192,
-0.102040874755859,0.00287304199218748,0.0230322199707,0.10464739675696,0.425016000000142,
-0.0661278498535157,-0.0162805712890625,-0.0224576115722677,0.0717097890477877,0.428026999999929,
0.0176692082519531,-0.0426167895507813,-0.0440054265136745,0.0637563270155744,0.431002000000262,
0.0104866032714843,0.00287304199218748,-0.00569819995117449,0.0122756955463201,0.433979000000363,
-0.030214824951172,-0.0282515795898438,-0.0200634099121118,0.0459742081329593,0.436982000000171,
-0.0373974299316407,-0.0426167895507813,0.0445800349121068,0.0721258485556476,0.439948000000186,
0.0487938298339843,-0.0282515795898438,0.0661278498535136,0.0869015656098205,0.442976000000272,
0.0440054265136718,-0.0330399829101563,-0.0104866032714863,0.056018629771953,0.445932999999968,
0.0176692082519531,-0.00670376464843752,0.0158496149902323,0.0246647861545792,0.448871999999938,
-0.0421858332519532,-0.0354341845703125,0.0230322199707,0.0597135589301399,0.451874000000316,
-0.00148440502929698,-0.0426167895507813,0.0493684382324187,0.0652352428018377,0.454837000000225,
0.0272460148925781,0.0699106884765625,0.0900698664550763,0.117228113240932,0.457870000000185,
-0.0182438166503907,0.00047884033203123,-0.0176692082519558,0.0254021072804529,0.460829000000558,
0.00809240161132801,-0.0330399829101563,-0.0966778630371117,0.102487738954301,0.463839000000007,
-0.0326090266113282,0.0100556469726562,-0.0272460148925813,0.0436670353940333,0.466797000000042,
0.0392170231933593,-0.00191536132812502,-0.0272460148925813,0.0477910958724794,0.469742000000224,
0.00569819995117177,-0.00430956298828127,0.00866701000976278,0.0112320469346787,0.472780000000057,
-0.00387860668945322,-0.0521935961914063,0.00627280834960686,0.0527120782917345,0.475744999999733,
-0.0445800349121095,0.017238251953125,0.0350032282714814,0.0592432513674743,0.478774000000158,
-0.0326090266113282,0.00526724365234373,0.039791631591795,0.0517152435648195,0.481737000000066,
0.0152750065917968,-0.0378283862304688,0.00627280834960686,0.0412754255674227,0.484731000000465,
-0.030214824951172,-0.0282515795898438,0.0852814631347627,0.0947840458650987,0.487780000000384,
-0.0541568415527345,0.0124498486328125,-0.00569819995117449,0.0558608243819539,0.490741999999955,
0.00569819995117177,-0.00191536132812502,-0.0535822331542999,0.0539183994708909,0.493766000000505,
0.00569819995117177,-0.0378283862304688,0.0373974299316373,0.053497888303902,0.496783000000505,
-0.0182438166503907,0.0387860668945312,-0.0440054265136745,0.0614302319202079,0.49974100000054,
-0.0134554133300782,-0.00670376464843752,-0.0248518132324236,0.0290448141547532,0.502746000000116,
-0.030214824951172,0.00526724365234373,-0.00569819995117449,0.031195335952778,0.505705000000489,
0.0176692082519531,-0.0474051928710938,-0.0583706364746117,0.0772436692153328,0.508741000000555,
-0.0158496149902345,-0.00430956298828127,-0.0368228215332049,0.040320005135849,0.511674999999741,
0.000909796630859272,-0.0138863696289063,0.0134554133300764,0.0193573536224178,0.514627999999902,
0.00809240161132801,-0.01149216796875,-0.0559764348144558,0.0577141069669973,0.517644999999902,
0.000909796630859272,-0.00670376464843752,-0.0176692082519558,0.0189200716336421,0.520596999999725,
0.00330399829101552,-0.0378283862304688,-0.0535822331542999,0.0656731217417773,0.523654000000533,
-0.0517626398925782,-0.00670376464843752,-0.0104866032714863,0.0532379582373697,0.526605000000018,
-0.00387860668945322,-0.0138863696289063,-0.0440054265136745,0.0463071529460891,0.529585000000225,
-0.00148440502929698,-0.0617704028320313,-0.0104866032714863,0.06267180364802,0.532694999999876,
-0.0158496149902345,-0.021068974609375,-0.0080924016113304,0.0275789584696054,0.535719000000427,
-0.00627280834960947,0.00526724365234373,-0.0416112248535185,0.0424097396136096,0.538816000000224,
-0.0230322199707032,-0.0186747729492188,-0.0128808049316422,0.0323287091788514,0.541750999999749,
0.00809240161132801,-0.00909796630859377,0.0278206232910136,0.0303685204626736,0.544700999999804,
0.0272460148925781,0.00047884033203123,-0.0559764348144558,0.0622570146258812,0.547747999999956,
0.0224576115722656,-0.00191536132812502,0.00148440502929503,0.0225879699140722,0.550744000000122,
-0.00627280834960947,0.0387860668945312,-0.00330399829101857,0.0394287143392355,0.553764000000228,
-0.0134554133300782,-0.0378283862304688,0.00627280834960686,0.0406372129614675,0.556768999999804,
-0.0326090266113282,0.00526724365234373,-0.0080924016113304,0.0340085200511655,0.559804999999869,
-0.0134554133300782,-0.0234631762695313,-0.0942836613769558,0.0980865821159184,0.562746000000516,
-0.0445800349121095,0.0148440502929687,0.00148440502929503,0.0470098798143122,0.56572099999994,
-0.00148440502929698,-0.00670376464843752,-0.0368228215332049,0.0374574973058653,0.56872199999998,
0.0176692082519531,-0.0282515795898438,0.0230322199707,0.0405072317784229,0.571724000000359,
-0.0613394465332032,-0.0162805712890625,0.039791631591795,0.0749063324908855,0.574744000000464,
-0.0517626398925782,0.00766144531249998,-0.0248518132324236,0.0579282422818475,0.577699999999822,
-0.00148440502929698,-0.0186747729492188,0.0565510432128882,0.0595732414046929,0.580649999999878,
0.0176692082519531,-0.0162805712890625,-0.0535822331542999,0.05872234354614,0.58367300000009,
-0.0230322199707032,-0.0521935961914063,-0.0200634099121118,0.0604747472708391,0.586631000000125,
-0.00866701000976572,0.0148440502929687,-0.0392170231933626,0.0428186618165293,0.589654000000337,
-0.0445800349121095,-0.00670376464843752,0.0421858332519509,0.0617411086747553,0.592611000000034,
0.00330399829101552,-0.00191536132812502,-0.0272460148925813,0.0275123670601254,0.595550000000003,
0.0248518132324218,-0.0234631762695313,-0.0200634099121118,0.0396317256613397,0.598568000000341,
-0.0541568415527345,-0.0186747729492188,0.0421858332519509,0.0711432017752523,0.601553999999851,
0.0152750065917968,-0.00191536132812502,-0.0104866032714863,0.0186269504635155,0.604573999999957,
0.0440054265136718,0.00287304199218748,0.0421858332519509,0.0610276696269852,0.607566000000588,
-0.00148440502929698,-0.0330399829101563,0.0230322199707,0.0403029414034898,0.61048000000028,
-0.00148440502929698,-0.0186747729492188,-0.0200634099121118,0.0274497908971507,0.61348100000032,
0.00330399829101552,0.00047884033203123,0.00627280834960686,0.00710590017953467,0.616465000000062,
0.0248518132324218,-0.00909796630859377,0.00627280834960686,0.0271980465563684,0.619485000000168,
-0.039791631591797,-0.0354341845703125,0.0206380183105441,0.0571391562825933,0.622424000000137,
-0.00866701000976572,-0.0234631762695313,-0.00569819995117449,0.0256535998613848,0.625342999999702,
-0.0134554133300782,-0.0354341845703125,-0.0631590397949235,0.0736593096075639,0.628349999999955,
-0.039791631591797,0.00526724365234373,-0.00330399829101857,0.040274485783651,0.63130799999999,
-0.00387860668945322,-0.03064578125,0.0709162531738254,0.0773519389704513,0.634328000000096,
0.000909796630859272,0.00047884033203123,-0.0248518132324236,0.0248730705565752,0.637300999999752,
-0.0278206232910157,0.00526724365234373,-0.0248518132324236,0.0376741762608424,0.640237000000525,
-0.011061211669922,0.0124498486328125,-0.000909796630862658,0.0166786349710128,0.643254000000525,
0.000909796630859272,0.00047884033203123,0.0757046564941373,0.075711637367504,0.646238000000267,
0.0200634099121093,-0.00191536132812502,-0.0224576115722677,0.0301753764491755,0.649250999999822,
0.0176692082519531,-0.0330399829101563,0.0445800349121068,0.0582341901610984,0.652221999999711,
-0.0278206232910157,0.0124498486328125,-0.0535822331542999,0.0616444768092187,0.655233000000408,
0.00330399829101552,0.0148440502929687,-0.0607648381347676,0.0626388680241887,0.658198000000084,
-0.0182438166503907,-0.0186747729492188,-0.0368228215332049,0.0451387214744083,0.66111600000022,
-0.00866701000976572,-0.0138863696289063,-0.0200634099121118,0.0258937973515167,0.664107000000513,
-0.020638018310547,-0.00430956298828127,-0.0272460148925813,0.0344506235134169,0.667061000000103,
0.0296402165527343,0.0124498486328125,-0.00330399829101857,0.0323180688312278,0.670178999999735,
-0.0134554133300782,-0.0282515795898438,-0.0272460148925813,0.04149150786283,0.673201999999947,
-0.00627280834960947,-0.021068974609375,-0.0080924016113304,0.0234251313661307,0.676198000000113,
0.00809240161132801,-0.0138863696289063,-0.051188031494144,0.0536519598295823,0.679251000000477,
-0.0278206232910157,-0.00909796630859377,-0.0463996281738304,0.0548606012172909,0.682182999999895,
-0.0326090266113282,-0.00909796630859377,0.0541568415527323,0.0638677155882247,0.685195000000022,
0.00330399829101552,0.0124498486328125,-0.0248518132324236,0.0279915658123343,0.688162999999804,
-0.0158496149902345,-0.0138863696289063,-0.0535822331542999,0.0575768813553759,0.69110499999988,
-0.00627280834960947,0.00526724365234373,-0.0248518132324236,0.0261668607445247,0.694116000000577,
-0.020638018310547,-0.04979939453125,-0.0655532414550812,0.0848712846652727,0.697071000000506,
-0.0182438166503907,0.00766144531249998,-0.0248518132324236,0.0317670774732075,0.700090999999702,
-0.058945244873047,-0.0282515795898438,-0.0104866032714863,0.0662016804215595,0.703016999999818,
-0.00148440502929698,-0.00909796630859377,-0.0320344182128931,0.0333343726426919,0.705928000000313,
-0.049368438232422,-0.00909796630859377,-0.0200634099121118,0.054060670563379,0.708945000000313,
-0.0373974299316407,-0.0258573779296875,-0.000909796630862658,0.0454752623829725,0.711898000000474,
0.00330399829101552,0.00287304199218748,-0.0463996281738304,0.0466057536111757,0.714960000000247,
-0.0373974299316407,0.00047884033203123,0.039791631591795,0.054609257441323,0.717934000000241,
0.0272460148925781,-0.0234631762695313,-0.0104866032714863,0.0374544365376817,0.720878000000084,
-0.049368438232422,0.00047884033203123,0.0565510432128882,0.0750699172108108,0.723923000000468,
-0.011061211669922,0.0196324536132812,-0.0296402165527372,0.0372334000029223,0.726881999999932,
-0.00627280834960947,-0.0138863696289063,0.0541568415527323,0.0562596024961898,0.72989299999972,
-0.0469742365722657,-0.01149216796875,0.00627280834960686,0.0487647100961346,0.732845000000452,
-0.0230322199707032,0.0316034619140625,-0.0368228215332049,0.0537138915681848,0.735779999999977,
0.0272460148925781,0.0148440502929687,-0.0176692082519558,0.0357056308847464,0.738836999999876,
-0.00627280834960947,-0.0474051928710938,-0.00330399829101857,0.0479324195137653,0.741788999999699,
-0.039791631591797,0.0244208569335937,-0.0152750065917999,0.0491230905429196,0.744807000000037,
-0.058945244873047,-0.0282515795898438,-0.0655532414550812,0.0925738683848359,0.747746000000006,
0.0176692082519531,-0.0282515795898438,-0.0607648381347676,0.0693016466118712,0.7507599999999,
-0.00866701000976572,-0.0162805712890625,-0.0559764348144558,0.0589367060374487,0.753700000000208,
-0.0421858332519532,-0.00191536132812502,-0.0368228215332049,0.0560288615076653,0.756626999999753,
-0.0278206232910157,0.00766144531249998,-0.0487938298339863,0.0566879409966974,0.759648000000197,
0.0224576115722656,-0.00430956298828127,-0.0368228215332049,0.0433455515173931,0.762612999999874,
0.0128808049316406,-0.00191536132812502,0.0373974299316373,0.0395998928053596,0.76565600000049,
0.0128808049316406,-0.021068974609375,-0.0535822331542999,0.0589989197916302,0.768616999999722,
-0.0254264216308595,-0.0162805712890625,0.00627280834960686,0.0308367968997978,0.771545000000515,
-0.0278206232910157,-0.021068974609375,-0.0655532414550812,0.0742638285887502,0.77455000000009,
0.00330399829101552,-0.0138863696289063,-0.0176692082519558,0.0227145016768722,0.777495999999701,
-0.0373974299316407,-0.0354341845703125,-0.00569819995117449,0.051832602523301,0.780502000000524,
-0.0326090266113282,0.017238251953125,-0.0200634099121118,0.0419886456585486,0.78345200000058,
-0.0445800349121095,0.0196324536132812,-0.0463996281738304,0.0672736073234686,0.786388999999872,
-0.0254264216308595,-0.0162805712890625,-0.0224576115722677,0.0376285029728706,0.789378000000397,
0.0176692082519531,-0.0186747729492188,0.00866701000976278,0.0271305202210552,0.792360999999801,
-0.0565510432128907,-0.00909796630859377,-0.0128808049316422,0.0587086758078017,0.795350000000326,
-0.00148440502929698,-0.00191536132812502,-0.00330399829101857,0.00409737379492433,0.798287999999957,
-0.00148440502929698,-0.04979939453125,0.00627280834960686,0.0502148511753345,0.80122399999982,
0.0248518132324218,-0.00670376464843752,0.0493684382324187,0.0556758096026358,0.80425600000035,
-0.0326090266113282,-0.01149216796875,0.0302148249511696,0.0459168181387832,0.807254999999714,
-0.011061211669922,0.00287304199218748,0.00866701000976278,0.0143430065329769,0.810386000000108,
-0.0637336481933595,-0.0569819995117188,-0.0871010563964862,0.122047204825724,0.8134170000003,
0.0200634099121093,-0.0186747729492188,0.0350032282714814,0.044457997609335,0.816437000000406,
-0.0158496149902345,0.0196324536132812,-0.0440054265136745,0.05072594102495,0.819454999999834,
-0.011061211669922,0.0124498486328125,-0.0200634099121118,0.0260746917889394,0.822409000000334,
-0.0326090266113282,-0.03064578125,-0.0152750065917999,0.0472846523868019,0.825394999999844,
0.00330399829101552,0.0124498486328125,-0.00569819995117449,0.0140849074675889,0.828395000000455,
-0.00387860668945322,0.00047884033203123,0.0254264216308577,0.0257250033015586,0.831365000000005,
0.000909796630859272,-0.00670376464843752,-0.0272460148925813,0.0280733595762588,0.834380000000237,
-0.030214824951172,0.00047884033203123,-0.0104866032714863,0.0319864624969234,0.837346000000252,
0.000909796630859272,-0.0138863696289063,-0.000909796630862658,0.0139458496080254,0.840374000000338,
-0.00148440502929698,0.0100556469726562,0.0158496149902323,0.0188289614601626,0.843356000000313,
0.000909796630859272,-0.0282515795898438,-0.0631590397949235,0.0691956919688469,0.846368000000439,
0.00569819995117177,-0.021068974609375,0.104435076416014,0.106691407150682,0.849372000000585,
-0.0350032282714844,-0.00191536132812502,-0.0152750065917999,0.038238990897021,0.852308000000448,
-0.011061211669922,0.00287304199218748,0.0709162531738254,0.0718311891737134,0.855341999999837,
0.0128808049316406,-0.0330399829101563,-0.0535822331542999,0.064254270801186,0.85830100000021,
-0.00148440502929698,-0.0282515795898438,0.00148440502929503,0.0283294663893141,0.861311000000569,
-0.0326090266113282,-0.0474051928710938,0.0134554133300764,0.0590901774880319,0.864277000000584,
0.0296402165527343,-0.00670376464843752,-0.0272460148925813,0.0408145589867315,0.867207000000235,
0.0104866032714843,-0.00909796630859377,-0.0152750065917999,0.0206414065776861,0.870225000000573,
-0.00148440502929698,-0.00430956298828127,0.0110612116699187,0.0119635360595315,0.873177999999825,
-0.00627280834960947,-0.00430956298828127,-0.0440054265136745,0.0446586835944735,0.876172000000224,
0.0272460148925781,-0.0378283862304688,-0.0200634099121118,0.050753054584227,0.879178000000138,
-0.0254264216308595,0.0148440502929687,0.0230322199707,0.0373809029161835,0.882158999999774,
-0.0469742365722657,-0.021068974609375,0.0326090266113255,0.0609411946812319,0.885156000000279,
-0.011061211669922,0.0244208569335937,0.00387860668945095,0.0270882307807159,0.888132000000041,
0.00569819995117177,-0.00909796630859377,-0.00569819995117449,0.0121536807724823,0.891139000000294,
-0.00148440502929698,-0.0378283862304688,0.0134554133300764,0.0401775859276751,0.894132000000354,
-0.0254264216308595,-0.0378283862304688,-0.0200634099121118,0.0497999009944114,0.897097000000031,
-0.0661278498535157,0.00287304199218748,0.00627280834960686,0.0664868033607338,0.900136000000202,
-0.039791631591797,-0.0354341845703125,0.0134554133300764,0.0549545587625219,0.903087000000596,
-0.00627280834960947,-0.021068974609375,-0.0200634099121118,0.0297622282933057,0.906087000000298,
-0.011061211669922,0.00047884033203123,0.0876756647949186,0.0883719519355623,0.909061000000293,
-0.011061211669922,-0.0258573779296875,0.0134554133300764,0.0311769553498847,0.911984000000302,
0.0320344182128905,-0.0426167895507813,0.0254264216308577,0.0590668910541608,0.915027000000009,
0.0296402165527343,0.00047884033203123,-0.0272460148925813,0.0402630979046983,0.917980000000171,
-0.00866701000976572,-0.0378283862304688,-0.0607648381347676,0.0721004120713288,0.921019999999771,
0.0176692082519531,-0.01149216796875,-0.0535822331542999,0.0575788724678992,0.923991999999998,
-0.0254264216308595,-0.01149216796875,-0.0128808049316422,0.0307325231189894,0.926906000000599,
0.0152750065917968,0.00526724365234373,0.0493684382324187,0.051945282515169,0.92995400000018,
-0.0158496149902345,0.00287304199218748,0.00866701000976278,0.0182915753322907,0.932901000000129,
0.000909796630859272,-0.0809240161132813,-0.0104866032714863,0.0816057164786002,0.935913000000255,
0.00569819995117177,-0.00191536132812502,-0.0296402165527372,0.0302436857706525,0.938869999999952,
-0.0254264216308595,-0.0282515795898438,0.0134554133300764,0.0403200051358468,0.941880999999739,
-0.020638018310547,-0.0186747729492188,-0.0440054265136745,0.0520687286875889,0.944814999999835,
-0.0254264216308595,-0.00670376464843752,-0.0200634099121118,0.0330754258432647,0.947825000000194,
-0.00866701000976572,-0.0234631762695313,0.0206380183105441,0.0324278507297482,0.950928000000204,
0.00330399829101552,0.0244208569335937,-0.0128808049316422,0.0278066501715885,0.95401800000036,
0.0344286198730468,-0.0258573779296875,-0.034428619873049,0.055129517738906,0.957057000000532,
-0.0158496149902345,-0.0258573779296875,0.0230322199707,0.0380827709800123,0.96001299999989,
-0.00627280834960947,-0.03064578125,-0.00569819995117449,0.0317959355216567,0.962915000000066,
0.00569819995117177,-0.0234631762695313,-0.0104866032714863,0.0263241138789547,0.965951000000132,
0.0248518132324218,-0.0162805712890625,-0.0176692082519558,0.0345668995237989,0.968933000000106,
-0.0421858332519532,-0.0138863696289063,-0.000909796630862658,0.0444218810783801,0.971932999999808,
-0.0350032282714844,0.0124498486328125,0.0373974299316373,0.0527142531569718,0.97489300000052,
0.046399628173828,-0.0282515795898438,-0.00330399829101857,0.0544242009468015,0.977839000000131,
0.0176692082519531,-0.03064578125,-0.0128808049316422,0.0376467789373906,0.980861000000004,
-0.0254264216308595,-0.021068974609375,-0.034428619873049,0.0477046588333219,0.98381900000004,
0.00330399829101552,-0.0258573779296875,-0.0751300480957049,0.0795238613560022,0.986845999999787,
-0.0254264216308595,-0.00670376464843752,-0.00569819995117449,0.0269056287808972,0.989814000000479,
0.00809240161132801,0.0148440502929687,-0.00569819995117449,0.0178410278746146,0.992784000000029,
-0.0182438166503907,-0.0138863696289063,-0.0080924016113304,0.0243136807432101,0.995786000000408,
0.0320344182128905,0.00287304199218748,-0.000909796630862658,0.0321758613006206,0.998773000000256,
0.00330399829101552,-0.0258573779296875,-0.0248518132324236,0.036015732937773,1.00179900000057,
0.0176692082519531,-0.0162805712890625,-0.0296402165527372,0.0381549519596381,1.0047540000005,
-0.0326090266113282,0.017238251953125,-0.0104866032714863,0.038346770334818,1.00769800000035,
-0.00866701000976572,0.017238251953125,0.00627280834960686,0.0202884823853263,1.01073999999971,
0.000909796630859272,-0.0426167895507813,0.00387860668945095,0.0428025942131614,1.01371800000015,
