X,Y,Z,Magnitude,Seconds,
-0.0116358200683594,-0.0347159240722656,0.0351947644042987,0.050786406983844,0.0,
-0.0164242233886719,0.0179565124511718,0.0160411511230496,0.0291463545350461,0.00374099999999089,
-0.0307894333496094,-0.0538695373535156,-0.0438138903808571,0.0759577069886764,0.0075649999999996,
-0.0355778366699219,0.0395043273925781,0.0328005627441428,0.0624680018984446,0.0114939999999706,
-0.0379720383300781,-0.0251391174316407,0.04716577270508,0.0655626496951581,0.0152190000000019,
-0.0260010300292969,-0.0562637390136719,-0.000718260498045353,0.0619853030042286,0.0189839999999322,
0.00272938989257815,-0.00837970581054691,-0.010295067138669,0.0135520273777293,0.0227760000000217,
-0.00445321508789065,0.0011971008300781,-0.0629675036621062,0.0631361282662609,0.0265489999999318,
0.0194888015136719,-0.0203507141113282,-0.048602293701169,0.0561796039706137,0.0304740000000265,
-0.0427604416503906,-0.00119710083007815,-0.0462080920410131,0.0629688509550918,0.0342379999999594,
0.0123061965332031,-0.00119710083007815,-0.027054478759764,0.0297459298808041,0.0380020000000059,
-0.0307894333496094,0.00598550415039059,-0.0198718737792944,0.0371309417255285,0.0417390000000069,
-0.0116358200683594,-0.0179565124511719,-0.0079008654785131,0.0228090403871335,0.0454589999999371,
0.00751779321289064,-0.0897825622558594,-0.0198718737792944,0.0922622190689085,0.0491899999999532,
0.00751779321289064,-0.0251391174316407,0.0328005627441428,0.0420043968694475,0.0529679999999644,
-0.0595198532714844,-0.0035913024902344,-0.0079008654785131,0.0601492648529054,0.0566669999999476,
-0.0260010300292969,-0.0275333190917969,-0.027054478759764,0.0465411865314758,0.0603760000000193,
-0.0164242233886719,-0.0442927307128907,0.00167594116211234,0.0472695450232442,0.0640829999999823,
-0.0140300217285156,-0.0131681091308594,-0.027054478759764,0.0331991781336129,0.0677799999999706,
-0.0140300217285156,-0.0299275207519532,-0.0342370837402317,0.0475886111490643,0.0714609999999993,
0.00751779321289064,0.0011971008300781,-0.0342370837402317,0.0350731830352592,0.0751579999999876,
-0.0020590134277344,-0.0490811340332032,0.049559974365236,0.0697810025247824,0.0791809999999487,
-0.0164242233886719,-0.0634463439941407,0.0208295544433614,0.0687681904549828,0.083026000000018,
0.00272938989257815,-0.0347159240722656,-0.0366312854003876,0.0505420223523127,0.0867899999999509,
0.0123061965332031,-0.0299275207519532,0.0447715710449241,0.0552412214320348,0.0905789999999342,
0.00751779321289064,-0.0466869323730469,-0.0342370837402317,0.0583812022164059,0.0943119999999453,
-0.00445321508789065,-0.0107739074707032,-0.0150834704589826,0.0190635591612189,0.0981110000000172,
0.0051235915527344,-0.0586579406738282,0.0136469494628937,0.0604420749489655,0.101978000000031,
-0.0140300217285156,-0.0610521423339844,-0.0533906970214826,0.0823090038921105,0.105719000000022,
-0.0116358200683594,-0.0299275207519532,0.0232237561035173,0.0396281674390512,0.109462000000008,
-0.0212126267089844,-0.0347159240722656,-0.00550666381835718,0.0410547714948511,0.113230999999928,
-0.0068474167480469,-0.0227449157714844,-0.000718260498045353,0.0237641370076089,0.116991999999982,
-0.0188184250488281,-0.0035913024902344,0.0399831677246123,0.0443360381201253,0.120739999999955,
-0.0212126267089844,-0.0275333190917969,-0.00550666381835718,0.0351906598192451,0.124517999999966,
0.0147003981933594,-0.0873883605957032,-0.00550666381835718,0.088787108417024,0.128282000000013,
0.0290656081542969,-0.00598550415039066,0.0184353527832055,0.0349356275105331,0.132021000000009,
0.0218830031738281,-0.0586579406738282,-0.0126892687988249,0.0638798667394426,0.135745999999926,
0.0123061965332031,-0.0371101257324219,-0.0366312854003876,0.053576627134177,0.139455999999996,
-0.0475488449707031,-0.0131681091308594,0.00885854614258008,0.0501274934131999,0.143167999999946,
-0.0140300217285156,-0.0371101257324219,0.00646434448242417,0.040196899024256,0.146918000000028,
-0.0212126267089844,-0.0466869323730469,0.0351947644042987,0.0621957926854724,0.151017000000024,
-0.0164242233886719,-0.0299275207519532,-0.0079008654785131,0.0350404806986026,0.154769999999985,
-0.0236068283691406,-0.0466869323730469,-0.0150834704589826,0.0544468831168738,0.158550999999989,
0.0242772048339844,-0.0251391174316407,-0.0438138903808571,0.0560447579181035,0.162347999999952,
0.0194888015136719,0.00837970581054684,-0.048602293701169,0.0530303291232979,0.166177999999945,
-0.0283952316894531,-0.0323217224121094,-0.0366312854003876,0.0565051678385953,0.170000999999957,
-0.0307894333496094,-0.0418985290527344,0.00407014282226825,0.0521540219481348,0.173885999999925,
0.0051235915527344,-0.0179565124511719,-0.0222660754394504,0.0290596910734378,0.177691999999979,
-0.0379720383300781,-0.0466869323730469,-0.00311246215820127,0.0602597110019009,0.181503000000021,
-0.00445321508789065,-0.0634463439941407,-0.0222660754394504,0.067387297069382,0.185278999999923,
-0.00924161840820314,-0.0395043273925782,-0.0390254870605453,0.0562937654972168,0.18903899999998,
-0.0212126267089844,-0.0538695373535156,0.0208295544433614,0.0615286349993683,0.192762000000016,
-0.00924161840820314,-0.0035913024902344,-0.0198718737792944,0.0222080240426611,0.19649400000003,
-0.0164242233886719,-0.0203507141113282,-0.0629675036621062,0.0681822058619356,0.200313999999935,
-0.0140300217285156,-0.0155623107910157,0.0160411511230496,0.0263883602410475,0.204021000000012,
-0.0355778366699219,-0.0227449157714844,0.0232237561035173,0.0481918717536393,0.207715000000007,
-0.0355778366699219,-0.00598550415039066,-0.0198718737792944,0.0411885917402646,0.211424999999963,
0.000335188232421846,-0.0562637390136719,-0.0222660754394504,0.060510319734943,0.215140000000019,
-0.0236068283691406,-0.0347159240722656,-0.0509964953613249,0.0660539194066409,0.218995999999947,
-0.0188184250488281,-0.0299275207519532,0.0615309826660173,0.0709637333257113,0.22297100000003,
-0.0283952316894531,-0.0706289489746094,-0.0174776721191385,0.0781038196163275,0.226711000000023,
0.0170945998535156,-0.0323217224121094,0.00167594116211234,0.0366022931333016,0.230463999999984,
0.0218830031738281,-0.00598550415039066,0.0591367810058614,0.0633391739413716,0.234197999999992,
-0.0451546433105469,-0.0442927307128907,0.063925184326175,0.0899289552793916,0.237968000000023,
-0.0068474167480469,-0.0299275207519532,-0.0222660754394504,0.0379252123257776,0.241724999999974,
-0.0451546433105469,-0.0418985290527344,0.0375889660644564,0.0721620323929447,0.245523999999932,
-0.0020590134277344,-0.0275333190917969,0.0232237561035173,0.03607860923126,0.249245999999971,
0.000335188232421846,-0.00598550415039066,-0.0174776721191385,0.0184772193197356,0.253000999999927,
0.0051235915527344,-0.0682347473144532,-0.0174776721191385,0.0706236571849026,0.256710999999996,
-0.0212126267089844,-0.0323217224121094,-0.0653617053222639,0.0759395930606336,0.260412999999971,
-0.0140300217285156,-0.0299275207519532,-0.0126892687988249,0.035405021546527,0.264104999999972,
0.00751779321289064,-0.0371101257324219,-0.0198718737792944,0.0427617821678208,0.267848999999956,
-0.0140300217285156,-0.0275333190917969,-0.0318428820800758,0.0443722245225427,0.271685999999931,
-0.0331836350097656,-0.0275333190917969,-0.0629675036621062,0.076316078319771,0.275408999999968,
-0.0475488449707031,0.00598550415039059,0.00646434448242417,0.0483581086020716,0.279103999999961,
0.00272938989257815,0.0227449157714844,-0.0198718737792944,0.0303260965199584,0.282772000000023,
-0.0140300217285156,-0.0299275207519532,-0.0533906970214826,0.062793825624029,0.286464000000024,
-0.0020590134277344,-0.0442927307128907,0.0399831677246123,0.0597054372029442,0.290399999999977,
-0.0355778366699219,0.137666595458984,-0.0940921252441385,0.170502791766991,0.294274999999971,
0.263697370849609,6.10401713256836,3.6743812878418,7.12949081677808,0.298061999999959,
0.845488374267578,5.59644638061523,-0.970369932861326,5.74253258490749,0.301639000000023,
0.627616023193359,-7.9571292175293,0.7630320690918,8.01823080208409,0.304603999999927,
-1.68757698217773,-14.0407956359863,-0.515471617431638,14.1512391383471,0.307549999999992,
-1.40745538793945,-8.59877526245117,-15.0267278796387,17.3701588205719,0.310570999999982,
-0.452168925537109,-2.25892926635742,-0.0509964953613249,2.30430440918005,0.313549999999964,
-0.0595198532714844,9.34337197875977,9.30494504211426,13.1865137463688,0.316578999999933,
1.1615229934082,15.0487545349121,6.5306638684082,16.4457812000034,0.319538999999963,
-0.243873381103516,6.69059653930664,-5.98143400756836,8.97781204217866,0.322468999999955,
0.946044843994141,-4.9691655456543,-4.79869838745117,6.97245389233175,0.325520999999981,
1.88696609643555,-11.0193131408691,2.08223718383789,11.371966181597,0.32849299999998,
-0.579061613525391,-5.66827243041992,2.95851499145508,6.4200806577785,0.331536000000028,
-2.96847487036133,2.25892926635742,-2.28478664428711,4.37434046414834,0.33446600000002,
-2.50160554663086,4.81354243774414,-3.32865856811523,6.36460438471906,0.337378999999942,
0.601279804931641,4.66031353149414,0.933020386962893,4.79067705633916,0.340415000000007,
2.42326726831055,1.51672675170898,2.69994121215821,3.93222161660877,0.343377000000032,
1.76007340844727,-2.1559785949707,0.0304063610839869,2.78334810109864,0.346415999999977,
-0.887913627685547,-3.25970556030273,-1.66468841430664,3.76633223001172,0.349372000000017,
-2.04431302954102,-1.63164843139648,-0.979946739501951,2.79316808994559,0.352284999999938,
-0.902278837646485,1.11928927612305,0.552342322998049,1.54012909403193,0.355295999999953,
0.685076863037109,2.48637842407227,1.15568114135742,2.82612930993082,0.358246000000008,
1.46319240258789,1.14801969604492,0.0184353527832055,1.85989814014914,0.361279999999965,
0.541424763427734,-0.954089361572266,-0.678277330322263,1.28976254448144,0.364235000000008,
-0.629339848388672,-1.84473237915039,-0.158735570068357,1.95558256707833,0.367236999999932,
-0.976499089111328,-0.755370623779297,0.111809217529299,1.2396114517979,0.370202999999947,
-0.382737077392578,0.853532891845703,0.0974440075683614,0.940479347186574,0.373115999999982,
0.488752326904297,1.13604868774414,0.04716577270508,1.23762274869785,0.376139999999964,
0.780844929443359,0.269347686767578,-0.010295067138669,0.826058695621467,0.379073999999946,
0.304398799072266,-0.709880792236328,0.0208295544433614,0.772672788702322,0.382105000000024,
-0.504841362060547,-0.764947430419922,0.011252747802736,0.916589328154273,0.385065999999938,
-0.650887663330078,-0.0155623107910157,-0.139581956787106,0.665867898650298,0.387977999999976,
-0.0667024582519531,0.511162054443359,-0.0821211169433571,0.521995921140802,0.39098899999999,
0.512694343505859,0.367509954833984,0.0806845959472682,0.635947372656068,0.393952000000013,
0.357071235595703,-0.190339031982422,-0.0414196887207012,0.406748577132812,0.396978999999988,
-0.224719767822266,-0.441730206298828,-0.130005150146483,0.512372802041158,0.399921999999947,
-0.423438505615234,-0.135272393798828,0.104626612548831,0.456667840574713,0.402880999999979,
-0.121769096435547,0.171185418701172,0.00885854614258008,0.210263249909216,0.405865999999946,
0.199053926025391,0.137666595458984,-0.185071788330076,0.304673799016393,0.408885999999939,
0.316369807373047,-0.0682347473144532,-0.0390254870605453,0.325988994290664,0.412040999999931,
-0.0283952316894531,-0.211886846923828,0.109415015869143,0.240154056346472,0.415104999999926,
-0.289363212646484,-0.0825999572753907,-0.0414196887207012,0.303758806273515,0.418107999999961,
-0.236690776123047,0.171185418701172,-0.108457335205076,0.311592626096017,0.421120999999971,
0.110468464599609,0.295683905029297,0.0519541760253937,0.319892934856097,0.424081000000001,
0.323552412353516,0.324414324951172,0.0758961926269563,0.464425505144336,0.427105999999981,
0.103285859619141,0.276530291748047,-0.000718260498045353,0.295190594277101,0.430058000000031,
-0.184018339599609,0.250194073486328,0.0591367810058614,0.316159742194376,0.433025999999927,
-0.164864726318359,0.00598550415039059,0.174058460693361,0.239817747431053,0.436038999999937,
0.110468464599609,-1.26054717407227,0.135751234130861,1.27263932726465,0.438998999999967,
-0.00924161840820314,-2.03387431030273,-0.21380220825195,2.04510183166356,0.442029999999932,
-0.358795060791016,-1.32519061889648,-1.33907698852539,1.91780897204531,0.444999999999936,
-0.251055986083984,0.865503900146484,0.0830787976074241,0.905001765705058,0.447950999999989,
0.402561067138672,2.68270296020508,1.46692735717774,3.08396278458502,0.451019999999971,
0.402561067138672,2.0961235534668,0.3799598034668,2.16798496683548,0.453978000000006,
0.0482192214355469,-0.827196673583984,-0.709401951904294,1.09079354575918,0.457018999999946,
-0.207960356201172,-2.6156653137207,-0.448433970947264,2.66196272878725,0.459969000000001,
-0.466534135498047,-1.55263977661133,-0.084515318603513,1.62341837324186,0.462989999999991,
-0.265421196044922,0.779312640380859,0.205183082275394,0.848455479102666,0.46593699999994,
0.151169892822266,1.91655842895508,0.147722242431643,1.92817800241671,0.468878000000018,
0.481569721923828,0.901416925048828,0.0423773693847682,1.02286739672073,0.47189400000002,
0.297216194091797,-0.810437261962891,-0.0366312854003876,0.86399529667609,0.47483699999998,
-0.246267582763672,-1.38743986206055,-0.180283385009764,1.42061225957875,0.477835000000027,
-0.550331193603516,-0.573411297607422,-0.161129771728513,0.810942502409499,0.480814000000009,
-0.222325566162109,0.597353314208984,0.0615309826660173,0.640348109385517,0.483753999999976,
0.337917622314453,0.824802471923828,0.231519300537112,0.920917272985747,0.486790999999926,
0.426503083740234,0.137666595458984,0.128568629150394,0.466247642725203,0.489745999999968,
0.0242772048339844,-0.563834490966797,-0.0509964953613249,0.566656296547983,0.492783000000031,
-0.330064640869141,-0.573411297607422,-0.192254393310545,0.688988341790417,0.495771999999988,
-0.327670439208984,0.0538695373535156,-0.010295067138669,0.332228584251085,0.498686000000021,
0.0889206496582031,0.453701214599609,0.154904847412112,0.487593258584004,0.50171899999998,
0.275668379150391,0.187944830322266,0.188423670654299,0.383170711525696,0.504662999999937,
0.0841322463378906,-0.276530291748047,-0.0797269152832012,0.299839320551348,0.507704999999987,
-0.198383549560547,-0.319625921630859,-0.110851536865232,0.392179583532853,0.510655999999926,
-0.248661784423828,-0.152031805419922,-0.0126892687988249,0.291731675405212,0.513584999999921,
-0.0403662399902344,0.152031805419922,0.08547299926758,0.179021609851956,0.516634999999951,
0.146381489501953,0.123301385498047,0.0902614025878936,0.211607875400898,0.519603999999958,
0.100891657958984,-0.0442927307128907,-0.0605733020019503,0.125738210402156,0.522636000000034,
-0.105009684814453,-0.195127435302734,-0.0222660754394504,0.222705024703371,0.525568000000021,
-0.0882502731933594,-0.0897825622558594,-0.0462080920410131,0.134105208601309,0.528501000000006,
0.00272938989257815,0.0634463439941406,-0.0126892687988249,0.0647603712007379,0.531521999999995,
0.0386424147949219,0.0802057556152343,0.0782903942871123,0.118556253705256,0.53448400000002,
0.00991199487304689,-0.0706289489746094,0.0160411511230496,0.0731027674234964,0.537541000000033,
-0.0355778366699219,-0.125695587158203,-0.0414196887207012,0.137042890026724,0.540476000000012,
-0.0140300217285156,-0.0490811340332032,-0.0414196887207012,0.0657372789321832,0.543420999999967,
0.0242772048339844,-0.0107739074707032,-0.0366312854003876,0.0452472189954605,0.546464000000014,
-0.0116358200683594,0.00837970581054684,0.0615309826660173,0.0631796929873853,0.549500999999964,
-0.0858560715332031,-0.0418985290527344,-0.0438138903808571,0.105101896967672,0.552631000000019,
-0.0834618698730469,-0.125695587158203,-0.0701501086425758,0.166392013318897,0.555670999999961,
0.0434308181152344,-0.0155623107910157,-0.0246602770996063,0.0523120516319528,0.558743999999933,
0.0194888015136719,0.0586579406738281,-0.0198718737792944,0.0649265643325892,0.561682000000019,
-0.0307894333496094,0.0730231506347656,-0.0677559069824198,0.10426520352269,0.564587999999958,
-0.0331836350097656,-0.0825999572753907,0.0208295544433614,0.0914208778817326,0.56764499999997,
-0.0260010300292969,-0.144849200439453,-0.0174776721191385,0.148198560901371,0.570622999999955,
-0.0188184250488281,-0.0299275207519532,-0.0390254870605453,0.0526571767187507,0.573638999999957,
-0.0188184250488281,0.0155623107910156,-0.0438138903808571,0.0501595018793079,0.576577999999927,
-0.00924161840820314,0.0562637390136719,-0.0342370837402317,0.0665070954232483,0.579511000000025,
-0.00445321508789065,-0.0442927307128907,0.0399831677246123,0.0598358656653193,0.582554999999957,
-0.0068474167480469,-0.140060797119141,-0.0677559069824198,0.155739452088354,0.585519999999974,
-0.0331836350097656,-0.116118780517578,-0.0150834704589826,0.121705529465336,0.588561000000027,
-0.0523372482910157,-0.0203507141113282,-0.0533906970214826,0.0774848736977494,0.591547999999989,
-0.00445321508789065,0.0275333190917968,-0.010295067138669,0.0297305094510576,0.594470000000001,
-0.0188184250488281,0.00598550415039059,0.0208295544433614,0.0287024340354901,0.597481000000016,
-0.0236068283691406,-0.108936175537109,-0.000718260498045353,0.111466984279853,0.600439999999935,
-0.0499430466308594,-0.120907183837891,-0.0390254870605453,0.136513162920996,0.60348399999998,
-0.0403662399902344,-0.0323217224121094,-0.048602293701169,0.0709669643119201,0.606437000000028,
0.000335188232421846,0.0131681091308593,0.0663193859863309,0.0676148830276095,0.60939099999996,
0.0218830031738281,0.0227449157714844,0.0735019909667987,0.0799921227211845,0.61243300000001,
-0.0355778366699219,-0.0897825622558594,0.0328005627441428,0.101992979482273,0.615391999999929,
-0.0475488449707031,-0.0634463439941407,-0.00550666381835718,0.0794773840201047,0.618425000000002,
-0.0140300217285156,-0.0969651672363282,0.00646434448242417,0.0981879469001117,0.621403999999984,
0.000335188232421846,-0.0275333190917969,0.0136469494628937,0.0307316651192973,0.624352999999928,
0.0314598098144531,0.0395043273925781,-0.0198718737792944,0.0542697234542592,0.627363999999943,
-0.0451546433105469,-0.0610521423339844,-0.010295067138669,0.0766308965330663,0.630312000000004,
-0.0260010300292969,-0.113724578857422,-0.0390254870605453,0.123013503483135,0.633330999999998,
-0.0283952316894531,-0.0347159240722656,-0.027054478759764,0.0523777566133903,0.636278999999945,
0.0218830031738281,-0.0131681091308594,-0.0126892687988249,0.0285181077324009,0.639230999999995,
0.0242772048339844,-0.0131681091308594,0.0160411511230496,0.0319390090952423,0.64228700000001,
-0.0427604416503906,0.0466869323730469,0.0304063610839869,0.0702329824150427,0.645218999999997,
-0.0475488449707031,-0.0634463439941407,0.00407014282226825,0.0793907884257642,0.648265999999921,
-0.0116358200683594,-0.116118780517578,0.0208295544433614,0.118544649123702,0.651215999999977,
0.0218830031738281,-0.0107739074707032,-0.0246602770996063,0.0346853308579061,0.654238999999961,
0.0482192214355469,0.0706289489746094,0.00407014282226825,0.0856160487975352,0.657202999999981,
0.00991199487304689,0.0490811340332031,-0.0342370837402317,0.060657920038394,0.660128999999984,
-0.0930386765136719,-0.0873883605957032,0.0184353527832055,0.12896814772362,0.663172000000031,
-0.105009684814453,-0.137666595458984,-0.084515318603513,0.192670611377947,0.666107000000011,
-0.0667024582519531,-0.0395043273925782,-0.0150834704589826,0.0789767111285381,0.669103999999948,
0.0577960280761719,0.0921767639160156,-0.0246602770996063,0.111557455752809,0.672046000000023,
0.0338540114746094,0.0442927307128906,-0.0366312854003876,0.0667067549578922,0.67497400000002,
-0.0523372482910157,-0.0610521423339844,0.0304063610839869,0.0859714978153475,0.678012999999964,
-0.116980693115234,-0.142454998779297,-0.0581791003417944,0.193294379006506,0.680950999999936,
-0.0475488449707031,-0.106541973876953,-0.010295067138669,0.117124178814773,0.683969999999931,
0.0434308181152344,0.0490811340332031,0.00885854614258008,0.0661337094068073,0.686954000000014,
0.0625844313964844,0.0371101257324219,0.0375889660644564,0.0818956827610117,0.689993999999956,
0.0170945998535156,-0.0418985290527344,-0.00311246215820127,0.0453585659123046,0.693131999999991,
-0.0978270798339844,-0.135272393798828,-0.0509964953613249,0.174554864189021,0.696168999999941,
-0.0978270798339844,-0.0849941589355469,-0.0414196887207012,0.136050487745269,0.699190999999928,
0.0242772048339844,0.0395043273925781,-0.0222660754394504,0.051436880472736,0.702125000000024,
0.0338540114746094,-0.00119710083007815,0.00167594116211234,0.0339166024551284,0.70508499999994,
0.0362482131347656,-0.0371101257324219,-0.0198718737792944,0.0555516494340156,0.708119000000011,
-0.0355778366699219,-0.0610521423339844,-0.0246602770996063,0.0748416716295814,0.711099999999988,
-0.0906444748535156,-0.0754173522949219,-0.0629675036621062,0.133675369332137,0.71411599999999,
-0.0475488449707031,-0.0442927307128907,-0.0581791003417944,0.0872212495246037,0.717057999999952,
0.0601902297363281,-0.0107739074707032,0.04716577270508,0.0772240309279858,0.720031999999946,
0.0194888015136719,-0.0131681091308594,-0.000718260498045353,0.0235314338845846,0.723057999999924,
-0.0020590134277344,-0.0442927307128907,-0.0893037219238249,0.0997057685379741,0.726023999999938,
-0.0906444748535156,-0.0299275207519532,-0.027054478759764,0.0992170456161175,0.729075999999964,
-0.0331836350097656,-0.0658405456542969,-0.0677559069824198,0.100134879115757,0.732038999999986,
0.0242772048339844,-0.0347159240722656,0.0232237561035173,0.0483106707291278,0.735001000000011,
0.0649786330566406,-0.0035913024902344,0.00407014282226825,0.0652049558705439,0.738035999999965,
0.00272938989257815,-0.0299275207519532,0.0304063610839869,0.0427510568514287,0.740991000000008,
-0.0906444748535156,-0.0706289489746094,-0.00311246215820127,0.11495458527355,0.744004000000018,
-0.0403662399902344,-0.0179565124511719,0.0232237561035173,0.0499120478232856,0.74694999999997,
0.00751779321289064,0.0011971008300781,0.0160411511230496,0.0177558101629206,0.749960999999985,
0.0147003981933594,-0.0514753356933594,-0.0198718737792944,0.0571025678869836,0.752921000000015,
0.0290656081542969,-0.0395043273925782,-0.00311246215820127,0.0491435538072428,0.755870999999956,
0.00751779321289064,-0.0466869323730469,-0.0079008654785131,0.0479438269697654,0.758909000000017,
-0.0858560715332031,-0.0251391174316407,-0.0174776721191385,0.0911521215719109,0.761861999999951,
-0.0068474167480469,-0.0323217224121094,-0.0318428820800758,0.0458862724022392,0.764855000000011,
0.0362482131347656,-0.0179565124511719,-0.0629675036621062,0.0748416716295798,0.767829000000006,
0.0123061965332031,-0.0131681091308594,-0.0222660754394504,0.0286464602817056,0.770767999999975,
-0.0595198532714844,-0.0418985290527344,-0.0581791003417944,0.0931821194587376,0.773793999999953,
-0.0714908615722656,-0.0299275207519532,0.0208295544433614,0.0802525396795166,0.776746000000003,
-0.00445321508789065,-0.0610521423339844,-0.0773327136230453,0.0986283113740271,0.779762000000005,
-0.00924161840820314,-0.0275333190917969,0.00885854614258008,0.0303638767415126,0.782712999999944,
-0.0116358200683594,-0.0275333190917969,-0.0342370837402317,0.0454494650343608,0.785657000000015,
0.0051235915527344,-0.0227449157714844,0.028012159423831,0.0364453489410829,0.788691999999969,
-0.0619140549316406,-0.0395043273925782,-0.0222660754394504,0.0767445124832617,0.791622999999959,
0.00272938989257815,-0.0969651672363282,-0.0964863269042944,0.136818509368569,0.794669999999996,
-0.0068474167480469,-0.0442927307128907,0.0375889660644564,0.0584949867930657,0.797623999999928,
-0.0140300217285156,-0.0227449157714844,-0.0150834704589826,0.0306868666409841,0.800551999999925,
0.0218830031738281,-0.0442927307128907,0.00646434448242417,0.0498246883733142,0.803601999999955,
-0.0307894333496094,-0.0490811340332032,-0.0366312854003876,0.0685477789141263,0.80652699999996,
-0.0212126267089844,-0.0418985290527344,-0.00311246215820127,0.0470653767579075,0.809554999999932,
-0.0475488449707031,-0.0299275207519532,0.0160411511230496,0.0584283123644613,0.81249200000002,
0.0170945998535156,0.0011971008300781,0.0711077893066427,0.0731435307776914,0.815437999999972,
-0.0212126267089844,-0.00837970581054691,-0.0126892687988249,0.0261000487358714,0.818456999999967,
-0.0260010300292969,-0.0538695373535156,-0.103668931884764,0.119688044747143,0.82140400000003,
-0.0212126267089844,0.00598550415039059,0.0758961926269563,0.0790318533699996,0.824412999999936,
-0.0140300217285156,-0.0466869323730469,-0.027054478759764,0.0557535289023986,0.827441000000022,
-0.0355778366699219,0.0299275207519531,-0.00311246215820127,0.046595347205021,0.830445999999938,
-0.0595198532714844,-0.0251391174316407,-0.0079008654785131,0.0650923331430854,0.833566000000019,
0.0051235915527344,-0.0227449157714844,0.00407014282226825,0.0236674554281789,0.836582000000021,
0.0051235915527344,-0.0275333190917969,-0.0438138903808571,0.0519999215472074,0.839611999999988,
0.0194888015136719,-0.0179565124511719,-0.0366312854003876,0.0452117329233579,0.842570000000023,
0.000335188232421846,-0.0203507141113282,-0.0677559069824198,0.0707469211132364,0.845596999999998,
0.00272938989257815,-0.0610521423339844,-0.0869095202636689,0.106245368676549,0.848582999999962,
-0.0307894333496094,-0.0299275207519532,-0.0581791003417944,0.0723080453402608,0.851510999999959,
0.0218830031738281,-0.0682347473144532,-0.0414196887207012,0.0827673678613307,0.854573999999957,
-0.0260010300292969,-0.0634463439941407,-0.010295067138669,0.0693359974053661,0.857520000000022,
0.000335188232421846,-0.0275333190917969,-0.0198718737792944,0.0339571403222072,0.860550999999987,
-0.0068474167480469,-0.0251391174316407,0.025617957763675,0.0365395963489567,0.863531999999964,
-0.0188184250488281,-0.0251391174316407,0.0208295544433614,0.0376826045393513,0.866476000000034,
-0.0283952316894531,-0.0538695373535156,-0.00311246215820127,0.0609746148660717,0.869533999999931,
-0.0475488449707031,-0.0706289489746094,-0.0150834704589826,0.0864687930550262,0.872502999999938,
-0.0068474167480469,-0.0155623107910157,-0.0366312854003876,0.0403846964005209,0.875519999999938,
-0.0283952316894531,-0.0131681091308594,0.00646434448242417,0.0319605386432612,0.878485999999953,
-0.0283952316894531,-0.0323217224121094,-0.0533906970214826,0.0685678456043569,0.881416999999942,
-0.0403662399902344,-0.0227449157714844,-0.0438138903808571,0.0637684993919951,0.884445000000028,
-0.0427604416503906,-0.0562637390136719,0.00646434448242417,0.0709637333257101,0.887393999999972,
-0.00445321508789065,-0.0825999572753907,-0.000718260498045353,0.0827230316457178,0.890459999999962,
-0.0140300217285156,0.00598550415039059,0.028012159423831,0.0318959064022812,0.893394999999941,
-0.0212126267089844,-0.0538695373535156,-0.0701501086425758,0.0909557053138599,0.896315999999956,
-0.0236068283691406,-0.0203507141113282,-0.0126892687988249,0.0336519160396538,0.899360999999999,
-0.0427604416503906,-0.0203507141113282,0.0615309826660173,0.0776445024636207,0.902313999999933,
-0.0236068283691406,-0.0418985290527344,-0.0438138903808571,0.0650570985576413,0.905333999999925,
-0.0403662399902344,-0.00837970581054691,-0.0150834704589826,0.0438994747292893,0.908276999999998,
-0.0212126267089844,-0.0395043273925782,0.00885854614258008,0.0457060308317725,0.911213999999973,
-0.0212126267089844,-0.0299275207519532,-0.00311246215820127,0.0368146635315269,0.914236999999957,
-0.0475488449707031,-0.0107739074707032,0.0136469494628937,0.0506281440493132,0.91718400000002,
-0.0260010300292969,-0.0418985290527344,0.011252747802736,0.0505783019928428,0.920202000000018,
0.0410366164550781,-0.0706289489746094,0.00646434448242417,0.081940466638448,0.923166999999921,
-0.0738850632324219,-0.0179565124511719,-0.0126892687988249,0.0770873300284613,0.926085999999941,
-0.0020590134277344,-0.0442927307128907,0.0375889660644564,0.0581293032823815,0.929112000000032,
-0.0236068283691406,-0.0251391174316407,0.00646434448242417,0.035086255435417,0.932055999999989,
0.000335188232421846,-0.0299275207519532,-0.0318428820800758,0.0437005490660627,0.935098999999923,
-0.0140300217285156,-0.0347159240722656,-0.0533906970214826,0.065211988332926,0.938039000000003,
0.0051235915527344,-0.0538695373535156,-0.0342370837402317,0.0640340233634957,0.941064999999981,
-0.0260010300292969,-0.00119710083007815,-0.0318428820800758,0.0411273115112985,0.944005999999945,
-0.0355778366699219,-0.00837970581054691,-0.0414196887207012,0.0552412214320315,0.94693099999995,
-0.0068474167480469,-0.0323217224121094,0.0304063610839869,0.0449013101164841,0.949970000000008,
-0.0212126267089844,-0.0347159240722656,-0.027054478759764,0.04885811843541,0.952911999999969,
-0.0355778366699219,-0.0155623107910157,0.0423773693847682,0.0574787736059225,0.955918999999994,
-0.00924161840820314,-0.0323217224121094,-0.0533906970214826,0.063092533464175,0.958864999999946,
-0.0475488449707031,-0.0754173522949219,0.0160411511230496,0.090586909730804,0.961804000000029,
-0.0236068283691406,-0.0203507141113282,-0.010295067138669,0.0328241118368917,0.964852999999948,
-0.0140300217285156,-0.0371101257324219,-0.00550666381835718,0.0400540420929922,0.967892000000006,
0.0170945998535156,-0.0299275207519532,0.0304063610839869,0.04596116444217,0.971046000000001,
0.000335188232421846,-0.0035913024902344,-0.0174776721191385,0.0178459751045335,0.974100000000021,
0.0123061965332031,-0.0730231506347657,-0.0150834704589826,0.0755733688730925,0.977060999999935,
-0.0236068283691406,-0.0251391174316407,-0.0342370837402317,0.0485946033416008,0.980082999999922,
-0.0260010300292969,-0.0490811340332032,-0.0964863269042944,0.11133113922013,0.983019000000013,
-0.0355778366699219,0.0011971008300781,-0.0246602770996063,0.0433052511727894,0.986009999999965,
-0.0116358200683594,-0.0323217224121094,0.00167594116211234,0.0343932381018065,0.988984999999957,
-0.0355778366699219,0.00598550415039059,0.0711077893066427,0.0797366065375488,0.991892000000007,
0.0170945998535156,-0.0299275207519532,-0.010295067138669,0.0359704079751691,0.994936999999936,
0.00272938989257815,-0.0442927307128907,0.0351947644042987,0.0566389177568255,0.997914999999921,
-0.0260010300292969,-0.0155623107910157,-0.0294486804199199,0.042254749534403,1.00092799999993,
-0.0595198532714844,-0.0466869323730469,0.00885854614258008,0.0761626970873846,1.00388699999996,
0.0170945998535156,-0.0179565124511719,-0.0509964953613249,0.0567036526398304,1.00685599999997,
-0.0020590134277344,-0.0275333190917969,-0.010295067138669,0.0294671275134853,1.00990400000001,
-0.0260010300292969,-0.0155623107910157,-0.0438138903808571,0.0532719069495952,1.01284999999996,
