X,Y,Z,Magnitude,Seconds,
0.070102224609375,1.25437013378906,0.522271150146485,1.36056088019335,0.0,
0.192206509277344,1.21606290722656,-0.392313884033202,1.29215421685885,0.00301299999955518,
0.287974575683594,1.25676433544922,-1.07466135717773,1.67847638759333,0.0061519999999291,
0.220936929199219,1.24239912548828,-1.6181451340332,2.05201422716641,0.00913500000024214,
0.295157180664063,1.04846879101563,-2.39386647192383,2.63001924944141,0.0122499999997672,
0.1946007109375,1.0005847578125,-2.47526932836914,2.67693809084728,0.0153039999995599,
0.189812307617188,0.8473558515625,-2.50878815161133,2.65481800524359,0.0183699999997771,
0.216148525878906,0.641454508789063,-2.23824336401367,2.33835784871278,0.021509000000151,
0.173052895996094,0.56005165234375,-1.9246029465332,2.01189007152724,0.0245479999994132,
-0.133404916503906,0.538503837402344,-1.51040605932617,1.60907107322631,0.027672999999595,
-0.461410543945313,0.397245939453125,-1.0818439621582,1.24140661547056,0.0306959999998071,
-0.834906002929688,0.375698124511719,-0.430621110595702,1.01175671748713,0.0337199999994482,
-1.18685364697266,0.490619804199219,0.160746699462893,1.29428315023915,0.036855999999716,
-1.41669700634766,0.373303922851563,0.673105854736329,1.61228338647122,0.039915999999721,
-1.71597221386719,0.402034342773438,1.09448534692383,2.07463019021813,0.0429949999997916,
-1.89314313671875,0.356544511230469,1.49671122583008,2.43952032541638,0.0459670000000187,
-1.86680691845703,0.299083671386719,1.79838063500977,2.60932788696004,0.0489619999998467,
-1.66569397900391,0.306266276367188,2.12159785913086,2.71468468511508,0.0520759999999427,
-1.48852305615234,0.251199638183594,2.50467012475586,2.92441012526718,0.0550560000001497,
-1.30416952832031,0.411611149414063,2.76803230737305,3.08743983772675,0.0580840000002354,
-1.01686532910156,0.593570475585938,2.79676272729492,3.03450535669362,0.0610289999995075,
-0.595485836914063,0.773135600097656,2.75366709741211,2.9214764283618,0.0641079999995782,
-0.389584494140625,0.950306522949219,2.52382373803711,2.7248017957852,0.0671019999999771,
-0.01608903515625,1.01255576611328,1.72894878686524,2.00369457356761,0.0701309999994919,
0.362194827148438,0.935941312988281,0.811969551025392,1.29091664562964,0.073287000000164,
0.663864236328125,0.818625431640625,-0.114586491455077,1.06018554301986,0.0762800000002244,
0.752449697753906,0.742010978515625,-0.753838334716795,1.29808823844,0.0793990000001941,
0.702171462890625,0.773135600097656,-1.27577429663086,1.64875209639906,0.0824249999996027,
0.568096169921875,1.02931517773438,-1.75700883032227,2.11407261540957,0.0854499999995824,
0.448386086914063,0.969460136230469,-2.12571588598633,2.37898530189086,0.0885550000002695,
0.297551382324219,0.840173246582031,-2.29091580053711,2.45819509285692,0.0915720000002693,
0.07967903125,1.04368038769531,-2.38668386694336,2.60612305549997,0.0947089999999662,
0.0150355864257813,0.600753080566406,-2.39386647192383,2.46814242256605,0.0977219999995214,
-0.296210629394531,0.710886356933594,-2.3842896652832,2.5055812414322,0.100701000000299,
-0.593091635253906,0.6941269453125,-2.21669554907226,2.39735459648626,0.103804000000309,
-0.765474154785156,0.720463163574219,-1.88390151831055,2.15733696542849,0.106783000000178,
-0.861242221191406,0.605541483886719,-1.60617412573242,1.92047233107971,0.10982199999944,
-0.985740707519532,0.536109635742188,-1.50082925268554,1.87392281850491,0.112871000000268,
-1.18924784863281,0.454706779296875,-1.23267866674805,1.77216404321723,0.115837000000283,
-1.29698692333984,0.40682274609375,-1.11057438208008,1.75529350371565,0.118910999999571,
-1.28022751171875,0.258382243164063,-0.624551445068358,1.4476907034588,0.121868000000177,
-1.39275498974609,0.339785099609375,-0.0762792648925767,1.43563188235416,0.124934999999823,
-1.46218683789063,0.380486527832031,0.543818965087892,1.60577066032218,0.127924999999777,
-1.32332314160156,0.385274931152344,1.17349400170899,1.81016824679908,0.130871000000297,
-0.961798690917969,0.114730143554687,1.72894878686524,1.98178798949191,0.13390199999958,
-0.815752389648438,0.241622831542969,1.98991676782227,2.16416318626859,0.13689499999964,
-0.561967013671875,0.358938712890625,2.12399206079102,2.22620443768539,0.140046999999868,
0.000670376464843747,0.200921403320313,2.15990508569336,2.16923024110417,0.143081000000166,
0.276003567382813,0.490619804199219,2.0042819777832,2.08183380891633,0.146053999999822,
0.587249783203125,0.454706779296875,1.40094315942383,1.58564255081247,0.149135999999999,
0.735690286132813,0.691732743652344,0.852670979248048,1.32165887603527,0.152117999999973,
0.86497717578125,0.684550138671875,0.254120564208986,1.13197688498135,0.155263999999988,
0.94159162890625,0.581599467285156,-0.406679093994139,1.17908465407052,0.158281999999417,
0.912861208984375,0.531321232421875,-1.04593093725586,1.48646875661739,0.161404999999831,
0.7309018828125,0.622300895507813,-1.61335673071289,1.87733745165467,0.164458000000195,
0.71174826953125,0.507379215820313,-2.11135067602539,2.28513039999472,0.16753400000016,
0.48190491015625,0.572022660644531,-2.60216201635742,2.70752459381201,0.170693000000028,
0.32867600390625,0.394851737792969,-2.87031260229492,2.9159269958754,0.173738999999841,
0.139534072753906,0.232046024902344,-3.12170377661133,3.1334245776852,0.176821999999447,
-0.0208774384765625,0.181767790039063,-2.93974445043945,2.94543253713654,0.179912999999942,
-0.231567184570313,0.107547538574219,-2.37231865698242,2.38601878540176,0.182893999999578,
-0.542813400390625,0.10036493359375,-1.73546101538086,1.82113822744065,0.185996000000159,
-0.980952304199219,0.148248966796875,-0.76341514135742,1.25181782114007,0.189040000000205,
-1.42387961132813,0.208104008300781,0.110468464599611,1.4432406963143,0.192132999999558,
-1.8739895234375,0.124306950195313,0.783239131103517,2.03488390045038,0.19513999999981,
-2.13735170605469,0.109941740234375,1.46319240258789,2.59254537252708,0.198083999999653,
-2.20199515087891,0.198527201660156,2.02343559106446,2.99707979297842,0.201116000000184,
-2.30494582226563,0.418793754394531,2.38256584008789,3.34137448285183,0.204085000000305,
-2.09665027783203,0.586387870605469,2.31313399194336,3.17653616176649,0.207129999999779,
-1.67766498730469,0.746799381835938,1.70740097192383,2.50748623231814,0.210132999999587,
-1.28741011669922,0.888057279785157,0.924497029052736,1.81680084144802,0.213177999999971,
-1.01207692578125,1.01734416943359,0.227784345947267,1.45298815240799,0.216233999999531,
-0.851665414550781,1.18733248730469,-0.442592118896483,1.52675479284015,0.21929099999943,
-0.396767099121094,1.08677601757813,-0.880731022705076,1.4540266083133,0.222375999999713,
-0.0472136567382813,0.907210893066406,-1.00283530737305,1.3531220889465,0.225402000000031,
0.249667349121094,0.878480473144531,-1.10099757543945,1.43047453246709,0.228414999999586,
0.434020876953125,0.753981986816406,-1.34281194311523,1.60000214770096,0.231520000000273,
0.522606338378906,0.569628458984375,-1.56786689916992,1.74808483195508,0.234582000000046,
0.625557009765625,0.354150309570313,-1.79771025854492,1.93610593406283,0.237732999999935,
-0.205230966308594,-1.43192412890625,-5.16874619604492,5.36735164672529,18.7377429999997,
0.101226846191406,-0.668173799316406,-7.00509886938477,7.03762127926322,18.7417100000002,
0.728507681152344,-0.909988166992188,-7.52942903295898,7.6191274741882,18.7447229999998,
0.841035159179688,-0.771124470703125,-8.02742297827148,8.10811277427581,18.747676,
0.69259465625,-0.759153462402344,-7.85504045874023,7.92197336184549,18.7507429999996,
0.778785916015625,-0.797460688964844,-7.83109844213867,7.91002868919546,18.7537190000003,
0.709354067871094,-0.845344722167969,-7.65153331762695,7.73070197353758,18.7567479999998,
0.426838271972656,-0.845344722167969,-7.23973063208008,7.30140385369803,18.7597299999998,
0.453174490234375,-1.18053295458984,-6.73934248510742,6.85694992741275,18.7627620000003,
0.120380459472656,-1.09434169482422,-5.82236324926758,5.92553702262295,18.76584,
-0.336912057617188,-0.629866572753906,-4.6827232590332,4.73689125426488,18.7687679999999,
0.240090542480469,-1.29066623095703,-3.17198201147461,3.43291897216347,18.7718100000002,
0.161081887695313,-1.16377354296875,-1.61096252905273,1.99386973091762,18.7747749999999,
-1.22037247021484,-0.390446406738281,-0.0690966599121072,1.28317251802091,18.7777109999997,
-1.1078449921875,-0.744788252441406,1.56614307397461,2.05787127776455,18.7807359999997,
0.8075163359375,-2.72000462207031,3.6299449050293,4.60727769842865,18.7837159999999,
-0.456622140625,-1.49177917041016,4.62114439233399,4.87738499273724,18.7867959999994,
-0.391978695800781,-1.54924001025391,5.5836134597168,5.80779916791755,18.7897839999996,
0.0150355864257813,-1.87006303271484,5.71050614770508,6.00893021079155,18.7927410000002,
0.177841299316406,-1.49896177539063,5.35855850366211,5.56710545696723,18.7957569999999,
0.4244440703125,-1.20447497119141,4.35538800805664,4.5387572556564,18.798726,
0.515423733398437,-0.775912874023438,2.20300071557617,2.39184334057539,18.8017829999999,
0.486693313476563,-1.24996480273438,1.07533173364258,1.71919188191323,18.8047829999996,
-0.0352426484375,-0.203698677246094,-0.799328166259764,0.825627466086791,18.8078159999995,
0.400502053710938,-0.58916514453125,-1.92939134985351,2.05671301922431,18.8108819999998,
0.438809280273438,-0.625078169433594,-2.85834159399414,2.95861335262205,18.8138630000003,
1.56408406054688,-1.56360522021484,-3.90939612280273,4.4916142174195,18.8170009999994,
0.764420706054687,-0.811825898925781,-4.2781031784668,4.42103688195648,18.8200049999996,
0.180235500976563,-0.400023213378906,-4.48400452124023,4.50541895427685,18.8230649999996,
1.12115675341797,-1.31460824755859,-4.55104216772461,4.86797412921343,18.8261169999996,
0.570490371582031,-0.625078169433594,-4.68990586401367,4.76564780436827,18.8291629999994,
0.503452725097656,-0.653808589355469,-4.72821309057617,4.79968012973981,18.8322179999996,
0.00545877978515624,-0.495791279785156,-4.49836973120117,4.52561255853555,18.8351729999995,
0.161081887695313,-0.519733296386719,-3.85911788793945,3.8972889226911,18.8382679999995,
0.206571719238281,-0.517339094726562,-3.06424293676758,3.11446566679608,18.8412470000003,
0.0557370146484375,-0.615501362792969,-1.81446967016601,1.91683299386104,18.844212,
-0.430285922363281,-0.488608674804687,-0.768203544677734,1.00698614594931,18.8472389999997,
-1.12221020214844,-0.581982539550781,0.799998542724611,1.49601373072225,18.85016,
-1.62978095410156,-0.428753633300781,2.37777743676758,2.91441952629024,18.8532210000003,
-2.31212842724609,-0.388052205078125,4.27637935327149,4.87687838181681,18.8561499999996,
-3.19080043652344,0.0931823286132813,6.06484799340821,6.85363199735961,18.8591539999998,
-3.69118858349609,0.354150309570313,7.24997781518555,8.14324713620944,18.8622569999998,
-3.83723488476563,0.514561820800781,8.04245856469727,8.92582126155126,18.8652069999998,
-4.83322277539063,1.51054971142578,7.9969687331543,9.46537435848634,18.868297,
-4.96250966503906,2.264723234375,7.50855159448242,9.2808308114591,18.8712409999998,
-3.39670177929688,2.23599281445313,6.56044773706055,7.71859581494377,18.874202,
-2.11101548779297,1.96544802685547,5.4136251418457,6.13406142065726,18.8772300000001,
-3.61936253369141,3.2224038984375,3.96513313745117,6.26146570961366,18.8802310000001,
-3.19080043652344,3.030867765625,2.06892542260742,4.8629023476453,18.8833009999998,
-1.48612885449219,1.63265399609375,0.155958296142579,2.21324671766409,18.8862829999998,
-1.682453390625,2.02051466503906,-0.964528080810545,2.80061481498894,18.8892150000001,
-2.87476581738281,3.41154582958984,-1.92699714819336,4.85965445904643,18.8922729999995,
-1.17248843701172,2.07558130322266,-2.63807504125976,3.55558810951597,18.8952859999999,
-0.676888693359375,1.76194088574219,-3.23183705297851,3.74264408206986,18.898322,
-0.925885666015625,2.20007978955078,-3.37070074926758,4.13028314865168,18.9013649999997,
-1.25867969677734,2.64540129833984,-3.33239352270508,4.43703382886635,18.904415,
-1.59626213085938,3.27986473828125,-2.96608066870117,4.7014040482689,18.9074089999995,
-1.81174028027344,3.72758044873047,-2.36513605200195,4.77191024532129,18.9103580000001,
-1.30895793164063,3.58871675244141,-1.60138572241211,4.1420641023533,18.9134009999998,
-1.45739843457031,4.103470109375,-1.02917152563476,4.4745582088961,18.9163909999998,
-1.34487095654297,4.48175397167969,-0.500052958740232,4.70583143705385,18.9194010000001,
-1.18685364697266,4.82651901074219,-0.0140300217285141,4.97032234185045,18.9223679999996,
-1.31614053662109,5.42028102246094,0.665923249755862,5.61739495221342,18.9253680000002,
-1.11023919384766,5.47534766064453,1.35784752954102,5.74941849111384,18.9284419999994,
-1.16291163037109,5.42985782910156,1.61402710717774,5.7828023489492,18.9314459999996,
-1.37120717480469,5.46816505566406,1.38657794946289,5.80548332201188,18.9345290000001,
-1.42387961132813,5.4059158125,1.04660131372071,5.68741885474205,18.9375220000002,
-1.16051742871094,5.23592749462891,0.850276777587892,5.42998232316257,18.9404409999997,
-0.89715524609375,5.07791018505859,0.759297114501955,5.21215804549386,18.943534,
-0.0855208833007812,4.44344674511719,0.99871728051758,4.5551036217168,18.9465380000001,
-0.1884715546875,4.48414817333984,1.15434038842774,4.63417825506841,18.9496280000003,
0.278397769042969,3.77546448193359,1.45840399926758,4.05691749943598,18.9526699999997,
-0.01608903515625,3.67011960888672,1.54938366235352,3.98379549346538,18.9557399999994,
-0.741532138183594,3.81377170849609,2.18863550561524,4.45924320181396,18.9588610000001,
-0.664917685058594,3.56238053417969,2.85422356713867,4.61294512967755,18.961894,
-0.176500546386719,2.85848524609375,3.56051305688477,4.5693920354088,18.9649709999994,
-0.432680124023438,3.02847356396484,3.80232742456055,4.88022110779052,18.9680639999997,
-0.391978695800781,2.86566785107422,3.93400851586914,4.88283959736268,18.97109,
-0.470987350585938,2.71722734814453,3.71374196313477,4.62569269565809,18.9741770000001,
-0.822934994628906,2.63343029003906,3.04575969995117,4.10960207900069,18.9771270000001,
-1.08869137890625,2.57596945019531,1.75528500512696,3.30180147435727,18.9802380000001,
-1.11023919384766,2.26232903271484,0.143987287841798,2.52418225547998,18.9832829999996,
-0.849271212890625,1.90319878369141,-1.01959471899414,2.32012943481391,18.9862160000002,
-0.911520456054688,1.94629441357422,-1.81686387182617,2.814236275593,18.989243,
-1.0312305390625,1.99896685009766,-1.99403479467773,3.00590745946544,18.9922070000002,
-1.5675317109375,2.23359861279297,-1.59899152075195,3.16273494167658,18.995312,
-2.51802977001953,2.59991146679688,-0.753838334716795,3.69706448317785,18.9982899999995,
-3.43500900585938,3.03565616894531,0.258908967529297,4.59146263186992,19.0014259999998,
-3.90906093457031,3.57913994580078,1.41770257104492,5.48642695401642,19.0044369999996,
-3.71752480175781,4.27106422558594,2.27482676538086,6.10219772567701,19.0074210000003,
-3.26262648632813,4.67568430615234,2.8638003737793,6.3802905812312,19.0104759999995,
-3.31051051953125,4.87679724560547,3.57966667016602,6.89613259328514,19.0134749999997,
-3.67682337353516,5.16649564648438,3.74965498803711,7.36692744057033,19.0165010000001,
-3.87075370800781,5.54238530712891,3.45277398217774,7.59094311220537,19.019483,
-3.49246984570313,5.37957959423828,3.63712751000977,7.37332481028473,19.0224840000001,
-2.90349623730469,5.27184051953125,3.60839709008789,7.01734439964071,19.0255660000003,
-1.84047070019531,5.26226371289063,3.17983499291992,6.41795157074911,19.0285349999995,
-0.846877011230469,4.84806682568359,2.53100634301758,5.53416170046012,19.0315759999994,
-0.16931794140625,4.21599758740234,1.62599811547852,4.52185516063973,19.0345870000001,
-0.566755416992188,4.34049607373047,0.929285432373048,4.47489544945805,19.0375619999995,
-0.119039706542969,3.95263540478516,1.14476358178711,4.11679253218826,19.040618,
-0.243538192871094,4.27106422558594,1.62360391381836,4.57573929976711,19.0436589999999,
0.465145498535156,3.92151078320313,2.14553987573242,4.49421278044819,19.0467639999997,
1.04214809863281,3.26549952832031,1.63078651879883,3.79592208808877,19.0497519999999,
1.33184649951172,2.81538961621094,0.895766609130861,3.24077638959614,19.0527279999997,
1.14988717333984,2.82736062451172,0.256514765869142,3.06300643772743,19.055805,
0.632739614746094,3.09311700878906,-0.310911027587888,3.17244352466754,19.058806,
0.580067178222656,2.92791709423828,-1.06508455053711,3.16916101543875,19.0618930000001,
0.611191799804688,2.56639264355469,-1.5798379074707,3.07503080162159,19.0648799999999,
0.848217764160156,1.89362197705078,-2.52075915991211,3.26488963208366,19.0679330000003,
0.525000540039063,1.72363365917969,-3.72264839331055,4.1357767853592,19.0710819999995,
0.13713987109375,1.84094954052734,-4.62047401586914,4.97560877544983,19.0740980000001,
-0.102280294921875,2.01812046337891,-4.89580720678711,5.29643273057127,19.0771399999994,
0.0294007963867188,2.07558130322266,-4.79046233374023,5.22086501684343,19.0801499999998,
0.273609365722656,2.14261894970703,-4.50315813452148,4.99440799626561,19.0831399999997,
0.582461379882812,2.3030304609375,-3.96685696264648,4.62376088537868,19.0862449999995,
0.575278774902344,2.69807373486328,-3.36591234594726,4.35200108780001,19.0892750000003,
0.611191799804688,2.98777213574219,-2.47287512670898,3.92625128380264,19.0924500000001,
0.675835244628906,3.23198070507813,-1.87671891333008,3.79796345895149,19.0954739999997,
0.659075833007813,3.45703566113281,-1.5032234543457,3.82689917161322,19.0986039999998,
0.778785916015625,3.74194565869141,-0.84002959448242,3.91335080655824,19.1016579999996,
0.836246755859375,4.08671069775391,0.189477119384767,4.17569330082945,19.1047120000003,
0.898495999023438,4.47217716503906,1.26447366479492,4.73355651753709,19.1078360000001,
1.00144667041016,4.59906985302734,1.70261256860352,5.00532002028514,19.1109379999998,
0.879342385742188,4.46738876171875,1.55896046899414,4.81260460910516,19.1139809999995,
1.02538868701172,3.85447313671875,1.11603316186524,4.14172852074119,19.1170080000002,
0.773997512695312,3.18649087353516,-0.298940019287109,3.29274374525452,19.1200319999998,
0.704565664550781,2.60230566845703,-1.4050611862793,3.04016521013843,19.1231520000001,
0.594432388183594,2.23120441113281,-2.32682882543945,3.27807189842995,19.1261830000003,
0.410078860351563,1.92235239697266,-3.04508932348633,3.62438579594725,19.1292779999994,
0.0964384428710938,1.83376693554688,-3.8399642746582,4.25644536882827,19.1322579999996,
0.216148525878906,1.32380198193359,-4.71145367895508,4.8986699870016,19.1352769999994,
-0.138193319824219,1.26155273876953,-5.52069384008789,5.66468650344618,19.138312,
0.378954238769531,0.708492155273438,-5.81996904760742,5.87516869240993,19.1413590000002,
-0.219596176269531,0.964671732910156,-6.22219492651367,6.30035901647204,19.1445059999996,
0.285580374023438,0.423582157714844,-6.38739484106445,6.40779141748688,19.1475249999994,
0.793151125976562,-0.0600465776367187,-6.44724988256836,6.49613156797193,19.1505509999997,
1.67182313525391,-0.785489680664063,-6.46879769750976,6.72735685728857,19.1536150000002,
0.630345413085938,-0.1103248125,-6.66751643530273,6.69815514295419,19.1566199999997,
0.833852554199219,-0.438330439941406,-6.62202660375976,6.68869792991326,19.1596920000002,
2.01898237597656,-1.36249228076172,-5.97559215551758,6.45293550709462,19.1627280000002,
0.929620620605469,-0.502973884765625,-5.95404434057617,6.04713330732491,19.1657489999998,
2.39726623828125,-1.62106606005859,-4.98199846655273,5.76151449785652,19.1688619999995,
1.21213641650391,-0.644231782714844,-4.6444160324707,4.84302690109665,19.1718339999998,
1.87054187304688,-1.09673589648437,-3.95249175268555,4.50820891047724,19.1749460000001,
3.16580497119141,-2.09751219042969,-2.86312999731445,4.75598484923399,19.1779669999996,
2.53612993457031,-1.87006303271484,-2.12811008764648,3.80236023234161,19.18091,
2.71569505908203,-2.19806866015625,-1.30450471655273,3.72937502058884,19.1839989999999,
2.81146312548828,-2.62663075732422,-0.294151615966795,3.85876135754439,19.1869939999997,
2.76597329394531,-3.05279865283203,1.32432870629883,4.32712773094103,19.1900850000002,
2.40444884326172,-3.35925646533203,2.14075147241211,4.65282657170588,19.1930409999995,
1.70294775683594,-3.88119242724609,3.21574801782227,5.32021813781661,19.1960849999996,
0.479510708496094,-4.59705872363281,4.66184582055664,6.56473045011998,19.1990719999994,
-0.0855208833007812,-4.91788174609375,5.27954984887696,7.2157134988038,19.2020279999997,
-0.851665414550781,-5.52600896777344,5.90683068383789,8.1334345646709,19.2050469999995,
-0.911520456054688,-6.17723181933594,6.25877832788086,8.84089184693341,19.2080249999999,
-1.43585061962891,-6.6608605546875,6.06963639672852,9.1251967825013,19.211096,
-2.61619203808594,-7.29053559130859,5.21490640405274,9.33764524873974,19.2140769999996,
-3.86357110302734,-7.03914441699219,4.48706909936524,9.19839795257297,19.2170489999999,
-4.61056202099609,-7.18997912158203,2.96435684350586,9.04104492931415,19.2200839999996,
-5.33361092236328,-7.18997912158203,1.64275752709961,9.1017502455726,19.2230279999994,
-5.58739629833984,-6.93619374560547,0.25172636254883,8.91028322966674,19.2261120000003,
-5.29051529248047,-6.53636206835938,-0.80172236791992,8.4472681917813,19.2291180000002,
-4.99124008496094,-6.17962602099609,-1.80010446020508,8.14497583868381,19.2321480000001,
-4.52676496289063,-5.63853644580078,-3.21268343969726,7.91239718186486,19.2351920000001,
-4.134115890625,-5.32250182666016,-3.97403956762695,7.82386927146559,19.2382159999997,
-3.66724656689453,-5.18363813037109,-4.12966267553711,7.57449110256004,19.241282,
-3.09503237011719,-4.83169048632813,-4.13445107885742,7.07235067365952,19.2442679999995,
-2.34564725048828,-4.75028762988281,-3.59096730200195,6.40018279070122,19.2472710000002,
-1.78300986035156,-4.75028762988281,-2.46569252172851,5.64127612694473,19.2504209999997,
5.50493999316406,-9.93134002246094,-0.198383549560546,11.3567264210602,19.2533949999997,
1.6502753203125,-6.45974761523438,0.400166865478518,6.67921263365568,19.2564620000003,
1.09482053515625,-5.29377140673828,1.13758097680664,5.52419570523999,19.2594779999999,
0.790756924316406,-4.81493107470703,2.07610802758789,5.30274290436078,19.2624939999996,
1.22171322314453,-5.04238023242188,2.96914524682617,5.97779266156627,19.2655919999997,
1.99025195605469,-5.20279174365234,3.68022313989258,6.67639027737275,19.2685620000002,
2.72766606738281,-5.07111065234375,3.96992154077149,6.99404049626161,19.2716,
2.93596161181641,-4.81014267138672,4.33623439477539,7.11057464847871,19.2746150000003,
3.14904555957031,-4.41988780078125,4.37933002465821,6.97355200544294,19.2775529999999,
3.41719614550781,-4.15413141650391,3.7831738112793,6.57620265873914,19.2806220000002,
3.23763102099609,-3.84767360400391,3.37376532739258,6.05550487369806,19.2836879999995,
3.16819917285156,-3.15574932421875,2.59325558618164,5.16925665172728,19.2867329999999,
3.32142807910156,-2.67930319384766,1.80077483666992,4.63177504868168,19.289753,
3.52254101855469,-2.49255546435547,1.26447366479492,4.49666783510285,19.2927739999996,
3.65661631152344,-2.33932655810547,0.958015852294924,4.44534430257154,19.2957850000003,
3.56324244677734,-2.18370345019531,0.287639387451174,4.18903257448829,19.2987560000001,
3.26636144091797,-2.0639933671875,-0.488081950439451,3.89453587386925,19.3018329999995,
3.04370068652344,-1.88442824267578,-1.16803522192383,3.76556635190406,19.3048499999995,
2.761184890625,-1.86048622607422,-1.76658563696289,3.76913462353778,19.3079010000001,
2.57204295947266,-1.77429496630859,-2.28373319555664,3.87026677650627,19.3108739999998,
2.46909228808594,-1.76950656298828,-2.59976781469726,3.99829499835615,19.3138549999994,
2.30628657519531,-1.70965152148438,-2.85834159399414,4.05117054192945,19.3169229999994,
2.05250119921875,-1.63782547167969,-3.29169209448242,4.21075649893879,19.3198789999997,
1.75562019335938,-1.50614438037109,-3.71307158666992,4.37465127359772,19.3229810000003,
1.50422901904297,-1.22602278613281,-3.86630049291992,4.32598154358068,19.3259950000001,
1.22171322314453,-0.828585310546875,-4.11529746557617,4.37204872418388,19.3289619999996,
0.838640957519531,-0.47424346484375,-4.36429443823242,4.46937260285632,19.3320100000001,
0.632739614746094,0.0285388837890626,-4.44809149633789,4.49296025441472,19.3349939999998,
0.445991885253906,0.473860392578125,-4.40499586645508,4.45280147961403,19.338076,
0.338252810546875,0.950306522949219,-4.0698076340332,4.19295022978304,19.3410560000002,
0.338252810546875,1.45069466992188,-3.58139049536133,3.87882557863164,19.3440169999994,
0.208965920898438,2.06600449658203,-3.21986604467773,3.83139383014364,19.3471119999995,
0.127563064453125,2.71243894482422,-2.57343159643555,3.74114254557944,19.3501449999994,
0.170658694335938,3.29183574658203,-2.00840000463867,3.85991937105691,19.3532459999997,
0.125168862792969,3.87602095166016,-1.34281194311523,4.10394317413074,19.3562139999995,
0.17544709765625,4.43386993847656,-0.545542790283202,4.47074951785851,19.3592060000001,
0.326281802246094,5.05157396679688,0.172717707763674,5.0650459783769,19.3622559999994,
0.378954238769531,5.9805242109375,0.981957868896487,6.0724391646997,19.3652949999996,
0.493875918457031,7.32845974560547,2.09047323754883,7.63677379674817,19.3684000000003,
0.644710623046875,8.30768822460938,2.72493667749024,8.76690454613909,19.3714419999997,
0.771603311035156,9.09059216748047,3.13913356469727,9.64823285177481,19.3745179999996,
0.728507681152344,9.86391930371094,3.15110457299805,10.3806111333384,19.3776459999999,
0.869765579101563,10.3140292158203,2.87337718041992,10.7420662466931,19.3806779999995,
0.831458352539063,10.3451538374023,2.10483844750977,10.5898005553288,19.3837899999999,
0.809910537597656,10.0937626630859,1.18546501000977,10.1953581137485,19.3868809999995,
19.1919923338623,-10.0678095170898,0.701836274658204,21.6837711750484,19.390007,
4.8680823515625,5.30296514111328,-0.126557499755858,7.19970012363024,19.3930209999999,
0.352618020507813,8.49443595410157,-1.37872496801758,8.6128197580209,19.3960319999996,
2.40923724658203,4.38119750195313,-2.99002268530273,5.82576615734475,19.3991639999995,
1.08524372851563,4.54400321484375,-4.13445107885742,6.23854188815449,19.4021910000001,
-1.4909172578125,6.15290673046875,-4.35950603491211,7.68676709494479,19.4052339999998,
-2.19241834423828,6.45218193798828,-5.05143031469726,8.48258794126517,19.408195,
-1.45500423291016,4.96298850537109,-5.63322131811523,7.64731813390158,19.4112029999997,
-1.20600726025391,4.15135414257813,-5.83912266088867,7.26522870787901,19.4142339999999,
-1.15572902539063,3.89278036328125,-5.96601534887695,7.21684056079347,19.4172669999998,
-1.47415784619141,3.64857179394531,-5.7553256027832,6.97201479381053,19.420427,
-0.983346505859375,3.19367347851563,-3.62448612524414,4.92984992774093,19.4234329999999,
-2.64971086132813,4.85764363232422,-6.0617834152832,8.20748971861085,19.4264309999999,
-2.56591380322266,4.69962632275391,-5.76250820776367,7.86618726344813,19.4295119999997,
-1.82849969189453,4.31894825878906,-2.8439763840332,5.48497282201964,19.4325049999998,
-3.12615699169922,6.48570076123047,-3.08579075170898,7.8332162273429,19.4355660000001,
-2.87955422070313,6.54555580273438,-1.33562933813476,7.27461607272612,19.438572,
-2.26663859570313,6.83525420361328,0.498329133544923,7.21849585972616,19.4415760000002,
-2.23551397412109,7.06030915966797,1.70021836694336,7.59843606631481,19.4446550000002,
-2.49648195507813,7.25902789746094,2.96675104516602,8.22967313640952,19.4476299999997,
-2.48929935009766,7.02439613476563,4.23328372338867,8.57084846413786,19.4507459999995,
-2.40550229199219,6.49527756787109,5.3753179152832,8.76750333052881,19.4536790000002,
-2.54676018994141,5.9805242109375,5.6219206862793,8.59410550932993,19.4567120000002,
-1.9506039765625,4.71399153271484,6.0816074050293,7.93804262225871,19.4597830000002,
-2.09186187451172,4.27824683056641,5.05928329614258,6.94806660272586,19.4627549999996,
