X,Y,Z,Magnitude,Seconds,
0.0337103593749999,-0.0396958635253905,0.034859576171872,0.0626684925708336,0.0,
0.0169509477539062,-0.0325132585449218,0.00373495458984152,0.036856430873767,0.00371400000040012,
0.00258573779296867,0.0177649763183595,-0.024995465332033,0.0307742377759502,0.00752199999988079,
-0.0524809003906251,0.00818816967773445,0.0755610043945296,0.0923620940299223,0.0112189999999828,
0.0145567460937499,-0.0133596452636718,0.0228885678710924,0.0302368238675734,0.0150370000010298,
0.00497993945312492,-0.0109654436035155,-0.00584185205078391,0.0133853646107201,0.0190249999996013,
0.00258573779296867,-0.0133596452636718,0.0396479794921856,0.0419181158846375,0.0228600000009465,
0.0265277543945311,-0.00617704028320304,-0.024995465332033,0.0369682413301166,0.026651000000129,
0.0552581743164062,0.0393127912597657,-0.00105344873047031,0.0678238242776384,0.0305220000009285,
0.00976834277343741,-0.034907460205078,-0.0321780703125025,0.0484703982606377,0.0343860000011773,
-0.0213562788085938,-0.00617704028320304,0.0659841977539042,0.0696287356228522,0.0382339999996475,
0.0241335527343749,-0.0229364519042968,-0.00105344873047031,0.033310943363536,0.0420240000003105,
0.00019153613281242,-0.0133596452636718,0.0444363828124974,0.0464016047688023,0.045828000000256,
-0.0572693037109376,-0.0133596452636718,0.00612915624999744,0.0591254583529264,0.0496080000011716,
0.0169509477539062,-0.00378283862304679,-0.0585142885742211,0.0610374185655889,0.0533969999996771,
0.0121625444335937,-0.0277248552246093,-0.0321780703125025,0.0441817076781901,0.0572640000009415,
-0.0285388837890626,-0.00617704028320304,-0.0297838686523466,0.0417097416257422,0.0609949999998207,
-0.0333272871093751,-0.0229364519042968,0.00852335791015335,0.0413453325309328,0.0647380000009434,
0.0480755693359374,-0.00378283862304679,0.00852335791015335,0.0489716026395616,0.0684849999997823,
0.0121625444335937,-0.0325132585449218,0.032465374511716,0.047529359458066,0.0722440000008646,
0.0121625444335937,-0.00857124194335929,0.00852335791015335,0.0171476326533815,0.0760040000004665,
0.0169509477539062,0.012976572998047,0.0588015927734347,0.0625568013026732,0.0798160000013013,
0.0480755693359374,0.022553379638672,0.0300711728515601,0.061026147975839,0.0835600000009435,
-0.0117794721679688,-0.00857124194335929,0.00373495458984152,0.0150390172150886,0.0874400000011519,
0.00737414111328116,0.0105823713378907,0.00373495458984152,0.0134281207203306,0.0913620000010269,
-0.00699106884765632,0.032130186279297,-0.00105344873047031,0.032898839921838,0.095089000000371,
0.0193451494140624,0.0105823713378907,0.00612915624999744,0.0228864139900136,0.0988510000006499,
0.00258573779296867,0.00818816967773445,0.0157059628906229,0.0178999841599645,0.102665000000343,
0.0193451494140624,-0.00857124194335929,-0.0178128603515653,0.0276586150811708,0.106493000001137,
0.0121625444335937,0.0153707746582032,-0.0441490786132839,0.0483045478510494,0.110273000000234,
-0.00459686718750008,-0.0325132585449218,-0.0202070620117212,0.0385560439398804,0.11400599999979,
0.00019153613281242,-0.0301190568847655,0.0252827695312483,0.0393244543368135,0.117768000000069,
0.00019153613281242,0.012976572998047,0.0181001645507788,0.0222720472707177,0.121549999999843,
0.00976834277343741,-0.0181480485839843,0.00373495458984152,0.0209456934412351,0.12531300000046,
0.00497993945312492,-0.0181480485839843,-0.003447650390628,0.0191321132544066,0.129156000000876,
-0.00220266552734383,-0.0277248552246093,-0.00584185205078391,0.0284191232805332,0.13289900000018,
-0.0189620771484376,0.0010055646972657,-0.063302691894533,0.0660893511182993,0.13661300000058,
0.00258573779296867,-0.00617704028320304,0.0276769711914042,0.0284755439091884,0.140355000001364,
0.0289219560546874,-0.0325132585449218,0.00612915624999744,0.0439449437316181,0.144084999999905,
-0.0524809003906251,0.0105823713378907,-0.0154186586914093,0.055713252685388,0.147770000001401,
0.0911711992187499,-0.0229364519042968,0.0995030209960923,0.13689090393555,0.15157200000067,
0.0504697709960937,-0.0181480485839843,0.111474029296872,0.123705329955846,0.15533300000061,
-0.0716345136718751,-0.0109654436035155,0.0181001645507788,0.0746951167024539,0.159297000000151,
0.0289219560546874,0.0369185895996095,0.142598650878904,0.150112747734952,0.163129000000481,
0.0624407792968749,0.00818816967773445,0.0731668027343719,0.0965364079725515,0.16689899999983,
0.00258573779296867,-0.0205422502441406,0.00852335791015335,0.0223901253924906,0.170680000001084,
-0.0285388837890626,0.0249475812988282,0.130627642578123,0.13601628838527,0.174436000001151,
-0.0859997236328126,0.0177649763183595,0.0444363828124974,0.0984181841225026,0.178356000000349,
0.0959596025390624,0.00339976635742195,-0.00105344873047031,0.0960255876574969,0.182149000000209,
0.0361045610351562,-0.034907460205078,0.0420421811523415,0.0654951532676787,0.185960000000705,
-0.0452982954101563,0.00818816967773445,-0.00823605371093983,0.0467633860030114,0.189720000000307,
-0.0429040937500001,0.0201591779785157,-0.0441490786132839,0.0647788148987012,0.193479999999909,
0.139055232421875,-0.0420900651855468,-0.0537258852539093,0.154901265319369,0.197256000001289,
0.0624407792968749,-0.00857124194335929,0.00373495458984152,0.0631368909073041,0.201090000000477,
-0.109941740234375,0.0488895979003907,0.0396479794921856,0.126685994910398,0.204862000000503,
-0.0812113203125001,0.0177649763183595,0.0947146176757787,0.126022742915556,0.208583999999973,
0.124690022460937,-0.054061073486328,0.0420421811523415,0.142259433303558,0.212337000000844,
-0.0524809003906251,-0.034907460205078,0.0635899960937483,0.0895347043720073,0.216048000000228,
-0.0572693037109376,0.0057939680175782,-0.00105344873047031,0.0575712859605555,0.219736000000921,
0.0887769975585937,0.0464953962402345,0.0755610043945296,0.125509531718372,0.223530000001119,
0.0456813676757812,-0.034907460205078,0.0276769711914042,0.0638069969911516,0.227398000000903,
-0.0452982954101563,-0.0133596452636718,0.0157059628906229,0.0497704024391863,0.231362000000445,
0.0720175859374999,0.0249475812988282,0.00612915624999744,0.0764622851689884,0.235144000000219,
0.00737414111328116,-0.0277248552246093,0.0228885678710924,0.0367005734774503,0.238948000000164,
-0.0452982954101563,-0.0229364519042968,-0.0585142885742211,0.0774721779761686,0.242711000000781,
0.0121625444335937,0.0010055646972657,0.0564073911132787,0.057712497950322,0.246538000001237,
0.0408929643554687,-0.025330653564453,0.0444363828124974,0.0654864005824017,0.250485000000481,
0.0145567460937499,-0.0468784685058593,-0.0297838686523466,0.0574157513073981,0.254256000000169,
-0.0716345136718751,0.051283799560547,0.00134075292968561,0.0881097569216422,0.2580080000007,
0.0313161577148437,0.022553379638672,0.00134075292968561,0.0386154669215004,0.2617850000006,
0.0193451494140624,-0.00138863696289054,-0.00105344873047031,0.0194235133972934,0.265557000000626,
-0.00699106884765632,-0.0492726701660156,-0.0896389101562516,0.102527095359823,0.269280000000435,
0.00976834277343741,-0.00857124194335929,0.00373495458984152,0.0135217082788805,0.273096000000805,
0.0337103593749999,0.0057939680175782,0.0228885678710924,0.0411563474298919,0.276864999999816,
0.0408929643554687,-0.034907460205078,-0.0273896669921889,0.0603403610338034,0.280604999999923,
0.0217393510742186,-0.0181480485839843,0.00852335791015335,0.029573614635336,0.284354000001258,
0.0265277543945311,-0.0301190568847655,-0.0345722719726584,0.052972835776422,0.288090000000011,
-0.00220266552734383,0.0297359846191407,0.034859576171872,0.0458723289966584,0.291807999999946,
0.00258573779296867,-0.0396958635253905,0.0300711728515601,0.0498670538294456,0.295557999999801,
-0.897634086425781,2.40478403149414,-11.7972850283203,12.0733039069955,0.299539999999979,
4.86520930957031,-13.7848075944824,9.41713733190918,17.3888946621362,0.30309699999998,
1.94188908251953,-7.74184260424805,-29.8088641176758,30.8589604507964,0.306070000000545,
-4.28064103222656,1.74398437329102,-7.05197733789063,8.43182978452411,0.309003000000303,
2.81098428515625,2.69927083569336,9.41713733190918,10.1916716599318,0.312066000000414,
-0.212892411621094,5.15093333569336,-20.1315010073242,20.7811157115199,0.3149910000011,
-0.780318205078125,3.10867931958008,9.41713733190918,9.94762580424087,0.318006000001333,
-0.0381156904296876,-2.68289449633789,-7.61461472802735,8.07352049236441,0.320987000000969,
-0.418793754394531,-4.39235448168945,2.20400628027344,4.93212021193949,0.323986999999761,
1.40079950732422,-1.69408921069336,-1.6961482241211,2.77652594291798,0.327038999999786,
-0.320631486328125,2.49815789624023,1.18168217138672,2.78208018912929,0.330018000000564,
-0.392457536132813,2.43590865307617,0.0731668027343719,2.46840581445215,0.333060000000842,
-0.404428544433594,0.28591556225586,0.0899262143554669,0.503385419257516,0.336035000000265,
0.151026240722656,-1.83774131030273,-0.429615545898439,1.8933228901214,0.339003000000957,
0.443118843261719,-1.44988064135742,0.19048268408203,1.52800256425561,0.342074000000139,
0.0361045610351562,0.702506651123047,-0.288357647949221,0.760242900217073,0.345032999999603,
0.00258573779296867,1.15740496655273,0.626227386230466,1.31596112477,0.348055000000386,
-0.40682274609375,0.551671946533203,-0.0561200869140652,0.687747153746372,0.351010000000315,
-0.00938527050781257,-0.932733082763672,-0.11597512841797,0.93996240211824,0.353973000001133,
0.280313130371094,-0.745985353271484,0.0396479794921856,0.797898214455851,0.357022000000143,
0.213275483886719,0.175782285888672,0.137810247558592,0.308832492447801,0.360013999999865,
-0.203315604980469,0.747996482666016,-0.0896389101562516,0.780301933563736,0.363032000001112,
-0.208104008300781,0.151840269287109,0.109079827636716,0.279751951638035,0.365993000001254,
0.0648349809570312,-0.496988380615234,0.0252827695312483,0.501836869567613,0.369049000000814,
0.0408929643554687,-0.271933424560547,-0.25723302636719,0.376548604805579,0.372018000000025,
0.227640693847656,-0.0756088884277343,-0.00584185205078391,0.239939818996562,0.375003000001016,
-0.167402580078125,0.331405393798828,0.034859576171872,0.372918689403806,0.378028000000995,
-0.186556193359375,0.135080857666016,-0.0321780703125025,0.23256285085448,0.380989000001136,
0.160603047363281,-0.140252333251953,0.034859576171872,0.216053803150678,0.384044000000358,
0.201304475585937,-0.209684181396484,-0.0393606752929703,0.293326116427368,0.387039000001096,
-0.0859997236328126,-0.0157538469238281,-0.0297838686523466,0.0923645764875246,0.389997000000221,
-0.181767790039063,0.211695310791016,-0.0178128603515653,0.279592081612648,0.393022000000201,
-0.0237504804687501,0.106350437744141,0.0659841977539042,0.127390797485898,0.395979000000807,
0.179756660644531,-0.0708204851074218,-0.0130244570312517,0.193643059875335,0.399037000001044,
0.0983538041992187,-0.204895778076172,0.00612915624999744,0.227361644149217,0.402030999999624,
-0.129095353515625,-0.0468784685058593,-0.0202070620117212,0.138821923570899,0.404972000000271,
-0.10036493359375,0.144657664306641,-0.0513316835937516,0.183395478348022,0.407981000000291,
0.131872627441406,0.099167832763672,0.013311761230467,0.165535047377891,0.410965000000942,
0.1103248125,-0.0660320817871093,0.013311761230467,0.129263309045361,0.414025000000038,
-0.0596635053710938,-0.121098719970703,-0.0513316835937516,0.144428444540119,0.41697700000077,
-0.131489555175781,-0.0229364519042968,0.00134075292968561,0.133481764914543,0.419939999999769,
0.0600465776367187,0.0871968244628907,0.0157059628906229,0.107030626236682,0.422984000000724,
0.0959596025390624,0.0273417829589845,-0.00584185205078391,0.0999497156084713,0.425945000000866,
0.0193451494140624,-0.0995509050292968,0.00373495458984152,0.101481857412016,0.42905299999984,
-0.0836055219726563,-0.0229364519042968,0.013311761230467,0.0877107012703433,0.432104999999865,
0.00976834277343741,0.0632548078613282,0.0252827695312483,0.0688172193079838,0.435152000000016,
0.0744117875976562,0.0560722028808595,-0.0130244570312517,0.0940789166091419,0.43826000000081,
0.0289219560546874,-0.0373016618652343,-0.0130244570312517,0.0489645790433908,0.441248000000996,
-0.0500866987304688,-0.0373016618652343,-0.0226012636718771,0.0664146707225951,0.444258999999875,
-0.00699106884765632,0.0201591779785157,0.00134075292968561,0.021379081337153,0.447201000000859,
0.0744117875976562,-0.0109654436035155,0.049224786132811,0.0898912379307436,0.450172000000748,
0.0600465776367187,-0.0157538469238281,0.0204943662109347,0.0653742627122462,0.453230000000985,
-0.0285388837890626,-0.0109654436035155,0.00134075292968561,0.0306023930398582,0.456165999999939,
-0.10036493359375,-0.0612436784667968,0.0444363828124974,0.125692084734406,0.459216000001106,
0.0217393510742186,0.0010055646972657,0.0635899960937483,0.0672108484449604,0.462172999999893,
0.081594392578125,0.012976572998047,0.0420421811523415,0.0927015714160937,0.465226000000257,
0.0432871660156249,-0.0157538469238281,0.0300711728515601,0.0550112522238141,0.468210000000909,
-0.0548751020507813,0.022553379638672,0.0181001645507788,0.0620286040063372,0.471153000000413,
-0.00938527050781257,0.022553379638672,-0.0609084902343771,0.0656245565185936,0.474177000000054,
0.1103248125,-0.0181480485839843,-0.0441490786132839,0.120208390152138,0.477155000000494,
0.0672291826171874,0.0057939680175782,-0.003447650390628,0.0675664069932674,0.480154000000766,
0.0169509477539062,0.032130186279297,-0.0178128603515653,0.0404596279518527,0.483114000000569,
-0.0955765302734376,0.051283799560547,0.0252827695312483,0.111373783592217,0.486042000000452,
-0.0476924970703126,0.111138841064453,-0.321876471191409,0.343847173867382,0.489037999999709,
-0.0907881269531251,0.896436985595703,-1.11675142236328,1.43491306095177,0.491981000001033,
-0.109941740234375,1.22204841137695,2.33568737158203,2.6383564967158,0.49499300000025,
0.565223127929688,-4.09547347583008,1.12182712988281,4.28379227845089,0.497966000000815,
-0.179373588378906,-0.915973671142578,-3.88205433984375,3.99268437870238,0.500912000001335,
0.0839885942382812,1.99537554760742,1.89515426611328,2.75321400409033,0.503960000000006,
0.1486320390625,2.38323621655273,0.499334698242185,2.43951665044391,0.506913000001077,
-0.411611149414063,-0.178559559814453,-0.587632855468753,0.739337289435246,0.509941000000254,
-0.119518546875,-2.02927744311523,0.154569659179685,2.03866216027137,0.512908000000607,
0.342562373535156,-1.05004896411133,-0.546931427246095,1.23251198489214,0.515862000000197,
0.354533381835937,0.987416648681641,0.303010162109373,1.09201681089224,0.518905000000814,
-0.246411234863281,1.44231496411133,0.176117474121092,1.47377349584565,0.521843000000445,
-0.392457536132813,-0.137858131591797,-0.0513316835937516,0.4191213712685,0.524876000001314,
0.103142207519531,-1.10750980395508,-0.175830169921877,1.12611390608738,0.527879000001121,
0.356927583496094,-0.532901405517578,0.0803494077148414,0.646403306909159,0.530848000000333,
0.0720175859374999,0.587584971435547,0.0396479794921856,0.593308177610077,0.533869000000777,
-0.306266276367188,0.666593626220703,0.0899262143554669,0.739075651463498,0.536815000001297,
-0.155431571777344,-0.113916114990234,-0.0609084902343771,0.202103188847368,0.539821000000302,
0.143843635742187,-0.55684342211914,-0.0226012636718771,0.575566160767337,0.542803000000276,
0.191727668945312,-0.209684181396484,-0.142311346679691,0.317772677178048,0.545780000000377,
0.0241335527343749,0.295492368896485,0.123445037597653,0.321149257746495,0.548812000000908,
-0.174585185058594,0.312251780517578,0.034859576171872,0.359438939639578,0.551776000000245,
-0.141066361816406,-0.0947625017089843,-0.12315773339844,0.209874909081823,0.554801000000225,
0.141449434082031,-0.319817457763672,0.00612915624999744,0.349755221903665,0.557784000000538,
0.184545063964844,-0.113916114990234,-0.0178128603515653,0.217602986841084,0.560806999999841,
-0.0692403120117189,0.161417075927734,0.0611957944335924,0.185996286158887,0.563763000000108,
-0.121912748535156,0.125504051025391,-0.0369664736328144,0.178830940421465,0.56668400000126,
-0.0237504804687501,-0.0660320817871093,0.00612915624999744,0.070440667969383,0.569806999999855,
0.124690022460937,-0.0588494768066405,-0.0489374819335957,0.146307005162861,0.572879999999714,
0.0792001909179687,0.0848026228027345,-0.0106302553710957,0.116521059920172,0.575984000000972,
-0.0668461103515626,0.0776200178222657,0.10668562597656,0.147902307033638,0.578999999999724,
-0.145854765136719,-0.159405946533203,0.159358062499997,0.268475064739701,0.581940000000031,
0.122295820800781,-0.279116029541016,-0.0273896669921889,0.305961140653549,0.584992000000057,
0.134266829101562,-0.0301190568847655,-0.0896389101562516,0.164225068727696,0.587996000000203,
-0.0524809003906251,0.295492368896485,0.0588015927734347,0.305822844625054,0.591061000000991,
-0.172190983398438,0.151840269287109,0.0540131894531228,0.235844497022512,0.594004000000496,
-0.0189620771484376,-0.154617543212891,-0.0178128603515653,0.156791080846066,0.596947,
0.122295820800781,-0.185742164794922,-0.0178128603515653,0.22310024106205,0.600001000000702,
0.0744117875976562,-0.0133596452636718,-0.00105344873047031,0.0756088884277343,0.602998000000298,
-0.112335941894531,0.185359092529297,0.0276769711914042,0.218502566939031,0.606036000001041,
-0.117124345214844,0.070437412841797,0.0420421811523415,0.142993308815126,0.608996000000843,
0.0337103593749999,-0.0947625017089843,-0.024995465332033,0.103639246169112,0.611983000000691,
0.119901619140625,-0.0612436784667968,-0.003447650390628,0.134681374799576,0.615036000001055,
-0.00699106884765632,0.0249475812988282,0.0635899960937483,0.0686654531733188,0.617994000000181,
-0.114730143554688,0.0632548078613282,-0.0178128603515653,0.132217527399196,0.620998000000327,
-0.0309330854492189,0.00339976635742195,0.00134075292968561,0.0311482231453448,0.623953000000256,
0.0600465776367187,-0.0923683000488281,-0.0154186586914093,0.111244008268468,0.626917000001413,
0.0217393510742186,-0.0612436784667968,0.034859576171872,0.073746712388791,0.629963999999745,
-0.00938527050781257,0.0153707746582032,0.0444363828124974,0.0479472223758258,0.632910000000265,
-0.0644519086914064,0.051283799560547,-0.0321780703125025,0.088427964131083,0.635909000000538,
-0.00938527050781257,0.0010055646972657,0.010917559570311,0.0144321713486396,0.638872000001356,
0.0145567460937499,-0.063637880126953,0.010917559570311,0.0661881541581395,0.641838000001371,
-0.0141736738281251,-0.0468784685058593,-0.003447650390628,0.0490955204927794,0.644849000000249,
-0.0309330854492189,0.0201591779785157,-0.041754876953128,0.0557379402341799,0.647784000000684,
-0.0692403120117189,0.0057939680175782,0.032465374511716,0.0766928380949283,0.650793000000704,
0.00019153613281242,-0.0396958635253905,0.0252827695312483,0.0470639639457496,0.65378100000089,
0.0337103593749999,-0.0564552751464843,0.00134075292968561,0.0657676519230796,0.656815000000279,
0.0145567460937499,-0.00857124194335929,-0.0585142885742211,0.0609039162339888,0.659775000000081,
-0.0141736738281251,0.0153707746582032,-0.0106302553710957,0.0234554060428305,0.662691000001359,
0.0217393510742186,0.0010055646972657,-0.0321780703125025,0.0388463480204366,0.665726000001087,
0.0480755693359374,-0.0301190568847655,0.0204943662109347,0.0603194578970184,0.668707000000722,
0.0217393510742186,-0.034907460205078,0.00373495458984152,0.0412926149436605,0.671728999999686,
-0.00459686718750008,-0.0205422502441406,-0.0465432802734398,0.0510822099330518,0.674683000001096,
0.00497993945312492,0.012976572998047,0.00134075292968561,0.0139638412390321,0.677621000000727,
0.0193451494140624,-0.00378283862304679,0.0228885678710924,0.0302064763434932,0.680664000001343,
-0.00699106884765632,-0.034907460205078,-0.0896389101562516,0.0964496761819464,0.683608999999706,
0.0361045610351562,-0.0109654436035155,0.013311761230467,0.0400122889625195,0.686652000000322,
0.00497993945312492,-0.0325132585449218,0.0157059628906229,0.0364498154794691,0.68961599999966,
0.0193451494140624,-0.00617704028320304,0.00373495458984152,0.0206480148755489,0.692576999999801,
0.00976834277343741,-0.0109654436035155,0.010917559570311,0.0182990322403273,0.695611000001009,
-0.0285388837890626,-0.0205422502441406,0.034859576171872,0.049514058447082,0.698570000000473,
-0.0213562788085938,-0.0181480485839843,0.0157059628906229,0.0321266179713749,0.701595000000452,
0.00976834277343741,0.0201591779785157,0.0444363828124974,0.0497634915853746,0.704563000001144,
0.00497993945312492,0.0201591779785157,0.0204943662109347,0.0291755257041611,0.707550000000992,
0.00737414111328116,-0.00857124194335929,0.0683783994140601,0.0693069235505293,0.710689999999886,
0.00258573779296867,-0.025330653564453,0.0444363828124974,0.0512144527198635,0.7137500000008,
-0.0117794721679688,-0.00617704028320304,0.032465374511716,0.0350843602393181,0.716868000001341,
0.0121625444335937,-0.0492726701660156,0.010917559570311,0.0519125863289375,0.719861000001401,
0.0241335527343749,-0.0157538469238281,-0.0226012636718771,0.0366255263449957,0.722811999999976,
-0.0189620771484376,0.022553379638672,-0.024995465332033,0.0386392105260217,0.7258180000008,
0.0217393510742186,0.0345243879394532,0.0516189877929669,0.0657955366912716,0.728802999999971,
0.0241335527343749,0.0297359846191407,-0.0393606752929703,0.0549173916748717,0.731837000001178,
0.0265277543945311,0.012976572998047,0.00373495458984152,0.0297668118174988,0.734808000001067,
-0.0189620771484376,0.00339976635742195,0.010917559570311,0.0221429873332314,0.73773600000095,
0.00019153613281242,-0.0277248552246093,0.013311761230467,0.0307556055113971,0.740789000001314,
-0.0213562788085938,-0.00138863696289054,-0.0154186586914093,0.0263771490689815,0.743743000000904,
0.0265277543945311,-0.0109654436035155,-0.0178128603515653,0.0337825502374053,0.746796999999788,
0.0265277543945311,0.0010055646972657,0.0300711728515601,0.0401124463258645,0.749793000000864,
0.00737414111328116,-0.00857124194335929,0.0444363828124974,0.0458523310538188,0.752862000001187,
0.00258573779296867,0.0010055646972657,0.010917559570311,0.0112645597901411,0.755818999999974,
-0.0165678754882813,-0.0133596452636718,-0.024995465332033,0.032829071064092,0.758761000000959,
0.0193451494140624,-0.0133596452636718,0.00852335791015335,0.0250072500984838,0.761812000000646,
0.0121625444335937,-0.0181480485839843,0.013311761230467,0.0255828485818675,0.764793000000282,
-0.0213562788085938,-0.0444842668457031,-0.024995465332033,0.0553146809492288,0.767787000000681,
-0.0213562788085938,-0.0229364519042968,0.0300711728515601,0.0434332465650096,0.770770000000994,
-0.00699106884765632,-0.0373016618652343,0.013311761230467,0.040218055753578,0.773708000000624,
0.0241335527343749,-0.00138863696289054,0.0300711728515601,0.038582795607187,0.776754000000437,
-0.0117794721679688,-0.0109654436035155,0.010917559570311,0.0194471083955719,0.779711000001043,
0.00258573779296867,-0.0181480485839843,-0.0130244570312517,0.0224872005438552,0.782761000000392,
0.0121625444335937,-0.0133596452636718,-0.0273896669921889,0.0328116056695385,0.785738000000492,
0.00019153613281242,-0.0373016618652343,-0.0321780703125025,0.0492633623805238,0.788699000000634,
-0.0285388837890626,0.012976572998047,0.00373495458984152,0.0315722856392666,0.791718000000401,
0.00497993945312492,-0.054061073486328,0.00134075292968561,0.0543065104924761,0.794697000001179,
-0.0189620771484376,-0.0444842668457031,-0.0393606752929703,0.0623512078960917,0.797708000000057,
-0.0117794721679688,-0.0133596452636718,0.0204943662109347,0.0271524424778877,0.80066799999986,
-0.0189620771484376,0.0010055646972657,0.00612915624999744,0.0199533978680466,0.803590999999869,
-0.0261446821289064,-0.0277248552246093,-0.0202070620117212,0.0431339466776766,0.806635000000824,
0.0193451494140624,-0.0301190568847655,-0.0465432802734398,0.0587168573076941,0.809604000000036,
0.0121625444335937,-0.0420900651855468,0.0181001645507788,0.0474037660021647,0.812648000000991,
-0.0213562788085938,-0.0444842668457031,0.00852335791015335,0.0500758252195077,0.815599999999904,
-0.0261446821289064,-0.025330653564453,-0.00105344873047031,0.036418349329035,0.818534,
-0.00938527050781257,-0.0420900651855468,-0.0585142885742211,0.0726882305272017,0.821565000000192,
-0.00938527050781257,0.0201591779785157,0.00612915624999744,0.0230660424783094,0.824506000000838,
-0.0117794721679688,-0.0133596452636718,-0.0273896669921889,0.0326715463985117,0.827525000000605,
-0.0500866987304688,-0.0325132585449218,0.0468305844726533,0.0758873705762428,0.830504000001383,
0.0265277543945311,-0.0564552751464843,0.0635899960937483,0.0890764135351482,0.833462000000509,
0.0169509477539062,0.00339976635742195,0.013311761230467,0.0218196248386098,0.836481000000276,
0.0193451494140624,-0.0373016618652343,0.0372537778320297,0.0561559680400836,0.839454000000842,
0.0121625444335937,0.00339976635742195,0.0779552060546855,0.0789715141643661,0.842478000000483,
-0.00699106884765632,-0.00138863696289054,0.0516189877929669,0.0521087637256714,0.845438000000286,
0.00737414111328116,0.0249475812988282,0.0588015927734347,0.0642991997035194,0.84853800000019,
0.0337103593749999,-0.034907460205078,-0.041754876953128,0.0640186602213106,0.851603000000978,
0.0289219560546874,-0.00617704028320304,0.0779552060546855,0.0833765525775566,0.854660000000877,
-0.0189620771484376,-0.0205422502441406,-0.00105344873047031,0.0279759569828079,0.857726000000184,
-0.0117794721679688,-0.0133596452636718,-0.0154186586914093,0.0235578250687383,0.86068300000079,
-0.00459686718750008,-0.00138863696289054,0.049224786132811,0.0494584580266632,0.863691000000472,
0.0289219560546874,-0.0181480485839843,-0.0513316835937516,0.0616504091633215,0.866656000000148,
-0.0381156904296876,-0.0133596452636718,-0.0441490786132839,0.059836670369472,0.8696400000008,
-0.0261446821289064,-0.00378283862304679,0.0276769711914042,0.0382605411096,0.872677000001204,
0.00976834277343741,-0.00617704028320304,-0.0178128603515653,0.0212338018523308,0.875649999999951,
0.00019153613281242,0.0201591779785157,-0.0848505068359398,0.0872126003119704,0.878679000001284,
0.0217393510742186,-0.00857124194335929,-0.0537258852539093,0.0585878512995311,0.881647000000157,
-0.0117794721679688,0.0249475812988282,0.00852335791015335,0.0288753425483087,0.884624000000258,
0.00976834277343741,-0.00138863696289054,-0.003447650390628,0.0104515609537557,0.887660000000324,
-0.00699106884765632,-0.0373016618652343,-0.0178128603515653,0.0419235854316554,0.890653000000384,
-0.0165678754882813,-0.00857124194335929,-0.0704852968750025,0.0729118492578815,0.893670999999813,
-0.00459686718750008,-0.0205422502441406,-0.00105344873047031,0.0210766455409806,0.896633000000293,
0.0456813676757812,-0.0133596452636718,0.034859576171872,0.058995402576672,0.899602000001323,
-0.00459686718750008,0.012976572998047,0.0827436093749974,0.0838810319864706,0.902600999999777,
-0.00220266552734383,-0.00138863696289054,-0.00823605371093983,0.00863786019622571,0.90556000000106,
0.0456813676757812,0.0153707746582032,0.010917559570311,0.0494190365476145,0.908594000000448,
-0.0189620771484376,-0.0133596452636718,0.00134075292968561,0.0232344164930584,0.91156200000114,
-0.00938527050781257,-0.00138863696289054,-0.00584185205078391,0.0111417615529489,0.91450900000018,
0.0217393510742186,0.0249475812988282,-0.00823605371093983,0.0341000554034632,0.917526999999609,
0.0265277543945311,0.00818816967773445,0.0252827695312483,0.0375497844342435,0.920507000000725,
0.0121625444335937,-0.00138863696289054,0.00373495458984152,0.0127986595197319,0.9235520000002,
0.0169509477539062,0.022553379638672,-0.0154186586914093,0.0321515878103072,0.926499000001058,
0.00258573779296867,-0.0301190568847655,-0.041754876953128,0.0515491355595085,0.92945200000031,
0.0217393510742186,-0.00378283862304679,-0.003447650390628,0.0223337311345897,0.932491999999911,
0.0289219560546874,-0.0420900651855468,0.070772601074216,0.0872743615969947,0.935473999999886,
-0.0141736738281251,-0.0277248552246093,0.0420421811523415,0.0523173548935525,0.938493999999992,
0.00737414111328116,-0.00857124194335929,0.032465374511716,0.0343779680579898,0.941468000000896,
0.00497993945312492,-0.0109654436035155,-0.0178128603515653,0.0215020637214904,0.944494999999733,
0.0121625444335937,-0.025330653564453,-0.0561200869140652,0.0627617212347121,0.947476000001188,
0.0121625444335937,0.012976572998047,0.00373495458984152,0.0181732996360309,0.950428000000102,
0.00976834277343741,-0.00378283862304679,0.0157059628906229,0.0188787621127288,0.953472000001057,
0.0313161577148437,-0.0181480485839843,-0.0178128603515653,0.0403404436680112,0.95643999999993,
0.00497993945312492,-0.00378283862304679,0.0468305844726533,0.0472463046920616,0.959474000001137,
0.00258573779296867,-0.025330653564453,-0.00105344873047031,0.0254840696154294,0.962450000000899,
-0.0165678754882813,-0.0468784685058593,0.0372537778320297,0.0621283290488989,0.965400000000955,
-0.00220266552734383,-0.00138863696289054,-0.0106302553710957,0.0109445135704957,0.968424000000596,
0.0241335527343749,-0.00138863696289054,0.0516189877929669,0.056998917366631,0.971403999999893,
0.0456813676757812,0.0177649763183595,0.0181001645507788,0.0522493798344731,0.974430000000211,
-0.0261446821289064,-0.00138863696289054,0.049224786132811,0.055754392527022,0.977388999999675,
0.0121625444335937,-0.00138863696289054,0.0372537778320297,0.0392135150486675,0.98034700000062,
0.00976834277343741,-0.025330653564453,0.00852335791015335,0.0284554065268145,0.983378000000812,
-0.0117794721679688,-0.0133596452636718,0.00134075292968561,0.0178615146207023,0.986361999999644,
0.00976834277343741,0.0105823713378907,-0.0154186586914093,0.0210983918703429,0.989469000000099,
-0.0261446821289064,0.022553379638672,-0.0441490786132839,0.0560476625663331,0.992490000000544,
0.0121625444335937,0.0153707746582032,-0.0226012636718771,0.0299166395214789,0.995515000000523,
-0.0141736738281251,0.0010055646972657,-0.0273896669921889,0.0308560860785918,0.998531000001094,
-0.00938527050781257,0.0369185895996095,-0.0202070620117212,0.0431206553252006,1.00145900000098,
0.0121625444335937,-0.034907460205078,-0.00105344873047031,0.0369806438464229,1.00449800000024,
0.00976834277343741,0.0057939680175782,0.0444363828124974,0.0458648307899081,1.00747700000102,
0.0289219560546874,0.012976572998047,-0.00584185205078391,0.0322334953764894,1.01042700000107,
-0.00459686718750008,0.0057939680175782,0.0252827695312483,0.0263423554090831,1.01344200000131,
-0.0165678754882813,0.041706992919922,-0.0369664736328144,0.0581419635845159,1.01637099999971,
