X,Y,Z,Magnitude,Seconds,
0.0169509477539062,-0.0325132585449218,-0.0202070620117212,0.0418661195492266,0.0,
-0.0333272871093751,-0.025330653564453,-0.0393606752929703,0.0574596626825436,0.00379900000007183,
0.0289219560546874,-0.00857124194335929,0.013311761230467,0.0329719383345571,0.00761799999963841,
-0.0165678754882813,0.00339976635742195,-0.0130244570312517,0.0213468824524606,0.0113359999995737,
-0.00699106884765632,-0.0277248552246093,-0.0202070620117212,0.0350123977471375,0.0150709999998071,
-0.0141736738281251,0.0010055646972657,-0.0106302553710957,0.0177456056363589,0.018804999999702,
-0.0165678754882813,-0.0325132585449218,0.0420421811523415,0.0556700231313983,0.0226720000009664,
0.0217393510742186,-0.0516668718261718,-0.0130244570312517,0.0575473849135573,0.0264370000004419,
-0.0189620771484376,0.0010055646972657,-0.0369664736328144,0.041558292830544,0.0301400000007561,
0.0408929643554687,0.0057939680175782,-0.003447650390628,0.0414450345926065,0.0338649999994232,
0.0121625444335937,-0.00857124194335929,0.00134075292968561,0.0149395881459029,0.0376240000005055,
0.0241335527343749,-0.0229364519042968,-0.00584185205078391,0.0338029056284252,0.0415179999999964,
0.00737414111328116,0.00818816967773445,0.0564073911132787,0.0574736274480422,0.0455409999995027,
-0.00459686718750008,0.00818816967773445,-0.0273896669921889,0.0289546398450039,0.0493150000002061,
-0.0500866987304688,0.0249475812988282,0.0635899960937483,0.0847038771579041,0.0530870000002324,
0.00497993945312492,0.032130186279297,0.00612915624999744,0.033086480979941,0.0568640000001324,
0.0289219560546874,-0.0205422502441406,-0.0154186586914093,0.0386807267636524,0.0606669999997393,
0.0121625444335937,-0.0109654436035155,0.00134075292968561,0.0164306438991136,0.0645020000010845,
0.00976834277343741,0.0153707746582032,0.0420421811523415,0.0458173136508343,0.0683250000001863,
-0.0117794721679688,0.0105823713378907,-0.0489374819335957,0.0514355877354383,0.0720710000005056,
-0.00938527050781257,-0.0133596452636718,-0.0489374819335957,0.051589151592917,0.0758619999996881,
-0.00459686718750008,-0.0181480485839843,0.00134075292968561,0.0187691362018775,0.079635000000053,
-0.00699106884765632,-0.034907460205078,-0.00105344873047031,0.0356162262996728,0.0833579999998619,
-0.00459686718750008,-0.0205422502441406,-0.00823605371093983,0.0226041547898145,0.0871019999995042,
-0.0189620771484376,0.00818816967773445,0.0181001645507788,0.02746311069817,0.0908369999997376,
0.00258573779296867,-0.00857124194335929,-0.0321780703125025,0.0334003059480291,0.0946739999999409,
0.0193451494140624,0.022553379638672,0.0228885678710924,0.0375070163858453,0.0984229999994568,
-0.0237504804687501,-0.00617704028320304,0.0181001645507788,0.0304935584332505,0.102156999999352,
0.0145567460937499,0.0057939680175782,0.0396479794921856,0.0426313405845909,0.105886999999711,
0.0193451494140624,-0.00138863696289054,0.0228885678710924,0.030000827616196,0.10964199999944,
-0.0213562788085938,0.0249475812988282,0.00612915624999744,0.0334071700918967,0.113569999999527,
-0.00220266552734383,-0.00138863696289054,0.0181001645507788,0.018286497882463,0.117497999999614,
-0.0141736738281251,0.0010055646972657,-0.0154186586914093,0.0209675755868111,0.121236000000863,
0.00258573779296867,-0.00617704028320304,0.0276769711914042,0.0284755439091884,0.125003000001016,
0.0313161577148437,-0.0133596452636718,0.013311761230467,0.0365565977991535,0.12876099999994,
0.0217393510742186,0.00339976635742195,0.0516189877929669,0.0561130795553377,0.132589000000735,
0.0241335527343749,0.0057939680175782,0.0181001645507788,0.0307183070779762,0.136362999999619,
0.00019153613281242,-0.00378283862304679,-0.00823605371093983,0.00906527081049833,0.14014700000007,
0.0552581743164062,0.012976572998047,0.0588015927734347,0.0817281138180052,0.144034000000829,
0.00019153613281242,0.0393127912597657,-0.0369664736328144,0.0539634359133075,0.147805000000517,
-0.0141736738281251,-0.0181480485839843,-0.003447650390628,0.0232837065436053,0.151557000001048,
0.00497993945312492,0.022553379638672,0.0300711728515601,0.0379174124479936,0.155308999999761,
0.0217393510742186,-0.0133596452636718,0.00134075292968561,0.0255514603323908,0.159095999999408,
-0.00220266552734383,-0.0277248552246093,-0.00823605371093983,0.0290060668374804,0.162828000000445,
0.0121625444335937,-0.0205422502441406,0.0468305844726533,0.0525643907435666,0.166642000000138,
0.0337103593749999,-0.025330653564453,0.0228885678710924,0.0479782959095421,0.170374999999694,
-0.00220266552734383,0.0010055646972657,0.0181001645507788,0.0182614033565607,0.174064000000726,
0.00019153613281242,-0.00378283862304679,0.013311761230467,0.0138401423834855,0.177794999999605,
-0.00699106884765632,-0.00617704028320304,0.032465374511716,0.0337791564796838,0.181602000000566,
-0.00699106884765632,0.0010055646972657,0.0157059628906229,0.0172210183878504,0.185573000000659,
0.0313161577148437,-0.0157538469238281,-0.0393606752929703,0.0527081415574388,0.189452000000529,
-0.0333272871093751,0.00818816967773445,0.0372537778320297,0.0506517339436698,0.193268000000899,
0.00737414111328116,0.0105823713378907,-0.00105344873047031,0.0129411859780827,0.19708399999945,
-0.0165678754882813,-0.0133596452636718,0.0468305844726533,0.051440045313128,0.2009309999994,
0.0408929643554687,-0.0157538469238281,0.0468305844726533,0.0641367435151439,0.2048020000002,
0.00976834277343741,-0.0133596452636718,-0.0106302553710957,0.0196698492969627,0.20860999999968,
0.0193451494140624,0.022553379638672,0.0276769711914042,0.0406067047826868,0.212423000000854,
-0.0141736738281251,-0.0181480485839843,0.0157059628906229,0.0278733199944742,0.216318000000683,
-0.0117794721679688,-0.00378283862304679,0.0228885678710924,0.0260183083960808,0.220106000000669,
-0.00938527050781257,-0.00617704028320304,-0.0680910952148466,0.0690118567836168,0.223831999999675,
-0.00459686718750008,-0.0277248552246093,-0.0561200869140652,0.0627635478634477,0.227579000000333,
0.00497993945312492,-0.0396958635253905,-0.0561200869140652,0.0689204289976887,0.231353000001036,
-0.0213562788085938,-0.0325132585449218,-0.003447650390628,0.0390523868537548,0.235087000000931,
0.0145567460937499,0.0608606062011719,0.010917559570311,0.0635224790997905,0.23889600000075,
0.0241335527343749,-0.0181480485839843,-0.0393606752929703,0.0496088983399969,0.242658999999549,
0.00019153613281242,0.0057939680175782,0.032465374511716,0.0329788916379079,0.246396000000459,
0.00497993945312492,-0.00857124194335929,0.0181001645507788,0.0206369072821889,0.250147000000652,
0.0504697709960937,-0.0229364519042968,-0.0154186586914093,0.0575414081005882,0.254076999999597,
-0.0261446821289064,-0.00857124194335929,-0.0154186586914093,0.0315395882648352,0.257978999999978,
0.0265277543945311,0.0010055646972657,-0.0513316835937516,0.0577899182742629,0.26174600000013,
0.00497993945312492,-0.00378283862304679,-0.0393606752929703,0.039854390279158,0.265618999999788,
0.0504697709960937,0.032130186279297,0.034859576171872,0.0692440373290221,0.269384000001082,
-0.00699106884765632,-0.00138863696289054,-0.0273896669921889,0.0283018941802555,0.273161000000982,
0.0313161577148437,0.0249475812988282,-0.0226012636718771,0.0459771754922844,0.276953000000503,
0.00019153613281242,-0.00857124194335929,0.00612915624999744,0.01053894828143,0.280730000000403,
0.0169509477539062,-0.0516668718261718,-0.0130244570312517,0.0559145486883033,0.28448600000047,
-0.0452982954101563,0.00339976635742195,0.0803494077148414,0.0923012529626585,0.288320999999996,
0.170179854003906,-0.0708204851074218,0.032465374511716,0.187164965636808,0.292112999999517,
0.0935654008789062,-0.0109654436035155,-0.0226012636718771,0.0968790086376714,0.295852999999624,
-0.394851737792969,0.0824084211425782,-0.0297838686523466,0.404457811823731,0.29961000000003,
-0.193738798339844,0.0584664045410157,0.0851378110351533,0.219548375785333,0.303012000000308,
0.249188508789062,-0.0708204851074218,-0.0178128603515653,0.259668542602433,0.305985000000874,
0.234823298828125,-0.0947625017089843,0.0755610043945296,0.264256274831419,0.308945000000676,
-0.13867216015625,0.0441011945800782,-0.0106302553710957,0.145903686365511,0.311922000000777,
-0.208104008300781,0.0393127912597657,-0.0321780703125025,0.214215316997926,0.314856000000873,
0.0313161577148437,0.0464953962402345,0.049224786132811,0.0746029702852263,0.317876000000979,
0.210881282226562,-0.111521913330078,0.0204943662109347,0.239432811854826,0.32084500000019,
-0.00938527050781257,-0.0373016618652343,-0.00584185205078391,0.0389053276017095,0.3237680000002,
-0.165008378417969,0.051283799560547,-0.0226012636718771,0.174265917967512,0.326758999999583,
-0.0764229169921876,0.051283799560547,-0.0345722719726584,0.0983144563546614,0.329686999999467,
0.143843635742187,-0.0588494768066405,0.0372537778320297,0.159818948897509,0.332723999999871,
0.0528639726562499,-0.0564552751464843,0.049224786132811,0.0916781177091184,0.335687000000689,
-0.0955765302734376,-0.0181480485839843,0.0420421811523415,0.105980044360069,0.338651000000027,
-0.0907881269531251,0.0297359846191407,0.0564073911132787,0.110943708920934,0.341750999999931,
0.0337103593749999,0.0010055646972657,-0.0393606752929703,0.0518330227660965,0.344785000001139,
0.0983538041992187,-0.054061073486328,0.0181001645507788,0.113682392760346,0.347923999999693,
-0.0309330854492189,-0.0564552751464843,-0.0106302553710957,0.0652461201645633,0.350868999999875,
-0.0381156904296876,-0.0301190568847655,-0.003447650390628,0.0487016399906155,0.353793000000223,
-0.0213562788085938,0.0488895979003907,-0.0537258852539093,0.0757149534354246,0.356778999999733,
0.0241335527343749,-0.0157538469238281,0.032465374511716,0.0434121250651041,0.359760999999708,
0.0265277543945311,-0.063637880126953,-0.024995465332033,0.073336722229957,0.362812999999733,
-0.0165678754882813,0.00339976635742195,-0.0561200869140652,0.058613284029497,0.365737000000081,
-0.0117794721679688,-0.0157538469238281,0.010917559570311,0.0224973946141914,0.368763000000399,
0.0384987626953124,0.0010055646972657,0.00134075292968561,0.0385352242480672,0.371732999999949,
0.0432871660156249,-0.0612436784667968,0.00852335791015335,0.0754798948321554,0.374695000000429,
-0.00699106884765632,-0.0420900651855468,-0.0321780703125025,0.0534404045642677,0.377711000001,
0.00737414111328116,0.00818816967773445,0.0300711728515601,0.0320265439362158,0.38070499999958,
0.0432871660156249,0.0105823713378907,0.00612915624999744,0.0449814615273244,0.383735999999772,
0.0384987626953124,-0.0373016618652343,-0.00105344873047031,0.0536160280252648,0.38670699999966,
-0.00220266552734383,-0.00857124194335929,-0.0321780703125025,0.0333728352543398,0.389634999999544,
-0.0333272871093751,0.0105823713378907,-0.063302691894533,0.0723182235007048,0.392637999999351,
-0.00220266552734383,0.012976572998047,-0.0226012636718771,0.0261545464836365,0.395563000000038,
0.00258573779296867,0.0057939680175782,-0.0106302553710957,0.0123797590678258,0.398580999999467,
0.0289219560546874,-0.0109654436035155,-0.00823605371093983,0.0320086406487473,0.401542999999947,
0.00976834277343741,-0.034907460205078,-0.00584185205078391,0.0367161889892146,0.404497999999876,
0.0121625444335937,-0.00857124194335929,0.010917559570311,0.0184549934305605,0.407532000001083,
0.0528639726562499,0.0177649763183595,-0.00823605371093983,0.0563739884106322,0.410482000001139,
0.00258573779296867,-0.0468784685058593,-0.0369664736328144,0.0597561463134495,0.413517999999385,
-0.00699106884765632,-0.034907460205078,0.0420421811523415,0.05509038770646,0.416486000000077,
-0.00938527050781257,0.0057939680175782,0.0444363828124974,0.0457847735098946,0.41940600000089,
0.0265277543945311,0.0177649763183595,-0.0154186586914093,0.0354549174678296,0.422416999999768,
-0.00220266552734383,-0.0109654436035155,0.049224786132811,0.0504794241118915,0.425382999999783,
0.0552581743164062,-0.0229364519042968,0.0181001645507788,0.0625073004656714,0.42843300000095,
0.0145567460937499,0.0153707746582032,0.0157059628906229,0.026359757979784,0.431373999999778,
0.00737414111328116,-0.00138863696289054,-0.003447650390628,0.00825787884321917,0.434325000000172,
-0.0117794721679688,0.00339976635742195,-0.0178128603515653,0.0216243466894465,0.437321999999767,
0.00497993945312492,-0.00857124194335929,0.049224786132811,0.050213001854394,0.44029799999953,
-0.00459686718750008,0.0105823713378907,0.00612915624999744,0.013064621211861,0.443289000000732,
0.0313161577148437,0.012976572998047,0.0204943662109347,0.0396120212458606,0.446255000000747,
-0.0381156904296876,-0.0133596452636718,-0.0441490786132839,0.059836670369472,0.449180999999953,
-0.00699106884765632,-0.0181480485839843,0.00612915624999744,0.0203910094741827,0.45220800000061,
-0.0165678754882813,-0.025330653564453,0.0276769711914042,0.0410140371400738,0.455169000000751,
0.0121625444335937,-0.0396958635253905,0.0564073911132787,0.0700391521959823,0.458221000000776,
0.0121625444335937,0.0105823713378907,0.0300711728515601,0.0341202213782466,0.461171000000832,
0.0528639726562499,0.022553379638672,-0.0154186586914093,0.0595062145827558,0.464174000000639,
0.0169509477539062,-0.00378283862304679,0.0372537778320297,0.0411033874584796,0.467152999999598,
-0.0213562788085938,-0.0396958635253905,0.0588015927734347,0.0740910219815442,0.470086999999694,
0.0217393510742186,-0.0444842668457031,0.0372537778320297,0.0619620314764298,0.473126000000775,
-0.00220266552734383,-0.0325132585449218,-0.00105344873047031,0.0326048074808303,0.476075000000492,
0.00737414111328116,-0.0420900651855468,-0.0369664736328144,0.0565019620661772,0.479181000000608,
0.00258573779296867,0.0010055646972657,0.00612915624999744,0.00672783446818188,0.482239999999365,
0.0169509477539062,-0.00617704028320304,0.034859576171872,0.0392515032489013,0.485275000000911,
0.0337103593749999,-0.0229364519042968,0.0228885678710924,0.0467584825923529,0.488370000000941,
0.0265277543945311,-0.00857124194335929,-0.0154186586914093,0.0318578558209799,0.491319000000658,
0.0145567460937499,-0.00378283862304679,0.0157059628906229,0.0217459420400115,0.494367999999668,
0.0289219560546874,-0.0205422502441406,0.0204943662109347,0.0409692889065708,0.497333999999682,
-0.00459686718750008,0.0010055646972657,0.0468305844726533,0.0470663998023029,0.500281000000541,
0.00737414111328116,0.00818816967773445,-0.0393606752929703,0.0408740362497832,0.503278000000137,
-0.00699106884765632,-0.025330653564453,-0.0441490786132839,0.0513776040316881,0.506240000000616,
0.0384987626953124,-0.00378283862304679,-0.0178128603515653,0.0425882917128917,0.509285000000091,
0.0145567460937499,-0.0181480485839843,-0.0585142885742211,0.0629696156220743,0.512254000001121,
0.00019153613281242,-0.00617704028320304,-0.0369664736328144,0.0374794968695692,0.515225999999529,
-0.0117794721679688,0.0057939680175782,0.010917559570311,0.0170739315014428,0.518245000001116,
0.00976834277343741,-0.0396958635253905,-0.0393606752929703,0.0567489635243185,0.521243999999569,
-0.00459686718750008,0.012976572998047,0.00373495458984152,0.0142643794292403,0.524273999999423,
0.00737414111328116,0.00818816967773445,-0.0321780703125025,0.0340125313504642,0.527212000000873,
0.00976834277343741,-0.0205422502441406,0.0444363828124974,0.0499199026750962,0.530177000000549,
0.0265277543945311,-0.00857124194335929,0.0827436093749974,0.0873137608517141,0.533212000000276,
0.0145567460937499,-0.0133596452636718,0.013311761230467,0.0238239787916715,0.536180999999488,
0.0145567460937499,0.0153707746582032,0.0181001645507788,0.0278527472109384,0.539200999999593,
-0.0117794721679688,-0.00857124194335929,0.0204943662109347,0.025144406920734,0.542169000000285,
0.0313161577148437,-0.0396958635253905,0.0228885678710924,0.0555008995804302,0.545116000001144,
0.0193451494140624,0.0057939680175782,0.00612915624999744,0.0211038249513684,0.548130000001038,
0.0289219560546874,-0.0133596452636718,0.0683783994140601,0.0754358347871166,0.55112200000076,
0.0145567460937499,0.0105823713378907,-0.0202070620117212,0.0270593938423694,0.554129000000103,
0.00497993945312492,0.0057939680175782,0.0157059628906229,0.0174655985487796,0.557092999999441,
0.00258573779296867,-0.0205422502441406,0.104291424316404,0.106326719459274,0.560126000000309,
-0.00699106884765632,-0.0133596452636718,-0.003447650390628,0.015467432185719,0.563067000000956,
0.0145567460937499,-0.00617704028320304,0.0420421811523415,0.044917698956475,0.566032000000632,
-0.0213562788085938,-0.0109654436035155,-0.0273896669921889,0.0364214971674048,0.569041000000652,
0.00019153613281242,-0.0277248552246093,0.049224786132811,0.0564958746559136,0.572017000000415,
0.0193451494140624,0.0057939680175782,0.010917559570311,0.0229564365312304,0.575041000000056,
0.00258573779296867,-0.0301190568847655,-0.0202070620117212,0.036361641639333,0.57801500000096,
0.00976834277343741,-0.0181480485839843,0.0157059628906229,0.0259123418136541,0.580971999999747,
0.0121625444335937,-0.0396958635253905,0.0683783994140601,0.0799955909694672,0.584016000000702,
-0.00220266552734383,-0.025330653564453,-0.00105344873047031,0.0254480549287252,0.586950000000797,
-0.00220266552734383,-0.00617704028320304,-0.0226012636718771,0.023533480015743,0.589974000000439,
0.0169509477539062,-0.0277248552246093,-0.024995465332033,0.0409972622762309,0.59294299999965,
0.0217393510742186,0.00339976635742195,-0.0297838686523466,0.037030212371973,0.595875999999407,
0.0193451494140624,0.0105823713378907,-0.00584185205078391,0.022811151316158,0.598884000000908,
-0.00459686718750008,-0.0109654436035155,0.0300711728515601,0.0323364744217703,0.601859000000331,
-0.0333272871093751,-0.0181480485839843,-0.00105344873047031,0.0379627381481513,0.604859999999462,
0.0217393510742186,-0.0157538469238281,0.00134075292968561,0.026880861155216,0.607831999999689,
0.00737414111328116,-0.0229364519042968,0.0300711728515601,0.0385322490880705,0.610774000000674,
-0.00459686718750008,-0.0109654436035155,0.0731668027343719,0.0741266022675523,0.613790999999765,
0.0217393510742186,-0.00617704028320304,0.032465374511716,0.0395569937428823,0.616791000000376,
-0.0357214887695314,0.0010055646972657,0.0157059628906229,0.0390347689962905,0.619880000000194,
-0.0189620771484376,-0.00378283862304679,0.00373495458984152,0.0196931491544519,0.622935999999754,
-0.00699106884765632,0.0057939680175782,0.00373495458984152,0.00981809527401155,0.625950999999986,
0.0337103593749999,0.0057939680175782,-0.0130244570312517,0.0366004764386925,0.628979000000982,
-0.0189620771484376,-0.0181480485839843,-0.041754876953128,0.0493191827442508,0.631938000000446,
-0.00459686718750008,0.0010055646972657,-0.003447650390628,0.00583340736755966,0.634925000000294,
0.0169509477539062,-0.0109654436035155,0.0300711728515601,0.0362194839809452,0.637909000000946,
0.0432871660156249,-0.0133596452636718,0.00852335791015335,0.0460967080527449,0.64089100000092,
-0.00699106884765632,-0.0109654436035155,0.0588015927734347,0.060222448553238,0.64390000000094,
0.00497993945312492,-0.00617704028320304,-0.0321780703125025,0.0331418743080934,0.646855000000869,
0.0265277543945311,-0.0373016618652343,0.00612915624999744,0.046181189757971,0.649907000000894,
0.0289219560546874,0.0297359846191407,0.00612915624999744,0.0419317884144705,0.652847999999722,
-0.0165678754882813,-0.0325132585449218,0.0300711728515601,0.0472851130491673,0.655887000000803,
0.0217393510742186,-0.00857124194335929,-0.0130244570312517,0.0267526083688797,0.658870000001116,
0.0193451494140624,-0.0325132585449218,-0.00105344873047031,0.0378478076153568,0.661856000000625,
-0.0476924970703126,-0.0301190568847655,0.0372537778320297,0.0675986377613317,0.664882999999463,
0.00497993945312492,-0.00378283862304679,0.0228885678710924,0.0237275410482082,0.667858000000706,
0.00737414111328116,-0.0229364519042968,0.0635899960937483,0.0680010763614785,0.67087900000115,
0.0145567460937499,-0.0133596452636718,-0.00105344873047031,0.019786074209827,0.673840999999811,
0.00497993945312492,0.0177649763183595,-0.0106302553710957,0.0212931094442163,0.676758999999947,
0.00019153613281242,-0.0157538469238281,0.013311761230467,0.0206257937070684,0.679802000000564,
-0.0165678754882813,0.0201591779785157,0.010917559570311,0.0282856865204993,0.682736000000659,
-0.0117794721679688,-0.0420900651855468,-0.0896389101562516,0.099726946037067,0.685761000000639,
-0.0189620771484376,0.00818816967773445,0.0420421811523415,0.0468417707660691,0.688711000000694,
-0.0117794721679688,-0.0109654436035155,-0.0369664736328144,0.0403177019536505,0.691646000001128,
0.00019153613281242,0.00339976635742195,-0.0202070620117212,0.0204919606802467,0.694658000000345,
0.00019153613281242,-0.0157538469238281,-0.00105344873047031,0.0157901910443575,0.697637999999642,
0.00497993945312492,-0.00857124194335929,0.0228885678710924,0.0249429854788474,0.700683999999455,
-0.0189620771484376,-0.00617704028320304,0.0300711728515601,0.0360831211664404,0.703643000000739,
0.00019153613281242,-0.0181480485839843,0.0181001645507788,0.0256320953154848,0.706600999999864,
-0.0117794721679688,-0.00138863696289054,0.013311761230467,0.0178293932658299,0.709613999999419,
0.00976834277343741,0.0177649763183595,-0.0345722719726584,0.0400781348553386,0.712557000000743,
-0.0572693037109376,-0.0133596452636718,0.0516189877929669,0.0782481512233818,0.715609000000768,
-0.00459686718750008,-0.00857124194335929,-0.003447650390628,0.0103190924798217,0.718550999999934,
0.0145567460937499,-0.00378283862304679,0.00852335791015335,0.0172874623629523,0.721505999999863,
0.0169509477539062,0.022553379638672,0.0228885678710924,0.0363300991200316,0.724521000000095,
0.0241335527343749,0.0010055646972657,0.010917559570311,0.0265072185435313,0.72748700000011,
-0.00459686718750008,0.0201591779785157,0.0564073911132787,0.0600775949661385,0.730483999999706,
0.00737414111328116,-0.0157538469238281,0.0564073911132787,0.0590284289327133,0.733470000001034,
0.0337103593749999,0.0105823713378907,0.0420421811523415,0.0549173916748689,0.736405999999988,
-0.00938527050781257,0.0105823713378907,-0.063302691894533,0.0648637085490184,0.739389000000301,
0.0121625444335937,-0.0229364519042968,0.0204943662109347,0.033076084403163,0.742357999999513,
0.0121625444335937,0.0010055646972657,0.00852335791015335,0.0148857743340446,0.745378999999957,
-0.0213562788085938,-0.0181480485839843,0.104291424316404,0.107991404740846,0.748329000000012,
0.00497993945312492,-0.0157538469238281,0.0300711728515601,0.0343112070106052,0.751358999999866,
0.00737414111328116,-0.0181480485839843,0.034859576171872,0.039986493662833,0.754318999999668,
-0.00220266552734383,-0.0277248552246093,0.0204943662109347,0.0345476247959074,0.757332000001043,
-0.0141736738281251,-0.0205422502441406,-0.00105344873047031,0.0249797283633489,0.760433999999805,
-0.00938527050781257,0.0201591779785157,0.049224786132811,0.0540143992755198,0.763478000000759,
-0.0189620771484376,0.00339976635742195,-0.0369664736328144,0.0416849967483976,0.766510999999809,
0.00976834277343741,-0.0373016618652343,-0.0273896669921889,0.0472972341304504,0.769486999999572,
0.00497993945312492,0.0105823713378907,0.00852335791015335,0.0144718350652008,0.772423000000344,
-0.0237504804687501,-0.0109654436035155,-0.0537258852539093,0.0597561463134512,0.775439000000915,
-0.0117794721679688,-0.00138863696289054,-0.0154186586914093,0.0194530026734392,0.77840500000093,
0.0265277543945311,-0.00138863696289054,-0.0369664736328144,0.0455210966330649,0.781440000000657,
0.0145567460937499,-0.0157538469238281,-0.0345722719726584,0.0406856797791161,0.784410000000207,
0.0169509477539062,-0.0205422502441406,0.0659841977539042,0.0711563983635687,0.787383000000773,
-0.0189620771484376,0.0057939680175782,0.0396479794921856,0.0443293662596792,0.790369000000283,
-0.00699106884765632,-0.0181480485839843,0.0611957944335924,0.064211774367306,0.793352000000596,
0.0241335527343749,-0.00138863696289054,0.070772601074216,0.0747871495847227,0.796378999999433,
0.00497993945312492,-0.0444842668457031,0.0755610043945296,0.0878243427465679,0.799371000000974,
-0.0285388837890626,-0.00138863696289054,0.0611957944335924,0.0675375558996535,0.802314000000479,
0.0217393510742186,-0.00617704028320304,-0.0130244570312517,0.0260843189051845,0.805356000000756,
-0.0213562788085938,0.0010055646972657,0.0157059628906229,0.0265288347884411,0.80830700000115,
0.0145567460937499,0.0153707746582032,-0.0273896669921889,0.0346172417788328,0.811321999999564,
0.0169509477539062,-0.00617704028320304,0.013311761230467,0.0224208261104031,0.814297000000806,
-0.0165678754882813,-0.00378283862304679,0.00612915624999744,0.0180657389159727,0.817226000001028,
-0.0381156904296876,-0.0109654436035155,0.00134075292968561,0.0396843096043275,0.820245000000796,
-0.0237504804687501,0.0105823713378907,0.0276769711914042,0.037974815864719,0.823185000001104,
-0.00459686718750008,-0.0157538469238281,-0.003447650390628,0.0167690540596337,0.826187000000573,
0.0193451494140624,-0.0325132585449218,0.0827436093749974,0.0909826998910424,0.829197000000931,
0.0265277543945311,-0.0181480485839843,0.0564073911132787,0.0649220085397057,0.832141000000775,
0.00976834277343741,0.051283799560547,0.00373495458984152,0.0523392634997274,0.83516100000088,
-0.0285388837890626,-0.00378283862304679,0.0444363828124974,0.0529468589571889,0.838116000000809,
0.0169509477539062,-0.025330653564453,0.0204943662109347,0.0367286766184938,0.841168999999354,
0.0600465776367187,-0.0157538469238281,0.0564073911132787,0.0838782984507214,0.844144000000597,
0.00258573779296867,-0.0229364519042968,0.070772601074216,0.0744414395931609,0.847170999999435,
0.00258573779296867,0.0105823713378907,-0.0561200869140652,0.0571676200161353,0.850109000000884,
-0.00938527050781257,0.0057939680175782,0.049224786132811,0.0504453460461371,0.85305100000005,
0.0241335527343749,-0.0325132585449218,-0.0297838686523466,0.0502654869735887,0.856095999999525,
0.0265277543945311,-0.00617704028320304,-0.041754876953128,0.049853257960215,0.859067999999752,
0.00019153613281242,-0.0157538469238281,-0.0202070620117212,0.0256231484040335,0.862100000000282,
-0.00220266552734383,-0.00378283862304679,0.034859576171872,0.0351333410645203,0.865076000000045,
0.00497993945312492,-0.0444842668457031,-0.0393606752929703,0.0596063130320535,0.868022000000565,
-0.0117794721679688,-0.00617704028320304,0.010917559570311,0.0172076988056961,0.871071999999913,
0.00976834277343741,-0.00617704028320304,0.0755610043945296,0.0764397915506695,0.874049000000014,
0.00497993945312492,0.012976572998047,-0.0609084902343771,0.0624742781179714,0.877061000001049,
0.00976834277343741,-0.0133596452636718,-0.0321780703125025,0.0361846493854351,0.880037000000812,
-0.0189620771484376,0.0057939680175782,0.010917559570311,0.0226345652077372,0.882974000000104,
0.00258573779296867,-0.025330653564453,-0.003447650390628,0.025694636466631,0.886000000000422,
-0.0333272871093751,-0.025330653564453,0.0827436093749974,0.0927300111532141,0.888978999999381,
0.0313161577148437,0.0010055646972657,0.013311761230467,0.0340428536030444,0.891999999999825,
0.0408929643554687,0.00339976635742195,-0.0656968935546889,0.0774588585495475,0.894972000000053,
-0.00699106884765632,-0.025330653564453,0.0468305844726533,0.0536993547045523,0.898012999999992,
0.00976834277343741,0.00818816967773445,-0.0154186586914093,0.0200050413409448,0.901123999999982,
0.0241335527343749,0.0105823713378907,-0.0202070620117212,0.0332075338720208,0.90415799999937,
0.0145567460937499,0.0105823713378907,0.0396479794921856,0.043541333440579,0.907218000000285,
0.0289219560546874,-0.0277248552246093,-0.0369664736328144,0.0545130013125344,0.910186000000976,
-0.0165678754882813,0.0369185895996095,0.0755610043945296,0.0857143053482306,0.913125000000946,
0.0169509477539062,-0.0229364519042968,0.00612915624999744,0.0291715959805195,0.916188000001057,
0.00497993945312492,0.0177649763183595,0.0420421811523415,0.0459122987509334,0.919165000001158,
0.0193451494140624,-0.025330653564453,0.0204943662109347,0.0378932165729255,0.922195999999531,
0.00976834277343741,0.0010055646972657,0.0252827695312483,0.0271228707195601,0.925156999999672,
0.0241335527343749,0.0369185895996095,-0.00823605371093983,0.0448691788016756,0.928089999999429,
-0.0117794721679688,0.00818816967773445,-0.0345722719726584,0.0374305233276104,0.931108000000677,
0.00258573779296867,-0.0133596452636718,0.0252827695312483,0.0287120984373374,0.93409100000099,
0.00976834277343741,0.0273417829589845,0.00373495458984152,0.0292735973481866,0.937139999999999,
-0.0189620771484376,-0.00857124194335929,0.0540131894531228,0.0578830820977411,0.94012500000099,
0.00019153613281242,0.0010055646972657,0.0252827695312483,0.025303483586668,0.943149000000631,
0.0408929643554687,-0.0109654436035155,0.013311761230467,0.0443810598595445,0.946122999999716,
0.0217393510742186,0.00339976635742195,-0.0178128603515653,0.0283099945305109,0.949061000001166,
-0.0285388837890626,0.0057939680175782,-0.0537258852539093,0.0611106267324315,0.952048000001014,
-0.00699106884765632,-0.00378283862304679,0.00134075292968561,0.00806117423823265,0.955014999999548,
0.0289219560546874,-0.025330653564453,-0.00105344873047031,0.0384607762045872,0.958027000000584,
0.0169509477539062,0.00818816967773445,-0.0513316835937516,0.0546746970087266,0.960986000000048,
0.0169509477539062,-0.0133596452636718,-0.0537258852539093,0.0578989248401301,0.963933000000907,
0.0145567460937499,0.0105823713378907,0.032465374511716,0.0371198866129316,0.96697900000072,
0.0241335527343749,-0.0277248552246093,0.0468305844726533,0.0595331807218354,0.969963999999891,
-0.0429040937500001,0.0057939680175782,-0.0297838686523466,0.0525491213798837,0.972948000000542,
0.00258573779296867,-0.034907460205078,0.0540131894531228,0.064363354890823,0.975922999999966,
0.00019153613281242,0.00818816967773445,0.049224786132811,0.0499015268161459,0.978857000000062,
0.00019153613281242,-0.0229364519042968,-0.0273896669921889,0.0357255002762914,0.981884000000719,
0.0217393510742186,-0.0205422502441406,0.013311761230467,0.0327381492647032,0.984862999999677,
-0.0141736738281251,0.032130186279297,-0.003447650390628,0.0352863740464276,0.987833000001046,
0.0265277543945311,-0.0516668718261718,0.0157059628906229,0.0601653111671522,0.990815999999541,
0.0337103593749999,0.012976572998047,-0.0513316835937516,0.0627672009614442,0.993743999999424,
0.0193451494140624,0.0153707746582032,-0.0130244570312517,0.0279308431738926,0.996767000000546,
-0.00459686718750008,0.0010055646972657,-0.0656968935546889,0.0658651969634649,0.99968699999954,
0.0193451494140624,-0.00617704028320304,0.070772601074216,0.0736284706843951,1.00274100000024,
-0.00220266552734383,-0.0109654436035155,-0.024995465332033,0.0273836808338852,1.00567700000101,
0.0384987626953124,-0.00617704028320304,-0.0178128603515653,0.0428673366286577,1.00862600000073,
-0.0189620771484376,-0.034907460205078,0.0372537778320297,0.0544603994707221,1.0116620000008,
-0.0213562788085938,0.0273417829589845,0.0372537778320297,0.0509068531995922,1.01460000000043,
