X,Y,Z,Magnitude,Seconds,
-0.03447650390625,-0.0141257897949216,-0.0520020600585944,0.063971724294923,0.0,
-0.0105344873046875,-0.0213083947753905,0.00306457812499872,0.0239669511986972,0.00382499999977881,
-0.0416591088867188,-0.00454898315429664,-0.0687614716796894,0.0805252419340066,0.00772400000096241,
-0.0177170922851563,-0.0572214196777341,-0.0687614716796894,0.0911938935265561,0.0117460000001302,
-0.0368707055664063,-0.00454898315429664,-0.0280600434570317,0.0465565056196575,0.0156160000005912,
0.0253785375976563,-0.0428562097167966,0.0557370146484359,0.0747485095758147,0.0196250000008149,
-0.0105344873046875,-0.00454898315429664,0.00785298144531055,0.0139046031259827,0.0235069999998814,
-0.024899697265625,0.0122104284667972,-0.00172382519531311,0.0277859867661118,0.0274890000000596,
-0.03447650390625,-0.00215478149414028,-0.0687614716796894,0.0769507140476415,0.0313000000005559,
-0.0225054956054688,-0.0404620080566404,-0.0543962617187521,0.0714326586191385,0.0352280000006431,
-0.015322890625,-0.00694318481445277,-0.0184832368164081,0.0249925756112647,0.0391130000007252,
0.00622492431640626,-0.0404620080566404,0.0222181914062478,0.0465786625836904,0.0429930000009335,
-0.024899697265625,-0.0476446130371091,-0.0496078583984385,0.0731501448409719,0.0469020000000455,
-0.0105344873046875,-0.0117315881347655,-0.0232716401367199,0.0281100483384391,0.0508190000000468,
0.00383072265625,-0.016519991455078,0.000670376464842803,0.0169715632264554,0.0546680000006745,
-0.0177170922851563,-0.016519991455078,-0.0136948334960945,0.0278272158363416,0.0584950000011304,
-0.005746083984375,-0.0356736047363279,-0.0256658417968758,0.0443210896885614,0.0622419999999693,
-0.0608127221679688,0.00263362182617222,0.00545877978515463,0.0611140034537475,0.0660040000002482,
0.0158017309570313,-0.026096798095703,0.0461602080078105,0.055330844701763,0.0698620000002848,
-0.0272938989257813,-0.00454898315429664,-0.0136948334960945,0.0308739150545341,0.073750999999902,
-0.024899697265625,0.00981622680664085,-0.0328484467773453,0.0423718501876337,0.0775830000002316,
-0.044053310546875,-0.0356736047363279,0.0485544096679682,0.0746379993249286,0.0815160000001924,
0.00143652099609375,-0.00215478149414028,-0.00890643017578263,0.00927529915074436,0.0854730000010022,
0.0205901342773438,0.0337582434082033,-0.0520020600585944,0.0653283007425129,0.0894600000010541,
-0.0201112939453125,0.000239420166015858,0.000670376464842803,0.0201238880630775,0.0933380000005855,
-0.0488417138671875,-0.00694318481445277,0.0389776030273428,0.0628726837872298,0.0971810000010009,
-0.0392649072265625,-0.00454898315429664,0.0198239897460919,0.0442200944899691,0.101098000001002,
0.0158017309570313,-0.00694318481445277,-0.0376368500976572,0.0414057363402653,0.104937000000064,
-0.0608127221679688,0.0241814367675783,0.017429788085936,0.0677253761476714,0.108899000000747,
-0.000957680664062498,-0.0524330163574216,-0.00172382519531311,0.0524700860481089,0.112742999999682,
0.00143652099609375,-0.0308852014160154,-0.0304542451171894,0.0433983905777381,0.116605000001073,
0.0181959326171875,-0.0117315881347655,-0.0831266816406266,0.0858997515977497,0.120516000000862,
-0.0416591088867188,0.00742202514648471,-0.0543962617187521,0.0689167693633815,0.124470000000656,
0.00622492431640626,-0.0189141931152341,0.0102471831054682,0.0223942212533133,0.128362999999808,
-0.0464475122070312,-0.0284909997558591,-0.0448194550781267,0.0705541778409393,0.132117000001017,
-0.0177170922851563,-0.0428562097167966,0.00785298144531055,0.0470342363381312,0.135904000000664,
-0.0296881005859375,-0.0117315881347655,-0.0041180268554708,0.0321865130411309,0.139725999999428,
-0.0464475122070312,0.0169988317871097,-0.0184832368164081,0.0528011525968912,0.143591000000015,
-0.0129286889648438,0.000239420166015858,-0.0998860932617198,0.100719610540622,0.14736400000038,
-0.0129286889648438,-0.016519991455078,0.0102471831054682,0.0233466459608766,0.151310000001104,
-0.00814028564453125,-0.00933738647460913,-0.0663672700195335,0.067513447300493,0.155243999999584,
-0.0177170922851563,-0.0284909997558591,-0.0304542451171894,0.0453110744938471,0.159037999999782,
0.0110133276367188,0.00502782348632835,0.0102471831054682,0.015861183948255,0.163021000000299,
-0.0320823022460938,-0.0117315881347655,-0.0400310517578131,0.0526249881939197,0.166893999999957,
-0.0225054956054688,-0.0308852014160154,0.0102471831054682,0.0395651078673192,0.170755000001009,
-0.0296881005859375,0.0122104284667972,-0.0687614716796894,0.0758855576990789,0.174715999999535,
0.0110133276367188,-0.0428562097167966,-0.00890643017578263,0.0451361561876934,0.178695000000516,
0.00383072265625,0.0313640417480472,-0.0160890351562522,0.0354575041860178,0.18264900000031,
-0.0177170922851563,0.0169988317871097,-0.00172382519531311,0.0246135575338306,0.186564999999973,
-0.0201112939453125,-0.00454898315429664,-0.0711556733398453,0.0740829753745056,0.19049300000006,
-0.015322890625,0.00263362182617222,0.00306457812499872,0.0158467214310476,0.194392999999764,
0.00143652099609375,0.00263362182617222,-0.0256658417968758,0.0258405687173825,0.198330999999598,
-0.005746083984375,-0.0237025964355466,0.017429788085936,0.0299771258072303,0.20221599999968,
-0.0416591088867188,0.00502782348632835,0.00785298144531055,0.0426899248046369,0.206025999999838,
0.0253785375976563,-0.0380678063964841,-0.0520020600585944,0.0692635712678281,0.209802999999738,
-0.0272938989257813,0.0193930334472658,-0.0280600434570317,0.0436853831809685,0.213692000001174,
-0.00814028564453125,-0.00454898315429664,-0.0280600434570317,0.0295689623917233,0.217512999999599,
-0.00814028564453125,-0.0428562097167966,0.00545877978515463,0.043962680063975,0.221356000000014,
0.032561142578125,-0.00933738647460913,-0.00172382519531311,0.0339173460853469,0.225406999999905,
-0.0177170922851563,-0.0356736047363279,0.0198239897460919,0.0444914823688496,0.229417000000467,
-0.00335188232421875,-0.0356736047363279,-0.00172382519531311,0.0358721725478561,0.233267999999953,
-0.03447650390625,-0.016519991455078,0.0126413847656242,0.0402659167046533,0.237212,
-0.0201112939453125,0.0217872351074222,0.0341891997070292,0.0452553768561038,0.241087000000334,
-0.005746083984375,-0.0117315881347655,-0.0520020600585944,0.0536177385914114,0.244909000000916,
-0.0512359155273438,0.0313640417480472,-0.0232716401367199,0.0644235313325135,0.248778000001039,
-0.00335188232421875,-0.00694318481445277,-0.0304542451171894,0.0314150278710829,0.25274200000058,
-0.0105344873046875,-0.0404620080566404,-0.0879150849609385,0.0973509716563593,0.256596999999601,
0.00383072265625,0.0169988317871097,-0.0136948334960945,0.0221626528800437,0.260483000000022,
-0.015322890625,-0.0356736047363279,-0.0136948334960945,0.041169716011593,0.264451999999437,
-0.0320823022460938,-0.00215478149414028,0.0317949980468732,0.0452198971858393,0.268391999999949,
-0.0177170922851563,0.0672770666503908,-0.0232716401367199,0.0733598547624984,0.272294000000329,
-0.00335188232421875,-0.131441671142578,0.0198239897460919,0.132970442570227,0.276283999999578,
-0.09193734375,-0.0835576379394529,-0.0998860932617198,0.15941011781225,0.280074000000241,
0.013407529296875,0.239659586181641,0.0102471831054682,0.240252958050882,0.283934999999474,
0.106781394042969,-0.222421334228515,-0.0639730683593758,0.25488442382591,0.287819999999556,
-0.115879360351563,-0.0141257897949216,-0.00651222851562672,0.116918660670816,0.291688000001159,
-0.156580788574219,0.237265384521485,0.0126413847656242,0.284556164318127,0.295535999999629,
0.15705962890625,-0.239180745849609,-0.128616513183594,0.313715418302719,0.299641999999949,
0.00143652099609375,0.254024796142578,0.017429788085936,0.254626114451309,0.303546000001006,
-0.0512359155273438,-0.27030536743164,-0.0520020600585944,0.27998986580342,0.307518999999957,
-0.0751779321289062,0.146285721435547,-0.0400310517578131,0.169274093942143,0.311260000000402,
0.0565031591796875,0.124737906494141,-0.0424252534179708,0.1433598773765,0.314281000000847,
0.0995987890625,-0.215238729248047,-0.0136948334960945,0.237560892858055,0.317301000000953,
-0.0656011254882813,0.0385466467285158,-0.0400310517578131,0.0859757916170531,0.320325000000594,
-0.135032973632813,0.0840364782714846,-0.0160890351562522,0.159858971286108,0.323280000000523,
-0.0416591088867188,-0.112288057861328,-0.020877438476564,0.121572845359674,0.326324999999997,
0.0469263525390625,-0.0284909997558591,0.0294007963867173,0.0622754081309946,0.329322999999931,
0.0493205541992188,0.0984016882324221,-0.00172382519531311,0.11008351777997,0.332296000000497,
-0.0656011254882813,-0.0213083947753905,-0.0328484467773453,0.0763974856190778,0.335419999999431,
-0.0536301171875,-0.131441671142578,-0.020877438476564,0.143488570344963,0.338372000000163,
-0.0488417138671875,0.00263362182617222,-0.0184832368164081,0.052288421477598,0.341518000001088,
0.0301669409179688,0.0313640417480472,-0.00651222851562672,0.044001779047684,0.344536000000517,
0.08044517578125,-0.0284909997558591,0.0294007963867173,0.0902638920152338,0.347540000000663,
-0.024899697265625,-0.00694318481445277,-0.0352426484375012,0.0437063726266174,0.350581000000602,
-0.0799663354492188,0.00263362182617222,0.00306457812499872,0.0800683608436222,0.3535609999999,
-0.0416591088867188,-0.0117315881347655,-0.0256658417968758,0.0503174616663193,0.356648999999379,
-0.000957680664062498,0.000239420166015858,0.0461602080078105,0.0461707621508953,0.359646000000794,
0.00622492431640626,0.0672770666503908,-0.056790463378908,0.0882616004308624,0.362592999999833,
-0.0201112939453125,-0.0572214196777341,0.0126413847656242,0.0619561104563762,0.365638999999646,
-0.0560243188476563,-0.0332794030761716,-0.0711556733398453,0.0964850911793989,0.368614999999409,
-0.07278373046875,-0.0237025964355466,-0.0160890351562522,0.0782185499162005,0.371613000001162,
0.032561142578125,0.0217872351074222,-0.0328484467773453,0.0511266278499097,0.374622999999701,
0.0253785375976563,-0.0500388146972653,-0.0472136567382826,0.0733285928509697,0.377721000000747,
0.00143652099609375,-0.0308852014160154,-0.0160890351562522,0.0348542151158102,0.380698000000848,
-0.0775721337890625,-0.016519991455078,-0.0424252534179708,0.08994580693864,0.38362700000107,
-0.0368707055664063,-0.0380678063964841,-0.0256658417968758,0.0588841425848002,0.386666000000332,
0.0301669409179688,-0.0644040246582029,0.0222181914062478,0.0745088635390938,0.389664000000266,
0.0301669409179688,0.0169988317871097,-0.0591846650390639,0.068569885389002,0.392726000000039,
-0.0129286889648438,-0.0308852014160154,0.0126413847656242,0.0357889825735528,0.395695999999589,
-0.0296881005859375,-0.016519991455078,0.00785298144531055,0.0348706574594885,0.398703000000751,
-0.0129286889648438,-0.0356736047363279,-0.0041180268554708,0.0381669388137928,0.401765000000523,
-0.005746083984375,-0.0189141931152341,-0.0184832368164081,0.0270627830344051,0.404743000000963,
0.0565031591796875,-0.00454898315429664,-0.0448194550781267,0.0722639868712168,0.407806000001074,
-0.00335188232421875,-0.0620098229980467,-0.0472136567382826,0.0780101445067555,0.410780000000159,
-0.0416591088867188,-0.016519991455078,0.00545877978515463,0.0451463148845413,0.413739999999962,
-0.03447650390625,0.00502782348632835,-0.078338278320313,0.0857367726287745,0.416834999999992,
-0.005746083984375,-0.026096798095703,-0.0687614716796894,0.0737712704212155,0.419831000001068,
-0.0201112939453125,-0.0117315881347655,0.0509486113281241,0.0560165627344519,0.422910999999658,
-0.063206923828125,0.00502782348632835,-0.0256658417968758,0.0684041640835288,0.42595799999981,
0.00143652099609375,-0.0452504113769528,0.0150355864257801,0.0477046348012725,0.428949000001012,
-0.0201112939453125,0.0265756384277347,-0.0184832368164081,0.0381098247858459,0.43203800000083,
-0.00814028564453125,0.0193930334472658,0.00545877978515463,0.0217290651755695,0.435026999999536,
0.00143652099609375,0.00502782348632835,-0.0400310517578131,0.0403711246613047,0.438131000000794,
0.00383072265625,-0.0213083947753905,0.017429788085936,0.0277942374727862,0.441165000000183,
-0.0416591088867188,-0.00694318481445277,0.0389776030273428,0.0574712337292341,0.444214000001011,
-0.0464475122070312,-0.00215478149414028,0.0150355864257801,0.0488680195288996,0.447237000000314,
0.00143652099609375,0.00263362182617222,-0.0113006318359385,0.0116920415833565,0.450238999999783,
-0.0272938989257813,-0.0428562097167966,0.00785298144531055,0.0514128480775108,0.453306999999768,
-0.03447650390625,0.00502782348632835,0.00306457812499872,0.0349757054209285,0.456352999999581,
0.0158017309570313,-0.0237025964355466,-0.0352426484375012,0.0453161345208756,0.459317000000738,
-0.0272938989257813,-0.0452504113769528,0.00785298144531055,0.0534249563961883,0.462352000000465,
-0.015322890625,-0.0237025964355466,-0.020877438476564,0.0351065733479474,0.46527900000001,
-0.00335188232421875,0.0361524450683597,-0.0232716401367199,0.0431254406839996,0.46836600000097,
-0.0177170922851563,-0.0141257897949216,0.113197854492187,0.115443438782831,0.471315000000686,
-0.0201112939453125,-0.0189141931152341,-0.00651222851562672,0.0283658239012174,0.474363999999696,
0.0301669409179688,-0.0237025964355466,0.0150355864257801,0.0412059008068226,0.477441999999428,
0.0158017309570313,-0.0428562097167966,-0.0400310517578131,0.0607357762555576,0.480405000000246,
0.0253785375976563,-0.0117315881347655,-0.0424252534179708,0.0508094721320588,0.483511000000362,
-0.0272938989257813,0.0289698400878908,0.0341891997070292,0.0524700860481079,0.486500000000888,
-0.044053310546875,0.0193930334472658,-0.0663672700195335,0.0819841353328304,0.489590999999564,
-0.0177170922851563,0.00502782348632835,-0.0160890351562522,0.0244546809488395,0.492581000000428,
-0.0536301171875,-0.0308852014160154,-0.00890643017578263,0.0625252719668528,0.495546000000104,
-0.00335188232421875,-0.00454898315429664,-0.0280600434570317,0.0286233191936923,0.498633000001064,
-0.024899697265625,-0.00454898315429664,-0.0113006318359385,0.0277198927045051,0.501594999999725,
-0.0225054956054688,0.000239420166015858,0.0198239897460919,0.0299924194408658,0.504652999999962,
-0.0225054956054688,-0.026096798095703,-0.0232716401367199,0.0415825617049822,0.507637000000614,
-0.000957680664062498,0.0122104284667972,-0.0328484467773453,0.0350575551241267,0.510612000000037,
-0.000957680664062498,-0.0332794030761716,0.0270065947265614,0.0428694760883003,0.513640000001033,
-0.044053310546875,-0.00454898315429664,0.0126413847656242,0.0460564004962398,0.516660000001139,
0.00622492431640626,-0.016519991455078,-0.0232716401367199,0.0292100844756366,0.519734999999855,
-0.005746083984375,-0.026096798095703,-0.0352426484375012,0.0442278715392532,0.522705999999744,
-0.0201112939453125,0.0193930334472658,-0.0496078583984385,0.0569341154785166,0.52565499999946,
-0.0272938989257813,-0.00454898315429664,-0.0615788666992199,0.067510051031451,0.528706999999486,
0.00622492431640626,-0.0141257897949216,-0.0256658417968758,0.0299503431569248,0.531672000000981,
-0.0679953271484375,-0.0213083947753905,-0.00651222851562672,0.0715529267197833,0.534703000001173,
-0.00335188232421875,-0.0380678063964841,-0.00651222851562672,0.0387659917865563,0.537635000000591,
0.00143652099609375,-0.0141257897949216,-0.0136948334960945,0.0197268850655211,0.54062200000044,
-0.0105344873046875,-0.026096798095703,-0.0256658417968758,0.0380887611870321,0.543735999999626,
-0.005746083984375,-0.0452504113769528,-0.0256658417968758,0.0523388254174777,0.546706000000995,
-0.0320823022460938,-0.0284909997558591,0.017429788085936,0.0463120793877657,0.549806999999419,
-0.005746083984375,-0.0284909997558591,-0.0496078583984385,0.0574951664326957,0.552779999999984,
-0.0105344873046875,-0.0141257897949216,0.0461602080078105,0.0494092922781461,0.555710000000545,
-0.0368707055664063,-0.0476446130371091,-0.0400310517578131,0.0723321725462273,0.558786999999938,
-0.00814028564453125,-0.0308852014160154,0.00545877978515463,0.0324030583992501,0.561807000000044,
-0.015322890625,0.00263362182617222,0.00545877978515463,0.0164780222651815,0.564902000000075,
0.00143652099609375,-0.00215478149414028,-0.0328484467773453,0.0329503737694096,0.567909999999756,
-0.0177170922851563,-0.0141257897949216,0.0102471831054682,0.0248684148664134,0.571045000000595,
-0.024899697265625,-0.00694318481445277,-0.0113006318359385,0.0282118241022953,0.574077000001125,
0.0110133276367188,-0.00454898315429664,0.0198239897460919,0.023129574203278,0.577079000000595,
-0.0320823022460938,-0.0141257897949216,0.0270065947265614,0.0442511944863046,0.580222000000504,
-0.0201112939453125,-0.0404620080566404,-0.0232716401367199,0.0508252641388452,0.583302000000913,
0.00622492431640626,-0.00215478149414028,-0.056790463378908,0.0571712296249046,0.586346000000049,
-0.0368707055664063,-0.0308852014160154,-0.00172382519531311,0.0481281224314481,0.589328000000023,
-0.005746083984375,-0.0524330163574216,-0.0520020600585944,0.074070594272159,0.592286999999487,
-0.0225054956054688,-0.00215478149414028,-0.0543962617187521,0.0589075012601132,0.595395000000281,
-0.015322890625,0.000239420166015858,-0.0615788666992199,0.0634571124704071,0.598369000001185,
-0.0129286889648438,-0.00454898315429664,0.0509486113281241,0.0527598828879671,0.601420999999391,
0.0110133276367188,-0.0213083947753905,-0.0615788666992199,0.0660855347069076,0.604376999999658,
-0.0177170922851563,0.0361524450683597,-0.0520020600585944,0.0657655600888426,0.607350000000224,
-0.0177170922851563,-0.0117315881347655,0.0365834013671869,0.0423068643933488,0.6104090000008,
-0.0584185205078125,-0.0524330163574216,-0.0639730683593758,0.101264496334958,0.613476000000446,
-0.005746083984375,-0.0356736047363279,-0.00890643017578263,0.0372148902257596,0.616502000000764,
-0.0201112939453125,-0.0404620080566404,-0.056790463378908,0.0725726874996475,0.619533999999476,
-0.0177170922851563,0.0169988317871097,-0.0232716401367199,0.0338293493259948,0.622487000000547,
-0.0272938989257813,0.0241814367675783,-0.0496078583984385,0.0615681607455889,0.625561000000744,
0.0181959326171875,0.0146046301269533,-0.0232716401367199,0.0329538528795547,0.628552000000127,
-0.005746083984375,0.00502782348632835,-0.128616513183594,0.128842942971941,0.631632000000536,
-0.0536301171875,-0.0237025964355466,-0.020877438476564,0.0622404208266146,0.634613000000172,
-0.0296881005859375,-0.0284909997558591,0.0389776030273428,0.056677808013774,0.637625999999727,
0.00622492431640626,-0.0380678063964841,-0.0113006318359385,0.0401946743546531,0.64070300000094,
-0.0225054956054688,0.00981622680664085,0.00306457812499872,0.0247436311048198,0.643745999999737,
-0.0799663354492188,-0.0428562097167966,0.0150355864257801,0.0919637883932264,0.646780000000945,
-0.0320823022460938,-0.026096798095703,-0.0687614716796894,0.0802399961105079,0.649757000001046,
-0.0225054956054688,0.00263362182617222,-0.0184832368164081,0.0292414660983762,0.65278600000056,
-0.0536301171875,-0.00694318481445277,-0.0136948334960945,0.0557848164772313,0.655839999999444,
-0.0201112939453125,-0.0284909997558591,-0.0543962617187521,0.0646154354641219,0.658784999999625,
-0.0272938989257813,-0.0356736047363279,0.0222181914062478,0.0501119848221878,0.661871000000247,
-0.024899697265625,0.0265756384277347,-0.0160890351562522,0.0398135219996998,0.664839000000939,
-0.0488417138671875,-0.026096798095703,-0.0759440766601571,0.0939896731779397,0.667867000000115,
-0.0177170922851563,-0.0332794030761716,0.0126413847656242,0.039764539943769,0.670830000000933,
-0.0177170922851563,0.00502782348632835,0.0198239897460919,0.0270585464780275,0.673847000000023,
-0.024899697265625,-0.00933738647460913,-0.0041180268554708,0.0269098468088981,0.676975000000311,
-0.0512359155273438,0.00263362182617222,-0.0591846650390639,0.0783254720996598,0.679970000001049,
0.00622492431640626,0.00263362182617222,-0.0687614716796894,0.0690928768703765,0.683031000000483,
-0.0177170922851563,0.0146046301269533,-0.0496078583984385,0.0546637923589773,0.686025000000882,
-0.0225054956054688,0.0217872351074222,0.0270065947265614,0.0413586400259801,0.689002000000983,
-0.0296881005859375,-0.0308852014160154,-0.0184832368164081,0.0466573576847211,0.692124000001058,
-0.0320823022460938,-0.0404620080566404,0.0270065947265614,0.0582735306302104,0.695181000000957,
-0.000957680664062498,-0.0452504113769528,-0.0352426484375012,0.0573634129992898,0.698284000000058,
-0.015322890625,-0.0117315881347655,-0.0184832368164081,0.0267217361052928,0.701317000000927,
-0.0416591088867188,-0.016519991455078,0.017429788085936,0.04808522625123,0.704353999999512,
0.0445321508789063,-0.0284909997558591,-0.00172382519531311,0.0528944335662462,0.70747400000073,
-0.03447650390625,0.0217872351074222,-0.00651222851562672,0.0413003880788486,0.710484999999608,
-0.0296881005859375,-0.0284909997558591,-0.0256658417968758,0.0484959361042899,0.71368000000075,
-0.0272938989257813,-0.0524330163574216,0.00785298144531055,0.0596309268793367,0.716705000000729,
-0.0105344873046875,-0.0284909997558591,0.0341891997070292,0.0457341651992043,0.71968200000083,
0.0205901342773438,0.00263362182617222,0.0222181914062478,0.0304062102677562,0.722791000000143,
0.0086191259765625,-0.0213083947753905,-0.0496078583984385,0.0546742776393367,0.725833000000421,
-0.0320823022460938,-0.00215478149414028,-0.0160890351562522,0.0359551700448812,0.72893699999986,
-0.0512359155273438,-0.0308852014160154,0.0294007963867173,0.0666589944014021,0.731916000000638,
0.0253785375976563,-0.0237025964355466,0.017429788085936,0.038854610551422,0.734904000000824,
-0.0272938989257813,-0.0308852014160154,0.0198239897460919,0.0457366718786113,0.737971000000471,
-0.0296881005859375,0.00263362182617222,-0.0376368500976572,0.0480088717384355,0.740982000001168,
-0.0225054956054688,-0.0141257897949216,-0.0424252534179708,0.0500593387626837,0.744112000000314,
-0.0201112939453125,-0.00215478149414028,-0.0855208833007826,0.087880195197714,0.747148000000379,
0.00622492431640626,0.00502782348632835,-0.0184832368164081,0.0201409715497064,0.750153000000864,
-0.0464475122070312,-0.0284909997558591,0.0246123930664055,0.0597902864164902,0.753248999999414,
0.013407529296875,-0.0332794030761716,-0.0232716401367199,0.0427650528540052,0.756256000000576,
0.0253785375976563,-0.0141257897949216,-0.0256658417968758,0.0387600766648909,0.759364999999889,
-0.0296881005859375,-0.0308852014160154,-0.0328484467773453,0.0539842517646829,0.762378999999783,
-0.03447650390625,-0.0380678063964841,-0.0448194550781267,0.0681657594319764,0.765487000000576,
-0.044053310546875,-0.026096798095703,0.0485544096679682,0.0705639266140439,0.768523000000641,
-0.0320823022460938,-0.016519991455078,-0.0591846650390639,0.0693181708563618,0.771485999999641,
0.0158017309570313,-0.00933738647460913,-0.0759440766601571,0.0781305591121581,0.774572000000262,
-0.005746083984375,-0.0237025964355466,-0.0113006318359385,0.0268800081628207,0.777571000000535,
0.0277727392578125,-0.0213083947753905,-0.0639730683593758,0.0729241126726935,0.780603000001065,
-0.0368707055664063,-0.00694318481445277,0.00306457812499872,0.0376437031044568,0.783629999999903,
-0.0225054956054688,-0.00454898315429664,-0.0280600434570317,0.0362568147938613,0.786599999999453,
0.00143652099609375,0.0122104284667972,-0.0136948334960945,0.0184039838187481,0.789721000001009,
0.013407529296875,-0.0189141931152341,-0.0256658417968758,0.0345867601574532,0.792687999999544,
-0.0488417138671875,0.00742202514648471,-0.0520020600585944,0.0717273568528559,0.795774000000165,
-0.0272938989257813,-0.0667982263183592,0.00785298144531055,0.0725853241050137,0.798754999999801,
0.0588973608398438,-0.0548272180175778,-0.0160890351562522,0.0820596124881472,0.801713000000746,
0.013407529296875,0.000239420166015858,-0.0472136567382826,0.0490810406008556,0.804828000000271,
-0.0320823022460938,-0.0141257897949216,-0.0256658417968758,0.0434459145361481,0.807849000000715,
-0.00335188232421875,-0.0476446130371091,-0.0448194550781267,0.0654983039480527,0.810926000000109,
-0.015322890625,0.0529118566894533,0.000670376464842803,0.0550899715014954,0.813964000000851,
-0.015322890625,-0.0811634362792967,0.0222181914062478,0.0855332823825546,0.816947000001164,
-0.0368707055664063,-0.016519991455078,-0.020877438476564,0.0454777581239795,0.819977000001018,
-0.0560243188476563,-0.0189141931152341,0.0485544096679682,0.076511448174434,0.823018999999476,
-0.044053310546875,-0.016519991455078,-0.0256658417968758,0.0535942135212144,0.826118000000861,
-0.00335188232421875,0.00742202514648471,0.00785298144531055,0.0113133058816092,0.829192999999577,
-0.00814028564453125,-0.00454898315429664,-0.0879150849609385,0.088408255620172,0.832178000000567,
-0.015322890625,-0.0213083947753905,-0.00651222851562672,0.0270415936151948,0.835264000001189,
-0.0201112939453125,0.000239420166015858,-0.056790463378908,0.060246810678755,0.838276000000405,
0.00622492431640626,-0.00454898315429664,0.0653138212890614,0.0657673032886594,0.84138399999938,
-0.0201112939453125,-0.0189141931152341,-0.0520020600585944,0.0588763543002859,0.844403999999486,
-0.00335188232421875,-0.0332794030761716,0.00545877978515463,0.0338902944950988,0.847444999999425,
-0.0201112939453125,-0.00215478149414028,0.0413718046874987,0.0460514218080483,0.850506000000678,
-0.0416591088867188,-0.0117315881347655,-0.020877438476564,0.0480518360808614,0.853490999999849,
0.0301669409179688,-0.0213083947753905,-0.0232716401367199,0.0436538800899198,0.856598000000304,
-0.0177170922851563,-0.0189141931152341,0.00545877978515463,0.0264847189334515,0.859629000000496,
-0.0225054956054688,-0.0308852014160154,-0.020877438476564,0.0435460725703056,0.862640000001193,
-0.0775721337890625,-0.0141257897949216,-0.0232716401367199,0.0822103589128007,1.44125300000087,
-0.03447650390625,-0.00454898315429664,-0.0113006318359385,0.0365653777394296,1.44613100000061,
-0.0488417138671875,-0.0213083947753905,-0.0113006318359385,0.0544726076232773,1.44915299999957,
0.0181959326171875,0.00981622680664085,0.0198239897460919,0.0286433385271654,1.45213999999942,
-0.0177170922851563,-0.00454898315429664,0.00545877978515463,0.0190889204388732,1.45512100000087,
-0.0416591088867188,-0.0332794030761716,-0.00172382519531311,0.0533476484546956,1.45806400000038,
-0.0368707055664063,-0.0141257897949216,0.0126413847656242,0.0414583100848007,1.46102400000018,
-0.024899697265625,-0.0620098229980467,-0.020877438476564,0.0700077174996555,1.46403800000007,
-0.005746083984375,-0.0237025964355466,-0.0041180268554708,0.0247343628202599,1.46697500000118,
0.00143652099609375,-0.0213083947753905,0.0270065947265614,0.0344306177580485,1.47002600000087,
-0.0177170922851563,0.00981622680664085,-0.0687614716796894,0.0716825896247958,1.47298200000114,
-0.0320823022460938,-0.00454898315429664,-0.0520020600585944,0.061271376804226,1.47591300000022,
-0.0464475122070312,-0.0189141931152341,-0.0041180268554708,0.050319740029188,1.47891999999956,
-0.0656011254882813,0.0193930334472658,-0.00651222851562672,0.0687168576977712,1.4818690000011,
0.00143652099609375,-0.00215478149414028,-0.00890643017578263,0.00927529915074436,1.4849090000007,
-0.0296881005859375,-0.00694318481445277,0.017429788085936,0.0351196333193988,1.48791700000038,
-0.0105344873046875,-0.0308852014160154,-0.00172382519531311,0.0326778619647072,1.49084700000094,
0.0181959326171875,0.0600944616699222,-0.0807324799804707,0.102274970598891,1.49388999999974,
0.013407529296875,-0.016519991455078,-0.0352426484375012,0.0411669312484149,1.49683899999945,
-0.0296881005859375,0.00742202514648471,0.0102471831054682,0.032271884594377,1.49993499999982,
-0.0177170922851563,0.000239420166015858,0.0150355864257801,0.0232383635444439,1.50290800000039,
0.0349553442382813,-0.016519991455078,-0.00172382519531311,0.0387008757238979,1.50583899999947,
0.0158017309570313,-0.00694318481445277,-0.0184832368164081,0.0252889809960281,1.50887400000101,
-0.00335188232421875,-0.0237025964355466,0.00306457812499872,0.0241337902532117,1.51182400000107,
-0.000957680664062498,0.0146046301269533,-0.0615788666992199,0.0632943062001609,1.51486599999953,
-0.0225054956054688,-0.0308852014160154,-0.0448194550781267,0.0588997160643057,1.51778999999988,
-0.0488417138671875,-0.0213083947753905,-0.0160890351562522,0.0556634328230592,1.52069400000073,
-0.015322890625,-0.026096798095703,-0.104674496582033,0.108961388035651,1.52370200000041,
-0.0560243188476563,-0.0308852014160154,0.0389776030273428,0.0749124389311202,1.52663299999949,
-0.000957680664062498,-0.0284909997558591,-0.0232716401367199,0.036799775189472,1.52970500000083,
-0.0105344873046875,-0.0189141931152341,-0.0543962617187521,0.0585463526869776,1.53275700000086,
-0.0105344873046875,-0.0452504113769528,-0.020877438476564,0.0509356710950077,1.53586900000118,
-0.0320823022460938,-0.0332794030761716,-0.0448194550781267,0.0643861502189425,1.53892900000028,
-0.0536301171875,-0.00454898315429664,-0.0113006318359385,0.0549962453006974,1.54186400000071,
-0.03447650390625,0.000239420166015858,-0.0136948334960945,0.0370976428914199,1.54493600000023,
-0.0129286889648438,0.0169988317871097,-0.0304542451171894,0.0371964020589892,1.54792300000008,
-0.00814028564453125,0.00502782348632835,-0.0352426484375012,0.0365183177086999,1.55096200000116,
-0.015322890625,-0.00694318481445277,-0.0400310517578131,0.0434221590585967,1.55390100000113,
-0.0177170922851563,0.0169988317871097,-0.00890643017578263,0.0261185784384083,1.55684800000017,
-0.024899697265625,-0.0189141931152341,-0.0232716401367199,0.0389783383403287,1.55987699999969,
-0.015322890625,-0.0428562097167966,-0.0376368500976572,0.0590591074574386,1.5628259999994,
0.0158017309570313,-0.00454898315429664,-0.0256658417968758,0.0304815252918671,1.56588899999952,
0.00143652099609375,-0.0452504113769528,-0.0376368500976572,0.0588744070681752,1.56886200000008,
-0.0129286889648438,0.0241814367675783,-0.0280600434570317,0.039233390387584,1.57184899999993,
-0.03447650390625,-0.0332794030761716,0.0102471831054682,0.0490015586721582,1.57488999999987,
-0.0320823022460938,-0.0787692346191404,0.0126413847656242,0.0859864585192777,1.57784999999967,
-0.00814028564453125,-0.0284909997558591,0.0270065947265614,0.0400918629672863,1.58088700000008,
-0.0320823022460938,0.0241814367675783,0.0246123930664055,0.0471146038294853,1.58385300000009,
-0.00335188232421875,-0.0284909997558591,-0.0304542451171894,0.0418381790696205,1.58676500000001,
-0.024899697265625,0.00502782348632835,-0.020877438476564,0.032880714260371,1.58982900000046,
-0.0416591088867188,0.0146046301269533,-0.0448194550781267,0.0629091418466412,1.59279900000001,
-0.0368707055664063,0.00502782348632835,-0.0400310517578131,0.054655402686386,1.5958840000003,
-0.0272938989257813,-0.0117315881347655,0.0222181914062478,0.0370976428914183,1.59883799999989,
-0.000957680664062498,0.00742202514648471,-0.0304542451171894,0.031360240037143,1.60178300000007,
-0.0703895288085937,-0.0620098229980467,-0.0448194550781267,0.103964837650261,1.60479300000043,
-0.00814028564453125,0.0313640417480472,0.017429788085936,0.0367935439699473,1.60776799999985,
