X,Y,Z,Magnitude,Seconds,
-0.00814028564453125,-0.00694318481445277,-0.020877438476564,0.0234593159125522,0.0,
-0.005746083984375,0.0122104284667972,-0.00172382519531311,0.0136045440130222,0.00375199999871256,
-0.0464475122070312,0.000239420166015858,-0.078338278320313,0.0910731275537908,0.00747299999966344,
-0.0320823022460938,-0.0213083947753905,-0.102280294921876,0.10929126467664,0.0111679999990884,
-0.0536301171875,-0.00454898315429664,-0.0615788666992199,0.0817853259530299,0.0148239999998623,
-0.03447650390625,-0.00454898315429664,0.0246123930664055,0.0426039019549969,0.0185079999992013,
0.00622492431640626,-0.016519991455078,0.0389776030273428,0.0427891731420222,0.0222809999995661,
-0.024899697265625,0.00263362182617222,-0.0352426484375012,0.0432316453160457,0.0259579999983544,
0.0086191259765625,-0.00933738647460913,0.00545877978515463,0.0138301986796604,0.0296589999998105,
-0.00814028564453125,0.00263362182617222,-0.0352426484375012,0.0362662995518865,0.0333609999997861,
-0.0225054956054688,0.00742202514648471,-0.00890643017578263,0.0253161665383785,0.0372239999996964,
-0.00335188232421875,0.00263362182617222,0.0317949980468732,0.0320794791079808,0.0411079999994399,
-0.0416591088867188,-0.0332794030761716,-0.00172382519531311,0.0533476484546956,0.0448550000000978,
-0.024899697265625,0.00742202514648471,-0.0448194550781267,0.0518060318369882,0.0486959999998362,
-0.0105344873046875,-0.016519991455078,0.00785298144531055,0.0211081704093193,0.0524329999989277,
-0.0225054956054688,-0.0476446130371091,-0.0927034882812521,0.106632280400524,0.0561979999984032,
-0.0320823022460938,-0.026096798095703,-0.0041180268554708,0.0415604996774579,0.0599449999990611,
-0.0225054956054688,-0.00694318481445277,-0.00651222851562672,0.0244359216739447,0.0636689999992086,
-0.0799663354492188,-0.0237025964355466,-0.0496078583984385,0.0970431218471608,0.0674139999991894,
-0.0105344873046875,-0.0308852014160154,-0.0807324799804707,0.0870781511808649,0.0711889999984123,
-0.0560243188476563,-0.0213083947753905,-0.00890643017578263,0.0605978257755493,0.0748809999986406,
-0.0225054956054688,-0.00694318481445277,0.0629196196289055,0.0671832098225559,0.0785499999983585,
0.0086191259765625,-0.0141257897949216,0.0198239897460919,0.0258228162558487,0.0822729999999865,
0.0086191259765625,-0.00933738647460913,-0.0136948334960945,0.0186821996366011,0.0859779999991588,
-0.0320823022460938,-0.0356736047363279,-0.0496078583984385,0.0690131857486161,0.089814999999362,
-0.0272938989257813,-0.0500388146972653,-0.133404916503908,0.145071401876085,0.0937549999998737,
-0.005746083984375,0.0169988317871097,0.0365834013671869,0.0407470614753338,0.0976629999986471,
0.0110133276367188,-0.00933738647460913,-0.0256658417968758,0.0294485246990776,0.10147699999834,
-0.00814028564453125,0.00263362182617222,0.0150355864257801,0.0172993951762758,0.105301999999938,
-0.0129286889648438,0.00742202514648471,0.0653138212890614,0.0669935273515597,0.109134999998787,
0.0181959326171875,-0.016519991455078,-0.0591846650390639,0.0640845274404928,0.112955999999031,
0.00143652099609375,0.0146046301269533,-0.0160890351562522,0.0217764980191134,0.116806999998516,
-0.015322890625,-0.0213083947753905,-0.0041180268554708,0.0265668366613713,0.120644999999058,
-0.0105344873046875,-0.026096798095703,-0.0496078583984385,0.0570347079285941,0.124445999999807,
-0.00335188232421875,-0.0189141931152341,-0.0543962617187521,0.0576882579498702,0.128186999998434,
-0.0225054956054688,-0.0308852014160154,0.0341891997070292,0.051276645517845,0.131876999999804,
-0.0105344873046875,0.0193930334472658,-0.0424252534179708,0.0478222468798616,0.135596000000078,
-0.0272938989257813,-0.026096798095703,0.00306457812499872,0.0378865599982747,0.139325999998618,
-0.0320823022460938,-0.00454898315429664,0.0605254179687496,0.0686534309808302,0.143152999999074,
-0.0272938989257813,0.0122104284667972,0.0389776030273428,0.0491254009619327,0.146883999999773,
-0.0584185205078125,-0.0189141931152341,0.0198239897460919,0.0645248851914921,0.150579999999536,
-0.0703895288085937,-0.00933738647460913,0.0413718046874987,0.0821796737348878,0.154268999998749,
-0.0129286889648438,-0.00454898315429664,0.0317949980468732,0.0346232024354828,0.157929999999396,
-0.0368707055664063,-0.0117315881347655,-0.0591846650390639,0.070709996923452,0.161769999998796,
-0.0464475122070312,-0.0237025964355466,-0.0424252534179708,0.067224151877043,0.165633999999045,
-0.0225054956054688,-0.0332794030761716,0.00306457812499872,0.0402915331135252,0.16946999999891,
-0.044053310546875,-0.00694318481445277,-0.056790463378908,0.0722084393703267,0.173254999999699,
-0.0368707055664063,0.0313640417480472,0.000670376464842803,0.0484107575683596,0.177050999998755,
-0.0201112939453125,-0.016519991455078,-0.0256658417968758,0.0365528343220176,0.180834999999206,
0.00622492431640626,-0.0237025964355466,-0.0184832368164081,0.0306951592884415,0.184620999998515,
-0.0272938989257813,-0.0284909997558591,-0.00651222851562672,0.0399887872521644,0.188355999998748,
-0.0225054956054688,-0.00215478149414028,-0.0113006318359385,0.0252753772598292,0.192159999998694,
-0.0368707055664063,-0.0308852014160154,0.0294007963867173,0.0563715479975995,0.195955999999569,
-0.0296881005859375,-0.0308852014160154,-0.0232716401367199,0.0487529303484577,0.199714999998832,
-0.0775721337890625,-0.0356736047363279,-0.0352426484375012,0.092369292973159,0.203432999998768,
-0.0105344873046875,-0.00933738647460913,-0.0304542451171894,0.0335503093071687,0.207141999999294,
-0.0536301171875,-0.026096798095703,0.000670376464842803,0.0596463053759198,0.210869999998977,
0.0086191259765625,-0.0141257897949216,-0.0136948334960945,0.0214796586196317,0.214583999999377,
-0.024899697265625,-0.0452504113769528,-0.0160890351562522,0.0540966884934961,0.218394999999873,
-0.0464475122070312,-0.00454898315429664,-0.0376368500976572,0.0599549591212763,0.222078999999212,
-0.0368707055664063,-0.0117315881347655,-0.0496078583984385,0.062912786490569,0.225784999998723,
0.00143652099609375,-0.0380678063964841,-0.0280600434570317,0.0473137138176969,0.229492999998911,
-0.024899697265625,-0.0213083947753905,0.0270065947265614,0.0424664428760921,0.233467000000019,
-0.0320823022460938,-0.0356736047363279,-0.0543962617187521,0.0725316033275733,0.237278999999035,
-0.0225054956054688,-0.026096798095703,-0.056790463378908,0.0664281336038185,0.24107499999991,
-0.0416591088867188,0.000239420166015858,-0.056790463378908,0.0704322043247439,0.244903999999224,
-0.0272938989257813,0.00263362182617222,0.0772848295898427,0.0820051081776317,0.248701999998957,
-0.0392649072265625,-0.00933738647460913,-0.0256658417968758,0.0478294382240585,0.252524999999878,
-0.0201112939453125,0.00742202514648471,-0.0256658417968758,0.033440784030463,0.256309999998848,
-0.0201112939453125,-0.016519991455078,-0.0041180268554708,0.0263501879881907,0.260037999998531,
0.00143652099609375,-0.00215478149414028,-0.0184832368164081,0.0186637809425403,0.263883999999962,
-0.0608127221679688,-0.0380678063964841,0.0294007963867173,0.0775354879361184,0.267700999998851,
-0.0368707055664063,-0.0189141931152341,0.00306457812499872,0.0415522233971807,0.271482000000105,
-0.005746083984375,-0.00933738647460913,-0.104674496582033,0.105247111608984,0.27517699999953,
-0.0392649072265625,0.0768538732910158,0.0294007963867173,0.0911737769729612,0.278945000000022,
0.0253785375976563,-0.0596156213378904,0.00785298144531055,0.0652668506646275,0.28268499999831,
-0.044053310546875,-0.200873519287109,-0.0472136567382826,0.210997616819547,0.286414999998669,
-0.0751779321289062,0.136708914794922,-0.0328484467773453,0.159436725127142,0.290229999998701,
0.0948103857421875,0.15107412475586,0.00785298144531055,0.17853310542561,0.29395299999851,
0.04213794921875,-0.466629903564453,-0.116645504882813,0.482830454170301,0.297644999998738,
-0.314598098144531,0.268390006103516,0.0437660063476546,0.415837254276267,0.301345999998375,
-0.0895431420898438,0.177410343017578,0.12277466113281,0.233593710363129,0.304458999999042,
0.1762132421875,-0.373256038818359,-0.119039706542971,0.429583087388737,0.307426999999734,
0.109175595703125,0.299514627685547,0.0461602080078105,0.322116574702496,0.310483999999633,
-0.18770541015625,0.165439334716797,0.0222181914062478,0.251191445918899,0.313423999999941,
-0.1302445703125,-0.471418306884765,-0.116645504882813,0.502797217545357,0.316388999999617,
-0.118273562011719,0.167833536376953,-0.0472136567382826,0.210679521516294,0.319377999998324,
0.0541089575195313,0.218111771240235,0.0605254179687496,0.232731283367094,0.322308999999223,
0.171424838867188,-0.227209737548828,-0.0711556733398453,0.293383486355478,0.325329999999667,
-0.03447650390625,-0.00933738647460913,-0.0400310517578131,0.053649801608306,0.32828199999858,
-0.173340200195313,0.096007486572266,-0.0807324799804707,0.213967277417534,0.331309999999576,
-0.0608127221679688,-0.119470662841797,0.0365834013671869,0.138959604608424,0.334249999999884,
0.0852335791015625,-0.0572214196777341,0.0341891997070292,0.108203305185215,0.337199999999939,
0.0636857641601563,0.0888248815917971,-0.107068698242189,0.15300144538447,0.340265999999247,
-0.0895431420898438,0.0433350500488283,-0.00890643017578263,0.0998760499646061,0.34320999999909,
-0.101514150390625,-0.126653267822265,-0.020877438476564,0.163652193437582,0.346217999998771,
-0.063206923828125,-0.0572214196777341,-0.0232716401367199,0.088379722359842,0.349116999999751,
0.0229843359375,0.136708914794922,0.0246123930664055,0.140795514755792,0.352068999998664,
0.0541089575195313,0.00263362182617222,-0.0615788666992199,0.0820162915019572,0.355086999999912,
0.0086191259765625,-0.0931344445800779,-0.0400310517578131,0.10173887754775,0.358017999998992,
-0.135032973632813,0.0122104284667972,-0.0113006318359385,0.136054043715555,0.361044999999649,
-0.063206923828125,-0.0213083947753905,-0.0663672700195335,0.0940945133233811,0.363947999998345,
0.0229843359375,-0.0644040246582029,-0.0352426484375012,0.0769298535001307,0.366962999998577,
0.013407529296875,0.0169988317871097,-0.0448194550781267,0.0497745484909027,0.369933999998466,
-0.063206923828125,0.0217872351074222,-0.0160890351562522,0.0687652229379038,0.372861999998349,
-0.0775721337890625,-0.0644040246582029,-0.0615788666992199,0.118140895361102,0.375850999998875,
-0.0967257470703125,-0.0476446130371091,-0.0400310517578131,0.115014626907201,0.378790999999183,
0.0181959326171875,0.0313640417480472,0.0222181914062478,0.0425257934428876,0.381811999999627,
0.00143652099609375,-0.0213083947753905,0.017429788085936,0.0275664432453072,0.384772999999768,
-0.00814028564453125,-0.0548272180175778,-0.0472136567382826,0.0728108334557568,0.387671999998929,
-0.0751779321289062,-0.0189141931152341,-0.0113006318359385,0.078340107609514,0.390669999998863,
-0.0703895288085937,0.00981622680664085,-0.0256658417968758,0.0755630829820854,0.393616999999722,
-0.0201112939453125,-0.00933738647460913,-0.0328484467773453,0.0396316967339914,0.396624999999403,
-0.000957680664062498,-0.00215478149414028,-0.0591846650390639,0.0592316200295755,0.399530999999115,
0.0086191259765625,-0.00694318481445277,0.00785298144531055,0.0135707945805651,0.402478999998493,
-0.0129286889648438,-0.0739808312988279,-0.0855208833007826,0.113816237323861,0.405471999998554,
-0.0368707055664063,-0.0667982263183592,-0.0424252534179708,0.0873003671001583,0.408413999999539,
-0.00335188232421875,-0.00454898315429664,0.0150355864257801,0.0160622919292543,0.411422999999559,
-0.0177170922851563,0.00502782348632835,-0.0520020600585944,0.0551669159767707,0.414362999999867,
-0.0225054956054688,0.00981622680664085,-0.0472136567382826,0.053216398072094,0.417292999998608,
-0.03447650390625,-0.0284909997558591,-0.00890643017578263,0.0456036280043828,0.420313999999053,
-0.0464475122070312,-0.0332794030761716,-0.00651222851562672,0.05750912257693,0.423227999999654,
-0.0296881005859375,0.00742202514648471,-0.0448194550781267,0.0542701881991947,0.426292999998623,
-0.044053310546875,-0.0404620080566404,-0.0232716401367199,0.0641828442869902,0.429247999998552,
0.0110133276367188,-0.00215478149414028,-0.0711556733398453,0.0720351741676799,0.432181999998647,
-0.03447650390625,-0.00694318481445277,0.000670376464842803,0.0351750841018175,0.435273999999481,
-0.0320823022460938,-0.0476446130371091,-0.0735498750000012,0.093321312578539,0.438309999999547,
-0.03447650390625,0.00742202514648471,-0.102280294921876,0.108189530492458,0.441442999999708,
-0.0177170922851563,-0.00694318481445277,0.0365834013671869,0.0412364939101408,0.444463999998334,
0.00383072265625,0.0122104284667972,-0.078338278320313,0.0793766643894961,0.447424999998475,
0.0158017309570313,-0.0189141931152341,-0.102280294921876,0.105207890064123,0.450445999998919,
-0.00814028564453125,0.0337582434082033,-0.00890643017578263,0.0358497942373196,0.453395999998975,
-0.0464475122070312,0.0146046301269533,-0.0759440766601571,0.0902118029480137,0.456422999999631,
-0.015322890625,-0.00215478149414028,-0.0232716401367199,0.0279464361779135,0.459369999998671,
-0.005746083984375,0.00742202514648471,-0.00172382519531311,0.00954334908376187,0.462370999999621,
-0.0488417138671875,-0.0404620080566404,0.0150355864257801,0.0651824820686275,0.465310999999929,
-0.063206923828125,-0.0500388146972653,-0.0328484467773453,0.087051815901828,0.468234999998458,
-0.0129286889648438,0.00742202514648471,-0.00890643017578263,0.0173655392689319,0.471278999999413,
-0.015322890625,-0.0308852014160154,-0.0352426484375012,0.0493024432711287,0.474199999998746,
-0.015322890625,-0.0739808312988279,-0.0496078583984385,0.090381933989326,0.477210999999443,
-0.0392649072265625,0.000239420166015858,-0.0136948334960945,0.0415853186354536,0.480205999998361,
-0.0560243188476563,-0.00933738647460913,-0.0759440766601571,0.0948336114902511,0.483109999999215,
-0.0488417138671875,-0.0141257897949216,0.0341891997070292,0.0612695056893856,0.486134999999194,
-0.0320823022460938,-0.0356736047363279,-0.020877438476564,0.0523234902279672,0.489082000000053,
0.0181959326171875,-0.00215478149414028,-0.0591846650390639,0.061956110456378,0.492108999998891,
-0.0201112939453125,-0.00933738647460913,0.0150355864257801,0.0267902928221787,0.49504799999886,
-0.024899697265625,0.00742202514648471,-0.0400310517578131,0.0477238565712321,0.497976999999082,
-0.000957680664062498,0.00742202514648471,0.00545877978515463,0.00926293076041182,0.50103499999932,
-0.0560243188476563,-0.0213083947753905,-0.0376368500976572,0.0707764401161944,0.503944000000047,
-0.0320823022460938,-0.0284909997558591,-0.00651222851562672,0.0433983905777371,0.5069739999999,
-0.0225054956054688,-0.0284909997558591,-0.0376368500976572,0.05229499865962,0.509916999999405,
-0.0129286889648438,0.00263362182617222,0.0222181914062478,0.0258405687173798,0.512871999999334,
-0.0129286889648438,0.00981622680664085,0.0557370146484359,0.0580527700371744,0.515920999998343,
-0.024899697265625,-0.0452504113769528,-0.0711556733398453,0.0879245386803366,0.518847999999707,
-0.0201112939453125,-0.0189141931152341,-0.0328484467773453,0.0429095712054924,0.521868999998333,
-0.024899697265625,-0.0763750329589842,-0.020877438476564,0.0830000483177474,0.524808999998641,
-0.0512359155273438,0.0289698400878908,-0.0496078583984385,0.0769760371123546,0.527760999999373,
-0.0320823022460938,0.00502782348632835,0.0126413847656242,0.0348476360060757,0.530804999998509,
-0.0416591088867188,-0.0284909997558591,0.0246123930664055,0.0561514764968749,0.533774999999878,
-0.03447650390625,-0.0308852014160154,0.000670376464842803,0.046292271414461,0.536812999998801,
-0.0129286889648438,-0.0117315881347655,-0.0136948334960945,0.02218850204496,0.539745000000039,
-0.0225054956054688,0.0122104284667972,-0.020877438476564,0.0330372416090275,0.542679999998654,
0.0205901342773438,0.00263362182617222,0.00306457812499872,0.0209828795108431,0.545734999999695,
-0.0272938989257813,-0.0284909997558591,0.0461602080078105,0.0607244496803673,0.548667999999452,
-0.024899697265625,-0.0404620080566404,-0.0687614716796894,0.0835781610676625,0.551681999999346,
-0.0368707055664063,-0.0189141931152341,-0.078338278320313,0.0886232558663685,0.554648999999699,
-0.00335188232421875,0.0337582434082033,-0.0136948334960945,0.0365841848017509,0.557663999999932,
0.0158017309570313,-0.00215478149414028,-0.0927034882812521,0.0940652673628164,0.560625000000073,
-0.0129286889648438,0.000239420166015858,-0.0496078583984385,0.0512654653274999,0.563554999998814,
-0.0512359155273438,-0.0141257897949216,-0.0352426484375012,0.0637706926898613,0.566547999998875,
-0.0129286889648438,-0.0284909997558591,0.00545877978515463,0.0317598227668362,0.569492999999056,
-0.0225054956054688,0.00263362182617222,-0.0304542451171894,0.037959114083826,0.572495999998864,
-0.0320823022460938,0.00263362182617222,-0.0328484467773453,0.0459916355114394,0.575559999999314,
0.00143652099609375,0.00502782348632835,-0.0639730683593758,0.0641864166073731,0.57860399999845,
-0.0296881005859375,-0.00215478149414028,-0.0160890351562522,0.0338361264323703,0.581744999999501,
-0.0225054956054688,-0.00694318481445277,-0.0711556733398453,0.0749522180876736,0.584737999999561,
-0.0225054956054688,0.0193930334472658,0.00785298144531055,0.0307287552028216,0.587787999998909,
0.0158017309570313,-0.00694318481445277,-0.0184832368164081,0.0252889809960281,0.590737999998964,
-0.0201112939453125,-0.00215478149414028,-0.0352426484375012,0.0406343634911581,0.593644999999015,
0.0253785375976563,-0.00454898315429664,-0.0352426484375012,0.0436670091398877,0.596716000000015,
-0.044053310546875,0.00502782348632835,-0.0927034882812521,0.102761422326967,0.599675999999818,
-0.0225054956054688,-0.0284909997558591,-0.0448194550781267,0.0576803081912393,0.602681999998822,
-0.00335188232421875,0.00502782348632835,-0.0400310517578131,0.0404845554373738,0.605654999999388,
-0.0296881005859375,0.00263362182617222,-0.0687614716796894,0.0749430401563798,0.60862300000008,
-0.0488417138671875,-0.0117315881347655,-0.0136948334960945,0.0520643029160454,0.611676999998963,
-0.0272938989257813,-0.00694318481445277,-0.0352426484375012,0.0451132907559149,0.614606999999523,
-0.0464475122070312,0.00981622680664085,0.000670376464842803,0.0474781960856386,0.61768099999972,
0.0158017309570313,0.00981622680664085,0.0365834013671869,0.0410414213393067,0.620652999999947,
-0.03447650390625,-0.026096798095703,-0.0304542451171894,0.052887930930444,0.623576999998477,
-0.0679953271484375,-0.0189141931152341,-0.0184832368164081,0.072957119312887,0.626580000000104,
-0.0416591088867188,0.0146046301269533,-0.0256658417968758,0.0510638033201882,0.62954499999978,
-0.0296881005859375,0.000239420166015858,0.00785298144531055,0.0307100953433399,0.632632999999259,
0.00622492431640626,-0.016519991455078,-0.0328484467773453,0.0372918255936194,0.635589999999866,
-0.07278373046875,0.0457292517089847,-0.0400310517578131,0.0948215217534924,0.63851699999941,
-0.0775721337890625,-0.00694318481445277,0.0389776030273428,0.0870913158340887,0.641523999998753,
-0.024899697265625,-0.0189141931152341,0.00545877978515463,0.0317417690411696,0.644467000000077,
-0.0129286889648438,0.00263362182617222,-0.0160890351562522,0.020807306758254,0.647508999998536,
-0.024899697265625,0.0146046301269533,0.0198239897460919,0.0350182911421737,0.650479999998424,
-0.015322890625,-0.026096798095703,-0.0184832368164081,0.0354607373184064,0.653471999999965,
-0.005746083984375,-0.0452504113769528,-0.020877438476564,0.0501645756314321,0.656402999999045,
-0.0129286889648438,0.00263362182617222,0.0222181914062478,0.0258405687173798,0.659338999999818,
-0.0225054956054688,-0.0284909997558591,-0.0591846650390639,0.0694338460357939,0.662343999998484,
-0.00335188232421875,0.000239420166015858,-0.00172382519531311,0.00377677248921635,0.665285999999469,
-0.0201112939453125,0.00502782348632835,-0.0376368500976572,0.0429683096995676,0.6682869999986,
0.013407529296875,0.0289698400878908,-0.0232716401367199,0.0395042113099037,0.671270999999251,
-0.0320823022460938,-0.0380678063964841,-0.0352426484375012,0.060995706981223,0.674205999999685,
-0.005746083984375,0.00742202514648471,-0.0448194550781267,0.0457917841094967,0.677233999998862,
-0.03447650390625,-0.0189141931152341,-0.0184832368164081,0.0434511917674241,0.680182000000059,
-0.0201112939453125,-0.016519991455078,-0.0711556733398453,0.0757661145254089,0.683185999998386,
-0.0225054956054688,-0.00694318481445277,-0.0160890351562522,0.0285230117637415,0.686104999998861,
-0.0368707055664063,0.0169988317871097,-0.0448194550781267,0.0604747283134971,0.689060999999128,
-0.0177170922851563,-0.0428562097167966,-0.0376368500976572,0.0597250580209372,0.692067999998471,
-0.0464475122070312,-0.026096798095703,-0.0496078583984385,0.0727966611593535,0.694985000000088,
-0.0320823022460938,-0.0284909997558591,-0.0160890351562522,0.0458243192721637,0.698014999999941,
-0.00335188232421875,-0.016519991455078,-0.056790463378908,0.0592393616068097,0.700933000000077,
-0.0560243188476563,-0.00694318481445277,-0.00172382519531311,0.0564792323869181,0.703846999998859,
-0.0296881005859375,-0.0237025964355466,-0.0400310517578131,0.0551876933656756,0.706891999998334,
-0.0392649072265625,0.0146046301269533,-0.0424252534179708,0.0596232361435935,0.709891999998945,
-0.015322890625,-0.100317049560547,-0.0280600434570317,0.105288496277843,0.712894999998753,
-0.0560243188476563,-0.0548272180175778,-0.0136948334960945,0.0795757287266451,0.715844999998808,
-0.0225054956054688,-0.0213083947753905,-0.0184832368164081,0.0360856628533145,0.718782999998439,
-0.00814028564453125,-0.0237025964355466,-0.0735498750000012,0.077702390186382,0.721789999999601,
-0.044053310546875,-0.0189141931152341,-0.0376368500976572,0.06095058126559,0.72474499999953,
0.0253785375976563,-0.0356736047363279,0.00785298144531055,0.0444785966849202,0.727801999999429,
-0.005746083984375,0.0217872351074222,-0.0496078583984385,0.0544852338680959,0.730772999999317,
-0.024899697265625,-0.0117315881347655,0.0198239897460919,0.0339207260172406,0.733720999998695,
-0.0105344873046875,-0.00933738647460913,-0.0735498750000012,0.0748848871366222,0.736751999998887,
-0.00814028564453125,-0.00933738647460913,0.05334281298828,0.0547622747341031,0.739722999998776,
-0.0464475122070312,-0.0380678063964841,-0.0256658417968758,0.0653089940912029,0.742744999999559,
0.0158017309570313,-0.00454898315429664,-0.0448194550781267,0.0477406692713528,0.745683999999528,
-0.0177170922851563,0.00981622680664085,-0.0232716401367199,0.0308516272247211,0.748710999998366,
-0.000957680664062498,0.0265756384277347,-0.0591846650390639,0.0648845612290182,0.751664999999775,
-0.0512359155273438,-0.0284909997558591,0.0246123930664055,0.0635816482915371,0.754595999998855,
-0.0416591088867188,-0.0141257897949216,-0.0280600434570317,0.052176482531657,0.757622999999512,
-0.0129286889648438,-0.026096798095703,-0.0400310517578131,0.0495043328814183,0.760543999998845,
-0.0177170922851563,-0.016519991455078,-0.00890643017578263,0.0258094938964848,0.763531999999032,
-0.015322890625,0.0241814367675783,-0.0280600434570317,0.0400861434919925,0.766490999998496,
-0.00814028564453125,-0.0213083947753905,-0.020877438476564,0.030922150242523,0.76941799999986,
-0.0416591088867188,-0.0428562097167966,-0.0280600434570317,0.0660265257554572,0.772444999998697,
-0.0464475122070312,-0.0380678063964841,-0.0424252534179708,0.0735284394070862,0.775369999999384,
-0.0129286889648438,0.0337582434082033,-0.0160890351562522,0.0395680053656524,0.778400999999576,
-0.0105344873046875,-0.026096798095703,-0.0496078583984385,0.0570347079285941,0.781322999999247,
-0.0296881005859375,0.00263362182617222,-0.0687614716796894,0.0749430401563798,0.78430599999956,
-0.0464475122070312,-0.0452504113769528,-0.0136948334960945,0.0662760860679894,0.78731499999958,
-0.03447650390625,-0.0213083947753905,-0.0304542451171894,0.0506965290247707,0.790262999998959,
-0.0296881005859375,-0.00454898315429664,-0.0256658417968758,0.0395071132744608,0.793318999998519,
-0.00335188232421875,-0.00454898315429664,0.017429788085936,0.0183228238973724,0.796274999998786,
0.0110133276367188,-0.00215478149414028,-0.020877438476564,0.0237024029639173,0.799205999999685,
-0.0464475122070312,-0.0452504113769528,0.0126413847656242,0.0660664493430541,0.802229999999327,
-0.0296881005859375,-0.00694318481445277,-0.00651222851562672,0.0311769185778218,0.805193999998664,
-0.07278373046875,-0.0596156213378904,-0.00651222851562672,0.0943074909468496,0.8082059999997,
-0.0536301171875,0.0146046301269533,-0.0256658417968758,0.0612227092330318,0.811151999998401,
-0.0296881005859375,-0.0117315881347655,-0.0615788666992199,0.0693611584427827,0.814102999998795,
-0.024899697265625,-0.0189141931152341,-0.0448194550781267,0.0546491095867111,0.81713099999979,
-0.044053310546875,-0.00215478149414028,-0.0113006318359385,0.0455306658563031,0.820087000000058,
-0.00335188232421875,0.00742202514648471,-0.020877438476564,0.0224095740640731,0.823132999999871,
-0.00335188232421875,-0.0117315881347655,-0.0304542451171894,0.032807412591319,0.826062000000093,
0.00383072265625,-0.00694318481445277,-0.0376368500976572,0.0384631607737881,0.829001999998582,
-0.0296881005859375,-0.0213083947753905,0.0198239897460919,0.0415742898166377,0.832075999998779,
0.0181959326171875,-0.0237025964355466,-0.0735498750000012,0.0793882179804498,0.835111999998844,
-0.0392649072265625,-0.0189141931152341,-0.0041180268554708,0.0437771377078642,0.838235999999597,
-0.0464475122070312,-0.00694318481445277,0.0102471831054682,0.0480685340653005,0.841254999999364,
-0.0656011254882813,-0.0189141931152341,-0.0615788666992199,0.0919413464687672,0.844310999998925,
-0.0751779321289062,-0.0237025964355466,0.00785298144531055,0.0792161844230408,0.847257999999783,
-0.0129286889648438,-0.0284909997558591,-0.0113006318359385,0.0332654827911675,0.850174999999581,
-0.0392649072265625,-0.00454898315429664,-0.0759440766601571,0.0856150043334254,0.853196000000025,
-0.00335188232421875,-0.0189141931152341,0.0102471831054682,0.021771232806453,0.856164999999237,
-0.0177170922851563,0.00502782348632835,-0.020877438476564,0.0278395726510507,0.85916399999951,
-0.0105344873046875,0.000239420166015858,-0.078338278320313,0.0790437764468484,0.862127999998847,
-0.0464475122070312,0.00263362182617222,-0.0472136567382826,0.0662830048862149,0.865060000000085,
-0.0464475122070312,-0.0141257897949216,-0.107068698242189,0.117561113769944,0.868061999999554,
-0.015322890625,-0.0284909997558591,-0.0232716401367199,0.0398509382429959,0.871005999999397,
-0.03447650390625,0.00502782348632835,-0.0304542451171894,0.0462749324825569,0.87406799999917,
-0.0368707055664063,-0.0380678063964841,-0.0424252534179708,0.0678859995903711,0.877052999998341,
-0.00335188232421875,-0.00933738647460913,0.0270065947265614,0.0287711324076123,0.880010999999286,
-0.0272938989257813,-0.0308852014160154,0.0222181914062478,0.0468241456349527,0.883040999999139,
-0.0368707055664063,0.00981622680664085,-0.0400310517578131,0.0553018294681175,0.886015999998563,
-0.0320823022460938,-0.0117315881347655,-0.0041180268554708,0.0344073018813719,0.889056999998502,
-0.0129286889648438,-0.00215478149414028,0.0341891997070292,0.03661550843897,0.892011999998431,
-0.0129286889648438,0.0217872351074222,0.0102471831054682,0.0273283620726299,0.894968999999037,
-0.0201112939453125,-0.0380678063964841,0.0246123930664055,0.049592256658174,0.897992999998678,
-0.03447650390625,0.00981622680664085,-0.0400310517578131,0.0537352094548239,0.900965999999244,
-0.024899697265625,-0.00933738647460913,-0.00890643017578263,0.0280447180155565,0.903989999998885,
0.0110133276367188,-0.00454898315429664,0.0748906279296868,0.0758326630488115,0.90697899999941,
0.0110133276367188,-0.00694318481445277,0.0198239897460919,0.0237169089565761,0.909933999999339,
-0.0392649072265625,-0.0284909997558591,0.0509486113281241,0.0703507711604015,0.912974999999278,
-0.0272938989257813,-0.0189141931152341,-0.078338278320313,0.0850857771308575,0.915911000000051,
-0.0177170922851563,-0.0189141931152341,-0.0448194550781267,0.0517728269823208,0.918918999999732,
-0.0177170922851563,-0.0428562097167966,-0.0256658417968758,0.0530026933794223,0.921857999999702,
-0.0296881005859375,-0.00215478149414028,0.0150355864257801,0.0333480922820981,0.924843999999212,
0.0110133276367188,-0.0356736047363279,-0.0591846650390639,0.0699765963469478,0.927871999998388,
0.0086191259765625,0.00742202514648471,0.0246123930664055,0.02711357007718,0.930852999999843,
-0.0392649072265625,-0.016519991455078,0.017429788085936,0.0460265202889274,0.933893999999782,
-0.0105344873046875,-0.0548272180175778,0.0150355864257801,0.0578192711601135,0.936832999999751,
-0.0272938989257813,-0.016519991455078,-0.020877438476564,0.0381278700374061,0.939829999999347,
-0.0751779321289062,-0.0189141931152341,-0.102280294921876,0.128338329853885,0.942756999998892,
-0.044053310546875,-0.0356736047363279,-0.0160890351562522,0.05892501418992,0.945695999998861,
-0.0392649072265625,0.0169988317871097,-0.0113006318359385,0.0442537851661125,0.948748999999225,
-0.024899697265625,0.0289698400878908,-0.0113006318359385,0.0398365515391226,0.951706999998351,
-0.0751779321289062,-0.0308852014160154,-0.121433908203127,0.146122589653933,0.954692999999679,
0.0181959326171875,0.0241814367675783,0.00785298144531055,0.0312650470259363,0.957681999998385,
-0.0201112939453125,-0.026096798095703,-0.0711556733398453,0.078413244183935,0.960583999998562,
-0.00335188232421875,-0.026096798095703,-0.0520020600585944,0.0582794323608334,0.963592999998582,
-0.000957680664062498,-0.0356736047363279,-0.0400310517578131,0.0536284283936681,0.966511999999057,
-0.0488417138671875,-0.0141257897949216,-0.0328484467773453,0.0605315736330935,0.969513000000006,
-0.0201112939453125,-0.0356736047363279,-0.0496078583984385,0.0643273645808535,0.972451999999976,
-0.03447650390625,-0.00933738647460913,0.0317949980468732,0.0478198495248005,0.975489999998899,
-0.03447650390625,-0.0308852014160154,-0.0520020600585944,0.0696185265460507,0.978592999999819,
-0.0296881005859375,-0.0117315881347655,-0.0376368500976572,0.0493512508639652,0.981667999998535,
-0.0177170922851563,0.00981622680664085,-0.0759440766601571,0.078598705126255,0.984747999998945,
-0.044053310546875,-0.00933738647460913,-0.0711556733398453,0.084208139777354,0.987695999998323,
-0.00814028564453125,0.00263362182617222,-0.0424252534179708,0.0432793523735845,0.990641999998843,
0.00622492431640626,-0.0141257897949216,-0.0855208833007826,0.0869028716477273,0.993667999999161,
-0.0129286889648438,0.0169988317871097,-0.0136948334960945,0.0253704502317534,0.996656999999686,
-0.00814028564453125,-0.00933738647460913,-0.0113006318359385,0.0167676866753349,0.999657999998817,
0.0158017309570313,-0.00694318481445277,-0.056790463378908,0.0593553640996089,1.00260399999934,
-0.0416591088867188,-0.00694318481445277,-0.0136948334960945,0.0443986219728596,1.0055459999985,
-0.0225054956054688,-0.0141257897949216,-0.0041180268554708,0.026888536869091,1.00854599999911,
-0.00814028564453125,-0.0332794030761716,0.0126413847656242,0.0365183177086981,1.01151599999866,
