X,Y,Z,Magnitude,Seconds,
0.451546433105469,-0.361285030517578,-0.0041180268554708,0.578306158251441,0.0,
0.422816013183594,-0.392409652099609,-0.0280600434570317,0.577534485640655,0.00394099999903119,
0.401268198242188,-0.344525618896484,0.0413718046874987,0.530495707069942,0.00786799999877985,
0.456334836425781,-0.344525618896484,0.0102471831054682,0.571877950067448,0.011767999998483,
0.458729038085938,-0.366073433837891,0.0294007963867173,0.587627855171355,0.0158149999988382,
0.468305844726563,-0.342131417236328,0.000670376464842803,0.579969585642042,0.0198199999995268,
0.453940634765625,-0.337343013916015,0.000670376464842803,0.565564194706458,0.0237489999999525,
0.451546433105469,-0.366073433837891,-0.00651222851562672,0.581331531341949,0.0276450000001205,
0.432392819824219,-0.387621248779297,0.0246123930664055,0.581222464322583,0.0315529999988939,
0.413239206542969,-0.382832845458984,0.0413718046874987,0.564835600515394,0.0354839999999967,
0.439575424804688,-0.368467635498047,0.0222181914062478,0.574010975967453,0.0394179999984772,
0.394085593261719,-0.342131417236328,0.00785298144531055,0.521937765249996,0.0434439999989991,
0.468305844726563,-0.322977803955078,-0.00890643017578263,0.568950217990274,0.0473419999998441,
0.413239206542969,-0.351708223876953,0.00545877978515463,0.542674041063036,0.0513329999994312,
0.451546433105469,-0.387621248779297,-0.00651222851562672,0.595135970073842,0.055225000000064,
0.458729038085938,-0.358890828857422,0.0126413847656242,0.582575971037262,0.0592229999983829,
0.422816013183594,-0.349314022216797,-0.0472136567382826,0.550475064380164,0.0630639999999403,
0.422816013183594,-0.394803853759765,0.05334281298828,0.580937965402102,0.067031999999017,
0.418027609863281,-0.373256038818359,-0.0663672700195335,0.564333029028273,0.070901999999478,
0.449152231445313,-0.397198055419922,0.00785298144531055,0.599637967076178,0.0748100000000704,
0.453940634765625,-0.32776620727539,-0.0160890351562522,0.560135379685458,0.078840999998647,
0.415633408203125,-0.392409652099609,0.0102471831054682,0.571700507116339,0.0828119999987393,
0.449152231445313,-0.332554610595703,-0.0280600434570317,0.559569175419424,0.0868499999996857,
0.432392819824219,-0.356496627197265,0.0198239897460919,0.560755192938967,0.0909979999996722,
0.444363828125,-0.344525618896484,0.0198239897460919,0.562627856039286,0.0949379999983648,
0.42521021484375,-0.354102425537109,-0.0472136567382826,0.555356987856759,0.098850999998831,
0.444363828125,-0.339737215576172,0.0198239897460919,0.559708475871867,0.102729999998701,
0.42521021484375,-0.368467635498047,0.0581312163085919,0.565642434340375,0.106633999999758,
0.444363828125,-0.382832845458984,0.0557370146484359,0.589174688959096,0.110546999998405,
0.439575424804688,-0.342131417236328,-0.00651222851562672,0.557066306531457,0.114490999998452,
0.475488449707031,-0.382832845458984,0.0222181914062478,0.610855057600723,0.118337999998403,
0.456334836425781,-0.401986458740234,0.0126413847656242,0.608271650297013,0.122306999999637,
0.461123239746094,-0.387621248779297,-0.0136948334960945,0.602554913019254,0.12640299999839,
0.429998618164063,-0.344525618896484,0.0150355864257801,0.551201217848959,0.13032899999962,
0.456334836425781,-0.334948812255859,-0.0136948334960945,0.566232936371456,0.134341999999378,
0.449152231445313,-0.344525618896484,0.0198239897460919,0.566417354657996,0.138348999998925,
0.458729038085938,-0.330160408935547,-0.0448194550781267,0.566962970188739,0.142276999999012,
0.434787021484375,-0.351708223876953,0.0126413847656242,0.559373071753305,0.146156999999221,
0.441969626464844,-0.373256038818359,0.0796790312499986,0.583957163885147,0.150167999998303,
0.441969626464844,-0.378044442138672,0.0413718046874987,0.583066357434995,0.154128999998647,
0.437181223144531,-0.40438066040039,-0.00651222851562672,0.595561541317305,0.158026999999493,
0.453940634765625,-0.311006795654297,-0.00651222851562672,0.550299678316108,0.161998999999923,
0.437181223144531,-0.361285030517578,0.0389776030273428,0.56848355181482,0.166037999999389,
0.441969626464844,-0.342131417236328,0.0461602080078105,0.56082245156639,0.169942999998966,
0.413239206542969,-0.382832845458984,0.017429788085936,0.563587993927484,0.173815000000104,
0.444363828125,-0.366073433837891,-0.0160890351562522,0.575958182301483,0.177608999998483,
0.444363828125,-0.373256038818359,-0.0472136567382826,0.582244288630535,0.181435999998939,
0.46351744140625,-0.349314022216797,-0.00172382519531311,0.580406474962484,0.185342999999193,
0.432392819824219,-0.363679232177734,-0.0041180268554708,0.565016011010403,0.189323999999033,
0.446758029785156,-0.392409652099609,-0.0280600434570317,0.595286013843145,0.193182999999408,
0.42521021484375,-0.354102425537109,-0.0687614716796894,0.557602362410965,0.197161000000051,
0.446758029785156,-0.30861259399414,0.0341891997070292,0.544061919018336,0.201213999998799,
0.468305844726563,-0.339737215576172,0.103621047851561,0.58776616218558,0.205257999999958,
0.441969626464844,-0.375650240478515,-0.0376368500976572,0.581263095658337,0.209155999998984,
0.487459458007813,-0.373256038818359,-0.0496078583984385,0.615952703809734,0.213176999999632,
0.458729038085938,-0.361285030517578,0.0126413847656242,0.58405394294374,0.217074999998658,
0.475488449707031,-0.382832845458984,0.0102471831054682,0.610536860581419,0.220964999998614,
0.461123239746094,-0.34691982055664,0.00545877978515463,0.57707694669405,0.22497199999998,
0.458729038085938,-0.351708223876953,0.017429788085936,0.578303382869797,0.228914999999688,
0.453940634765625,-0.361285030517578,0.0485544096679682,0.582191123142315,0.232837999999902,
0.42521021484375,-0.351708223876953,0.017429788085936,0.552092563853988,0.236781999999948,
0.456334836425781,-0.399592257080078,0.0341891997070292,0.607523132259754,0.240778999999748,
0.458729038085938,-0.358890828857422,-0.0184832368164081,0.582732003123587,0.244650999999067,
0.429998618164063,-0.416351668701172,0.0198239897460919,0.598866023600193,0.248474999998507,
0.420421811523438,-0.334948812255859,0.0126413847656242,0.537684862205597,0.252283999998326,
0.434787021484375,-0.373256038818359,0.00306457812499872,0.57303509159973,0.256118999999671,
0.456334836425781,-0.380438643798828,0.0294007963867173,0.594844056421016,0.259985999999117,
0.458729038085938,-0.363679232177734,-0.00172382519531311,0.585404036434615,0.263847999998688,
0.449152231445313,-0.380438643798828,0.0365834013671869,0.589753875751052,0.267769999998563,
0.434787021484375,-0.344525618896484,0.0270065947265614,0.555398066512645,0.27175299999908,
0.468305844726563,-0.411563265380859,0.00545877978515463,0.623477733277426,0.275619000000006,
0.461123239746094,-0.363679232177734,-0.0184832368164081,0.587570298938375,0.279584999998406,
0.434787021484375,-0.349314022216797,-0.00651222851562672,0.557765586325269,0.283490999998321,
0.458729038085938,-0.330160408935547,0.017429788085936,0.56545735783033,0.287403999998787,
0.422816013183594,-0.390015450439453,-0.0041180268554708,0.575241158759646,0.291368999998667,
0.456334836425781,-0.342131417236328,-0.00890643017578263,0.570416263876092,0.295334999998886,
0.477882651367188,-0.390015450439453,-0.0448194550781267,0.618459912696629,0.29930499999864,
0.46351744140625,-0.356496627197265,0.00785298144531055,0.584807603411928,0.303258999998434,
0.257616098632813,-0.215238729248047,-0.277057016113282,0.435263546625146,0.307240000000093,
-0.295444484863281,5.18847441772461,1.56408406054687,5.4271459511861,0.311192999999548,
-7.29848434082031,2.32979763549805,-3.4996524506836,8.42279039102525,0.314715999998953,
3.38204926513672,17.5473433874512,-9.59528987744141,20.2834194607583,0.317653999998583,
-6.26418922363281,-16.8357866540527,7.0132870390625,19.2839304599073,0.320637999999235,
3.34853044189453,-2.11862904907227,0.173052895996092,3.96625673307716,0.323703000000023,
5.36205403808594,13.0438500646973,1.37973053271484,14.1702965516097,0.326715999999578,
-0.168551796875,-12.2197658532715,-0.25311499951172,12.2235491744414,0.329717999999048,
-6.78373098388672,5.55478727172852,-1.69921280224609,8.93095693882905,0.332699999999022,
2.69012498535156,-3.9334339074707,0.666258437988279,4.81171227812341,0.335665999999037,
7.58626738037109,1.6043545324707,0.821881545898437,7.79749289886372,0.338737000000037,
-5.20116368652344,2.43035410522461,-0.832511801269533,5.80101720994217,0.341690999999628,
-2.18925799804688,-8.05385496459961,-0.605062643554689,8.36800640388399,0.344739000000118,
4.0835503515625,6.81653154663086,0.553730959960935,7.9653690294913,0.347813999998834,
2.48422364257813,-1.94864073120117,-0.0400310517578131,3.15755764646431,0.350784999998723,
-3.27383135009766,-3.1074343347168,-0.164529538085938,4.51676762988333,0.353828999999678,
0.0732625708007813,2.51415116333008,-0.0855208833007826,2.51667186932164,0.356847999999445,
3.69568968261719,-1.64697132202148,0.266426760742187,4.05482675149061,0.35989999999947,
-0.944273134765625,0.242053787841797,-0.128616513183594,0.983251746356022,0.362910999998348,
-1.11426145263672,-0.873644185791015,0.0772848295898427,1.41802880544905,0.36587899999904,
2.00538331054688,-0.476206710205078,0.00785298144531055,2.06116392418989,0.368974999999409,
0.810676682128906,0.673010086669922,0.0317949980468732,1.05411108599037,0.3719919999985,
-0.779073220214844,-1.54162644897461,0.000670376464842803,1.72730068026346,0.375114999998914,
0.791523068847656,0.143891519775391,0.0294007963867173,0.805032884303155,0.37815799999953,
1.28472861083984,-0.0524330163574216,0.0198239897460919,1.28595093813266,0.381223999998838,
-0.309809694824219,-0.820971749267578,0.0772848295898427,0.880880017361771,0.3841999999986,
0.202549460449219,-0.294247384033203,0.0102471831054682,0.357369293169195,0.387267000000065,
1.25360398925781,-0.167354696044922,-0.0232716401367199,1.26493957381609,0.390332999999373,
0.121146604003906,-0.399592257080078,-0.0136948334960945,0.417777476708015,0.393301000000065,
0.0373495458984375,-0.643800826416015,0.00306457812499872,0.644890598715664,0.396342000000004,
0.904050546875,-0.0213083947753905,0.00306457812499872,0.904306823280669,0.39937800000007,
0.434787021484375,-0.38522704711914,-0.0472136567382826,0.582811085400739,0.402345999998943,
0.0684741674804688,-0.619858809814453,-0.0280600434570317,0.624260379773972,0.405373999999938,
0.73166802734375,-0.107499654541015,-0.0591846650390639,0.741887526879458,0.408329999998386,
0.571256516113281,-0.430716878662109,0.0437660063476546,0.716775069375279,0.411371999998664,
0.152271225585938,-0.509725533447265,0.0557370146484359,0.534895560265238,0.414353000000119,
0.547314499511719,-0.284670577392578,-0.0591846650390639,0.619752630962203,0.417304999999033,
0.599986936035156,-0.299035787353515,-0.0400310517578131,0.671572193167517,0.420437999999194,
0.240856687011719,-0.394803853759765,0.110803652832029,0.475562273632743,0.423428999998578,
0.607169541015625,-0.318189400634765,0.0222181914062478,0.685852020659559,0.426539000000048,
0.497036264648438,-0.334948812255859,0.017429788085936,0.599616171162856,0.429535999999644,
0.334230551757813,-0.421140072021484,0.0198239897460919,0.538016740037005,0.432502999999997,
0.525766684570312,-0.30861259399414,0.0341891997070292,0.610607272436595,0.435578999999052,
0.492247861328125,-0.363679232177734,-0.0160890351562522,0.612233123860314,0.438552999999956,
0.298317526855469,-0.421140072021484,0.0246123930664055,0.516679859278334,0.441636999999901,
0.461123239746094,-0.303824190673828,0.0461602080078105,0.55414307347098,0.444644999999582,
0.535343491210938,-0.311006795654297,-0.0041180268554708,0.619140403034926,0.44758599999841,
0.322259543457031,-0.387621248779297,-0.0376368500976572,0.505487861713443,0.450645999999324,
0.444363828125,-0.344525618896484,0.0389776030273428,0.563627862476357,0.453641999998581,
0.50182466796875,-0.339737215576172,0.0102471831054682,0.606097663574934,0.456686999999874,
0.315076938476563,-0.418745870361328,0.00306457812499872,0.524052452282702,0.459677999999258,
0.458729038085938,-0.363679232177734,0.0701022246093732,0.589583951779404,0.462686999999278,
0.52097828125,-0.301429989013672,0.0150355864257801,0.602083446600347,0.465749999999389,
0.398873996582031,-0.399592257080078,-0.0280600434570317,0.565297977270823,0.468705999999656,
0.401268198242188,-0.354102425537109,-0.0639730683593758,0.538977966309485,0.471723999999085,
0.544920297851563,-0.330160408935547,0.0341891997070292,0.638054016534439,0.474716999999146,
0.446758029785156,-0.387621248779297,0.0509486113281241,0.593665504033206,0.477766999998494,
0.398873996582031,-0.411563265380859,0.0198239897460919,0.573478663186113,0.480736999999863,
0.46351744140625,-0.332554610595703,0.00785298144531055,0.570528401426114,0.483702999999878,
0.456334836425781,-0.378044442138672,0.0940442412109359,0.600002835387154,0.486782999998468,
0.384508786621094,-0.354102425537109,0.0605254179687496,0.526211802395558,0.489826999999423,
0.468305844726563,-0.380438643798828,0.00785298144531055,0.603411629999067,0.492876999998771,
0.492247861328125,-0.356496627197265,0.0317949980468732,0.608612129427224,0.495858999998745,
0.382114584960938,-0.363679232177734,0.00306457812499872,0.527525858699211,0.498818999998548,
0.418027609863281,-0.325372005615234,-0.0136948334960945,0.529907136308404,0.501843000000008,
0.441969626464844,-0.311006795654297,-0.078338278320313,0.546076243312981,0.504856999999902,
0.341413156738281,-0.208056124267578,-0.0184832368164081,0.400239833702813,0.50793799999883,
0.547314499511719,-0.334948812255859,0.0509486113281241,0.643692185134819,0.510961999998472,
0.990241806640625,-1.89596829467773,0.972716250488279,2.34977690728419,0.513969999999972,
0.0588973608398438,1.81025587524414,-0.947433480957033,2.04404633846892,0.517057999999452,
0.200155258789063,-1.29262947631836,0.378954238769531,1.36182209034418,0.520060999999259,
0.434787021484375,-1.01969048706055,0.00306457812499872,1.10852056142054,0.523136999998314,
1.07164466308594,1.13509100708008,0.12995726611328,1.56644271178051,0.526194000000032,
0.0205901342773438,-1.5200786340332,0.0844674345703105,1.52256289025337,0.529246000000057,
-0.144609780273438,0.0888248815917971,-0.0639730683593758,0.181368138370117,0.53229199999987,
1.24163298095703,-0.497754525146484,0.0701022246093732,1.33952467263549,0.535273999999845,
0.499430466308594,0.0433350500488283,0.170658694335936,0.529559351907225,0.538387999999031,
-0.127850368652344,-0.916739815673828,-0.0711556733398453,0.928343005712151,0.541363999998794,
0.6358999609375,-0.150595284423828,-0.0711556733398453,0.657351374730026,0.544339999998556,
0.793917270507813,0.0193930334472658,0.0677080229492173,0.797035192779186,0.547393999999258,
0.101992990722656,-0.878432589111328,-0.0136948334960945,0.884439897468375,0.550334999999905,
0.377326181640625,-0.0596156213378904,-0.0256658417968758,0.38286786897589,0.553415999998833,
0.805888278808594,-0.394803853759765,0.0940442412109359,0.902313870097086,0.556378999999652,
0.219308872070313,-0.433111080322265,-0.0400310517578131,0.487118131844329,0.559350999999879,
0.358172568359375,-0.38522704711914,0.0198239897460919,0.526384324545039,0.562502999999197,
0.695755002441406,-0.234392342529297,0.0294007963867173,0.73476472457977,0.565478999998959,
0.34859576171875,-0.430716878662109,-0.0184832368164081,0.554416508318355,0.568581999999878,
0.283952316894531,-0.469024105224609,0.017429788085936,0.548558408069951,0.571551999999429,
0.611957944335938,-0.30861259399414,0.00785298144531055,0.685416609169372,0.574639999998908,
0.38690298828125,-0.406774862060547,0.0437660063476546,0.563094285228469,0.57762399999956,
0.4060566015625,-0.337343013916015,-0.0184832368164081,0.528227131784841,0.580614999998943,
0.580833322753906,-0.397198055419922,-0.0256658417968758,0.704125258377977,0.583697000000029,
0.451546433105469,-0.337343013916015,0.0294007963867173,0.5644102205988,0.586675999998988,
0.331836350097656,-0.413957467041015,-0.0615788666992199,0.534104956529246,0.589670999999726,
0.499430466308594,-0.334948812255859,-0.00890643017578263,0.601415681544226,0.592658999999912,
0.499430466308594,-0.301429989013672,0.0964384428710918,0.591262380181085,0.595663999998578,
0.367749375,-0.399592257080078,-0.020877438476564,0.543460616943477,0.59867899999881,
0.461123239746094,-0.368467635498047,0.0126413847656242,0.590392111441411,0.601702999998452,
0.470700046386719,-0.375650240478515,0.0437660063476546,0.603810483638408,0.604781999998522,
0.389297189941406,-0.397198055419922,0.0629196196289055,0.559711957938982,0.60776899999837,
0.437181223144531,-0.306218392333984,0.0724964262695291,0.538658386638147,0.610716999999568,
0.489853659667969,-0.380438643798828,0.0461602080078105,0.621949302105017,0.613776999998663,
0.451546433105469,-0.315795198974609,0.0294007963867173,0.551801772173539,0.616758999998638,
0.413239206542969,-0.358890828857422,-0.0304542451171894,0.548175820251028,0.619799000000057,
0.437181223144531,-0.370861837158203,-0.0328484467773453,0.574234224499193,0.622740999999223,
0.418027609863281,-0.325372005615234,0.000670376464842803,0.52973056741205,0.625739999999496,
0.477882651367188,-0.375650240478515,-0.0543962617187521,0.610281807805439,0.628848999998809,
0.456334836425781,-0.315795198974609,0.0317949980468732,0.555858806291632,0.631835999998657,
0.477882651367188,-0.392409652099609,-0.0256658417968758,0.61888278290304,0.634899999999107,
0.410845004882813,-0.361285030517578,0.0820732329101546,0.553223740338003,0.637901999998576,
0.42521021484375,-0.34691982055664,-0.00651222851562672,0.548816451851399,0.640821999999389,
0.461123239746094,-0.380438643798828,-0.00890643017578263,0.597869156611964,0.643914999998742,
0.446758029785156,-0.375650240478515,0.000670376464842803,0.583700513751432,0.646918999998888,
0.418027609863281,-0.325372005615234,0.0246123930664055,0.530301607143089,0.649975999998787,
0.456334836425781,-0.354102425537109,0.103621047851561,0.586828196548925,0.652971999999863,
0.420421811523438,-0.392409652099609,-0.0256658417968758,0.575672276647684,0.655976999998529,
0.418027609863281,-0.354102425537109,0.0317949980468732,0.548768195397722,0.659050999998726,
0.456334836425781,-0.354102425537109,-0.0184832368164081,0.577902795243473,0.662032999998701,
0.437181223144531,-0.32776620727539,-0.0520020600585944,0.548873685607336,0.66508900000008,
0.453940634765625,-0.356496627197265,0.0294007963867173,0.577941477939261,0.668141000000105,
0.446758029785156,-0.351708223876953,0.0294007963867173,0.569346835196586,0.671206999999413,
0.420421811523438,-0.354102425537109,-0.0256658417968758,0.550274261447012,0.674168999999893,
0.468305844726563,-0.354102425537109,-0.0256658417968758,0.587671360040172,0.677108999998381,
0.458729038085938,-0.334948812255859,-0.0184832368164081,0.568299804027832,0.680188999998791,
0.461123239746094,-0.330160408935547,0.00306457812499872,0.567141895385542,0.683201999998346,
0.458729038085938,-0.387621248779297,0.00545877978515463,0.600593340926466,0.686210999998366,
0.4826710546875,-0.358890828857422,-0.0184832368164081,0.601760420860596,0.689157999999225,
0.449152231445313,-0.356496627197265,0.0198239897460919,0.573777450571894,0.69209199999932,
0.461123239746094,-0.349314022216797,-0.0041180268554708,0.578508328804688,0.695127999999386,
0.437181223144531,-0.401986458740234,0.0102471831054682,0.593991194919806,0.698094999999739,
0.420421811523438,-0.34691982055664,0.0150355864257801,0.545283348690264,0.701239999998506,
0.437181223144531,-0.334948812255859,0.00785298144531055,0.550799235674251,0.704225999999835,
0.446758029785156,-0.366073433837891,0.00306457812499872,0.577591454038634,0.707214000000022,
0.492247861328125,-0.354102425537109,0.0653138212890614,0.609887186293298,0.710288999998738,
0.427604416503906,-0.34691982055664,0.0317949980468732,0.551552192280566,0.713257999999769,
0.427604416503906,-0.356496627197265,0.00306457812499872,0.55672683953242,0.71630599999844,
0.449152231445313,-0.334948812255859,-0.0376368500976572,0.561555844354938,0.719252999999298,
0.444363828125,-0.34691982055664,0.0317949980468732,0.564644574526097,0.722249999998894,
0.46351744140625,-0.339737215576172,0.0365834013671869,0.575854269230366,0.725346999999601,
0.475488449707031,-0.38522704711914,-0.0113006318359385,0.61205951337825,0.728287999998429,
0.446758029785156,-0.351708223876953,0.0868616362304682,0.575183758262374,0.73132699999951,
0.456334836425781,-0.332554610595703,0.0365834013671869,0.565837783485512,0.734302999999272,
0.453940634765625,-0.399592257080078,0.0246123930664055,0.605261796004196,0.737250999998651,
0.439575424804688,-0.380438643798828,0.05334281298828,0.583785552652012,0.740295999999944,
0.473094248046875,-0.351708223876953,0.0126413847656242,0.589641117025018,0.743303999999625,
0.461123239746094,-0.344525618896484,0.05334281298828,0.578081309166316,0.746359999999186,
0.429998618164063,-0.34691982055664,-0.0041180268554708,0.552511657490806,0.749297999998817,
0.453940634765625,-0.380438643798828,0.0389776030273428,0.593561214302844,0.752222999999503,
0.444363828125,-0.358890828857422,0.05334281298828,0.573678738041924,0.755270999999993,
0.441969626464844,-0.303824190673828,0.0605254179687496,0.539731058747198,0.758248999998614,
0.4826710546875,-0.334948812255859,-0.0520020600585944,0.5898018888704,0.761259999999311,
0.480276853027344,-0.356496627197265,-0.00172382519531311,0.598129310709799,0.764207999998689,
0.470700046386719,-0.330160408935547,-0.0184832368164081,0.57524434750822,0.767255999999179,
0.453940634765625,-0.358890828857422,0.0701022246093732,0.582905694623555,0.770281999999497,
0.446758029785156,-0.382832845458984,0.0581312163085919,0.591213128278841,0.773260999998456,
0.408450803222656,-0.34691982055664,0.0222181914062478,0.53635722105482,0.77628999999979,
0.470700046386719,-0.370861837158203,0.017429788085936,0.599500486606589,0.779258999999001,
0.434787021484375,-0.394803853759765,0.0437660063476546,0.588918755268025,0.782266999998683,
0.418027609863281,-0.318189400634765,0.0126413847656242,0.525501076966652,0.785284999999931,
0.446758029785156,-0.366073433837891,-0.0113006318359385,0.577693863927314,0.788275999999314,
0.427604416503906,-0.366073433837891,-0.00651222851562672,0.562936679472701,0.791402999999264,
0.446758029785156,-0.38522704711914,0.00306457812499872,0.58991694894174,0.7943839999989,
0.434787021484375,-0.38522704711914,0.0270065947265614,0.581522990123444,0.797496999999566,
0.446758029785156,-0.366073433837891,-0.0424252534179708,0.579139359970429,0.800473999999667,
0.465911643066406,-0.363679232177734,0.0437660063476546,0.592664919135465,0.803484000000026,
0.449152231445313,-0.318189400634765,0.0294007963867173,0.551222848326145,0.806610999999975,
0.394085593261719,-0.38522704711914,0.0270065947265614,0.551754192378543,0.809690000000046,
0.444363828125,-0.413957467041015,0.0270065947265614,0.607905710142323,0.812736999998378,
0.453940634765625,-0.351708223876953,0.0557370146484359,0.576946608826172,0.815724999998565,
0.451546433105469,-0.368467635498047,0.0389776030273428,0.584107723966693,0.818723999998838,
0.437181223144531,-0.306218392333984,-0.0113006318359385,0.533877167477361,0.821808999999121,
0.451546433105469,-0.339737215576172,0.0389776030273428,0.566422819486891,0.824806999999055,
0.475488449707031,-0.330160408935547,-0.0232716401367199,0.579341635538079,0.827841999998782,
0.468305844726563,-0.40438066040039,-0.00172382519531311,0.618738276078197,0.83078199999909,
0.446758029785156,-0.356496627197265,-0.0041180268554708,0.571576364561834,0.833760999999868,
0.492247861328125,-0.368467635498047,0.0317949980468732,0.615700639347106,0.836801999999807,
0.449152231445313,-0.339737215576172,0.0317949980468732,0.564065620792966,0.839841999999408,
0.468305844726563,-0.356496627197265,-0.0304542451171894,0.589345119988062,0.842972999998892,
0.439575424804688,-0.380438643798828,-0.0711556733398453,0.585681863844323,0.845944999999119,
0.410845004882813,-0.358890828857422,0.00306457812499872,0.545532434154203,0.848947999998927,
0.437181223144531,-0.387621248779297,-0.0256658417968758,0.584838772492481,0.852001999999629,
0.432392819824219,-0.38522704711914,-0.0160890351562522,0.579329168538863,0.854999999999563,
0.458729038085938,-0.361285030517578,0.0748906279296868,0.588700101758985,0.858039999999164,
0.458729038085938,-0.358890828857422,-0.0591846650390639,0.585438111158646,0.861052999998719,
0.432392819824219,-0.351708223876953,0.00785298144531055,0.557426133847168,0.864088999998785,
0.480276853027344,-0.320583602294922,0.0677080229492173,0.581398381478594,0.867075000000114,
0.465911643066406,-0.392409652099609,-0.00651222851562672,0.609180928235622,0.870015999998941,
0.42521021484375,-0.361285030517578,0.0485544096679682,0.560078682670355,0.873118999999861,
0.437181223144531,-0.351708223876953,0.0437660063476546,0.562797974342883,0.876054999998814,
0.470700046386719,-0.368467635498047,-0.020877438476564,0.598132760777508,0.879107999999178,
0.449152231445313,-0.34691982055664,0.00306457812499872,0.567538968306529,0.882119999998395,
0.422816013183594,-0.373256038818359,0.0317949980468732,0.564893240727522,0.88508499999989,
0.477882651367188,-0.394803853759765,-0.056790463378908,0.622468527840634,0.888120999999956,
0.473094248046875,-0.344525618896484,0.0605254179687496,0.588370118064586,0.891094999999041,
0.468305844726563,-0.349314022216797,-0.00890643017578263,0.584302982039979,0.89417499999945,
0.418027609863281,-0.349314022216797,0.00785298144531055,0.544820188725477,0.897132999998576,
0.473094248046875,-0.387621248779297,0.017429788085936,0.611859622424115,0.900109999998676,
0.437181223144531,-0.351708223876953,-0.0328484467773453,0.562054371985943,0.903177999998661,
0.413239206542969,-0.378044442138672,0.0126413847656242,0.560217856431759,0.906154999998762,
0.444363828125,-0.358890828857422,0.0509486113281241,0.573461070849745,0.909230999999636,
0.465911643066406,-0.330160408935547,-0.0376368500976572,0.572272738524735,0.912214999998469,
0.446758029785156,-0.363679232177734,0.0198239897460919,0.576409846952977,0.915156999999454,
0.449152231445313,-0.315795198974609,-0.0041180268554708,0.549073121590284,0.918259999998554,
0.451546433105469,-0.358890828857422,-0.00172382519531311,0.57680133482989,0.921257999998488,
0.458729038085938,-0.375650240478515,-0.00890643017578263,0.592979559557741,0.924402999999074,
0.42521021484375,-0.34691982055664,-0.0136948334960945,0.548948665329469,0.927358999999342,
0.477882651367188,-0.380438643798828,0.0437660063476546,0.612389462258167,0.930382999998983,
0.504218869628906,-0.351708223876953,0.0844674345703105,0.620540160453312,0.933477999999013,
0.492247861328125,-0.394803853759765,0.0317949980468732,0.631814024714928,0.936467999999877,
0.441969626464844,-0.349314022216797,0.0198239897460919,0.563693558065199,0.939602999998897,
0.468305844726563,-0.325372005615234,-0.0448194550781267,0.572001826742397,0.942620999998326,
0.456334836425781,-0.313400997314453,0.0389776030273428,0.55496028830106,0.945584999999483,
0.461123239746094,-0.344525618896484,0.00306457812499872,0.575623084968822,0.948661999998876,
0.415633408203125,-0.354102425537109,0.0653138212890614,0.549914132421771,0.951673999999912,
0.456334836425781,-0.354102425537109,0.0222181914062478,0.578034305847303,0.95479399999931,
0.432392819824219,-0.373256038818359,0.0294007963867173,0.571968555060578,0.957735999998476,
0.465911643066406,-0.38522704711914,0.0557370146484359,0.607108023154768,0.960753999999724,
0.415633408203125,-0.411563265380859,-0.0376368500976572,0.586133076963563,0.963762999999744,
0.453940634765625,-0.342131417236328,-0.0496078583984385,0.570593503438688,0.966691999999966,
0.453940634765625,-0.363679232177734,0.0270065947265614,0.58228347045707,0.969814000000042,
0.485065256347656,-0.366073433837891,0.00306457812499872,0.607706716695287,0.972847999999431,
0.429998618164063,-0.349314022216797,0.0677080229492173,0.558124962810276,0.975905999999668,
0.439575424804688,-0.342131417236328,-0.00890643017578263,0.557099439284259,0.9789209999999,
0.461123239746094,-0.368467635498047,0.0198239897460919,0.590589562397532,0.981888999998773,
0.434787021484375,-0.368467635498047,0.0461602080078105,0.571785726705468,0.984971999998379,
0.456334836425781,-0.390015450439453,0.05334281298828,0.602659929159668,0.987927999998647,
0.473094248046875,-0.337343013916015,-0.00890643017578263,0.581117717051765,0.991007999999056,
0.444363828125,-0.370861837158203,0.0653138212890614,0.58246339735441,0.994017999999414,
0.446758029785156,-0.366073433837891,-0.00172382519531311,0.5775858963935,0.996965999998793,
0.408450803222656,-0.34691982055664,0.0509486113281241,0.538313274538673,1.00003199999992,
0.429998618164063,-0.332554610595703,0.0126413847656242,0.543738158731071,1.00303799999892,
0.439575424804688,-0.320583602294922,0.0150355864257801,0.544266909715975,1.00606799999878,
0.451546433105469,-0.370861837158203,-0.00651222851562672,0.584358702023739,1.00905499999863,
0.456334836425781,-0.351708223876953,0.017429788085936,0.576406067968707,1.01204799999869,
0.449152231445313,-0.363679232177734,-0.00172382519531311,0.577930170957525,1.0150909999993,
0.468305844726563,-0.311006795654297,0.0126413847656242,0.562312542770482,1.01804999999877,
0.456334836425781,-0.368467635498047,0.0222181914062478,0.586944230208144,1.02110599999833,
0.449152231445313,-0.334948812255859,-0.0113006318359385,0.560407118195162,1.02409099999932,
0.458729038085938,-0.366073433837891,0.000670376464842803,0.58689227184358,1.02704399999857,
0.410845004882813,-0.378044442138672,0.0413718046874987,0.559841803094587,1.03010399999948,
0.437181223144531,-0.366073433837891,0.0389776030273428,0.571538655184205,1.03311399999984,
