X,Y,Z,Magnitude,Seconds,
0.167929304443359,1.28448919067383,-0.192254393310545,1.30960852318391,0.0,
0.158352497802734,1.25815297241211,-0.194648594970701,1.2829312105775,0.00298699999996188,
0.187082917724609,1.23181675415039,-0.225773216552732,1.26623302721992,0.0060839999999871,
0.211024934326172,1.23899935913086,-0.187465989990232,1.27074562058544,0.00910499999997683,
0.251726362548828,1.21266314086914,-0.211408006591794,1.25642803219118,0.0122450000000072,
0.242149555908203,1.1982979309082,-0.209013804931638,1.24025848487217,0.0152279999999791,
0.287639387451172,1.11928927612305,-0.25929203979492,1.18438898287613,0.0181969999999865,
0.316369807373047,1.17435591430664,-0.168312376708982,1.22781542775682,0.0212970000000041,
0.354677033935547,1.14323129272461,-0.201831199951169,1.21388196310013,0.0243719999999712,
0.342706025634766,1.14562549438477,-0.187465989990232,1.21039195750539,0.0274289999999837,
0.378619050537109,1.16956751098633,-0.242532628173826,1.2530213980269,0.030399999999986,
0.395378462158203,1.1599907043457,-0.127610948486327,1.23214735996982,0.607793000000015,
0.412137873779297,1.31800801391602,-0.153947166748045,1.38949720471108,0.612192999999934,
0.412137873779297,1.28209498901367,-0.0988805285644503,1.35033423521233,0.615139999999997,
0.381013252197266,1.30843120727539,-0.0916979235839825,1.36585937479365,0.618155000000002,
0.347494428955078,1.30124860229492,-0.101274730224606,1.350650537375,0.621094999999968,
0.373830647216797,1.25815297241211,-0.13718775512695,1.31966614525975,0.624020999999971,
0.366648042236328,1.32040221557617,-0.108457335205076,1.37464751530492,0.627027999999996,
0.321158210693359,1.29885440063477,-0.0869095202636689,1.3407902949591,0.62997699999994,
0.285245185791016,1.32519061889648,-0.134793553466794,1.36222769553566,0.632998999999927,
0.254120564208984,1.32758482055664,-0.110851536865232,1.3562251952208,0.63594999999998,
0.194265522705078,1.32040221557617,-0.0390254870605453,1.33518691307646,0.638949000000025,
0.191871321044922,1.29885440063477,-0.0581791003417944,1.31423824537425,0.641890999999987,
0.165535102783203,1.30124860229492,-0.165918175048827,1.32218706544856,0.644815999999992,
0.153564094482422,1.31082540893555,-0.103668931884764,1.32385513983343,0.647829999999999,
0.108074262939453,1.2916717956543,-0.0653617053222639,1.29783212570861,0.650769999999966,
0.0817380446777344,1.30364280395508,-0.134793553466794,1.31313935677361,0.653773999999999,
0.108074262939453,1.32519061889648,-0.149158763427732,1.3379307005329,0.656710999999973,
0.0913148513183594,1.30124860229492,-0.108457335205076,1.30894970132758,0.659637999999973,
0.0984974562988281,1.32279641723633,-0.0438138903808571,1.32718188932072,0.662653999999975,
0.100891657958984,1.31800801391602,-0.0605733020019503,1.32325106321815,0.665596999999934,
0.100891657958984,1.32040221557617,-0.0294486804199199,1.32457856026838,0.668610999999942,
0.139198884521484,1.33716162719727,-0.0557848986816385,1.34554431425419,0.671557000000007,
0.117651069580078,1.36110364379883,-0.0533906970214826,1.36722180711991,0.674484000000007,
0.117651069580078,1.34434423217773,-0.0246602770996063,1.34970786395779,0.677503000000002,
0.129622077880859,1.3898340637207,0.0447715710449241,1.39658336712363,0.680457999999931,
0.117651069580078,1.40180507202148,-0.010295067138669,1.40677120475431,0.683464999999956,
0.177506111083984,1.4065934753418,-0.0701501086425758,1.41948394217365,0.686415000000011,
0.172717707763672,1.38025725708008,0.0160411511230496,1.39111423715909,0.689352999999983,
0.213419135986328,1.42335288696289,-0.0581791003417944,1.44043950797919,0.69237899999996,
0.165535102783203,1.41617028198242,-0.0126892687988249,1.42586856174272,0.695398999999952,
0.211024934326172,1.43532389526367,-0.00550666381835718,1.45076411954827,0.698525000000018,
0.237361152587891,1.45926591186523,-0.0174776721191385,1.47854752622715,0.701577999999927,
0.232572749267578,1.42095868530273,-0.0390254870605453,1.44039461873456,0.704560000000015,
0.230178547607422,1.41856448364258,-0.0414196887207012,1.4377144878746,0.707583,
0.302004597412109,1.43771809692383,-0.000718260498045353,1.46909517015695,0.710540999999921,
0.323552412353516,1.41377608032227,-0.0079008654785131,1.45034871410516,0.713585999999964,
0.330735017333984,1.44011229858398,-0.00311246215820127,1.47760575650085,0.716550999999981,
0.414532075439453,1.42095868530273,0.025617957763675,1.4804109924833,0.719479999999976,
0.381013252197266,1.3682862487793,0.025617957763675,1.42057545970231,0.722486000000004,
0.330735017333984,1.40419927368164,0.121386024169924,1.4477209049961,0.725444999999922,
0.352282832275391,1.4281412902832,0.0735019909667987,1.47278419383283,0.728486999999973,
0.402561067138672,1.35870944213867,0.121386024169924,1.42228032672761,0.731448999999998,
0.376224848876953,1.30843120727539,0.12378022583008,1.36706214393903,0.734498000000031,
0.373830647216797,1.30603700561523,0.145328040771487,1.36623652866896,0.737471000000028,
0.333129218994141,1.27251818237305,0.183635267333987,1.32815643371798,0.740398000000027,
0.304398799072266,1.26533557739258,0.140539637451175,1.30900120014726,0.743406999999934,
0.270879975830078,1.19350952758789,0.0878672009277359,1.22701328385134,0.746355999999992,
0.270879975830078,1.17914431762695,0.111809217529299,1.21501382058895,0.749359000000027,
0.220601740966797,1.15280809936523,0.063925184326175,1.17546504468266,0.752297999999996,
0.148775691162109,1.1216834777832,0.00407014282226825,1.13151429362389,0.755235999999968,
0.187082917724609,1.1216834777832,0.00167594116211234,1.13717925201569,0.758260999999948,
0.163140901123047,1.1384428894043,0.0351947644042987,1.15061107134249,0.76121999999998,
0.151169892822266,1.12886608276367,-0.027054478759764,1.13926419856461,0.764234999999985,
0.153564094482422,1.15280809936523,-0.0773327136230453,1.16555943377959,0.767170999999962,
0.146381489501953,1.20548053588867,-0.0294486804199199,1.21469258977476,0.770100999999954,
0.139198884521484,1.1767501159668,0.0160411511230496,1.18506307148997,0.773116999999957,
0.124833674560547,1.24857616577148,-0.0342370837402317,1.25526812511907,0.776048999999944,
0.115256867919922,1.30124860229492,0.0567425793457055,1.30757477449208,0.779076000000032,
0.129622077880859,1.33476742553711,0.0687135876464868,1.34280583871101,0.782015000000001,
0.148775691162109,1.39941087036133,-0.0150834704589826,1.40737788153975,0.784927999999923,
0.172717707763672,1.42095868530273,0.0423773693847682,1.43204428470225,0.787952000000018,
0.163140901123047,1.44250650024414,-0.010295067138669,1.45173893840223,0.790890999999988,
0.220601740966797,1.49039053344727,-0.00550666381835718,1.50663844158219,0.793915999999967,
0.177506111083984,1.51433255004883,-0.00550666381835718,1.52471040363603,0.796860999999922,
0.242149555908203,1.52390935668945,-0.0797269152832012,1.54508657228415,0.799821999999949,
0.285245185791016,1.54066876831055,-0.0773327136230453,1.56875919702827,0.802925999999957,
0.261303169189453,1.55024557495117,-0.130005150146483,1.57747964422643,0.805993999999941,
0.218207539306641,1.56700498657227,-0.158735570068357,1.59006796689875,0.809121000000005,
-3.36591234594727,1.72262809448242,0.138145435791017,3.78363550489873,15.2569599999999,
-3.37788335424805,1.83994397583008,-0.0533906970214826,3.84686110428072,15.2612339999999,
-3.35633553930664,1.9261352355957,-0.189860191650387,3.87440732120277,15.2641649999999,
-3.3419703293457,2.03387431030273,-0.276051451416013,3.92194018263478,15.267069,
-3.28929789282227,2.1344307800293,-0.333512291259764,3.9352898026553,15.270072,
-3.22944285131836,2.26132346801758,-0.474770189208982,3.97093083413698,15.2729959999999,
-3.24141385961914,2.35469733276367,-0.601662877197263,4.05134071093171,15.275993,
-3.16479940649414,2.4791958190918,-0.714190355224607,4.08318932407545,15.278922,
-3.14564579321289,2.55341607055664,-0.85305405151367,4.14037707226513,15.2818209999999,
-3.14803999487305,2.67312615356445,-0.9607931262207,4.24015125597938,15.284818,
-3.10494436499023,2.72579859008789,-1.11881043579101,4.28046659309994,15.287747,
-3.0738197434082,2.77607682495117,-1.26485673706054,4.33068504030073,15.290738,
-3.0355125168457,2.84072026977539,-1.43963345825195,4.39961048107195,15.2936639999999,
-3.0139647019043,2.87423909301758,-1.54258412963867,4.44126101295214,15.29657,
-2.99002268530273,2.94127673950195,-1.72933185913086,4.53673155432027,15.299585,
-2.97326327368164,3.02267959594727,-1.93762740356445,4.66168278515644,15.3026209999999,
-2.90622562719727,3.08253463745117,-1.96635782348633,4.67062418497252,15.3057229999999,
-2.84158218237305,3.07056362915039,-2.12916353637695,4.69428244404599,15.308753,
-2.77454453588867,3.12563026733398,-2.22972000610351,4.73701522641866,15.311678,
-2.66201705786133,3.18309110717773,-2.36379529907226,4.77555567749501,15.31466,
-2.57821999975586,3.17590850219727,-2.48111118041992,4.78429993531705,15.317586,
-2.53033596655273,3.18787951049805,-2.5696966418457,4.81336854065806,15.320593,
-2.4010490769043,3.1902737121582,-2.7612327746582,4.85461527456474,15.3235169999999,
-2.31246361547852,3.18309110717773,-2.82587621948242,4.84408230497193,15.3264859999999,
-2.24542596899414,3.2285809387207,-2.8929138659668,4.88207161930331,15.329422,
-2.1161390793457,3.2070331237793,-2.97910512573242,4.86191046917946,15.332325,
-2.00600580297852,3.18309110717773,-3.08923840209961,4.86821550295223,15.335323,
-1.91502613989258,3.1519664855957,-3.16345865356445,4.85898019090449,15.33826,
-1.8096812668457,3.12802446899414,-3.20416008178711,4.82971274465846,15.3412519999999,
-1.65405815893555,3.07056362915039,-3.17542966186523,4.71673859051527,15.344209,
-1.60377992407227,3.08253463745117,-3.28795713989258,4.78380517890456,15.347115,
-1.55589589086914,3.07056362915039,-3.2592267199707,4.74043582764873,15.350097,
-1.49125244604492,3.08253463745117,-3.33823537475586,4.78222428020608,15.35303,
-1.48406984106445,2.97000715942383,-3.36935999633789,4.73032690256265,15.356036,
-1.44815681616211,2.8838158996582,-3.38133100463867,4.67407227909978,15.35896,
-1.39069597631836,3.00831438598633,-3.31908176147461,4.69044715169394,15.361866,
-1.25662068334961,3.25731135864258,-2.98389352905273,4.5926891274815,15.3648469999999,
-1.30929311987305,3.17830270385742,-3.08923840209961,4.62160691276327,15.3677719999999,
-1.20873665014648,3.13520707397461,-3.0676905871582,4.54986738539123,15.370756,
-1.19915984350586,3.13999547729492,-3.05332537719726,4.54096375087342,15.373688,
-1.14169900366211,3.15914909057617,-2.94079789916992,4.46452594070339,15.37659,
-1.06269034887695,3.13281287231445,-2.88573126098633,4.38990571438261,15.379582,
-1.00762371069336,3.11844766235352,-2.8761544543457,4.36030799490612,15.3825009999999,
-0.995652702392578,3.1304186706543,-2.74926176635742,4.28360661327781,15.385502,
-1.05311354223633,3.11605346069336,-2.75644437133789,4.29148259637866,15.388428,
-0.966922282470703,3.16633169555664,-2.68222411987304,4.26085922506877,15.391344,
-1.05311354223633,3.09929404907227,-2.6463110949707,4.20923201389771,15.394333,
-1.0818439621582,3.16633169555664,-2.6463110949707,4.26602920478866,15.397277,
-1.16564102026367,3.1902737121582,-2.49068798706054,4.21189885864995,15.400276,
-1.22789026342773,3.24294614868164,-2.40689092895508,4.22108258224782,15.403208,
-1.34281194311523,3.25012875366211,-2.36140109741211,4.23588195926341,15.406125,
-1.39309017797852,3.28125337524414,-2.22732580444336,4.20336819653841,15.4091099999999,
-1.48646404272461,3.33871421508789,-2.1866243762207,4.25886300824829,15.4120349999999,
-1.5582900925293,3.35786782836914,-2.02860706665039,4.2212309811399,15.415025,
-1.62293353735352,3.42251127319336,-1.9567810168457,4.2633893359263,15.4179409999999,
-1.7330668137207,3.47997211303711,-1.85622454711914,4.30805014567654,15.420918,
-1.72109580541992,3.5134909362793,-1.75087967407226,4.28630014859321,15.4238369999999,
-1.75940303198242,3.50630833129883,-1.73412026245117,4.28915728642914,15.426737,
-1.76897983862305,3.49433732299805,-1.71975505249023,4.27752737418683,15.429714,
-1.83122908178711,3.50151992797852,-1.60243917114258,4.26401841614523,15.432637,
-1.87671891333008,3.44645328979492,-1.52821891967773,4.21136168297738,15.435615,
-1.9246029465332,3.39617505493164,-1.49470009643554,4.17997965112614,15.4386119999999,
-1.97488118139648,3.41054026489258,-1.51864211303711,4.22353104008688,15.4416209999999,
-2.05149563452148,3.50151992797852,-1.40611463500976,4.29493125803895,15.444722,
-2.11374487768555,3.46321270141602,-1.43005665161133,4.30195556113832,15.447709,
-2.14008109594727,3.47997211303711,-1.36541320678711,4.30749419384582,15.450702,
-2.20711874243164,3.50151992797852,-1.25049152709961,4.32385753795978,15.453622,
-2.20233033911133,3.50630833129883,-1.27203934204101,4.33157490116539,15.4565339999999,
-2.25260857397461,3.56616337280273,-1.28161614868164,4.40843583843808,15.459538,
-2.3076752121582,3.56137496948242,-1.30076976196289,4.43855365312872,15.462486,
-2.3076752121582,3.59728799438477,-1.12838724243164,4.42030582293088,15.465463,
-2.27176218725586,3.62123001098633,-1.10205102416992,4.41460379737384,15.468402,
-2.18317672583008,3.67629664916992,-1.08289741088867,4.41067845930913,15.471323,
-2.1712057175293,3.70742127075195,-1.00388875610351,4.4121309342864,15.474348,
-2.0562840378418,3.70981547241211,-0.939245311279295,4.34433155253963,15.477274,
-2.01079420629883,3.72896908569336,-0.96797573120117,4.34574283619454,15.4802999999999,
-1.9413623581543,3.72418068237305,-0.903332286376951,4.29586065651925,15.483247,
-1.84320009008789,3.71939227905273,-0.800381614990233,4.22751419006388,15.4861539999999,
-1.75222042700195,3.68108505249023,-0.759680186767575,4.14702032484013,15.4891269999999,
-1.71630740209961,3.71699807739258,-0.742920775146482,4.16097549668179,15.49204,
-1.62293353735352,3.70742127075195,-0.723767161865233,4.11129233332845,15.495009,
-1.61096252905273,3.71220967407227,-0.659123717041012,4.10001768394402,15.497919,
-1.57504950415039,3.71699807739258,-0.592086070556638,4.0801251896004,15.500804,
-1.53195387426758,3.72896908569336,-0.529836827392575,4.06605708009635,15.5037679999999,
-1.50082925268555,3.77206471557617,-0.491529600830075,4.0893229283958,15.506669,
-1.52477126928711,3.7816415222168,-0.496318004150389,4.10756273079808,15.509671,
-1.43858000952148,3.78403572387695,-0.510683214111326,4.08034755242086,15.512571,
-1.40984958959961,3.76727631225586,-0.486741197509764,4.05178524499159,15.515533,
-1.38351337133789,3.8199487487793,-0.484346995849608,4.09154123825726,15.5184459999999,
-1.31408152319336,3.80558353881836,-0.539413634033201,4.06204916133524,15.521332,
-1.24225547338867,3.82952555541992,-0.534625230712889,4.06131613865421,15.52431,
-1.20394824682617,3.82713135375977,-0.505894810791013,4.04380456248224,15.527234,
-1.11775698706055,3.88698639526367,-0.517865819091794,4.07752730532503,15.530211,
-1.07705555883789,3.9348704284668,-0.548990440673826,4.11638730801626,15.5331279999999,
-0.995652702392578,3.94923563842774,-0.548990440673826,4.10964438066855,15.536064,
-0.947768669189453,4.0114848815918,-0.541807835693357,4.15738284697902,15.53906,
-0.861577409423828,3.99951387329102,-0.594480272216794,4.13422709210945,15.5419979999999,
-0.761020939697266,4.04739790649414,-0.572932457275389,4.15798440169639,15.5449689999999,
-0.703560099853516,4.12161815795898,-0.639970103759763,4.22992846131343,15.5478949999999,
-0.600609428466797,4.1479543762207,-0.656729515380857,4.24235204210401,15.550805,
-0.533571781982422,4.1479543762207,-0.639970103759763,4.2308138800286,15.553818,
-0.500052958740234,4.21978042602539,-0.668700523681638,4.30159972519341,15.5567679999999,
-0.416255900634766,4.29160647583008,-0.639970103759763,4.35898117131816,15.5597799999999,
-0.373160270751953,4.3179426940918,-0.616028087158201,4.3775984627757,15.562715,
-0.306122624267578,4.36582672729492,-0.66151791870117,4.42625801672405,15.565625,
-0.251055986083984,4.45680639038086,-0.659123717041012,4.51227175421142,15.568635,
-0.255844389404297,4.47356580200195,-0.671094725341794,4.53085151674744,15.571569,
-0.198383549560547,4.49990202026367,-0.709401951904294,4.55979444208562,15.574586,
-0.150499516357422,4.50229622192383,-0.73813237182617,4.56488343473425,15.577618,
-0.179229936279297,4.55257445678711,-0.718978758544919,4.61248176255342,15.5806309999999,
-0.186412541259766,4.61003529663086,-0.714190355224607,4.66875175343658,15.5837309999999,
-0.191200944580078,4.59567008666992,-0.754891783447263,4.66118042468185,15.58669,
-0.191200944580078,4.61961210327148,-0.685459935302733,4.67410195746797,15.5896779999999,
-0.191200944580078,4.61242949829102,-0.668700523681638,4.66457115588191,15.592613,
-0.152893718017578,4.64115991821289,-0.666306322021482,4.69123714921778,15.5955319999999,
-0.193595146240234,4.58130487670898,-0.651941112060545,4.63150738611092,15.5985449999999,
-0.188806742919922,4.57891067504883,-0.513077415771482,4.61143355051581,15.6014709999999,
-0.172047331298828,4.51905563354492,-0.496318004150389,4.54948301068649,15.6044919999999,
-0.172047331298828,4.55736286010742,-0.522654222412108,4.59046010320303,15.607442,
-0.131345903076172,4.54539185180664,-0.448433970947264,4.56934698387249,15.61045,
-0.116980693115234,4.50469042358398,-0.424491954345701,4.52615882556006,15.6134059999999,
-0.0954328781738282,4.5094788269043,-0.333512291259764,4.52280191617498,15.616348,
0.0314598098144531,4.5693338684082,-0.292810863037108,4.5788142484849,15.6193929999999,
0.0889206496582031,4.54299765014648,-0.264080443115231,4.5515352367754,15.6223709999999,
0.136804682861328,4.6244005065918,-0.206619603271482,4.63103522196445,15.625377,
0.230178547607422,4.63158311157227,-0.13718775512695,4.6393280508428,15.628349,
0.292427790771484,4.6244005065918,-0.0749385119628876,4.63424317863847,15.631273,
0.302004597412109,4.6627077331543,-0.0916979235839825,4.67337765335357,15.6342959999999,
0.378619050537109,4.6627077331543,-0.0773327136230453,4.67869384965963,15.637246,
0.407349470458984,4.63158311157227,-0.0462080920410131,4.64969148420137,15.640265,
0.354677033935547,4.62679470825195,-0.0318428820800758,4.64047832015718,15.6432159999999,
0.323552412353516,4.51905563354492,-0.0342370837402317,4.53075293527653,15.646151,
0.191871321044922,4.46877739868164,0.0136469494628937,4.47291541190274,15.649179,
0.0697670363769531,4.36103832397461,0.025617957763675,4.361671581206,15.65212,
-0.188806742919922,4.34427891235352,-0.00311246215820127,4.34838095639195,15.655097,
-0.480899345458984,4.25090504760742,0.049559974365236,4.27830738672389,15.658055,
-0.761020939697266,4.18386740112305,0.12378022583008,4.25431790598027,15.660953,
-0.938191862548828,4.04500370483398,0.291374342041019,4.1625902933478,15.663943,
-1.05790194555664,3.97796605834961,0.478122071533205,4.14390772135206,15.6668589999999,
-1.15127581030273,3.9181110168457,0.7247248425293,4.14756025020674,15.669851,
-1.0219889206543,3.80797774047852,1.04075946166992,4.07778568379647,15.672784,
-0.91185564428711,3.73615169067383,1.40467811401367,4.09431688755672,15.6757,
-0.665252873291016,3.6667198425293,1.75662575805664,4.11984585183573,15.678676,
-0.303728422607422,3.56616337280273,2.14927483032227,4.17482388280945,15.6816319999999,
-0.0427604416503906,3.37702144165039,2.55389491088867,4.23420376087402,15.6846439999999,
0.208630732666016,3.23097514038086,2.74543104370117,4.24501104310578,15.687596,
0.404955268798828,3.02028539428711,3.01358162963867,4.2857656108527,15.690522,
0.522271150146484,2.82156665649414,3.24821339233399,4.33415456501643,15.693526,
0.560578376708984,2.59890590209961,3.52354658325196,4.41406168157496,15.696469,
0.479175520263672,2.3642741394043,3.72465952270508,4.43762210486129,15.699493,
0.282850984130859,2.10570036010742,3.80366817749024,4.35681882687727,15.702437,
0.105680061279297,1.7896657409668,3.94971447875977,4.33754725662635,15.7054439999999,
-0.205566154541016,1.53588036499023,4.02154052856446,4.30975337604622,15.7083759999999,
-0.490476152099609,1.2749123840332,4.24420128295899,4.45861110358488,15.7113029999999,
-0.837635392822266,1.07140524291992,4.42855481079102,4.63267093133595,15.714337,
-1.07226715551758,0.757764825439453,4.44531422241211,4.63516805730433,15.717373,
-1.38590757299805,0.410605584716797,4.37109397094727,4.60388957838321,15.720461,
-1.72109580541992,0.0969651672363281,4.31842153442383,4.64976747419338,15.723481,
-2.10177386938477,-0.269347686767578,4.16519262817383,4.67320352693838,15.726409,
-2.31246361547852,-0.477643231201172,3.94732027709961,4.59967046637322,15.729437,
-2.44175050512695,-0.659602557373047,3.75817834594727,4.53002489429448,15.732404,
-2.6141330246582,-0.745793817138672,3.62889145629883,4.53417612029899,15.7354389999999,
-2.76257352758789,-0.808043060302735,3.61692044799805,4.62243005461188,15.738397,
-2.9205908371582,-0.752976422119141,3.52594078491211,4.63994426141807,15.74132,
-3.02114730688477,-0.640448944091797,3.33440465209961,4.54486086517826,15.744321,
-3.18634722143555,-0.499191046142578,3.23863658569336,4.57064188602547,15.7472799999999,
-3.26296167456055,-0.362721551513672,2.99682221801758,4.44515795219779,15.7502959999999,
-3.36830654760742,-0.180762225341797,2.73346003540039,4.34165495472598,15.7532619999999,
-3.42816158911133,0.0538695373535156,2.3719355847168,4.1690852984988,15.756212,
-3.44970940405273,0.264559283447266,2.06787197387696,4.03070478790171,15.759235,
-3.4353441940918,0.535104071044922,1.76141416137696,3.89749996108125,15.762155,
-3.40661377416992,0.822408270263672,1.38791870239258,3.76930910032773,15.765166,
-3.38506595922852,1.05704003295898,1.25863181274414,3.76299870045914,15.7680769999999,
-3.32521091772461,1.2150573425293,0.997663831787111,3.67814152993675,15.770993,
-3.28690369116211,1.53588036499023,0.751061060791018,3.70496384430053,15.7739769999999,
-3.17916461645508,1.75854111938477,0.480516273193361,3.66475789321623,15.7769059999999,
-3.04987772680664,2.0027496887207,0.16208745239258,3.65226406580428,15.7798769999999,
-2.99002268530273,2.2709002746582,0.011252747802736,3.75464383669088,15.782815,
-2.47526932836914,2.72819279174805,0.130962830810549,3.68607452718538,15.785726,
-2.9205908371582,2.53426245727539,-0.359848509521482,3.8835329263768,15.788699,
-2.61892142797852,2.83832606811523,-0.41252094604492,3.88394359456897,15.7916279999999,
-2.30288680883789,3.23336934204102,-0.544202037353513,4.00675939055866,15.794619,
-2.4393563034668,3.25252295532227,-0.905726488037107,4.16529773501169,15.797554,
-2.36034764868164,3.3985692565918,-1.0158597644043,4.26069068056148,15.800536,
-2.30288680883789,3.55658656616211,-1.12120463745117,4.38288666245961,15.803469,
-2.21669554907227,3.64277782592773,-1.29837556030273,4.45750474390539,15.806382,
-1.99164059301758,3.77445891723633,-1.18584808227539,4.42938009702221,15.8093779999999,
-1.97727538305664,4.06894572143555,-1.06853220092773,4.64840814568277,15.812317,
-1.95572756811523,4.0330326965332,-1.27443354370117,4.65987166232103,15.815311,
-1.80249866186523,3.8965632019043,-1.32231757690429,4.49229673849031,15.8182489999999,
-1.72109580541992,3.80558353881836,-1.46118127319336,4.42489407279884,15.821156,
-1.67081757055664,3.77206471557617,-1.47554648315429,4.38147703366394,15.8241459999999,
-1.61575093237305,3.73375748901367,-1.55216093627929,4.35440003150164,15.8270729999999,
-1.45533942114258,3.80079513549805,-1.37738421508789,4.2966549510905,15.830069,
-1.22789026342773,3.8031893371582,-1.11162783081054,4.1482140816895,15.832991,
-1.10818018041992,3.69784446411133,-1.08529161254883,4.00998439863588,15.8359009999999,
-1.0052295090332,3.52306774291992,-0.991917747802733,3.79557551702506,15.838895,
-0.938191862548828,3.32913740844727,-0.910514891357419,3.57664608574282,15.841828,
-0.852000602783203,3.0370448059082,-0.941639512939451,3.29184312393009,15.844818,
-0.854394804443359,2.8455086730957,-0.893755479736326,3.10253266672269,15.8477369999999,
-0.765809343017578,2.66594354858398,-0.934456907958982,2.92693161295611,15.850633,
-0.772991947998047,2.40976397094727,-0.754891783447263,2.6408976792109,15.8537309999999,
-0.770597746337891,2.25174666137695,-0.762074388427733,2.49898805262866,15.85676,
-0.852000602783203,2.09133515014648,-0.654335313720701,2.35111514821438,15.8598549999999,
-0.976499089111328,1.92852943725586,-0.69982514526367,2.27212048433638,15.8628289999999,
-1.01959471899414,1.72741649780273,-0.666306322021482,2.11364738370609,15.865728,
-1.0818439621582,1.60052380981445,-0.594480272216794,2.0212544664876,15.8687229999999,
-1.19915984350586,1.49278473510742,-0.474770189208982,1.97276388050072,15.871637,
-1.24464967504883,1.49996734008789,-0.465193382568357,2.00386120230791,15.874659,
-1.35717715307617,1.35631524047852,-0.429280357666013,1.96616440865562,15.877585,
-1.45055101782227,1.39701666870117,-0.350271702880857,2.04412428530488,15.880508,
-1.56547269750977,1.35392103881836,-0.288022459716794,2.08968033041056,15.8834959999999,
-1.67081757055664,1.35631524047852,-0.225773216552732,2.16383824047632,15.886438,
-1.81446967016602,1.42574708862305,-0.230561619873045,2.31909758424003,15.889461,
-1.90784353491211,1.54785137329102,-0.316752879638669,2.47710379561782,15.8924059999999,
-1.8862957199707,1.49757313842773,-0.156341368408201,2.41356157402206,15.895433,
-1.96769857641602,1.58615859985352,-0.264080443115231,2.54115628640877,15.898378,
-2.07304344946289,1.6579846496582,-0.295205064697264,2.67087406518655,15.901293,
-2.15684050756836,1.79205994262695,-0.362242711181638,2.82748290796957,15.9042919999999,
-2.14486949926758,1.91895263061523,-0.357454307861326,2.90010654108467,15.90723,
-2.1544463059082,2.00035548706055,-0.388578929443357,2.96547711912638,15.910202,
-2.18557092749023,2.07218153686523,-0.40533834106445,3.03890700278119,15.9131149999999,
-2.1712057175293,2.18710321655273,-0.398155736083982,3.10742381046806,15.91603,
-2.18557092749023,2.29963069458008,-0.491529600830075,3.21039296022116,15.919044,
-2.10895647436523,2.33314951782227,-0.498712205810545,3.18433634333839,15.921972,
-2.1712057175293,2.45764800415039,-0.522654222412108,3.32074320240839,15.924981,
-2.12571588598633,2.49116682739258,-0.58490346557617,3.32666383241212,15.927911,
-2.1161390793457,2.60369430541992,-0.592086070556638,3.4070272312028,15.9308139999999,
-2.04670723120117,2.68030875854492,-0.551384642333982,3.4171758156679,15.933809,
-2.08501445776367,2.70425077514648,-0.627999095458982,3.471979321347,15.936739,
-2.08262025610352,2.73776959838867,-0.678277330322263,3.50610177288439,15.9397319999999,
-2.0562840378418,2.72579859008789,-0.675883128662107,3.48067522208237,15.9426569999999,
-2.01079420629883,2.73298119506836,-0.73813237182617,3.47236503712094,15.945573,
-1.98206378637695,2.69467396850586,-0.740526573486326,3.42610920080628,15.948588,
-1.94854496313477,2.66594354858398,-0.821929429931638,3.40288854730539,15.9515309999999,
-1.91502613989258,2.61327111206055,-0.8841786730957,3.35831549255863,15.954522,
-1.85277689672852,2.57975228881836,-0.900938084716795,3.30145324564921,15.957459,
-1.81925807348633,2.52947405395508,-0.991917747802733,3.26983787762989,15.960373,
-1.7881334519043,2.52707985229492,-0.903332286376951,3.22483535103811,15.9633699999999,
-1.74743202368164,2.5390508605957,-0.979946739501951,3.23428408806963,15.9662989999999,
