X,Y,Z,Magnitude,Seconds,
0.468305844726563,-0.368467635498047,0.0485544096679682,0.597859760573318,0.0,
0.458729038085938,-0.32776620727539,0.113197854492187,0.575045016739192,0.0039359999991575,
0.477882651367188,-0.332554610595703,0.0557370146484359,0.584868371779593,0.00785799999903247,
0.461123239746094,-0.34691982055664,0.0677080229492173,0.581009793807881,0.0117069999996602,
0.52097828125,-0.375650240478515,0.0126413847656242,0.642410520862293,0.0157299999991665,
0.429998618164063,-0.366073433837891,0.0748906279296868,0.569664091141938,0.0196439999999711,
0.465911643066406,-0.349314022216797,-0.020877438476564,0.582691867713509,0.0236069999991741,
0.446758029785156,-0.382832845458984,0.0629196196289055,0.591703137792917,0.027632999999696,
0.456334836425781,-0.344525618896484,-0.0160890351562522,0.572012449221177,0.0315829999999551,
0.453940634765625,-0.354102425537109,0.0365834013671869,0.576878646613198,0.0355349999990722,
0.516189877929687,-0.390015450439453,0.0150355864257801,0.647139946624934,0.0393829999993613,
0.465911643066406,-0.392409652099609,0.0509486113281241,0.611273061079939,0.043243000000075,
0.437181223144531,-0.349314022216797,0.0198239897460919,0.5599470497796,0.0472949999984849,
0.465911643066406,-0.337343013916015,-0.0041180268554708,0.575231193806422,0.0511859999987792,
0.485065256347656,-0.387621248779297,0.05334281298828,0.62320461416644,0.0550719999991998,
0.485065256347656,-0.332554610595703,0.0270065947265614,0.588736127737038,0.0589979999986099,
0.449152231445313,-0.32776620727539,0.05334281298828,0.558582016664966,0.0630119999987073,
0.475488449707031,-0.337343013916015,0.0701022246093732,0.58720004831226,0.0670559999998659,
0.494642062988281,-0.334948812255859,0.0198239897460919,0.597707677613703,0.0709529999985534,
0.453940634765625,-0.368467635498047,-0.0328484467773453,0.585584766499799,0.074996999999712,
0.427604416503906,-0.363679232177734,0.0701022246093732,0.565705261444699,0.0788869999996678,
0.437181223144531,-0.325372005615234,0.0198239897460919,0.545332333974139,0.0828129999990779,
0.497036264648438,-0.344525618896484,0.0461602080078105,0.606525939474151,0.0868199999986246,
0.494642062988281,-0.373256038818359,0.0437660063476546,0.62121357382409,0.0906979999999749,
0.487459458007813,-0.366073433837891,0.0748906279296868,0.614194666465639,0.0947099999993952,
0.470700046386719,-0.351708223876953,0.0365834013671869,0.588723664945391,0.0987559999994119,
0.441969626464844,-0.320583602294922,-0.020877438476564,0.546394421837563,0.102710999999545,
0.451546433105469,-0.363679232177734,0.0341891997070292,0.580797440201199,0.106611999999586,
0.429998618164063,-0.342131417236328,0.0413718046874987,0.55105747840515,0.110525000000052,
0.461123239746094,-0.375650240478515,0.0557370146484359,0.597372882048909,0.114402999999584,
0.465911643066406,-0.342131417236328,-0.0400310517578131,0.579422169846661,0.118348999998489,
0.470700046386719,-0.366073433837891,0.0772848295898427,0.601282992870291,0.122271999998702,
0.456334836425781,-0.397198055419922,0.0365834013671869,0.606090854097556,0.126400999999532,
0.480276853027344,-0.366073433837891,-0.0113006318359385,0.603989502223014,0.130562999998801,
0.449152231445313,-0.351708223876953,0.0677080229492173,0.57447434940707,0.134577999999237,
0.441969626464844,-0.342131417236328,0.0341891997070292,0.559964247746424,0.138606999998956,
0.475488449707031,-0.380438643798828,0.0629196196289055,0.612194173473199,0.142542999999932,
0.449152231445313,-0.351708223876953,0.0509486113281241,0.572740921142578,0.146448999999848,
0.461123239746094,-0.368467635498047,0.0485544096679682,0.592250429583348,0.150400999998965,
0.4826710546875,-0.356496627197265,-0.0160890351562522,0.600266648489177,0.154430999999022,
0.46351744140625,-0.344525618896484,0.0294007963867173,0.578282567082888,0.158341000000291,
0.451546433105469,-0.378044442138672,0.12277466113281,0.601569113983163,0.162340999999287,
0.451546433105469,-0.375650240478515,0.0461602080078105,0.589184223503279,0.16634299999896,
0.441969626464844,-0.354102425537109,0.00545877978515463,0.566352784724751,0.170255999999426,
0.487459458007813,-0.325372005615234,0.017429788085936,0.586333917449836,0.17426499999965,
0.497036264648438,-0.380438643798828,0.0844674345703105,0.631595881536646,0.178184999998848,
0.432392819824219,-0.337343013916015,0.0270065947265614,0.549083978852238,0.182015999998839,
0.475488449707031,-0.349314022216797,0.05334281298828,0.592414557231315,0.185937999998714,
0.497036264648438,-0.342131417236328,0.103621047851561,0.612238741500132,0.189818999999261,
0.451546433105469,-0.339737215576172,0.0892558378906241,0.572085799068006,0.193698999999469,
0.470700046386719,-0.342131417236328,-0.0136948334960945,0.582065278807355,0.197656000000279,
0.441969626464844,-0.342131417236328,0.0317949980468732,0.559823167865008,0.201703999999154,
0.485065256347656,-0.334948812255859,0.0605254179687496,0.592572641933055,0.205712999999378,
0.475488449707031,-0.318189400634765,0.0389776030273428,0.573457072516212,0.209693999999217,
0.441969626464844,-0.401986458740234,0.0509486113281241,0.599604890510619,0.21360999999888,
0.494642062988281,-0.311006795654297,-0.00890643017578263,0.584358898211478,0.794119999998657,
0.446758029785156,-0.34691982055664,0.0317949980468732,0.566530688465653,0.798338999999032,
0.480276853027344,-0.351708223876953,0.108409451171873,0.6050761434728,0.802213999999367,
0.480276853027344,-0.358890828857422,0.0653138212890614,0.603103952767013,0.80602799999906,
0.441969626464844,-0.390015450439453,0.0653138212890614,0.59305572887406,0.809814999998707,
0.485065256347656,-0.311006795654297,0.0222181914062478,0.576634353718312,0.813567999999577,
0.422816013183594,-0.366073433837891,0.0317949980468732,0.560173242726868,0.817324999999983,
0.504218869628906,-0.342131417236328,-0.020877438476564,0.609693728512384,0.821019999999407,
0.456334836425781,-0.332554610595703,0.0485544096679682,0.566737666528712,0.824751999998625,
0.456334836425781,-0.382832845458984,0.0557370146484359,0.5982550336603,0.828561000000263,
0.494642062988281,-0.349314022216797,0.0796790312499986,0.610769845863004,0.832244999999602,
0.429998618164063,-0.368467635498047,0.0389776030273428,0.567614714018481,0.835974999999962,
0.475488449707031,-0.366073433837891,0.0222181914062478,0.600493690887777,0.839863999999579,
0.4826710546875,-0.368467635498047,-0.0328484467773453,0.608127261268848,0.843741999999111,
0.441969626464844,-0.344525618896484,0.00306457812499872,0.560396684887199,0.847501999998713,
0.477882651367188,-0.332554610595703,0.0365834013671869,0.583354731498584,0.851332999998704,
0.42521021484375,-0.339737215576172,-0.020877438476564,0.54466592503319,0.855098999998518,
0.451546433105469,-0.354102425537109,0.0581312163085919,0.576768538784019,0.85889799999859,
0.413239206542969,-0.380438643798828,-0.0041180268554708,0.561709143298323,0.862660999999207,
0.487459458007813,-0.34691982055664,0.0246123930664055,0.598812036442803,0.866441999998642,
0.473094248046875,-0.361285030517578,0.0198239897460919,0.595598884636782,0.870245000000068,
0.458729038085938,-0.334948812255859,0.0102471831054682,0.568091578864233,0.874068999999508,
0.446758029785156,-0.392409652099609,0.0605254179687496,0.597696744560938,0.877816999998686,
0.494642062988281,-0.0572214196777341,0.16826449267578,0.525602512211154,0.881513999998788,
0.597592734375,-0.581551583251953,0.05334281298828,0.835562550535952,0.885215999998763,
-0.214041628417969,0.0912190832519533,-0.169317941406252,0.287755634396954,0.888772999998764,
1.39007348388672,0.160650931396485,0.149110879394529,1.40724804733115,0.891765999998825,
0.137906015625,-0.943076033935547,-0.272268612792971,0.991231896400319,0.894813999999315,
-0.496557424316406,-0.330160408935547,0.304733987304687,0.669655115929718,0.897963999999774,
1.99101810058594,-0.473812508544922,0.374165835449217,2.0805411417542,0.901009999999587,
-0.410366164550781,0.479079752197266,-0.633793063476563,0.894209955930105,0.904035999999905,
0.149877023925781,-1.83132484985352,0.414867263671873,1.8837007921797,0.906999999999243,
1.60555163330078,1.03453453735352,0.153899282714843,1.91617920492636,0.909933999999339,
-0.269108266601563,-0.504937130126953,-0.133404916503908,0.587518200808754,0.912935000000289,
0.130723410644531,-1.86963207641602,0.165870291015624,1.88152216694245,0.915965999998662,
1.32303583740234,1.81743848022461,-0.183683151367189,2.25549239780325,0.919001000000208,
0.243250888671875,-1.77625821166992,0.32149339892578,1.82143411489884,0.921992999999929,
-0.132638771972656,-0.205661922607422,-0.0328484467773453,0.246918793729192,0.924896999998964,
1.23684457763672,0.18938135131836,0.0102471831054682,1.25130124678996,0.927966999999626,
0.21452046875,-0.892797799072266,0.156293484374999,0.931415371785907,0.930951999998797,
0.0541089575195313,-0.138624276123047,-0.0591846650390639,0.160147724898842,0.934009999999034,
1.06206785644531,-0.413957467041015,0.0605254179687496,1.14149561647588,0.936995999998544,
0.248039291992187,-0.181719906005859,-0.00890643017578263,0.307611669332033,0.939932999999655,
0.224097275390625,-0.655771834716797,0.0581312163085919,0.695439088889064,0.942986999998539,
0.848983908691406,-0.0955286462402342,0.0820732329101546,0.858274673417406,0.945974999998725,
0.401268198242188,-0.478600911865234,0.0605254179687496,0.627485717749063,0.949026000000231,
0.145088620605469,-0.40438066040039,0.0868616362304682,0.43831423680242,0.951987999998892,
0.741244833984375,-0.272699569091797,0.0509486113281241,0.79145733927208,0.955015999999887,
0.497036264648438,-0.435505281982422,0.0892558378906241,0.666840688326543,0.957970999999816,
0.204943662109375,-0.368467635498047,0.00545877978515463,0.421663492995381,0.960908999999447,
0.599986936035156,-0.380438643798828,0.0341891997070292,0.711257187299329,0.963970999999219,
0.525766684570312,-0.322977803955078,0.017429788085936,0.617291718690948,0.966927999999825,
0.336624753417969,-0.452264693603515,0.0581312163085919,0.566779336253101,0.969920999999886,
0.528160886230469,-0.358890828857422,0.0724964262695291,0.642660315099334,0.97287200000028,
0.518584079589844,-0.351708223876953,0.0844674345703105,0.632268036397235,0.975800999998683,
0.413239206542969,-0.40438066040039,-0.0256658417968758,0.578747868907749,0.97880399999849,
0.477882651367188,-0.301429989013672,0.00785298144531055,0.565060648136194,0.981751999999688,
0.528160886230469,-0.394803853759765,0.017429788085936,0.659642177396228,0.984785999999076,
0.437181223144531,-0.366073433837891,0.103621047851561,0.579546807764367,0.987755000000107,
0.465911643066406,-0.318189400634765,0.0868616362304682,0.570844197368935,0.990713999999571,
0.477882651367188,-0.401986458740234,0.0701022246093732,0.628394194262988,0.993762000000061,
0.42521021484375,-0.344525618896484,0.0677080229492173,0.551439938030576,0.996717999998509,
0.506613071289062,-0.322977803955078,0.0677080229492173,0.604612141972251,0.999764000000141,
0.504218869628906,-0.354102425537109,0.0150355864257801,0.616320748571945,1.00273199999901,
0.437181223144531,-0.337343013916015,0.0557370146484359,0.555008419494704,1.00567499999852,
0.50182466796875,-0.361285030517578,-0.0615788666992199,0.621407135042714,1.00869299999977,
0.432392819824219,-0.356496627197265,0.00306457812499872,0.560413050773846,1.01164699999936,
0.420421811523438,-0.311006795654297,0.0677080229492173,0.527317838613008,1.01466900000014,
0.480276853027344,-0.322977803955078,0.017429788085936,0.579037403726404,1.01762099999905,
0.504218869628906,-0.342131417236328,0.0246123930664055,0.609833046859914,1.02055300000029,
0.444363828125,-0.370861837158203,0.0868616362304682,0.58527143946625,1.02358599999934,
0.429998618164063,-0.330160408935547,0.05334281298828,0.544747797562315,1.02653199999986,
0.477882651367188,-0.351708223876953,0.0126413847656242,0.593489939113719,1.0295589999987,
0.42521021484375,-0.332554610595703,0.0126413847656242,0.539959350733664,1.03258199999982,
0.458729038085938,-0.325372005615234,0.0964384428710918,0.570613394238805,1.03562099999908,
0.50182466796875,-0.390015450439453,0.0437660063476546,0.637067902405276,1.0387439999995,
0.427604416503906,-0.375650240478515,0.0222181914062478,0.569607134975131,1.04176899999948,
0.458729038085938,-0.38522704711914,0.0653138212890614,0.60257622212195,1.04479799999899,
0.46351744140625,-0.325372005615234,-0.0041180268554708,0.566332339418348,1.04773099999875,
0.473094248046875,-0.344525618896484,0.0198239897460919,0.585584374945658,1.050749,
0.475488449707031,-0.330160408935547,0.12995726611328,0.593282439019495,1.0537260000001,
0.485065256347656,-0.34691982055664,0.0605254179687496,0.599420546053404,1.05667699999867,
0.465911643066406,-0.390015450439453,0.0341891997070292,0.608567672574657,1.05969799999912,
0.441969626464844,-0.311006795654297,0.0294007963867173,0.541227109898239,1.06265799999892,
0.46351744140625,-0.397198055419922,0.0317949980468732,0.611249241813815,1.06567899999936,
0.439575424804688,-0.342131417236328,0.0629196196289055,0.560570548001414,1.06865399999879,
0.461123239746094,-0.358890828857422,0.0365834013671869,0.585470421564995,1.07159999999931,
0.497036264648438,-0.370861837158203,-0.00651222851562672,0.62018219883859,1.07465299999967,
0.461123239746094,-0.334948812255859,0.00545877978515463,0.569960654205435,1.0776249999999,
0.461123239746094,-0.344525618896484,0.0485544096679682,0.577659133926006,1.08065999999963,
0.4826710546875,-0.351708223876953,0.00306457812499872,0.597226433955253,1.083607999999,
0.487459458007813,-0.358890828857422,0.0126413847656242,0.605457806001401,1.08654799999931,
0.444363828125,-0.361285030517578,0.0102471831054682,0.572792361841173,1.08957699999883,
0.465911643066406,-0.358890828857422,0.0461602080078105,0.589921224390282,1.09252599999854,
0.473094248046875,-0.351708223876953,0.106015249511717,0.598962499165641,1.09555899999941,
0.432392819824219,-0.366073433837891,0.0461602080078105,0.568422443611024,1.09850299999925,
0.415633408203125,-0.406774862060547,0.09165003955078,0.588741580125425,1.10143599999901,
0.516189877929687,-0.272699569091797,0.017429788085936,0.58405551326277,1.10447699999895,
0.461123239746094,-0.351708223876953,0.0461602080078105,0.58177665970709,1.10742399999981,
0.403662399902344,-0.452264693603515,0.0677080229492173,0.609976280314975,1.11045199999899,
0.580833322753906,-0.344525618896484,0.0557370146484359,0.67762221458514,1.11339499999849,
0.456334836425781,-0.241574947509765,-0.0328484467773453,0.517376998576255,1.11631299999863,
0.42521021484375,-0.524090743408203,0.0413718046874987,0.676155648025461,1.11934499999916,
0.535343491210938,-0.19369091430664,0.0461602080078105,0.57117386903655,1.12229200000002,
0.415633408203125,-0.375650240478515,0.0605254179687496,0.563495837967242,1.12531099999978,
0.446758029785156,-0.555215364990234,0.0317949980468732,0.713349676245496,1.12826200000018,
0.564073911132813,-0.112288057861328,0.0581312163085919,0.578071988136818,1.13120899999922,
0.468305844726563,-0.562397969970703,0.120380459472655,0.741682746095036,1.13423700000021,
0.420421811523438,-0.27030536743164,0.0294007963867173,0.500683431017221,1.13718700000027,
0.535343491210938,-0.38522704711914,0.0294007963867173,0.660194621488407,1.14021700000012,
0.42521021484375,-0.375650240478515,0.0389776030273428,0.568714412967345,1.14316099999996,
0.434787021484375,-0.325372005615234,0.00306457812499872,0.543061771558649,1.1461709999985,
0.528160886230469,-0.351708223876953,0.0341891997070292,0.635469509782367,1.14912499999991,
0.410845004882813,-0.320583602294922,0.0701022246093732,0.525815353515595,1.15205400000013,
0.470700046386719,-0.368467635498047,0.0844674345703105,0.603706617141862,1.15508299999965,
0.54013189453125,-0.301429989013672,0.0317949980468732,0.619365339414065,1.15802199999962,
0.456334836425781,-0.390015450439453,0.103621047851561,0.609172271262481,1.16102599999977,
0.418027609863281,-0.344525618896484,0.0485544096679682,0.543877298094173,1.16397999999936,
0.492247861328125,-0.332554610595703,0.0557370146484359,0.596663339591509,1.16691100000025,
0.451546433105469,-0.390015450439453,0.0413718046874987,0.59809519230208,1.1699639999988,
0.46351744140625,-0.318189400634765,0.0844674345703105,0.56853114309332,1.17301699999916,
0.477882651367188,-0.334948812255859,0.0772848295898427,0.588672642641116,1.17614999999932,
0.4826710546875,-0.38522704711914,0.017429788085936,0.617798528954219,1.17920299999969,
0.434787021484375,-0.38522704711914,0.05334281298828,0.583339598845209,1.18217499999992,
0.485065256347656,-0.361285030517578,0.0868616362304682,0.611032012287686,1.18520199999875,
0.453940634765625,-0.356496627197265,0.0868616362304682,0.583692460927053,1.18814999999995,
0.434787021484375,-0.354102425537109,0.0437660063476546,0.562444437375054,1.19117399999959,
0.468305844726563,-0.318189400634765,0.0677080229492173,0.570209816868372,1.19414999999935,
0.453940634765625,-0.370861837158203,0.017429788085936,0.586433627671961,1.19707999999991,
0.511401474609375,-0.387621248779297,0.0317949980468732,0.642489394962022,1.2001139999993,
0.487459458007813,-0.334948812255859,0.0270065947265614,0.59206147163247,1.20307599999978,
0.489853659667969,-0.34691982055664,0.0653138212890614,0.603801180055599,1.20609499999955,
0.468305844726563,-0.375650240478515,0.0222181914062478,0.600763776709274,1.20905599999969,
0.465911643066406,-0.358890828857422,0.0940442412109359,0.595584255574093,1.21200399999907,
0.453940634765625,-0.361285030517578,0.0126413847656242,0.58030059260378,1.21506199999931,
0.461123239746094,-0.349314022216797,0.0509486113281241,0.580732889844784,1.21801699999924,
0.494642062988281,-0.339737215576172,0.0389776030273428,0.601341333738593,1.22104500000023,
0.46351744140625,-0.363679232177734,0.0413718046874987,0.590612079649818,1.2240039999997,
0.50182466796875,-0.361285030517578,0.0246123930664055,0.61883813760182,1.22693299999992,
0.451546433105469,-0.334948812255859,0.0605254179687496,0.565462831936967,1.22995699999956,
0.456334836425781,-0.382832845458984,0.0772848295898427,0.600645831903209,1.23288700000012,
0.46351744140625,-0.368467635498047,0.0222181914062478,0.592545749226743,1.23590499999955,
0.46351744140625,-0.354102425537109,0.00545877978515463,0.583323876192123,1.23885199999859,
0.461123239746094,-0.378044442138672,0.0437660063476546,0.597886030759622,1.24186999999984,
0.451546433105469,-0.339737215576172,0.0772848295898427,0.570340689222199,1.24483999999939,
0.441969626464844,-0.354102425537109,0.0365834013671869,0.567506849072617,1.24777600000016,
0.473094248046875,-0.375650240478515,-0.00651222851562672,0.604130515556733,1.25078699999904,
0.487459458007813,-0.354102425537109,-0.0304542451171894,0.603268358210666,1.25371599999926,
0.480276853027344,-0.344525618896484,0.103621047851561,0.600084226744638,1.25673399999869,
0.4826710546875,-0.356496627197265,0.017429788085936,0.600304081069661,1.25969399999849,
0.480276853027344,-0.358890828857422,0.0820732329101546,0.605148327397623,1.26262700000007,
0.487459458007813,-0.387621248779297,0.0844674345703105,0.628491609497996,1.26566499999899,
0.480276853027344,-0.342131417236328,0.0724964262695291,0.594117407618932,1.26861899999858,
0.434787021484375,-0.363679232177734,0.0246123930664055,0.567369463278643,1.27165400000013,
0.46351744140625,-0.390015450439453,0.0413718046874987,0.607183741788584,1.27460400000018,
0.451546433105469,-0.339737215576172,0.0485544096679682,0.567162311508731,1.27754300000015,
0.473094248046875,-0.354102425537109,0.0461602080078105,0.59273726060509,1.28057699999954,
0.446758029785156,-0.313400997314453,-0.0184832368164081,0.546035303197897,1.28350799999862,
0.477882651367188,-0.32776620727539,0.0892558378906241,0.586318275092108,1.28653899999881,
0.446758029785156,-0.306218392333984,0.017429788085936,0.54190980660424,1.28949199999988,
0.506613071289062,-0.397198055419922,0.0389776030273428,0.644935929196119,1.29242799999884,
0.444363828125,-0.332554610595703,0.0868616362304682,0.561779961037236,1.29546200000004,
0.528160886230469,-0.363679232177734,0.017429788085936,0.641498482596694,1.29839999999967,
0.497036264648438,-0.370861837158203,0.0294007963867173,0.620844551771377,1.30142399999932,
0.458729038085938,-0.38522704711914,0.0317949980468732,0.599869260852882,1.30436499999996,
0.453940634765625,-0.363679232177734,0.0461602080078105,0.583485602746228,1.30730500000027,
0.434787021484375,-0.330160408935547,0.0844674345703105,0.552431350651492,1.31039400000009,
0.42521021484375,-0.30861259399414,0.0102471831054682,0.525500204320471,1.31344399999944,
0.470700046386719,-0.358890828857422,0.0605254179687496,0.594999568845825,1.3165769999996,
0.468305844726563,-0.344525618896484,0.0317949980468732,0.582253542867594,1.31961599999886,
0.453940634765625,-0.370861837158203,0.0341891997070292,0.587170761813276,1.32255499999883,
0.458729038085938,-0.356496627197265,0.0653138212890614,0.58462643699858,1.32558199999949,
0.461123239746094,-0.382832845458984,0.0294007963867173,0.600050028434571,1.32853499999874,
0.470700046386719,-0.330160408935547,-0.0304542451171894,0.575753324213247,1.33156599999893,
0.461123239746094,-0.342131417236328,0.0389776030273428,0.575506561588857,1.33452399999987,
0.432392819824219,-0.311006795654297,0.0605254179687496,0.536052333078576,1.33754299999964,
0.473094248046875,-0.325372005615234,0.05334281298828,0.576654632575358,1.34049199999936,
0.4826710546875,-0.378044442138672,0.0389776030273428,0.614335576702864,1.34343099999933,
0.475488449707031,-0.320583602294922,0.0365834013671869,0.574631583817647,1.34646299999986,
0.461123239746094,-0.351708223876953,0.0581312163085919,0.582848655558311,1.34941900000013,
0.489853659667969,-0.370861837158203,0.0126413847656242,0.614536341284429,1.35246199999892,
0.509007272949219,-0.38522704711914,0.0677080229492173,0.64192885752163,1.3554439999989,
0.492247861328125,-0.339737215576172,0.0270065947265614,0.598714196247498,1.35838499999954,
0.4826710546875,-0.354102425537109,0.0485544096679682,0.600597540373429,1.36140799999885,
0.451546433105469,-0.361285030517578,-0.0113006318359385,0.578401900762999,1.36433399999987,
0.446758029785156,-0.356496627197265,0.0413718046874987,0.573056898225334,1.36736099999871,
0.453940634765625,-0.34691982055664,0.0605254179687496,0.574524836718798,1.37030099999902,
0.475488449707031,-0.349314022216797,0.0868616362304682,0.596367752121715,1.37322999999924,
0.509007272949219,-0.361285030517578,0.0509486113281241,0.626267545213347,1.37626399999863,
0.465911643066406,-0.375650240478515,0.000670376464842803,0.59848743656071,1.37920399999894,
0.468305844726563,-0.358890828857422,-0.00172382519531311,0.590013527655367,1.38222599999972,
0.458729038085938,-0.356496627197265,0.0126413847656242,0.581104104438325,1.38517999999931,
0.499430466308594,-0.34691982055664,0.0198239897460919,0.608421846371187,1.38810699999885,
0.475488449707031,-0.375650240478515,0.0365834013671869,0.607075542442582,1.39113799999905,
0.434787021484375,-0.349314022216797,0.0485544096679682,0.559837093150084,1.39408299999923,
0.477882651367188,-0.413957467041015,0.0198239897460919,0.632554822577616,1.39710699999887,
0.499430466308594,-0.358890828857422,0.017429788085936,0.615253781156936,1.40005000000019,
0.441969626464844,-0.32776620727539,0.0509486113281241,0.552597139284517,1.40297099999952,
0.475488449707031,-0.34691982055664,0.0341891997070292,0.58958589626657,1.40600199999972,
0.451546433105469,-0.373256038818359,0.0222181914062478,0.586266065702262,1.4089589999985,
0.487459458007813,-0.356496627197265,-0.0328484467773453,0.604802107188773,1.411967,
0.468305844726563,-0.337343013916015,0.0461602080078105,0.579000378278222,1.41491899999892,
0.451546433105469,-0.356496627197265,0.0605254179687496,0.578487124034398,1.41785199999867,
0.453940634765625,-0.337343013916015,0.05334281298828,0.568073819698516,1.42087199999878,
0.475488449707031,-0.387621248779297,0.0317949980468732,0.614288548005592,1.42381299999943,
0.444363828125,-0.375650240478515,0.0557370146484359,0.584533086932973,1.42684499999996,
0.473094248046875,-0.358890828857422,0.0102471831054682,0.593907231252998,1.42978699999912,
0.480276853027344,-0.358890828857422,0.0413718046874987,0.600982619395034,1.43279900000016,
0.4826710546875,-0.382832845458984,0.0341891997070292,0.617009915618844,1.43575099999907,
0.494642062988281,-0.358890828857422,0.09165003955078,0.617958839458527,1.4386889999987,
0.525766684570312,-0.313400997314453,0.0317949980468732,0.612912484472745,1.44171399999868,
0.516189877929687,-0.358890828857422,-0.00172382519531311,0.6286951476577,1.44464599999992,
0.475488449707031,-0.390015450439453,0.0701022246093732,0.618963358593599,1.44767700000011,
0.437181223144531,-0.361285030517578,0.0222181914062478,0.567580781189427,1.45074000000022,
0.437181223144531,-0.368467635498047,0.00785298144531055,0.571801967115583,1.45377399999961,
0.465911643066406,-0.325372005615234,0.0150355864257801,0.568477501790603,1.45690300000024,
0.511401474609375,-0.306218392333984,0.0605254179687496,0.599136460463345,1.45989699999882,
0.50182466796875,-0.392409652099609,0.0509486113281241,0.639068926986086,1.46292699999867,
0.465911643066406,-0.370861837158203,0.00545877978515463,0.595518227833488,1.46587,
0.470700046386719,-0.378044442138672,0.0844674345703105,0.609598951281323,1.46881199999916,
0.444363828125,-0.363679232177734,0.05334281298828,0.576686441110586,1.47186099999999,
0.434787021484375,-0.337343013916015,0.0365834013671869,0.551523715124552,1.47479500000009,
0.46351744140625,-0.334948812255859,-0.0304542451171894,0.572683670419425,1.47780599999896,
0.470700046386719,-0.354102425537109,0.0222181914062478,0.589441014410338,1.48076500000025,
0.453940634765625,-0.337343013916015,0.0270065947265614,0.566208234740616,1.4837209999987,
0.4826710546875,-0.368467635498047,0.0724964262695291,0.61155169631399,1.48676899999919,
0.477882651367188,-0.34691982055664,0.0317949980468732,0.591384910420942,1.48972899999899,
0.50182466796875,-0.322977803955078,0.0341891997070292,0.597755435446804,1.4927919999991,
0.470700046386719,-0.342131417236328,0.0461602080078105,0.583732134743259,1.49574699999903,
0.511401474609375,-0.380438643798828,0.0557370146484359,0.63982157257321,1.4986829999998,
0.473094248046875,-0.322977803955078,0.00545877978515463,0.572854805041754,1.50173100000029,
0.4826710546875,-0.368467635498047,0.00785298144531055,0.607290222842625,1.50468499999988,
0.434787021484375,-0.380438643798828,0.00545877978515463,0.577756967957539,1.50771699999859,
0.487459458007813,-0.351708223876953,0.0485544096679682,0.603053006494583,1.51066899999933,
0.489853659667969,-0.392409652099609,0.0485544096679682,0.629523211366542,1.51360799999929,
0.446758029785156,-0.337343013916015,-0.0280600434570317,0.560517985665283,1.51661299999978,
0.458729038085938,-0.382832845458984,0.017429788085936,0.597743352500212,1.51956900000005,
0.449152231445313,-0.361285030517578,0.0772848295898427,0.581581933327645,1.52262999999948,
0.487459458007813,-0.378044442138672,-0.00172382519531311,0.616877050153849,1.52557299999899,
0.468305844726563,-0.368467635498047,0.0461602080078105,0.597670082418306,1.5285989999993,
0.449152231445313,-0.378044442138672,-0.020877438476564,0.587444631162449,1.53154799999902,
0.4826710546875,-0.322977803955078,0.0437660063476546,0.582410055023444,1.5344929999992,
0.465911643066406,-0.339737215576172,0.0150355864257801,0.576819819052237,1.53752399999939,
0.465911643066406,-0.368467635498047,0.00306457812499872,0.594013004229237,1.54047499999979,
0.494642062988281,-0.349314022216797,0.0820732329101546,0.611086795925836,1.54349699999875,
0.480276853027344,-0.361285030517578,0.0461602080078105,0.602763215229048,1.54645399999936,
0.475488449707031,-0.387621248779297,0.0940442412109359,0.620631789078644,1.54938699999911,
0.480276853027344,-0.358890828857422,0.0294007963867173,0.600277343750361,1.55240799999956,
0.489853659667969,-0.356496627197265,0.0653138212890614,0.609354041870986,1.55535299999974,
0.497036264648438,-0.373256038818359,0.0246123930664055,0.622069842366996,1.55837999999858,
0.468305844726563,-0.344525618896484,0.0748906279296868,0.586188427412865,1.56132499999876,
0.437181223144531,-0.363679232177734,0.0126413847656242,0.568814390110102,1.56426699999975,
0.458729038085938,-0.358890828857422,0.0341891997070292,0.583441392770365,1.56730599999901,
0.453940634765625,-0.354102425537109,0.110803652832029,0.586283273805081,1.5702540000002,
0.465911643066406,-0.375650240478515,0.0102471831054682,0.598574779854616,1.57329500000014,
0.485065256347656,-0.334948812255859,0.00306457812499872,0.589481468229759,1.57623999999851,
0.413239206542969,-0.344525618896484,0.0605254179687496,0.541412846283277,1.57917499999894,
0.487459458007813,-0.34691982055664,0.0126413847656242,0.598439545572579,1.58219899999858,
0.451546433105469,-0.351708223876953,0.0940442412109359,0.580032046785256,1.58514599999944,
0.50182466796875,-0.349314022216797,0.0270065947265614,0.612027482763599,1.58822499999951,
0.429998618164063,-0.337343013916015,0.00785298144531055,0.546590148080374,1.59128499999861,
0.477882651367188,-0.40438066040039,0.0772848295898427,0.63076817601106,1.59431899999981,
0.470700046386719,-0.351708223876953,0.00545877978515463,0.587611271750196,1.59744799999862,
0.458729038085938,-0.349314022216797,-0.0184832368164081,0.576883217422502,1.60037899999952,
