X,Y,Z,Magnitude,Seconds,
-0.000383072265624895,-0.0899740983886719,0.0455855996093764,0.100863928224918,0.0,
-0.0339018955078124,-0.0516668718261719,0.071921817871095,0.0948237947416558,0.0038059999988036,
-0.00517147558593739,-0.0492726701660157,0.0264319863281255,0.0561532731572713,0.0075829999987036,
-0.0123540805664061,-0.0636378801269531,0.134171061035158,0.149010995275495,0.0113529999998718,
-0.0123540805664061,0.00100556469726559,0.0479798012695323,0.0495549775185647,0.0150959999991755,
-0.00756567724609364,-0.00138863696289065,0.0503740029296882,0.0509579037634693,0.0188829999988229,
-0.0458729038085936,0.0201591779785156,0.0144609780273441,0.0521520435468188,0.0226349999993545,
-0.0698149204101561,0.0105823713378906,0.0168551796875018,0.0725961898263774,0.026358999999502,
-0.0937569370117186,0.0345243879394531,0.0431913979492204,0.108847569826897,0.0300919999990583,
-0.0746033237304686,-0.0037828386230469,0.0120667763671882,0.0756675152993466,0.0339299999996001,
-0.0817859287109374,-0.0564552751464844,0.00248996972656279,0.0994099400272176,0.0379139999986364,
-0.0722091220703124,-0.0229364519042969,0.00967257470703231,0.0763792958699314,0.0417369999995572,
-0.0841801303710936,-0.0205422502441406,-0.0118752402343745,0.0874602751254038,0.0455339999989519,
-0.1057279453125,-0.0157538469238281,0.0216435830078137,0.109064324131764,0.0493429999987711,
-0.000383072265624895,-0.0301190568847656,-0.0118752402343745,0.0323778575976321,0.0531489999993937,
-0.0889685336914061,-0.0253306535644531,0.0144609780273441,0.0936277837113991,0.0569909999994707,
-0.0937569370117186,-0.0157538469238281,-0.0286346518554677,0.0992899300916393,0.0607569999992847,
-0.108122146972656,-0.0325132585449219,9.57680664068761e-05,0.112904914944869,0.0645260000001144,
-0.100939541992187,0.0249475812988281,-0.0166636435546863,0.105303608517334,0.068424999999479,
-0.0985453403320311,0.00339976635742184,-0.00708683691406087,0.0988583115872782,0.0722179999993386,
-0.0793917270507811,0.0273417829589844,-0.0190578452148422,0.0861035474513961,0.0759820000002946,
-0.0937569370117186,0.0225533796386719,-0.040605660156249,0.104631915817642,0.0797189999993861,
-0.0410845004882811,0.00339976635742184,-0.0286346518554677,0.0501940024160304,0.0834679999989021,
-0.0123540805664061,0.0441011945800781,-0.0573650717773422,0.0734049734694509,0.0871979999992618,
-0.0865743320312499,0.0297359846191406,-0.0214520468749981,0.0940187963284682,0.0910160000003088,
-0.0243250888671874,0.00100556469726559,0.0360087929687509,0.0434667031165617,0.0948009999992792,
-0.0434787021484374,0.0369185895996094,-0.0453940634765608,0.0728971933441264,0.0985139999993407,
-0.0554497104492186,0.0129765729980469,0.0240377846679696,0.061813242330584,0.102256000000125,
0.00201112939453141,0.0297359846191406,-0.0932780966796862,0.0979238313328079,0.106186999999409,
-0.0267192905273436,-0.0037828386230469,0.0360087929687509,0.0449984835899942,0.110074000000168,
-0.0171424838867186,0.00100556469726559,-0.00229843359374904,0.0173250890661973,0.113932000000204,
-0.0386902988281249,-0.0037828386230469,0.0072783730468764,0.0395502693501209,0.117715999998836,
-0.0410845004882811,0.0201591779785156,-0.0118752402343745,0.0472794878120009,0.121495999999752,
-0.0602381137695311,-0.00138863696289065,9.57680664068761e-05,0.0602541935025955,0.125316999999995,
-0.0386902988281249,-0.00617704028320315,0.0360087929687509,0.0532139852025413,0.129133999998885,
-0.0626323154296874,0.0464953962402344,0.0288261879882832,0.083159953833297,0.132933999999295,
-0.0458729038085936,0.0680432111816406,0.0862870278320322,0.119078348425848,0.13672299999962,
-0.0434787021484374,0.0464953962402344,-0.0142694418945304,0.0652367717168033,0.140642000000298,
-0.0458729038085936,-0.0085712419433594,0.0599508095703136,0.0759729495308698,0.144435000000158,
-0.0841801303710936,0.0417069929199219,0.0120667763671882,0.0947173410712762,0.148207999998704,
-0.110516348632812,-0.0157538469238281,-0.0884896933593744,0.1424516508815,0.151947999998811,
-0.103333743652344,0.00100556469726559,0.0551624062500018,0.117139936831377,0.155727999999726,
-0.0554497104492186,0.00818816967773439,-0.0214520468749981,0.0600158881189029,0.159488999999667,
-0.0961511386718749,0.0153707746582031,-0.0262404501953117,0.100845740653455,0.163300999998683,
-0.115304751953125,0.0321301862792969,-0.0645476767578117,0.135992416215556,0.167062999998961,
-0.0793917270507811,0.0273417829589844,-0.0597592734374981,0.103062069556455,0.170787999999447,
-0.0674207187499999,0.0632548078613281,0.0192493813476577,0.0944312592132906,0.174591999999393,
-0.0650265170898436,0.0273417829589844,-0.0980664999999981,0.120801736090429,0.178608000000168,
-0.0769975253906249,-0.0205422502441406,0.00488417138672048,0.0798402034786215,0.182430999999269,
-0.120093155273437,0.0632548078613281,-0.0358172568359372,0.140379530375176,0.186265000000276,
-0.0267192905273436,0.0369185895996094,0.0120667763671882,0.0471435025873631,0.190207999999984,
0.0211647426757814,-0.0229364519042969,0.0599508095703136,0.0675879184960313,0.1940829999985,
-0.0171424838867186,-0.0612436784667969,-0.0334230551757795,0.0718453444784978,0.197959999999512,
0.0355299526367189,-0.0420900651855469,0.0120667763671882,0.0563875714460802,0.201791999999841,
-0.0267192905273436,-0.0492726701660157,-0.0190578452148422,0.0592023477220832,0.205602999998518,
-0.0267192905273436,-0.0373016618652344,0.0886812294921882,0.099848359668244,0.209442999999737,
-0.110516348632812,0.0369185895996094,-0.0118752402343745,0.117123297869287,0.213356000000203,
-0.0554497104492186,0.0297359846191406,0.00488417138672048,0.0631090667044508,0.217192999998588,
-0.0339018955078124,0.0417069929199219,0.0455855996093764,0.0704759439042246,0.220989999999802,
-0.0530555087890624,-0.0085712419433594,0.00248996972656279,0.0538010515748259,0.224756999999954,
-0.0793917270507811,-0.0181480485839844,0.0360087929687509,0.0890451074600888,0.228524999998626,
-0.0315076938476561,-0.0037828386230469,0.0623450112304695,0.0699567370949576,0.232262999999875,
0.00440533105468766,-0.0157538469238281,0.0551624062500018,0.0575367856061758,0.236084000000119,
0.0331357509765626,0.0177649763183594,-0.0118752402343745,0.03942833634579,0.239862999998877,
0.0522893642578126,-0.0133596452636719,0.0838928261718763,0.0997530150880765,0.243623000000298,
0.0570777675781252,-0.0229364519042969,0.11980585107422,0.134675143695037,0.247507999998561,
0.0235589443359376,-0.0037828386230469,0.117411649414064,0.119811640270898,0.25147399999878,
0.00440533105468766,0.0417069929199219,0.107834842773439,0.115703213075939,0.255284999999276,
-0.0769975253906249,0.0129765729980469,0.0982580361328136,0.125505585643552,0.259087999998883,
-0.148823575195312,0.0297359846191406,0.0623450112304695,0.16407189198797,0.263005999999223,
-0.218255423339844,0.0273417829589844,-0.00229843359374904,0.219973375001648,0.266845000000103,
-0.218255423339844,0.0393127912597656,0.0551624062500018,0.228525308089013,0.270685999999841,
-0.273322061523437,0.0536780012207031,0.0264319863281255,0.279794437099314,0.274477999999363,
-0.282898868164062,0.0824084211425782,0.0934696328125018,0.30912697996426,0.278249999999389,
-0.282898868164062,0.130292454345703,0.0695276162109391,0.319126906862944,0.282046000000264,
-0.261351053222656,0.175782285888672,-0.0573650717773422,0.320147679224539,0.285874999999578,
-0.287687271484375,0.214089512451172,0.0814986245117204,0.367750338290813,0.289665999998761,
-0.285293069824219,0.259579343994141,0.0934696328125018,0.396875476410749,0.29343499999959,
-0.206284415039062,0.40083724194336,0.153324674316407,0.476164058041973,0.297225000000253,
-0.0219308872070311,0.549277744873047,0.0791044228515645,0.555377812431489,0.300986000000194,
0.00919373437500015,0.467874888427734,-0.117220113281249,0.482423041459145,0.30457000000024,
0.0163763393554689,0.264367747314453,-0.155527339843749,0.30715996443169,0.307546000000002,
1.66119287988281,1.04248328686523,-0.0860954916992185,1.96309592767588,0.310523999998622,
1.79047976953125,0.498999510009766,-0.0693360800781235,1.860006937646,0.313591999998607,
1.34276405908203,0.103956236083984,0.174872489257814,1.35808784873528,0.316595999998754,
0.959691793457032,-0.0732146867675781,0.299370975585939,1.00796414113327,0.319641000000047,
0.504793478027344,-0.300663844482422,0.222756522460939,0.628359507874897,0.322620999999344,
0.0762313808593751,-0.475440565673828,0.110229044433595,0.493969024487083,0.325632999998561,
-0.325994498046875,-0.643034681884766,-0.0621534750976558,0.723622186869772,0.328765999998723,
-0.522319034179688,-0.760350563232422,-0.25129540625,0.956085526339885,0.331833000000188,
-0.780892813476562,-0.877666444580078,-0.469167757324218,1.26499421286969,0.334928000000218,
-0.819200040039062,-0.892031654541016,-0.579301033691404,1.34253449338895,0.33788099999947,
-0.993976761230469,-0.801051991455078,-0.526628597167967,1.38094597078795,0.340806000000157,
-0.960457937988281,-0.700495521728516,-0.450014144042967,1.27109643868793,0.343853999998828,
-0.83356525,-0.616698463623047,-0.375793892578123,1.10289123250736,0.34680599999956,
-0.639634915527344,-0.374884095947266,-0.239324397949218,0.77906808303872,0.349857999999585,
-0.4121857578125,-0.188136366455078,-0.0908838950195303,0.462117164472718,0.352820999998585,
-0.0937569370117186,0.0464953962402344,0.0312203896484391,0.109210337602061,0.35578600000008,
0.126509615722656,0.228454722412109,0.138959464355469,0.29581408992245,0.358849000000191,
0.315651546875,0.319434385498047,0.227544925781251,0.503439091580988,0.36185099999966,
0.392266,0.415202451904297,0.205997110839846,0.607207131461501,0.36491500000011,
0.413813814941406,0.487028501708984,0.268246354003907,0.693105144512467,0.367933999999877,
0.203124068847656,0.384077830322266,0.150930472656251,0.459951274230788,0.371009999998932,
0.0259531459960939,0.254790940673828,0.112623246093751,0.279778456635321,0.373997999999119,
-0.0698149204101561,0.182964890869141,0.103046439453125,0.221289048727224,0.376953999999387,
-0.275716263183594,-0.00138863696289065,0.033614591308595,0.277761276720466,0.379981999998563,
-0.292475674804687,-0.0732146867675781,0.0288261879882832,0.30287515550944,0.382949999999255,
-0.366695926269531,-0.185742164794922,-0.0358172568359372,0.412612324116264,0.385951000000205,
-0.280504666503906,-0.243203004638672,-0.110037508300779,0.387219346919533,0.388898999999583,
-0.196707608398437,-0.281510231201172,-0.0813070883789049,0.352920297083386,0.391818000000058,
-0.179948196777344,-0.286298634521484,-0.0980664999999981,0.352087063202461,0.394827000000078,
-0.0243250888671874,-0.228837794677734,0.00248996972656279,0.230140492244639,0.397794999998951,
0.0618661708984377,-0.185742164794922,-0.0214520468749981,0.196946097192774,0.400826999999481,
0.0810197841796876,-0.111521913330078,0.0192493813476577,0.139182905788003,0.403811000000132,
0.0905965908203126,-0.0157538469238281,0.0360087929687509,0.0987550461102061,0.406780999999683,
0.0307415493164064,0.0560722028808593,0.0934696328125018,0.113250638180936,0.409837999999581,
-0.0458729038085936,0.154234470947266,0.0407971962890645,0.166003031771302,0.412809999999808,
-0.100939541992187,0.123109849365234,0.00488417138672048,0.159275488630417,0.415849999999409,
-0.115304751953125,0.125504051025391,0.0814986245117204,0.188913944546341,0.41882699999951,
-0.156006180175781,0.0824084211425782,0.0264319863281255,0.17840326798997,0.42178899999999,
-0.112910550292969,0.00579396801757814,-0.0118752402343745,0.113681061586677,0.424848999999085,
-0.127275760253906,-0.0564552751464844,-0.040605660156249,0.145034950535379,0.42779100000007,
-0.0554497104492186,-0.0971567033691406,-0.0166636435546863,0.113100718012659,0.430806999998822,
-0.0674207187499999,-0.113916114990234,-0.078912886718749,0.154109306213223,0.433757999999216,
0.00919373437500015,-0.152223341552734,0.0264319863281255,0.154774417674526,0.436723999999231,
-0.0339018955078124,-0.123492921630859,-0.0214520468749981,0.129846180256006,0.439728999999716,
-0.0195366855468749,-0.0995509050292969,-0.0286346518554677,0.105413509860897,0.442683999999645,
-0.0650265170898436,-0.0540610734863282,0.0240377846679696,0.0879139504462948,0.4456969999992,
-0.0650265170898436,0.0129765729980469,-0.0118752402343745,0.067363645256425,0.448669999999765,
-0.110516348632812,0.00100556469726559,0.0431913979492204,0.118660740484364,0.451633999999103,
-0.0889685336914061,-0.0109654436035156,0.0144609780273441,0.0908006653396773,0.454649999999674,
-0.132064163574219,0.0417069929199219,0.0407971962890645,0.144377379751916,0.457623999998759,
-0.0913627353515624,0.0393127912597656,-0.0166636435546863,0.100848014279267,0.460657999999967,
-0.0243250888671874,0.00579396801757814,0.0527682045898441,0.0583931796481483,0.46363299999939,
-0.0506613071289062,-0.0756088884277344,9.57680664068761e-05,0.0910125333171728,0.46673699999883,
-0.0722091220703124,-0.0373016618652344,-0.0358172568359372,0.0888169306794884,0.469774999999572,
-0.0626323154296874,-0.0564552751464844,0.0431913979492204,0.0947391254168891,0.472836999999345,
-0.0554497104492186,-0.0923683000488281,0.0551624062500018,0.12103497141778,0.475902000000133,
-0.0434787021484374,-0.0660320817871094,0.0144609780273441,0.0803725901732635,0.478877999999895,
-0.0530555087890624,-0.0780030900878906,-0.0166636435546863,0.095796900224608,0.481878999999026,
-0.0889685336914061,-0.0277248552246094,-0.00469263525390495,0.0933064221265107,0.484823999999207,
-0.0793917270507811,-0.0516668718261719,0.0072783730468764,0.0950025614529277,0.487793999998757,
-0.0626323154296874,0.0321301862792969,0.0431913979492204,0.0825872427390217,0.490845999998783,
-0.0386902988281249,0.00339976635742184,0.0192493813476577,0.043347852506926,0.493821000000025,
-0.0626323154296874,-0.0109654436035156,0.00967257470703231,0.0643164566107995,0.496882999999798,
-0.0386902988281249,0.0105823713378906,0.0312203896484391,0.0508295045848666,0.499864999999772,
-0.0817859287109374,-0.0301190568847656,0.0144609780273441,0.0883471312960733,0.502825999999914,
-0.0769975253906249,-0.0277248552246094,0.0407971962890645,0.0914423191884038,0.50585399999909,
-0.0698149204101561,-0.0396958635253906,0.0240377846679696,0.0838313770890503,0.508861999998771,
-0.0793917270507811,-0.0780030900878906,-0.040605660156249,0.118475094530834,0.511880000000019,
-0.0913627353515624,-0.0827914934082031,0.0551624062500018,0.13507209872868,0.514860999999655,
-0.0722091220703124,-0.0396958635253906,-0.00708683691406087,0.0827051518869182,0.517791000000216,
-0.0913627353515624,-0.0612436784667969,-0.00469263525390495,0.110090682569826,0.520817999999053,
-0.0626323154296874,-0.0468784685058594,-0.0262404501953117,0.0825164163787506,0.523763999999574,
-0.0530555087890624,0.00100556469726559,0.0264319863281255,0.0592836239991861,0.526818999998795,
-0.0458729038085936,-0.00138863696289065,0.0479798012695323,0.0663951274289838,0.529779999998937,
-0.0746033237304686,-0.0349074602050781,-0.00229843359374904,0.0823982371570357,0.532701999998608,
-0.0722091220703124,-0.0325132585449219,-0.0358172568359372,0.0869145855344527,0.535717999999179,
-0.0530555087890624,-0.0660320817871094,-0.00948103857421678,0.0852350452012056,0.538672999999108,
-0.0698149204101561,-0.0157538469238281,0.0240377846679696,0.0754991516278131,0.541696000000229,
-0.0913627353515624,-0.0660320817871094,0.00248996972656279,0.112754535098586,0.54465799999889,
-0.0937569370117186,-0.0588494768066407,0.0360087929687509,0.116405572586973,0.547592999999324,
-0.0722091220703124,-0.0732146867675781,0.00488417138672048,0.102948544422807,0.550616999998965,
-0.0698149204101561,-0.0181480485839844,-0.00229843359374904,0.0721717228301221,0.55355899999995,
-0.112910550292969,-0.0492726701660157,0.0551624062500018,0.134979551992293,0.556595000000016,
-0.103333743652344,-0.0636378801269531,0.0240377846679696,0.123715227260044,0.559549999999945,
-0.0674207187499999,-0.0396958635253906,0.0264319863281255,0.0825830781640115,0.562577999999121,
-0.0841801303710936,-0.0181480485839844,9.57680664068761e-05,0.0861141985286022,0.565526999998838,
-0.0817859287109374,0.0105823713378906,-0.0477882651367167,0.0953133936182144,0.568479999999909,
-0.0482671054687498,-0.0540610734863282,0.0264319863281255,0.0771424852988015,0.571514999999636,
-0.0937569370117186,-0.0684262834472657,-0.00948103857421678,0.116457758851314,0.574464999999691,
-0.0889685336914061,-0.0444842668457031,0.0288261879882832,0.103562537135464,0.577476999998908,
-0.0793917270507811,-0.0660320817871094,-0.00469263525390495,0.103369739164184,0.580427999999301,
-0.0961511386718749,-0.0181480485839844,0.0216435830078137,0.10021396020875,0.583372999999483,
-0.0362960971679686,-0.0157538469238281,-0.0429998618164049,0.0584343946555104,0.5863849999987,
-0.108122146972656,-0.0492726701660157,-0.0429998618164049,0.126361318477988,0.589328000000023,
-0.0913627353515624,-0.0037828386230469,-0.0238462485351558,0.0944992214156713,0.592344999999113,
-0.0722091220703124,-0.0420900651855469,0.0120667763671882,0.0844472497443498,0.595300999999381,
-0.0650265170898436,-0.0444842668457031,0.0288261879882832,0.0838942610407368,0.598246999999901,
-0.0602381137695311,-0.0301190568847656,0.0168551796875018,0.0694253917557308,0.601263999998991,
-0.0841801303710936,-0.0660320817871094,-0.0238462485351558,0.109613747968192,0.604263999999603,
-0.0698149204101561,-0.0229364519042969,-0.0334230551757795,0.0807298244462216,0.607371999998577,
-0.0769975253906249,-0.0420900651855469,0.0144609780273441,0.0889343150258146,0.610439000000042,
-0.0554497104492186,-0.0253306535644531,0.0072783730468764,0.0613945202205704,0.61344999999892,
-0.0841801303710936,-0.0756088884277344,-0.0262404501953117,0.116153172944283,0.616469999999026,
-0.0817859287109374,-0.0085712419433594,0.0216435830078137,0.08503439897464,0.619434999998703,
-0.0554497104492186,-0.0516668718261719,-0.0142694418945304,0.0771216766232792,0.622448000000077,
-0.0410845004882811,-0.0157538469238281,0.071921817871095,0.0843141017811014,0.6254229999995,
-0.0506613071289062,-0.0229364519042969,0.0647392128906255,0.0853452667209213,0.628383999999642,
-0.0530555087890624,-0.0229364519042969,0.00488417138672048,0.0580070941261434,0.631395999998858,
-0.0817859287109374,-0.0516668718261719,0.0455855996093764,0.10694134219823,0.634356999999,
-0.0817859287109374,-0.0373016618652344,0.0264319863281255,0.0936963287128638,0.637375999998767,
-0.0769975253906249,-0.0253306535644531,0.0407971962890645,0.090745094365099,0.640346999998656,
-0.0722091220703124,-0.0325132585449219,-0.00948103857421678,0.0797568767180611,0.643267999999807,
-0.0554497104492186,-0.0564552751464844,0.0240377846679696,0.0827023794851824,0.646330999999918,
-0.0674207187499999,-0.0468784685058594,-0.0286346518554677,0.0869660129769399,0.649292999998579,
-0.0650265170898436,-0.0205422502441406,0.0671334145507831,0.095693925194737,0.652330999999322,
-0.0817859287109374,-0.0037828386230469,-0.0118752402343745,0.082730099321726,0.655263999999079,
-0.0674207187499999,-0.0301190568847656,0.033614591308595,0.0811335420972005,0.658288999999058,
-0.0626323154296874,-0.0468784685058594,0.0575566079101577,0.0971244606660049,0.661237000000256,
-0.108122146972656,-0.0325132585449219,0.0144609780273441,0.113827195927392,0.664177999999083,
-0.0674207187499999,-0.0277248552246094,0.0192493813476577,0.0753973447560303,0.667192999999315,
-0.0554497104492186,-0.0540610734863282,0.0288261879882832,0.0826330392115176,0.670165999999881,
-0.0674207187499999,-0.0133596452636719,0.0192493813476577,0.0713762714114802,0.673171999998885,
-0.0937569370117186,-0.0301190568847656,-0.0118752402343745,0.0991894256262795,0.676133999999365,
-0.0817859287109374,-0.0301190568847656,-0.0166636435546863,0.0887342816461367,0.679057999999714,
-0.0841801303710936,-0.0325132585449219,0.00967257470703231,0.0907577271198788,0.682084000000032,
-0.1057279453125,-0.0037828386230469,-0.0477882651367167,0.116088012183981,0.685029000000213,
-0.0769975253906249,-0.0396958635253906,0.00488417138672048,0.0867654057066595,0.688067999999475,
-0.0578439121093749,0.00339976635742184,0.0072783730468764,0.0583990692872039,0.69104999999945,
-0.100939541992187,-0.0636378801269531,0.0120667763671882,0.119934056950229,0.693991000000096,
-0.0506613071289062,-0.0468784685058594,-0.0190578452148422,0.0716055885647,0.696986999999353,
-0.0602381137695311,-0.0756088884277344,0.0216435830078137,0.0990645196082063,0.699968999999328,
-0.0650265170898436,-0.0684262834472657,-0.0525766684570304,0.108050498644299,0.702993999999308,
-0.0362960971679686,-0.0516668718261719,0.0360087929687509,0.0726877258207674,0.705970999999408,
-0.0698149204101561,-0.0468784685058594,0.00248996972656279,0.0841303385858543,0.708912000000055,
-0.0578439121093749,-0.0373016618652344,-0.0190578452148422,0.0714180202067955,0.711935999999696,
-0.0889685336914061,-0.0109654436035156,-0.0190578452148422,0.0916451984822644,0.714882000000216,
-0.0722091220703124,-0.0157538469238281,-0.0525766684570304,0.0907008658674501,0.717908999999054,
-0.0817859287109374,-0.0612436784667969,-0.0310288535156236,0.10678256429656,0.720857000000251,
-0.0769975253906249,-0.0205422502441406,-0.0118752402343745,0.0805706168028825,0.723790000000008,
-0.103333743652344,-0.00138863696289065,0.0192493813476577,0.105120547811028,0.726816999998846,
-0.0793917270507811,-0.0373016618652344,-0.0166636435546863,0.0892868261197118,0.729768999999578,
-0.0937569370117186,-0.0277248552246094,-0.00229843359374904,0.0977973089201835,0.732778999999937,
-0.100939541992187,-0.0516668718261719,0.00967257470703231,0.113806043263782,0.735748999999487,
-0.0650265170898436,-0.0277248552246094,0.0168551796875018,0.0726719519784576,0.738675999999032,
-0.0578439121093749,-0.0301190568847656,-0.0166636435546863,0.0673108666729413,0.741688999998587,
-0.0458729038085936,-0.0588494768066407,0.0144609780273441,0.0760046321598569,0.744760999999926,
-0.0769975253906249,-0.0253306535644531,-0.0238462485351558,0.0844920380597053,0.747881999999663,
-0.110516348632812,-0.0420900651855469,0.0455855996093764,0.126741799711852,0.750943999999436,
-0.0554497104492186,-0.0085712419433594,0.0407971962890645,0.0693725291625024,0.754003000000012,
-0.0339018955078124,-0.0373016618652344,0.0599508095703136,0.078325296456936,0.756957999999941,
-0.0913627353515624,-0.0325132585449219,0.0240377846679696,0.0999103422267796,0.759907999999996,
-0.0865743320312499,-0.0516668718261719,0.0575566079101577,0.116091962362098,0.762951999999132,
-0.0530555087890624,-0.0373016618652344,-0.00469263525390495,0.0650255474133109,0.76592299999902,
-0.0937569370117186,-0.0588494768066407,-0.00469263525390495,0.110795509763983,0.768922999999631,
-0.0817859287109374,-0.0157538469238281,0.0671334145507831,0.106976713247591,0.77190999999948,
-0.0985453403320311,-0.0660320817871094,0.00967257470703231,0.119016715749337,0.774848999999449,
-0.0434787021484374,-0.0349074602050781,0.0120667763671882,0.057048535567334,0.7778959999996,
-0.0602381137695311,-0.0277248552246094,0.0479798012695323,0.0818496137901722,0.780865999999151,
-0.0458729038085936,-0.0420900651855469,0.0144609780273441,0.0639141359689967,0.783924999999726,
-0.0698149204101561,-0.0277248552246094,-0.0334230551757795,0.0822185582845211,0.786894999999276,
-0.0650265170898436,-0.0636378801269531,-0.0118752402343745,0.0917564659438903,0.78983899999912,
-0.0937569370117186,-0.0109654436035156,0.0072783730468764,0.0946761791870096,0.792862999998761,
-0.0674207187499999,-0.0564552751464844,0.0503740029296882,0.101342447078172,0.795847999999751,
-0.0769975253906249,-0.0756088884277344,0.0072783730468764,0.108158668814696,0.798867999999857,
-0.0913627353515624,-0.0325132585449219,0.0623450112304695,0.115287301197729,0.801832999999533,
-0.0674207187499999,-0.00617704028320315,0.0551624062500018,0.0873304082591919,0.804771999999502,
-0.0698149204101561,-0.0325132585449219,0.00488417138672048,0.0771692310653685,0.807804999998552,
-0.0650265170898436,-0.0684262834472657,-0.0118752402343745,0.0951400311218436,0.81074499999886,
-0.0841801303710936,0.00100556469726559,0.00967257470703231,0.0847399800042331,0.813814999999522,
-0.0554497104492186,-0.0325132585449219,0.0407971962890645,0.0761327366850791,0.816774999999325,
-0.0458729038085936,-0.0420900651855469,0.0407971962890645,0.0744332460410301,0.81972499999938,
-0.0315076938476561,-0.0205422502441406,9.57680664068761e-05,0.0376128699810725,0.822744999999486,
-0.0698149204101561,-0.0612436784667969,0.00248996972656279,0.0929037739451958,0.825706999999966,
-0.0769975253906249,-0.00617704028320315,0.0120667763671882,0.0781817231508488,0.828725999999733,
-0.0841801303710936,-0.0349074602050781,-0.0597592734374981,0.108977042945022,0.831675999999788,
-0.0674207187499999,-0.0540610734863282,-0.00469263525390495,0.0865457902435869,0.834592999999586,
-0.0578439121093749,-0.0612436784667969,-0.0334230551757795,0.0906300553764847,0.837604000000283,
-0.0889685336914061,-0.0420900651855469,0.00488417138672048,0.0985435371024265,0.840580000000045,
-0.0746033237304686,-0.0660320817871094,-0.0238462485351558,0.102442839212768,0.843593999999939,
-0.0578439121093749,-0.0133596452636719,-0.0262404501953117,0.0649073148122835,0.846535999999105,
-0.0506613071289062,0.00579396801757814,-0.0813070883789049,0.095973854387813,0.849567999999636,
-0.0769975253906249,-0.0253306535644531,0.033614591308595,0.0877507930170784,0.852525999998761,
-0.0793917270507811,-0.0349074602050781,0.0240377846679696,0.0899966232356443,0.855471999999281,
-0.0865743320312499,-0.0205422502441406,0.0072783730468764,0.0892752693972944,0.858486999999514,
-0.0626323154296874,-0.0301190568847656,-0.0142694418945304,0.0709477377771341,0.861440999999104,
-0.0506613071289062,-0.0229364519042969,-0.00948103857421678,0.0564139961216476,0.864438999999038,
-0.0817859287109374,0.0129765729980469,0.0407971962890645,0.0923132753558914,0.867427999999563,
-0.0410845004882811,-0.0540610734863282,-0.0166636435546863,0.0699157554731649,0.870344999999361,
-0.0219308872070311,0.0129765729980469,-0.0190578452148422,0.0318206964834845,0.873387999999977,
-0.0291134921874999,-0.0277248552246094,0.033614591308595,0.0524042343081266,0.876338000000032,
-0.0769975253906249,-0.0037828386230469,0.0551624062500018,0.094793564378697,0.879366999999547,
-0.0554497104492186,-0.0588494768066407,0.00248996972656279,0.0808958049502984,0.882372999998552,
-0.100939541992187,-0.0444842668457031,-0.0118752402343745,0.110944411598856,0.885403999998744,
-0.151217776855469,-0.0492726701660157,0.0455855996093764,0.165446846310668,0.888535999998567,
-0.0937569370117186,-0.0468784685058594,0.0192493813476577,0.106576229664695,0.891582000000199,
-0.0506613071289062,-0.00138863696289065,0.033614591308595,0.0608147769992453,0.894604999999501,
-0.0937569370117186,-0.0732146867675781,0.0479798012695323,0.12826852663907,0.897569999999178,
-0.0817859287109374,-0.0564552751464844,0.00488417138672048,0.0994987002784994,0.900503999999273,
-0.112910550292969,-0.0109654436035156,0.0527682045898441,0.12511401494844,0.90354699999989,
-0.0746033237304686,-0.0037828386230469,-0.0118752402343745,0.0756372071820822,0.906510999999227,
-0.0817859287109374,-0.0780030900878906,0.0240377846679696,0.115547545582387,0.909550999998828,
-0.0506613071289062,-0.0325132585449219,-0.00948103857421678,0.0609390688611508,0.912485999999262,
-0.0482671054687498,-0.0277248552246094,-0.0310288535156236,0.0637273161058192,0.915428000000247,
-0.0554497104492186,-0.0732146867675781,-0.00948103857421678,0.0923306603454267,0.918440999999802,
-0.0722091220703124,-0.00617704028320315,-0.00229843359374904,0.0725092817080025,0.92140499999914,
-0.0674207187499999,-0.0277248552246094,-0.040605660156249,0.0834448353747368,0.924447999999757,
-0.0530555087890624,-0.0325132585449219,0.0192493813476577,0.0651347654969508,0.927447000000029,
-0.115304751953125,-0.0396958635253906,0.0479798012695323,0.13104582684642,0.930387999998857,
-0.0841801303710936,-0.0229364519042969,-0.0118752402343745,0.0880533730522377,0.933392999999342,
-0.112910550292969,-0.0253306535644531,0.00967257470703231,0.116120597134731,0.936351999998806,
-0.1057279453125,-0.0684262834472657,0.0360087929687509,0.130985449029558,0.939376999998785,
-0.0674207187499999,-0.0492726701660157,0.00488417138672048,0.0836492945110144,0.942322999999305,
-0.0674207187499999,-0.0181480485839844,0.0407971962890645,0.0808660386640876,0.945338999999876,
0.0067995327148439,-0.0277248552246094,0.0120667763671882,0.030992068892888,0.948325999999724,
-0.0674207187499999,-0.0540610734863282,-0.00948103857421678,0.0869370063649914,0.951254999999946,
-0.0650265170898436,0.00100556469726559,9.57680664068761e-05,0.0650343621227937,0.954310999999507,
-0.0698149204101561,-0.0564552751464844,-0.0908838950195303,0.127754465979326,0.957261999999901,
-0.0482671054687498,0.00339976635742184,-0.00948103857421678,0.0493068146817685,0.960277999998652,
-0.0746033237304686,-0.0109654436035156,0.0407971962890645,0.0857339377965543,0.963238999998794,
-0.0889685336914061,-0.0444842668457031,-0.00469263525390495,0.0995804740379597,0.966157999999268,
-0.0506613071289062,-0.0037828386230469,-0.0238462485351558,0.0561205976202837,0.969171999999162,
-0.0769975253906249,0.00100556469726559,0.0216435830078137,0.0799879663577993,0.972154999999475,
-0.115304751953125,-0.0468784685058594,-0.040605660156249,0.130925919012055,0.975164999999834,
-0.0865743320312499,-0.0253306535644531,-0.0166636435546863,0.0917302239895722,0.978107999999338,
-0.0841801303710936,-0.0516668718261719,0.0264319863281255,0.102246808726955,0.981067999999141,
-0.0793917270507811,-0.0492726701660157,-0.0286346518554677,0.0977281210106822,0.984071999999287,
-0.0243250888671874,-0.0564552751464844,-0.0214520468749981,0.0651083585677672,0.987028999999893,
-0.0913627353515624,-0.0109654436035156,0.00967257470703231,0.092525396869209,0.990047999999661,
-0.0650265170898436,-0.0325132585449219,0.0886812294921882,0.11467310220924,0.993003999999928,
-0.0769975253906249,-0.0564552751464844,0.0647392128906255,0.115355895791428,0.995942999999897,
-0.0961511386718749,-0.0516668718261719,0.0384029946289068,0.115712130343659,0.998982999999498,
-0.0913627353515624,-0.0349074602050781,0.0288261879882832,0.101963862730011,1.00193799999943,
-0.0626323154296874,-0.0540610734863282,0.0264319863281255,0.0868565282740926,1.00497499999983,
-0.0458729038085936,-0.0229364519042969,0.0120667763671882,0.0526878659815174,1.00793499999963,
-0.0626323154296874,-0.0468784685058594,0.0120667763671882,0.079158100264183,1.01088299999901,
-0.0171424838867186,-0.0349074602050781,-0.0501824667968744,0.0634876011957841,1.01389199999903,
-0.0554497104492186,-0.0181480485839844,0.0503740029296882,0.0770815297426632,1.01687099999981,
