X,Y,Z,Magnitude,Seconds,
0.0355299526367189,0.0752258161621093,-0.0453940634765608,0.0947730022239297,0.0,
0.0522893642578126,0.0273417829589844,0.0384029946289068,0.0704027038282641,0.00390800000059244,
0.0211647426757814,0.0560722028808593,-0.00229843359374904,0.0599776713905197,0.00767200000154844,
0.0498951625976564,0.0536780012207031,-0.0310288535156236,0.0795841995385415,0.0114840000005643,
0.0331357509765626,0.0441011945800781,-0.0429998618164049,0.0699419864773699,0.0152870000001712,
0.0259531459960939,0.0776200178222656,0.0455855996093764,0.0936828684742828,0.019071000000622,
0.0283473476562501,0.0417069929199219,-0.0262404501953117,0.056847221603341,0.0228400000014517,
0.0570777675781252,0.0512837995605468,-0.0477882651367167,0.090397001796774,0.0266960000008112,
0.0882023891601564,0.0393127912597656,0.00967257470703231,0.0970500680662136,0.0304990000004182,
0.0522893642578126,0.0584664045410156,-0.00229843359374904,0.0784715290498712,0.0342990000008285,
0.0403183559570314,0.0201591779785156,-0.0190578452148422,0.0489404101748263,0.0383250000013504,
-0.0291134921874999,0.0512837995605468,0.00488417138672048,0.0591732934257746,0.0421860000005836,
0.0067995327148439,0.0776200178222656,-0.0501824667968744,0.0926789123031149,0.0460259999999835,
-0.0410845004882811,0.0776200178222656,0.00488417138672048,0.0879582769114724,0.0498990000014601,
-0.0195366855468749,0.0752258161621093,0.0240377846679696,0.0813536759535586,0.0538560000004509,
0.0115879360351564,0.0417069929199219,0.0216435830078137,0.0483962623080895,0.0577550000016345,
0.0283473476562501,0.0464953962402344,0.0168551796875018,0.0570043074949489,0.0616330000011658,
0.0475009609375001,0.0321301862792969,0.0360087929687509,0.0677150155533807,0.065481000001455,
0.0355299526367189,0.0776200178222656,0.0120667763671882,0.0862139883835103,0.0693260000007285,
0.0067995327148439,0.0752258161621093,-0.0166636435546863,0.0773487820131212,0.0731350000005477,
-0.00517147558593739,0.118321446044922,-0.00948103857421678,0.118813294064019,0.0770080000002054,
0.0187705410156251,0.0632548078613281,-0.0190578452148422,0.0686782745256874,0.080801000000065,
0.0475009609375001,0.0369185895996094,0.00488417138672048,0.0603587498060153,0.0846020000008139,
0.00201112939453141,0.0393127912597656,0.00488417138672048,0.0396660475496401,0.0883650000014313,
0.0163763393554689,0.0991678327636719,-0.0142694418945304,0.101518769287804,0.0921170000001439,
0.0498951625976564,0.0512837995605468,-0.0214520468749981,0.0746976951661832,0.0958730000002106,
0.0211647426757814,0.0632548078613281,0.0264319863281255,0.0717479403980058,0.0996380000015051,
0.0067995327148439,0.0560722028808593,0.0168551796875018,0.0589442335037997,0.103481000000102,
0.00440533105468766,0.0728316145019531,0.0240377846679696,0.0768223021290443,0.107378000000608,
0.0187705410156251,0.101562034423828,0.0240377846679696,0.10604242140799,0.111348000000362,
0.0379241542968751,0.0584664045410156,0.0192493813476577,0.0722986903156235,0.115131000000474,
0.0451067592773439,0.0464953962402344,0.0599508095703136,0.0882640423512126,0.118922999999995,
0.0139821376953126,0.0464953962402344,0.0072783730468764,0.0490947732480412,0.122703000000911,
0.0714429775390626,0.0464953962402344,0.0551624062500018,0.101532319851728,0.126608000000488,
0.0427125576171876,0.0824084211425782,0.00248996972656279,0.0928531658192293,0.130465000000186,
0.0307415493164064,0.0848026228027344,-0.0118752402343745,0.090981036591259,0.134242000000086,
0.0163763393554689,0.0943794294433594,-0.0334230551757795,0.101453249381293,0.138037000000622,
-0.00756567724609364,0.0656490095214843,-0.0429998618164049,0.078841740465149,0.141838000001371,
0.0307415493164064,0.120715647705078,0.0360087929687509,0.129668591518131,0.145658000001276,
0.0163763393554689,0.0441011945800781,-0.0477882651367167,0.0670583189384623,0.149481000000378,
0.0498951625976564,0.0441011945800781,-0.040605660156249,0.0779952706948393,0.153269000000364,
0.0307415493164064,0.0441011945800781,0.00967257470703231,0.0546215792450756,0.157044000001406,
0.0283473476562501,0.0512837995605468,-0.0286346518554677,0.0652191958199002,0.160798000000796,
0.0451067592773439,0.113533042724609,-0.0501824667968744,0.132070630711872,0.164562000001752,
0.0379241542968751,0.0488895979003906,0.0168551796875018,0.0641290210769901,0.168337000000975,
-0.00277727392578114,0.0464953962402344,-0.0837012900390608,0.0957885226746827,0.172068000001673,
-0.0123540805664061,0.00339976635742184,0.0240377846679696,0.0272396183833398,0.175959000000148,
0.00440533105468766,0.00100556469726559,-0.0286346518554677,0.0289889873735807,0.179935000000114,
-0.0554497104492186,0.0129765729980469,0.0216435830078137,0.0609221349026111,0.183834000001298,
0.0307415493164064,0.0608606062011718,-0.0358172568359372,0.0770190374439895,0.187654000001203,
0.0427125576171876,0.0417069929199219,-0.0549708701171863,0.0811519093925987,0.191499000000476,
0.0522893642578126,0.0656490095214843,0.0384029946289068,0.0922971292192016,0.195308000000296,
0.0714429775390626,0.0560722028808593,0.0647392128906255,0.111531863883184,0.199270000000979,
0.0355299526367189,0.00100556469726559,0.0288261879882832,0.0457639356771652,0.203093000000081,
0.0427125576171876,0.0249475812988281,-0.0382114584960931,0.062504879419625,0.20687800000087,
-0.0123540805664061,0.00579396801757814,-0.0837012900390608,0.0848062457973052,0.210642000000007,
0.0067995327148439,-0.00138863696289065,-0.040605660156249,0.0411944364505661,0.214454000000842,
-0.0123540805664061,-0.0373016618652344,-0.0621534750976558,0.073532929706795,0.218202000000019,
0.0283473476562501,-0.0085712419433594,-0.0286346518554677,0.0411944364505664,0.221966000000975,
0.0546835659179689,0.0441011945800781,-0.00708683691406087,0.0706075845950083,0.225867000001017,
0.152845833984375,0.00339976635742184,0.0551624062500018,0.162530915339065,0.229663000000073,
0.100173397460938,0.0321301862792969,0.0814986245117204,0.133075483190976,0.233436000000438,
0.1241154140625,0.0345243879394531,0.0599508095703136,0.142093873684391,0.237184000001434,
0.148057430664063,0.0464953962402344,0.0360087929687509,0.159309314911108,0.240938000000824,
0.203124068847656,0.0680432111816406,0.103046439453125,0.237713766149761,0.244692000000214,
0.229460287109375,0.0656490095214843,0.122200052734376,0.268131812174075,0.24858900000072,
0.272555916992188,0.120715647705078,0.210785514160158,0.365088384460627,0.252639000000272,
0.262979110351563,0.163811277587891,0.215573917480469,0.377444381391686,0.256444000000556,
0.298892135253906,0.115927244384766,0.174872489257814,0.365179438093807,0.260277000001224,
0.25819070703125,0.118321446044922,0.294582572265627,0.409195916003681,0.26408100000117,
0.234248690429688,0.113533042724609,0.368802823730469,0.451417460395474,0.267922000000908,
0.217489278808594,0.118321446044922,0.378379630371095,0.452186571749549,0.271839000000909,
0.155240035644531,0.161417075927734,0.366408622070313,0.429430110024252,0.275655000001279,
0.140874825683594,0.228454722412109,0.318524588867188,0.416527538605538,0.279460000001563,
0.157634237304688,0.269156150634766,0.126988456054688,0.3367783457503,0.283254000001762,
0.10496180078125,0.398443040283203,0.153324674316407,0.439638819632204,0.287074000001667,
0.0379241542968751,0.503787913330078,0.126988456054688,0.520928566185193,0.290819000001648,
-0.0386902988281249,0.472663291748047,0.0312203896484391,0.475270701094975,0.294548000001669,
-0.151217776855469,0.487028501708984,-0.0142694418945304,0.510163889829523,0.298412000000098,
-0.304446683105469,0.427173460205078,-0.119614314941405,0.538026516350637,0.302175000000716,
-0.347542312988281,0.398443040283203,-0.124402718261718,0.543156102771819,0.30560400000104,
-0.426550967773437,0.257185142333984,-0.160315743164061,0.523250478310391,0.308584000000337,
-0.484011807617187,0.0919852277832032,-0.157921541503905,0.51736633569856,0.311541000000943,
-0.397820547851562,0.0800142194824218,-0.215382381347656,0.459405086832183,0.314604000001054,
-0.251774246582031,-0.135463929931641,-0.126796919921874,0.312759022981189,0.317551000000094,
-0.261351053222656,-0.0588494768066407,-0.481138765624999,0.550692423888467,0.320577000000412,
0.385083395019532,1.8924248762207,-0.83787481298828,2.10513546725593,0.323573000001488,
0.722665829101563,1.34654689770508,-0.620002461914062,1.64919298478065,0.326551000000109,
0.6987238125,1.19571219311523,0.134171061035158,1.39138222230208,0.32963700000073,
0.540706502929688,0.853341355712891,0.550762149902345,1.15060590014367,0.332721000000674,
0.133692220703125,0.362530015380859,0.768634500976564,0.86029100775265,0.335866000001261,
-0.132064163574219,-0.0157538469238281,0.589069376464845,0.603897224105343,0.338902000001326,
-0.318811893066406,-0.331788466064453,0.0982580361328136,0.470509565299863,0.34187700000075,
-0.438521976074219,-0.64064048022461,-0.299179439453123,0.832003657079668,0.344922000000224,
-0.627663907226562,-0.884849049560547,-0.567330025390623,1.22424800537017,0.347885000001042,
-0.725826175292969,-1.08835619067383,-0.631973470214843,1.45283629551779,0.350906000001487,
-0.790469620117188,-1.20327787036133,-0.62718506689453,1.57037605743497,0.353867000001628,
-0.733008780273438,-1.3469299699707,-0.557753218749999,1.63175085996276,0.35677300000134,
-0.685124747070312,-1.40439080981445,-0.3662170859375,1.60493751273126,0.359762000000046,
-0.603721890625,-1.40917921313477,-0.349457674316405,1.5723825368178,0.362734000000273,
-0.438521976074219,-1.27270971850586,-0.371005489257811,1.39632969750655,0.365767000001142,
-0.191919205078125,-1.0189243425293,-0.239324397949218,1.06410336177006,0.368735000000015,
-0.00517147558593739,-0.738802748291016,-0.236930196289061,0.775881539254329,0.371770000001561,
0.133692220703125,-0.408402919189453,-0.0932780966796862,0.439735554167712,0.374769000000015,
0.286921126953125,-0.0995509050292969,0.0695276162109391,0.31155770765651,0.377760000001217,
0.306074740234375,0.144657664306641,0.117411649414064,0.35831980390473,0.380812000001242,
0.274950118652344,0.360135813720703,0.208391312500002,0.498720674523008,0.383819000000585,
0.171999447265625,0.568431358154297,0.265852152343751,0.65067302518133,0.386854000000312,
0.0834139858398439,0.642651609619141,0.208391312500002,0.680724557736266,0.389842000000499,
0.0259531459960939,0.683353037841797,0.143747867675783,0.69879066219866,0.392805000001317,
-0.0722091220703124,0.642651609619141,0.186843497558595,0.67314615146799,0.395843000000241,
-0.151217776855469,0.494211106689453,0.0599508095703136,0.520293699347263,0.398804000000382,
-0.256562649902344,0.348164805419922,-0.0118752402343745,0.432647831831651,0.401849000001675,
-0.27811046484375,0.159022874267578,-0.040605660156249,0.322928049002643,0.40483200000017,
-0.349936514648437,0.0345243879394531,-0.0310288535156236,0.353001823504333,0.407787000000098,
-0.314023489746094,-0.168982753173828,-0.0693360800781235,0.363281454224024,0.410804000001008,
-0.223043826660156,-0.271933424560547,-0.141162129882812,0.378976361950827,0.41375700000026,
-0.108122146972656,-0.310240651123047,-0.119614314941405,0.349638734430455,0.416775000001508,
-0.0315076938476561,-0.329394264404297,-0.0621534750976558,0.336684378403217,0.419730999999956,
0.0929907924804689,-0.331788466064453,-0.078912886718749,0.353494154675625,0.422672000000603,
0.0810197841796876,-0.312634852783203,-0.0477882651367167,0.326478904200678,0.425704000001133,
0.0858081875000001,-0.247991407958984,-0.0142694418945304,0.262804871407468,0.428689000000304,
0.0546835659179689,-0.0995509050292969,-0.0142694418945304,0.114473979775486,0.43173200000092,
-0.00995987890624989,-0.0205422502441406,0.0120667763671882,0.025822283493444,0.434695000001739,
-0.0291134921874999,0.0728316145019531,-0.0214520468749981,0.0813156185086225,0.437648000000991,
-0.0937569370117186,0.144657664306641,0.033614591308595,0.175630702980191,0.440693000000465,
-0.112910550292969,0.125504051025391,0.0551624062500018,0.17760335091021,0.443668000001708,
-0.122487356933594,0.125504051025391,0.033614591308595,0.178561922540068,0.44670700000097,
-0.120093155273437,0.149446067626953,-0.0262404501953117,0.193507246115339,0.449674000001323,
-0.0985453403320311,0.0704374128417968,0.0144609780273441,0.121990709131921,0.452632000000449,
-0.0841801303710936,0.00579396801757814,0.0431913979492204,0.0947911455331718,0.455667000000176,
-0.0698149204101561,-0.0085712419433594,-0.0214520468749981,0.0735376068107683,0.458604000001287,
-0.0434787021484374,-0.0803972917480469,-0.0477882651367167,0.103139906659402,0.461617000000842,
-0.0482671054687498,-0.0899740983886719,-0.0765186850585931,0.127593734228143,0.464561000000685,
0.0738371791992189,-0.0899740983886719,0.0288261879882832,0.119909201176923,0.467604000001302,
-0.0386902988281249,-0.125887123291016,0.0360087929687509,0.136532560969768,0.470616000000518,
-0.0339018955078124,-0.106733510009766,-0.00469263525390495,0.112086580390578,0.473629000000074,
-0.0746033237304686,-0.0420900651855469,0.00248996972656279,0.085693812193156,0.476755000001504,
-0.0793917270507811,-0.0181480485839844,0.0360087929687509,0.0890451074600888,0.479781000000003,
-0.115304751953125,0.0225533796386719,0.0192493813476577,0.11905620285548,0.482817000000068,
-0.0554497104492186,-0.00138863696289065,0.0455855996093764,0.0717958605579964,0.485776000001351,
-0.0530555087890624,0.0512837995605468,0.00248996972656279,0.0738316670506079,0.488735000000815,
-0.0362960971679686,0.0201591779785156,0.00248996972656279,0.0415932575742185,0.491821999999956,
-0.0410845004882811,0.0441011945800781,9.57680664068761e-05,0.0602732172302427,0.494797000001199,
-0.0698149204101561,0.0201591779785156,-0.0166636435546863,0.0745532868837018,0.497839999999997,
-0.0458729038085936,-0.0085712419433594,0.0623450112304695,0.0778761190456449,0.500805000001492,
-0.0386902988281249,-0.0540610734863282,-0.0262404501953117,0.071470973942968,0.503742000000784,
-0.0243250888671874,-0.0588494768066407,0.00488417138672048,0.0638656871797897,0.506792000000132,
-0.0315076938476561,-0.0349074602050781,-0.0118752402343745,0.0485003802066628,0.509753000000273,
-0.0817859287109374,0.00100556469726559,0.0288261879882832,0.0867231134669804,0.512840000001233,
-0.0362960971679686,-0.0492726701660157,0.0168551796875018,0.0634767656486495,0.515809000000445,
-0.0698149204101561,-0.0420900651855469,0.0072783730468764,0.0818454116820822,0.5187590000005,
-0.0817859287109374,-0.0349074602050781,0.0312203896484391,0.0942453269020804,0.521789000000354,
-0.0746033237304686,-0.0157538469238281,-0.0214520468749981,0.079208774259293,0.524742000001424,
-0.0698149204101561,-0.0133596452636719,0.00967257470703231,0.0717367544213614,0.527784000001702,
-0.0195366855468749,0.0249475812988281,-0.0214520468749981,0.0382655747369124,0.530752000000575,
-0.0722091220703124,-0.0373016618652344,0.0120667763671882,0.0821655547049327,0.533696000000418,
-0.0315076938476561,-0.0133596452636719,-0.00948103857421678,0.0355120400091936,0.536708000001454,
-0.0746033237304686,-0.0133596452636719,-0.00948103857421678,0.0763807968382763,0.539651000000958,
-0.0865743320312499,0.0249475812988281,0.0407971962890645,0.0989035287761119,0.542711000000054,
-0.0961511386718749,0.0297359846191406,-0.0765186850585931,0.126429345534429,0.545677000000069,
-0.0267192905273436,0.00339976635742184,-0.0238462485351558,0.035973913698263,0.548624000000927,
-0.0315076938476561,-0.0037828386230469,-0.040605660156249,0.0515350781154975,0.551628000001074,
-0.0626323154296874,-0.0157538469238281,0.0240377846679696,0.0689115790032919,0.55459300000075,
-0.0195366855468749,0.0153707746582031,0.0527682045898441,0.0583303198292824,0.557647000001452,
-0.0650265170898436,-0.0205422502441406,-0.0429998618164049,0.0806189809297943,0.56058700000176,
-0.0195366855468749,0.00100556469726559,-0.0166636435546863,0.0256976703036578,0.563615000000937,
-0.0674207187499999,0.00818816967773439,9.57680664068761e-05,0.0679161881362647,0.566599000001588,
-0.0482671054687498,-0.0325132585449219,0.0168551796875018,0.0605881385572979,0.569543000001431,
-0.0578439121093749,-0.00617704028320315,0.0144609780273441,0.0599432555028898,0.572573000001285,
-0.0339018955078124,0.0249475812988281,0.0216435830078137,0.0473303815439976,0.575551000001724,
-0.0889685336914061,-0.0253306535644531,-0.0310288535156236,0.0975696251283935,0.578549000001658,
-0.0626323154296874,-0.0085712419433594,-0.00948103857421678,0.0639231039373187,0.581497000001036,
-0.0554497104492186,-0.00617704028320315,-0.040605660156249,0.06900467993033,0.584426000001258,
-0.0626323154296874,-0.0349074602050781,-0.0166636435546863,0.0736139574440242,0.58744200000001,
-0.0530555087890624,0.00818816967773439,-0.0190578452148422,0.056966082889475,0.590403000000151,
-0.0386902988281249,-0.0085712419433594,-0.00948103857421678,0.0407467238475315,0.593425000000934,
-0.0841801303710936,-0.0444842668457031,-0.00948103857421678,0.0956819441615806,0.596366000001581,
-0.0554497104492186,-0.0085712419433594,0.0958638344726577,0.111076601213554,0.599312000000282,
-0.0602381137695311,-0.0181480485839844,0.0216435830078137,0.0665313963729438,0.60233000000153,
-0.0482671054687498,-0.0277248552246094,0.0527682045898441,0.0766998336581809,0.60528400000112,
-0.0291134921874999,-0.0253306535644531,-0.00708683691406087,0.0392359617544983,0.608297000000675,
-0.0578439121093749,-0.0277248552246094,0.0264319863281255,0.0693774867416862,0.611362000001463,
-0.0626323154296874,-0.0205422502441406,-0.00229843359374904,0.065955089099793,0.614371000001483,
-0.0506613071289062,-0.0708204851074219,0.0192493813476577,0.0891776195753591,0.61748500000067,
-0.0602381137695311,-0.00138863696289065,-0.0142694418945304,0.0619207205635324,0.62045500000022,
-0.0913627353515624,-0.0468784685058594,-0.0310288535156236,0.107273155872606,0.623466000000917,
-0.0722091220703124,-0.0181480485839844,0.00967257470703231,0.0750804080904936,0.626421000000846,
-0.000383072265624895,0.0105823713378906,-0.0621534750976558,0.0630490903519521,0.629370000000563,
-0.0410845004882811,-0.0277248552246094,0.0144609780273441,0.0516306465493552,0.6324280000008,
-0.0339018955078124,-0.0349074602050781,-0.00948103857421678,0.049575794390383,0.635369999999966,
-0.0769975253906249,-0.0133596452636719,0.0479798012695323,0.091701474185069,0.638394000001426,
-0.0961511386718749,0.0225533796386719,0.0192493813476577,0.100619258014019,0.641390000000683,
-0.0674207187499999,-0.0133596452636719,0.071921817871095,0.0994825679414273,0.644314000001032,
-0.0362960971679686,-0.0325132585449219,0.0431913979492204,0.0651154014626607,0.647351000001436,
-0.0554497104492186,-0.0109654436035156,0.0455855996093764,0.0726151377749188,0.65031799999997,
-0.0434787021484374,0.0177649763183594,-0.0190578452148422,0.0506872112898045,0.653374000001349,
-0.0793917270507811,-0.0349074602050781,0.0240377846679696,0.0899966232356443,0.65635100000145,
-0.0626323154296874,0.0129765729980469,-0.00469263525390495,0.064134383979919,0.659366000001683,
-0.0817859287109374,0.00818816967773439,-0.0238462485351558,0.0855840395575152,0.662349000000177,
-0.0458729038085936,-0.0157538469238281,-0.0334230551757795,0.0589033752344897,0.665271000001667,
-0.0746033237304686,-0.0253306535644531,0.0431913979492204,0.0898487327592514,0.668299000000843,
-0.0243250888671874,-0.0396958635253906,0.033614591308595,0.0574230988215271,0.671259000000646,
-0.0674207187499999,-0.0037828386230469,-0.0932780966796862,0.11515496734835,0.674256000000241,
-0.0195366855468749,0.00339976635742184,-0.040605660156249,0.0451891594319624,0.677218000000721,
-0.0458729038085936,-0.0229364519042969,-0.0166636435546863,0.0539266274330988,0.68015000000014,
-0.0841801303710936,-0.0373016618652344,-0.0214520468749981,0.0945404603454506,0.68316600000071,
-0.0578439121093749,0.00579396801757814,0.0551624062500018,0.080139748544627,0.686137000000599,
-0.0362960971679686,-0.0157538469238281,-0.0693360800781235,0.0798315875022286,0.689152000000831,
-0.0530555087890624,-0.0444842668457031,0.0168551796875018,0.0712589228936557,0.692112000000634,
-0.0817859287109374,0.0177649763183594,0.0192493813476577,0.085878234733662,0.695078000000649,
-0.0410845004882811,-0.0708204851074219,0.0743160195312509,0.110572817863123,0.698100999999951,
-0.0554497104492186,-0.00138863696289065,0.0407971962890645,0.0688549920235661,0.701061000001573,
-0.0769975253906249,0.0153707746582031,-0.0142694418945304,0.0798028608625942,0.704084000000876,
-0.0841801303710936,-0.0253306535644531,-0.00469263525390495,0.0880338411346617,0.707046000001355,
-0.0841801303710936,0.00339976635742184,-0.0190578452148422,0.0863773941770198,0.710006000001158,
-0.0554497104492186,-0.0349074602050781,0.0527682045898441,0.0841289758793422,0.713032000001476,
-0.0434787021484374,0.0225533796386719,-0.0382114584960931,0.0621222024242318,0.715997000001153,
-0.0674207187499999,-0.0396958635253906,-0.0286346518554677,0.0833142135813383,0.719012000001385,
-0.0386902988281249,-0.0133596452636719,0.0407971962890645,0.0577912672471301,0.721973000001526,
-0.0674207187499999,-0.0109654436035156,-0.0118752402343745,0.0693312022166973,0.72490900000048,
-0.0434787021484374,0.0273417829589844,0.0192493813476577,0.0548498798372092,0.727962000000844,
-0.0722091220703124,-0.0325132585449219,9.57680664068761e-05,0.0791914039709914,0.730924000001323,
-0.0578439121093749,0.0201591779785156,-0.0621534750976558,0.0872660592189282,0.733960000001389,
-0.0722091220703124,-0.00617704028320315,0.00488417138672048,0.0726372374678474,0.736938000000009,
-0.0650265170898436,-0.0373016618652344,0.0216435830078137,0.0780276014507695,0.739876000001459,
-0.0506613071289062,-0.0301190568847656,0.0527682045898441,0.0791088430156373,0.742896000001565,
-0.0530555087890624,-0.0109654436035156,0.0072783730468764,0.0546635406875337,0.745861000001241,
-0.0650265170898436,0.0225533796386719,-0.00469263525390495,0.0689864021643974,0.748962000001484,
-0.0578439121093749,0.0345243879394531,-0.0214520468749981,0.0706968305218704,0.752020000001721,
-0.0362960971679686,-0.0396958635253906,-0.00229843359374904,0.0538372644888086,0.755112000000736,
-0.0913627353515624,-0.0444842668457031,-0.0118752402343745,0.102308458781977,0.758123999999953,
-0.0171424838867186,-0.0229364519042969,-0.0358172568359372,0.0458565313452295,0.761048000000301,
-0.112910550292969,0.00818816967773439,0.0240377846679696,0.115730953430256,0.764102000001003,
-0.0650265170898436,-0.0253306535644531,0.0144609780273441,0.0712685752652977,0.767071000000215,
-0.0267192905273436,-0.0420900651855469,-0.0118752402343745,0.0512495405270358,0.770089000001462,
-0.108122146972656,-0.0133596452636719,-0.0382114584960931,0.115451263951273,0.773036000000502,
-0.0626323154296874,0.0129765729980469,0.0192493813476577,0.0667962354113243,0.776011000001745,
-0.0626323154296874,-0.0373016618652344,0.0216435830078137,0.0760438399833166,0.779044000000795,
-0.0769975253906249,0.00339976635742184,-0.00469263525390495,0.0772152715024118,0.782012000001487,
-0.0554497104492186,-0.0277248552246094,0.00488417138672048,0.0621867599755977,0.78506600000037,
-0.0674207187499999,-0.0540610734863282,-0.0884896933593744,0.123687423831596,0.788010000000213,
-0.0602381137695311,0.0225533796386719,-0.040605660156249,0.076066450688604,0.791000000001077,
-0.0554497104492186,-0.0133596452636719,-0.0238462485351558,0.0618206606214602,0.794018000000506,
-0.0793917270507811,-0.0037828386230469,0.0144609780273441,0.0807866082817015,0.796996000000945,
-0.0578439121093749,-0.0301190568847656,-0.0166636435546863,0.0673108666729413,0.800006000001304,
-0.0674207187499999,-0.0253306535644531,0.0671334145507831,0.0984585734002694,0.802984000001743,
-0.0817859287109374,-0.0301190568847656,0.00248996972656279,0.0871911444584683,0.80592500000057,
-0.0937569370117186,-0.0085712419433594,-0.00229843359374904,0.0941759641482679,0.80894200000148,
-0.0889685336914061,-0.0037828386230469,0.0144609780273441,0.0902154628694782,0.811915000000226,
-0.0698149204101561,0.0225533796386719,-0.0286346518554677,0.0787573573190869,0.814953000000969,
-0.0793917270507811,-0.0325132585449219,0.00488417138672048,0.0859302824122528,0.817912000000433,
-0.0626323154296874,-0.0420900651855469,0.0288261879882832,0.0807795124851796,0.820880000001125,
-0.0267192905273436,-0.0325132585449219,-0.00229843359374904,0.0421463552929361,0.823891000000003,
-0.0506613071289062,-0.0085712419433594,-0.0166636435546863,0.0540158425369687,0.826846000001751,
-0.0554497104492186,-0.00617704028320315,-0.0190578452148422,0.058957846634654,0.829865000001519,
-0.0602381137695311,-0.0229364519042969,0.0312203896484391,0.0716199965531238,0.83283400000073,
-0.0817859287109374,-0.00138863696289065,0.0144609780273441,0.0830661563648672,0.835778000000573,
-0.0626323154296874,-0.0205422502441406,0.0168551796875018,0.0680359321496717,0.838796000000002,
-0.0650265170898436,0.00100556469726559,0.0695276162109391,0.0952026706619712,0.841788000001543,
-0.0985453403320311,-0.0205422502441406,0.0216435830078137,0.102964133714924,0.844816000000719,
-0.0650265170898436,-0.0301190568847656,-0.0477882651367167,0.0861354967318388,0.847767000001113,
-0.0506613071289062,-0.0133596452636719,0.0072783730468764,0.0528963408544486,0.850793999999951,
-0.0841801303710936,-0.0253306535644531,0.0216435830078137,0.090533866838398,0.853761000000304,
-0.0530555087890624,-0.0157538469238281,-0.00229843359374904,0.0553927206657207,0.856688000001668,
-0.0937569370117186,0.0417069929199219,0.0240377846679696,0.105392844102365,0.85974300000089,
-0.0841801303710936,0.0201591779785156,-0.0645476767578117,0.10797726325896,0.862715000001117,
-0.0698149204101561,-0.0540610734863282,0.00248996972656279,0.0883341538002703,0.865735000001223,
-0.0722091220703124,-0.0205422502441406,0.0407971962890645,0.0854432711236329,0.868695000001026,
-0.0410845004882811,-0.0277248552246094,0.0192493813476577,0.0531708798108953,0.871629000001121,
-0.103333743652344,-0.0420900651855469,-0.0166636435546863,0.112814507848279,0.874637000000803,
-0.0722091220703124,0.00579396801757814,0.00967257470703231,0.073084102765356,0.877626000001328,
-0.0458729038085936,-0.0325132585449219,-0.00708683691406087,0.0566714967376715,0.880632000000332,
-0.0865743320312499,-0.0468784685058594,-0.0501824667968744,0.11050332913506,0.883576000000176,
-0.0769975253906249,0.00100556469726559,0.0192493813476577,0.0793736024060132,0.886541000001671,
-0.0793917270507811,-0.0277248552246094,9.57680664068761e-05,0.0840935377591752,0.88965300000018,
-0.0746033237304686,-0.0277248552246094,0.0192493813476577,0.0818832228916657,0.892703000001347,
-0.0865743320312499,0.0201591779785156,0.0527682045898441,0.103373066313534,0.895830000001297,
-0.0554497104492186,-0.0325132585449219,-0.0286346518554677,0.0703684990389518,0.898808000001736,
-0.0339018955078124,0.0129765729980469,0.00248996972656279,0.0363858477300649,0.901778000001286,
-0.0578439121093749,0.00339976635742184,-0.00948103857421678,0.0587142799653367,0.904812000000675,
-0.0793917270507811,-0.0325132585449219,0.0072783730468764,0.0860995529577487,0.907766000000265,
-0.0746033237304686,-0.0349074602050781,9.57680664068761e-05,0.0823662301014485,0.910840000000462,
-0.0698149204101561,-0.0444842668457031,-0.0118752402343745,0.0836301048624254,0.913782000001447,
-0.0961511386718749,-0.0588494768066407,0.0120667763671882,0.113375083154144,0.916725000000952,
-0.0793917270507811,0.00339976635742184,0.0360087929687509,0.087242408875828,0.919792000000598,
-0.0698149204101561,0.00100556469726559,0.0120667763671882,0.0708571899254589,0.922763000000486,
-0.0817859287109374,-0.0037828386230469,-0.0334230551757795,0.088432735004871,0.925798000000214,
-0.0793917270507811,-0.0492726701660157,0.0168551796875018,0.0949470348757278,0.928783000001204,
-0.0506613071289062,-0.0109654436035156,0.0072783730468764,0.0523429432458735,0.931751000000077,
-0.0698149204101561,-0.0301190568847656,-0.0334230551757795,0.0830564947297163,0.934766000000309,
-0.0530555087890624,-0.0205422502441406,-0.0118752402343745,0.0581196385792555,0.937707000000955,
-0.0650265170898436,-0.0229364519042969,0.0168551796875018,0.0709832785456675,0.940747000000556,
-0.0674207187499999,-0.0540610734863282,-0.00708683691406087,0.086708570745384,0.943691000000399,
-0.0961511386718749,-0.0109654436035156,0.0144609780273441,0.0978488748367978,0.946714000001521,
-0.0746033237304686,0.00579396801757814,-0.0382114584960931,0.0840198877493922,0.949674000001323,
-0.0841801303710936,-0.0157538469238281,-0.0166636435546863,0.0872476650616586,0.952604000000065,
-0.0889685336914061,-0.0612436784667969,-0.105249104980468,0.150809688808554,0.955606000001353,
-0.0722091220703124,0.0105823713378906,-0.0166636435546863,0.0748586729097967,0.95859400000154,
-0.0602381137695311,-0.0373016618652344,0.0264319863281255,0.0756220485683208,0.961608000001434,
-0.0530555087890624,-0.0253306535644531,0.0360087929687509,0.0689431809096084,0.964574000001448,
-0.0458729038085936,0.00339976635742184,-0.0214520468749981,0.0507550197541549,0.967525000000023,
-0.0769975253906249,-0.0253306535644531,0.0240377846679696,0.0845462951170892,0.970558000000892,
-0.0674207187499999,-0.0349074602050781,0.033614591308595,0.0830302646242897,0.973519000001033,
-0.0817859287109374,-0.0037828386230469,0.0144609780273441,0.0831406512403281,0.97654600000169,
-0.0650265170898436,-0.0253306535644531,-0.0238462485351558,0.0737477694851749,0.979487000000518,
-0.0793917270507811,-0.0037828386230469,0.0144609780273441,0.0807866082817015,0.982437000000573,
-0.0458729038085936,0.0105823713378906,-0.00469263525390495,0.0473109999111378,0.985479000000851,
-0.0674207187499999,-0.0325132585449219,-0.00469263525390495,0.0749979074614866,0.988436999999976,
-0.0410845004882811,-0.0205422502441406,0.00488417138672048,0.0461928063187259,0.991454000000886,
-0.0410845004882811,-0.0253306535644531,-0.0501824667968744,0.0696265622028929,0.994402000000264,
-0.0674207187499999,-0.0109654436035156,0.00488417138672048,0.0684810148897001,0.997346000000107,
-0.0482671054687498,-0.0540610734863282,0.0144609780273441,0.0739015089313671,1.00036600000021,
-0.0746033237304686,-0.00617704028320315,0.033614591308595,0.0820594448381007,1.00332900000103,
-0.0626323154296874,-0.0253306535644531,-0.0501824667968744,0.0841589503255929,1.00634200000059,
-0.0410845004882811,0.00100556469726559,-0.00708683691406087,0.0417033643508345,1.00931300000047,
-0.112910550292969,-0.0420900651855469,0.00967257470703231,0.120888066641202,1.01225000000159,
-0.0674207187499999,-0.0349074602050781,9.57680664068761e-05,0.0759216258141133,1.01527400000123,
-0.0937569370117186,-0.0325132585449219,0.033614591308595,0.104773164349809,1.01823400000103,
