X,Y,Z,Magnitude,Seconds,
0.180427037109375,0.171616375,0.00411802685547258,0.2490442812702,0.0,
0.185215440429687,0.0830309135742187,-0.0437660063476528,0.207639965551324,0.00292400000000725,
0.0271981308593748,0.104578728515625,-0.0246123930664037,0.110825171656279,0.00594200000000455,
-0.0398395156250002,0.0830309135742187,0.0256658417968776,0.0956036351262145,0.00889599999999291,
-0.128424977050781,-0.00316034619140632,-0.115592056152341,0.172813442660197,0.0118650000000002,
-0.00632069238281274,-0.0366791694335938,-0.0294007963867156,0.0474312075611568,0.0148639999999887,
-0.0135032973632815,-0.103716815917969,-0.163476089355465,0.194072019453601,0.0178549999999973,
0.0200155258789061,-0.0486501777343751,-0.127563064453122,0.137984769023494,0.0209600000000023,
0.103812583984375,-0.103716815917969,-0.0724964262695273,0.163676395120151,0.0239540000000034,
0.175638633789062,-0.103716815917969,-0.0629196196289037,0.213459565533372,0.0269529999999918,
0.264224095214844,-0.0606211860351563,0.00172382519531666,0.271094581763848,0.0298990000000003,
0.319290733398437,-0.0318907661132813,0.0184832368164098,0.32141129949119,0.0328200000000152,
0.331261741699219,0.0495120903320312,0.0879150849609402,0.346287237371429,0.0358879999999999,
0.216340062011719,0.027964275390625,-0.230513735839841,0.317366673644535,0.0388270000000261,
0.470125437988281,-0.233003705566406,-0.149110879394527,0.545474755240936,0.0418210000000272,
0.0391691391601561,0.569053850585937,0.549996005371097,0.792371196001845,0.0448020000000042,
-0.693456568847656,0.820445024902344,1.55795490429688,1.8924152651011,0.0477210000000241,
0.077476365722656,-0.223426898925781,0.253114999511721,0.346394817205744,0.0507580000000303,
0.144514012207031,-0.417357233398438,-1.37254792773437,1.44185962351475,0.0536999999999921,
0.63053694921875,-0.165966059082031,-1.30790448291015,1.46141565391705,0.0567330000000084,
1.09501207128906,-0.388626813476563,-1.25523204638672,1.71046476920686,0.0596960000000308,
1.13092509619141,-0.450876056640625,-0.560913564941403,1.34048678433717,0.0627010000000041,
0.654478965820312,0.0566946953124999,1.10305658886719,1.28385779719606,0.0656650000000241,
0.19000384375,-0.316800763671875,1.2395260834961,1.29340214015983,0.0685859999999821,
0.161273423828125,-0.338348578613281,1.23234347851563,1.28808358693172,0.0715900000000147,
0.0295923325195311,0.085425115234375,0.578726425292972,0.585745193568957,0.0745440000000031,
0.0607169541015623,0.085425115234375,-0.208965920898434,0.233775009197108,0.0775360000000092,
-0.312778504882813,0.157251165039062,-1.54971885058593,1.58876896932319,0.0804790000000253,
0.0200155258789061,0.411036541015625,-0.611191799804685,0.736822282151394,0.0834120000000098,
-0.25052926171875,0.150068560058594,-1.14031036669922,1.17711223598139,0.0864250000000197,
-0.238558253417969,0.391882927734375,-0.187418105957027,0.495588353135964,0.0893450000000371,
-0.372633546386719,0.231471416503906,0.231567184570316,0.496042475520888,0.0923599999999851,
-0.207433631835938,0.164433770019531,0.722378524902346,0.769349016753497,0.095294000000024,
-0.133213380371094,0.181193181640625,0.667311886718753,0.70418884394677,0.098214999999982,
0.149302415527344,0.0159932670898437,0.20283676464844,0.25236828043071,0.101233000000036,
0.300137120117187,0.0902135185546875,-0.098832644531246,0.328616282961291,0.104179999999985,
0.3815399765625,0.0638773002929687,-0.467539700195308,0.606833119124813,0.107189000000005,
0.51561526953125,-0.0701979926757813,-0.584855581542966,0.782842842217679,0.110136000000011,
0.527586277832031,-0.177937067382813,-0.422049868652341,0.698666567208501,0.11304899999999,
0.508432664550781,-0.149206647460938,0.121433908203128,0.543610699021115,0.116070000000036,
0.453366026367187,-0.201879083984375,0.370430880859379,0.619285843458898,0.119007000000011,
0.398299388183594,-0.163571857421875,0.387190292480472,0.579063448819713,0.122019000000023,
0.300137120117187,-0.218638495605469,0.150164328125003,0.40054264201717,0.124955,
0.237887876953125,-0.149206647460938,-0.125168862792965,0.307441880459838,0.127869000000032,
0.0631111557617186,-0.000766144531250068,-0.371771633789059,0.37709117286037,0.130856999999992,
0.0104387192382811,0.106972930175781,-0.299945583984371,0.318621292448345,0.133808999999985,
-0.0206859023437502,0.15246276171875,-0.156293484374997,0.219318155939632,0.136801999999989,
-0.190674220214844,0.185981584960938,-0.139534072753904,0.300691811758174,0.139733000000035,
-0.157155396972656,0.2099236015625,0.104674496582035,0.282351708911611,0.142660000000035,
-0.123636573730469,0.250625029785156,0.131010714843754,0.308646586442312,0.145655000000033,
-0.0494163222656252,0.174010576660156,0.0304542451171912,0.183436950316773,0.14858700000002,
-0.00153228906250025,0.205135198242187,-0.0102471831054647,0.205396694786527,0.151622000000032,
0.185215440429687,0.255413433105469,-0.038977603027341,0.317899409754158,0.15467000000001,
0.221128465332031,0.197952593261719,-0.0844674345703087,0.308573775395817,0.157781999999997,
0.309713926757812,0.0566946953124999,-0.144322476074215,0.346361057286343,0.160833000000025,
0.376751573242187,-0.0534385810546876,-0.115592056152341,0.39769203327591,0.16377,
0.410270396484375,-0.1348414375,-0.0365834013671833,0.433407841131313,0.166757000000018,
0.391116783203125,-0.130053034179688,0.0807324799804725,0.420004598934703,0.169710000000009,
0.395905186523437,-0.180331269042969,0.13340491650391,0.455035333856856,0.172710999999993,
0.292954515136719,-0.1731486640625,0.0304542451171912,0.341658116911155,0.175703999999996,
0.242676280273437,-0.163571857421875,-0.0844674345703087,0.304601833629877,0.17860300000001,
0.156485020507812,-0.170754462402344,-0.132351467773434,0.266761239867088,0.181599000000006,
0.149302415527344,-0.0941400092773438,-0.14192827441406,0.226488824684995,0.184528,
0.0367749374999998,0.00881066210937498,-0.0294007963867156,0.0479002152720379,0.187550999999985,
0.0104387192382811,0.0878193168945312,0.00651222851562849,0.0886769891200503,0.190516000000002,
-0.0206859023437502,0.0973961235351562,-0.022218191406246,0.102017446864814,0.193441000000007,
0.0152271225585936,0.243442424804687,-0.242484744140622,0.343940300920295,0.196479000000011,
-0.621630519042969,0.657639312011719,0.868424826171879,1.25422312433655,0.199436999999989,
-0.195462623535156,0.408642339355469,1.21079566357422,1.29275687491628,0.202437000000032,
-0.0326569106445315,-0.304829755371094,-0.431626675292966,0.529423498153327,0.20534600000002,
0.120571995605469,-0.146812445800781,-1.18580019824218,1.20092198352661,0.208258000000001,
0.501250059570312,-0.0486501777343751,-1.2887508696289,1.38365359320246,0.211253999999997,
0.93699476171875,0.102184526855469,-0.738084487792966,1.19715060545349,0.214202999999998,
1.00882081152344,0.188375786621094,0.315364242675784,1.07361979876788,0.217235000000016,
0.640113755859375,-0.0438617744140625,0.808569784667972,1.03220858956567,0.220177000000035,
0.474913841308594,0.0566946953124999,1.5675317109375,1.63887556267635,0.223120999999992,
0.2283110703125,-0.379050006835938,0.341700460937503,0.559074286221845,0.226140999999984,
0.192398045410156,-0.00316034619140632,0.262691806152347,0.325628593162947,0.22908000000001,
0.120571995605469,-0.110899420898438,-0.627951211425778,0.648967650666037,0.232074000000011,
0.103812583984375,-0.00794874951171881,-0.256849954101559,0.27715002098915,19.559455,
0.110995188964844,0.0447236870117187,-0.106015249511715,0.159872991096979,19.563676,
0.139725608886719,0.03754108203125,-0.0557370146484342,0.155045778468042,19.56662,
0.146908213867187,0.0112048637695312,0.0184832368164098,0.148489738086349,19.569558,
0.19000384375,0.0351468803710937,-0.0820732329101528,0.209935179043243,19.57257,
0.17085023046875,0.0303584770507812,-0.0198239897460901,0.174655171551033,19.575524,
0.185215440429687,0.00641646044921873,-0.022218191406246,0.186653632077236,19.578542,
0.173244432128906,-0.00555454785156256,-0.108409451171871,0.204443379371622,19.58147,
0.182821238769531,0.0734541069335937,-0.0844674345703087,0.214368511385248,19.584397,
0.144514012207031,0.0447236870117187,-0.0413718046874969,0.156831546976992,19.587415,
0.175638633789062,0.0303584770507812,-0.0701022246093714,0.191532996382644,19.590357,
0.173244432128906,0.0135990654296875,-0.0126413847656224,0.17423654166971,19.593382,
0.163667625488281,0.0159932670898437,-0.0701022246093714,0.178765763277989,19.596331,
0.161273423828125,0.0471178886718749,0.00651222851562849,0.168141671772291,19.599265,
0.130148802246094,0.0566946953124999,-0.10362104785156,0.175756424521339,19.602351,
0.187609642089844,-0.00316034619140632,-0.0413718046874969,0.192143154487036,19.605366,
0.158879222167969,0.01838746875,-0.0317949980468715,0.163069396713582,19.608478,
0.156485020507812,0.0447236870117187,-0.00545877978515286,0.162842157011001,19.61149,
0.13254300390625,0.0112048637695312,-0.0150355864257783,0.133862861600046,19.614424,
0.158879222167969,-0.0175255561523438,-0.0126413847656224,0.160341999999813,19.617411,
0.154090818847656,0.0495120903320312,-0.0341891997070274,0.165421670039918,19.620351,
0.144514012207031,0.00881066210937498,-0.0413718046874969,0.1505774010736,19.623397,
0.137331407226562,-0.00794874951171881,-0.0126413847656224,0.138140879678756,19.626316,
0.178032835449219,0.0159932670898437,-0.0533428129882783,0.186539354528201,19.62931,
0.163667625488281,0.00162805712890618,-0.00545877978515286,0.163766725801458,19.632268,
0.17085023046875,0.00881066210937498,-0.0509486113281223,0.178502633073842,19.635207,
0.182821238769531,0.0614830986328125,-0.0294007963867156,0.195110695736782,19.638246,
0.142119810546875,0.0399352836914062,-0.0246123930664037,0.149661743026893,19.641204,
0.173244432128906,0.03754108203125,0.0328484467773471,0.18028307341353,19.644239,
0.137331407226562,0.03754108203125,-0.000670376464841027,0.142371688391722,19.647184,
0.130148802246094,0.0638773002929687,-0.077284829589841,0.164292316020992,19.650114,
0.173244432128906,0.0447236870117187,-0.0126413847656224,0.17937013701389,19.653143,
0.0942357773437498,0.0303584770507812,-0.0461602080078087,0.109237281473624,19.656095,
0.163667625488281,0.0159932670898437,-0.0126413847656224,0.164932352296242,19.65912,
0.175638633789062,0.0423294853515625,-0.0126413847656224,0.181109137312862,19.662064,
0.118177793945312,0.0495120903320312,0.0304542451171912,0.1317000346108,19.665006,
0.175638633789062,0.00641646044921873,-0.09643844287109,0.200475619234323,19.668003,
0.185215440429687,0.00881066210937498,-0.00785298144530877,0.185591100158248,19.670958,
0.154090818847656,-0.0103429511718751,0.0448194550781285,0.160809641021878,19.67397,
0.187609642089844,0.00402225878906243,-0.113197854492183,0.219151341845034,19.676909,
0.168456028808594,0.0471178886718749,-0.022218191406246,0.176326904085059,19.679828,
0.156485020507812,-0.000766144531250068,-0.0174297880859342,0.157454584352104,19.682817,
0.1516966171875,0.0327526787109375,-0.0413718046874969,0.160612041428945,19.685761,
0.122966197265625,-0.0127371528320313,-0.0653138212890596,0.139817080443036,19.688761,
0.182821238769531,0.0495120903320312,-0.0174297880859342,0.190207386678314,19.691708,
0.161273423828125,0.0543004936523437,-0.0126413847656224,0.170638405562542,19.694638,
0.17085023046875,0.0327526787109375,-0.038977603027341,0.178274487102681,19.697656,
0.144514012207031,0.0231758720703125,-0.0677080229492155,0.161263130138556,19.700596,
0.130148802246094,0.0566946953124999,0.0304542451171912,0.145191116285839,19.703591,
0.149302415527344,0.03754108203125,0.00172382519531666,0.153959461208724,19.706524,
0.144514012207031,0.0423294853515625,-0.038977603027341,0.155548508806928,19.70942,
0.125360398925781,0.0399352836914062,-0.0413718046874969,0.137919116606236,19.712411,
0.161273423828125,0.0566946953124999,-0.0485544096679646,0.177710259715155,19.715336,
0.166061827148437,0.066271501953125,-0.0413718046874969,0.183521302932659,19.718333,
0.115783592285156,-0.00316034619140632,-0.0461602080078087,0.12468597689327,19.721238,
0.156485020507812,0.0303584770507812,-0.00785298144530877,0.159595952610815,19.72423,
0.118177793945312,0.0112048637695312,-0.0461602080078087,0.127366811835731,19.72716,
0.154090818847656,-0.0127371528320313,-0.0246123930664037,0.156563039724779,19.730049,
0.137331407226562,0.0423294853515625,-0.0150355864257783,0.144491417046561,19.733043,
0.149302415527344,0.03754108203125,-0.0916500395507782,0.17916549297238,19.735988,
0.197186448730469,0.01838746875,-0.0413718046874969,0.202317129262617,19.739015,
0.161273423828125,0.0351468803710937,-0.0701022246093714,0.179328587593414,19.742068,
0.19000384375,-0.000766144531250068,-0.038977603027341,0.193962112679188,19.74507,
0.156485020507812,0.00641646044921873,-0.0533428129882783,0.165451468127452,19.748177,
0.182821238769531,0.0782425102539062,0.013694833496098,0.199331493298335,19.751151,
0.154090818847656,0.0303584770507812,-0.0341891997070274,0.160731200949259,19.754169,
0.134937205566406,0.03754108203125,-0.022218191406246,0.141813364375549,19.757121,
0.13254300390625,-0.0103429511718751,-0.0126413847656224,0.133545606937213,19.760062,
0.168456028808594,0.0686657036132812,-0.0294007963867156,0.184273761894747,19.763102,
0.144514012207031,0.00162805712890618,0.0160890351562539,0.145415980368212,19.766058,
0.166061827148437,0.0734541069335937,-0.0270065947265596,0.183579389965252,19.76909,
0.137331407226562,0.0255700737304687,-0.0294007963867156,0.142752060964396,19.772052,
0.154090818847656,0.0231758720703125,0.00890643017578441,0.156078268819963,19.775002,
0.154090818847656,0.0447236870117187,-0.00545877978515286,0.16054278840797,19.778023,
0.146908213867187,0.0327526787109375,-0.0892558378906223,0.174989616440365,19.780996,
0.163667625488281,0.0543004936523437,-0.0174297880859342,0.173318875938488,19.78404,
0.175638633789062,0.0231758720703125,0.0113006318359403,0.177521139601455,19.78701,
0.178032835449219,0.00162805712890618,-0.0102471831054647,0.178334925995163,19.789939,
0.163667625488281,0.0135990654296875,-0.0796790312499969,0.182539788085971,19.792969,
0.173244432128906,0.0207816704101562,0.00172382519531666,0.17449493592081,19.795931,
0.137331407226562,0.0710599052734375,-0.0341891997070274,0.158361380787441,19.798934,
0.149302415527344,0.0207816704101562,-0.0701022246093714,0.166245033016083,19.801892,
0.178032835449219,0.0495120903320312,-0.00306457812499694,0.184814851205794,19.804813,
0.144514012207031,0.0399352836914062,-0.022218191406246,0.151567722939456,19.80781,
0.144514012207031,0.00881066210937498,-0.060525417968746,0.156924356653997,19.810763,
0.149302415527344,0.0447236870117187,-0.0317949980468715,0.159067097047197,19.813793,
0.161273423828125,0.0303584770507812,0.0400310517578166,0.168917848278167,19.816731,
0.130148802246094,0.01838746875,-0.0581312163085901,0.143722120923124,19.819711,
0.103812583984375,0.0112048637695312,-0.0270065947265596,0.107851554111803,19.82264,
0.175638633789062,0.0447236870117187,-0.0437660063476528,0.186452678100459,19.825549,
0.154090818847656,0.0423294853515625,-0.0724964262695273,0.175475062630342,19.828548,
0.144514012207031,0.0159932670898437,-0.00306457812499694,0.145428594009105,19.83148,
0.187609642089844,-0.0127371528320313,-0.077284829589841,0.20330410166073,19.834454,
0.137331407226562,0.0399352836914062,-0.0102471831054647,0.143386704599617,19.83742,
0.161273423828125,0.0135990654296875,-0.0294007963867156,0.164494555052683,19.840343,
0.180427037109375,0.0112048637695312,-0.0653138212890596,0.192211758078273,19.843359,
0.163667625488281,0.00641646044921873,-0.0365834013671833,0.167829103117609,19.846316,
0.1516966171875,0.0112048637695312,-0.0413718046874969,0.157635779128106,19.849337,
0.156485020507812,0.0327526787109375,0.0113006318359403,0.160274776200012,19.852288,
0.17085023046875,0.00162805712890618,0.0232716401367217,0.172435556240275,19.855222,
0.142119810546875,0.0638773002929687,-0.022218191406246,0.157391226159409,19.858226,
0.161273423828125,0.0255700737304687,-0.0940442412109341,0.188433715690075,19.861187,
0.180427037109375,-0.00316034619140632,-0.0437660063476528,0.185686205248909,19.864187,
0.158879222167969,-0.000766144531250068,0.035242648437503,0.162742860006302,19.867145,
0.146908213867187,0.0255700737304687,0.0184832368164098,0.150258051416356,19.870083,
0.19000384375,0.0447236870117187,-0.0126413847656224,0.195605402349958,19.873109,
0.156485020507812,0.01838746875,-0.0365834013671833,0.161752916220868,19.876065,
0.168456028808594,0.0638773002929687,-0.0724964262695273,0.194199575067848,19.879165,
0.163667625488281,0.0399352836914062,0.00651222851562849,0.168595158995521,19.882215,
0.168456028808594,0.0231758720703125,-0.0174297880859342,0.170933765537713,19.88523,
0.154090818847656,0.0614830986328125,0.00651222851562849,0.166031807166197,19.888324,
0.146908213867187,0.0327526787109375,-0.00306457812499694,0.150546181962457,19.891267,
0.122966197265625,0.0255700737304687,-0.0102471831054647,0.126013963917286,19.894281,
0.122966197265625,0.0255700737304687,0.0232716401367217,0.127734425959501,19.897256,
0.125360398925781,0.01838746875,-0.038977603027341,0.132561616479357,19.900204,
0.17085023046875,0.00881066210937498,0.052002060058598,0.178806161158861,19.903234,
0.173244432128906,0.0255700737304687,-0.0437660063476528,0.180507410501263,19.906182,
0.149302415527344,0.0686657036132812,-0.0413718046874969,0.16946331862119,19.909225,
0.197186448730469,-0.03907337109375,-0.09643844287109,0.2229564916188,19.912161,
0.166061827148437,0.0303584770507812,-0.00545877978515286,0.168902237526514,19.915207,
0.187609642089844,0.0112048637695312,0.00172382519531666,0.187951851149375,19.918179,
0.1516966171875,0.07584830859375,-0.0174297880859342,0.170495240682502,19.921153,
0.144514012207031,0.0159932670898437,-0.0844674345703087,0.16815121712099,19.92419,
0.130148802246094,0.0207816704101562,-0.0677080229492155,0.148172078755819,19.927157,
0.163667625488281,0.0303584770507812,-0.022218191406246,0.167935632881112,19.930182,
0.1516966171875,0.0255700737304687,-0.0270065947265596,0.156189143334091,19.933156,
0.146908213867187,0.01838746875,-0.0102471831054647,0.14840864890658,19.93611,
0.130148802246094,-0.00555454785156256,-0.0916500395507782,0.1592774104435,19.939121,
0.166061827148437,0.0447236870117187,-0.00545877978515286,0.172065501750184,19.942086,
0.192398045410156,0.03754108203125,-0.0341891997070274,0.198985532374423,19.945121,
0.185215440429687,0.0519062919921874,-0.0533428129882783,0.199610816889876,19.948082,
0.137331407226562,0.027964275390625,-0.0437660063476528,0.146824314813907,19.951044,
0.125360398925781,0.0351468803710937,-0.0724964262695273,0.149017665531654,19.954069,
0.180427037109375,0.0590888969726562,-0.00306457812499694,0.189881028816986,19.957034,
0.120571995605469,0.085425115234375,-0.0533428129882783,0.157100325062025,19.96006,
0.161273423828125,0.07584830859375,-0.0629196196289037,0.188999898634959,19.963018,
0.118177793945312,0.0231758720703125,-0.0724964262695273,0.140566154709636,19.965951,
0.130148802246094,0.0543004936523437,-0.0365834013671833,0.145690080625187,19.968976,
0.120571995605469,0.027964275390625,-0.106015249511715,0.16296883122683,19.971931,
0.146908213867187,0.01838746875,-0.0174297880859342,0.149076892311988,19.974965,
0.273800901855469,0.0399352836914062,0.0855208833007843,0.289612814324448,19.977934,
0.201974852050781,0.00402225878906243,-0.0533428129882783,0.208938926780539,19.980862,
0.0846589707031248,0.0207816704101562,-0.168264492675778,0.189504508233936,19.983879,
0.223522666992187,0.0878193168945312,0.169317941406254,0.293842101069901,19.986844,
0.142119810546875,-0.00794874951171881,-0.0940442412109341,0.170603465596746,19.989822,
0.204369053710937,0.00162805712890618,-0.0294007963867156,0.206479460268793,19.992781,
0.118177793945312,0.0207816704101562,-0.120380459472653,0.169968596598501,19.99571,
0.166061827148437,0.0782425102539062,0.0591846650390657,0.192876243800258,19.998731,
0.139725608886719,0.00881066210937498,-0.0820732329101528,0.162286441534387,20.001672,
0.120571995605469,0.0327526787109375,-0.022218191406246,0.126901505571808,20.004696,
0.125360398925781,0.0782425102539062,0.00890643017578441,0.148042036355015,20.007651,
0.139725608886719,0.0399352836914062,-0.0748906279296833,0.163482961846119,20.010643,
0.163667625488281,0.0112048637695312,-0.022218191406246,0.16554844799765,20.013592,
0.187609642089844,0.027964275390625,-0.0629196196289037,0.199845582982081,20.016539,
0.137331407226562,0.0447236870117187,-0.00306457812499694,0.144462850691222,20.01965,
0.182821238769531,0.0638773002929687,0.00651222851562849,0.193768738340796,20.0227,
0.178032835449219,-0.0151313544921876,-0.0126413847656224,0.179121335958755,20.025758,
0.166061827148437,0.0351468803710937,-0.0485544096679646,0.17654847587533,20.028756,
0.192398045410156,0.0926077202148437,-0.00785298144530877,0.213669995644264,20.03168,
0.185215440429687,-0.000766144531250068,-0.0677080229492155,0.197204773579894,20.034683,
0.17085023046875,0.00162805712890618,-0.0317949980468715,0.173791178493157,20.037627,
0.149302415527344,0.027964275390625,0.00172382519531666,0.151908470974223,20.040688,
0.146908213867187,0.0471178886718749,0.0113006318359403,0.154692672788448,20.043628,
0.134937205566406,0.01838746875,-0.0341891997070274,0.140410291039189,20.046562,
0.180427037109375,0.0471178886718749,-0.0341891997070274,0.189586161229057,20.049597,
0.149302415527344,0.0231758720703125,-0.0485544096679646,0.158700545136819,20.05255,
0.182821238769531,0.0495120903320312,0.00411802685547258,0.189451868767388,20.055572,
0.149302415527344,0.0303584770507812,0.00411802685547258,0.152413275525214,20.058539,
0.146908213867187,0.0351468803710937,-0.0629196196289037,0.16363436385953,20.061477,
0.168456028808594,0.0782425102539062,-0.077284829589841,0.201177207798312,20.064517,
0.166061827148437,0.0423294853515625,-0.0270065947265596,0.17348680619785,20.06746,
0.158879222167969,0.0399352836914062,-0.000670376464841027,0.163822719806553,20.07049,
0.17085023046875,0.00641646044921873,-0.0270065947265596,0.173090520753292,20.073432,
0.161273423828125,0.0590888969726562,-0.00545877978515286,0.171844153975147,20.076363,
0.113389390625,0.0423294853515625,-0.0557370146484342,0.133249968248989,20.079381,
0.120571995605469,0.027964275390625,-0.022218191406246,0.125750764815855,20.082339,
0.166061827148437,0.0303584770507812,-0.0102471831054647,0.169124724172184,20.085349,
0.194792247070312,0.0231758720703125,-0.0365834013671833,0.199548204252791,20.088309,
0.156485020507812,0.0590888969726562,-0.0437660063476528,0.172900325911776,20.091251,
0.156485020507812,-0.00555454785156256,-0.0581312163085901,0.167025905040751,20.094239,
0.144514012207031,0.0327526787109375,-0.000670376464841027,0.148180589455976,20.097192,
0.127754600585937,0.0135990654296875,-0.0533428129882783,0.13911012992926,20.100214,
0.142119810546875,0.0471178886718749,-0.0557370146484342,0.159764673143641,20.103157,
0.120571995605469,0.0566946953124999,-0.0748906279296833,0.152841423549261,20.106178,
0.166061827148437,-0.000766144531250068,0.00172382519531666,0.166072541338489,20.109119,
0.1516966171875,0.0495120903320312,-0.0509486113281223,0.167508422926855,20.112062,
0.166061827148437,0.0543004936523437,-0.0294007963867156,0.177170767551927,20.115085,
0.175638633789062,-0.000766144531250068,-0.00545877978515286,0.175725111846526,20.118029,
0.187609642089844,0.0399352836914062,-0.0461602080078087,0.197289050613349,20.121042,
0.142119810546875,0.0327526787109375,-0.0365834013671833,0.1503633059234,20.124003,
0.122966197265625,0.01838746875,-0.0413718046874969,0.131035914542927,20.126937,
0.139725608886719,0.0471178886718749,-0.0413718046874969,0.153150146701725,20.129962,
0.178032835449219,0.03754108203125,-0.0198239897460901,0.183024626505885,20.132911,
0.1516966171875,0.0207816704101562,-0.0365834013671833,0.157423272570353,20.13594,
0.142119810546875,-0.00316034619140632,0.035242648437503,0.14645843303415,20.138879,
0.130148802246094,0.00402225878906243,0.0280600434570353,0.133200057547546,20.141817,
0.194792247070312,0.0255700737304687,0.00172382519531666,0.196470913273663,20.14482,
0.158879222167969,0.00881066210937498,-0.0629196196289037,0.171111406801973,20.147765,
0.158879222167969,0.0303584770507812,-0.038977603027341,0.166383586640325,20.150777,
0.158879222167969,0.0231758720703125,-0.0198239897460901,0.16177984686719,20.153744,
0.180427037109375,0.027964275390625,-0.0629196196289037,0.193118603330793,20.156741,
0.137331407226562,0.027964275390625,-0.0916500395507782,0.167456399873549,20.159854,
0.158879222167969,0.0495120903320312,-0.0557370146484342,0.175501194091851,20.162891,
0.161273423828125,0.066271501953125,-0.0509486113281223,0.181650186349018,20.165996,
0.154090818847656,0.027964275390625,-0.00785298144530877,0.156804497604004,20.168948,
0.149302415527344,0.01838746875,-0.0509486113281223,0.158824026159759,20.171887,
0.149302415527344,0.027964275390625,-0.0653138212890596,0.165345417934098,20.174897,
0.192398045410156,0.0447236870117187,-0.0294007963867156,0.199703837934437,20.177879,
0.137331407226562,0.0519062919921874,0.0280600434570353,0.149470882107576,20.180915,
0.125360398925781,-0.00316034619140632,0.00411802685547258,0.125467826760739,20.183854,
0.156485020507812,0.0806367119140625,-0.00306457812499694,0.176065989307209,20.186773,
0.182821238769531,0.027964275390625,0.00411802685547258,0.184993416608621,20.189807,
0.156485020507812,-0.00555454785156256,-0.0126413847656224,0.1570930273881,20.192726,
0.175638633789062,0.0399352836914062,-0.0485544096679646,0.186551031251521,20.195756,
0.173244432128906,0.00641646044921873,-0.022218191406246,0.174781155327822,20.198745,
0.122966197265625,0.0399352836914062,-0.0677080229492155,0.145944814656682,20.201773,
0.158879222167969,0.0782425102539062,-0.060525417968746,0.187157216980331,20.204726,
0.178032835449219,0.0423294853515625,-0.0317949980468715,0.185737442991491,20.207668,
0.127754600585937,0.0447236870117187,-0.0748906279296833,0.154693413895023,20.210684,
0.173244432128906,-0.00555454785156256,-0.0653138212890596,0.18523061711521,20.213619,
0.144514012207031,0.0159932670898437,-0.0557370146484342,0.155713516170886,20.21662,
0.163667625488281,0.066271501953125,-0.022218191406246,0.177968119710975,20.21957,
0.156485020507812,0.0423294853515625,0.0328484467773471,0.165403649987365,20.222513,
0.13254300390625,0.0231758720703125,0.0256658417968776,0.136979941472662,20.225525,
0.187609642089844,0.0423294853515625,-0.0294007963867156,0.194559939256211,20.228469,
0.1516966171875,0.0351468803710937,-0.000670376464841027,0.155716461141895,20.231486,
0.178032835449219,0.00162805712890618,-0.0150355864257783,0.178674032604826,20.234428,
0.154090818847656,0.0423294853515625,-0.0677080229492155,0.173551554746596,20.237363,
0.178032835449219,0.0327526787109375,-0.0246123930664037,0.182686065022173,20.240377,
0.158879222167969,0.0543004936523437,-0.00785298144530877,0.168085752415745,20.243339,
0.197186448730469,0.0351468803710937,-0.108409451171871,0.227750758211998,20.246348,
0.137331407226562,0.0112048637695312,-0.0509486113281223,0.146905498124426,20.249296,
0.122966197265625,0.0351468803710937,-0.038977603027341,0.133698326120956,20.252233,
0.137331407226562,0.0447236870117187,-0.0748906279296833,0.162692131777945,20.255262,
0.223522666992187,0.01838746875,0.052002060058598,0.230227487317806,20.258217,
0.0846589707031248,0.0710599052734375,0.0304542451171912,0.114647775833814,20.261237,
0.2283110703125,-0.00555454785156256,0.00890643017578441,0.228552231071041,20.264176,
0.130148802246094,0.01838746875,-0.0796790312499969,0.153706075852788,20.267117,
0.1516966171875,0.0806367119140625,0.073549875000003,0.1868789102252,20.270145,
0.199580650390625,-0.03907337109375,-0.0365834013671833,0.206633757151553,20.273067,
