X,Y,Z,Magnitude,Seconds,
0.1516966171875,0.0207816704101562,-0.0294007963867156,0.155910706237065,0.0,
0.168456028808594,0.0543004936523437,-0.0653138212890596,0.188658083591001,0.00403599999998505,
0.142119810546875,0.0423294853515625,-0.0509486113281223,0.156797917321219,0.00783300000000509,
0.1516966171875,0.03754108203125,-0.0246123930664037,0.158199135265219,0.0117349999999874,
0.173244432128906,0.0902135185546875,-0.022218191406246,0.196585249250926,0.0155520000000138,
0.178032835449219,0.0159932670898437,0.00172382519531666,0.178758067408438,0.0193970000000263,
0.163667625488281,-0.00794874951171881,-0.022218191406246,0.165359977869909,0.0231660000000034,
0.13254300390625,0.00641646044921873,-0.0461602080078087,0.140497628636617,0.0269420000000196,
0.168456028808594,0.0878193168945312,-0.0413718046874969,0.194425544321944,0.0307700000000182,
0.166061827148437,0.0614830986328125,-0.0341891997070274,0.180348560376779,0.0346430000000169,
0.154090818847656,0.00881066210937498,-0.0533428129882783,0.163300532508162,0.0384650000000306,
0.182821238769531,0.0159932670898437,-0.0461602080078087,0.189235712117869,0.0422320000000127,
0.146908213867187,0.0471178886718749,0.0232716401367217,0.156024638981141,0.0460039999999822,
0.156485020507812,0.027964275390625,-0.0677080229492155,0.172782923673448,0.0497569999999996,
0.154090818847656,0.0351468803710937,-0.0102471831054647,0.158380202091543,0.0535110000000145,
0.142119810546875,-0.00316034619140632,-0.060525417968746,0.154503574580721,0.0572310000000016,
0.180427037109375,0.0303584770507812,-0.0102471831054647,0.183249986658956,0.0610879999999838,
0.173244432128906,0.027964275390625,-0.0581312163085901,0.184864470007911,0.065068999999994,
0.154090818847656,0.0159932670898437,-0.0150355864257783,0.15564650302694,0.0689520000000243,
0.178032835449219,0.00402225878906243,-0.0270065947265596,0.180114478103731,0.0727320000000304,
0.17085023046875,0.0112048637695312,0.0232716401367217,0.172791549150911,0.0765480000000025,
0.161273423828125,-0.0103429511718751,-0.00306457812499694,0.16163380064601,0.0802600000000098,
0.180427037109375,0.0327526787109375,-0.0198239897460901,0.184444149411855,0.0841760000000136,
0.187609642089844,0.0447236870117187,-0.0557370146484342,0.200759061531282,0.0880040000000122,
0.194792247070312,0.027964275390625,-0.0317949980468715,0.199341270482619,0.0918100000000095,
0.154090818847656,0.03754108203125,-0.0509486113281223,0.166580533945243,0.0955850000000282,
0.17085023046875,0.0351468803710937,-0.0365834013671833,0.178223033602947,0.0994079999999826,
0.144514012207031,0.0351468803710937,0.0304542451171912,0.151812594897959,0.10320999999999,
0.144514012207031,0.0207816704101562,-0.0677080229492155,0.160936490333615,0.107039999999984,
0.17085023046875,0.0207816704101562,-0.0413718046874969,0.177012161444805,0.110840999999994,
0.175638633789062,0.0495120903320312,-0.0270065947265596,0.184471496245518,0.114614000000017,
0.19000384375,0.0519062919921874,0.00172382519531666,0.196973844358728,0.118370000000027,
0.20915745703125,0.0112048637695312,-0.09643844287109,0.230592202962879,0.122120999999993,
0.173244432128906,0.0112048637695312,-0.022218191406246,0.175022370756214,0.125857999999994,
0.168456028808594,-0.00316034619140632,-0.0437660063476528,0.174077237861916,0.129579999999976,
0.144514012207031,0.0495120903320312,-0.0294007963867156,0.155563985682401,0.133514999999989,
0.178032835449219,0.0926077202148437,-0.00545877978515286,0.200752779851792,0.137553000000025,
0.197186448730469,0.00881066210937498,-0.0461602080078087,0.202708875318925,0.141381000000024,
0.156485020507812,0.066271501953125,0.0160890351562539,0.170699533293775,0.145218999999997,
0.13254300390625,-0.00316034619140632,-0.0724964262695273,0.151107139124512,0.14898199999999,
0.144514012207031,0.0878193168945312,-0.0270065947265596,0.171248031529477,0.152839000000029,
0.134937205566406,0.118943938476562,-0.0341891997070274,0.183097272844228,0.156786000000011,
0.206763255371094,0.0590888969726562,-0.0533428129882783,0.221558112500083,0.160621999999989,
0.213945860351562,0.07584830859375,0.0448194550781285,0.231375410602776,0.164436000000023,
0.134937205566406,0.121338140136719,0.0998860932617216,0.207143006942059,0.168238000000031,
0.158879222167969,-0.130053034179688,-0.177841299316404,0.271631969176289,0.172005000000013,
0.245070481933594,-0.161177655761719,-0.307128188964841,0.424694598845841,0.175782000000027,
0.130148802246094,0.0878193168945312,0.0232716401367217,0.158721493127326,0.179555999999991,
0.0631111557617186,0.169222173339844,0.121433908203128,0.217635833430356,0.183435000000031,
0.223522666992187,-0.0151313544921876,-0.038977603027341,0.227399635192815,0.187141999999994,
0.103812583984375,0.07584830859375,-0.0557370146484342,0.140130772180722,0.190879999999993,
0.096629979003906,0.0782425102539062,-0.000670376464841027,0.12433701242081,0.194627000000025,
0.20915745703125,0.00881066210937498,-0.0844674345703087,0.225741482899077,0.198367000000019,
0.204369053710937,-0.00555454785156256,-0.110803652832027,0.232540346171282,0.202107000000012,
0.13254300390625,0.0950019218749999,-0.000670376464841027,0.163075020923011,0.20608500000003,
0.187609642089844,0.01838746875,0.0328484467773471,0.191349150162199,0.210052000000019,
0.185215440429687,-0.000766144531250068,0.0448194550781285,0.190562666607356,0.213792000000012,
0.175638633789062,0.0495120903320312,-0.0341891997070274,0.18565903733711,0.217579000000001,
0.096629979003906,-0.00555454785156256,-0.0533428129882783,0.110515435761857,0.221340999999995,
0.139725608886719,0.00881066210937498,-0.0317949980468715,0.143568086448104,0.225173999999981,
0.163667625488281,0.00881066210937498,0.0113006318359403,0.164293711625458,0.229118000000028,
0.142119810546875,0.0135990654296875,0.0400310517578166,0.148274948104113,0.232932000000005,
0.158879222167969,0.0351468803710937,-0.0150355864257783,0.163413522377084,0.236721999999986,
0.158879222167969,-0.0127371528320313,-0.098832644531246,0.187543951979276,0.240511000000026,
0.156485020507812,-0.0175255561523438,-0.0557370146484342,0.167036886835511,0.244295000000022,
0.113389390625,0.140491753417969,0.0208774384765658,0.181744199693159,0.248085000000003,
0.201974852050781,0.00162805712890618,-0.022218191406246,0.203199752608891,0.251863000000014,
0.206763255371094,0.0231758720703125,-0.038977603027341,0.211677628377749,0.255753000000027,
0.139725608886719,0.0519062919921874,-0.022218191406246,0.150702212845423,0.259529999999984,
0.1516966171875,0.0112048637695312,-0.0485544096679646,0.159671360413911,0.263287999999989,
0.230705271972656,0.0566946953124999,0.0472136567382844,0.242215483351405,0.26707399999998,
0.077476365722656,0.00641646044921873,-0.0701022246093714,0.104680848799911,0.270821000000012,
0.166061827148437,-0.0175255561523438,-0.00545877978515286,0.16707325887487,0.27457099999998,
0.161273423828125,0.0112048637695312,-0.0868616362304646,0.183520053547217,0.278634000000011,
0.194792247070312,0.0327526787109375,-0.0246123930664037,0.199054081530369,0.282508000000007,
0.206763255371094,0.0351468803710937,-0.000670376464841027,0.209730294368927,0.286324999999977,
0.17085023046875,-0.000766144531250068,-0.113197854492183,0.204949121711466,0.290147999999988,
0.19000384375,0.00641646044921873,-0.0509486113281223,0.196820711818484,0.293981000000031,
0.156485020507812,0.106972930175781,0.0998860932617216,0.21426152491946,0.297854000000029,
0.656873167480469,-0.244974713867188,0.0615788666992216,0.703766243446,0.301661000000024,
0.484490647949219,-0.146812445800781,0.38240188916016,0.634441712866927,0.305174000000022,
0.077476365722656,0.269778643066406,0.470987350585942,0.548281121243753,0.308177000000001,
-0.360662538085938,-0.0701979926757813,-0.570490371582029,0.678575337469688,0.311082999999996,
-0.185885816894531,0.03754108203125,-0.357406423828122,0.404601311856785,0.314098999999999,
0.204369053710937,0.085425115234375,-0.0677080229492155,0.231621537856914,0.317092000000002,
0.237887876953125,-0.0510443793945313,-0.127563064453122,0.274715318250929,0.320122000000026,
0.201974852050781,0.0638773002929687,0.250720797851566,0.328230207063546,0.323107999999991,
-0.138001783691406,0.207529399902344,0.138193319824222,0.284974275628303,0.326046000000019,
-0.0230801040039065,0.121338140136719,-0.127563064453122,0.177561174994255,0.329065000000014,
0.395905186523437,-0.108505219238281,-0.24966734912109,0.480466528007162,0.332028999999977,
0.51561526953125,-0.029496564453125,0.17171214306641,0.544255650925904,0.335073000000023,
0.427029808105469,0.164433770019531,0.28663382275391,0.539955433420156,0.338056999999992,
0.309713926757812,0.106972930175781,-0.206571719238278,0.387347130371704,0.341016000000025,
0.429424009765625,-0.103716815917969,-0.201783315917965,0.485673413571505,0.344047999999987,
0.336050145019531,-0.127658832519531,0.0160890351562539,0.359840707174934,0.347016999999994,
0.0918415756835935,0.0902135185546875,0.269874411132816,0.299007611505705,0.350075000000004,
0.0248039291992186,-0.03907337109375,-0.153899282714841,0.160707661461712,0.353031999999985,
-0.0661757338867189,0.279355449707031,0.312970041015628,0.424698647996185,0.355993000000012,
0.230705271972656,-0.0462559760742188,-0.170658694335934,0.290669791672616,0.359005000000025,
-0.0206859023437502,0.0806367119140625,-0.359800625488278,0.369305667389282,0.361961000000008,
-0.0518105239257815,0.284143853027344,0.00411802685547258,0.288858127370291,0.364999000000012,
-0.171520606933594,-0.132447235839844,-0.220936929199215,0.309474902970278,0.367932999999994,
0.149302415527344,-0.0558327827148438,0.482958358886723,0.50858360898336,0.370970999999997,
0.0248039291992186,-0.0414675727539063,-0.0796790312499969,0.0931855273889585,0.373917000000006,
0.175638633789062,0.231471416503906,0.114251303222659,0.312219965129857,0.376883000000021,
0.43900081640625,-0.19230227734375,-0.398107852050778,0.623050354739832,0.379882000000009,
0.333655943359375,-0.0965342109375001,-0.228119534179685,0.415552240151243,0.382858999999996,
0.235493675292969,0.0327526787109375,0.131010714843754,0.271466050307591,0.385989999999993,
0.0942357773437498,0.224288811523437,0.231567184570316,0.33587082885538,0.389069000000006,
0.269012498535156,0.0519062919921874,0.214807772949221,0.348144175358299,0.392125000000021,
0.0918415756835935,-0.151600849121094,-0.431626675292966,0.466603985519564,0.395177999999987,
0.149302415527344,0.205135198242187,-0.0581312163085901,0.26029002890944,0.398158000000024,
0.350415354980469,-0.0438617744140625,-0.302339785644527,0.464891516640621,0.401186999999993,
0.364780564941406,0.03754108203125,0.00651222851562849,0.366765050842209,0.404193000000021,
0.422241404785156,0.193164189941406,0.499717770507816,0.682142256682552,0.407181999999978,
0.0655053574218748,0.130914946777344,0.0184832368164098,0.147551025695838,0.410208000000011,
0.266618296875,-0.218638495605469,0.135799118164066,0.370579962333753,0.413180000000011,
0.178032835449219,0.00881066210937498,0.21001936962891,0.275465885154984,0.41623199999998,
-0.142790187011719,0.123732341796875,0.0472136567382844,0.194750761990758,0.419209000000023,
-0.193068421875,-0.0821690009765625,-0.151505081054685,0.258806780885231,0.422138000000018,
-0.0709641372070314,0.0399352836914062,-0.47951070849609,0.48637563180681,0.425184999999999,
0.340838548339844,0.169222173339844,-0.077284829589841,0.388304010884517,0.428192000000024,
0.278589305175781,-0.0845632026367188,-0.390925247070308,0.487427415104531,0.431219999999996,
0.166061827148437,0.166827971679687,0.0950976899414098,0.253873340866718,0.434194999999988,
0.168456028808594,0.274567046386719,0.521265585449223,0.612766111315899,0.437165999999991,
0.407876194824219,-0.0103429511718751,0.368036679199221,0.549473351655217,0.440202999999997,
0.300137120117187,-0.108505219238281,-0.161081887695309,0.357495521674986,0.443153999999993,
0.0391691391601561,-0.156389252441406,-1.43719137255859,1.44620567731515,0.446178000000032,
0.269012498535156,0.65045670703125,1.51725347607422,1.67257877624624,0.449178000000018,
-1.99829647363281,-2.21300847851563,0.61224524853516,3.04391845601508,0.452069999999992,
1.25781778417969,0.332027886230469,3.39909598095704,3.63953315456689,0.455126000000007,
-0.784436231933594,-0.510731098144531,-4.11869723193359,4.22372505555458,0.458100000000002,
0.793342662109375,1.42378384326172,-1.50662322070312,2.21956449354772,0.461153000000024,
0.604200730957031,-2.02626074902344,-3.7188655546875,4.27793783967967,0.464097999999979,
0.66884417578125,0.588207463867187,-0.232907937499997,0.920644697685307,0.467145000000016,
1.27218299414062,1.18675787890625,0.162135336425784,1.747321293021,0.470137000000022,
1.12134828955078,1.52912871630859,2.9465918671875,3.50400631410584,0.473113000000012,
0.3049255234375,-0.256945722167969,1.5076766694336,1.55951582824235,0.476142999999979,
0.721516612304687,0.767772588378906,2.1804473359375,2.4216547140529,0.479133999999988,
-0.545016065917969,0.894665276367188,0.104674496582035,1.05281775207325,0.482162000000017,
-0.331932118164063,0.432584355957031,-0.445991885253903,0.704426658921972,0.485122999999987,
-0.533045057617188,0.0782425102539062,-1.18819439990234,1.30463207680182,0.488061000000016,
-0.300807496582031,-0.130053034179688,-1.4587391875,1.49509831076336,0.491065999999989,
-0.523468250976563,-0.549038324707031,-1.39409574267578,1.58712476873253,0.494026000000019,
-0.602476905761719,-0.707055634277344,-0.381348440429685,1.00415771916453,0.497034999999983,
-0.549804469238282,-0.65198899609375,0.545207602050784,1.01223808205169,0.499989000000028,
-0.3079901015625,-0.723815045898438,1.12221020214844,1.37044586216876,0.50292300000001,
0.154090818847656,-0.628046979492188,0.715195919921879,0.964205472280314,0.505949999999984,
0.635325352539062,-0.534673114746094,0.0328484467773471,0.831019051326056,0.508928000000026,
0.9178411484375,-0.297647150390625,-0.445991885253903,1.06298398934935,0.511955999999998,
0.901081736816406,0.03754108203125,-0.788362722656247,1.19786201698615,0.514944000000014,
0.786160057128906,0.4397669609375,-0.328676003906248,0.958890260092837,0.517899999999997,
0.723910813964844,0.530746624023438,-0.0653138212890596,0.900002633739979,0.520943999999986,
0.604200730957031,0.511593010742188,0.291422226074221,0.843630752035108,0.523989000000029,
0.49646165625,0.748618975097656,0.854059616210941,1.23948472118261,0.527136999999982,
0.259435691894531,0.482862590820312,0.353671469238284,0.652339380994023,0.530206000000021,
0.0343807358398436,0.346393096191406,0.0615788666992216,0.353499885303968,0.533247000000017,
-0.185885816894531,0.243442424804687,-0.153899282714841,0.342786727189773,0.536249999999995,
-0.401363966308594,0.2099236015625,-0.261638357421871,0.523082767846879,0.539188000000024,
-0.449247999511719,0.00881066210937498,-0.412473062011715,0.609947063045153,0.54222500000003,
-0.559381275878907,-0.110899420898438,-0.474722305175778,0.742002264410916,0.545176000000026,
-0.343903126464844,-0.264128327148438,-0.0174297880859342,0.433978030673497,0.548204999999996,
-0.166732203613281,-0.465241266601563,-0.127563064453122,0.510412969352698,0.551237000000015,
0.0607169541015623,-0.333560175292969,0.140587521484379,0.367033772634029,0.554216999999994,
0.0942357773437498,-0.328771771972656,-0.0413718046874969,0.344503825814346,0.557247000000018,
0.431818211425781,-0.197090680664063,0.0400310517578166,0.476355108326153,0.560227999999995,
0.608989134277344,-0.204273285644531,-0.290368777343746,0.704917986543103,0.563253000000032,
0.889110728515625,-0.0366791694335938,-0.0724964262695273,0.892815199721519,0.566225000000031,
0.829255687011719,0.0519062919921874,0.0113006318359403,0.830955451194315,0.569238999999982,
0.489279051269531,0.30569166796875,0.104674496582035,0.586343019154685,0.572299999999984,
0.352809556640625,0.365546709472656,0.154952731445317,0.53113965117058,0.575262000000009,
0.434212413085937,0.260201836425781,-0.0461602080078087,0.50830717106941,0.578273000000024,
0.508432664550781,0.178798979980469,0.16452953808594,0.563509377496982,0.581281999999987,
0.139725608886719,0.200346794921875,-0.0940442412109341,0.261737279192652,0.584208999999987,
0.00325611425781225,0.236259819824219,0.107068698242191,0.259408964545772,0.587276000000031,
-0.348691529785156,0.138097551757812,-0.120380459472653,0.39388852708382,0.590260000000001,
-0.401363966308594,0.0159932670898437,-0.17305289599609,0.437374122297841,0.593301999999994,
-0.262500270019531,-0.125264630859375,-0.223331130859371,0.366707531304701,0.596202000000005,
-0.240952455078125,-0.125264630859375,-0.0126413847656224,0.271862314345523,0.599112999999988,
-0.351085731445313,-0.0606211860351563,-0.137139871093746,0.381763622238171,0.60210699999999,
-0.0877235488281252,-0.156389252441406,-0.139534072753904,0.227206462842662,0.605049000000008,
0.276195103515625,-0.170754462402344,-0.14192827441406,0.354378973296205,0.608055999999976,
0.455760228027343,-0.132447235839844,-0.0365834013671833,0.476023109721307,0.611024999999984,
0.532374681152344,0.0112048637695312,0.190865756347661,0.565666056123503,0.614042999999981,
0.565893504394531,-0.0175255561523438,0.140587521484379,0.583358770081922,0.617148999999984,
0.436606614746094,0.121338140136719,0.00651222851562849,0.453200495820692,0.620126000000027,
0.620960142578125,0.0997903251953124,0.0759440766601589,0.633495943517396,0.623166000000026,
0.518009471191406,-0.000766144531250068,-0.151505081054685,0.539711208709648,0.626103999999998,
0.316896531738281,0.214712004882812,-0.0174297880859342,0.383182012079467,0.629063000000031,
0.192398045410156,0.157251165039062,-0.0748906279296833,0.259525611328618,0.632152000000019,
0.144514012207031,0.0686657036132812,-0.000670376464841027,0.159999149939884,0.635154,
0.0822647690429685,0.0471178886718749,0.00411802685547258,0.0948922852700395,0.638287999999989,
-0.205039430175782,0.0638773002929687,0.0328484467773471,0.217256755649189,0.641297000000009,
-0.303201698242188,0.0997903251953124,-0.0916500395507782,0.332098040598243,0.644307000000026,
-0.260106068359375,0.00641646044921873,-0.158687686035153,0.304759117109332,0.647396000000015,
-0.166732203613281,-0.0797747993164063,-0.194600710937497,0.268389796797667,0.650360999999975,
-0.0158974990234377,-0.0103429511718751,-0.0294007963867156,0.0349873397433572,0.653444999999977,
-0.0709641372070314,0.0638773002929687,-0.196994912597653,0.21891371325619,0.656489000000022,
0.185215440429687,0.0806367119140625,0.0543962617187539,0.209203231262927,0.659515999999996,
0.374357371582031,-0.0342849677734375,-0.0150355864257783,0.376224626429743,0.662457000000018,
0.443789219726562,0.027964275390625,0.0591846650390657,0.448590789940476,0.665464999999983,
0.434212413085937,0.0902135185546875,0.111857101562503,0.457373927741726,0.668549999999982,
0.367174766601562,-0.00794874951171881,-0.0940442412109341,0.379110552679099,0.671496999999988,
0.441395018066406,0.0303584770507812,-0.0102471831054647,0.442556441444798,0.674515999999983,
0.328867540039062,0.00881066210937498,-0.223331130859371,0.397628319752348,0.677476000000013,
0.369568968261719,0.104578728515625,-0.0102471831054647,0.384217305078224,0.680509000000029,
0.187609642089844,0.00162805712890618,-0.170658694335934,0.253622590333629,0.683560999999997,
0.087053172363281,-0.000766144531250068,0.0160890351562539,0.088530779100904,0.68658499999998,
0.0295923325195311,0.0495120903320312,0.188471554687503,0.197100685334471,0.689752999999996,
-0.0877235488281252,0.0638773002929687,0.0160890351562539,0.10970226781602,0.692723999999998,
-0.102088758789063,0.0734541069335937,-0.0653138212890596,0.141716321388478,0.695732000000021,
-0.0685699355468752,0.0686657036132812,-0.0485544096679646,0.108509656767562,0.698761999999988,
0.00804451757812485,-0.0486501777343751,-0.161081887695309,0.168460465985747,0.701756999999986,
-0.111665565429688,0.0159932670898437,-0.276003567382809,0.298165981129597,0.704819999999984,
0.154090818847656,0.102184526855469,0.109462899902347,0.214866899351316,0.707850000000008,
0.276195103515625,0.0878193168945312,-0.0485544096679646,0.293859657530654,0.710846000000004,
0.240282078613281,0.0710599052734375,0.052002060058598,0.255908580728601,0.713934999999992,
0.278589305175781,0.07584830859375,0.0759440766601589,0.298550614895735,0.716907999999989,
0.40069358984375,-0.0175255561523438,0.0615788666992216,0.405776360677012,0.719964000000004,
0.331261741699219,-0.07738059765625,-0.0844674345703087,0.350509409160621,0.722969999999975,
0.470125437988281,0.0207816704101562,0.0974918916015657,0.480577230210464,0.725929000000008,
0.312108128417969,-0.0175255561523438,-0.0341891997070274,0.314463877606989,0.728996999999993,
0.278589305175781,-0.0486501777343751,-0.0509486113281223,0.28735796795665,0.731992999999989,
0.1516966171875,-0.000766144531250068,-0.0341891997070274,0.155503543432877,0.735057999999981,
0.182821238769531,-0.07738059765625,0.0160890351562539,0.19917384188473,0.73803700000002,
0.0319865341796873,-0.00555454785156256,-0.000670376464841027,0.0324721538439971,0.740993000000003,
0.0535343491210936,-0.000766144531250068,0.0113006318359403,0.0547194462065668,0.744060999999988,
-0.027868507324219,0.0303584770507812,-0.0317949980468715,0.0520500982719862,0.747016000000031,
0.0271981308593748,0.0495120903320312,-0.0461602080078087,0.0729516978185913,0.750076999999976,
-0.0254743056640627,-0.0654095893554688,-0.359800625488278,0.366584021379101,0.75306999999998,
0.300137120117187,-0.295252948730469,-0.0748906279296833,0.427627408801141,0.756144000000006,
-0.243346656738281,-0.707055634277344,0.394372897460942,0.845384674311508,0.759163000000001,
-0.28883648828125,-0.391021015136719,0.444651132324223,0.658816044672873,0.762165999999979,
-0.157155396972656,-0.00555454785156256,-0.694988857910152,0.712557495517889,0.765194000000008,
0.264224095214844,0.171616375,-0.955956838867184,1.00653863832303,0.768161000000021,
0.568287706054687,0.219500408203125,-0.963139443847654,1.1396354392302,0.771266000000026,
0.0391691391601561,0.116549736816406,-0.929620620605466,0.9377166740916,0.774274999999989,
0.513221067871094,0.952126116210938,0.538024997070316,1.20806080275381,0.77727299999998,
0.939388963378906,0.561871245605469,0.28663382275391,1.13150778587814,0.780367000000012,
0.838832493652344,0.0878193168945312,0.708013314941409,1.10119709360366,0.783404000000019,
0.807707872070312,-0.0199197578125001,0.633793063476565,1.02687995922925,0.78649999999999,
0.436606614746094,0.142885955078125,0.272268612792972,0.534014915251289,0.789508000000012,
0.118177793945312,0.0590888969726562,0.138193319824222,0.191193311523352,0.792488999999989,
-0.0254743056640627,-0.292858747070313,-0.331070205566403,0.442744471448758,0.795568000000003,
-0.248135060058594,-0.304829755371094,-0.477116506835934,0.618168544076133,0.798572999999976,
-0.398969764648438,-0.443693451660156,-0.604009194824215,0.849039374576898,0.801625000000001,
-0.559381275878907,-0.470029669921875,-0.381348440429685,0.824173486244815,0.804576999999995,
-0.430094386230469,-0.393415216796875,-0.0653138212890596,0.586534405747587,0.807569000000001,
-0.331932118164063,-0.086957404296875,0.238749789550784,0.418021510500925,0.810661999999979,
-0.0853293471679689,-0.0917458076171875,-0.00785298144530877,0.125539077665172,0.813566999999978,
0.173244432128906,0.147674358398437,-0.0677080229492155,0.23749889634217,0.816597000000002,
0.467731236328125,0.262596038085937,-0.00545877978515286,0.536431716933488,0.819560000000024,
0.604200730957031,0.269778643066406,-0.0724964262695273,0.665653642193607,0.822541000000001,
0.752641233886719,0.423007549316406,0.312970041015628,0.918343323762153,0.825591000000031,
0.616171739257812,0.442161162597656,0.233961386230472,0.793669979409952,0.828634000000022,
0.51561526953125,0.348787297851562,0.159741134765628,0.642673257147509,0.831771000000003,
0.333655943359375,0.207529399902344,0.00411802685547258,0.392952539765356,0.834763000000009,
0.192398045410156,0.118943938476562,-0.0677080229492155,0.236112356198604,0.837754000000018,
0.0990241806640623,0.00162805712890618,-0.10362104785156,0.14333792409568,0.840822000000003,
-0.0422337172851565,-0.101322614257813,-0.225725332519527,0.25100176249742,0.843770000000006,
0.0056503159179685,-0.276099335449219,-0.14192827441406,0.310493806997218,0.846803000000023,
-0.0206859023437502,-0.331165973632813,-0.10362104785156,0.347614916546743,0.84977600000002,
-0.00392649072265649,-0.292858747070313,-0.022218191406246,0.293726592419469,0.852800000000002,
0.0104387192382811,-0.285676142089844,-0.000670376464841027,0.285867581973327,0.85576100000003,
-0.0446279189453127,-0.19230227734375,0.0687614716796912,0.209045346775619,0.858710000000031,
-0.0254743056640627,-0.00794874951171881,0.013694833496098,0.0299945217056715,0.861751000000027,
0.0391691391601561,0.0950019218749999,-0.204177517578122,0.228578313290775,0.864726000000019,
0.204369053710937,0.138097551757812,-0.156293484374997,0.292002221180393,0.867766000000017,
0.321684935058594,0.207529399902344,-0.0461602080078087,0.385590993243881,0.870789000000002,
0.405481993164062,0.243442424804687,0.00651222851562849,0.472992885882363,0.873763999999994,
0.336050145019531,0.257807634765625,0.0615788666992216,0.428002842671698,0.876813000000027,
0.350415354980469,0.308085869628906,0.24114399121094,0.525222094516433,0.879770000000008,
0.417453001464844,0.176404778320312,0.0855208833007843,0.461193533916936,0.882824000000028,
0.328867540039062,0.121338140136719,0.0304542451171912,0.351858301293063,0.88581099999999,
0.19000384375,0.085425115234375,-0.120380459472653,0.240604168657626,0.888762999999983,
0.103812583984375,-0.0223139594726563,-0.165870291015622,0.196946487205198,0.891778999999985,
0.182821238769531,-0.120476227539063,0.109462899902347,0.244786137684104,0.894791999999995,
-0.233769850097656,-0.319194965332031,-0.359800625488278,0.534780570710786,0.897862000000032,
-0.130819178710938,-0.158783454101563,0.119039706542972,0.237689491877248,0.90082000000001,
-0.123636573730469,-0.209061688964844,-0.266426760742185,0.360521859248806,0.903733999999986,
0.1516966171875,-0.0223139594726563,0.0424252534179725,0.159090158655579,0.906787000000008,
0.261829893554687,-0.0342849677734375,-0.163476089355465,0.310571705029676,0.909730000000025,
0.357597959960937,0.0471178886718749,-0.022218191406246,0.361372445588321,0.91282799999999,
0.206763255371094,0.0590888969726562,-0.0916500395507782,0.233756863571439,0.915829000000031,
0.185215440429687,0.162039568359375,0.0855208833007843,0.260529082000843,0.918878000000007,
0.340838548339844,0.126126543457031,-0.0820732329101528,0.372578631377531,0.92195300000003,
0.386328379882812,0.42061334765625,0.451833737304691,0.728229999036156,0.924998000000016,
0.283377708496094,-0.23060950390625,0.408738107421879,0.548224871219104,0.928102000000024,
-0.236164051757813,0.00641646044921873,0.356065670898442,0.427314161127057,0.93110200000001,
-0.0589931289062502,0.22907721484375,-0.0126413847656224,0.236888928039095,0.934108999999978,
0.0391691391601561,-0.0678037910156251,-0.699777261230466,0.704144722961019,0.937245000000019,
0.508432664550781,0.322451079589844,0.0903092866210979,0.608797372169817,0.940223000000003,
0.328867540039062,0.2099236015625,-1.06609011523437,1.13524002360063,0.943287999999995,
0.434212413085937,0.490045195800781,0.0711556733398471,0.658595356386443,0.946302000000003,
0.314502330078125,-0.00316034619140632,0.528448190429691,0.614962757718737,0.949371999999983,
0.269012498535156,0.0902135185546875,0.913914657714848,0.956946291535838,0.952387999999985,
0.163667625488281,0.154856963378906,0.581120626953128,0.623272776407172,0.955338999999981,
0.254647288574218,-0.110899420898438,-0.0916500395507782,0.292478465674773,0.958343000000013,
0.178032835449219,-0.180331269042969,-0.460357095214841,0.52549377941835,0.961350999999979,
0.233099473632812,-0.28807034375,-0.450780288574215,0.583543276992538,0.964352000000019,
-0.0613873305664064,-0.244974713867188,-0.347829617187497,0.429844689837132,0.967306000000008,
-0.197856825195313,-0.244974713867188,-0.0294007963867156,0.316266249446336,0.970330999999987,
-0.322355311523438,-0.1348414375,0.0639730683593775,0.355229100173047,0.973362000000009,
-0.209827833496094,-0.113293622558594,0.0687614716796912,0.248175954938569,0.976375000000019,
-0.0470221206054689,0.0351468803710937,-0.120380459472653,0.133932214380642,0.979378999999994,
0.273800901855469,0.104578728515625,-0.137139871093746,0.323590773290003,0.982388000000014,
0.474913841308594,0.147674358398437,-0.0748906279296833,0.502950771891819,0.985377000000028,
0.529980479492187,0.274567046386719,0.111857101562503,0.607271259631361,0.988469000000009,
0.484490647949219,0.300903264648438,0.17171214306641,0.59561650640559,0.991485000000011,
0.0942357773437498,0.226683013183594,-0.0150355864257783,0.245950480903659,0.994567000000018,
0.127754600585937,0.166827971679687,0.20283676464844,0.292054041572237,0.997529999999983,
0.197186448730469,0.154856963378906,0.0113006318359403,0.250979837735546,1.00048800000002,
0.316896531738281,0.162039568359375,-0.0485544096679646,0.359218268243764,1.00359100000003,
0.103812583984375,0.0351468803710937,-0.496270120117185,0.508228676792699,1.00654600000001,
0.0894473740234373,-0.0606211860351563,-0.359800625488278,0.375675725883046,1.009638,
0.0894473740234373,-0.0725921943359376,-0.216148525878904,0.244929876980776,1.01260200000002,
0.364780564941406,-0.199484882324219,0.140587521484379,0.438889428024872,1.01558599999998,
0.319290733398437,-0.259339923828125,0.0998860932617216,0.423297767714855,1.01863200000003,
0.0631111557617186,-0.223426898925781,0.16452953808594,0.284556788792578,1.02159,
