X,Y,Z,Magnitude,Seconds,
0.187609642089844,0.0303584770507812,-0.0796790312499969,0.206077080129887,0.0,
0.199580650390625,0.0495120903320312,-0.022218191406246,0.206827297832652,0.00408499999997503,
0.163667625488281,0.0590888969726562,0.00890643017578441,0.174235225706209,0.00799100000000408,
0.161273423828125,-0.0151313544921876,-0.0796790312499969,0.18051820723393,0.0118739999999775,
0.1516966171875,0.00881066210937498,-0.0557370146484342,0.161852112234769,0.0158250000000066,
0.168456028808594,0.0351468803710937,-0.0677080229492155,0.184924614947478,0.0197909999999979,
0.158879222167969,0.0423294853515625,-0.0461602080078087,0.170778093941088,0.0236629999999991,
0.168456028808594,0.0327526787109375,-0.0677080229492155,0.184484546714339,0.0276769999999829,
0.17085023046875,0.0135990654296875,-0.0126413847656224,0.171856162067522,0.0318509999999605,
0.146908213867187,-0.0127371528320313,-0.0437660063476528,0.153817169638297,0.0357359999999858,
0.149302415527344,0.0135990654296875,-0.0701022246093714,0.165500657877977,0.0397069999999644,
0.168456028808594,0.027964275390625,-0.0844674345703087,0.190510319518324,0.0436479999999619,
0.173244432128906,0.03754108203125,0.0232716401367217,0.178786283977259,0.0475559999999859,
0.192398045410156,0.0519062919921874,-0.0150355864257783,0.199843288316605,0.0514799999999696,
0.182821238769531,0.0303584770507812,0.00172382519531666,0.185332711757457,0.0554899999999634,
0.137331407226562,-0.00794874951171881,-0.0557370146484342,0.148424097880188,0.059457000000009,
0.19000384375,0.0614830986328125,-0.0437660063476528,0.204443379371623,0.0633449999999698,
0.197186448730469,0.027964275390625,-0.0844674345703087,0.21633132866958,0.0673370000000091,
0.19000384375,0.0614830986328125,-0.0485544096679646,0.205521684392356,0.0712439999999788,
0.199580650390625,0.0327526787109375,-0.0724964262695273,0.214850892004059,0.0751819999999839,
0.168456028808594,0.0351468803710937,-0.0581312163085901,0.181636932233777,0.0792329999999879,
0.137331407226562,0.0423294853515625,-0.0294007963867156,0.146683699057288,0.0831099999999765,
0.175638633789062,0.03754108203125,-0.0461602080078087,0.185442787195106,0.0869589999999789,
0.185215440429687,0.0231758720703125,-0.00545877978515286,0.18673960130761,0.0909169999999904,
0.180427037109375,0.0423294853515625,-0.0653138212890596,0.196498336638189,0.094791999999984,
0.206763255371094,0.0207816704101562,-0.022218191406246,0.2089894007505,0.0986369999999965,
0.201974852050781,-0.00316034619140632,-0.038977603027341,0.205725745075188,0.102638000000013,
0.197186448730469,0.0686657036132812,0.0184832368164098,0.209616565325482,0.106728999999973,
0.185215440429687,0.03754108203125,-0.0150355864257783,0.189578904609155,0.110705999999993,
0.187609642089844,0.01838746875,-0.0126413847656224,0.188931949179867,0.114609999999971,
0.149302415527344,0.0543004936523437,-0.0557370146484342,0.168363801617532,0.118536000000006,
0.142119810546875,0.00402225878906243,0.00172382519531666,0.142187167806908,0.122402999999963,
0.201974852050781,0.0255700737304687,-0.09643844287109,0.225273262494502,0.126260000000002,
0.156485020507812,0.0471178886718749,-0.0509486113281223,0.171182411691417,0.13034399999998,
0.163667625488281,0.0471178886718749,-0.0174297880859342,0.171204510976166,0.134253000000001,
0.180427037109375,0.0495120903320312,-0.0270065947265596,0.189036290081665,0.138144000000011,
0.166061827148437,0.0351468803710937,-0.0294007963867156,0.172267932198278,0.142066999999997,
0.178032835449219,0.0135990654296875,-0.0461602080078087,0.184421771713574,0.146025000000009,
0.2283110703125,0.03754108203125,-0.0701022246093714,0.241763519916672,0.14990899999998,
0.139725608886719,0.00402225878906243,-0.0317949980468715,0.143353919532502,0.153838000000007,
0.180427037109375,0.0590888969726562,-0.0820732329101528,0.206836720690106,0.157685000000015,
0.158879222167969,0.027964275390625,-0.0413718046874969,0.166541989173667,0.161563999999998,
0.178032835449219,0.0351468803710937,-0.077284829589841,0.197240813683779,0.165411000000006,
0.156485020507812,0.0351468803710937,0.013694833496098,0.160967118715706,0.169259000000011,
0.182821238769531,0.0423294853515625,-0.0844674345703087,0.205791491996738,0.173125999999968,
0.156485020507812,0.0255700737304687,-0.038977603027341,0.163280874114726,0.177196999999978,
0.163667625488281,0.00162805712890618,-0.0317949980468715,0.166735311508354,0.181096999999966,
0.142119810546875,0.03754108203125,0.0113006318359403,0.147428211919728,0.185133000000008,
0.175638633789062,0.0351468803710937,-0.0317949980468715,0.18192073763018,0.189009999999996,
0.175638633789062,0.0566946953124999,-0.0174297880859342,0.185383428786357,0.192943000000014,
0.213945860351562,0.0303584770507812,-0.0940442412109341,0.235666687496034,0.196811999999966,
0.137331407226562,0.0519062919921874,-0.0461602080078087,0.153899133728979,0.200765999999987,
0.17085023046875,0.0159932670898437,0.035242648437503,0.175178851783888,0.20494199999996,
0.201974852050781,0.0135990654296875,0.0160890351562539,0.20307051113777,0.208942999999977,
0.185215440429687,0.0255700737304687,0.0328484467773471,0.189835740838834,0.212926999999979,
0.154090818847656,0.0303584770507812,-0.0341891997070274,0.160731200949259,0.216872999999964,
0.134937205566406,0.00881066210937498,-0.0246123930664037,0.137446160751515,0.220781999999986,
0.197186448730469,0.0327526787109375,-0.0724964262695273,0.212628703018968,0.224743999999987,
0.180427037109375,0.0159932670898437,0.00172382519531666,0.181142683776019,0.228698000000009,
0.166061827148437,0.0543004936523437,-0.0509486113281223,0.181991304855561,0.232613000000015,
0.1516966171875,0.0112048637695312,0.0113006318359403,0.152529069092144,0.236520999999982,
0.192398045410156,0.0207816704101562,0.00651222851562849,0.193626689335238,0.240390999999988,
0.211551658691406,0.0231758720703125,-0.0102471831054647,0.213063910841094,0.244224999999972,
0.156485020507812,0.00881066210937498,-0.0509486113281223,0.164805796033999,0.248166999999967,
0.134937205566406,0.0303584770507812,0.00172382519531666,0.138320852181504,0.252168999999981,
0.1516966171875,0.027964275390625,-0.0509486113281223,0.162448839209511,0.256148999999994,
0.158879222167969,0.0519062919921874,-0.101226846191404,0.195406613948799,0.260128000000009,
0.13254300390625,-0.0199197578125001,-0.0246123930664037,0.136272574380379,0.263968999999975,
0.178032835449219,0.0447236870117187,-0.0677080229492155,0.195653456523779,0.267864999999972,
0.149302415527344,0.0543004936523437,-0.0246123930664037,0.160765434051114,0.271682999999996,
0.206763255371094,0.0519062919921874,-0.0461602080078087,0.21811939786125,0.275689,
0.182821238769531,0.0231758720703125,-0.0365834013671833,0.187880471702191,0.27967000000001,
0.180427037109375,0.0447236870117187,-0.00785298144530877,0.186053199965951,0.283579999999972,
0.218734263671875,0.0207816704101562,-0.0413718046874969,0.223580370677334,0.287567999999965,
0.185215440429687,-0.00794874951171881,-0.0461602080078087,0.191046347245079,0.29150199999998,
0.187609642089844,0.00162805712890618,-0.0509486113281223,0.19441139208225,0.295447999999965,
0.182821238769531,0.0159932670898437,-0.0724964262695273,0.1973198463391,0.299320999999964,
0.134937205566406,0.01838746875,-0.0677080229492155,0.152087227684623,0.303230999999982,
0.218734263671875,0.0495120903320312,0.0998860932617216,0.245506327454536,0.307149999999979,
0.101418382324219,-0.0941400092773438,-0.501058523437496,0.519815037806107,0.311060999999995,
0.185215440429687,0.255413433105469,0.624216256835942,0.699418841955633,0.315072999999984,
0.352809556640625,-0.189908075683594,0.138193319824222,0.423836117043887,0.318018999999993,
0.130148802246094,0.00641646044921873,-0.285580374023434,0.313904494581001,0.321014999999989,
0.233099473632812,0.202740996582031,-0.13474566943359,0.337039569982629,0.32409899999999,
0.201974852050781,0.0351468803710937,-0.156293484374997,0.25779215914925,0.327126999999962,
0.1516966171875,-0.113293622558594,-0.101226846191404,0.214695558799986,0.330219,
0.125360398925781,0.0303584770507812,0.253114999511721,0.284084617192647,0.333249999999964,
0.223522666992187,-0.0606211860351563,0.128616513183598,0.264914171608685,0.336230999999998,
0.134937205566406,0.0471178886718749,-0.0509486113281223,0.15173630374841,0.33929599999999,
0.0942357773437498,0.0950019218749999,-0.0581312163085901,0.145893746271183,0.342311999999993,
0.213945860351562,-0.00555454785156256,-0.266426760742185,0.341740988181077,0.345453999999961,
0.180427037109375,0.0351468803710937,-0.132351467773434,0.226508564830715,0.348430000000008,
0.134937205566406,0.171616375,0.169317941406254,0.27627666368382,0.351399000000015,
0.139725608886719,0.0399352836914062,0.0567904633789098,0.156023169411048,0.354468999999995,
0.201974852050781,-0.0438617744140625,0.0160890351562539,0.207307870492039,0.357473999999968,
0.182821238769531,0.0590888969726562,0.0256658417968776,0.193839723807617,0.360543000000007,
0.187609642089844,-0.00316034619140632,-0.113197854492183,0.219137216954953,0.36346599999996,
0.17085023046875,0.00881066210937498,-0.0820732329101528,0.189745736653962,0.366408999999976,
0.213945860351562,0.0423294853515625,-0.00306457812499694,0.218114667390303,0.36948000000001,
0.218734263671875,-0.000766144531250068,-0.0317949980468715,0.221034357017909,0.372396999999978,
0.161273423828125,-0.0103429511718751,-0.0294007963867156,0.164257422055635,0.375470000000007,
0.166061827148437,0.0447236870117187,0.0424252534179725,0.177134527248018,0.378533000000004,
0.158879222167969,-0.00555454785156256,-0.0270065947265596,0.161253888006642,0.38153299999999,
0.142119810546875,0.0231758720703125,-0.0653138212890596,0.15811722501827,0.384572999999989,
0.166061827148437,0.0159932670898437,-0.098832644531246,0.193907727161978,0.387517000000003,
0.13254300390625,0.085425115234375,-0.038977603027341,0.162432606748323,0.39058799999998,
0.1516966171875,0.01838746875,-0.0677080229492155,0.167135690517778,0.393560999999977,
0.146908213867187,0.0734541069335937,0.0472136567382844,0.170899556786025,0.396628999999962,
0.17085023046875,0.0543004936523437,0.0256658417968776,0.181099641902615,0.399606000000006,
0.2283110703125,0.0495120903320312,-0.0126413847656224,0.233959818184831,0.402563999999984,
0.142119810546875,0.0231758720703125,-0.0796790312499969,0.164571898017362,0.405609999999967,
0.180427037109375,0.0231758720703125,-0.115592056152341,0.215528560083839,0.408582999999965,
0.192398045410156,0.00881066210937498,-0.038977603027341,0.196504170902836,0.411656999999991,
0.180427037109375,0.00162805712890618,-0.101226846191404,0.206889924065772,0.414597000000015,
0.197186448730469,-0.0414675727539063,-0.0270065947265596,0.203301282120303,0.417574000000002,
0.137331407226562,-0.0103429511718751,0.0400310517578166,0.143420281531618,0.420642999999984,
0.182821238769531,0.00641646044921873,-0.0246123930664037,0.184582085269339,0.423606000000007,
0.122966197265625,0.0399352836914062,-0.106015249511715,0.167196727487451,0.426637999999969,
0.125360398925781,0.00402225878906243,-0.127563064453122,0.178895901566438,0.429603999999983,
0.249858885253906,-0.0510443793945313,0.0472136567382844,0.259353273722731,0.432568000000003,
0.156485020507812,0.0471178886718749,-0.022218191406246,0.164928181659746,0.435606000000007,
0.110995188964844,0.066271501953125,-0.0533428129882783,0.139847415571282,0.438555000000008,
0.178032835449219,-0.00794874951171881,-0.0677080229492155,0.190639055517436,0.441597000000002,
0.1516966171875,0.0471178886718749,0.0376368500976589,0.16324365710281,0.444592,
0.137331407226562,0.03754108203125,-0.000670376464841027,0.142371688391722,0.447570999999982,
0.154090818847656,0.03754108203125,-0.0509486113281223,0.166580533945243,0.450610999999981,
0.199580650390625,0.0686657036132812,0.0113006318359403,0.211364895720513,0.453596000000005,
0.158879222167969,0.0399352836914062,-0.0461602080078087,0.170200466872262,0.456618999999989,
0.118177793945312,-0.0127371528320313,-0.00785298144530877,0.119121347212108,0.459591999999986,
0.178032835449219,0.0614830986328125,-0.0126413847656224,0.18877411508036,0.462563999999986,
0.1516966171875,-0.00794874951171881,0.00651222851562849,0.152044254758839,0.465634999999963,
0.142119810546875,0.03754108203125,-0.0581312163085901,0.158071539814961,0.468648999999971,
0.173244432128906,0.0327526787109375,-0.00306457812499694,0.176339907183522,0.471751999999981,
0.185215440429687,0.01838746875,0.0184832368164098,0.187041408313258,0.474761999999998,
0.156485020507812,0.01838746875,-0.060525417968746,0.168786808935574,0.477818000000013,
0.182821238769531,0.00881066210937498,0.0232716401367217,0.184506916799031,0.480808999999965,
0.175638633789062,0.03754108203125,-0.0126413847656224,0.180050179472718,0.483813999999995,
0.144514012207031,0.0399352836914062,-0.0294007963867156,0.152785907189963,0.486914000000013,
0.182821238769531,0.00162805712890618,0.013694833496098,0.183340678464237,0.489891999999998,
0.156485020507812,0.0423294853515625,-0.000670376464841027,0.162110444999893,0.492917999999975,
0.149302415527344,0.0734541069335937,-0.113197854492183,0.201247289098126,0.495953999999983,
0.137331407226562,0.0351468803710937,-0.0294007963867156,0.144774394969625,0.498967999999991,
0.168456028808594,0.027964275390625,-0.022218191406246,0.172200703742607,0.502014999999972,
0.20915745703125,0.0327526787109375,-0.0365834013671833,0.21484395511653,0.504961999999978,
0.158879222167969,0.0207816704101562,-0.0653138212890596,0.173032887952303,0.508002999999974,
0.146908213867187,0.0471178886718749,-0.000670376464841027,0.154280809367682,0.510993999999982,
0.187609642089844,0.0112048637695312,-0.0317949980468715,0.190614397876901,0.513943999999981,
0.182821238769531,0.0159932670898437,-0.0509486113281223,0.190460365781695,0.517046999999991,
0.180427037109375,0.03754108203125,-0.0150355864257783,0.184903535442976,0.520088999999984,
0.180427037109375,0.0471178886718749,-0.0581312163085901,0.195328567963007,0.523165000000006,
0.158879222167969,0.01838746875,-0.0294007963867156,0.162619534718016,0.526161000000002,
0.156485020507812,0.01838746875,-0.0437660063476528,0.163527135246678,0.529138999999986,
0.19000384375,0.0399352836914062,-0.0174297880859342,0.194936105008816,0.532197999999994,
0.180427037109375,0.0327526787109375,-0.060525417968746,0.193106136368322,0.535151999999982,
0.161273423828125,0.0303584770507812,0.013694833496098,0.164676357825204,0.538256999999987,
0.154090818847656,0.0231758720703125,0.0160890351562539,0.156652349333228,0.541248999999993,
0.146908213867187,0.0471178886718749,-0.10362104785156,0.185847895582376,0.54418899999996,
0.178032835449219,0.0471178886718749,-0.0126413847656224,0.184595748975366,0.547243999999978,
0.137331407226562,0.0423294853515625,-0.0748906279296833,0.162050322099829,0.550219999999968,
0.178032835449219,0.0231758720703125,-0.0102471831054647,0.179827184557577,0.553287000000012,
0.173244432128906,0.0351468803710937,-0.0892558378906223,0.198029141948967,0.556250999999975,
0.187609642089844,0.0351468803710937,-0.0868616362304646,0.209708428189076,0.559250999999961,
0.197186448730469,-0.0271023627929688,-0.00306457812499694,0.199063872339959,0.562295000000006,
0.149302415527344,0.0566946953124999,-0.022218191406246,0.161242512347834,0.565245000000004,
0.168456028808594,0.00402225878906243,-0.0246123930664037,0.170292049433269,0.568290999999988,
0.185215440429687,-0.00555454785156256,-0.0174297880859342,0.186116656664896,0.571222999999975,
0.173244432128906,-0.000766144531250068,0.013694833496098,0.173786560773829,0.574259999999981,
0.137331407226562,0.00162805712890618,0.013694833496098,0.138022152009483,0.577230999999983,
0.156485020507812,0.0782425102539062,0.0160890351562539,0.175693793591072,0.580179999999984,
0.180427037109375,0.0495120903320312,0.0113006318359403,0.187438168709061,0.583264999999983,
0.154090818847656,0.0495120903320312,-0.0677080229492155,0.17544173937202,0.586279999999988,
0.197186448730469,0.0135990654296875,0.0304542451171912,0.199987227565044,0.589317999999992,
0.163667625488281,0.0303584770507812,0.0304542451171912,0.169222308835074,0.59232499999996,
0.17085023046875,0.0207816704101562,-0.0341891997070274,0.175472449270158,0.595260999999994,
0.166061827148437,0.03754108203125,0.013694833496098,0.170802259178385,0.598317000000009,
0.142119810546875,-0.000766144531250068,0.0113006318359403,0.142570445069144,0.601301999999976,
0.182821238769531,0.0590888969726562,-0.13474566943359,0.234673173843491,0.604380999999989,
0.180427037109375,0.0135990654296875,0.0232716401367217,0.182429217877186,0.607416000000001,
0.192398045410156,0.0135990654296875,-0.022218191406246,0.194153522985224,0.610385000000008,
0.163667625488281,-0.00555454785156256,-0.137139871093746,0.213600769845094,0.613477999999986,
0.125360398925781,0.0950019218749999,-0.0796790312499969,0.176321702577172,0.616486000000009,
0.13254300390625,0.0159932670898437,0.0472136567382844,0.14160706853579,0.619593000000009,
0.259435691894531,0.0207816704101562,-0.0150355864257783,0.260700642333304,0.622614999999996,
0.149302415527344,0.130914946777344,0.00172382519531666,0.198577204495678,0.625703999999985,
0.237887876953125,0.00402225878906243,-0.170658694335934,0.29279892506544,0.628777000000014,
0.185215440429687,0.027964275390625,-0.0509486113281223,0.194119862631184,0.631772000000012,
0.201974852050781,-0.00555454785156256,-0.0246123930664037,0.203544746321848,0.634850999999969,
0.180427037109375,-0.0175255561523438,0.00172382519531666,0.181284396492971,0.637868999999966,
0.149302415527344,0.0159932670898437,-0.0294007963867156,0.15300785176807,0.64085,
0.187609642089844,0.0447236870117187,-0.0461602080078087,0.198313768529383,0.643901999999969,
0.1516966171875,-0.0151313544921876,-0.106015249511715,0.185688057461783,0.646830999999963,
0.19000384375,0.0255700737304687,-0.115592056152341,0.223867846632521,0.649926999999991,
0.180427037109375,0.0495120903320312,0.0232716401367217,0.188538940391018,0.652876999999989,
0.17085023046875,0.0112048637695312,0.0232716401367217,0.172791549150911,0.655848999999989,
0.144514012207031,0.0255700737304687,-0.00545877978515286,0.146860228351648,0.658995000000004,
0.146908213867187,0.0327526787109375,0.0208774384765658,0.151956009100436,0.661968000000002,
0.213945860351562,0.0806367119140625,-0.09643844287109,0.248144078577915,0.665061999999978,
0.175638633789062,0.066271501953125,-0.0437660063476528,0.192759707828255,0.667999000000009,
0.230705271972656,-0.000766144531250068,-0.077284829589841,0.243307324957862,0.671026999999981,
0.158879222167969,0.0806367119140625,0.00411802685547258,0.178218530714942,0.674032000000011,
0.175638633789062,-0.0175255561523438,-0.0533428129882783,0.184395039237068,0.676984000000004,
0.182821238769531,0.03754108203125,0.0113006318359403,0.186977652314907,0.680092000000002,
0.19000384375,0.027964275390625,0.0184832368164098,0.192938050630529,0.683070999999984,
0.194792247070312,0.00641646044921873,-0.0485544096679646,0.200854975496258,0.686092999999971,
0.178032835449219,0.00881066210937498,-0.00545877978515286,0.178334283136016,0.689071000000013,
0.137331407226562,0.00402225878906243,-0.125168862792965,0.185858382080223,0.692075999999986,
0.1516966171875,0.0112048637695312,-0.0413718046874969,0.157635779128106,0.695105000000012,
0.158879222167969,0.01838746875,-0.0126413847656224,0.160438495544316,0.698129999999992,
0.201974852050781,0.0159932670898437,0.0160890351562539,0.203244883097708,0.701221999999973,
0.180427037109375,0.0255700737304687,0.0304542451171912,0.184757152598505,0.704219999999964,
0.158879222167969,0.0543004936523437,0.0400310517578166,0.172608331063202,0.70716699999997,
0.158879222167969,0.01838746875,0.0113006318359403,0.160338424975495,0.710221999999987,
0.197186448730469,0.0830309135742187,0.0208774384765658,0.214970918054619,0.713210000000004,
0.194792247070312,0.0399352836914062,-0.0796790312499969,0.214213898762785,0.716255999999987,
0.185215440429687,-0.00555454785156256,-0.0246123930664037,0.186926141210515,0.719198000000006,
0.156485020507812,0.00641646044921873,-0.00545877978515286,0.156711616942617,0.722173999999995,
0.20915745703125,0.0231758720703125,-0.0629196196289037,0.219642530973044,0.725244999999973,
0.192398045410156,0.0327526787109375,-0.00785298144530877,0.195323872473312,0.728245000000015,
0.1516966171875,-0.0127371528320313,-0.0509486113281223,0.160529934045528,0.73127199999999,
0.156485020507812,0.0112048637695312,-0.0557370146484342,0.166492418498092,0.734262999999999,
0.163667625488281,0.027964275390625,-0.0437660063476528,0.171710674224749,0.73720800000001,
0.146908213867187,0.0519062919921874,-0.0341891997070274,0.159515478329322,0.740273000000002,
0.156485020507812,0.0207816704101562,-0.0341891997070274,0.161518856004411,0.74327199999999,
0.187609642089844,0.03754108203125,-0.022218191406246,0.192614533912996,0.74634599999996,
0.163667625488281,0.0351468803710937,-0.0294007963867156,0.169961176922747,0.749361999999962,
0.1516966171875,0.0399352836914062,-0.0724964262695273,0.172807471978202,0.752374999999972,
0.185215440429687,0.0423294853515625,-0.00306457812499694,0.1900156213125,0.755455999999981,
0.173244432128906,0.027964275390625,-0.00545877978515286,0.175571729610814,0.758458999999959,
0.197186448730469,0.0135990654296875,-0.0413718046874969,0.201938248894545,0.761528999999996,
0.166061827148437,-0.00794874951171881,-0.0246123930664037,0.168063925180667,0.764529999999979,
0.168456028808594,-0.00555454785156256,0.00651222851562849,0.168673340406944,0.76762500000001,
0.163667625488281,0.0135990654296875,-0.00785298144530877,0.164419267517872,0.770582999999988,
0.130148802246094,-0.0510443793945313,-0.0485544096679646,0.147992466335521,0.77350899999999,
0.137331407226562,0.0566946953124999,-0.00306457812499694,0.148605503015498,0.776589000000001,
0.185215440429687,-0.0175255561523438,-0.0748906279296833,0.200550518931551,0.779606999999999,
0.163667625488281,0.0782425102539062,0.0256658417968776,0.183214948841374,0.782625999999993,
0.137331407226562,0.0303584770507812,-0.0509486113281223,0.149590486114374,0.785573999999997,
0.163667625488281,0.00162805712890618,0.0496078583984403,0.171028307066014,0.788511999999969,
0.180427037109375,-0.0582269843750001,-0.0413718046874969,0.194051342826002,0.79155499999996,
0.154090818847656,0.07584830859375,-0.0485544096679646,0.178478225752831,0.794511,
0.158879222167969,0.01838746875,-0.098832644531246,0.188012227976721,0.797608999999966,
0.197186448730469,-0.000766144531250068,-0.0557370146484342,0.204913877866523,0.800630000000012,
0.134937205566406,0.0423294853515625,0.00651222851562849,0.141570632182096,0.803608999999994,
0.180427037109375,-0.000766144531250068,-0.0509486113281223,0.18748403583712,0.806650999999988,
0.1516966171875,0.07584830859375,-0.0150355864257783,0.170267138467265,0.809639000000004,
0.199580650390625,0.0207816704101562,-0.0198239897460901,0.201636565148373,0.81269599999996,
0.175638633789062,-0.000766144531250068,-0.09643844287109,0.200374374409832,0.815632999999991,
0.216340062011719,0.0543004936523437,-0.0461602080078087,0.227776932206593,0.818628999999987,
0.139725608886719,-0.00555454785156256,-0.0653138212890596,0.154337273631417,0.821709999999996,
0.156485020507812,0.0902135185546875,0.013694833496098,0.181145215332432,0.824687999999981,
0.201974852050781,0.03754108203125,-0.00306457812499694,0.205456967124739,0.827716000000009,
0.161273423828125,0.0471178886718749,0.0280600434570353,0.170342533458182,0.830703999999969,
0.166061827148437,0.0495120903320312,0.0113006318359403,0.173653913877045,0.833667999999989,
0.182821238769531,0.0399352836914062,-0.0341891997070274,0.190229686446007,0.836695999999961,
0.156485020507812,0.00162805712890618,-0.0820732329101528,0.176709444494825,0.839705999999978,
0.156485020507812,0.0351468803710937,-0.0677080229492155,0.1740897504589,0.842789999999979,
0.192398045410156,-0.00555454785156256,-0.022218191406246,0.193756313210301,0.845736999999986,
0.161273423828125,0.0303584770507812,-0.0102471831054647,0.164425542795776,0.848671999999965,
0.163667625488281,0.0303584770507812,-0.022218191406246,0.167935632881112,0.851729999999975,
0.178032835449219,0.00162805712890618,0.0184832368164098,0.178997125986187,0.854709000000014,
0.180427037109375,0.0399352836914062,0.00411802685547258,0.184839662271827,0.857743999999968,
0.175638633789062,0.0399352836914062,-0.0581312163085901,0.189269635367952,0.860687999999982,
0.173244432128906,0.03754108203125,-0.0270065947265596,0.179310686414583,0.863771999999983,
0.192398045410156,0.0543004936523437,-0.0796790312499969,0.215207573076494,0.866815999999972,
0.182821238769531,0.0351468803710937,-0.0270065947265596,0.188117688439366,0.869794000000013,
0.149302415527344,0.0351468803710937,-0.000670376464841027,0.153385018455924,0.872867999999983,
0.1516966171875,0.0207816704101562,-0.0533428129882783,0.162139437487212,0.875851000000011,
0.144514012207031,0.0327526787109375,-0.060525417968746,0.160063624559758,0.878858999999977,
0.163667625488281,0.00881066210937498,-0.0581312163085901,0.173907900077293,0.881902999999966,
0.194792247070312,0.0399352836914062,0.00890643017578441,0.199043138290901,0.884888999999987,
0.1516966171875,-0.0318907661132813,-0.0461602080078087,0.161739449216161,0.887972999999988,
0.149302415527344,0.0519062919921874,-0.0461602080078087,0.164670092105403,0.890973999999972,
0.163667625488281,0.0327526787109375,-0.0485544096679646,0.173831413426684,0.894133000000011,
0.199580650390625,0.00641646044921873,-0.0246123930664037,0.201194872865827,0.897139999999979,
0.139725608886719,0.01838746875,-0.022218191406246,0.142670924911704,0.900131999999985,
0.17085023046875,0.03754108203125,0.0160890351562539,0.175664427655576,0.903243999999972,
0.180427037109375,-0.00555454785156256,-0.0629196196289037,0.191163927706429,0.90630699999997,
0.139725608886719,0.0255700737304687,0.0280600434570353,0.144791023506834,0.90936499999998,
0.166061827148437,0.0399352836914062,-0.077284829589841,0.18746813650357,0.912352999999996,
0.1516966171875,0.0159932670898437,-0.101226846191404,0.183069720730098,0.915329999999983,
0.158879222167969,0.0135990654296875,0.035242648437503,0.163308254801002,0.918435999999986,
0.166061827148437,-0.0103429511718751,0.0160890351562539,0.167159696479386,0.921432999999979,
0.156485020507812,0.03754108203125,-0.0294007963867156,0.163588817807271,0.924483000000009,
0.163667625488281,0.0112048637695312,-0.0557370146484342,0.173260657412425,0.927450999999962,
0.146908213867187,-0.00316034619140632,0.0113006318359403,0.147376101758692,0.93041599999998,
0.139725608886719,0.0207816704101562,-0.0677080229492155,0.156650885651796,0.933456999999976,
0.168456028808594,0.0231758720703125,-0.0485544096679646,0.176839151169603,0.936440000000005,
0.182821238769531,0.0207816704101562,-0.0365834013671833,0.187600182371592,0.939597999999989,
0.194792247070312,0.0159932670898437,-0.0102471831054647,0.195716143617499,0.942580999999961,
0.134937205566406,0.00641646044921873,0.00651222851562849,0.135246550902441,0.945624000000009,
0.156485020507812,-0.00316034619140632,-0.00785298144530877,0.156713811608806,0.948650999999984,
0.168456028808594,0.00881066210937498,-0.0174297880859342,0.169584371100311,0.951656000000014,
0.168456028808594,0.0303584770507812,0.0424252534179725,0.176349008781971,0.954744000000005,
0.182821238769531,0.0351468803710937,0.0208774384765658,0.18733599756157,0.957746999999983,
0.139725608886719,0.00641646044921873,0.00411802685547258,0.139933465935219,0.960833999999977,
0.163667625488281,0.0255700737304687,0.0160890351562539,0.166432500899953,0.963812999999959,
0.178032835449219,0.0159932670898437,-0.0198239897460901,0.179845671784863,0.96675799999997,
0.149302415527344,0.0519062919921874,-0.0533428129882783,0.166826047511113,0.969833999999992,
0.1516966171875,0.0207816704101562,-0.0294007963867156,0.155910706237065,0.97287399999999,
0.149302415527344,0.0351468803710937,-0.060525417968746,0.164893422253318,0.975891999999988,
0.166061827148437,-0.0127371528320313,-0.0198239897460901,0.167725239804858,0.978894999999966,
0.187609642089844,0.01838746875,0.00172382519531666,0.188516440623664,0.981908999999973,
0.1516966171875,0.00641646044921873,0.0160890351562539,0.15268232275901,0.985004000000004,
0.187609642089844,0.027964275390625,-0.0246123930664037,0.19127244546891,0.987954000000002,
0.194792247070312,0.00402225878906243,-0.077284829589841,0.209602344856155,0.990996999999993,
0.13254300390625,0.0543004936523437,-0.0461602080078087,0.150489057072946,0.993975999999975,
0.204369053710937,0.0255700737304687,-0.00306457812499694,0.205985267493502,0.996947999999975,
0.1516966171875,0.027964275390625,0.00411802685547258,0.154307558173396,0.999978999999996,
0.158879222167969,0.0638773002929687,-0.0341891997070274,0.174619065700237,1.00295999999997,
0.166061827148437,0.0112048637695312,-0.0126413847656224,0.166918794678022,1.006033,
0.154090818847656,0.0135990654296875,-0.0126413847656224,0.155205411125046,1.00903299999999,
0.144514012207031,0.0447236870117187,0.00172382519531666,0.151286084876965,1.01201499999996,
0.17085023046875,0.0255700737304687,-0.060525417968746,0.18304905392298,1.01507799999996,
0.154090818847656,0.0495120903320312,-0.0246123930664037,0.163710712644724,1.01803999999998,
0.17085023046875,0.0303584770507812,-0.0461602080078087,0.179561140515959,1.02113099999997,
0.175638633789062,0.0495120903320312,-0.0317949980468715,0.185233092802383,1.024159,
0.187609642089844,0.0351468803710937,0.0424252534179725,0.195531539994136,1.02718299999998,
0.154090818847656,0.0399352836914062,-0.0677080229492155,0.172983189091732,1.03029900000001,
0.187609642089844,0.0543004936523437,-0.0294007963867156,0.197510324398854,1.03330699999998,
