X,Y,Z,Magnitude,Seconds,
0.189477119384766,3.80558353881836,-0.683065733642575,3.87103945293409,0.0,
0.122439472900391,3.72178648071289,-0.596874473876952,3.7713320153637,0.00298799999995936,
0.127227876220703,3.7648821105957,-0.632787498779294,3.81980945307257,0.00608599999998205,
0.0817380446777344,3.69784446411133,-0.575326658935545,3.74322528752792,0.0090979999999945,
0.136804682861328,3.72896908569336,-0.527442625732419,3.76857024436975,0.0122230000000627,
0.117651069580078,3.71460387573242,-0.570538255615231,3.76000500383977,0.0152550000000247,
0.0961032546386719,3.69784446411133,-0.534625230712889,3.73752774620146,0.0182600000000548,
0.0577960280761719,3.74094009399414,-0.486741197509764,3.77291533976944,0.0213469999999916,
0.0625844313964844,3.77685311889648,-0.462799180908201,3.80561681920561,0.0244109999999864,
0.0530076247558594,3.77206471557617,-0.450828172607419,3.79927994072476,0.0275070000000142,
0.0338540114746094,3.79840093383789,-0.426886156005857,3.82246354311757,0.0304879999999912,
-0.0140300217285156,3.8965632019043,-0.40533834106445,3.91761417174806,0.0334400000000414,
-0.0403662399902344,3.92050521850586,-0.379002122802731,3.93898885638835,0.0365189999999984,
-0.0475488449707031,3.97078345336914,-0.33590649291992,3.98524971591417,0.0395429999999806,
-0.0499430466308594,4.0713399230957,-0.357454307861326,4.08730677335435,0.042554999999993,
-0.0690966599121094,4.14556017456055,-0.319147081298826,4.15840093892052,0.0455140000000256,
-0.126557499755859,4.14077177124023,-0.343089097900389,4.15688799360081,0.0484260000000631,
-0.112192289794922,4.13358916625977,-0.371819517822264,4.15179434210597,0.051462000000015,
-0.169653129638672,4.15992538452148,-0.390973131103513,4.18170077581207,0.0543940000000021,
-0.124163298095703,4.20541521606445,-0.314358677978513,4.2189755916005,0.0575250000000551,
-0.152893718017578,4.18386740112305,-0.386184727783201,4.20443356032205,0.0604809999999816,
-0.193595146240234,4.15034857788086,-0.355060106201169,4.17000480546258,0.0635449999999764,
-0.210354557861328,4.12880076293945,-0.434068760986326,4.15688109877185,0.0665189999999711,
-0.236690776123047,4.1479543762207,-0.32872388793945,4.16768609964957,0.0694979999999532,
-0.260632792724609,4.09528193969727,-0.381396324462889,4.1212530587878,0.0725260000000389,
-0.253450187744141,4.0713399230957,-0.383790526123045,4.09723576756357,0.0754779999999755,
-0.217537162841797,4.06176311645508,-0.424491954345701,4.08967424750632,0.0785270000000082,
-0.167258927978516,4.0497921081543,-0.434068760986326,4.07642090043724,0.0815020000000004,
-0.229508171142578,4.05936891479492,-0.41252094604492,4.08672528045993,0.0844220000000178,
-0.169653129638672,4.02585009155273,-0.498712205810545,4.06016810098742,0.0874519999999848,
-0.138528508056641,4.03063849487305,-0.501106407470701,4.06403056773753,0.0904239999999845,
-0.112192289794922,4.04739790649414,-0.460404979248045,4.07504474433091,0.0934300000000121,
-0.0930386765136719,4.01866748657227,-0.393367332763669,4.03894570667223,0.0963930000000346,
-0.0355778366699219,4.04739790649414,-0.419703551025389,4.06925627930935,0.0993720000000167,
-0.0212126267089844,3.99951387329102,-0.383790526123045,4.01794180720938,0.102426000000037,
0.0194888015136719,3.95162984008789,-0.436462962646482,3.97570850594201,0.105384999999956,
0.0577960280761719,3.86543858032227,-0.417309349365231,3.88832906171441,0.108411000000046,
0.0961032546386719,3.79840093383789,-0.414915147705075,3.82220356202124,0.11137199999996,
0.115256867919922,3.80797774047852,-0.414915147705075,3.83224910429603,0.11433599999998,
0.182294514404297,3.79361253051758,-0.407732542724608,3.81981323471169,0.117369000000053,
0.208630732666016,3.77445891723633,-0.462799180908201,3.80844456207083,0.12032099999999,
0.191871321044922,3.73615169067383,-0.46998178588867,3.77048099565978,0.12340800000004,
0.141593086181641,3.70263286743164,-0.491529600830075,3.73779883106778,0.126423000000045,
0.132016279541016,3.70023866577148,-0.541807835693357,3.74202488133803,0.129390000000058,
0.134410481201172,3.69784446411133,-0.467587584228513,3.72971285853753,0.132415000000037,
0.179900312744141,3.62362421264648,-0.484346995849608,3.66027438444058,0.13538200000005,
0.203842329345703,3.68347925415039,-0.491529600830075,3.72171633248446,0.138415000000009,
0.213419135986328,3.58771118774414,-0.448433970947264,3.62192108149379,0.141424000000029,
0.201448127685547,3.56137496948242,-0.520260020751952,3.60480838750089,0.144428000000062,
0.215813337646484,3.53264454956055,-0.539413634033201,3.5801005542899,0.147555000000011,
0.213419135986328,3.53264454956055,-0.580115062255857,3.58631548062926,0.150522000000024,
0.261303169189453,3.54222135620117,-0.632787498779294,3.60777375969828,0.153639999999996,
0.285245185791016,3.5901053894043,-0.625604893798826,3.65535265141296,0.156611999999996,
0.275668379150391,3.61404740600586,-0.620816490478513,3.67732848994636,0.159680999999978,
0.323552412353516,3.62601841430664,-0.666306322021482,3.70089986614018,0.162706999999955,
0.340311823974609,3.63798942260742,-0.716584556884763,3.72347587661128,0.165761999999972,
0.333129218994141,3.70742127075195,-0.613633885498045,3.7725977920795,0.168799000000035,
0.330735017333984,3.69784446411133,-0.685459935302733,3.77535358017695,0.17177700000002,
0.304398799072266,3.73136328735352,-0.678277330322263,3.80470639444299,0.174848999999995,
0.230178547607422,3.7265748840332,-0.714190355224607,3.80136954183378,0.177858000000015,
0.191871321044922,3.75051690063477,-0.642364305419919,3.80996371723723,0.180823000000032,
0.0984974562988281,3.79121832885742,-0.589691868896482,3.83806913254626,0.183876000000055,
0.0601902297363281,3.85107337036133,-0.649546910400389,3.9059314070363,0.186822000000006,
0.0123061965332031,3.8798037902832,-0.611239683837889,3.92767651986098,0.189898999999969,
-0.0403662399902344,3.87740958862305,-0.625604893798826,3.92776221714374,0.192815999999993,
-0.0307894333496094,3.89416900024414,-0.649546910400389,3.94808958617698,0.195784000000003,
-0.0690966599121094,3.88459219360352,-0.683065733642575,3.94479526154312,0.198877000000039,
-0.0068474167480469,3.9348704284668,-0.692642540283201,3.99537305699337,0.201844000000051,
0.0530076247558594,3.93965883178711,-0.714190355224607,4.00422144525703,0.204942999999957,
0.0051235915527344,3.96838925170898,-0.613633885498045,4.01555550947826,0.207898999999998,
0.0170945998535156,3.98514866333008,-0.616028087158201,4.03251691854522,0.21087,
0.0147003981933594,4.00669647827148,-0.639970103759763,4.05751087545141,0.213923000000023,
0.0218830031738281,4.00669647827148,-0.625604893798826,4.05530233373124,0.216938000000027,
0.0242772048339844,4.02824429321289,-0.601662877197263,4.07300131184291,0.220027999999957,
-0.0116358200683594,3.99711967163086,-0.565749852294919,4.03697584300659,0.22302000000002,
-0.00445321508789065,4.01387908325195,-0.544202037353513,4.05060501450732,0.22593100000006,
-0.0283952316894531,4.01627328491211,-0.548990440673826,4.05372025332689,0.228960000000029,
-0.0475488449707031,3.94205303344727,-0.453222374267575,3.96830612877908,0.231969000000049,
-0.0834618698730469,3.95881244506836,-0.407732542724608,3.98062905648686,0.234971999999971,
-0.749049931396485,-2.78804783325195,-1.75087967407226,3.37636878218381,15.5973339999999,
-0.734684721435547,-2.62284791870117,-1.86101295043945,3.29885768808678,15.6016740000001,
-0.780174552978516,-2.52229144897461,-1.93762740356445,3.27490861578298,15.6046190000001,
-0.732290519775391,-2.39779296264648,-1.99748244506836,3.20555714586812,15.6075589999999,
-0.746655729736328,-2.25653506469727,-2.15071135131836,3.20546480149853,15.610581,
-0.753838334716797,-2.14161338500977,-2.35661269409179,3.27236970950658,15.6135310000001,
-0.670041276611328,-2.08415254516602,-2.42604454223633,3.26777282943591,15.6165440000001,
-0.567090605224609,-1.98359607543945,-2.51941840698242,3.25633448135701,15.619519,
-0.569484806884766,-1.8279729675293,-2.62955168334961,3.25274348369145,15.622475,
-0.531177580322266,-1.60770641479492,-2.64870529663086,3.14364585893674,15.6255179999999,
-0.559908000244141,-1.33476742553711,-2.58406185180664,2.96183671105865,15.6284910000001,
-0.710742704833985,-1.00915599975586,-2.51223580200195,2.7990855201616,15.6315069999999,
-0.804116569580078,-0.650025750732422,-2.40689092895508,2.61959173879723,15.6344499999999,
-0.974104887451172,-0.317231719970703,-2.31591126586914,2.53238253178532,15.6373930000001,
-1.01959471899414,-0.0107739074707032,-2.27520983764648,2.49324472794113,15.6404020000001,
-1.11296858374023,0.171185418701172,-2.13874034301758,2.41706718376208,15.64332,
-1.17282362524414,0.307654913330078,-2.1100099230957,2.43357939611373,15.6462970000001,
-1.23267866674805,0.448912811279297,-2.06691429321289,2.44809193109127,15.649227,
-1.20873665014648,0.535104071044922,-1.94481000854492,2.35152431958351,15.652117,
-1.23986127172852,0.506373651123047,-1.92326219360351,2.34363130910741,15.655089,
-1.19437144018555,0.422576593017578,-1.92326219360351,2.30304832329716,15.658024,
-1.10578597875977,0.319625921630859,-1.83467673217773,2.16586289321241,15.6610019999999,
-1.06747875219727,0.254982476806641,-1.72454345581055,2.04415681415347,15.6639260000001,
-1.03874833227539,0.187944830322266,-1.5737087512207,1.8949618969041,15.6669029999999,
-0.983681694091797,0.0490811340332031,-1.43005665161133,1.73640452079206,15.6698729999999,
-0.926220854248047,-0.0538695373535156,-1.38696102172851,1.66866649564641,15.6728200000001,
-0.873548417724609,-0.185550628662109,-1.27682774536133,1.55814151001459,15.6758599999999,
-0.852000602783203,-0.393846173095703,-1.32710598022461,1.62549380741761,15.6788290000001,
-0.880731022705078,-0.544680877685547,-1.28161614868164,1.64769667883169,15.68186,
-0.832846989501953,-0.752976422119141,-1.35823060180664,1.76221393930301,15.6848209999999,
-0.842423796142578,-0.846350286865234,-1.47075807983398,1.89449623641249,15.687755,
-0.854394804443359,-1.03070381469727,-1.46836387817383,1.98706650976181,15.6907789999999,
-0.902278837646485,-1.08098204956055,-1.45399866821289,2.02404086408888,15.693744,
-0.897490434326172,-1.10731826782227,-1.52582471801758,2.08800955363554,15.696779,
-0.952557072509766,-1.00915599975586,-1.50188270141601,2.04485022851168,15.6997190000001,
-0.959739677490234,-0.896628521728516,-1.50427690307617,1.99697069474105,15.702645,
-0.95016287084961,-0.800860455322266,-1.48751749145508,1.93827119811056,15.7056679999999,
-0.796933964599609,-0.762553228759766,-1.56173774291992,1.91196651337962,15.708608,
-0.722713713134766,-0.712274993896485,-1.74369706909179,2.01745638040642,15.711623,
-0.612580436767578,-0.647631549072266,-1.81073471557617,2.01827689504112,15.7145750000001,
-0.488081950439453,-0.573411297607422,-1.91129118530273,2.05427809743095,15.7175470000001,
-0.440197917236328,-0.417788189697266,-1.9567810168457,2.04873451810561,15.720612,
-0.327670439208984,-0.240617266845703,-1.94481000854492,1.98684437115044,15.7235730000001,
-0.219931364501953,-0.0035913024902344,-2.02142446166992,2.03335672147875,15.726601,
-0.0954328781738282,0.195127435302734,-2.07409689819336,2.08544002391334,15.7295519999999,
0.0434308181152344,0.427364996337891,-2.11479832641601,2.15798494838797,15.732519,
0.258908967529297,0.527921466064453,-2.24408521606445,2.31983908596216,15.735532,
0.400166865478516,0.611718524169922,-2.38773731567383,2.4971228567495,15.738514,
0.656346443115234,0.623689532470703,-2.49547639038086,2.65465284006248,15.741543,
0.766479719482422,0.650025750732422,-2.52660101196289,2.71914275289934,15.744507,
0.843094172607422,0.563834490966797,-2.62236907836914,2.81167862677707,15.747436,
0.941256440673828,0.520738861083984,-2.60321546508789,2.81671145242564,15.7504520000001,
1.01787089379883,0.429759197998047,-2.6080038684082,2.83239091622941,15.7534260000001,
1.08012013696289,0.360327349853516,-2.58406185180664,2.82380434224603,15.7564630000001,
1.18785921166992,0.302866510009766,-2.55772563354492,2.83631769132574,15.7594210000001,
1.32193450463867,0.152031805419922,-2.55293723022461,2.87890830105449,15.762548,
1.4464329909668,0.0251391174316406,-2.44759235717773,2.84315119532839,15.7656230000001,
1.5445952590332,-0.137666595458984,-2.31591126586914,2.78714398571597,15.7687030000001,
1.51586483911133,-0.185550628662109,-2.09564471313476,2.59306806889842,15.7718140000001,
1.34108811791992,-0.101753570556641,-1.99748244506836,2.40807127126738,15.774808,
0.898160810791016,0.0849941589355469,-1.56892034790039,1.80981432946858,15.7778340000001,
0.519876948486328,0.322020123291016,-1.24809732543945,1.38986184030677,15.780805,
0.179900312744141,0.503979449462891,-1.01107136108398,1.14395135613826,15.783789,
-0.102615483154297,0.650025750732422,-0.809958421630856,1.04359765176479,15.7868239999999,
-0.377948674072266,0.752976422119141,-0.671094725341794,1.0771196882807,15.7897610000001,
-0.679618083251953,0.738611212158203,-0.608845482177733,1.17393359393839,15.7927539999999,
-0.993258500732422,0.673967767333984,-0.663912120361326,1.37170488963372,15.7957030000001,
-1.42900320288086,0.724246002197266,-0.563355650634763,1.69822024915633,15.7986520000001,
-1.85038269506836,0.738611212158203,-0.465193382568357,2.04593927674299,15.8016510000001,
-2.25021437231445,0.755370623779297,-0.395761534423826,2.40638249095375,15.804624,
-2.58300840307617,0.887051715087891,-0.316752879638669,2.74938639379078,15.807637,
-2.81524596411133,0.949300958251953,-0.345483299560545,2.99101000634542,15.810576,
-2.98762848364258,1.03549221801758,-0.455616575927731,3.19464466789462,15.813491,
-3.11691537329102,1.06901104125977,-0.632787498779294,3.35534887443981,15.8165009999999,
-3.04269512182617,1.1384428894043,-0.936851109619138,3.38108500609118,15.8194360000001,
-2.8607357956543,1.12886608276367,-1.22654951049804,3.31097744284902,15.8224320000001,
-2.69314167944336,1.20308633422852,-1.42526824829101,3.27594542273661,15.8253570000001,
-2.58061420141602,1.37068045043945,-1.60962177612304,3.3360480835768,15.828267,
-2.57343159643555,1.51433255004883,-1.77721589233398,3.47480209244133,15.8312440000001,
-2.54470117651367,1.65559044799805,-1.92565639526367,3.5950850284621,15.8341810000001,
-2.52075915991211,1.91895263061523,-1.90171437866211,3.69501333134755,15.8371740000001,
-2.44414470678711,2.1344307800293,-1.92805059692383,3.77452211634138,15.840108,
-2.36034764868164,2.34512052612305,-1.83467673217773,3.79958813771637,15.8430219999999,
-2.27415638891602,2.5175030456543,-1.82270572387695,3.85121604457345,15.846011,
-2.09937966772461,2.59172329711914,-1.84664774047851,3.81241819787651,15.84894,
-1.98685218969727,2.70664497680664,-1.89932017700195,3.85758030233256,15.851949,
-2.02037101293945,2.74016380004883,-1.81312891723633,3.85717942952394,15.8548649999999,
-2.10177386938477,2.81198984985352,-1.83228253051758,3.96005045237402,15.8578510000001,
-2.33879983374023,2.81438405151367,-1.76285068237305,4.06182037762146,15.8607969999999,
-2.5542779831543,2.80241304321289,-1.73172606079101,4.1685405155305,15.863706,
-2.79609235083008,2.7688942199707,-1.78679269897461,4.32175147189963,15.8666979999999,
-2.84158218237305,2.72340438842773,-1.86580135375976,4.35577036283815,15.8696369999999,
-2.96608066870117,2.68030875854492,-1.78439849731445,4.37787249375693,15.872612,
-3.05466613012695,2.66833775024414,-1.83467673217773,4.45163455682484,15.875547,
-3.2055008347168,2.60608850708008,-1.82031152221679,4.51447305297309,15.8784469999999,
-3.3970369675293,2.58454069213867,-1.71975505249023,4.60187659424359,15.8814430000001,
-3.66997595678711,2.63003052368164,-1.58089135620117,4.78382708289129,15.884369,
-3.94530914770508,2.56299287719727,-1.55216093627929,4.9541498091641,15.8873649999999,
-4.14402788549805,2.51989724731445,-1.54018992797851,5.0887163673224,15.8902770000001,
-4.31162200170898,2.3259669128418,-1.72214925415039,5.19288016603758,15.8931920000001,
-4.41696687475586,2.16555540161133,-1.77242748901367,5.22883598652222,15.896192,
-4.48639872290039,2.04823952026367,-1.88495496704101,5.27978350512451,15.899131,
-4.73060729223633,2.01472069702148,-1.97114622680664,5.50664710035247,15.902217,
-4.91496082006836,2.00993229370117,-1.91607958862305,5.6451774709045,15.9052350000001,
-5.1208621628418,1.97641347045898,-2.10043311645508,5.87718119286259,15.9082320000001,
-5.26212006079102,2.03866271362305,-2.10522151977539,6.02312301397054,15.911236,
-5.28127367407227,2.08175834350586,-2.16747076293945,6.07647092722432,15.9141659999999,
-5.29803308569336,2.14161338500977,-2.17225916625976,6.11345829734317,15.9171849999999,
-5.24536064916992,2.16076699829102,-2.23450840942383,6.09719199242977,15.9201440000001,
-5.22860123754883,2.22062203979492,-2.24169101440429,6.10693145114476,15.9230920000001,
-5.19268821264649,2.21583363647461,-2.31112286254883,6.10042772796186,15.9260829999999,
-5.19029401098633,2.26850607299805,-2.40689092895508,6.15454268549628,15.9290460000001,
-5.22620703588867,2.2325930480957,-2.47871697875976,6.2001410920373,15.932066,
-5.3507055222168,2.25653506469727,-2.35661269409179,6.26702668525069,15.935034,
-5.4656272019043,2.29963069458008,-2.31112286254883,6.3641708750981,15.9379709999999,
-5.49914602514649,2.2876596862793,-2.31591126586914,6.39041773575808,15.9409930000001,
-5.55900106665039,2.16555540161133,-2.29675765258789,6.39274735705934,15.943958,
-5.4273199753418,1.98599027709961,-2.45956336547851,6.28087664616033,15.9469780000001,
-5.37464753881836,1.95007725219727,-2.47871697875976,6.23166713784164,15.949911,
-5.35309972387695,1.90937582397461,-2.59603286010742,6.24826210251361,15.9529040000001,
-5.47280980688477,1.87825120239258,-2.51941840698242,6.31085920228499,15.95583,
-5.54463585668945,1.91177002563477,-2.47392857543945,6.36538875565176,15.958739,
-5.64519232641602,1.99317288208008,-2.3398532824707,6.42774049908478,15.961727,
-5.81996904760742,2.11527716674805,-2.07888530151367,6.53209011757521,15.9646550000001,
-6.00432257543945,2.32117850952148,-1.73651446411133,6.66747641518619,15.9676450000001,
-6.25810795141602,2.50313783569336,-1.45639286987304,6.8957011498087,15.970584,
-6.46400929418945,2.64200153198242,-1.14275245239258,7.07597847776647,15.973505,
-6.66033383032227,2.80959564819336,-0.96797573120117,7.29320584200643,15.9765040000001,
-6.86862937475586,2.8838158996582,-0.707007750244138,7.48293549282538,15.979428,
-7.00988727270508,3.01310278930664,-0.582509263916013,7.65223006956195,15.9824319999999,
-7.21339441381836,3.1519664855957,-0.422097752685545,7.88328092918467,15.9853690000001,
-7.53900583959961,3.28604177856445,-0.355060106201169,8.23169164260929,15.9882920000001,
-7.79518541723633,3.52546194458008,-0.201831199951169,8.55771777082243,15.9912869999999,
-8.14952726293945,3.78403572387695,-0.0629675036621062,8.98541517546562,15.9942259999999,
-8.4918981003418,3.98514866333008,-0.0797269152832012,9.38083682815402,15.9972409999999,
-8.6451270065918,4.10725294799805,-0.295205064697264,9.57574507645042,16.000185,
-8.87736456762696,4.22696303100586,-0.501106407470701,9.84509653399381,16.0030969999999,
-8.9515848190918,4.23414563598633,-0.764468590087889,9.93193195029888,16.0061079999999,
-9.05932389379883,4.30836588745117,-1.21697270385742,10.1051664308334,16.009044,
-9.06890070043946,4.32273109741211,-1.48512328979492,10.1556169305885,16.0120579999999,
-9.02101666723633,4.35864412231445,-1.83228253051758,10.184978132877,16.0150030000001,
-8.78877910620117,4.3179426940918,-2.23450840942383,10.0439183150225,16.0179380000001,
-8.46795608374024,4.24851084594727,-2.65828210327148,9.83984696958536,16.0209470000001,
-8.12079684301758,4.17907899780273,-3.04135436889648,9.62610404227203,16.023883,
-7.93165491186524,4.07612832641602,-3.29513974487304,9.5070456879395,16.0268890000001,
-7.82152163549805,4.05697471313477,-3.46273386108398,9.46708879805596,16.0298329999999,
-7.54618844458008,3.97078345336914,-3.66145259887695,9.27999549614583,16.0327510000001,
-7.4576029831543,3.90614000854492,-3.64708738891601,9.17469446047646,16.035749,
-7.27803785864258,3.83431395874024,-3.74046125366211,9.03674991333568,16.038741,
-7.1343857590332,3.81037194213867,-3.73088444702148,8.90718211631267,16.0418410000001,
-7.03382928930664,3.74094009399414,-3.63751058227539,8.75790331609834,16.0448740000001,
-7.04101189428711,3.6882676574707,-3.49625268432617,8.68348718207696,16.0479469999999,
-7.07931912084961,3.65714303588867,-3.49385848266601,8.70048857804395,16.050879,
-7.1511451706543,3.75530530395508,-3.19458327514648,8.68599778261145,16.0538029999999,
-7.23494222875977,3.82713135375977,-3.07247899047851,8.74250825560687,16.0568050000001,
-7.39056533666992,3.95162984008789,-2.9695283190918,8.89122785820655,16.0597759999999,
-7.72335936743164,4.02824429321289,-2.84981823608398,9.16506933869096,16.062757,
-8.02742297827148,4.09767614135742,-2.71574294311523,9.41306162545487,16.0656740000001,
-8.28599675756836,4.20062681274414,-2.72053134643554,9.68009807250509,16.068588,
-8.58048356176758,4.33709630737305,-2.70377193481445,9.98726615289103,16.071611,
-8.8366631394043,4.4711716003418,-2.68701252319336,10.2614827007995,16.0745579999999,
-9.13354414526367,4.61482369995117,-2.79235739624023,10.6073317221368,16.07758,
-9.38732952124024,4.71777437133789,-2.76362697631836,10.8635622437318,16.080552,
-9.64829750219727,4.77044680786133,-2.84502983276367,11.1328793304722,16.083487,
-9.87814086157227,4.91888731079102,-2.8929138659668,11.4079827267238,16.0864760000001,
-9.9475727097168,5.02662638549805,-2.8546066394043,11.5052142396488,16.089415,
-9.93560170141602,5.06253941040039,-2.8546066394043,11.510615340492,16.0924100000001,
-9.80631481176758,5.2205567199707,-2.89051966430664,11.4792476488517,16.0953350000001,
-9.66984531713867,5.24928713989258,-2.85939504272461,11.3682480596083,16.0982290000001,
-9.52858741918945,5.41927545776367,-2.8546066394043,11.3274579565755,16.1012260000001,
-9.41845414282227,5.4671594909668,-2.78038638793945,11.2395578118693,16.104154,
-9.24846582495117,5.57489856567383,-2.80432840454101,11.1569651757706,16.107149,
-9.0497470871582,5.62278259887695,-2.70377193481445,10.9919965962173,16.1100869999999,
-8.97073843237305,5.68503184204102,-2.70856033813476,10.9603847638845,16.1130079999999,
-8.79596171118164,5.62278259887695,-2.72531974975586,10.7894390177254,16.116007,
-8.70977045141602,5.53659133911133,-2.73250235473633,10.6761657017546,16.118949,
-8.6451270065918,5.51264932250977,-2.73250235473633,10.6110363599278,16.1219540000001,
-8.56372415014649,5.40491024780273,-2.76362697631836,10.4970500699406,16.124893,
-8.53499373022461,5.3905450378418,-2.88094285766601,10.4978057483034,16.1278140000001,
-8.48710969702149,5.38575663452148,-2.84502983276367,10.4466071183367,16.1308190000001,
-8.40331263891602,5.3522378112793,-2.97192252075195,10.3968474243497,16.133751,
-8.43443726049805,5.42645806274414,-3.03896016723633,10.4795733646961,16.13677,
-8.38655322729492,5.47673629760742,-3.17782386352539,10.508448030769,16.1397000000001,
-8.42964885717774,5.59884058227539,-3.12515142700195,10.5911551382625,16.1427,
-8.44880247045899,5.70657965698242,-3.11078621704101,10.6594702239113,16.145637,
-8.54696473852539,5.79277091674805,-3.07966159545898,10.7745587695304,16.148562,
-8.59724297338867,5.8334723449707,-3.10360361206055,10.8431702801263,16.1515619999999,
-8.58766616674805,5.70657965698242,-3.29992814819336,10.8260143800123,16.154494,
-8.48710969702149,5.46476528930664,-3.37893680297851,10.6448064611344,16.15747,
-8.32909238745117,5.1056350402832,-3.51780049926758,10.3834584564061,16.160397,
-8.25008373266602,4.71777437133789,-3.53216570922851,10.1389087781823,16.163293,
-8.23332432104492,4.51666143188477,-3.41724402954101,9.99326856555046,16.1662890000001,
-8.33388079077149,4.44962378540039,-3.30711075317383,10.0094806258941,16.169221,
-8.41767784887695,4.4927194152832,-3.08684420043945,10.0284812025412,16.1722189999999,
-8.29557356420898,4.56693966674805,-2.92164428588867,9.9100698288249,16.1751439999999,
-8.05136499487305,4.70340916137695,-2.75165596801758,9.72204436249488,16.178147,
-7.70181155249024,4.80396563110352,-2.65588790161133,9.45778660791315,16.181236,
-7.34028710180664,4.90212789916992,-2.38534311401367,9.14333278669991,16.1842680000001,
-7.02664668432617,4.99789596557617,-2.17944177124023,8.89396953802414,16.1872810000001,
-6.83989895483399,5.12000025024414,-1.88256076538086,8.74886594423474,16.190213,
-6.72737147680664,5.18943209838867,-1.66229421264648,8.65742193381703,16.1931169999999,
-6.6363918137207,5.20140310668945,-1.49470009643554,8.56331822144794,16.196135,
-6.66991063696289,5.2971711730957,-1.16190606567383,8.59638040384419,16.199088,
-6.64596862036133,5.27322915649414,-0.900938084716795,8.53156105717005,16.202081,
-6.57893097387695,5.1439422668457,-0.675883128662107,8.3785018235535,16.2050250000001,
-6.45682668920899,5.0074727722168,-0.496318004150389,8.18606902122245,16.207947,
-6.27965576635742,4.80875403442383,-0.414915147705075,7.92024914300861,16.210948,
-6.03544719702149,4.5860932800293,-0.36703111450195,7.58904383174698,16.2138980000001,
-5.92052551733399,4.34427891235352,-0.326329686279294,7.35063757329046,16.2168989999999,
-5.67631694799805,4.09049353637695,-0.402944139404294,7.00821485435141,16.2198520000001,
-5.48956921850586,3.7648821105957,-0.462799180908201,6.67262246746359,16.2227810000001,
-5.36267653051758,3.42490547485352,-0.517865819091794,6.38407879722903,16.2257880000001,
-5.14480417944336,3.00352598266602,-0.668700523681638,5.99477595609209,16.2287219999999,
-4.86947098852539,2.49834943237305,-0.608845482177733,5.50674045289021,16.2317180000001,
-4.5678015793457,2.04584531860352,-0.711796153564451,5.05538802666563,16.2346329999999,
-4.31401620336914,1.52390935668945,-0.793199010009763,4.64351162374098,16.237616,
-4.03628881079102,0.958877764892578,-0.824323631591795,4.22972615918842,16.2405359999999,
-3.78489763647461,0.451307012939453,-0.81474682495117,3.89781227450572,16.243466,
-3.61490931860352,-0.0442927307128907,-0.800381614990233,3.70272088569135,16.246483,
-3.5335064621582,-0.432153399658203,-0.726161363525389,3.63314392844916,16.2494559999999,
-3.48562242895508,-0.776918438720703,-0.620816490478513,3.62471779487852,16.252468,
-3.49759343725586,-1.05225162963867,-0.58490346557617,3.69898707870892,16.2554260000001,
-3.40421957250977,-1.22463414916992,-0.611239683837889,3.66906713597202,16.25835,
-3.28929789282227,-1.39701666870117,-0.702219346923826,3.6420115611497,16.2613729999999,
-3.06184873510742,-1.5598223815918,-0.805170018310545,3.52934304045099,16.2643220000001,
-2.78651554418945,-1.66037885131836,-0.977552537841795,3.38779216779242,16.26734,
-2.52075915991211,-1.63164843139648,-1.15951186401367,3.2188462387551,16.2702840000001,
-2.25979117895508,-1.61249481811523,-1.27443354370117,3.05466472272202,16.2732279999999,
-2.09937966772461,-1.48081372680664,-1.38456682006836,2.91842929706866,16.276246,
-1.89587252661133,-1.3682862487793,-1.51385370971679,2.78537124099849,16.2792089999999,
-1.6947595871582,-1.20787473754883,-1.48512328979492,2.55670933540842,16.2822279999999,
-1.57265530249023,-1.05943423461914,-1.51864211303711,2.42938664387197,16.2851850000001,
-1.41224379125977,-0.877474908447266,-1.50188270141601,2.24054600258931,16.2881160000001,
-1.30689891821289,-0.731428607177735,-1.50427690307617,2.12269206220601,16.291128,
-1.21831345678711,-0.547075079345703,-1.45160446655273,1.97249444834339,16.294082,
-1.12493959204102,-0.264559283447266,-1.44202765991211,1.84795142580944,16.297105,
-1.09381497045898,-0.0179565124511719,-1.46118127319336,1.82532307799758,16.3000659999999,
-1.06269034887695,0.274136090087891,-1.41090303833008,1.78748671521048,16.3029700000001,
-1.06508455053711,0.530315667724609,-1.48272908813476,1.90108531003424,16.3059500000001,
-1.12733379370117,0.776918438720703,-1.41090303833008,1.96599367405237,16.3088859999999,
