X,Y,Z,Magnitude,Seconds,
-0.176309010253906,0.128520745117187,-0.038977603027341,0.221634163792377,0.0,
-0.157155396972656,0.116549736816406,-0.00785298144530877,0.195814527722504,0.00391700000000128,
-0.147578590332031,0.162039568359375,-0.0126413847656224,0.219536025852876,0.00787100000002283,
-0.149972791992188,0.197952593261719,-0.0485544096679646,0.253050584301195,0.0118069999999761,
-0.159549598632813,0.183587383300781,-0.117986257812497,0.270335271031578,0.0157329999999547,
-0.171520606933594,0.150068560058594,-0.0677080229492155,0.237748328474923,0.0195949999999812,
-0.142790187011719,0.162039568359375,-0.0916500395507782,0.234617963870189,0.0234070000000202,
-0.166732203613281,0.193164189941406,-0.115592056152341,0.280131318211632,0.0273489999999583,
-0.188280018554688,0.195558391601563,0.0113006318359403,0.271698645916087,0.0313059999999723,
-0.169126405273438,0.159645366699219,-0.0844674345703087,0.247437126503143,0.0352209999999786,
-0.171520606933594,0.15246276171875,-0.060525417968746,0.237334233801338,0.0390780000000177,
-0.193068421875,0.197952593261719,0.0232716401367217,0.27749272772272,0.0430470000000014,
-0.183491615234375,0.171616375,-0.0461602080078087,0.255444940902702,0.0470820000000458,
-0.138001783691406,0.166827971679687,-0.022218191406246,0.21764584183056,0.0511370000000397,
-0.233769850097656,0.150068560058594,-0.0509486113281223,0.282426409050224,0.0550789999999779,
-0.149972791992188,0.15246276171875,-0.0246123930664037,0.215273086894984,0.0590200000000323,
-0.171520606933594,0.19076998828125,-0.0437660063476528,0.260245980455644,0.0628830000000562,
-0.161943800292969,0.185981584960938,-0.0653138212890596,0.255109466012711,0.0667680000000246,
-0.176309010253906,0.15246276171875,-0.0461602080078087,0.23761423697023,0.0707569999999578,
-0.149972791992188,0.185981584960938,-0.00785298144530877,0.239045304492882,0.0747230000000627,
-0.17391480859375,0.178798979980469,-0.0748906279296833,0.260430493686817,0.0786259999999857,
-0.200251026855469,0.147674358398437,-0.0341891997070274,0.251151530478448,0.0825509999999667,
-0.178703211914063,0.147674358398437,-0.077284829589841,0.244367548912541,0.0864500000000135,
-0.197856825195313,0.169222173339844,-0.0150355864257783,0.260786380176181,0.0903120000000399,
-0.171520606933594,0.162039568359375,-0.0461602080078087,0.240430665931543,0.0941340000000537,
-0.169126405273438,0.233865618164062,-0.0341891997070274,0.290629953199221,0.0979290000000219,
-0.1547611953125,0.178798979980469,0.0232716401367217,0.237616649356191,0.101914999999963,
-0.185885816894531,0.176404778320312,0.0256658417968776,0.257547894908749,0.105795000000057,
-0.138001783691406,0.188375786621094,-0.0461602080078087,0.2380350690349,0.109585000000038,
-0.185885816894531,0.193164189941406,-0.00545877978515286,0.268133808899605,0.113452000000052,
-0.152366993652344,0.142885955078125,-0.0365834013671833,0.21206235443575,0.11748399999999,
-0.171520606933594,0.205135198242187,-0.0724964262695273,0.27704782977418,0.121366999999964,
-0.161943800292969,0.181193181640625,-0.0126413847656224,0.243344546138133,0.125431000000049,
-0.188280018554688,0.15246276171875,-0.0820732329101528,0.255793421843069,0.129365000000007,
-0.171520606933594,0.169222173339844,-0.0820732329101528,0.254541702109994,0.133260000000064,
-0.171520606933594,0.176404778320312,0.00411802685547258,0.246079098182453,0.137113999999997,
-0.176309010253906,0.159645366699219,-0.0748906279296833,0.249359412007934,0.141031999999996,
-0.193068421875,0.150068560058594,-0.077284829589841,0.256454543980202,0.144997999999987,
-0.164338001953125,0.147674358398437,-0.0294007963867156,0.222888092644064,0.14892199999997,
-0.17391480859375,0.157251165039062,-0.0317949980468715,0.236611942756793,0.15297099999998,
-0.17391480859375,0.207529399902344,-0.122774661132809,0.297301917061266,0.156876000000011,
-0.159549598632813,0.1333091484375,-0.0294007963867156,0.209980499830808,0.160780000000045,
-0.1547611953125,0.138097551757812,-0.0748906279296833,0.220523394513502,0.164670999999998,
-0.159549598632813,0.140491753417969,-0.0653138212890596,0.222395823822585,0.168522000000053,
-0.17391480859375,0.140491753417969,-0.0701022246093714,0.234304535427377,0.172377999999981,
-0.142790187011719,0.193164189941406,-0.060525417968746,0.247719131281483,0.176368000000025,
-0.176309010253906,0.19076998828125,-0.0246123930664037,0.260928774607163,0.180315000000064,
-0.1547611953125,0.157251165039062,-0.060525417968746,0.228784358514711,0.184157000000027,
-0.183491615234375,0.130914946777344,-0.0653138212890596,0.234678059056261,0.188123000000019,
-0.166732203613281,0.183587383300781,-0.101226846191404,0.267863452936056,0.192082000000028,
-0.178703211914063,0.164433770019531,-0.022218191406246,0.243858464484223,0.195987000000059,
-0.219404640136719,0.181193181640625,-0.038977603027341,0.287208319385655,0.200026999999977,
-0.181097413574219,0.166827971679687,0.00172382519531666,0.246233257118802,0.203981999999996,
-0.17391480859375,0.164433770019531,-0.0174297880859342,0.239976296503962,0.207859999999982,
-0.159549598632813,0.22907721484375,0.0208774384765658,0.279943408962962,0.211736999999971,
-0.118848170410156,0.200346794921875,0.00172382519531666,0.232952135466953,0.215726000000018,
-0.214616236816406,0.169222173339844,-0.0174297880859342,0.273861407591169,0.219676000000049,
-0.161943800292969,0.15246276171875,-0.0174297880859342,0.223101962512565,0.223565000000008,
-0.161943800292969,0.169222173339844,-0.0485544096679646,0.239205913600382,0.22773600000005,
-0.17391480859375,0.162039568359375,-0.0365834013671833,0.240502656155573,0.231728999999973,
-0.138001783691406,0.15246276171875,-0.0461602080078087,0.210760885403915,0.235723000000007,
-0.164338001953125,0.181193181640625,-0.00306457812499694,0.244637159070494,0.239634000000024,
-0.171520606933594,0.19076998828125,-0.0365834013671833,0.259134814888484,0.243574999999964,
-0.171520606933594,0.169222173339844,0.0184832368164098,0.241654903935219,0.247510000000034,
-0.209827833496094,0.181193181640625,-0.0701022246093714,0.285959806053053,0.251602000000048,
-0.202645228515625,0.147674358398437,-0.0557370146484342,0.256864593843643,0.255513000000064,
-0.161943800292969,0.162039568359375,-0.0461602080078087,0.233695059791057,0.259384999999952,
-0.171520606933594,0.19076998828125,-0.0820732329101528,0.269348329476945,0.263386999999966,
-0.133213380371094,0.214712004882812,-0.0533428129882783,0.258248921485053,0.267346999999972,
-0.142790187011719,0.193164189941406,-0.00306457812499694,0.240230791993128,0.271431000000007,
-0.1547611953125,0.157251165039062,-0.0461602080078087,0.225410117971711,0.275369999999953,
-0.17391480859375,0.169222173339844,0.013694833496098,0.243043315198231,0.27948200000003,
-0.176309010253906,0.2099236015625,-0.0485544096679646,0.27840674612496,0.860119000000054,
-0.219404640136719,0.164433770019531,-0.0557370146484342,0.27979184340913,0.864443000000051,
-0.147578590332031,0.162039568359375,0.00651222851562849,0.219268491030339,0.868313000000057,
-0.17391480859375,0.150068560058594,-0.0461602080078087,0.234302578239303,0.872172999999975,
-0.193068421875,0.176404778320312,0.00890643017578441,0.261674197883585,0.876062000000047,
-0.149972791992188,0.135703350097656,0.00890643017578441,0.202451381976353,0.879993000000013,
-0.346297328125,0.0351468803710937,-0.343041213867185,0.488706882576668,0.883722000000034,
-0.106877162109375,0.288932256347656,0.320152645996098,0.444299778614624,0.887381000000005,
-0.322355311523438,0.0734541069335937,-0.405290457031247,0.523038055263077,0.891096000000061,
0.0846589707031248,0.183587383300781,0.265086007812503,0.33337975368296,0.894025000000056,
-0.317566908203125,0.185981584960938,-0.297551382324215,0.473259671061592,0.896909000000051,
-0.0350511123046877,0.276961248046875,0.20283676464844,0.345078058541144,0.899913999999967,
-0.205039430175782,0.269778643066406,-0.0174297880859342,0.339301461379525,0.90282000000002,
-0.188280018554688,0.00641646044921873,-0.345435415527341,0.393466850766613,0.905806999999982,
-0.149972791992188,0.226683013183594,0.190865756347661,0.332124620812866,0.908722000000012,
-0.329537916503907,0.135703350097656,-0.163476089355465,0.392090639307314,0.911615999999981,
-0.11645396875,0.145280156738281,0.0974918916015657,0.210172595044114,0.914657000000034,
-0.197856825195313,0.221894609863281,-0.0294007963867156,0.298745624220539,0.917685000000006,
-0.1547611953125,0.126126543457031,-0.125168862792965,0.235639930300143,0.920798999999988,
-0.17391480859375,0.243442424804687,0.035242648437503,0.301251753707553,0.923819999999978,
-0.13560758203125,0.15246276171875,-0.137139871093746,0.245848844330983,0.926740999999993,
-0.111665565429688,0.217106206542969,0.0639730683593775,0.252382362492952,0.929752000000008,
-0.188280018554688,0.154856963378906,-0.0820732329101528,0.25722764247688,0.932663000000048,
-0.128424977050781,0.150068560058594,0.00890643017578441,0.197719174454653,0.935694000000012,
-0.17391480859375,0.159645366699219,-0.0557370146484342,0.242568791394624,0.938618000000019,
-0.145184388671875,0.142885955078125,0.052002060058598,0.210235860696866,0.941522999999961,
-0.142790187011719,0.171616375,0.0184832368164098,0.224015284563785,0.944520000000011,
-0.166732203613281,0.15246276171875,-0.113197854492183,0.252701950317528,0.947432000000049,
-0.161943800292969,0.202740996582031,-0.0916500395507782,0.275189817940387,0.950443000000064,
-0.2313756484375,0.178798979980469,-0.0724964262695273,0.301263170257804,0.953371000000061,
-0.17391480859375,0.178798979980469,0.0113006318359403,0.249686083252848,0.956406000000015,
-0.197856825195313,0.159645366699219,-0.0724964262695273,0.26436659812985,0.959322000000043,
-0.202645228515625,0.193164189941406,0.0783382783203166,0.290713568252431,0.962236999999959,
-0.185885816894531,0.164433770019531,-0.0174297880859342,0.248788663644676,0.96523000000002,
-0.190674220214844,0.217106206542969,0.00651222851562849,0.289022788537957,0.968155000000024,
-0.178703211914063,0.164433770019531,-0.0365834013671833,0.245584299023433,0.971119000000044,
-0.1547611953125,0.174010576660156,0.0232716401367217,0.23403477860952,0.974079999999958,
-0.140395985351563,0.15246276171875,-0.0198239897460901,0.208204027298219,0.976982000000021,
-0.138001783691406,0.212317803222656,-0.0198239897460901,0.254000654402223,0.979987000000051,
-0.149972791992188,0.15246276171875,0.013694833496098,0.214299511229788,0.982913000000053,
-0.111665565429688,0.185981584960938,-0.0701022246093714,0.227975152905963,0.985900000000015,
-0.142790187011719,0.169222173339844,-0.00545877978515286,0.221483587955055,0.988815000000045,
-0.171520606933594,0.150068560058594,-0.10362104785156,0.250354174877879,0.991710000000012,
-0.138001783691406,0.135703350097656,-0.060525417968746,0.202788603599976,0.994700999999964,
-0.145184388671875,0.183587383300781,-0.0701022246093714,0.244330014358525,0.997606000000019,
-0.152366993652344,0.164433770019531,-0.0150355864257783,0.224678068214627,1.00059099999999,
-0.166732203613281,0.176404778320312,-0.0246123930664037,0.243975497598498,1.00349000000006,
-0.147578590332031,0.171616375,-0.0317949980468715,0.228566275713043,1.00639100000001,
-0.207433631835938,0.205135198242187,-0.00306457812499694,0.291750840296293,1.00938900000006,
-0.183491615234375,0.188375786621094,-0.0820732329101528,0.275482531944877,1.01230399999997,
-0.181097413574219,0.15246276171875,-0.00785298144530877,0.236860372860807,1.01530000000002,
-0.169126405273438,0.147674358398437,-0.00306457812499694,0.224545872213651,1.01823200000001,
-0.13560758203125,0.202740996582031,-0.0940442412109341,0.261414703688178,1.02118900000005,
-0.149972791992188,0.185981584960938,-0.0437660063476528,0.242891851642119,1.02431300000001,
-0.161943800292969,0.22907721484375,-0.0437660063476528,0.283932435846138,1.02734799999996,
-0.169126405273438,0.195558391601563,-0.0868616362304646,0.272748545981713,1.03044999999997,
-0.176309010253906,0.19076998828125,-0.00545877978515286,0.259822735345241,1.03338099999996,
-0.121242372070313,0.166827971679687,-0.0533428129882783,0.213018169688638,1.03630199999998,
-0.152366993652344,0.193164189941406,0.00890643017578441,0.246185762238293,1.03931299999999,
-0.193068421875,0.116549736816406,-0.0557370146484342,0.232305556281369,1.04226300000005,
-0.164338001953125,0.15246276171875,-0.0533428129882783,0.230428575255666,1.04530699999998,
-0.176309010253906,0.159645366699219,-0.09643844287109,0.256655183989415,1.04823699999997,
-0.130819178710938,0.176404778320312,0.00172382519531666,0.219625305705301,1.05126700000005,
-0.152366993652344,0.195558391601563,-0.000670376464841027,0.247909730920446,1.05422099999998,
-0.164338001953125,0.19076998828125,-0.0509486113281223,0.256896726937183,1.05716500000005,
-0.197856825195313,0.185981584960938,-0.098832644531246,0.288971218023509,1.060205,
-0.152366993652344,0.205135198242187,-0.117986257812497,0.281454982803844,1.06317000000001,
-0.190674220214844,0.159645366699219,-0.132351467773434,0.281709446744069,1.06618800000001,
-0.0925119521484377,0.315268474609375,0.243538192871098,0.408978634845094,1.06914800000004,
-0.293624891601563,0.0519062919921874,-0.395713650390622,0.495478690986685,1.07206600000006,
-0.0661757338867189,0.281749651367187,0.243538192871098,0.37824984492779,1.07511399999999,
-0.272077076660156,0.0638773002929687,-0.252061550781246,0.376352588032687,1.07805900000005,
-0.0925119521484377,0.109367131835937,0.0903092866210979,0.169338117582385,1.08109000000002,
-0.221798841796875,0.181193181640625,-0.0581312163085901,0.292241225026525,1.08401500000002,
-0.118848170410156,0.162039568359375,-0.060525417968746,0.209869091445657,1.08691299999998,
-0.176309010253906,0.226683013183594,0.0855208833007843,0.29963957856607,1.08991300000002,
-0.147578590332031,0.164433770019531,-0.098832644531246,0.242045030257317,1.092849,
-0.145184388671875,0.157251165039062,-0.0437660063476528,0.21845342508597,1.09586200000001,
-0.1547611953125,0.0997903251953124,-0.156293484374997,0.241530101302545,1.09876900000006,
-0.147578590332031,0.195558391601563,0.00890643017578441,0.245156785238867,1.10167799999999,
-0.185885816894531,0.154856963378906,-0.0844674345703087,0.256259562811561,1.10466900000006,
-0.149972791992188,0.169222173339844,-0.0317949980468715,0.228339449479481,1.10758199999998,
-0.169126405273438,0.138097551757812,-0.101226846191404,0.240668961754678,1.11057000000005,
-0.190674220214844,0.154856963378906,-0.0820732329101528,0.258985236880018,1.11349700000005,
-0.1547611953125,0.169222173339844,-0.0294007963867156,0.231195973910851,1.11642100000006,
-0.183491615234375,0.164433770019531,-0.0198239897460901,0.247185412501647,1.11945000000003,
-0.161943800292969,0.135703350097656,-0.0317949980468715,0.213663556981196,1.12239099999999,
-0.166732203613281,0.185981584960938,-0.077284829589841,0.261460747629647,1.12541399999998,
-0.183491615234375,0.193164189941406,-0.0916500395507782,0.281746884431219,1.12835500000006,
-0.13560758203125,0.181193181640625,-0.038977603027341,0.229651124349897,1.13127799999995,
-0.1547611953125,0.154856963378906,-0.0485544096679646,0.224252619560384,1.13427300000001,
-0.178703211914063,0.162039568359375,-0.0868616362304646,0.256391504366132,1.137201,
-0.142790187011719,0.185981584960938,-0.0126413847656224,0.23481480375014,1.14019800000005,
-0.159549598632813,0.162039568359375,-0.0198239897460901,0.228267138912804,1.14310799999998,
-0.157155396972656,0.159645366699219,-0.00306457812499694,0.224039848119136,1.14609099999996,
-0.166732203613281,0.145280156738281,-0.0701022246093714,0.231991968737763,1.14901799999996,
-0.149972791992188,0.154856963378906,-0.0892558378906223,0.233321927907398,1.15191900000002,
-0.157155396972656,0.135703350097656,-0.0916500395507782,0.226964639922212,1.15491900000006,
-0.190674220214844,0.162039568359375,-0.0533428129882783,0.255849439448543,1.15783199999998,
-0.17391480859375,0.157251165039062,0.0304542451171912,0.236435510446297,1.16089999999997,
-0.159549598632813,0.193164189941406,-0.0246123930664037,0.251742425093719,1.16392299999995,
-0.171520606933594,0.181193181640625,-0.0174297880859342,0.250108146985742,1.16693499999997,
-0.13560758203125,0.159645366699219,-0.0533428129882783,0.216151602146255,1.17000900000005,
-0.209827833496094,0.135703350097656,-0.0317949980468715,0.251900855175587,1.17293100000006,
-0.200251026855469,0.181193181640625,-0.0581312163085901,0.276243879822229,1.17592300000001,
-0.166732203613281,0.2099236015625,-0.0317949980468715,0.269960123195098,1.17884100000003,
-0.128424977050781,0.162039568359375,-0.0581312163085901,0.214776709058739,1.18176800000003,
-0.138001783691406,0.169222173339844,0.0280600434570353,0.220154496412589,1.18480299999999,
-0.224193043457031,0.176404778320312,-0.122774661132809,0.310571705029677,1.18771700000002,
-0.181097413574219,0.224288811523437,-0.0126413847656224,0.288550773325355,1.19071900000006,
-0.106877162109375,0.15246276171875,-0.0413718046874969,0.190733446764227,1.19363799999996,
-0.126030775390625,0.150068560058594,-0.0198239897460901,0.196970352167719,1.19655999999998,
-0.178703211914063,0.140491753417969,-0.0533428129882783,0.233491384047378,1.19956400000001,
-0.161943800292969,0.183587383300781,-0.09643844287109,0.263116884718479,1.20251600000006,
-0.159549598632813,0.162039568359375,-0.0246123930664037,0.228732739306028,1.20552699999996,
-0.114059767089844,0.19076998828125,0.035242648437503,0.225044136040705,1.20846600000004,
-0.157155396972656,0.188375786621094,-0.0365834013671833,0.248035483425944,1.21136000000001,
-0.171520606933594,0.159645366699219,-0.0341891997070274,0.236801315638244,1.21436400000005,
-0.159549598632813,0.128520745117187,-0.156293484374997,0.257684515653242,1.21727499999997,
-0.159549598632813,0.178798979980469,-0.000670376464841027,0.239636389287087,1.22027500000002,
-0.145184388671875,0.200346794921875,-0.0868616362304646,0.262225644814018,1.22319400000003,
-0.169126405273438,0.164433770019531,-0.0485544096679646,0.240831344267634,1.22610199999997,
-0.171520606933594,0.183587383300781,-0.0413718046874969,0.254627712814605,1.22909100000004,
-0.1547611953125,0.19076998828125,-0.0341891997070274,0.248018381133313,1.23201800000004,
-0.147578590332031,0.128520745117187,-0.180235500976559,0.266048600940012,1.23501399999998,
-0.164338001953125,0.166827971679687,-0.060525417968746,0.241871613135968,1.237931,
-0.157155396972656,0.205135198242187,-0.0533428129882783,0.263863078229974,1.24091099999998,
-0.140395985351563,0.169222173339844,-0.0126413847656224,0.220243005022836,1.24383699999998,
-0.169126405273438,0.142885955078125,-0.060525417968746,0.229528785427001,1.24674200000004,
-0.1547611953125,0.147674358398437,-0.0126413847656224,0.214286136536493,1.24973999999997,
-0.145184388671875,0.169222173339844,-0.038977603027341,0.226349075990257,1.25264600000003,
-0.118848170410156,0.202740996582031,-0.0294007963867156,0.236840043348016,1.25563199999999,
-0.176309010253906,0.159645366699219,-0.0365834013671833,0.240644666387669,1.25856099999999,
-0.140395985351563,0.147674358398437,-0.0198239897460901,0.204723568258956,1.26146200000005,
-0.178703211914063,0.15246276171875,0.0208774384765658,0.235829597584047,1.26446999999996,
-0.149972791992188,0.147674358398437,0.00411802685547258,0.210514875036194,1.26738899999998,
-0.202645228515625,0.171616375,-0.0940442412109341,0.281711888484017,1.27038900000002,
-0.171520606933594,0.174010576660156,-0.0940442412109341,0.261807789604146,1.27331200000003,
-0.152366993652344,0.176404778320312,-0.0509486113281223,0.238600309231057,1.27621999999997,
-0.202645228515625,0.150068560058594,-0.0126413847656224,0.252478644576135,1.27922899999999,
-0.169126405273438,0.138097551757812,0.00890643017578441,0.218526884526122,1.28216399999997,
-0.178703211914063,0.178798979980469,0.00651222851562849,0.252876100710799,1.28517599999998,
-0.176309010253906,0.19076998828125,-0.0677080229492155,0.26844446706392,1.28809200000001,
-0.159549598632813,0.15246276171875,-0.0246123930664037,0.2220512058676,1.29099800000006,
-0.176309010253906,0.135703350097656,0.0208774384765658,0.22346394286726,1.29400099999998,
-0.193068421875,0.140491753417969,-0.0820732329101528,0.252486363719078,1.29693099999997,
-0.166732203613281,0.181193181640625,-0.000670376464841027,0.246233722709538,1.30003799999997,
-0.178703211914063,0.159645366699219,-0.0317949980468715,0.241727952371526,1.30305899999996,
-0.161943800292969,0.1333091484375,-0.10362104785156,0.233953937920086,1.30607499999996,
-0.152366993652344,0.130914946777344,-0.0724964262695273,0.213565343317265,1.30911500000002,
-0.181097413574219,0.178798979980469,-0.060525417968746,0.261588751030351,1.31203600000003,
-0.185885816894531,0.164433770019531,-0.00785298144530877,0.248301572614762,1.31503699999996,
-0.190674220214844,0.164433770019531,-0.038977603027341,0.25478299887381,1.317948,
-0.157155396972656,0.169222173339844,-0.0916500395507782,0.248462658154405,1.32089900000005,
-0.178703211914063,0.178798979980469,-0.00785298144530877,0.252914180124482,1.32388600000002,
-0.202645228515625,0.157251165039062,-0.0341891997070274,0.258770011637553,1.32680700000003,
-0.178703211914063,0.195558391601563,-0.0174297880859342,0.265483935459216,1.32982000000004,
-0.1547611953125,0.145280156738281,-0.0294007963867156,0.21429362646758,1.33273199999996,
-0.209827833496094,0.174010576660156,0.00890643017578441,0.272739298594355,1.33574599999997,
-0.17391480859375,0.135703350097656,-0.00545877978515286,0.220661637247326,1.33868500000005,
-0.190674220214844,0.178798979980469,0.0184832368164098,0.262044583114794,1.34163599999999,
-0.207433631835938,0.162039568359375,-0.0294007963867156,0.264858339794904,1.34464200000002,
-0.17391480859375,0.19076998828125,-0.0174297880859342,0.258734123357839,1.34756000000004,
-0.161943800292969,0.157251165039062,0.00172382519531666,0.225735896420519,1.35055999999997,
-0.1547611953125,0.171616375,-0.00545877978515286,0.231155804641452,1.35347400000001,
-0.161943800292969,0.169222173339844,-0.0317949980468715,0.236374407041011,1.35637800000006,
-0.171520606933594,0.166827971679687,-0.0365834013671833,0.242052134866064,1.35937200000001,
-0.171520606933594,0.176404778320312,0.00651222851562849,0.246130805746349,1.36231799999996,
-0.145184388671875,0.159645366699219,-0.060525417968746,0.224117103414366,1.36531400000001,
-0.202645228515625,0.142885955078125,0.00411802685547258,0.24798879600482,1.36825499999998,
-0.166732203613281,0.164433770019531,-0.108409451171871,0.258051741997537,1.37117899999998,
-0.197856825195313,0.145280156738281,-0.127563064453122,0.276633299931407,1.37418300000002,
-0.190674220214844,0.233865618164062,-0.0317949980468715,0.303415074633082,1.37710200000004,
-0.171520606933594,0.195558391601563,-0.09643844287109,0.277421658116411,1.38009999999997,
-0.149972791992188,0.195558391601563,-0.0724964262695273,0.256886462635879,1.38301799999999,
-0.161943800292969,0.19076998828125,-0.022218191406246,0.251222273915992,1.38592700000004,
-0.171520606933594,0.150068560058594,0.00890643017578441,0.228077214599364,1.38892899999996,
-0.149972791992188,0.135703350097656,-0.0270065947265596,0.204050468571831,1.39184899999998,
-0.109271363769532,0.178798979980469,-0.0533428129882783,0.21622849460608,1.39486699999998,
-0.145184388671875,0.157251165039062,-0.0174297880859342,0.214732934439245,1.39778699999999,
-0.171520606933594,0.166827971679687,-0.09643844287109,0.257975316650697,1.40068900000006,
-0.157155396972656,0.147674358398437,-0.038977603027341,0.219145587370087,1.403685,
-0.106877162109375,0.181193181640625,0.0113006318359403,0.210668937277183,1.40661799999998,
-0.17391480859375,0.140491753417969,-0.0341891997070274,0.226170720481815,1.40961200000004,
-0.195462623535156,0.162039568359375,-0.038977603027341,0.256869057013677,1.41252799999995,
-0.145184388671875,0.157251165039062,-0.060525417968746,0.222417989021707,1.41542900000002,
-0.149972791992188,0.195558391601563,0.0113006318359403,0.246703520736153,1.41843100000006,
-0.166732203613281,0.183587383300781,-0.132351467773434,0.281106503038886,1.42134499999997,
-0.195462623535156,0.193164189941406,-0.0485544096679646,0.279061950421713,1.42434400000002,
-0.147578590332031,0.15246276171875,-0.0461602080078087,0.217152248062556,1.42726300000004,
-0.145184388671875,0.154856963378906,-0.000670376464841027,0.212272549392442,1.430251,
-0.178703211914063,0.185981584960938,0.00411802685547258,0.257955317910229,1.43318699999998,
-0.185885816894531,0.181193181640625,-0.0174297880859342,0.260169759019607,1.43615999999997,
-0.197856825195313,0.150068560058594,-0.0294007963867156,0.250064597299581,1.43926699999997,
-0.202645228515625,0.157251165039062,-0.0461602080078087,0.260621914561337,1.44227899999998,
-0.185885816894531,0.159645366699219,-0.0581312163085901,0.251832123329394,1.44534799999997,
-0.169126405273438,0.15246276171875,-0.0820732329101528,0.242042662008059,1.44827499999997,
-0.1547611953125,0.159645366699219,-0.120380459472653,0.252842096388099,1.45119,
-0.157155396972656,0.164433770019531,-0.0916500395507782,0.245226453039081,1.45419300000003,
-0.193068421875,0.138097551757812,-0.0437660063476528,0.241374838453447,1.45711800000004,
-0.142790187011719,0.219500408203125,0.0376368500976589,0.264548670745959,1.46012400000006,
-0.169126405273438,0.150068560058594,-0.0365834013671833,0.229047285367819,1.46305600000005,
-0.185885816894531,0.195558391601563,-0.0102471831054647,0.270003011483084,1.46596,
-0.176309010253906,0.178798979980469,-0.0102471831054647,0.251314438702525,1.46896300000003,
-0.142790187011719,0.128520745117187,-0.0246123930664037,0.193681153767665,1.47187900000006,
-0.169126405273438,0.150068560058594,-0.022218191406246,0.227195866397563,1.47488399999997,
-0.130819178710938,0.19076998828125,-0.0413718046874969,0.234986110590675,1.47784200000001,
-0.145184388671875,0.157251165039062,-0.0317949980468715,0.216373190393286,1.48076900000001,
-0.17391480859375,0.154856963378906,-0.0533428129882783,0.238898504500633,1.48377700000003,
-0.159549598632813,0.142885955078125,-0.0533428129882783,0.220721377034446,1.48668899999996,
-0.193068421875,0.162039568359375,-0.0533428129882783,0.257638686801688,1.489689,
-0.149972791992188,0.130914946777344,0.0328484467773471,0.201766156932551,1.492615,
-0.181097413574219,0.171616375,-0.0724964262695273,0.259815675418681,1.49551099999996,
-0.1547611953125,0.169222173339844,-0.0677080229492155,0.239105725351999,1.49850800000002,
-0.176309010253906,0.19076998828125,-0.0677080229492155,0.26844446706392,1.50142100000005,
-0.183491615234375,0.111761333496094,-0.077284829589841,0.228325892992617,1.50442099999998,
-0.147578590332031,0.181193181640625,-0.0126413847656224,0.234030369837409,1.50734399999999,
-0.197856825195313,0.145280156738281,0.0184832368164098,0.246161079908014,1.510267,
-0.140395985351563,0.19076998828125,0.00172382519531666,0.236869568971973,1.51327100000003,
-0.164338001953125,0.176404778320312,-0.0270065947265596,0.242600455191058,1.51619400000004,
-0.142790187011719,0.166827971679687,0.00172382519531666,0.219598682179343,1.51921000000004,
-0.147578590332031,0.157251165039062,-0.0294007963867156,0.217650582491077,1.52212499999996,
-0.169126405273438,0.142885955078125,-0.0365834013671833,0.22440695705547,1.52511100000004,
-0.123636573730469,0.169222173339844,-0.0485544096679646,0.215127118262376,1.52803000000006,
-0.171520606933594,0.166827971679687,-0.0341891997070274,0.241701866178633,1.53094499999997,
-0.133213380371094,0.200346794921875,-0.00545877978515286,0.240654194274906,1.533951,
-0.214616236816406,0.174010576660156,-0.0653138212890596,0.283911438913995,1.53686800000003,
-0.142790187011719,0.164433770019531,-0.120380459472653,0.248835200991589,1.53984500000001,
-0.13560758203125,0.185981584960938,-0.0796790312499969,0.243571989912393,1.54276800000002,
-0.188280018554688,0.183587383300781,-0.0246123930664037,0.264120166944209,1.54567299999997,
-0.178703211914063,0.157251165039062,-0.0533428129882783,0.243943072359203,1.54866900000002,
-0.149972791992188,0.150068560058594,-0.038977603027341,0.21571199455234,1.55158600000004,
-0.176309010253906,0.164433770019531,-0.0748906279296833,0.252451852778407,1.55458199999998,
-0.145184388671875,0.154856963378906,-0.0581312163085901,0.220087310244089,1.55749900000001,
-0.133213380371094,0.178798979980469,0.0256658417968776,0.224440672310284,1.56041800000003,
-0.164338001953125,0.205135198242187,-0.0844674345703087,0.276083639404251,1.56341499999996,
-0.159549598632813,0.181193181640625,-0.0413718046874969,0.244946258840678,1.56633299999999,
-0.159549598632813,0.174010576660156,-0.0581312163085901,0.243135751223484,1.56932900000004,
-0.140395985351563,0.197952593261719,-0.122774661132809,0.27197404158881,1.57226400000002,
-0.138001783691406,0.154856963378906,-0.0581312163085901,0.215416827844209,1.57527600000003,
-0.138001783691406,0.171616375,-0.038977603027341,0.223642406550966,1.57837200000006,
-0.197856825195313,0.195558391601563,-0.0317949980468715,0.280002374459502,1.58139900000003,
-0.169126405273438,0.176404778320312,-0.0557370146484342,0.25065713948913,1.58445100000006,
-0.176309010253906,0.169222173339844,-0.060525417968746,0.2517624619892,1.58736399999998,
-0.190674220214844,0.193164189941406,-0.077284829589841,0.282209155441473,1.59027100000003,
-0.185885816894531,0.162039568359375,-0.0365834013671833,0.249296417728439,1.59329200000002,
-0.159549598632813,0.164433770019531,-0.0892558378906223,0.245888478266642,1.59623599999998,
