X,Y,Z,Magnitude,Seconds,
-0.157155396972656,0.169222173339844,0.00411802685547258,0.230978182720091,0.0,
-0.152366993652344,0.147674358398437,-0.0365834013671833,0.215317816584313,0.00378000000000611,
-0.161943800292969,0.205135198242187,-0.0102471831054647,0.261555441107211,0.00766699999996945,
-0.171520606933594,0.159645366699219,-0.0653138212890596,0.243252660751688,0.011504000000059,
-0.181097413574219,0.214712004882812,0.00172382519531666,0.280892310000421,0.0152890000000525,
-0.147578590332031,0.183587383300781,-0.0629196196289037,0.243808626110446,0.0190310000000409,
-0.17391480859375,0.176404778320312,-0.113197854492183,0.27235778072982,0.0228419999999687,
-0.164338001953125,0.15246276171875,-0.0557370146484342,0.230994561405184,0.0266040000000203,
-0.159549598632813,0.166827971679687,-0.0341891997070274,0.233359267943781,0.0304220000000441,
-0.207433631835938,0.135703350097656,-0.077284829589841,0.25964794574405,0.0341919999999618,
-0.1547611953125,0.207529399902344,-0.10362104785156,0.278849064829409,0.0379560000000083,
-0.17391480859375,0.15246276171875,-0.0796790312499969,0.244622162487472,0.0416850000000295,
-0.190674220214844,0.185981584960938,-0.0102471831054647,0.266553583657617,0.0454270000000179,
-0.181097413574219,0.188375786621094,-0.060525417968746,0.268225719140948,0.0491510000000517,
-0.157155396972656,0.176404778320312,-0.0581312163085901,0.243301670609529,0.0528900000000476,
-0.138001783691406,0.174010576660156,-0.132351467773434,0.258536427053118,0.0566959999999881,
-0.159549598632813,0.147674358398437,-0.0916500395507782,0.235931177045216,0.0606709999999566,
-0.130819178710938,0.145280156738281,-0.0796790312499969,0.21111307273933,0.0644959999999628,
-0.161943800292969,0.128520745117187,-0.0246123930664037,0.208204577930605,0.0682620000000043,
-0.181097413574219,0.176404778320312,-0.0916500395507782,0.268913831490999,0.0720149999999649,
-0.166732203613281,0.188375786621094,-0.125168862792965,0.280984535018817,0.0757780000000139,
-0.17391480859375,0.19076998828125,-0.0677080229492155,0.266878109721874,0.0796649999999772,
-0.161943800292969,0.169222173339844,-0.0748906279296833,0.245907593528324,0.0834620000000541,
-0.152366993652344,0.174010576660156,-0.0341891997070274,0.233803941200444,0.0872130000000197,
-0.130819178710938,0.162039568359375,-0.0317949980468715,0.210668937277182,0.0909769999999526,
-0.188280018554688,0.195558391601563,-0.0916500395507782,0.2865173287297,0.0947370000000092,
-0.169126405273438,0.202740996582031,-0.0892558378906223,0.278701017675478,0.0984959999999546,
-0.147578590332031,0.159645366699219,-0.0844674345703087,0.23323985709095,0.102230999999961,
-0.145184388671875,0.169222173339844,-0.098832644531246,0.243890430908894,0.106083000000012,
-0.221798841796875,0.154856963378906,-0.0365834013671833,0.272972069239627,0.109829999999988,
-0.152366993652344,0.183587383300781,-0.0174297880859342,0.239215019542256,0.113564999999994,
-0.152366993652344,0.147674358398437,-0.0653138212890596,0.22201196394434,0.117269999999962,
-0.166732203613281,0.142885955078125,-0.0581312163085901,0.227145905069505,0.120970000000057,
-0.161943800292969,0.159645366699219,-0.0820732329101528,0.241761148909789,0.124668000000042,
-0.193068421875,0.166827971679687,-0.0461602080078087,0.259302434356845,0.128553000000011,
-0.157155396972656,0.174010576660156,-0.060525417968746,0.242158678984514,0.132539000000065,
-0.209827833496094,0.135703350097656,0.0280600434570353,0.251456725851989,0.136322000000064,
-0.161943800292969,0.193164189941406,-0.0701022246093714,0.261634326158154,0.140123000000017,
-0.13560758203125,0.171616375,0.013694833496098,0.219155526822822,0.143975999999952,
-0.197856825195313,0.200346794921875,0.0208774384765658,0.282350896845006,0.14781000000005,
-0.1547611953125,0.236259819824219,-0.060525417968746,0.288847808124309,0.151745000000005,
-0.1547611953125,0.183587383300781,0.0208774384765658,0.241021207197882,0.155575999999996,
-0.147578590332031,0.176404778320312,-0.038977603027341,0.233275244456811,0.159380000000056,
-0.140395985351563,0.183587383300781,-0.0724964262695273,0.242221163055413,0.163182000000006,
-0.171520606933594,0.178798979980469,-0.0485544096679646,0.252479552722847,0.166976999999974,
-0.152366993652344,0.159645366699219,-0.0413718046874969,0.224530554905745,0.170734000000039,
-0.185885816894531,0.157251165039062,-0.0748906279296833,0.254735297868968,0.174485000000004,
-0.200251026855469,0.174010576660156,-0.0701022246093714,0.274398390012501,0.178343000000041,
-0.176309010253906,0.195558391601563,-0.077284829589841,0.274410088202371,0.182097999999996,
-0.157155396972656,0.193164189941406,-0.0341891997070274,0.251354579130677,0.185829000000012,
-0.142790187011719,0.174010576660156,0.0184832368164098,0.225854706259695,0.189583999999968,
-0.145184388671875,0.166827971679687,-0.0748906279296833,0.233492366043276,0.193310999999994,
-0.147578590332031,0.145280156738281,-0.0102471831054647,0.207342154488387,0.197039000000018,
-0.1547611953125,0.181193181640625,-0.113197854492183,0.263810065974064,0.201020999999969,
-0.176309010253906,0.226683013183594,-0.0413718046874969,0.290140796486475,0.204960000000028,
-0.181097413574219,0.140491753417969,-0.0653138212890596,0.238327718138504,0.208745000000022,
-0.200251026855469,0.164433770019531,-0.0198239897460901,0.259869061353904,0.212535000000003,
-0.140395985351563,0.197952593261719,-0.0677080229492155,0.251953643064686,0.216304000000036,
-0.13560758203125,0.202740996582031,-0.038977603027341,0.247007249968892,0.220133000000033,
-0.164338001953125,0.178798979980469,-0.0270065947265596,0.244346905621344,0.22394399999996,
-0.142790187011719,0.195558391601563,-0.0150355864257783,0.242607070984748,0.227853999999979,
-0.178703211914063,0.176404778320312,-0.0724964262695273,0.261360317539779,0.231593999999973,
-0.149972791992188,0.142885955078125,-0.106015249511715,0.232696084250576,0.235357000000022,
-0.157155396972656,0.176404778320312,-0.0461602080078087,0.240722307680854,0.239080000000058,
-0.169126405273438,0.181193181640625,-0.0724964262695273,0.258244926098502,0.242809999999963,
-0.147578590332031,0.147674358398437,-0.0437660063476528,0.213313430811101,0.24652900000001,
-0.140395985351563,0.150068560058594,-0.060525417968746,0.214231023993229,0.250332999999955,
-0.128424977050781,0.174010576660156,-0.0485544096679646,0.221653301843889,0.254061999999976,
-0.152366993652344,0.142885955078125,-0.0653138212890596,0.218856099217318,0.25778600000001,
-0.145184388671875,0.176404778320312,-0.038977603027341,0.231768000522121,0.261486999999988,
-0.149972791992188,0.197952593261719,-0.0677080229492155,0.257412983139279,0.26520000000005,
-0.149972791992188,0.178798979980469,-0.0150355864257783,0.23385248007912,0.268945000000031,
-0.152366993652344,0.157251165039062,-0.0533428129882783,0.225364339145079,0.273006000000009,
-0.193068421875,0.166827971679687,-0.0365834013671833,0.257769922441805,0.276873000000023,
-0.140395985351563,0.226683013183594,-0.022218191406246,0.267562832243558,0.280664999999999,
-0.183491615234375,0.123732341796875,-0.0198239897460901,0.222197785401457,0.28445099999999,
-0.169126405273438,0.171616375,-0.0509486113281223,0.246275622271308,0.288286999999968,
-0.164338001953125,0.159645366699219,-0.0294007963867156,0.230993568790662,0.292119999999954,
-0.0973003554687503,0.0112048637695312,-0.292762979003903,0.308711953156464,0.295915000000036,
-0.226587245117188,0.492439397460938,0.339306259277347,0.639505338059249,0.299802,
-0.32714371484375,0.226683013183594,-0.158687686035153,0.42847401359587,0.303628000000003,
-0.11645396875,0.0495120903320312,-0.149110879394527,0.195568474659088,0.306596000000013,
-0.17391480859375,0.255413433105469,-0.098832644531246,0.324422986368047,0.309505000000058,
-0.145184388671875,0.0926077202148437,-0.161081887695309,0.235800914122276,0.312497000000008,
-0.159549598632813,0.281749651367187,0.142981723144535,0.353952982220526,0.315441999999962,
-0.176309010253906,0.135703350097656,-0.0102471831054647,0.222722408136308,0.318441000000007,
-0.166732203613281,0.250625029785156,0.169317941406254,0.345370957896872,0.321393000000057,
-0.133213380371094,0.07584830859375,-0.137139871093746,0.205684503232586,0.324295000000006,
-0.190674220214844,0.224288811523437,-0.0198239897460901,0.295051046089635,0.327305000000024,
-0.142790187011719,0.0423294853515625,-0.254455752441404,0.294836484830983,0.330243999999993,
-0.202645228515625,0.207529399902344,0.0256658417968776,0.291191132933541,0.333255000000008,
-0.169126405273438,0.130914946777344,-0.060525417968746,0.222274133606952,0.336179000000016,
-0.183491615234375,0.231471416503906,0.035242648437503,0.297473080779647,0.33910800000001,
-0.145184388671875,0.181193181640625,-0.127563064453122,0.264918499164838,0.342099999999959,
-0.152366993652344,0.217106206542969,-0.187418105957027,0.324771230429438,0.345024999999964,
-0.111665565429688,0.221894609863281,-0.0796790312499969,0.260873847692803,0.348024000000009,
-0.169126405273438,0.200346794921875,0.0807324799804725,0.274336130540584,0.350969999999961,
-0.111665565429688,0.0973961235351562,-0.0701022246093714,0.163919264510277,0.353884999999991,
-0.140395985351563,0.26738444140625,0.0113006318359403,0.302213792684682,0.356893000000014,
-0.130819178710938,0.145280156738281,0.0113006318359403,0.195825651385091,0.359828999999991,
-0.027868507324219,0.0447236870117187,-0.09643844287109,0.109896474665035,0.362834000000021,
-0.274471278320313,0.322451079589844,0.0783382783203166,0.430634493743399,0.365775999999983,
-0.17391480859375,0.0447236870117187,-0.252061550781246,0.309486016179034,0.368768000000046,
-0.121242372070313,0.0782425102539062,0.0496078583984403,0.152586181585845,0.371798000000013,
-0.121242372070313,0.0135990654296875,-0.156293484374997,0.198273297808541,0.374810000000025,
-0.25052926171875,0.329633684570313,0.178894748046879,0.451028389194626,0.377908000000048,
-0.121242372070313,0.07584830859375,-0.0677080229492155,0.158231018051014,0.380899999999997,
-0.176309010253906,0.276961248046875,0.0543962617187539,0.332793259104462,0.383893000000057,
-0.202645228515625,0.162039568359375,-0.09643844287109,0.276807304126251,0.386830000000032,
-0.138001783691406,0.154856963378906,-0.101226846191404,0.230807378129045,0.389753000000042,
-0.183491615234375,0.236259819824219,0.0639730683593775,0.305909183909221,0.392789999999991,
-0.171520606933594,0.166827971679687,-0.153899282714841,0.284492319681515,0.395714999999996,
-0.152366993652344,0.296114861328125,0.104674496582035,0.349079449536536,0.39874199999997,
-0.104482960449219,0.0878193168945312,-0.158687686035153,0.209310064600932,0.401671999999962,
-0.128424977050781,0.188375786621094,0.073549875000003,0.23955791748161,0.40459599999997,
-0.202645228515625,0.217106206542969,-0.125168862792965,0.322284715387671,0.407631000000038,
-0.185885816894531,0.212317803222656,0.0184832368164098,0.282796776026625,0.410580999999979,
-0.149972791992188,0.0566946953124999,-0.14192827441406,0.214125575055064,0.41361100000006,
-0.106877162109375,0.135703350097656,0.121433908203128,0.211149996613229,0.416561999999999,
-0.291230689941407,0.0878193168945312,-0.115592056152341,0.325406008901335,0.419466000000057,
-0.193068421875,0.197952593261719,0.0639730683593775,0.283818953172011,0.422485000000052,
-0.228981446777344,0.169222173339844,-0.0916500395507782,0.299112648792666,0.425417000000039,
-0.126030775390625,0.169222173339844,-0.153899282714841,0.261160658437608,0.428430000000048,
-0.0996945571289065,0.281749651367187,0.0113006318359403,0.299081218144089,0.431361000000038,
-0.214616236816406,0.214712004882812,-0.0653138212890596,0.310527405227642,0.434273999999959,
-0.0542047255859377,0.164433770019531,0.104674496582035,0.202319962518248,0.437272000000007,
-0.140395985351563,0.248230828125,0.0424252534179725,0.288321832093996,0.440211999999974,
-0.190674220214844,0.205135198242187,-0.17305289599609,0.329217880172135,0.443204000000037,
-0.138001783691406,0.116549736816406,-0.225725332519527,0.289102506379717,0.446145000000001,
-0.118848170410156,0.260201836425781,0.140587521484379,0.318739289210338,0.449048000000062,
-0.126030775390625,0.0255700737304687,-0.17305289599609,0.215603547811202,0.452035000000024,
-0.169126405273438,0.178798979980469,0.0783382783203166,0.258282213969453,0.454973999999993,
-0.209827833496094,0.104578728515625,-0.0581312163085901,0.24154434060256,0.457977000000028,
-0.1547611953125,0.0926077202148437,0.052002060058598,0.187700377379169,0.460909000000015,
-0.207433631835938,0.121338140136719,-0.108409451171871,0.263636615385405,0.463899999999967,
-0.200251026855469,0.140491753417969,-0.0820732329101528,0.258020197068852,0.466842000000042,
-0.219404640136719,0.19076998828125,0.00172382519531666,0.290748269325297,0.469765000000052,
-0.140395985351563,0.176404778320312,-0.077284829589841,0.238333009467437,0.472758999999996,
-0.0973003554687503,0.233865618164062,0.0687614716796912,0.26246642932223,0.475722000000019,
-0.164338001953125,0.19076998828125,-0.0317949980468715,0.253793398683997,0.478699000000006,
-0.183491615234375,0.253019231445312,-0.0748906279296833,0.321397745004844,0.481636999999978,
-0.166732203613281,0.181193181640625,-0.144322476074215,0.285411236455375,0.484543000000031,
-0.094906153808594,0.200346794921875,-0.151505081054685,0.268514070118486,0.48754299999996,
-0.159549598632813,0.176404778320312,-0.0461602080078087,0.242292148121755,0.49046199999998,
-0.181097413574219,0.205135198242187,0.035242648437503,0.275896297601151,0.493480999999974,
-0.114059767089844,0.128520745117187,-0.0198239897460901,0.172974573170509,0.496402999999987,
-0.233769850097656,0.264990239746094,0.052002060058598,0.357172765235132,0.499330999999984,
-0.171520606933594,0.0399352836914062,-0.216148525878904,0.278808770891456,0.502321000000052,
-0.181097413574219,0.19076998828125,-0.0341891997070274,0.265251508965938,0.505255000000034,
-0.207433631835938,0.126126543457031,-0.189812307617185,0.308164450746718,0.508278000000018,
-0.104482960449219,0.123732341796875,0.0280600434570353,0.164358594145796,0.511320999999953,
-0.147578590332031,0.121338140136719,0.0113006318359403,0.191389887026768,0.514319,
-0.233769850097656,0.224288811523437,-0.0461602080078087,0.327237801289217,0.517415000000028,
-0.214616236816406,0.176404778320312,-0.022218191406246,0.278697726845482,0.520353999999998,
-0.159549598632813,0.195558391601563,-0.177841299316404,0.308750201120952,0.523353000000043,
-0.111665565429688,0.150068560058594,-0.0246123930664037,0.188667806244857,0.526276000000053,
-0.114059767089844,0.145280156738281,-0.0102471831054647,0.184989078521101,0.52920800000004,
-0.166732203613281,0.233865618164062,0.145375924804691,0.321911345860656,0.532231000000024,
-0.169126405273438,0.233865618164062,0.0232716401367217,0.28954867907595,0.535159000000021,
-0.171520606933594,0.166827971679687,-0.098832644531246,0.258879860867288,0.538162000000057,
-0.109271363769532,0.109367131835937,-0.168264492675778,0.22850457317417,0.541104000000018,
-0.149972791992188,0.145280156738281,-0.038977603027341,0.212408605799267,0.544018000000051,
-0.140395985351563,0.121338140136719,0.0543962617187539,0.193372516774358,0.547037000000046,
-0.185885816894531,0.171616375,0.0879150849609402,0.267833491659234,0.549990999999977,
-0.13560758203125,0.142885955078125,-0.0629196196289037,0.206796254794897,0.553017999999952,
-0.164338001953125,0.085425115234375,-0.153899282714841,0.240809921761738,0.555948000000058,
-0.17391480859375,0.200346794921875,-0.106015249511715,0.285699898517133,0.558933000000025,
-0.185885816894531,0.171616375,-0.0533428129882783,0.258555937445247,0.561872999999991,
-0.190674220214844,0.197952593261719,0.0328484467773471,0.276804819122179,0.564801999999986,
-0.169126405273438,0.162039568359375,0.00890643017578441,0.23439259197612,0.567797000000041,
-0.147578590332031,0.157251165039062,-0.0629196196289037,0.224646940252428,0.570734000000016,
-0.190674220214844,0.183587383300781,-0.108409451171871,0.286030758250145,0.573725999999965,
-0.176309010253906,0.212317803222656,-0.129957266113278,0.30504525513052,0.576655999999957,
-0.238558253417969,0.183587383300781,-0.077284829589841,0.310784993952074,0.579564000000005,
-0.164338001953125,0.123732341796875,-0.0102471831054647,0.205965230206656,0.582580000000007,
-0.159549598632813,0.162039568359375,-0.0126413847656224,0.227755791906104,0.585506000000009,
-0.193068421875,0.176404778320312,-0.00306457812499694,0.261540537926008,0.588505000000055,
-0.152366993652344,0.162039568359375,-0.060525417968746,0.230512144341762,0.591430000000059,
-0.152366993652344,0.154856963378906,-0.0317949980468715,0.219561612679425,0.594343999999978,
-0.164338001953125,0.15246276171875,-0.10362104785156,0.246959903941326,0.597339000000034,
-0.166732203613281,0.157251165039062,-0.077284829589841,0.241868769196467,0.600269000000026,
-0.202645228515625,0.157251165039062,0.00651222851562849,0.256584151238014,0.603276000000051,
-0.164338001953125,0.162039568359375,0.00651222851562849,0.230881375862753,0.60623099999998,
-0.185885816894531,0.176404778320312,-0.038977603027341,0.259213109765966,0.609133000000043,
-0.159549598632813,0.169222173339844,-0.120380459472653,0.26188484758878,0.612132999999972,
-0.166732203613281,0.197952593261719,0.00651222851562849,0.258896245668067,0.615065999999956,
-0.149972791992188,0.193164189941406,-0.00785298144530877,0.244675115063286,0.618067999999994,
-0.188280018554688,0.200346794921875,0.0184832368164098,0.275553685632461,0.621003999999971,
-0.149972791992188,0.224288811523437,0.00890643017578441,0.269956725811757,0.623931999999968,
-0.11645396875,0.0303584770507812,-0.153899282714841,0.195366714633305,0.626917000000049,
-0.0973003554687503,-0.285676142089844,-1.46592179248047,1.49666459803218,0.629840000000058,
-0.621630519042969,1.35195779345703,-0.963139443847654,1.77252700001721,0.632833000000005,
-0.0158974990234377,2.31203265917969,2.7718151459961,3.60953001804419,0.635792000000038,
-1.32792000878906,-0.34553118359375,6.65999864208985,6.79987832694208,0.638692999999989,
-0.037445313964844,-1.16434815136719,0.073549875000003,1.16726961463178,0.641677999999956,
1.40625828710937,-1.04703227001953,-3.16101656787109,3.61467352424553,0.644607000000065,
-1.16750849755859,-0.297647150390625,-6.65894519335937,6.76706886370835,0.647697999999991,
-0.379816151367188,-1.57854503857422,-4.99976344287109,5.25677650583671,0.650714999999991,
0.0487459458007811,1.19633468554688,2.39831968701172,2.68058392298815,0.653825999999981,
0.213945860351562,1.56025333789063,4.4022664765625,4.67548002243903,0.656840999999986,
0.810102073730469,1.82840392382813,7.0837723359375,7.36064920954164,0.65977399999997,
-0.8825985,0.1333091484375,1.7375200288086,1.95338866889578,0.662771000000021,
-0.2313756484375,0.753407378417969,0.384796090820316,0.877054958400617,0.665719999999965,
-0.834714466796875,0.0231758720703125,-3.6422511015625,3.73674704107188,0.668736999999965,
0.32407913671875,-0.28807034375,-2.95032682177734,2.98201947765326,0.671665999999959,
0.460548631347656,-0.0606211860351563,-1.51141162402343,1.58118470371607,0.67456900000002,
0.446183421386718,0.0543004936523437,0.12622231152344,0.466862143525866,0.677605999999969,
0.0631111557617186,0.549900237304688,1.63696355908204,1.72801127968884,0.680548000000044,
0.19000384375,0.109367131835937,1.95778658154297,1.97002307830023,0.683587999999986,
0.321684935058594,-0.0845632026367188,1.26825650341797,1.3111470898209,0.686517999999978,
0.201974852050781,-0.165966059082031,-0.323887600585934,0.416223199066881,0.689461000000051,
-0.178703211914063,-0.0151313544921876,-1.23607843310547,1.24902109214602,0.692444000000023,
-0.257711866699219,-0.106111017578125,-1.20974221484375,1.24143110185951,0.695353999999952,
-0.379816151367188,-0.110899420898438,-0.869765579101559,0.955537101835853,0.698330000000055,
-0.427700184570313,0.0135990654296875,-0.177841299316404,0.463400377864096,0.701266000000032,
-0.590505897460938,0.387094524414062,0.772656759765628,1.04667944193961,0.70419400000003,
-0.511497242675782,0.370335112792969,1.09347978222657,1.26272544884887,0.707198000000062,
-0.296019093261719,0.375123516113281,0.614639450195316,0.778541334582231,0.710137000000032,
-0.319961109863281,0.233865618164062,-0.534577346679685,0.665463131035292,0.713131999999973,
-0.475584217773438,0.423007549316406,-0.922438015624996,1.1207174611132,0.716057999999975,
-0.341508924804688,0.377517717773437,-0.618374404785152,0.800958723934954,0.718976999999995,
-0.0709641372070314,0.322451079589844,-0.0150355864257783,0.330509722031533,0.721977000000038,
0.0726879624023435,0.217106206542969,0.418314914062503,0.476871064465859,0.724933999999962,
-0.0111090957031252,0.353575701171875,0.499717770507816,0.612255697097076,0.727927000000022,
0.0271981308593748,0.293720659667969,0.578726425292972,0.649565885473069,0.730890000000045,
0.0511401474609373,0.181193181640625,0.140587521484379,0.234970498047095,0.733821000000034,
0.154090818847656,-0.0462559760742188,-0.395713650390622,0.427168454922869,0.736803000000009,
0.0535343491210936,-0.113293622558594,-0.520212136718747,0.535090682630293,0.739732000000004,
-0.0996945571289065,-0.0917458076171875,-0.443597683593747,0.463826694818439,0.742717999999968,
-0.140395985351563,0.0135990654296875,0.121433908203128,0.186124048271262,0.745665000000031,
0.000861912597656,-0.0797747993164063,0.751108944824223,0.755333971494899,0.748665999999957,
-0.492343629394531,-0.0965342109375001,0.320152645996098,0.595162851684317,0.751580999999987,
-0.616842115722656,-0.225821100585938,-0.417261465332027,0.778200806765245,0.754472999999962,
-0.492343629394531,0.0950019218749999,-0.62076860644531,0.797985762600672,0.757473000000005,
-0.169126405273438,0.274567046386719,-0.891313394042966,0.947855669562952,0.760416999999961,
0.0918415756835935,0.640879900390625,0.109462899902347,0.656615601553735,0.763426999999979,
-0.32714371484375,0.624120488769531,0.24832659619141,0.747138202101659,0.766360999999961,
-0.13560758203125,0.365546709472656,0.538024997070316,0.664443158278541,0.769273999999996,
-0.248135060058594,0.7462247734375,0.557178610351565,0.963779240467147,0.772273000000041,
-0.0230801040039065,0.432584355957031,-0.0892558378906223,0.442299130472973,0.775198000000046,
-0.00871489404296899,0.250625029785156,-0.424444070312497,0.492992518965988,0.778193999999985,
-0.0470221206054689,0.279355449707031,-0.244878945800778,0.37445459698574,0.781119999999987,
-0.260106068359375,-0.11568782421875,-0.47951070849609,0.55764626694013,0.78403400000002,
-0.219404640136719,0.00402225878906243,0.289028024414065,0.36289361192502,0.78712900000005,
-0.111665565429688,-0.237792108886719,0.229172982910161,0.348618045498889,0.790136999999959,
-0.0589931289062502,-0.209061688964844,0.0448194550781285,0.221801178095345,0.793211000000042,
-0.094906153808594,-0.218638495605469,-0.295157180664059,0.379378084618655,0.796143000000029,
-0.214616236816406,0.238654021484375,-0.0653138212890596,0.327538953908203,0.799053999999956,
-0.140395985351563,0.0734541069335937,-0.321493398925778,0.358419508510764,0.802046000000018,
-0.17391480859375,0.221894609863281,0.0783382783203166,0.292609747590148,0.804998999999953,
-0.0996945571289065,-0.00316034619140632,-0.101226846191404,0.142112163093229,0.807991000000015,
-0.121242372070313,0.308085869628906,0.277057016113284,0.43171426433213,0.810924999999997,
-0.209827833496094,0.351181499511719,0.0567904633789098,0.413014917454267,0.813852999999995,
-0.21222203515625,0.638485698730469,0.238749789550784,0.713935320389557,0.816858000000025,
-0.159549598632813,0.336816289550781,-0.381348440429685,0.533224080803559,0.819810999999959,
-0.0757525405273439,0.281749651367187,-0.273609365722653,0.399979247527957,0.822821999999974,
-0.252923463378906,0.403853936035156,-0.0581312163085901,0.480049495664963,0.825779000000011,
-0.341508924804688,0.332027886230469,0.162135336425784,0.503148815236436,0.828733000000057,
-0.257711866699219,0.248230828125,0.114251303222659,0.375615908285705,0.831750000000056,
-0.114059767089844,0.0135990654296875,-0.0174297880859342,0.116182453760759,0.834671999999955,
-0.157155396972656,0.07584830859375,-0.0868616362304646,0.194924930583031,0.837684999999965,
-0.348691529785156,0.0231758720703125,-0.163476089355465,0.385807381708914,0.840615999999955,
-0.205039430175782,-0.0223139594726563,-0.0629196196289037,0.215633854597098,0.843580999999972,
-0.0757525405273439,-0.137235639160156,-0.14192827441406,0.211460878486296,0.846478000000047,
-0.126030775390625,0.0231758720703125,0.0280600434570353,0.131180194505849,0.849409000000037,
-0.142790187011719,0.0423294853515625,-0.0246123930664037,0.150952286267632,0.852405999999974,
-0.126030775390625,0.185981584960938,0.0496078583984403,0.230073566289186,0.855354000000034,
-0.0565989272460939,0.140491753417969,-0.0461602080078087,0.158341833219109,0.858349999999973,
-0.0901177504882814,0.197952593261719,-0.165870291015622,0.273531335633991,0.861287000000061,
-0.0877235488281252,0.329633684570313,-0.0557370146484342,0.345630441113511,0.864193999999998,
-0.152366993652344,0.274567046386719,-0.09643844287109,0.32848612905202,0.867190000000051,
-0.183491615234375,0.355969902832031,0.0998860932617216,0.412748078385176,0.870124000000033,
-0.149972791992188,0.231471416503906,-0.139534072753904,0.309096445232792,0.873120999999969,
-0.214616236816406,0.396671331054688,0.0256658417968776,0.451737766210747,0.876060000000052,
-0.166732203613281,0.193164189941406,-0.137139871093746,0.289688412334822,0.878973999999971,
-0.214616236816406,0.281749651367187,0.013694833496098,0.354443992212103,0.881999000000064,
-0.209827833496094,0.123732341796875,-0.0820732329101528,0.257047520269166,0.884927000000062,
-0.193068421875,0.0447236870117187,-0.0796790312499969,0.213598622950063,0.887923000000001,
-0.214616236816406,0.0830309135742187,0.0711556733398471,0.240867996136166,0.890873000000056,
-0.185885816894531,-0.0223139594726563,-0.077284829589841,0.202544796513328,0.893759000000045,
-0.161943800292969,0.0734541069335937,0.0448194550781285,0.183385069818241,0.896775000000048,
-0.193068421875,-0.0223139594726563,-0.0317949980468715,0.1969371732646,0.899690999999962,
-0.126030775390625,0.147674358398437,0.00651222851562849,0.194252108339117,0.902699999999982,
-0.109271363769532,0.123732341796875,-0.180235500976559,0.244406953990396,0.905627999999979,
-0.037445313964844,0.205135198242187,-0.0102471831054647,0.208776449479783,0.908547999999996,
-0.0685699355468752,0.207529399902344,-0.0461602080078087,0.223385435263926,0.911539000000062,
-0.149972791992188,0.212317803222656,0.0304542451171912,0.261721510290776,0.914482000000021,
-0.190674220214844,0.212317803222656,-0.481904910156247,0.560060577306182,0.91747399999997,
-0.219404640136719,-0.0366791694335938,-0.912861208984372,0.939574022870083,0.920383000000015,
-0.027868507324219,1.62489678271484,1.34247675488282,2.10791604329447,0.92336499999999,
-0.298413294921875,-0.0247081611328125,1.53640708935547,1.56531394040763,0.926429999999982,
0.108600987304687,0.0926077202148437,1.10305658886719,1.11225186110443,0.929478000000017,
-0.228981446777344,-1.21462638623047,-1.80589842822265,2.18838271199363,0.932506999999987,
-0.363056739746094,-0.0893516059570313,-1.30311607958984,1.35569370532129,0.935418000000027,
-0.233769850097656,-0.884226557128906,-1.46831599414062,1.72987190444723,0.938391000000024,
-0.149972791992188,0.145280156738281,0.640975668457035,0.674127561989401,0.941321000000016,
-0.494737831054688,0.253019231445312,0.45901634228516,0.720749786987635,0.94426999999996,
-0.394181361328125,0.906636284667969,1.35684196484375,1.67880565160357,0.947266000000013,
-0.396575562988281,0.57384225390625,0.358459872558598,0.78425798673804,0.95020999999997,
-0.178703211914063,0.449343767578125,-0.611191799804685,0.779358759210542,0.953190000000063,
-0.0996945571289065,0.456526372558594,-1.04693650195312,1.14648653401794,0.956125000000043,
0.125360398925781,0.279355449707031,-0.963139443847654,1.01063954266346,0.95904900000005,
-0.0350511123046877,0.583419060546875,-0.000670376464841027,0.584471410838715,0.962052999999969,
-0.111665565429688,0.418219145996094,0.49732356884766,0.659323277847679,0.965026999999964,
0.103812583984375,0.308085869628906,1.02883633740235,1.07898015033549,0.968062000000032,
0.0487459458007811,-0.0917458076171875,0.0472136567382844,0.114116562469885,0.970993000000021,
0.0559285507812498,0.0207816704101562,-0.266426760742185,0.273025821960306,0.973929999999996,
-0.293624891601563,-0.0725921943359376,-0.742872891113278,0.802088109871687,0.97690799999998,
-0.130819178710938,-0.0630153876953126,-0.256849954101559,0.295053377420032,0.979810000000043,
-0.0996945571289065,-0.175542865722656,-0.0796790312499969,0.217032371889977,0.98278700000003,
-0.240952455078125,-0.127658832519531,0.243538192871098,0.365603220056041,0.985721000000012,
-0.389392958007813,0.0399352836914062,0.260297604492191,0.470081424365993,0.98863700000004,
-0.341508924804688,0.0782425102539062,0.128616513183598,0.373219028983777,0.991644000000065,
-0.21222203515625,0.0997903251953124,-0.185023904296871,0.298714154953703,0.994585000000029,
-0.252923463378906,0.236259819824219,-0.388531045410152,0.52033196522841,0.997588000000064,
-0.279259681640625,0.399065532714844,-0.259244155761715,0.551766981150204,1.00051299999996,
-0.255317665039063,0.463708977539063,0.0160890351562539,0.52959605642752,1.00344300000006,
-0.169126405273438,0.320056877929688,0.0615788666992216,0.367194911313834,1.00644399999999,
-0.0326569106445315,0.425401750976563,0.308181637695316,0.526316487827749,1.00938600000006,
