X,Y,Z,Magnitude,Seconds,
-0.00871489404296899,0.0399352836914062,-0.0365834013671833,0.0548554602321929,0.0,
-0.0350511123046877,0.0351468803710937,-0.0844674345703087,0.0979726042141638,0.00397399999997106,
-0.0494163222656252,0.0112048637695312,0.00890643017578441,0.0514475108905183,0.00788499999998749,
-0.0302627089843752,0.0303584770507812,-0.0677080229492155,0.0801364152904738,0.0118580000000748,
-0.0230801040039065,0.0207816704101562,-0.0581312163085901,0.0659075666018978,0.0157500000000255,
-0.00871489404296899,-0.0151313544921876,-0.0653138212890596,0.0676077104946443,0.0195350000001326,
0.0056503159179685,0.0207816704101562,-0.00785298144530877,0.0229232024941886,0.0234050000001389,
-0.00153228906250025,0.0231758720703125,-0.022218191406246,0.0321421372244462,0.0273549999999432,
-0.0470221206054689,-0.0103429511718751,-0.0437660063476528,0.0650655037389387,0.031210000000101,
0.0128329208984373,0.0135990654296875,-0.0437660063476528,0.0475928750021393,0.0352789999999459,
-0.0470221206054689,-0.0103429511718751,-0.0701022246093714,0.0850433910445828,0.0392190000000028,
0.00804451757812485,0.0471178886718749,-0.0796790312499969,0.0929169398812614,0.0431320000000142,
0.0152271225585936,-0.0199197578125001,-0.0174297880859342,0.0305362002456701,0.0470290000000659,
-0.0422337172851565,0.0471178886718749,-0.0485544096679646,0.0797578397828218,0.0508859999999913,
-0.0135032973632815,0.0566946953124999,-0.0437660063476528,0.0728840917339387,0.0548049999999876,
0.0248039291992186,-0.0127371528320313,-0.0940442412109341,0.0980907195963345,0.0587789999999586,
-0.0206859023437502,0.0159932670898437,-0.0485544096679646,0.0551472741501045,0.0628389999999399,
-0.0206859023437502,0.0327526787109375,-0.0174297880859342,0.0424787244539857,0.0669550000000072,
0.0200155258789061,0.0351468803710937,-0.000670376464841027,0.0404521183701638,0.0709590000001299,
-0.00632069238281274,0.0112048637695312,-0.0629196196289037,0.0642213255744369,0.0748439999999846,
-0.018291700683594,0.0135990654296875,-0.113197854492183,0.115469801922808,0.0787090000001172,
0.0128329208984373,0.0399352836914062,-0.0940442412109341,0.102974900083656,0.0825050000000829,
-0.0542047255859377,-0.00555454785156256,-0.0341891997070274,0.0643265625872322,0.0865470000001096,
0.0224097275390623,-0.00316034619140632,-0.0413718046874969,0.0471572889331537,0.0904230000001007,
-0.0254743056640627,0.027964275390625,-0.0533428129882783,0.065394163689822,0.0943219999999201,
-0.0446279189453127,0.0351468803710937,0.00411802685547258,0.0569553552740369,0.0982240000000729,
-0.0254743056640627,-0.0103429511718751,-0.022218191406246,0.035349185526324,0.102051000000074,
0.00804451757812485,0.00881066210937498,-0.125168862792965,0.125736177143869,0.10587600000008,
-0.027868507324219,0.0590888969726562,-0.110803652832027,0.128629704683038,0.109744000000092,
-0.0111090957031252,0.0399352836914062,-0.0844674345703087,0.0940903097760001,0.113651000000118,
-0.00392649072265649,0.0614830986328125,-0.038977603027341,0.0729029648549648,0.117479000000003,
-0.0350511123046877,0.01838746875,-0.0844674345703087,0.093281439652899,0.121290000000045,
-0.00632069238281274,0.0135990654296875,0.0328484467773471,0.0361096412117771,0.125285000000076,
-0.00392649072265649,0.00881066210937498,-0.0174297880859342,0.0199209088377327,0.129149999999981,
0.0152271225585936,0.03754108203125,-0.0533428129882783,0.0669824887488805,0.133238000000119,
-0.0254743056640627,-0.000766144531250068,-0.0485544096679646,0.0548366476429167,0.13716700000009,
-0.0302627089843752,0.0327526787109375,-0.00306457812499694,0.0446985587787693,0.141031999999996,
-0.027868507324219,0.0590888969726562,-0.0270065947265596,0.0706930520252865,0.144931000000042,
-0.0230801040039065,-0.00794874951171881,-0.101226846191404,0.104128517753252,0.148879999999963,
-0.0542047255859377,0.00641646044921873,0.00651222851562849,0.054970286162462,0.152794999999969,
0.0152271225585936,-0.00794874951171881,-0.060525417968746,0.0629156109443903,0.156795000000102,
-0.0470221206054689,0.0135990654296875,-0.0868616362304646,0.0997043542450868,0.160853999999972,
-0.0446279189453127,0.027964275390625,-0.09643844287109,0.109881868890698,0.16481500000009,
-0.00871489404296899,-0.03907337109375,-0.129957266113278,0.135983707562515,0.168677000000116,
-0.0230801040039065,0.0351468803710937,0.00651222851562849,0.0425488368923391,0.172585000000026,
-0.00632069238281274,0.0351468803710937,-0.0653138212890596,0.0744388984563671,0.176472999999987,
-0.0230801040039065,-0.029496564453125,-0.144322476074215,0.149103036909249,0.180335000000014,
0.0200155258789061,0.0614830986328125,-0.0916500395507782,0.112162928115133,0.184410999999955,
0.0319865341796873,0.0519062919921874,-0.0341891997070274,0.0699020950602593,0.188486000000012,
-0.0158974990234377,0.0135990654296875,-0.0892558378906223,0.091674803808452,0.192508999999973,
-0.00153228906250025,0.0207816704101562,-0.0677080229492155,0.0708420927591705,0.196392999999944,
-0.0422337172851565,0.00402225878906243,-0.0270065947265596,0.0502913670545289,0.200252000000091,
-0.0111090957031252,0.0447236870117187,-0.0509486113281223,0.0686977523906528,0.204099999999926,
0.0224097275390623,0.03754108203125,-0.0820732329101528,0.0929921732662283,0.207996999999978,
-0.0302627089843752,0.0159932670898437,-0.0174297880859342,0.0384111137563158,0.21201300000007,
0.00325611425781225,0.00881066210937498,-0.0796790312499969,0.0802307800523183,0.21588399999996,
-0.0206859023437502,0.0159932670898437,0.00890643017578441,0.0276227378523269,0.219743999999992,
-0.00153228906250025,0.0471178886718749,-0.106015249511715,0.116024464970529,0.223560000000134,
-0.0254743056640627,0.027964275390625,-0.0701022246093714,0.079657158136426,0.227431000000024,
-0.00871489404296899,0.01838746875,-0.0892558378906223,0.0915459064227858,0.231201000000056,
-0.0135032973632815,-0.000766144531250068,-0.0485544096679646,0.0504029435184941,0.235063000000082,
-0.00392649072265649,-0.0127371528320313,-0.0485544096679646,0.0503506016832587,0.238937999999962,
-0.0302627089843752,0.0207816704101562,-0.00545877978515286,0.0371147902708899,0.242784000000029,
-0.0254743056640627,0.0159932670898437,-0.077284829589841,0.082931717249819,0.246593000000075,
-0.0422337172851565,-0.0199197578125001,-0.0485544096679646,0.0673647854983278,0.250516000000061,
-0.0158974990234377,0.0112048637695312,-0.09643844287109,0.0983801438842943,0.254558000000088,
-0.0302627089843752,0.0112048637695312,-0.0437660063476528,0.0543768686004401,0.258497000000034,
-0.00632069238281274,-0.0127371528320313,0.00172382519531666,0.0143233301912886,0.262418000000025,
-0.00871489404296899,0.0303584770507812,-0.0126413847656224,0.0340204514346223,0.266274999999951,
-0.0350511123046877,0.0590888969726562,-0.0246123930664037,0.0729784085308536,0.270109000000048,
0.0128329208984373,0.0734541069335937,0.0208774384765658,0.077434211570469,0.273903000000018,
0.0152271225585936,0.0135990654296875,-0.0916500395507782,0.093896376882362,0.277833999999984,
-0.0206859023437502,0.0255700737304687,-0.098832644531246,0.104161542093982,0.281723000000056,
-0.0111090957031252,0.027964275390625,-0.0437660063476528,0.0531119197269944,0.285712000000103,
-0.0254743056640627,0.00881066210937498,-0.0341891997070274,0.0435369887851546,0.28971700000011,
-0.0565989272460939,0.0495120903320312,-0.101226846191404,0.126102180965731,0.293672000000015,
-0.0135032973632815,0.03754108203125,-0.0437660063476528,0.0592210705018157,0.297622000000047,
-0.0446279189453127,0.0135990654296875,-0.077284829589841,0.090274750704065,0.301529999999957,
-0.0565989272460939,0.102184526855469,0.0711556733398471,0.136778090140679,0.305432999999994,
0.134937205566406,-0.304829755371094,-0.546548354980466,0.640190857118035,0.30943000000002,
0.0487459458007811,0.0351468803710937,-0.0102471831054647,0.0609629001395896,0.313460000000077,
0.0415633408203123,-0.0558327827148438,-0.0509486113281223,0.0862587498291766,0.316426000000092,
-0.190674220214844,0.085425115234375,-0.10362104785156,0.233219703552681,0.319361999999956,
0.146908213867187,0.0614830986328125,0.0998860932617216,0.187987835633662,0.32237699999996,
-0.217010438476563,0.0902135185546875,-0.113197854492183,0.260855829145987,0.325350999999955,
0.087053172363281,-0.0342849677734375,-0.0701022246093714,0.116910374770247,0.328375000000051,
-0.236164051757813,0.154856963378906,-0.177841299316404,0.333738919205042,0.33135900000002,
0.0511401474609373,0.171616375,0.231567184570316,0.292730004988027,0.334342000000106,
-0.133213380371094,-0.122870429199219,-0.563307766601559,0.591741993604587,0.337404000000106,
0.0176213242187498,0.3631525078125,0.456622140625003,0.583690015596198,0.340415000000121,
-0.0350511123046877,-0.19230227734375,-0.369377432128903,0.417909599927462,0.343428000000131,
-0.00153228906250025,0.164433770019531,0.17171214306641,0.237751703903603,0.346398000000136,
0.0248039291992186,-0.146812445800781,-0.259244155761715,0.298959297300371,0.34943700000008,
0.067899559082031,-0.0510443793945313,0.0376368500976589,0.0929107705090251,0.3524910000001,
-0.0158974990234377,-0.0199197578125001,-0.077284829589841,0.0813785728016879,0.355436000000054,
0.067899559082031,-0.0558327827148438,-0.022218191406246,0.0906713724313345,0.358463999999913,
-0.0829351455078127,0.0351468803710937,-0.0126413847656224,0.0909579362618488,0.361442000000125,
0.110995188964844,-0.144418244140625,-0.117986257812497,0.217019165620457,0.364417000000003,
-0.0613873305664064,0.128520745117187,0.0567904633789098,0.153333437352515,0.367445999999973,
0.00325611425781225,-0.120476227539063,-0.194600710937497,0.228898580990541,0.370362999999998,
-0.106877162109375,0.19076998828125,0.24832659619141,0.3308806651731,0.373416000000134,
-0.027868507324219,-0.0438617744140625,-0.182629702636715,0.189879217505248,0.376343000000134,
-0.0542047255859377,0.085425115234375,0.013694833496098,0.102093834550079,0.379370999999992,
-0.094906153808594,0.0495120903320312,-0.189812307617185,0.217915894883206,0.382429000000002,
-0.0350511123046877,0.130914946777344,-0.00545877978515286,0.135635917220526,0.385393000000022,
-0.0398395156250002,0.147674358398437,0.0663672700195352,0.166731873567925,0.388458000000128,
-0.0326569106445315,0.0638773002929687,-0.14192827441406,0.159029614800878,0.391429000000016,
-0.0853293471679689,0.11415553515625,-0.0198239897460901,0.143894316303232,0.394445000000132,
-0.0901177504882814,0.027964275390625,-0.0892558378906223,0.129883849068111,0.39740699999993,
-0.0901177504882814,-0.0151313544921876,-0.0150355864257783,0.0926079678051702,0.40031399999998,
-0.0661757338867189,-0.130053034179688,-0.113197854492183,0.184680193080964,0.403348000000051,
-0.0781467421875002,-0.0965342109375001,-0.09643844287109,0.157245478342768,0.406263000000081,
-0.0709641372070314,-0.0271023627929688,-0.00785298144530877,0.0763682928713249,0.409265000000005,
-0.102088758789063,-0.0271023627929688,-0.0533428129882783,0.118330505101413,0.412178999999924,
-0.0111090957031252,-0.0223139594726563,-0.0461602080078087,0.052460362160518,0.415119000000004,
0.0607169541015623,-0.149206647460938,-0.297551382324215,0.338357794774932,0.418133000000125,
0.0607169541015623,0.027964275390625,0.0400310517578166,0.0779168423277723,0.421131000000059,
0.0942357773437498,0.0135990654296875,-0.14192827441406,0.170906264924064,0.4242220000001,
0.0702937607421873,0.181193181640625,0.229172982910161,0.300487001329963,0.427200000000084,
0.0846589707031248,0.00641646044921873,-0.194600710937497,0.212315211378243,0.43015400000013,
0.0463517441406248,0.0902135185546875,0.0831266816406284,0.131137364299719,0.433187999999973,
-0.018291700683594,0.07584830859375,-0.199389114257809,0.214111118615882,0.436130999999932,
-0.00871489404296899,0.1333091484375,-0.00306457812499694,0.133628851953445,0.439174000000094,
-0.0446279189453127,0.0543004936523437,0.0184832368164098,0.0726761639293731,0.442127000000028,
-0.0494163222656252,0.0614830986328125,-0.0437660063476528,0.0902086893562647,0.445059000000128,
-0.0637815322265627,0.085425115234375,-0.0533428129882783,0.119209856402383,0.448116000000027,
-0.0996945571289065,-0.00316034619140632,-0.10362104785156,0.143827375930431,0.451097000000118,
-0.0589931289062502,-0.00555454785156256,-0.0629196196289037,0.0864287035320482,0.454134999999951,
-0.0637815322265627,0.00402225878906243,-0.117986257812497,0.13418278373745,0.457090999999991,
0.108600987304687,-0.146812445800781,-0.14192827441406,0.231282735550479,0.460023999999976,
-0.300807496582031,0.408642339355469,0.341700460937503,0.611745794034386,0.463079999999991,
0.211551658691406,-0.187513874023438,0.186077353027347,0.338438086739697,0.46607999999992,
-0.238558253417969,0.193164189941406,-0.113197854492183,0.327163871494371,0.469152000000122,
0.422241404785156,-0.42214563671875,-0.302339785644527,0.669256369786048,0.472171000000117,
-0.142790187011719,0.0878193168945312,-0.0198239897460901,0.168802430361997,0.475210999999945,
0.192398045410156,-0.086957404296875,0.0232716401367217,0.212415082502048,0.478215000000091,
-0.104482960449219,0.0471178886718749,0.0304542451171912,0.118592771713904,0.481175000000121,
0.235493675292969,-0.149206647460938,0.0591846650390657,0.284995998788244,0.484237000000121,
-0.257711866699219,0.181193181640625,-0.000670376464841027,0.315034640500458,0.487248000000136,
0.134937205566406,-0.0941400092773438,-0.00785298144530877,0.164718123199572,0.49034800000004,
-0.351085731445313,0.197952593261719,-0.192206509277341,0.446530807685327,0.493304999999964,
0.0846589707031248,-0.0797747993164063,-0.0677080229492155,0.134593968283044,0.496241000000055,
-0.094906153808594,0.245836626464844,0.303393234375003,0.401858531832884,0.499336999999969,
-0.111665565429688,0.066271501953125,-0.125168862792965,0.180356188379381,0.502322000000049,
0.0319865341796873,0.0830309135742187,-0.0174297880859342,0.0906701080319102,0.505384999999933,
-0.140395985351563,-0.130053034179688,-0.398107852050778,0.441717880854583,0.508301999999958,
0.0894473740234373,0.0950019218749999,0.0831266816406284,0.154713422430682,0.511242999999922,
-0.164338001953125,0.116549736816406,-0.247273147460934,0.31895897775914,0.514290999999957,
0.156485020507812,0.111761333496094,0.147770126464847,0.24251632436517,0.517233000000033,
-0.123636573730469,0.0447236870117187,-0.0413718046874969,0.137832640426106,0.520295999999917,
0.146908213867187,-0.170754462402344,0.0543962617187539,0.231728425146627,0.523329999999987,
-0.0589931289062502,-0.0342849677734375,-0.0892558378906223,0.112348800042244,0.526252000000113,
0.0702937607421873,0.0806367119140625,-0.0796790312499969,0.133387556123236,0.529351000000133,
-0.0829351455078127,0.171616375,-0.106015249511715,0.218104680503592,0.532282000000123,
0.0655053574218748,-0.0965342109375001,-0.129957266113278,0.174638760726051,0.535331999999926,
-0.0613873305664064,0.00162805712890618,0.152558529785159,0.164454127142779,0.538309000000027,
0.0248039291992186,-0.110899420898438,-0.13474566943359,0.176267727875624,0.541267999999945,
-0.118848170410156,0.238654021484375,0.195654159667972,0.330698019008107,0.544368999999961,
0.0367749374999998,-0.510731098144531,-0.546548354980466,0.74894175672872,0.54734099999996,
-0.391787159667969,0.224288811523437,1.74230843212891,1.79984480501036,0.550382000000127,
0.738276023925781,-0.185119672363281,3.91863774121094,3.99187205800015,0.553343999999925,
1.43020030371094,0.205135198242187,-2.30868077685547,2.72351983427965,0.556317000000035,
-0.829926063476563,0.674398723632813,-5.50015158984375,5.60314718890518,0.559343000000126,
-0.504314637695313,1.11014342578125,-2.2081243071289,2.52241246336371,0.562314000000015,
-1.00949118798828,-0.9392931953125,-0.290368777343746,1.40913384468703,0.565393999999969,
-0.166732203613281,0.327239482910156,5.29290949414063,5.30563626910676,0.56836300000009,
0.731093418945312,-0.46045286328125,3.14531060498047,3.26182360472354,0.571357999999918,
0.355203758300781,0.616937883789063,0.708013314941409,1.00402436051096,0.574331999999913,
-0.427700184570313,0.200346794921875,-3.07482530810547,3.11088684485354,0.577260000000024,
-0.207433631835938,0.205135198242187,-2.74921388232422,2.76464936871544,0.580290000000105,
-0.0206859023437502,-0.23060950390625,-1.8250520415039,1.83968029941216,0.583188999999948,
0.115783592285156,-0.484394879882813,0.818146591308597,0.957814222471674,0.586248000000069,
0.101418382324219,-0.256945722167969,2.69280649121094,2.70693804722632,0.589267000000063,
0.302531321777344,-0.376655805175781,2.07270826123047,2.1282655690496,0.592264000000114,
0.185215440429687,-0.405386225097656,-0.462751296874996,0.64248074961977,0.595340999999962,
-0.114059767089844,-0.101322614257813,-1.7101303618164,1.71692217559065,0.598273999999947,
-0.324749513183594,-0.304829755371094,-2.39487203662109,2.4359383197984,0.601255999999921,
-0.106877162109375,0.0135990654296875,-0.383742642089841,0.398580076922074,0.604250000000093,
0.149302415527344,-0.0917458076171875,1.08869137890625,1.10270459462289,0.607232999999951,
0.173244432128906,0.07584830859375,1.8141344819336,1.82396560212102,0.610316000000012,
-0.0589931289062502,0.219500408203125,0.743926339843753,0.777873394308361,0.613297999999986,
-0.0206859023437502,0.3631525078125,-0.366983230468747,0.516705275695498,0.616408999999976,
-0.260106068359375,0.279355449707031,-1.58563187548828,1.63092706110447,0.619425999999976,
-0.149972791992188,0.461314775878906,-0.826669949218747,0.958481280841448,0.62240399999996,
-0.243346656738281,0.233865618164062,-0.199389114257809,0.392003496909749,0.625455999999986,
-0.0637815322265627,0.296114861328125,1.19882465527344,1.23650016136029,0.628525000000081,
0.0343807358398436,-0.00316034619140632,0.878001632812504,0.878680197800293,0.63159799999994,
-0.0206859023437502,0.15246276171875,0.387190292480472,0.416640279927178,0.63455399999998,
-0.123636573730469,-0.1731486640625,-0.991869863769528,1.01443200308578,0.637472000000116,
-0.121242372070313,0.00641646044921873,-0.915255410644528,0.923273172178211,0.640540000000101,
-0.0350511123046877,-0.304829755371094,-0.615980203124996,0.688172486281825,0.64350300000001,
0.173244432128906,-0.2497631171875,0.621822055175786,0.692140098732852,0.646533999999974,
0.158879222167969,-0.30722395703125,0.724772726562504,0.80307202178851,0.649466999999959,
0.166061827148437,-0.23060950390625,0.430285922363284,0.515658073447693,0.652397999999948,
0.067899559082031,-0.180331269042969,-0.484299111816403,0.521224852078581,0.655422000000044,
0.0726879624023435,-0.0438617744140625,-0.429232473632808,0.437547610613856,0.658351999999923,
0.0271981308593748,0.027964275390625,-0.443597683593747,0.445309604556319,0.661505000000034,
-0.0542047255859377,0.0734541069335937,-0.0413718046874969,0.100226165866799,0.664451000000099,
0.0176213242187498,0.0973961235351562,0.396767099121098,0.408926212038148,0.667570000000069,
0.0271981308593748,0.145280156738281,0.437468527343754,0.461762682208573,0.670560000000023,
-0.0996945571289065,0.202740996582031,0.00411802685547258,0.225964321434572,0.673498999999993,
-0.176309010253906,0.233865618164062,-0.453174490234371,0.539578643994694,0.676541999999927,
-0.171520606933594,0.250625029785156,-0.395713650390622,0.498820125158509,0.679497000000083,
-0.169126405273438,0.166827971679687,-0.259244155761715,0.35162884607506,0.682547999999997,
-0.0877235488281252,0.162039568359375,0.231567184570316,0.29593175514452,0.685515000000123,
-0.0757525405273439,0.0782425102539062,0.0998860932617216,0.147775401993257,0.688456999999971,
-0.0637815322265627,0.0255700737304687,0.0280600434570353,0.0742245145660136,0.691495999999916,
-0.0326569106445315,-0.127658832519531,-0.153899282714841,0.202603653849671,0.694457000000057,
-0.0206859023437502,-0.0701979926757813,-0.189812307617185,0.203431504085393,0.697439000000031,
0.0224097275390623,-0.165966059082031,-0.338252810546871,0.377441243769746,0.700420000000122,
0.096629979003906,-0.185119672363281,-0.0581312163085901,0.216762275886973,0.703396999999995,
0.0726879624023435,-0.189908075683594,0.111857101562503,0.232078926785726,0.706450000000132,
0.087053172363281,-0.1348414375,0.0256658417968776,0.162539852100092,0.709407999999939,
0.096629979003906,-0.101322614257813,-0.0677080229492155,0.155524922035101,0.712401,
0.0702937607421873,-0.0989284125976563,-0.223331130859371,0.254174817063567,0.715339000000085,
0.0367749374999998,0.0519062919921874,-0.220936929199215,0.229912561336883,0.718307000000095,
-0.0230801040039065,0.0710599052734375,-0.09643844287109,0.121994158063825,0.72132600000009,
-0.0470221206054689,0.11415553515625,0.052002060058598,0.133965593655174,0.72429800000009,
-0.0230801040039065,0.157251165039062,0.0879150849609402,0.181630620410389,0.727342000000135,
-0.0805409438476564,0.138097551757812,-0.0174297880859342,0.160815344261963,0.730322000000115,
-0.128424977050781,0.181193181640625,-0.0916500395507782,0.240257515081642,0.733294999999998,
-0.094906153808594,0.118943938476562,-0.194600710937497,0.247030919579789,0.736321999999973,
-0.106877162109375,0.140491753417969,-0.122774661132809,0.215021575604136,0.739266000000043,
-0.0422337172851565,0.0830309135742187,0.0496078583984403,0.105540319781454,0.742320000000063,
-0.0494163222656252,-0.0103429511718751,0.0855208833007843,0.099311484863284,0.745288000000073,
-0.0446279189453127,-0.0247081611328125,-0.0485544096679646,0.070424960590397,0.748244999999997,
0.0224097275390623,-0.0534385810546876,-0.146716677734371,0.157745558919815,0.751330999999936,
0.0631111557617186,-0.0749863959960938,-0.101226846191404,0.140900148885375,0.754294000000073,
0.0391691391601561,-0.0797747993164063,-0.120380459472653,0.149631865227189,0.757362999999941,
0.0511401474609373,-0.0965342109375001,-0.0533428129882783,0.121571477991981,0.760326000000077,
0.0248039291992186,-0.11568782421875,0.00651222851562849,0.118496061944809,0.763392999999951,
0.0726879624023435,-0.0725921943359376,-0.0677080229492155,0.123034722450219,0.766403000000082,
0.0391691391601561,0.00162805712890618,-0.060525417968746,0.0721124001323909,0.769446000000016,
0.00804451757812485,0.0686657036132812,-0.0677080229492155,0.0967681222689747,0.772480000000087,
-0.0254743056640627,0.0614830986328125,-0.0485544096679646,0.0823810801383593,0.775438000000122,
-0.018291700683594,0.0806367119140625,-0.0629196196289037,0.10390257049975,0.77847799999995,
-0.0470221206054689,0.102184526855469,0.0591846650390657,0.12710461018664,0.78149899999994,
-0.0805409438476564,0.102184526855469,-0.038977603027341,0.135822585391033,0.784438000000137,
-0.0901177504882814,0.140491753417969,-0.0509486113281223,0.174513331089025,0.78745600000002,
-0.109271363769532,0.140491753417969,-0.0365834013671833,0.181704455019961,0.790373999999929,
-0.0996945571289065,0.123732341796875,-0.0940442412109341,0.184642943089109,0.793441999999914,
-0.0542047255859377,0.07584830859375,-0.14192827441406,0.169807989419026,0.79635600000006,
-0.0613873305664064,0.0327526787109375,-0.0150355864257783,0.0711843464251671,0.799326999999948,
0.000861912597656,0.0135990654296875,-0.0820732329101528,0.0831967128810454,0.802451000000019,
0.0559285507812498,0.00881066210937498,-0.0509486113281223,0.0761668665205579,0.805438000000095,
0.000861912597656,-0.0654095893554688,-0.110803652832027,0.128672478618769,0.808500000000095,
0.0631111557617186,-0.07738059765625,-0.0461602080078087,0.11000699831621,0.811443999999938,
0.0726879624023435,-0.086957404296875,0.0113006318359403,0.113898350822767,0.814428000000134,
-0.0206859023437502,-0.0821690009765625,-0.161081887695309,0.182008312504527,0.817448000000013,
0.00804451757812485,-0.0438617744140625,-0.0461602080078087,0.0641820404874996,0.820421000000124,
0.0176213242187498,0.01838746875,-0.0677080229492155,0.0723393837819069,0.823519000000033,
-0.027868507324219,-0.000766144531250068,-0.060525417968746,0.0666375787241269,0.826452000000018,
-0.0254743056640627,0.085425115234375,-0.0246123930664037,0.0924778917056801,0.829365999999936,
-0.118848170410156,0.01838746875,-0.189812307617185,0.224703579721896,0.832419000000073,
0.0056503159179685,0.111761333496094,0.0615788666992216,0.127728143174315,0.835407000000032,
-0.109271363769532,0.0806367119140625,-0.125168862792965,0.184688262922279,0.838400000000092,
-0.0781467421875002,0.205135198242187,0.111857101562503,0.24637242954995,0.841404000000011,
-0.118848170410156,-0.0462559760742188,-0.295157180664059,0.321531124823051,0.844331000000011,
-0.0350511123046877,0.135703350097656,-0.0174297880859342,0.141236600122785,0.847369000000072,
-0.0518105239257815,-0.0318907661132813,-0.237696340820309,0.245358720635971,0.850274000000127,
0.0439575424804686,0.0710599052734375,0.0950976899414098,0.126591256848902,0.853342999999995,
-0.037445313964844,-0.0151313544921876,-0.151505081054685,0.156795723832255,0.856266000000005,
0.0152271225585936,-0.0271023627929688,0.00411802685547258,0.0313585949232188,0.85929299999998,
0.0511401474609373,-0.0965342109375001,-0.125168862792965,0.166136729161664,0.862223000000085,
0.0607169541015623,-0.03907337109375,0.0591846650390657,0.0933600633021825,0.865207999999939,
-0.027868507324219,-0.0534385810546876,-0.110803652832027,0.126133996711984,0.86827900000003,
0.0415633408203123,0.0255700737304687,-0.0653138212890596,0.0815305784482501,0.871259000000009,
0.0152271225585936,-0.0366791694335938,-0.0437660063476528,0.0590989851298269,0.874275000000125,
0.0319865341796873,-0.563403534667969,-0.580067178222652,0.809274126916448,0.877263999999968,
-0.255317665039063,0.427795952636719,0.468593148925784,0.6839415372629,0.880206000000044,
0.395905186523437,-0.434116645019531,0.482958358886723,0.760557002872058,0.883289000000104,
0.0655053574218748,0.511593010742188,-0.577672976562496,0.77441876807177,0.886256000000003,
-0.276865479980469,0.145280156738281,-1.10439734179687,1.1478041237575,0.889310000000023,
-0.121242372070313,0.513987212402344,0.327335250976565,0.621313877062358,0.892299000000094,
-0.195462623535156,-0.453270258300781,-0.443597683593747,0.663655384329127,0.895291000000043,
0.297742918457031,0.03754108203125,0.959404489257816,1.00524482209034,0.898392999999942,
-0.0877235488281252,0.157251165039062,0.370430880859379,0.411876665300911,0.901354999999967,
-0.382210353027344,0.291326458007813,-0.522606338378903,0.709981157503824,0.904379000000063,
0.237887876953125,-0.223426898925781,-0.683017849609371,0.756983225738765,0.907392999999956,
0.290560313476562,-0.259339923828125,-0.44120348193359,0.588509136997124,0.910341000000017,
-0.0901177504882814,0.0950019218749999,0.298604831054691,0.326054319465656,0.913397999999916,
-0.217010438476563,0.221894609863281,0.559572812011723,0.639884739806221,0.916345999999976,
0.125360398925781,-0.120476227539063,0.449439535644535,0.481897963495645,0.919413000000077,
0.290560313476562,-0.462847064941406,-0.278397769042966,0.613317225504529,0.922405000000026,
0.142119810546875,-0.101322614257813,-0.280791970703122,0.330618274632937,0.925308000000086,
-0.236164051757813,0.0447236870117187,-0.477116506835934,0.534241358018932,0.928314,
-0.178703211914063,0.260201836425781,0.0663672700195352,0.322559216513181,0.93124499999999,
0.168456028808594,-0.149206647460938,-0.00545877978515286,0.225099656963837,0.934261000000106,
0.216340062011719,0.01838746875,0.334517855957035,0.398802353794907,0.937216999999919,
-0.0781467421875002,0.176404778320312,0.00172382519531666,0.192946963443487,0.940246999999999,
-0.164338001953125,0.34399889453125,-0.0126413847656224,0.381447274119845,0.943267999999989,
-0.0422337172851565,0.0710599052734375,-0.388531045410152,0.397227353364164,0.946267000000034,
0.0702937607421873,0.027964275390625,-0.259244155761715,0.270056930653533,0.949331999999913,
-0.00871489404296899,0.0471178886718749,0.0232716401367217,0.0532692598571489,0.952291000000059,
-0.133213380371094,0.200346794921875,0.233961386230472,0.335592868208259,0.955306000000064,
-0.094906153808594,0.0614830986328125,0.013694833496098,0.113907409384634,0.958241999999927,
0.0200155258789061,-0.0725921943359376,-0.237696340820309,0.249338722211533,0.961203000000069,
-0.0135032973632815,-0.118082025878906,-0.237696340820309,0.265754123796249,0.964216999999962,
-0.133213380371094,0.00881066210937498,-0.151505081054685,0.201933707097369,0.967155999999932,
-0.0829351455078127,0.0159932670898437,-0.0126413847656224,0.0854039083496865,0.970154000000093,
0.118177793945312,-0.120476227539063,0.00172382519531666,0.168770506775114,0.973158000000012,
0.13254300390625,-0.132447235839844,0.104674496582035,0.214631471133219,0.976073999999926,
-0.00153228906250025,-0.0151313544921876,-0.0653138212890596,0.0670611739378198,0.979101000000128,
-0.0637815322265627,0.0423294853515625,-0.106015249511715,0.130763535866569,0.982089000000087,
0.0104387192382811,-0.000766144531250068,-0.182629702636715,0.182929391082881,0.985102000000097,
0.0918415756835935,0.0112048637695312,-0.0126413847656224,0.0933821642763301,0.988051000000041,
-0.027868507324219,0.0471178886718749,-0.098832644531246,0.112980709673886,0.990954999999985,
-0.0996945571289065,0.142885955078125,0.157346933105472,0.234762557145331,0.99397799999997,
-0.027868507324219,0.138097551757812,-0.00785298144530877,0.141100165909052,0.996935000000121,
-0.00632069238281274,0.0566946953124999,-0.122774661132809,0.135380416032199,0.999929000000066,
-0.0302627089843752,0.0159932670898437,-0.161081887695309,0.164678446345489,1.00286600000004,
-0.102088758789063,0.0926077202148437,0.035242648437503,0.142268579747503,1.00582800000007,
-0.094906153808594,0.07584830859375,-0.0102471831054647,0.12192271613145,1.00892399999998,
0.000861912597656,-0.0271023627929688,-0.106015249511715,0.109428122945242,1.01187600000003,
-0.0135032973632815,-0.0247081611328125,-0.077284829589841,0.0822543442681114,1.01489600000014,
-0.0422337172851565,-0.0199197578125001,-0.108409451171871,0.118038522230743,1.01779499999998,
-0.0494163222656252,-0.0271023627929688,-0.0796790312499969,0.0975974333482177,1.02070900000012,
0.0104387192382811,-0.0534385810546876,-0.0916500395507782,0.106603839302969,1.02375299999994,
0.0152271225585936,-0.0654095893554688,0.0280600434570353,0.0727849275597372,1.02675799999997,
