X,Y,Z,Magnitude,Seconds,
-4.99636367651367,-0.793677850341797,-0.0869095202636689,5.05975570386761,0.0,
-5.0059404831543,-0.946906756591797,-0.0677559069824198,5.09516078151547,0.00295100000016646,
-4.97242165991211,-1.06661683959961,-0.153947166748045,5.08786284962855,0.00598600000012084,
-4.97960426489258,-1.21026893920898,-0.230561619873045,5.12975323000131,0.00895400000013069,
-4.9891810715332,-1.32279641723633,-0.177889183349606,5.16462609368299,0.0120040000001609,
-4.98199846655274,-1.46405431518555,-0.333512291259764,5.20336373963694,0.0149679999999535,
-4.97242165991211,-1.5598223815918,-0.44364556762695,5.2301858873039,0.0179439999999431,
-4.9508738449707,-1.69868607788086,-0.460404979248045,5.25439425290087,0.0209780000000137,
-4.94608544165039,-1.8112135559082,-0.424491954345701,5.28435891670085,0.02393700000016,
-4.9125666184082,-1.84712658081055,-0.522654222412108,5.27431083858742,0.0269660000001295,
-4.85031737524414,-1.8878280090332,-0.714190355224607,5.25352653898135,0.0299260000001595,
-4.86468258520508,-1.95486565551758,-0.8075642199707,5.30460143227525,0.0328730000001087,
-4.83116376196289,-1.97880767211914,-0.829112034912107,5.28613751850792,0.0359009999999671,
-4.7593377121582,-1.9812018737793,-0.89136127807617,5.23172832351714,0.0388720000000831,
-4.7976449387207,-2.00514389038086,-1.03501337768554,5.30181588431286,0.0418890000000829,
-4.68511746069336,-1.96923086547852,-1.14035825073242,5.20851348870871,0.0448590000000877,
-4.61807981420899,-1.9644424621582,-1.14514665405273,5.14752913705429,0.0478080000000318,
-4.58695519262695,-1.94528884887695,-1.23852051879883,5.13402763142332,0.0508330000000115,
-4.52710015112305,-1.88064540405273,-1.22176110717773,5.05214440778321,0.0537920000001577,
-4.46724510961914,-1.83754977416992,-1.28879875366211,4.9993869893627,0.056822000000011,
-4.38584225317383,-1.76093532104492,-1.3821726184082,4.92411480590226,0.0597870000001421,
-4.30922780004883,-1.64601364135742,-1.40611463500976,4.82244372772115,0.0627960000001622,
-4.3164104050293,-1.53109196166992,-1.37020161010742,4.78049096140516,0.0657539999999699,
-4.25655536352539,-1.35631524047852,-1.46118127319336,4.70030906509796,0.0686990000001515,
-4.2613437668457,-1.2533645690918,-1.55216093627929,4.70522868885252,0.0717409999999745,
-4.25655536352539,-1.12647188110352,-1.65511160766601,4.70389167557082,0.0746990000000096,
-4.21345973364258,-0.961271966552735,-1.74848547241211,4.66202618696461,0.0777150000001257,
-4.16557570043945,-0.858321295166016,-1.85861874877929,4.64146528750792,0.0806800000000294,
-4.15121049047852,-0.72185180053711,-1.85622454711914,4.60425760872751,0.0836150000000089,
-4.15121049047852,-0.566228692626953,-1.89453177368164,4.59808809290364,0.0866419999999835,
-4.11529746557617,-0.468066424560547,-1.99029984008789,4.59522065427031,0.0896070000001146,
-4.11290326391602,-0.310049114990234,-2.01424185668945,4.59012788158206,0.0926460000000588,
-4.08177864233399,-0.164002813720703,-2.12198093139648,4.60332671892105,0.0956109999999626,
-4.13684528051758,-0.0921767639160157,-2.19380698120117,4.68345753706742,0.0985500000001593,
-4.1464220871582,0.0131681091308593,-2.22732580444336,4.70680037425752,0.101548000000093,
-4.13684528051758,0.144849200439453,-2.32069966918945,4.74553654715508,0.104492000000164,
-4.13923948217773,0.137666595458984,-2.44280395385742,4.8082789789389,0.107500000000073,
-4.1464220871582,0.243011468505859,-2.42843874389648,4.81136003969317,0.110445000000027,
-4.17515250708008,0.322020123291016,-2.4930821887207,4.87350533157581,0.113382000000001,
-4.17036410375977,0.345962139892578,-2.54336042358398,4.89696934893617,0.116477000000032,
-4.17515250708008,0.345962139892578,-2.61039807006836,4.93616919724524,0.119500000000016,
-4.17994091040039,0.412999786376953,-2.70137773315429,4.99398803514467,0.122591999999941,
-4.17754670874023,0.355538946533203,-2.69419512817383,4.98367252484389,0.125526000000036,
-4.15360469213867,0.353144744873047,-2.77320378295898,5.00677564618247,0.128435000000081,
-4.18951771704102,0.331596929931641,-2.81869361450195,5.06034079067554,0.131431000000021,
-4.15121049047852,0.319625921630859,-2.96473991577148,5.1112026015612,0.134361000000126,
-4.1847293137207,0.266953485107422,-2.90009647094726,5.0984098631951,0.137364000000161,
-4.1631814987793,0.257376678466797,-3.03417176391601,5.15795708002132,0.14029000000005,
-4.21106553198242,0.231040460205078,-3.04374857055664,5.20104393075734,0.143203999999969,
-4.18712351538086,0.207098443603516,-3.1059978137207,5.21748172179224,0.146199000000024,
-4.18712351538086,0.137666595458984,-3.14669924194336,5.23952970635796,0.149160000000165,
-4.1847293137207,0.0897825622558594,-3.22570789672851,5.28443107369329,0.152174999999943,
-4.17275830541992,0.0825999572753906,-3.14669924194336,5.2268968564187,0.155130000000099,
-4.12248007055664,0.0299275207519531,-3.09881520874023,5.15736301675137,0.158145000000104,
-4.08896124731445,0.0347159240722656,-3.11078621704101,5.13787895590738,0.161074000000099,
-4.07220183569336,-0.0203507141113282,-3.19218907348633,5.17429348057053,0.164028000000144,
-4.05065402075195,-0.0299275207519532,-3.11796882202148,5.11179256498446,0.167054000000007,
-3.97882797094727,-0.0490811340332032,-3.09881520874023,5.04342509392477,0.170027000000118,
-3.97403956762695,-0.0754173522949219,-3.05093117553711,5.01067453542495,0.173038000000133,
-3.91179032446289,-0.0538695373535156,-2.90967327758789,4.87557217687578,0.175995999999941,
-3.83757007299805,-0.0514753356933594,-2.91925008422851,4.82199282762046,0.178937000000133,
-3.79926284643555,-0.0371101257324219,-2.87136605102539,4.76240677984552,0.181962000000112,
-3.80644545141602,0.0179565124511718,-2.73968495971679,4.68990651180207,0.184899000000087,
-3.75377301489258,-0.00837970581054691,-2.69658932983398,4.62195587176897,0.187934000000041,
-3.71546578833008,0.00837970581054684,-2.60560966674804,4.53805663022968,0.190862000000152,
-3.69152377172852,0.0466869323730469,-2.60082126342773,4.51594936543679,0.193784000000051,
-3.6867353684082,0.0371101257324219,-2.62715748168945,4.52717917380135,0.19678399999998,
-3.6101209152832,0.0466869323730469,-2.56490823852539,4.4287590772896,0.199726000000055,
-3.54547747045898,0.0682347473144531,-2.57687924682617,4.38353431913071,0.202735000000075,
-3.55266007543945,0.0658405456542969,-2.56011983520508,4.37949108455354,0.20566800000006,
-3.52153545385742,0.0849941589355469,-2.56251403686523,4.35602044863879,0.208585000000085,
-3.4185847824707,0.0969651672363281,-2.53378361694336,4.25631102905885,0.211616000000049,
-3.46886301733398,0.0802057556152343,-2.55054302856445,4.30635731643578,0.214542000000165,
-3.4736514206543,0.120907183837891,-2.51223580200195,4.28861300004764,0.217554000000064,
-3.48801663061523,0.137666595458984,-2.51223580200195,4.30076049458861,0.220504000000119,
-3.4951992355957,0.111330377197266,-2.48111118041992,4.28774122808273,0.223443999999972,
-3.52392965551758,0.178368023681641,-2.40449672729492,4.26983604843094,0.226444000000129,
-3.50717024389648,0.161608612060547,-2.34703588745117,4.2231431328039,0.229405000000042,
-3.4951992355957,0.171185418701172,-2.27042143432617,4.1713949265842,0.232402999999977,
-0.100221281494141,-8.58680425415039,-5.89045434448242,10.4134866393918,14.859234,
-0.160076322998047,-8.56525643920899,-5.97185720092773,10.4428119166663,14.863368,
-0.162470524658203,-8.59398685913086,-5.86890652954101,10.4080291438286,14.8663300000001,
-0.121769096435547,-8.5700448425293,-5.90960795776367,10.4107618611835,14.869256,
-0.119374894775391,-8.5532854309082,-5.95509778930664,10.4228658107209,14.87228,
-0.145711113037109,-8.57722744750977,-5.90721375610351,10.4156246464183,14.875282,
-0.152893718017578,-8.57962164916992,-5.88327173950195,10.4041419873403,14.8784150000001,
-0.112192289794922,-8.56525643920899,-5.91679056274414,10.4107932235098,14.8813810000001,
-0.126557499755859,-8.57722744750977,-5.89524274780273,10.4085894597962,14.8843240000001,
-0.152893718017578,-8.57962164916992,-5.86890652954101,10.3960255859825,14.88734,
-0.133740104736328,-8.5700448425293,-5.92157896606445,10.4177085997793,14.8902950000002,
-0.157682121337891,-8.61792887573242,-5.94552098266601,10.4710449103179,14.89336,
-0.150499516357422,-8.61792887573242,-5.86890652954101,10.4276273458585,14.8963550000001,
-0.164864726318359,-8.5915926574707,-5.87369493286133,10.4087913291702,14.899365,
-0.155287919677734,-8.54849702758789,-5.92636736938476,10.4030161955841,14.902431,
-0.107403886474609,-8.54849702758789,-5.93115577270508,10.4051403558819,14.9054760000001,
-0.172047331298828,-8.55807383422852,-5.99340501586914,10.4494560490276,14.9085640000001,
-0.155287919677734,-8.57483324584961,-5.9407325793457,10.4328415645703,14.9115590000001,
-0.157682121337891,-8.58201585083008,-5.92397316772461,10.4292529841408,14.91455,
-0.150499516357422,-8.56765064086914,-5.96706879760742,10.4418962666648,14.9176890000001,
-0.160076322998047,-8.58441005249024,-5.91200215942383,10.424465929318,14.9206490000001,
-0.143316911376953,-8.56046803588867,-5.87608913452148,10.3841502419505,14.9236800000001,
-0.164864726318359,-8.5700448425293,-5.92397316772461,10.41951568322,14.9266660000001,
-0.157682121337891,-8.58201585083008,-5.91679056274414,10.4251748320432,14.9297370000002,
-0.133740104736328,-8.58441005249024,-5.91918476440429,10.4281700523182,14.9327210000001,
-0.160076322998047,-8.57722744750977,-5.85693552124023,10.3874033721361,14.9356620000001,
-0.140922709716797,-8.56046803588867,-5.89524274780273,10.3949679777817,14.9386750000001,
-0.126557499755859,-8.56046803588867,-5.92397316772461,10.411104066627,14.9416570000001,
-0.148105314697266,-8.58201585083008,-5.91918476440429,10.4263934091946,14.9446850000002,
-0.116980693115234,-8.56525643920899,-5.93833837768554,10.4231072641447,14.947666,
-0.155287919677734,-8.59398685913086,-5.93354997436523,10.4445076366098,14.950711,
-0.128951701416016,-8.5532854309082,-5.89284854614258,10.387539852711,14.9537520000001,
-0.109798088134766,-8.60356366577149,-5.90481955444336,10.4355286086368,14.956776,
-0.0858560715332031,-8.57243904418945,-5.91679056274414,10.4164529948894,14.9598210000001,
-0.157682121337891,-8.58919845581055,-5.95030938598633,10.4501375853931,14.9628130000001,
-0.157682121337891,-8.55807383422852,-5.83538770629883,10.3594035101602,14.9657670000001,
-0.145711113037109,-8.53892022094727,-5.96228039428711,10.4155258037348,14.9688350000001,
-0.140922709716797,-8.59398685913086,-5.91918476440429,10.4361495591134,14.9718400000002,
-0.169653129638672,-8.54370862426758,-5.93354997436523,10.4034011044019,14.9748980000002,
-0.143316911376953,-8.57243904418945,-5.95988619262695,10.4416231656048,14.9778430000001,
-0.140922709716797,-8.5700448425293,-5.90481955444336,10.4082862078064,14.9808110000001,
-0.148105314697266,-8.55807383422852,-5.89524274780273,10.393096265881,14.9838770000001,
-0.114586491455078,-8.56286223754883,-5.91679056274414,10.4088496159106,14.9868269999999,
-0.126557499755859,-8.56046803588867,-5.89284854614258,10.3934255075981,14.9899150000001,
-0.133740104736328,-8.59398685913086,-5.89045434448242,10.4197864150356,14.9928910000001,
-0.131345903076172,-8.56525643920899,-5.88566594116211,10.3933600527751,14.995856,
-0.128951701416016,-8.57243904418945,-5.90481955444336,10.4101024816367,14.9988980000001,
-0.140922709716797,-8.5532854309082,-5.84975291625976,10.3633083546708,15.001863,
-0.152893718017578,-8.60356366577149,-5.98622241088867,10.4823443462147,15.0049350000002,
-0.138528508056641,-8.58201585083008,-5.90003115112304,10.4153998384923,15.0078980000001,
-0.121769096435547,-8.55567963256836,-5.92636736938476,10.4084730813362,15.010861,
-0.174441532958984,-8.62511148071289,-5.9407325793457,10.4745062643757,15.0139470000001,
-0.167258927978516,-8.5915926574707,-5.95988619262695,10.4577092792809,15.016926,
-0.140922709716797,-8.62032307739258,-5.96467459594726,10.4836621561494,15.0200200000002,
-0.157682121337891,-8.57243904418945,-5.89524274780273,10.40506904702,15.023015,
-0.126557499755859,-8.58919845581055,-5.96706879760742,10.4592665588665,15.026069,
-0.162470524658203,-8.57243904418945,-5.91918476440429,10.4187262231466,15.029035,
-0.157682121337891,-8.55567963256836,-5.9024253527832,10.3953423547141,15.0320360000001,
-0.112192289794922,-8.56525643920899,-5.85693552124023,10.376892534823,15.0351270000001,
-0.102615483154297,-8.5700448425293,-5.89763694946289,10.403764709374,15.0381620000001,
-0.0978270798339844,-8.57243904418945,-5.90481955444336,10.4097634591008,15.0412570000001,
-0.150499516357422,-8.58680425415039,-5.93354997436523,10.4385282823686,15.0443310000001,
-0.136134306396484,-8.60595786743164,-5.9790398059082,10.4799790250755,15.047339,
-0.143316911376953,-8.54610282592774,-5.95988619262695,10.4200123165706,15.050444,
-0.119374894775391,-8.60356366577149,-5.9790398059082,10.4778086982499,15.0534259999999,
-0.109798088134766,-8.56765064086914,-5.8641181262207,10.3828981754813,15.0565470000001,
-0.148105314697266,-8.56765064086914,-5.92157896606445,10.415933474229,15.0596030000002,
-0.100221281494141,-8.53652601928711,-5.92157896606445,10.3897746960445,15.062572,
-0.124163298095703,-8.58919845581055,-5.91679056274414,10.4306355128185,15.0656430000001,
-0.145711113037109,-8.60595786743164,-5.88806014282226,10.4284703955069,15.068681,
-0.169653129638672,-8.5700448425293,-5.9024253527832,10.4073568129731,15.0718100000001,
-0.128951701416016,-8.57483324584961,-5.90721375610351,10.4134320997318,15.0747650000001,
-0.184018339599609,-8.62511148071289,-5.91679056274414,10.4611099491121,15.0776960000001,
-0.138528508056641,-8.57962164916992,-5.95509778930664,10.4447253420401,15.0807600000001,
-0.131345903076172,-8.5700448425293,-5.88327173950195,10.3959514576608,15.0837590000001,
-0.121769096435547,-8.62511148071289,-5.91918476440429,10.4615545710343,15.086832,
-0.100221281494141,-8.54849702758789,-5.88806014282226,10.3805634712878,15.0898690000001,
-0.138528508056641,-8.58201585083008,-5.9024253527832,10.4167562732657,15.092891,
-0.143316911376953,-8.5915926574707,-5.90003115112304,10.4233570270433,15.0959760000001,
-0.164864726318359,-8.6083520690918,-5.91200215942383,10.4442651850886,15.0989650000001,
-0.150499516357422,-8.56286223754883,-5.91439636108398,10.4079462008442,15.1020410000001,
-0.157682121337891,-8.56525643920899,-5.91200215942383,10.4086623085694,15.1050380000002,
-0.121769096435547,-8.58680425415039,-5.89524274780273,10.4164255897819,15.1080040000002,
-0.138528508056641,-8.56046803588867,-5.86172392456055,10.3759631123468,15.111093,
-0.119374894775391,-8.57483324584961,-5.87369493286133,10.3943401774211,15.1140970000001,
-0.140922709716797,-8.58680425415039,-5.95270358764648,10.4492940676195,15.117168,
-0.133740104736328,-8.59638106079102,-5.92157896606445,10.439384618323,15.120099,
-0.150499516357422,-8.57722744750977,-5.90481955444336,10.4143350609281,15.1231560000001,
-0.167258927978516,-8.57243904418945,-5.89524274780273,10.4052185835211,15.1261550000002,
-0.152893718017578,-8.59638106079102,-5.91439636108398,10.4355751229791,15.1291040000001,
-0.114586491455078,-8.5700448425293,-5.89763694946289,10.4038896694773,15.132214,
-0.143316911376953,-8.54131442260742,-5.88806014282226,10.3751551337038,15.135205,
-0.140922709716797,-8.5700448425293,-5.96706879760742,10.4437272009784,15.1382250000001,
-0.181624137939453,-8.58201585083008,-5.93833837768554,10.4378084902567,15.1412030000001,
-0.131345903076172,-8.58201585083008,-5.92397316772461,10.42888804725,15.1441630000002,
-0.164864726318359,-8.55089122924805,-5.87130073120117,10.3738658883089,15.1472390000001,
-0.174441532958984,-8.54370862426758,-5.91918476440429,10.3952938957954,15.1501970000002,
-0.152893718017578,-8.60116946411133,-5.9407325793457,10.4544629808838,15.153233,
-0.131345903076172,-8.61074627075195,-5.8808775378418,10.4281793089981,15.1562390000001,
-0.148105314697266,-8.57483324584961,-5.95988619262695,10.4436556725811,15.159275,
-0.133740104736328,-8.5532854309082,-5.94552098266601,10.4175715900359,15.162362,
-0.124163298095703,-8.57722744750977,-5.93833837768554,10.4330297564419,15.1653220000001,
-0.155287919677734,-8.5532854309082,-5.95509778930664,10.4233389890567,15.168392,
-0.179229936279297,-8.6083520690918,-5.92397316772461,10.4512825436602,15.1713340000001,
-0.121769096435547,-8.55567963256836,-5.94312678100586,10.4180246507244,15.17436,
-0.167258927978516,-8.5700448425293,-5.92157896606445,10.4181928184925,15.177459,
-0.133740104736328,-8.57483324584961,-5.91918476440429,10.4202878983692,15.1804790000001,
-0.136134306396484,-8.57483324584961,-5.93833837768554,10.4312108804011,15.1835700000001,
-0.114586491455078,-8.57722744750977,-5.82820510131836,10.3706284984745,15.1866260000002,
-0.148105314697266,-8.57962164916992,-5.9024253527832,10.4149156440331,15.189646,
-0.131345903076172,-8.57722744750977,-5.88806014282226,10.4045823884509,15.1927540000001,
-0.119374894775391,-8.57962164916992,-5.89045434448242,10.4077668302494,15.1957620000001,
-0.145711113037109,-8.56525643920899,-5.86651232788086,10.3827172017277,15.1989590000001,
-0.150499516357422,-8.55807383422852,-5.90481955444336,10.398565854341,15.201937,
-0.143316911376953,-8.58201585083008,-5.91679056274414,10.4249674514774,15.2049019999999,
-0.160076322998047,-8.57243904418945,-5.92397316772461,10.4214103502093,15.2079820000001,
-0.143316911376953,-8.57483324584961,-5.92397316772461,10.423135949566,15.2109850000002,
-0.169653129638672,-8.59877526245117,-5.93833837768554,10.4513913373498,15.2140770000001,
-0.121769096435547,-8.56286223754883,-5.91679056274414,10.4089311639315,15.217042,
-0.164864726318359,-8.60116946411133,-5.96467459594726,10.4682682218161,15.220057,
-0.157682121337891,-8.53413181762695,-5.87369493286133,10.3613011584619,15.2230690000001,
-0.112192289794922,-8.58201585083008,-5.89045434448242,10.4096606841059,15.226038,
-0.133740104736328,-8.58680425415039,-5.90960795776367,10.4247091052544,15.229108,
-0.145711113037109,-8.54610282592774,-5.92157896606445,10.3981826629046,15.2321590000001,
-0.0882502731933594,-8.59638106079102,-5.88327173950195,10.4172185257806,15.235203,
-0.124163298095703,-8.58919845581055,-5.98382820922851,10.4688082738892,15.238267,
-0.140922709716797,-8.55807383422852,-5.94552098266601,10.4215980884672,15.2412450000002,
-0.133740104736328,-8.58680425415039,-5.91439636108398,10.4274243239025,15.2443250000001,
-0.138528508056641,-8.55567963256836,-5.94791518432617,10.4209663257602,15.2473030000001,
-0.145711113037109,-8.60116946411133,-5.90003115112304,10.4312854175814,15.2503880000002,
-0.150499516357422,-8.53892022094727,-5.88566594116211,10.3719271215663,15.25341,
-0.133740104736328,-8.57962164916992,-5.94791518432617,10.4405693857403,15.2563890000001,
-0.140922709716797,-8.56046803588867,-5.90481955444336,10.4004022121321,15.259462,
-0.152893718017578,-8.5700448425293,-5.90960795776367,10.4111724270822,15.2624499999999,
-0.138528508056641,-8.58680425415039,-5.9024253527832,10.4207016314554,15.265535,
-0.128951701416016,-8.59638106079102,-5.94312678100586,10.4515621712131,15.2684770000001,
-0.128951701416016,-8.55089122924805,-5.87130073120117,10.3733572979982,15.2714820000001,
-0.160076322998047,-8.57722744750977,-5.9024253527832,10.4131205774579,15.274574,
-0.176835734619141,-8.55807383422852,-5.91200215942383,10.4030605190096,15.277558,
-0.148105314697266,-8.55089122924805,-5.91679056274414,10.3994272227874,15.280606,
-0.143316911376953,-8.55807383422852,-5.93354997436523,10.4148059409421,15.2835750000002,
-0.143316911376953,-8.5532854309082,-5.9407325793457,10.4149668736378,15.286558,
-0.140922709716797,-8.58441005249024,-5.95509778930664,10.448691058674,15.2896330000001,
-0.152893718017578,-8.57962164916992,-5.87369493286133,10.3987295520287,15.292588,
-0.131345903076172,-8.55567963256836,-5.89284854614258,10.3895413618299,15.295693,
-0.138528508056641,-8.57483324584961,-5.92397316772461,10.4230712092738,15.2986860000001,
-0.109798088134766,-8.5532854309082,-5.85454131958008,10.3656355977535,15.3016850000001,
-0.114586491455078,-8.56286223754883,-5.90721375610351,10.4034087742221,15.304781,
-0.143316911376953,-8.54131442260742,-5.91918476440429,10.3928504308531,15.3078010000002,
-0.152893718017578,-8.58919845581055,-5.92397316772461,10.4350929413316,15.310849,
-0.128951701416016,-8.59398685913086,-5.89284854614258,10.4210797264001,15.3138690000001,
-0.121769096435547,-8.58201585083008,-5.93833837768554,10.4369385580561,15.3169310000001,
-0.133740104736328,-8.57243904418945,-5.92157896606445,10.4196782595863,15.319982,
-0.157682121337891,-8.57962164916992,-5.93354997436523,10.4327267093787,15.322991,
-0.140922709716797,-8.58201585083008,-5.89284854614258,10.4113649086845,15.3261660000001,
-0.131345903076172,-8.57483324584961,-5.91439636108398,10.4175381571841,15.32916,
-0.138528508056641,-8.57722744750977,-5.9407325793457,10.4345735137167,15.3322270000001,
-0.181624137939453,-8.53652601928711,-5.92397316772461,10.3922433524898,15.335245,
-0.109798088134766,-8.5532854309082,-5.84735871459961,10.3615805367689,15.338299,
-0.124163298095703,-8.5700448425293,-5.91439636108398,10.4135089880194,15.3414500000001,
-0.174441532958984,-8.58201585083008,-5.86890652954101,10.3983407217118,15.344435,
-0.138528508056641,-8.54131442260742,-5.89045434448242,10.3764490360536,15.347503,
-0.136134306396484,-8.52455501098633,-5.89045434448242,10.3626262631218,15.3505360000001,
-0.157682121337891,-8.62511148071289,-5.88806014282226,10.4444561347926,15.3535830000001,
-0.140922709716797,-8.56286223754883,-5.90721375610351,10.4037321798311,15.3566499999999,
-0.126557499755859,-8.57483324584961,-5.92876157104492,10.4256412637867,15.35962,
-0.128951701416016,-8.5532854309082,-5.91200215942383,10.3984176554376,15.3626690000001,
-0.116980693115234,-8.52934341430664,-5.93115577270508,10.3895135767672,15.3656800000001,
-0.102615483154297,-8.5915926574707,-5.96946299926758,10.4623363943678,15.368651,
-0.138528508056641,-8.59877526245117,-5.89284854614258,10.4251518046243,15.3718020000001,
-0.169653129638672,-8.5532854309082,-5.90003115112304,10.3922009907048,15.3748580000001,
-0.131345903076172,-8.59638106079102,-5.89045434448242,10.4217307330891,15.3779530000002,
-0.155287919677734,-8.56765064086914,-5.90960795776367,10.4092371505527,15.380956,
-0.138528508056641,-8.59398685913086,-5.92636736938476,10.4401930288365,15.3839580000001,
-0.143316911376953,-8.53892022094727,-5.90721375610351,10.3840682122705,15.387064,
-0.157682121337891,-8.58201585083008,-5.92157896606445,10.4278932276191,15.390054,
-0.131345903076172,-8.53652601928711,-5.91200215942383,10.3846664730868,15.3931720000001,
-0.143316911376953,-8.57243904418945,-5.91679056274414,10.417085075337,15.39618,
-0.169653129638672,-8.57483324584961,-5.87848333618164,10.3977456072117,15.3991510000001,
-0.136134306396484,-8.56765064086914,-5.86651232788086,10.3845624340432,15.402204,
-0.167258927978516,-8.56286223754883,-5.91918476440429,10.4109237593685,15.405211,
-0.102615483154297,-8.54610282592774,-5.93354997436523,10.4044903165413,15.4082900000001,
-0.160076322998047,-8.56765064086914,-5.93354997436523,10.4229207629848,15.4112580000001,
-0.150499516357422,-8.57243904418945,-5.90960795776367,10.4131084448992,15.4143329999999,
-0.167258927978516,-8.54610282592774,-5.94791518432617,10.4135269769784,15.4173430000001,
-0.164864726318359,-8.57962164916992,-5.94552098266601,10.4396507497239,15.4203130000001,
-0.136134306396484,-8.56765064086914,-5.94312678100586,10.4280355766785,15.42336,
-0.152893718017578,-8.54370862426758,-5.8808775378418,10.3731891991077,15.4263210000001,
-0.119374894775391,-8.56286223754883,-5.91200215942383,10.4061822777508,15.4293500000001,
-0.150499516357422,-8.60116946411133,-5.87369493286133,10.4164801357803,15.432325,
-0.114586491455078,-8.58680425415039,-5.89045434448242,10.4136347999894,15.4352490000001,
-0.126557499755859,-8.57722744750977,-5.96228039428711,10.4467045036777,15.438343,
-0.150499516357422,-8.5532854309082,-5.85932972290039,10.3688517478395,15.4413959999999,
-0.116980693115234,-8.57722744750977,-5.91200215942383,10.417978916369,15.444477,
-0.160076322998047,-8.55567963256836,-5.86890652954101,10.37638387189,15.4474250000001,
-0.152893718017578,-8.56765064086914,-5.89045434448242,10.3983395971389,15.4503999999999,
-0.148105314697266,-8.53413181762695,-5.86890652954101,10.3584460667304,15.453428,
-0.155287919677734,-8.58201585083008,-5.92397316772461,10.4292170604422,15.4564580000001,
-0.152893718017578,-8.58441005249024,-5.93594417602539,10.4379550535148,15.4595400000001,
-0.121769096435547,-8.55089122924805,-5.92397316772461,10.403173872391,15.4625559999999,
-0.140922709716797,-8.58919845581055,-5.91918476440429,10.4322067463489,15.4655150000001,
-0.157682121337891,-8.54370862426758,-5.94552098266601,10.4100451710401,15.4686410000002,
-0.145711113037109,-8.56286223754883,-5.95509778930664,10.4310608812291,15.47165,
-0.133740104736328,-8.58441005249024,-5.91679056274414,10.4268112540838,15.474747,
-0.124163298095703,-8.56046803588867,-5.90721375610351,10.4015481481539,15.477731,
-0.126557499755859,-8.61314047241211,-5.88327173950195,10.4314472610022,15.4808030000002,
-0.148105314697266,-8.58441005249024,-5.89763694946289,10.4161486510709,15.4838560000001,
-0.174441532958984,-8.56525643920899,-5.9024253527832,10.4034932961487,15.486844,
-0.160076322998047,-8.58201585083008,-5.90721375610351,10.4197790213316,15.4899250000001,
-0.136134306396484,-8.56286223754883,-5.90003115112304,10.399591810876,15.4929160000002,
-0.150499516357422,-8.59877526245117,-5.90721375610351,10.4334443248078,15.4958980000001,
-0.152893718017578,-8.56525643920899,-5.91679056274414,10.4113113929898,15.4989430000001,
-0.136134306396484,-8.57962164916992,-5.93833837768554,10.4351474776438,15.5018790000001,
-0.152893718017578,-8.57243904418945,-5.95270358764648,10.437661024278,15.504968,
-0.121769096435547,-8.57962164916992,-5.94312678100586,10.4376956887457,15.5079170000001,
-0.136134306396484,-8.5532854309082,-5.92397316772461,10.4053199039667,15.510951,
-0.128951701416016,-8.58201585083008,-5.91439636108398,10.4234211716308,15.514013,
-0.162470524658203,-8.57962164916992,-5.93115577270508,10.4314386886172,15.5169760000001,
-0.126557499755859,-8.59398685913086,-5.91918476440429,10.4359654661567,15.5200870000001,
-0.148105314697266,-8.58680425415039,-5.86651232788086,10.400534090926,15.523048,
-0.148105314697266,-8.54370862426758,-5.92636736938476,10.3989769899512,15.526079,
-0.162470524658203,-8.59877526245117,-5.90960795776367,10.4349795831132,15.5290500000001,
-0.150499516357422,-8.52934341430664,-5.89045434448242,10.3667642766695,15.532023,
-0.0834618698730469,-8.5915926574707,-5.89284854614258,10.4186416707459,15.5351090000001,
-0.176835734619141,-8.56525643920899,-5.87848333618164,10.3899689643528,15.5380930000001,
-0.148105314697266,-8.60356366577149,-5.90960795776367,10.4387120445814,15.541127,
-0.152893718017578,-8.60595786743164,-5.89284854614258,10.4312775484498,15.5440980000001,
-0.128951701416016,-8.58441005249024,-5.92397316772461,10.4308284705729,15.547073,
-0.150499516357422,-8.55807383422852,-5.91679056274414,10.4053682500865,15.5500910000001,
-0.162470524658203,-8.54370862426758,-5.85214711791992,10.3570738926371,15.553097,
-0.133740104736328,-8.56765064086914,-5.93115577270508,10.4211867231949,15.5561750000002,
-0.121769096435547,-8.57243904418945,-5.9407325793457,10.4304286804757,15.559168,
-0.138528508056641,-8.57722744750977,-5.9024253527832,10.4128116221815,15.562099,
-0.100221281494141,-8.57243904418945,-5.88806014282226,10.4002888285422,15.5651440000001,
-0.164864726318359,-8.57243904418945,-5.92636736938476,10.4228461439876,15.5681380000001,
-0.150499516357422,-8.55807383422852,-5.86651232788086,10.3768610258454,15.5711840000001,
-0.140922709716797,-8.52694921264649,-5.90481955444336,10.3728306674554,15.5741379999999,
-0.143316911376953,-8.53652601928711,-5.92636736938476,10.3930094973478,15.5771140000002,
-0.186412541259766,-8.58680425415039,-5.9024253527832,10.4214481709507,15.580166,
-0.133740104736328,-8.54849702758789,-5.97425140258789,10.4300703577501,15.5831520000002,
