X,Y,Z,Magnitude,Seconds,
-0.0350511123046877,0.0447236870117187,-0.0485544096679646,0.0747416841656819,0.0,
-0.0302627089843752,-0.000766144531250068,-0.09643844287109,0.101078146975082,0.00380300000006173,
-0.0111090957031252,0.0231758720703125,-0.137139871093746,0.139527335304484,0.00758500000006279,
-0.00632069238281274,0.0519062919921874,-0.0844674345703087,0.0993426484621069,0.0114690000000337,
-0.00153228906250025,0.0207816704101562,-0.0198239897460901,0.028761368261272,0.0153250000000753,
-0.0206859023437502,0.0327526787109375,-0.09643844287109,0.103927945144305,0.0191150000000562,
-0.0254743056640627,0.0423294853515625,-0.139534072753904,0.148021900536664,0.0228859999999713,
0.00325611425781225,0.0566946953124999,-0.13474566943359,0.146223411900227,0.0267129999999725,
-0.037445313964844,0.01838746875,-0.108409451171871,0.116158769140966,0.030522000000019,
-0.0254743056640627,0.00881066210937498,0.0113006318359403,0.0292279369056925,0.0342960000000403,
-0.0206859023437502,0.0519062919921874,-0.0174297880859342,0.0585317624617093,0.038146000000097,
0.0152271225585936,0.0495120903320312,-0.060525417968746,0.0796657929776202,0.0418910000000778,
-0.0589931289062502,0.0112048637695312,-0.0796790312499969,0.0997721717272967,0.0456090000000131,
-0.0111090957031252,0.00162805712890618,-0.0581312163085901,0.0592055815516769,0.0493089999999938,
-0.0326569106445315,0.0231758720703125,-0.0509486113281223,0.0648024371094828,0.0530170000001817,
-0.0350511123046877,0.0159932670898437,-0.0174297880859342,0.0422866714074717,0.0567200000000412,
-0.0230801040039065,0.0135990654296875,-0.0701022246093714,0.0750463035503736,0.0604910000001837,
-0.00392649072265649,0.0471178886718749,-0.110803652832027,0.120469756549977,0.0643680000000586,
0.0128329208984373,0.0519062919921874,0.0256658417968776,0.0593100534674023,0.0683120000001054,
0.0128329208984373,0.0207816704101562,-0.0317949980468715,0.0400934356799523,0.0720700000001671,
0.0271981308593748,-0.029496564453125,-0.0557370146484342,0.0686760543326479,0.0758140000000367,
-0.0565989272460939,-0.000766144531250068,-0.0844674345703087,0.101679757305674,0.0795689999999922,
-0.0254743056640627,0.03754108203125,-0.0341891997070274,0.0568082253353345,0.0833460000001196,
-0.0398395156250002,0.027964275390625,-0.0653138212890596,0.081456018529858,0.0872580000000198,
-0.0446279189453127,0.0399352836914062,-0.0317949980468715,0.0678041291788565,0.0910040000001118,
-0.00871489404296899,0.0159932670898437,-0.0629196196289037,0.0655027671524889,0.0947419999999966,
0.0248039291992186,0.0327526787109375,-0.120380459472653,0.127198380057722,0.0985120000000279,
0.0176213242187498,0.027964275390625,-0.0629196196289037,0.0710731334583676,0.102272000000085,
-0.0206859023437502,0.0566946953124999,-0.0701022246093714,0.0925014428402884,0.105981000000156,
-0.0135032973632815,-0.00316034619140632,-0.0485544096679646,0.0504961139686539,0.109753000000183,
0.0104387192382811,0.00641646044921873,-0.0413718046874969,0.0431481638906274,0.113499000000047,
-0.0111090957031252,0.0135990654296875,-0.122774661132809,0.124024046072438,0.117199000000028,
-0.0326569106445315,0.0327526787109375,0.0256658417968776,0.0528956256294333,0.120916000000079,
0.00325611425781225,0.0351468803710937,-0.0294007963867156,0.0459381356614851,0.124643000000106,
-0.0230801040039065,0.0519062919921874,-0.106015249511715,0.120275464988669,0.128341999999975,
-0.00153228906250025,0.0303584770507812,-0.0533428129882783,0.0613957713211284,0.132132000000183,
-0.00632069238281274,0.027964275390625,-0.0437660063476528,0.0523203130910323,0.136103000000048,
-0.037445313964844,0.0207816704101562,-0.0796790312499969,0.0904587054069429,0.139932000000044,
0.0152271225585936,0.03754108203125,-0.0270065947265596,0.0486883380309506,0.143703000000187,
0.00804451757812485,0.00881066210937498,-0.0341891997070274,0.0362110950742633,0.147490000000062,
-0.0326569106445315,0.0327526787109375,-0.0844674345703087,0.0963013981127802,0.151235000000042,
-0.00632069238281274,0.0638773002929687,-0.110803652832027,0.128053543979996,0.155054000000064,
-0.0422337172851565,0.0112048637695312,-0.0341891997070274,0.0554809627207683,0.158961999999974,
-0.027868507324219,0.0159932670898437,-0.0653138212890596,0.0727896527266502,0.162750000000187,
0.0176213242187498,-0.00316034619140632,-0.0557370146484342,0.058541554960486,0.166516000000001,
-0.00632069238281274,0.00402225878906243,-0.106015249511715,0.106279644556216,0.170279000000164,
-0.0230801040039065,0.0566946953124999,-0.146716677734371,0.15897409601196,0.174024000000145,
-0.00871489404296899,-0.00316034619140632,-0.0150355864257783,0.0176636922922916,0.177752000000055,
-0.0302627089843752,0.00162805712890618,-0.0844674345703087,0.089739788432876,0.181547000000137,
0.0224097275390623,0.01838746875,-0.00306457812499694,0.0291493830893802,0.185312000000067,
-0.00632069238281274,0.0135990654296875,-0.127563064453122,0.128441508654447,0.189047000000073,
-0.0733583388671877,-0.00555454785156256,-0.0629196196289037,0.0968048419111067,0.19274200000018,
0.00804451757812485,0.027964275390625,-0.0868616362304646,0.0916059976738479,0.196458000000121,
-0.0206859023437502,0.0351468803710937,-0.0844674345703087,0.0937974267156862,0.200151000000005,
-0.0230801040039065,0.00881066210937498,0.00411802685547258,0.0250455008498355,0.203954000000067,
-0.0494163222656252,0.0135990654296875,-0.0701022246093714,0.086840252083949,0.208035000000109,
-0.018291700683594,0.0327526787109375,-0.0557370146484342,0.067185854750534,0.21180500000014,
-0.018291700683594,0.0303584770507812,-0.0437660063476528,0.056317730372981,0.215579000000162,
-0.00871489404296899,0.0303584770507812,-0.060525417968746,0.0682708775929707,0.219346999999971,
-0.00392649072265649,-0.00555454785156256,-0.0581312163085901,0.0585278450034383,0.223114000000123,
-0.0111090957031252,0.00881066210937498,-0.0341891997070274,0.0370127160683159,0.226908000000094,
-0.0446279189453127,-0.0151313544921876,-0.113197854492183,0.122614694469265,0.230707000000166,
-0.0494163222656252,0.0255700737304687,-0.0581312163085901,0.080467632538542,0.23446100000001,
-0.00392649072265649,0.00402225878906243,-0.0437660063476528,0.0441254938418153,0.238218000000188,
-0.0254743056640627,0.0327526787109375,-0.0150355864257783,0.0441332875613753,0.241975000000139,
-0.0206859023437502,0.00641646044921873,-0.0317949980468715,0.0384707606016845,0.245685999999978,
-0.0111090957031252,0.0423294853515625,-0.0246123930664037,0.0502092345084497,0.249369999999999,
0.0104387192382811,0.0207816704101562,-0.00545877978515286,0.0238881343163257,0.25316399999997,
-0.0111090957031252,0.00641646044921873,-0.10362104785156,0.104412185734677,0.256882000000132,
0.00325611425781225,0.0135990654296875,-0.0748906279296833,0.0761849264114832,0.260590000000093,
-0.0230801040039065,0.0303584770507812,-0.0150355864257783,0.0409926479852302,0.264276000000109,
0.0104387192382811,0.01838746875,-0.060525417968746,0.0641123395818565,0.267986000000064,
-0.0446279189453127,-0.0318907661132813,-0.127563064453122,0.138856067657675,0.271660999999995,
-0.0326569106445315,0.0351468803710937,-0.00545877978515286,0.0482863882414877,0.275558000000046,
-0.037445313964844,0.0638773002929687,-0.0724964262695273,0.103625252002091,0.279577000000018,
-0.0446279189453127,0.0159932670898437,-0.0796790312499969,0.0927156068983775,0.283339000000069,
-0.027868507324219,0.01838746875,-0.0437660063476528,0.0550473979324642,0.287115000000085,
0.0056503159179685,-0.00555454785156256,-0.0677080229492155,0.0681700479939661,0.290850999999975,
-0.037445313964844,0.0710599052734375,0.135799118164066,0.157775353492025,0.294668000000001,
0.235493675292969,-0.553826728027344,-0.311916592285153,0.677844581245027,0.298469000000068,
-0.0973003554687503,0.207529399902344,0.356065670898442,0.423460237791613,0.30208400000015,
0.146908213867187,-0.472423871582031,-0.601614993164059,0.778913947584708,0.305031999999983,
-0.353479933105469,0.34399889453125,0.166923739746098,0.520717617752455,0.307956999999988,
0.0271981308593748,0.147674358398437,0.353671469238284,0.384227748352198,0.310969999999998,
-0.037445313964844,-0.2497631171875,-0.668652639648434,0.714758783614417,0.313877000000048,
0.149302415527344,0.518775615722656,0.45901634228516,0.708600983089615,0.316901000000144,
-0.243346656738281,0.2865380546875,-0.546548354980466,0.663352663717912,0.319821000000047,
-0.0158974990234377,0.540323430664063,0.415920712402347,0.682049982922848,0.322747000000163,
-0.0326569106445315,0.0638773002929687,-0.098832644531246,0.122125652221811,0.325741000000107,
0.0295923325195311,-0.0366791694335938,-0.149110879394527,0.156381335101393,0.328670000000102,
-0.0398395156250002,-0.0103429511718751,0.013694833496098,0.0433787057052683,0.331665000000157,
-0.0685699355468752,-0.0678037910156251,-0.196994912597653,0.21933122378346,0.334569000000101,
-0.037445313964844,-0.0654095893554688,-0.0557370146484342,0.0937399633000598,0.337444000000005,
0.0104387192382811,-0.314406562011719,-0.0533428129882783,0.319070382193125,0.340454000000136,
-0.0350511123046877,-0.38383841015625,-0.101226846191404,0.398506436553955,0.34336600000006,
0.0655053574218748,-0.256945722167969,-0.0294007963867156,0.266789172980389,0.346357000000125,
0.0128329208984373,-0.108505219238281,-0.146716677734371,0.18293127120901,0.34928200000013,
-0.018291700683594,-0.0462559760742188,-0.192206509277341,0.198538519801719,0.352176999999983,
0.000861912597656,0.01838746875,-0.0844674345703087,0.086449924252411,0.355195000000094,
0.087053172363281,0.0303584770507812,0.0639730683593775,0.112216065795712,0.358159000000114,
0.0511401474609373,0.154856963378906,0.00890643017578441,0.163325804108654,0.361180000000104,
-0.0398395156250002,0.348787297851562,0.00651222851562849,0.351115615243852,0.364115999999967,
-0.123636573730469,0.264990239746094,-0.101226846191404,0.309439338020168,0.367103000000043,
-0.0302627089843752,0.221894609863281,0.00651222851562849,0.224043430079283,0.370046000000002,
-0.0111090957031252,0.154856963378906,-0.00306457812499694,0.155285165915361,0.372958000000153,
-0.102088758789063,0.135703350097656,-0.0844674345703087,0.189663547899189,0.375954000000092,
-0.17391480859375,0.0902135185546875,0.013694833496098,0.196398543891505,0.378892000000178,
-0.0781467421875002,-0.0534385810546876,-0.0413718046874969,0.103316124021173,0.381937999999991,
0.0176213242187498,-0.1348414375,-0.113197854492183,0.176936368776807,0.384974000000057,
-0.0589931289062502,-0.1348414375,-0.077284829589841,0.166238826421347,0.387968000000001,
-0.037445313964844,-0.132447235839844,-0.0748906279296833,0.156694058506515,0.391007000000172,
0.0535343491210936,-0.206667487304688,-0.129957266113278,0.249932526615264,0.393934000000172,
0.106206785644531,-0.168360260742188,-0.120380459472653,0.232629563334,0.396930000000111,
0.0271981308593748,-0.0893516059570313,-0.09643844287109,0.134252825194648,0.399849000000131,
0.0152271225585936,0.0112048637695312,0.00890643017578441,0.0208982949539982,0.402842000000192,
0.0295923325195311,0.0806367119140625,-0.09643844287109,0.129144720045608,0.40583700000002,
0.087053172363281,0.0806367119140625,-0.0509486113281223,0.1291367303407,0.408801000000039,
-0.00632069238281274,0.130914946777344,-0.0509486113281223,0.140621603739173,0.41180600000007,
0.096629979003906,0.181193181640625,0.320152645996098,0.380349889777361,0.414764999999989,
-0.456430604492188,0.142885955078125,-0.395713650390622,0.620753240814064,0.417707000000064,
-0.0350511123046877,0.281749651367187,0.119039706542972,0.307866689093128,0.420724000000064,
-0.164338001953125,0.0638773002929687,-0.161081887695309,0.238819310195276,0.423693000000185,
0.309713926757812,-0.280887738769531,-0.168264492675778,0.450703425452083,0.426692000000003,
-0.25052926171875,0.487650994140625,0.260297604492191,0.606896404642551,0.429643000000169,
-0.193068421875,0.147674358398437,-0.0868616362304646,0.258124147460726,0.432566000000179,
-0.358268336425781,0.360758306152344,0.454227938964847,0.681781326291251,0.435578000000078,
0.158879222167969,-0.7094498359375,-0.738084487792966,1.03601659642549,0.438493999999992,
0.484490647949219,-0.0462559760742188,0.772656759765628,0.913164427518041,0.441508999999996,
0.0176213242187498,-0.501154291503906,-0.915255410644528,1.04362761638148,0.444437999999991,
0.0631111557617186,0.377517717773437,0.480564157226565,0.614365163746549,0.447391000000152,
-0.319961109863281,-0.335954376953125,-0.778785916015622,0.906503148479472,0.450348000000076,
0.336050145019531,-0.0510443793945313,0.576332223632816,0.669099440018423,0.453299000000015,
0.0990241806640623,-0.194696479003906,-0.0246123930664037,0.21981418786139,0.45628899999997,
-0.0230801040039065,0.312874272949219,0.24832659619141,0.400111359811671,0.45923700000003,
-0.370239344726563,0.2099236015625,-0.520212136718747,0.672135223051144,0.462232000000085,
0.0248039291992186,0.202740996582031,-0.187418105957027,0.277208753540206,0.465179000000035,
-0.00153228906250025,0.0902135185546875,-0.0868616362304646,0.125242846855306,0.468107000000145,
-0.0709641372070314,0.264990239746094,0.159741134765628,0.317447580029272,0.471109000000069,
-0.193068421875,0.312874272949219,0.145375924804691,0.395347803473884,0.474050000000034,
-0.0158974990234377,0.0614830986328125,-0.113197854492183,0.129794669206119,0.477039999999988,
0.0726879624023435,-0.0486501777343751,-0.225725332519527,0.242079130477705,0.479976000000079,
-0.0470221206054689,-0.0941400092773438,-0.196994912597653,0.223339241429558,0.482856999999967,
-0.0925119521484377,0.03754108203125,0.0998860932617216,0.141226859192865,0.485875000000078,
0.0439575424804686,-0.177937067382813,-0.077284829589841,0.198914077868934,0.488790999999992,
0.161273423828125,-0.199484882324219,0.104674496582035,0.277056105768951,0.491807999999992,
0.00804451757812485,-0.170754462402344,-0.13474566943359,0.217665330552398,0.494727000000012,
-0.0446279189453127,-0.0247081611328125,-0.09643844287109,0.109098660117139,0.497624000000087,
0.0415633408203123,-0.0654095893554688,-0.175447097656246,0.191800963907371,0.500609000000168,
0.130148802246094,-0.11568782421875,-0.0844674345703087,0.193538448121944,0.503544000000147,
0.0248039291992186,-0.00316034619140632,0.0783382783203166,0.0822320408475964,0.506548000000066,
-0.0158974990234377,-0.0199197578125001,-0.0294007963867156,0.0389093055024369,0.509459000000106,
-0.0973003554687503,0.111761333496094,-0.0629196196289037,0.160987059645849,0.51236300000005,
0.0367749374999998,0.0878193168945312,-0.235302139160153,0.253834050397686,0.515386000000035,
-0.133213380371094,0.317662676269531,-0.0413718046874969,0.346939485829611,0.518351000000166,
-0.205039430175782,0.284143853027344,-0.0174297880859342,0.350831433387538,0.521460000000161,
-0.0542047255859377,0.128520745117187,0.0615788666992216,0.152471935205415,0.524505999999974,
0.0319865341796873,0.0447236870117187,0.00172382519531666,0.0550119816226837,0.527548000000024,
-0.114059767089844,0.01838746875,-0.201783315917965,0.232517173685022,0.530556000000161,
-0.106877162109375,0.0255700737304687,-0.158687686035153,0.19302419058327,0.533485000000155,
-0.0733583388671877,-0.03907337109375,-0.120380459472653,0.146286121121691,0.536444000000074,
0.120571995605469,-0.103716815917969,0.0639730683593775,0.17142735342926,0.539406000000099,
0.067899559082031,-0.0797747993164063,0.370430880859379,0.38495896693513,0.542347000000063,
0.166061827148437,-0.2497631171875,0.0496078583984403,0.304005073572752,0.545344000000114,
0.0487459458007811,-0.197090680664063,-0.374165835449215,0.42570057088762,0.548269000000118,
0.168456028808594,-0.000766144531250068,0.0998860932617216,0.195844969929007,0.551285000000007,
-0.0901177504882814,-0.156389252441406,-0.417261465332027,0.454627251364544,0.554208000000017,
0.166061827148437,0.221894609863281,0.442256930664065,0.521924267535679,0.557238000000098,
-0.00871489404296899,-0.103716815917969,-0.24966734912109,0.270493830797477,0.560158000000001,
0.66884417578125,0.391882927734375,0.68885970166016,1.03704023504273,0.563126000000011,
-1.69183866113281,-2.66072418896484,-0.465145498535152,3.1871823919967,0.566092000000026,
-1.94801823876953,-0.663960004394531,5.38388915722657,5.76384250334064,0.569013000000041,
-0.3079901015625,-1.53544940869141,-5.11229092089843,5.34677297528255,0.571973000000071,
-0.375027748046875,-1.03266706005859,-3.69971194140625,3.85939315412659,0.574874000000136,
-1.39735185693359,-0.867467145507813,-2.52655312792968,3.0147242276637,0.577739000000065,
0.331261741699219,0.777349395019531,0.889972641113285,1.22721543560248,0.580778000000009,
2.02875071875,1.33998678515625,2.32888783886719,3.36676590057068,0.583720000000085,
2.09339416357422,1.26097813037109,1.46697524121094,2.85033003837918,0.5867310000001,
2.22507525488281,2.12289072802734,1.58189692089844,3.45832658975179,0.589690000000019,
1.07346425634766,2.10852551806641,-0.683017849609371,2.46266496967782,0.592628999999988,
0.197186448730469,1.38308241503906,-1.8801186796875,2.34235900580229,0.595643000000109,
-0.0757525405273439,0.786926201660156,0.229172982910161,0.823110897966713,0.598604000000023,
-0.561775477539063,0.03754108203125,1.53880129101563,1.63856963026772,0.601601000000073,
-0.525862452636719,-0.0414675727539063,1.46218683789063,1.55442633391995,0.604524000000083,
0.434212413085937,-0.362290595214844,-0.36458902880859,0.672844748056065,0.607425000000148,
-0.770071021972656,-0.707055634277344,-1.19537700488281,1.58803754132198,0.610409000000118,
-0.911328919921875,-1.35349008251953,-1.17143498828125,2.00866018418601,0.613320000000158,
-1.32552580712891,-1.15716554638672,-0.244878945800778,1.77651807342501,0.616303000000016,
-0.734157997070313,-1.53066100537109,-0.175447097656246,1.70666129097192,0.619215000000167,
-0.516285645996094,-1.21941478955078,0.454227938964847,1.39994511241442,0.622123000000101,
-0.319961109863281,-0.972812018554688,-0.0509486113281223,1.02534584227257,0.625106000000187,
-0.027868507324219,-0.541855719726563,-0.359800625488278,0.651030540606681,0.628030000000081,
0.146908213867187,-0.168360260742188,-0.47951070849609,0.529015803413515,0.631027000000131,
0.570681907714844,0.0973961235351562,-0.261638357421871,0.635309747089672,0.633996000000025,
0.539557286132812,0.76537838671875,0.0950976899414098,0.941259640326406,0.636929000000009,
0.719122410644531,1.13169124072266,0.449439535644535,1.41416335761466,0.639941000000135,
0.613777537597656,1.16281586230469,0.310575839355472,1.35104439130555,0.64287800000011,
0.652084764160156,1.19633468554688,0.169317941406254,1.37298936076519,0.645890000000009,
0.312108128417969,1.06704779589844,-0.098832644531246,1.11614083976052,0.648824999999988,
0.0415633408203123,0.8994536796875,-0.115592056152341,0.907802818154392,0.651835000000119,
-0.176309010253906,0.619332085449219,-0.0413718046874969,0.645266398773941,0.654757000000018,
-0.272077076660156,0.104578728515625,0.0663672700195352,0.298943574327543,0.657768000000033,
-0.425305982910156,-0.254551520507813,0.0759440766601589,0.50144706447618,0.660847000000103,
-0.564169679199219,-0.570586139648438,-0.0796790312499969,0.806352725367499,0.663884000000053,
-0.650360938964844,-0.7094498359375,-0.230513735839841,0.989659033735265,0.666914000000133,
-0.372633546386719,-0.874649750488281,-0.21136012255859,0.973930719984711,0.669824000000062,
-0.317566908203125,-1.11167571484375,-0.666258437988278,1.33438073365499,0.672706000000062,
-0.104482960449219,-0.7477570625,0.0184832368164098,0.755247604157784,0.675695000000132,
-0.185885816894531,-0.8626787421875,-0.565701968261715,1.0482303497037,0.678625000000011,
0.0798705673828123,-0.300041352050781,0.00411802685547258,0.310517436901208,0.681647999999996,
0.410270396484375,-0.118082025878906,0.107068698242191,0.440146417922934,0.684599000000162,
0.474913841308594,0.226683013183594,0.322546847656254,0.617223471738935,0.687548000000106,
0.319290733398437,0.461314775878906,-0.127563064453122,0.575352266260409,0.69055000000003,
0.348021153320312,0.585813262207031,-0.252061550781246,0.726519735945481,0.693525000000136,
0.455760228027343,0.609755278808594,0.0328484467773471,0.76196975395495,0.696556000000101,
0.261829893554687,0.837204436523438,0.245932394531254,0.911015315114549,0.699547000000166,
-0.0613873305664064,0.818050823242188,0.0304542451171912,0.820915960867462,0.702469000000065,
-0.145184388671875,0.674398723632813,0.135799118164066,0.703088575960192,0.705472999999984,
-0.260106068359375,0.241048223144531,-0.0677080229492155,0.361031562401681,0.708413000000064,
-0.195462623535156,0.01838746875,-0.00785298144530877,0.19648258325831,0.711424000000079,
-0.401363966308594,-0.0582269843750001,-0.175447097656246,0.441888107145206,0.714326000000028,
-0.533045057617188,-0.297647150390625,-0.129957266113278,0.624195282424826,0.717219999999998,
-0.468401612792969,-0.529884711425781,-0.304733987304685,0.770091346067757,0.720225000000028,
-0.176309010253906,-0.510731098144531,0.0472136567382844,0.542365422101402,0.723179000000073,
0.00325611425781225,-0.656777399414063,-0.110803652832027,0.66606651630455,0.726172000000133,
0.00804451757812485,-0.417357233398438,-0.129957266113278,0.437196369551144,0.729154999999992,
0.115783592285156,-0.321589166992188,-0.117986257812497,0.361588425702181,0.732064000000037,
0.300137120117187,-0.221032697265625,0.0184832368164098,0.373201519525267,0.735068000000183,
0.424635606445312,-0.0749863959960938,0.00890643017578441,0.431297672546627,0.738011000000142,
0.333655943359375,0.241048223144531,0.0950976899414098,0.422461956929097,0.741035000000011,
0.13254300390625,0.377517717773437,0.0639730683593775,0.405191101324635,0.743982000000187,
0.163667625488281,0.444555364257813,-0.00785298144530877,0.473791338925638,0.746981000000005,
0.101418382324219,0.444555364257813,-0.0581312163085901,0.45966770440523,0.749926000000187,
-0.0398395156250002,0.499622002441406,0.00411802685547258,0.501224790362546,0.75287000000003,
-0.185885816894531,0.413430742675781,0.0113006318359403,0.453438220920873,0.75587100000007,
-0.281653883300782,0.300903264648438,-0.0485544096679646,0.415005078707119,0.758799000000181,
-0.348691529785156,0.0638773002929687,-0.0365834013671833,0.356376819802051,0.761794000000009,
-0.341508924804688,0.0112048637695312,-0.0629196196289037,0.347437437861255,0.764724999999999,
-0.28883648828125,-0.101322614257813,-0.0748906279296833,0.31512123900871,0.767612000000099,
-0.274471278320313,-0.120476227539063,-0.122774661132809,0.323917615206562,0.770588999999973,
-0.0925119521484377,-0.331165973632813,-0.177841299316404,0.387113537770291,0.773495000000139,
0.0056503159179685,-0.285676142089844,-0.0533428129882783,0.290668608430308,0.776481999999987,
0.118177793945312,-0.295252948730469,-0.170658694335934,0.360921992497359,0.779416000000083,
0.161273423828125,-0.177937067382813,0.0280600434570353,0.241781064644964,0.782346000000189,
0.290560313476562,-0.19230227734375,-0.139534072753904,0.375333477188596,0.785335000000032,
0.312108128417969,-0.0558327827148438,0.00411802685547258,0.317089485154321,0.788275999999996,
0.276195103515625,0.0495120903320312,-0.0748906279296833,0.290420020740231,0.791288000000122,
0.213945860351562,0.197952593261719,-0.0485544096679646,0.29549211671179,0.794270000000097,
0.144514012207031,0.269778643066406,0.035242648437503,0.308069570467151,0.797305000000051,
0.0104387192382811,0.284143853027344,-0.0246123930664037,0.285398784098698,0.800412000000051,
-0.0996945571289065,0.308085869628906,-0.0270065947265596,0.324938861856893,0.80345299999999,
-0.140395985351563,0.224288811523437,-0.0533428129882783,0.26992954520566,0.806482000000187,
-0.21222203515625,0.250625029785156,-0.0246123930664037,0.329327902937371,0.809409000000187,
-0.298413294921875,0.164433770019531,-0.0509486113281223,0.344506488045189,0.81232,
-0.252923463378906,0.0902135185546875,-0.0461602080078087,0.272469304805004,0.81532900000002,
-0.224193043457031,-0.0151313544921876,-0.0844674345703087,0.240054631544955,0.818259000000126,
-0.157155396972656,-0.0845632026367188,-0.101226846191404,0.205172192140334,0.821228000000019,
-0.0565989272460939,-0.161177655761719,-0.0868616362304646,0.191641903379416,0.824154000000135,
-0.0158974990234377,-0.185119672363281,-0.0701022246093714,0.198585864215637,0.827046000000109,
0.0918415756835935,-0.187513874023438,-0.101226846191404,0.232041380717278,0.830037000000175,
0.146908213867187,-0.211455890625,-0.0533428129882783,0.262946900873849,0.832974000000149,
0.233099473632812,-0.108505219238281,-0.129957266113278,0.28809310686908,0.836001000000124,
0.235493675292969,-0.0534385810546876,-0.0557370146484342,0.247829715429866,0.838957000000164,
0.156485020507812,0.0135990654296875,-0.0413718046874969,0.162431900952343,0.841976000000159,
0.106206785644531,0.0519062919921874,-0.0461602080078087,0.12690511915855,0.844925999999987,
0.103812583984375,0.066271501953125,-0.0246123930664037,0.125597509756727,0.847867000000178,
0.0128329208984373,0.150068560058594,-0.00785298144530877,0.15082084038496,0.850875000000087,
-0.0996945571289065,0.185981584960938,-0.0820732329101528,0.226415923084123,0.853809000000183,
-0.171520606933594,0.205135198242187,-0.09643844287109,0.284253656835106,0.856788000000051,
-0.00153228906250025,-0.0893516059570313,-0.723719277832028,0.729215777738376,0.859699000000091,
-0.339114723144532,0.272172844726562,1.682453390625,1.73773595936941,0.862618999999995,
-0.894569508300781,-0.517913703125,1.59386792919922,1.89971160569071,0.865631000000121,
-0.104482960449219,-0.3263775703125,-1.55450725390625,1.59183284608481,0.868532000000187,
-0.401363966308594,-0.572980341308594,-2.53134153125,2.62623103568749,0.871524000000136,
0.0152271225585936,-0.381444208496094,-0.769209109374996,0.858728247702439,0.874479000000065,
0.388722581542969,0.2099236015625,-0.601614993164059,0.746400538514136,0.877398000000085,
1.04233963476563,1.64883879931641,2.21636036083985,2.95252342064151,0.880419000000074,
0.70715140234375,0.15246276171875,1.51725347607422,1.68088253908682,0.883381000000099,
1.24584677587891,0.710311748535156,0.667311886718753,1.58176550829479,0.886392999999998,
0.32407913671875,0.442161162597656,-1.2672030546875,1.38070176445727,0.889347000000043,
-0.027868507324219,0.430190154296875,-1.71491876513672,1.76827220573431,0.892269000000169,
-0.269682875,0.355969902832031,-0.484299111816403,0.658778456308848,0.895267999999987,
-0.190674220214844,-0.278493537109375,1.00010591748047,1.05552221892563,0.898194999999987,
-0.59529430078125,-0.223426898925781,1.39036078808594,1.5288551287657,0.901191000000154,
-0.659937745605469,-0.637623786132813,0.427891720703128,1.01250839273729,0.904111000000057,
-0.753311610351563,-0.42214563671875,-1.27917406298828,1.54336373039964,0.907026000000087,
-0.801195643554688,-0.647200592773438,-1.37015372607422,1.71408993335016,0.910004000000072,
-0.741340602050782,-0.544249921386719,-0.824275747558591,1.23499974623145,0.912934000000178,
-0.355874134765625,-0.448481854980469,0.28663382275391,0.640266602587098,0.915942000000086,
0.223522666992187,-0.496365888183594,0.487746762207035,0.730916124911083,0.918894000000137,
0.321684935058594,-0.142024042480469,0.696042306640628,0.779824928249765,0.92181400000004,
0.319290733398437,0.0926077202148437,0.0184832368164098,0.332963049482543,0.924842000000126,
0.544345689453125,0.339210491210937,-0.240090542480466,0.684849951129682,0.92779500000006,
0.551528294433594,0.327239482910156,-0.565701968261715,0.855153702927909,0.930831000000126,
0.455760228027343,0.308085869628906,-0.333464407226559,0.643298375097821,0.933851000000004,
0.472519639648437,0.676792925292969,0.480564157226565,0.955125846572577,0.93698900000004,
0.331261741699219,0.34399889453125,0.365642477539065,0.601468205587983,0.940054000000146,
0.163667625488281,0.260201836425781,0.107068698242191,0.325508515181398,0.94307300000014,
-0.0925119521484377,0.22907721484375,-0.196994912597653,0.315977573951446,0.946080000000165,
-0.499526234375,0.150068560058594,-0.539365749999996,0.750308232541791,0.94902900000011,
-0.516285645996094,0.01838746875,-0.216148525878904,0.560008171822751,0.952020000000175,
-0.504314637695313,-0.11568782421875,0.0687614716796912,0.521962705998982,0.955000000000155,
-0.511497242675782,-0.328771771972656,0.0567904633789098,0.610692610109013,0.957932000000028,
-0.501920436035157,-0.292858747070313,0.0400310517578166,0.582488501989655,0.960954000000129,
-0.446853797851563,-0.180331269042969,-0.0246123930664037,0.482497101692298,0.963876000000027,
-0.269682875,-0.264128327148438,-0.362194827148434,0.52314215953561,0.966867000000093,
0.0152271225585936,-0.11568782421875,-0.177841299316404,0.212704174092634,0.969818000000032,
0.20915745703125,-0.07738059765625,-0.0748906279296833,0.235251365303413,0.972757000000001,
0.319290733398437,0.00881066210937498,0.16452953808594,0.359296770238323,0.975828999999976,
0.436606614746094,0.0950019218749999,0.135799118164066,0.467003320859847,0.978811000000178,
0.486884849609375,0.121338140136719,-0.0677080229492155,0.506324182123146,0.981830000000173,
0.431818211425781,0.226683013183594,-0.122774661132809,0.502917263176787,0.984807000000046,
0.254647288574218,0.174010576660156,-0.261638357421871,0.404449690866758,0.987755000000107,
0.13254300390625,0.169222173339844,-0.0317949980468715,0.217289469913185,0.990803000000142,
0.0726879624023435,0.138097551757812,0.0831266816406284,0.176817756122762,0.993772000000035,
-0.0637815322265627,0.154856963378906,0.162135336425784,0.233102188488238,0.996792000000141,
-0.279259681640625,0.0878193168945312,-0.077284829589841,0.302772434502509,0.999731000000111,
-0.367845143066406,0.0399352836914062,-0.149110879394527,0.398922211107463,1.00265800000011,
-0.439671192871094,-0.101322614257813,-0.232907937499997,0.507762875121085,1.00565400000005,
-0.394181361328125,-0.0845632026367188,-0.137139871093746,0.425837087513854,1.00858500000004,
