X,Y,Z,Magnitude,Seconds,
-0.269682875,0.135703350097656,0.0280600434570353,0.303202272971037,0.0,
-0.293624891601563,0.0590888969726562,-0.0796790312499969,0.3099287381551,0.00295900000014626,
-0.305595899902344,-0.0103429511718751,-0.230513735839841,0.382926119619578,0.00592700000015611,
-0.209827833496094,0.027964275390625,-0.0940442412109341,0.231633416658149,0.00885600000015074,
-0.0446279189453127,-0.0701979926757813,-0.00785298144530877,0.0835528493989212,0.0118120000001909,
0.0846589707031248,-0.113293622558594,0.0160890351562539,0.142342696634639,0.0148090000000138,
0.154090818847656,-0.103716815917969,0.0184832368164098,0.186662230782005,0.0177200000000539,
0.199580650390625,-0.0965342109375001,-0.129957266113278,0.256982841659337,0.0207100000000082,
0.269012498535156,-0.0678037910156251,-0.129957266113278,0.306355952218747,0.0236620000000585,
0.261829893554687,-0.0821690009765625,-0.223331130859371,0.353812707362625,0.0266500000000178,
0.225916868652344,0.0734541069335937,0.116645504882817,0.264650923248832,0.0296240000000125,
0.0894473740234373,0.0495120903320312,-0.0820732329101528,0.13110413940475,0.0325649999999769,
0.0176213242187498,0.0806367119140625,0.0304542451171912,0.0879786986786675,0.035617000000002,
-0.0158974990234377,0.0543004936523437,-0.0198239897460901,0.0599521864116857,0.0385530000000927,
-0.128424977050781,0.106972930175781,-0.110803652832027,0.200533368798828,0.041541000000052,
-0.228981446777344,0.142885955078125,-0.158687686035153,0.313098516167076,0.0444840000000113,
-0.272077076660156,0.0878193168945312,-0.0748906279296833,0.295544876821543,0.0473810000000867,
-0.217010438476563,0.0614830986328125,0.035242648437503,0.228288734050044,0.0503830000000107,
-0.219404640136719,0.0255700737304687,-0.038977603027341,0.224302203114151,0.0533080000000155,
-0.185885816894531,0.0638773002929687,-0.0150355864257783,0.19712918422809,0.0563150000000405,
-0.176309010253906,0.0495120903320312,-0.117986257812497,0.217846439535642,0.0592370000001665,
-0.0613873305664064,-0.00555454785156256,-0.0940442412109341,0.112443659940634,0.0622150000001511,
0.0942357773437498,-0.0701979926757813,-0.0868616362304646,0.146126943976542,0.0651450000000295,
0.130148802246094,-0.0199197578125001,-0.0198239897460901,0.133148406099564,0.0680700000000343,
0.146908213867187,0.00402225878906243,-0.0437660063476528,0.153341661589524,0.0710970000000088,
0.158879222167969,-0.0127371528320313,-0.00785298144530877,0.159582303582025,0.0740260000000035,
0.180427037109375,-0.0510443793945313,-0.0413718046874969,0.192018412166492,0.077013000000079,
0.201974852050781,-0.144418244140625,-0.177841299316404,0.305414468950216,0.0799550000001545,
0.0822647690429685,-0.00794874951171881,-0.0509486113281223,0.0970898338692424,0.0828530000001138,
0.0200155258789061,-0.0247081611328125,-0.0940442412109341,0.0992745375598121,0.085852000000159,
-0.0925119521484377,0.066271501953125,-0.00545877978515286,0.113930555770525,0.0887940000000071,
-0.121242372070313,0.07584830859375,-0.0916500395507782,0.169859967183054,0.0917920000001686,
-0.118848170410156,0.116549736816406,-0.0317949980468715,0.169468730633754,0.0947160000000622,
-0.152366993652344,0.109367131835937,-0.0270065947265596,0.189489383447721,0.0976330000000871,
-0.181097413574219,0.121338140136719,-0.144322476074215,0.261434876317798,0.100624000000153,
-0.145184388671875,0.0782425102539062,-0.110803652832027,0.198690328415299,0.103555000000142,
-0.104482960449219,0.0638773002929687,-0.0413718046874969,0.129261845646933,0.106549000000086,
0.0200155258789061,0.00162805712890618,-0.343041213867185,0.343628500357138,0.109503000000132,
0.398299388183594,-0.824371515625,0.806175583007816,1.21989748300391,0.11239999999998,
-0.4612190078125,0.770166790039062,4.59140840771485,4.67834490221501,0.11540500000001,
0.0367749374999998,0.027964275390625,1.17488263867188,1.17579063245922,0.118351000000075,
-0.794013038574219,0.475679985839844,-3.74520177294922,3.85788341898202,0.121358999999984,
-0.554592872558594,-1.16195394970703,-4.45627966601562,4.63854920177385,0.12424400000009,
0.379145774902344,0.147674358398437,-0.146716677734371,0.43253325684865,0.12719200000015,
0.853197703613281,0.681581328613281,-0.381348440429685,1.15668753861333,0.13027000000011,
0.891504930175781,0.296114861328125,4.39508387158203,4.49435504715278,0.133334999999988,
1.16923232275391,0.552294438964844,2.80533396923829,3.08901797515751,0.136457000000064,
0.213945860351562,0.310480071289063,-1.60239128710937,1.646155686086,0.139491000000135,
-0.552198670898438,0.7462247734375,-2.95032682177734,3.0929279234946,0.142403000000058,
-0.592900099121094,0.317662676269531,-2.54331253955078,2.63075631278702,0.145396000000119,
-0.13560758203125,0.298509062988281,-0.498664321777341,0.596794087440684,0.148329000000103,
-0.525862452636719,0.1333091484375,1.97454599316407,2.04771446429196,0.151364000000058,
-0.631207325683594,-0.11568782421875,2.37916607373047,2.46419105733691,0.154292000000169,
-0.683879762207031,-0.144418244140625,0.542813400390628,0.884982794205991,0.157282000000123,
-0.489949427734375,-0.106111017578125,-1.39170154101562,1.47923736061998,0.160186000000067,
-0.585717494140625,-0.374261603515625,-2.44993867480468,2.54663233332026,0.163099999999986,
-0.310384303222656,-0.419751435058594,-0.592038186523434,0.789328130261882,0.166096000000152,
-0.111665565429688,-0.886620758789063,0.571543820312504,1.06076760270845,0.169025000000147,
0.503644261230469,-0.798035297363281,1.31135213330078,1.61559967046933,0.172033000000056,
0.472519639648437,-0.450876056640625,0.724772726562504,0.975632888680028,0.175013000000035,
0.518009471191406,-0.0917458076171875,-0.345435415527341,0.629346273334384,0.17790500000001,
0.383934178222656,0.312874272949219,-1.03975389697265,1.15168742727826,0.18093500000009,
0.364780564941406,0.288932256347656,-0.955956838867184,1.06320279678623,0.183883000000151,
0.407876194824219,0.219500408203125,-0.113197854492183,0.476819854627779,0.186905000000024,
0.333655943359375,0.26738444140625,0.937856674316409,1.03072589450591,0.18985500000008,
0.0487459458007811,0.487650994140625,1.01207692578125,1.12449071273052,0.19278300000019,
-0.202645228515625,0.396671331054688,-0.139534072753904,0.466779381485664,0.195762000000059,
-0.296019093261719,0.432584355957031,-0.551336758300778,0.760742236008926,0.198700000000144,
-0.477978419433594,0.102184526855469,-1.14749297167968,1.24725505291708,0.201742000000195,
-0.564169679199219,0.355969902832031,-0.0677080229492155,0.670512024516852,0.204681000000164,
-0.530650855957032,0.111761333496094,0.418314914062503,0.684885606448168,0.207587999999987,
-0.269682875,0.00641646044921873,0.712801718261723,0.762139300646428,0.210597000000007,
-0.276865479980469,-0.218638495605469,0.0328484467773471,0.354311030340748,0.213502000000062,
-0.183491615234375,-0.213850092285156,-0.357406423828122,0.455126780826285,0.216478000000052,
-0.0996945571289065,-0.244974713867188,-0.73569028613281,0.78178757489846,0.219379000000117,
0.173244432128906,-0.290464545410156,-0.532183145019529,0.630557043610546,0.222285000000056,
0.40069358984375,-0.285676142089844,0.00172382519531666,0.492106881352529,0.225296000000071,
0.417453001464844,-0.113293622558594,0.454227938964847,0.627236377995336,0.22825499999999,
0.371963169921875,-0.0127371528320313,0.269874411132816,0.459729303639523,0.231257000000141,
-0.00153228906250025,0.0112048637695312,0.0256658417968776,0.0280469662710098,20.08096,
-0.00871489404296899,0.0566946953124999,-0.077284829589841,0.0962454297070159,20.0851630000002,
-0.0302627089843752,-0.0199197578125001,-0.077284829589841,0.0853555691862716,20.088068,
-0.018291700683594,0.0399352836914062,-0.060525417968746,0.0747846201949484,20.0909790000001,
0.0056503159179685,0.00162805712890618,-0.0677080229492155,0.0679628796599977,20.0940070000001,
-0.0302627089843752,0.0207816704101562,0.0232716401367217,0.0434658327282755,20.0969570000002,
-0.0111090957031252,0.00881066210937498,-0.0461602080078087,0.0482887624346591,20.099954,
-0.0302627089843752,0.027964275390625,-0.125168862792965,0.131776615778672,20.1028710000001,
-0.027868507324219,0.0782425102539062,-0.10362104785156,0.132800096645928,20.105777,
-0.00153228906250025,0.0710599052734375,-0.0940442412109341,0.11788204847296,20.1087830000001,
-0.0206859023437502,0.0255700737304687,-0.0581312163085901,0.0667905198053801,20.111717,
-0.00632069238281274,0.00881066210937498,-0.0485544096679646,0.0497504735375279,20.1147150000002,
-0.00632069238281274,0.0159932670898437,-0.0796790312499969,0.0815137029298952,20.1176480000001,
-0.00392649072265649,0.0159932670898437,-0.0581312163085901,0.0604188731367797,20.1205620000001,
-0.0158974990234377,0.0231758720703125,-0.000670376464841027,0.0281122913691557,20.123558,
0.00804451757812485,0.00641646044921873,-0.0341891997070274,0.0357041538811403,20.1264980000001,
0.00804451757812485,-0.00555454785156256,-0.110803652832027,0.111234062884624,20.129494,
-0.0230801040039065,0.0207816704101562,-0.0341891997070274,0.0461895053283157,20.132419,
-0.037445313964844,0.0590888969726562,0.00411802685547258,0.0700757263861982,20.1353430000001,
-0.00871489404296899,0.00402225878906243,-0.0270065947265596,0.0286615439687224,20.138328,
-0.0494163222656252,-0.00316034619140632,-0.0916500395507782,0.10417144735468,20.1412280000002,
-0.0398395156250002,0.0207816704101562,-0.0748906279296833,0.087336538642044,20.144305,
-0.0422337172851565,0.0423294853515625,-0.0820732329101528,0.101545496040813,20.147338,
-0.0350511123046877,0.00881066210937498,-0.0796790312499969,0.0874926068964652,20.150425,
-0.0518105239257815,0.0231758720703125,-0.077284829589841,0.0958874148176611,20.1534220000001,
-0.00392649072265649,0.0231758720703125,-0.077284829589841,0.0807804633580753,20.156328,
-0.0326569106445315,0.0255700737304687,-0.09643844287109,0.104979406298698,20.1593010000001,
-0.0254743056640627,0.0255700737304687,0.00172382519531666,0.0361350313816345,20.162239,
-0.00392649072265649,0.01838746875,-0.0294007963867156,0.0348987559176604,20.1652260000001,
-0.037445313964844,0.0135990654296875,-0.00306457812499694,0.039955947712085,20.1681500000002,
-0.0350511123046877,0.01838746875,-0.077284829589841,0.0868310103912123,20.1710620000001,
-0.00153228906250025,0.03754108203125,-0.0581312163085901,0.0692164652330946,20.174072,
-0.037445313964844,0.0303584770507812,0.013694833496098,0.050113243072609,20.176989,
0.0056503159179685,0.0495120903320312,-0.060525417968746,0.0784008888936309,20.1800010000002,
-0.0350511123046877,0.0112048637695312,-0.0509486113281223,0.062848153848412,20.1829300000002,
0.0200155258789061,0.01838746875,-0.0485544096679646,0.0556439662627128,20.1858970000001,
-0.0111090957031252,-0.00794874951171881,-0.0317949980468715,0.0346051517399044,20.1888740000002,
-0.0446279189453127,0.0303584770507812,-0.14192827441406,0.15184506365498,20.1917970000002,
-0.0326569106445315,0.0495120903320312,-0.0892558378906223,0.107165878428953,20.1947990000001,
-0.0542047255859377,0.0231758720703125,-0.0557370146484342,0.0811288365748336,20.197731,
-0.0326569106445315,-0.00316034619140632,-0.0533428129882783,0.0626252129608904,20.2006120000001,
-0.0350511123046877,0.00641646044921873,-0.0317949980468715,0.047756395794624,20.2035970000002,
-0.0302627089843752,0.00641646044921873,-0.0341891997070274,0.0461075253768447,20.2065190000001,
-0.018291700683594,0.0135990654296875,-0.0126413847656224,0.026063873527387,20.2095220000001,
-0.0326569106445315,0.0351468803710937,-0.0437660063476528,0.0649402827549101,20.212454,
-0.0709641372070314,0.0471178886718749,-0.077284829589841,0.115017168662615,20.215363,
-0.0302627089843752,0.0207816704101562,-0.0916500395507782,0.0987291199685714,20.2183520000001,
-0.0326569106445315,0.0399352836914062,-0.0653138212890596,0.0832297780108611,20.22127,
-0.0230801040039065,0.027964275390625,-0.0485544096679646,0.0605988663025835,20.2242570000001,
-0.00153228906250025,-0.00316034619140632,-0.0892558378906223,0.0893249141918291,20.227159,
-0.0326569106445315,0.0303584770507812,-0.137139871093746,0.144206293847727,20.2300730000002,
0.0128329208984373,0.0351468803710937,-0.098832644531246,0.105678184520956,20.2330860000002,
0.000861912597656,-0.00794874951171881,-0.038977603027341,0.0397891825736975,20.2360060000001,
-0.0422337172851565,-0.0103429511718751,-0.0485544096679646,0.0651781728255008,20.238994,
0.0128329208984373,0.0303584770507812,-0.0557370146484342,0.0647528824806134,20.2419580000001,
0.0104387192382811,0.0159932670898437,-0.0748906279296833,0.077287499657092,20.24496,
-0.0135032973632815,0.00641646044921873,-0.0485544096679646,0.0508039437699686,20.247893,
-0.0135032973632815,0.01838746875,-0.101226846191404,0.103765661162889,20.2508050000001,
-0.0135032973632815,0.027964275390625,-0.0796790312499969,0.0855165934701675,20.2537930000001,
-0.00632069238281274,0.0495120903320312,-0.0485544096679646,0.0696342511947239,20.256705,
-0.018291700683594,-0.00794874951171881,0.00411802685547258,0.0203648490758129,20.259663,
-0.00153228906250025,-0.0223139594726563,-0.0653138212890596,0.0690373518357825,20.262547,
-0.0398395156250002,0.03754108203125,-0.0724964262695273,0.0908419047970962,20.2654340000001,
-0.0326569106445315,0.0159932670898437,-0.0174297880859342,0.0403243836626496,20.268407,
-0.0135032973632815,0.00162805712890618,-0.077284829589841,0.0784725078892407,20.2713130000002,
0.0056503159179685,0.0351468803710937,-0.0270065947265596,0.0446831671719615,20.2743090000001,
-0.0206859023437502,0.00641646044921873,-0.0294007963867156,0.0365169049707757,20.2772260000002,
-0.0230801040039065,0.0255700737304687,-0.0748906279296833,0.0824325543891186,20.2801710000001,
-0.0135032973632815,0.0303584770507812,-0.0820732329101528,0.0885437277781335,20.283275,
-0.0494163222656252,0.0327526787109375,-0.0485544096679646,0.076630552439654,20.2863100000002,
-0.0589931289062502,0.0207816704101562,-0.115592056152341,0.131429032290098,20.289405,
-0.0542047255859377,0.0303584770507812,-0.038977603027341,0.0733419589487941,20.2923450000001,
-0.00153228906250025,0.0327526787109375,-0.0365834013671833,0.0491266844810983,20.2952440000001,
-0.0589931289062502,0.01838746875,-0.0317949980468715,0.0694925187770758,20.298235,
0.00325611425781225,0.0303584770507812,-0.00545877978515286,0.0310167323495808,20.3012120000001,
-0.0135032973632815,0.0447236870117187,-0.0270065947265596,0.0539620549861476,20.3042340000002,
-0.0135032973632815,0.0159932670898437,-0.0557370146484342,0.0595377059837549,20.3071570000002,
0.0367749374999998,0.0255700737304687,0.0328484467773471,0.0555449831613505,20.3100940000002,
-0.0542047255859377,0.0255700737304687,-0.0796790312499969,0.0997032043986872,20.3130880000001,
-0.00392649072265649,0.00881066210937498,-0.0581312163085901,0.0589260842557587,20.3160240000002,
-0.00392649072265649,0.0112048637695312,-0.0868616362304646,0.0876693227424646,20.3190320000001,
-0.0302627089843752,0.0207816704101562,-0.0844674345703087,0.0921002545218998,20.3219980000001,
-0.00632069238281274,0.0231758720703125,-0.077284829589841,0.0809321758211676,20.324914,
-0.00153228906250025,0.0590888969726562,-0.0413718046874969,0.0721489561831398,20.327906,
-0.0470221206054689,0.0447236870117187,-0.0317949980468715,0.0722648594197623,20.330813,
-0.037445313964844,0.027964275390625,-0.0748906279296833,0.0882766015870044,20.3338170000002,
-0.0254743056640627,0.0638773002929687,-0.0844674345703087,0.108921977785356,20.3367420000002,
-0.0111090957031252,0.0327526787109375,0.035242648437503,0.0493780744761531,20.3397420000001,
-0.018291700683594,0.0231758720703125,-0.0892558378906223,0.094012296842885,20.3426650000001,
0.000861912597656,0.0423294853515625,-0.0126413847656224,0.044185210560171,20.3455960000001,
-0.0326569106445315,0.0495120903320312,-0.10362104785156,0.119395320091482,20.3485790000002,
-0.00392649072265649,0.0495120903320312,-0.00785298144530877,0.0502845277995398,20.3515180000002,
-0.0302627089843752,0.00881066210937498,-0.0748906279296833,0.0812530951630817,20.3545120000001,
-0.00871489404296899,0.027964275390625,-0.0317949980468715,0.043230451965061,20.357448,
-0.0685699355468752,0.0351468803710937,-0.0653138212890596,0.10101007133995,20.360355,
-0.0350511123046877,0.0207816704101562,-0.0820732329101528,0.0916322752045172,20.3633600000001,
-0.0135032973632815,0.0231758720703125,-0.0437660063476528,0.0513315049216705,20.3662870000001,
-0.0350511123046877,0.0399352836914062,-0.022218191406246,0.0575938832400934,20.3692880000001,
0.0056503159179685,0.0255700737304687,-0.0533428129882783,0.0594239887424,20.372237,
-0.0254743056640627,0.0519062919921874,-0.060525417968746,0.0837050154873394,20.3751570000002,
-0.0302627089843752,0.0112048637695312,-0.122774661132809,0.126944861823718,20.3781660000002,
-0.0230801040039065,-0.0103429511718751,-0.038977603027341,0.0464641945753062,20.3810880000001,
-0.0326569106445315,0.0327526787109375,-0.0629196196289037,0.0780902702635401,20.384084,
-0.0254743056640627,-0.00794874951171881,-0.110803652832027,0.113971805060667,20.387005,
-0.0206859023437502,0.01838746875,-0.038977603027341,0.0478043836961045,20.3899060000001,
-0.0135032973632815,0.0207816704101562,-0.0485544096679646,0.0545137373780418,20.3929090000001,
-0.018291700683594,0.01838746875,-0.0653138212890596,0.0702750351996328,20.395829,
-0.00871489404296899,0.027964275390625,-0.0581312163085901,0.0650936892933484,20.3988340000001,
-0.0398395156250002,0.0327526787109375,-0.10362104785156,0.115746475219903,20.4017630000001,
-0.0302627089843752,0.0303584770507812,-0.0317949980468715,0.0533703155763235,20.4046860000001,
-0.0158974990234377,0.0303584770507812,-0.0294007963867156,0.0451527898608283,20.407674,
-0.00153228906250025,0.00402225878906243,-0.0294007963867156,0.0297141936405879,20.410609,
-0.00632069238281274,0.0303584770507812,-0.0174297880859342,0.0355722615778296,20.413593,
-0.0254743056640627,0.0231758720703125,-0.038977603027341,0.0520126410888985,20.4165320000002,
0.0200155258789061,-0.0247081611328125,-0.00785298144530877,0.0327533787624201,20.4195080000002,
-0.0398395156250002,0.01838746875,-0.0102471831054647,0.0450587480281441,20.422605,
-0.00632069238281274,0.00162805712890618,0.0160890351562539,0.0173625681992125,20.4256520000001,
-0.0158974990234377,-0.0151313544921876,-0.0365834013671833,0.0426618520409145,20.4287060000001,
-0.0302627089843752,0.03754108203125,-0.077284829589841,0.0910939585256936,20.43164,
0.0104387192382811,0.00641646044921873,-0.077284829589841,0.0782501291293682,20.4346430000001,
-0.0206859023437502,0.0447236870117187,-0.038977603027341,0.0628280850691339,20.4375670000002,
0.0128329208984373,-0.000766144531250068,-0.0150355864257783,0.0197823076357477,20.4405120000001,
-0.00153228906250025,0.0303584770507812,-0.10362104785156,0.107987529819276,20.4435100000001,
-0.0254743056640627,-0.0103429511718751,-0.0724964262695273,0.0775348225629162,20.4464300000002,
0.000861912597656,0.027964275390625,-0.0413718046874969,0.0499436664107582,20.449431,
-0.0446279189453127,0.00402225878906243,-0.0916500395507782,0.102017446864812,20.4523750000001,
-0.00632069238281274,-0.00555454785156256,-0.0246123930664037,0.0260110370129413,20.455271,
-0.027868507324219,-0.00316034619140632,-0.0677080229492155,0.0732872284932449,20.458257,
-0.0135032973632815,0.0135990654296875,-0.060525417968746,0.0634870052887481,20.4612240000001,
0.0200155258789061,0.0231758720703125,-0.000670376464841027,0.0306299155570704,20.4642720000002,
0.0200155258789061,0.0303584770507812,-0.0461602080078087,0.0587624302456607,20.467226,
-0.0158974990234377,0.00881066210937498,-0.0748906279296833,0.0770646766924253,20.4701630000002,
-0.037445313964844,0.0112048637695312,-0.14192827441406,0.147211873122286,20.473156,
-0.0709641372070314,0.0255700737304687,-0.0485544096679646,0.0897065668628809,20.476099,
-0.0470221206054689,0.0495120903320312,-0.0629196196289037,0.0928515236790889,20.4790910000002,
-0.00392649072265649,0.0423294853515625,-0.0701022246093714,0.0819849044318892,20.482031,
-0.0135032973632815,0.0303584770507812,-0.0677080229492155,0.0754211677197821,20.4849340000001,
-0.0518105239257815,-0.00316034619140632,-0.0485544096679646,0.071076359471473,20.4879150000002,
-0.0542047255859377,0.00641646044921873,-0.00545877978515286,0.0548554602321956,20.490843,
-0.0326569106445315,0.00881066210937498,-0.0126413847656224,0.0361096412117733,20.4938470000002,
-0.018291700683594,0.0686657036132812,-0.0485544096679646,0.0860644866644176,20.4967740000002,
-0.0302627089843752,0.027964275390625,-0.0748906279296833,0.0854777070638769,20.499693,
-0.0135032973632815,0.0135990654296875,-0.122774661132809,0.124261381919397,20.5026850000002,
-0.0494163222656252,0.0112048637695312,-0.060525417968746,0.0789357213094634,20.505627,
-0.0206859023437502,0.0327526787109375,-0.0724964262695273,0.0821971796375647,20.5086150000002,
-0.0422337172851565,0.00641646044921873,-0.0820732329101528,0.0925249879802375,20.5115440000002,
-0.0350511123046877,0.0471178886718749,-0.0509486113281223,0.0777459767637857,20.5144580000001,
-0.0111090957031252,0.03754108203125,-0.0533428129882783,0.0661679721989473,20.5174710000001,
-0.0158974990234377,0.0303584770507812,-0.0317949980468715,0.0467470801745261,20.5203860000001,
0.0295923325195311,-0.0127371528320313,-0.0509486113281223,0.0602801974323002,20.5233910000002,
-0.037445313964844,-0.00555454785156256,-0.0820732329101528,0.0903826316284563,20.5262910000001,
-0.027868507324219,0.0399352836914062,-0.0485544096679646,0.0687678070189655,20.5292820000002,
0.0224097275390623,-0.00316034619140632,-0.0653138212890596,0.0691236495550095,20.5322120000001,
0.00325611425781225,0.0159932670898437,-0.0677080229492155,0.06964742094262,20.535155,
-0.027868507324219,0.00402225878906243,-0.000670376464841027,0.0281652564492292,20.5381510000002,
-0.0206859023437502,0.0231758720703125,-0.0246123930664037,0.0396332877067979,20.541095,
0.00325611425781225,0.0255700737304687,-0.0413718046874969,0.0487448168910493,20.5440990000002,
-0.027868507324219,-0.00316034619140632,-0.077284829589841,0.0822167037362867,20.5470150000001,
-0.0494163222656252,0.0543004936523437,-0.0341891997070274,0.0809902333232554,20.5499180000002,
0.0248039291992186,0.00641646044921873,-0.0533428129882783,0.0591765288431035,20.5529410000001,
-0.0206859023437502,0.00402225878906243,-0.0581312163085901,0.0618330286421218,20.555885,
0.00804451757812485,-0.000766144531250068,-0.0844674345703087,0.0848531009651203,20.558992,
-0.00871489404296899,0.0471178886718749,-0.0557370146484342,0.0735027864301425,20.5620190000002,
-0.0135032973632815,0.0519062919921874,-0.0868616362304646,0.102085973751015,20.5650390000001,
0.0319865341796873,-0.0151313544921876,-0.09643844287109,0.102725213657588,20.568078,
-0.0589931289062502,0.00881066210937498,-0.0365834013671833,0.0699725823487132,20.5710180000001,
-0.0135032973632815,0.0399352836914062,-0.0629196196289037,0.0757366784156806,20.5740040000001,
-0.0446279189453127,0.0255700737304687,-0.0724964262695273,0.088888759929611,20.5769360000002,
-0.0422337172851565,-0.00316034619140632,-0.0581312163085901,0.0719229655484821,20.5798650000002,
-0.0135032973632815,0.01838746875,-0.117986257812497,0.120171523579051,20.5828650000001,
-0.0326569106445315,0.0112048637695312,-0.137139871093746,0.141419118327572,20.585783,
-0.00871489404296899,0.00162805712890618,0.00172382519531666,0.00903169538343534,20.588829,
-0.00632069238281274,0.0303584770507812,-0.0629196196289037,0.070146039198852,20.5917450000002,
-0.0494163222656252,0.0399352836914062,-0.0724964262695273,0.0963977780429935,20.5946940000001,
-0.0111090957031252,0.00881066210937498,0.00172382519531666,0.0142832540917951,20.5977090000001,
-0.0709641372070314,0.0495120903320312,-0.0533428129882783,0.101650438051629,20.600676,
-0.0398395156250002,0.0327526787109375,-0.129957266113278,0.139817080443034,20.6036750000001,
-0.0254743056640627,0.0351468803710937,-0.0820732329101528,0.0928453499600828,20.6066020000001,
-0.00632069238281274,0.0495120903320312,-0.0940442412109341,0.106469326785632,20.6095170000001,
-0.037445313964844,0.0207816704101562,-0.0677080229492155,0.0801149532525208,20.6125070000001,
-0.0350511123046877,0.0207816704101562,-0.0916500395507782,0.100300488774938,20.6154270000002,
0.00325611425781225,0.0207816704101562,-0.0557370146484342,0.0595742805832857,20.6184510000001,
-0.0111090957031252,0.00402225878906243,-0.0892558378906223,0.0900344110363612,20.6213720000001,
-0.0326569106445315,0.0231758720703125,-0.0461602080078087,0.0611094073149836,20.624362,
0.000861912597656,0.0159932670898437,-0.0844674345703087,0.0859725246135209,20.6273120000001,
-0.0422337172851565,0.0351468803710937,-0.0796790312499969,0.0967870760818844,20.6302490000001,
-0.0206859023437502,0.0159932670898437,-0.00306457812499694,0.0263264655255213,20.6332360000001,
0.00804451757812485,0.0303584770507812,-0.0365834013671833,0.0482151080834628,20.6362000000001,
0.0248039291992186,0.0590888969726562,-0.0796790312499969,0.102252044821133,20.6392010000002,
-0.0158974990234377,0.00641646044921873,-0.0677080229492155,0.0698446691708686,20.6421480000001,
-0.00153228906250025,0.0351468803710937,-0.0509486113281223,0.0619145548789225,20.6450670000002,
-0.00871489404296899,0.0159932670898437,-0.0341891997070274,0.0387380348881336,20.6480740000002,
0.00325611425781225,0.0519062919921874,-0.09643844287109,0.109568420139375,20.651022,
-0.0326569106445315,0.0351468803710937,-0.00785298144530877,0.0486152890585385,20.654041,
-0.0302627089843752,0.0614830986328125,-0.0653138212890596,0.0946673028238597,20.656972,
-0.027868507324219,0.0471178886718749,0.0304542451171912,0.0626435166560212,20.6599080000001,
-0.0206859023437502,0.066271501953125,-0.0557370146484342,0.0890305190865356,20.6628970000002,
0.00325611425781225,0.0399352836914062,0.00651222851562849,0.0405935744153282,20.6658580000001,
-0.0565989272460939,0.01838746875,-0.0294007963867156,0.0663772882890976,20.6688390000002,
-0.027868507324219,-0.00555454785156256,-0.0294007963867156,0.0408890392463366,20.6717590000001,
-0.0111090957031252,0.0303584770507812,-0.0653138212890596,0.0728762264909704,20.674665,
-0.0111090957031252,0.0112048637695312,-0.108409451171871,0.109551677681455,20.6776630000002,
0.0104387192382811,0.0159932670898437,-0.0413718046874969,0.0455672873303111,20.680613,
-0.0326569106445315,0.0231758720703125,-0.0270065947265596,0.0483006316500006,20.6836130000001,
-0.0230801040039065,0.0231758720703125,-0.0629196196289037,0.0709132623794488,20.6865360000002,
-0.0206859023437502,0.0471178886718749,-0.0557370146484342,0.0758591905479497,20.6894490000002,
-0.0518105239257815,0.0255700737304687,-0.0844674345703087,0.10233721983196,20.692438,
-0.0398395156250002,0.0112048637695312,-0.0437660063476528,0.060234535683038,20.695434,
-0.0230801040039065,0.0495120903320312,-0.0341891997070274,0.0644440817025532,20.6985320000001,
0.00804451757812485,0.00162805712890618,-0.10362104785156,0.10394559341759,20.7015860000001,
-0.0111090957031252,0.0207816704101562,-0.0533428129882783,0.0583159114640249,20.7045810000002,
0.0248039291992186,0.027964275390625,-0.0413718046874969,0.055757168372712,20.7075930000001,
0.0056503159179685,0.0207816704101562,-0.077284829589841,0.0802293511112982,20.71054,
-0.00153228906250025,0.0231758720703125,-0.14192827441406,0.143816216172388,20.7135420000002,
-0.0398395156250002,0.027964275390625,-0.0246123930664037,0.054543171853244,20.716486,
0.0176213242187498,-0.00316034619140632,-0.0701022246093714,0.0723520611348053,20.719478,
-0.00392649072265649,0.01838746875,-0.0341891997070274,0.0390181715747206,20.7224130000002,
-0.0613873305664064,0.0159932670898437,-0.00785298144530877,0.0639207185805721,20.725318,
-0.0206859023437502,0.0566946953124999,-0.0629196196289037,0.0871841359801099,20.7283210000001,
-0.0350511123046877,0.0351468803710937,0.0184832368164098,0.0529671003248931,20.7312770000001,
-0.0111090957031252,0.027964275390625,-0.0198239897460901,0.0360333633583793,20.734267,
-0.0230801040039065,0.0303584770507812,-0.038977603027341,0.0545305590236422,20.7372380000002,
-0.0111090957031252,0.0231758720703125,-0.0557370146484342,0.0613770955282217,20.740184,
-0.0111090957031252,0.0255700737304687,-0.0461602080078087,0.0539259258728765,20.7431920000001,
0.00325611425781225,0.0112048637695312,-0.0868616362304646,0.0876418570135711,20.7461510000001,
-0.0518105239257815,0.0399352836914062,-0.0581312163085901,0.0875122596125432,20.7491600000001,
-0.00392649072265649,0.0399352836914062,0.0160890351562539,0.043233103811401,20.7521080000001,
-0.00632069238281274,0.0327526787109375,-0.022218191406246,0.0400791360224323,20.7550230000002,
0.0128329208984373,0.01838746875,-0.0174297880859342,0.0284003587748174,20.7580440000002,
-0.0111090957031252,0.03754108203125,-0.0916500395507782,0.0996618010928833,20.7609790000001,
-0.0111090957031252,0.0231758720703125,-0.0677080229492155,0.072421746908316,20.7639800000002,
-0.00392649072265649,-0.0127371528320313,-0.0916500395507782,0.0926141573482199,20.7669030000002,
0.000861912597656,0.0327526787109375,-0.0820732329101528,0.0883713551802397,20.7698310000001,
0.00804451757812485,0.0590888969726562,-0.0820732329101528,0.101450616404407,20.7728510000002,
-0.0158974990234377,0.00641646044921873,-0.0581312163085901,0.0606064332345394,20.7757840000002,
-0.0254743056640627,0.00402225878906243,0.00411802685547258,0.0261166031484702,20.778802,
-0.037445313964844,0.0423294853515625,-0.0892558378906223,0.105643463903883,20.781731,
-0.0302627089843752,0.0207816704101562,-0.0509486113281223,0.0627970570677753,20.7846520000001,
-0.0589931289062502,0.03754108203125,-0.0246123930664037,0.0741302366830273,20.787638,
-0.0518105239257815,0.0303584770507812,-0.0533428129882783,0.0803207520869246,20.790579,
