X,Y,Z,Magnitude,Seconds,
-0.164338001953125,-0.149206647460938,-0.0748906279296833,0.234260984127063,0.0,
-0.217010438476563,-0.125264630859375,-0.0868616362304646,0.265197477364999,0.00375799999983428,
-0.21222203515625,-0.1731486640625,-0.0365834013671833,0.276327699169087,0.00749499999983527,
-0.188280018554688,-0.163571857421875,-0.0701022246093714,0.259074197523757,0.0113089999999829,
-0.219404640136719,-0.144418244140625,-0.0413718046874969,0.265907223627499,0.0150369999996656,
-0.214616236816406,-0.125264630859375,-0.0844674345703087,0.262461624532922,0.0187419999997473,
-0.21222203515625,-0.149206647460938,-0.117986257812497,0.284993987454104,0.0224450000000616,
-0.226587245117188,-0.1348414375,-0.0365834013671833,0.266199808738578,0.0262419999999111,
-0.195462623535156,-0.106111017578125,-0.0748906279296833,0.234678059056261,0.0302240000000893,
-0.236164051757813,-0.120476227539063,-0.0724964262695273,0.274852164929738,0.0340759999999136,
-0.257711866699219,-0.142024042480469,-0.0701022246093714,0.302490589564821,0.0378729999997631,
-0.236164051757813,-0.1348414375,-0.0701022246093714,0.280838021829161,0.0416059999997742,
-0.2313756484375,-0.139629840820313,-0.0581312163085901,0.276424350314685,0.0454179999996995,
-0.214616236816406,-0.144418244140625,-0.0413718046874969,0.26197019786418,0.0492099999996753,
-0.209827833496094,-0.185119672363281,-0.0677080229492155,0.287891280134089,0.0529879999999139,
-0.217010438476563,-0.168360260742188,-0.0916500395507782,0.289548679075949,0.0567519999999604,
-0.178703211914063,-0.158783454101563,-0.0174297880859342,0.239689008420382,0.0606349999998201,
-0.214616236816406,-0.137235639160156,-0.0844674345703087,0.26838125356258,0.064401000000089,
-0.236164051757813,-0.170754462402344,-0.098832644531246,0.307731112171031,0.0681230000000141,
-0.17391480859375,-0.137235639160156,-0.0437660063476528,0.225821709796734,0.0718299999998635,
-0.240952455078125,-0.151600849121094,-0.060525417968746,0.29103991012008,0.075546999999915,
-0.17391480859375,-0.15399505078125,-0.10362104785156,0.254358325735911,0.0792400000000271,
-0.224193043457031,-0.139629840820313,-0.0677080229492155,0.272659842209526,0.0829979999998613,
-0.221798841796875,-0.139629840820313,-0.077284829589841,0.273247440161243,0.0867029999999431,
-0.224193043457031,-0.151600849121094,-0.0437660063476528,0.274154703589754,0.0903929999999491,
-0.233769850097656,-0.163571857421875,-0.101226846191404,0.302739111686913,0.0940709999999854,
-0.252923463378906,-0.1348414375,-0.0437660063476528,0.289944744574325,0.0979279999996834,
-0.252923463378906,-0.144418244140625,-0.0461602080078087,0.294885863295558,0.101807000000008,
-0.248135060058594,-0.1731486640625,-0.10362104785156,0.319826186318078,0.105545999999777,
-0.245740858398438,-0.1348414375,-0.0365834013671833,0.282682026328276,0.109410000000025,
-0.257711866699219,-0.151600849121094,-0.108409451171871,0.318042187131234,0.113141999999698,
-0.228981446777344,-0.122870429199219,-0.060525417968746,0.266820110861489,0.116917999999714,
-0.190674220214844,-0.158783454101563,-0.0270065947265596,0.249596073105501,0.120687999999973,
-0.236164051757813,-0.139629840820313,-0.0701022246093714,0.283168278035085,0.12442400000009,
-0.197856825195313,-0.151600849121094,-0.0796790312499969,0.261684712491088,0.128142999999909,
-0.226587245117188,-0.142024042480469,-0.0317949980468715,0.269301931283626,0.131978999999774,
-0.238558253417969,-0.139629840820313,-0.0533428129882783,0.281517296837761,0.135729999999967,
-0.217010438476563,-0.142024042480469,-0.0557370146484342,0.265275279383896,0.13941799999975,
-0.233769850097656,-0.144418244140625,-0.038977603027341,0.277532386566143,0.143113999999969,
-0.200251026855469,-0.130053034179688,-0.0581312163085901,0.245750897791908,0.146811000000071,
-0.224193043457031,-0.170754462402344,-0.0581312163085901,0.287747885264785,0.15050999999994,
-0.221798841796875,-0.127658832519531,-0.0533428129882783,0.261413388027827,0.154270999999881,
-0.217010438476563,-0.144418244140625,-0.0365834013671833,0.263227097586939,0.157980999999836,
-0.217010438476563,-0.151600849121094,0.00890643017578441,0.264869160833236,0.161693999999898,
-0.221798841796875,-0.130053034179688,-0.0533428129882783,0.262590886397987,0.165408999999727,
-0.224193043457031,-0.146812445800781,-0.0509486113281223,0.272785952667651,0.169391999999789,
-0.245740858398438,-0.1348414375,-0.0509486113281223,0.284897426716584,0.173207999999704,
-0.226587245117188,-0.151600849121094,-0.00306457812499694,0.27264260258279,0.176977999999963,
-0.221798841796875,-0.139629840820313,-0.0341891997070274,0.264310650649095,0.180900999999722,
-0.238558253417969,-0.180331269042969,-0.077284829589841,0.308872711247223,0.184694000000036,
-0.233769850097656,-0.161177655761719,-0.09643844287109,0.299878229944964,0.188515999999709,
-0.243346656738281,-0.130053034179688,-0.0844674345703087,0.28855871941068,0.192317000000003,
-0.21222203515625,-0.132447235839844,-0.14192827441406,0.287617971562329,0.196086999999807,
-0.2313756484375,-0.142024042480469,-0.0581312163085901,0.277641419175677,0.199885999999879,
-0.276865479980469,-0.120476227539063,-0.0677080229492155,0.309440449486732,0.203729999999723,
-0.197856825195313,-0.146812445800781,-0.0509486113281223,0.251588907773455,0.207488000000012,
-0.236164051757813,-0.15399505078125,-0.0341891997070274,0.284001472503918,0.211193999999978,
-0.226587245117188,-0.165966059082031,-0.0844674345703087,0.293293811594971,0.214939999999842,
-0.219404640136719,-0.118082025878906,-0.0413718046874969,0.252573528249281,0.218648999999914,
-0.2313756484375,-0.0965342109375001,-0.13474566943359,0.284622451683464,0.222350000000006,
-0.228981446777344,-0.139629840820313,-0.132351467773434,0.299075084949472,0.226036000000022,
-0.181097413574219,-0.194696479003906,-0.0533428129882783,0.2711981707853,0.229822999999669,
-0.228981446777344,-0.118082025878906,-0.0270065947265596,0.259046760185564,0.233507999999802,
-0.226587245117188,-0.182725470703125,-0.0365834013671833,0.293374713547483,0.237300999999661,
-0.248135060058594,-0.125264630859375,-0.0413718046874969,0.281022885185029,0.241242000000057,
-0.262500270019531,-0.158783454101563,-0.0844674345703087,0.318203275532543,0.244985999999699,
-0.214616236816406,-0.180331269042969,-0.0341891997070274,0.282397586881493,0.248724999999922,
-0.243346656738281,-0.130053034179688,-0.0892558378906223,0.289996537294153,0.252567999999883,
-0.2313756484375,-0.101322614257813,-0.0796790312499969,0.264857906944175,0.256370000000061,
-0.185885816894531,-0.120476227539063,-0.0461602080078087,0.226271569420277,0.260151999999835,
-0.25052926171875,-0.151600849121094,-0.0533428129882783,0.297646071919455,0.263891000000058,
-0.260106068359375,-0.15399505078125,-0.0653138212890596,0.309249959925415,0.267616000000089,
-0.25052926171875,-0.161177655761719,-0.0102471831054647,0.298074072095817,0.271361999999954,
-0.205039430175782,-0.120476227539063,-0.0701022246093714,0.247931464772094,0.275154999999813,
-0.21222203515625,-0.206667487304688,-0.09643844287109,0.311528515192581,0.278863999999885,
-0.243346656738281,-0.218638495605469,-0.156293484374997,0.36255763729978,0.282526999999845,
-0.121242372070313,-0.130053034179688,0.0950976899414098,0.201635996579905,0.286225999999715,
-0.298413294921875,-0.187513874023438,-0.271215164062497,0.444712955460997,0.289931999999681,
-0.114059767089844,-0.0606211860351563,0.174106344726566,0.21678924774754,0.293652999999722,
-0.164338001953125,-0.323983368652344,-0.331070205566403,0.491507561552258,0.297318999999789,
-0.193068421875,-0.0271023627929688,0.135799118164066,0.237594937000776,0.301175000000057,
-0.36545094140625,-0.175542865722656,-0.237696340820309,0.469967274094911,0.304075999999895,
-0.217010438476563,-0.0342849677734375,0.0567904633789098,0.226923216427511,0.307054999999764,
-0.281653883300782,-0.185119672363281,-0.292762979003903,0.446439654320199,0.310124999999971,
-0.0733583388671877,-0.113293622558594,0.0400310517578166,0.140781305217132,0.313151999999718,
-0.322355311523438,-0.175542865722656,-0.28797457568359,0.466537887865111,0.316207999999733,
-0.185885816894531,-0.0893516059570313,0.142981723144535,0.250960195176503,0.319144000000051,
-0.303201698242188,-0.182725470703125,-0.218542727539059,0.416029796073354,0.32202499999994,
-0.171520606933594,-0.201879083984375,0.0280600434570353,0.266386653554658,0.325019999999768,
-0.255317665039063,-0.170754462402344,-0.194600710937497,0.36361192665903,0.327952000000096,
-0.195462623535156,-0.127658832519531,0.00172382519531666,0.233463886485255,0.330959999999777,
-0.264894471679688,-0.156389252441406,-0.110803652832027,0.326961968562956,0.333869999999933,
-0.185885816894531,-0.15399505078125,-0.038977603027341,0.244514347483791,0.336755999999696,
-0.228981446777344,-0.151600849121094,-0.0748906279296833,0.284647021017583,0.339740999999776,
-0.181097413574219,-0.120476227539063,0.0160890351562539,0.218104680503594,0.34266899999966,
-0.272077076660156,-0.156389252441406,-0.0485544096679646,0.317554821442413,0.345648999999867,
-0.243346656738281,-0.142024042480469,-0.0461602080078087,0.285515654196959,0.348590000000058,
-0.202645228515625,-0.137235639160156,-0.098832644531246,0.263944314052957,0.35149999999976,
-0.252923463378906,-0.118082025878906,-0.106015249511715,0.298584789117395,0.354475999999977,
-0.228981446777344,-0.113293622558594,-0.0677080229492155,0.264295902829359,0.357384999999795,
-0.205039430175782,-0.110899420898438,-0.132351467773434,0.268061113375664,0.360365999999885,
-0.240952455078125,-0.1348414375,-0.038977603027341,0.278853998380872,0.363262999999733,
-0.226587245117188,-0.127658832519531,-0.0701022246093714,0.26935641641741,0.366223999999875,
-0.214616236816406,-0.113293622558594,-0.170658694335934,0.296681586840388,0.369122000000061,
-0.264894471679688,-0.132447235839844,-0.0341891997070274,0.298127913461123,0.372011999999813,
-0.219404640136719,-0.130053034179688,-0.125168862792965,0.284111654153345,0.374984999999924,
-0.240952455078125,-0.163571857421875,-0.113197854492183,0.312454144492039,0.377915999999914,
-0.25052926171875,-0.120476227539063,-0.0461602080078087,0.281798149714845,0.380874999999833,
-0.207433631835938,-0.139629840820313,-0.0748906279296833,0.261024539489787,0.383786999999757,
-0.291230689941407,-0.110899420898438,-0.09643844287109,0.326212154253573,0.3866680000001,
-0.190674220214844,-0.185119672363281,-0.038977603027341,0.268598594352585,0.389640999999756,
-0.164338001953125,-0.15399505078125,-0.0844674345703087,0.24053316206701,0.392543999999816,
-0.257711866699219,-0.110899420898438,-0.0868616362304646,0.29369887919745,0.395535999999993,
-0.260106068359375,-0.07738059765625,-0.0509486113281223,0.276113535863917,0.398419999999987,
-0.233769850097656,-0.122870429199219,-0.077284829589841,0.275169820421884,0.401327000000038,
-0.257711866699219,-0.144418244140625,-0.151505081054685,0.332002748578448,0.404293000000052,
-0.176309010253906,-0.113293622558594,-0.0341891997070274,0.212342208205925,0.40720199999987,
-0.221798841796875,-0.103716815917969,-0.09643844287109,0.263158274409143,0.410178000000087,
-0.245740858398438,-0.132447235839844,-0.106015249511715,0.298613584582228,0.413086999999905,
-0.248135060058594,-0.0917458076171875,0.0208774384765658,0.265375523895771,0.415990999999849,
-0.217010438476563,-0.144418244140625,-0.0748906279296833,0.271217193039367,0.41895999999997,
-0.221798841796875,-0.170754462402344,-0.0413718046874969,0.282954835399307,0.421868999999788,
-0.209827833496094,-0.113293622558594,-0.117986257812497,0.266052479136562,0.424852999999985,
-0.240952455078125,-0.125264630859375,-0.0653138212890596,0.279312027316925,0.427760999999919,
-0.193068421875,-0.163571857421875,-0.0437660063476528,0.256800762026455,0.430652999999893,
-0.226587245117188,-0.1731486640625,-0.00545877978515286,0.285222786244661,0.433619999999792,
-0.207433631835938,-0.132447235839844,-0.0174297880859342,0.246728148801435,0.436534999999822,
-0.205039430175782,-0.11568782421875,-0.0413718046874969,0.239032355178913,0.439503000000059,
-0.217010438476563,-0.213850092285156,-0.117986257812497,0.326720292315548,0.442427999999836,
-0.214616236816406,-0.168360260742188,-0.0413718046874969,0.275892973316672,0.445416000000023,
-0.197856825195313,-0.149206647460938,-0.0892558378906223,0.263394289080948,0.448487999999998,
-0.217010438476563,-0.170754462402344,-0.101226846191404,0.294104558325711,0.451499999999669,
-0.248135060058594,-0.149206647460938,-0.0748906279296833,0.29906895162908,0.454525999999987,
-0.221798841796875,-0.142024042480469,-0.060525417968746,0.270238563282927,0.457429999999931,
-0.219404640136719,-0.0821690009765625,-0.0437660063476528,0.238339262704726,0.46039299999984,
-0.248135060058594,-0.0941400092773438,-0.0533428129882783,0.270700581961921,0.46329199999991,
-0.274471278320313,-0.0917458076171875,-0.0102471831054647,0.289580352578889,0.46620299999995,
-0.126030775390625,-0.163571857421875,0.119039706542972,0.238348401756424,0.469188999999915,
-0.214616236816406,-0.130053034179688,-0.022218191406246,0.251927705570355,0.472103999999945,
-0.149972791992188,-0.223426898925781,-0.106015249511715,0.289224222067507,0.47507399999995,
-0.286442286621094,-0.118082025878906,-0.0724964262695273,0.318195349152436,0.477996999999959,
-0.262500270019531,-0.132447235839844,-0.14192827441406,0.326484757867951,0.480907999999999,
-0.243346656738281,-0.165966059082031,-0.0820732329101528,0.305774988632562,0.48390500000005,
-0.185885816894531,-0.139629840820313,-0.0629196196289037,0.240850384895476,0.48685099999966,
-0.284048084960938,-0.113293622558594,-0.0461602080078087,0.309272572799059,0.489834999999857,
-0.181097413574219,-0.137235639160156,-0.00545877978515286,0.227287685842659,0.492734999999811,
-0.13560758203125,-0.319194965332031,-0.343041213867185,0.487803358546403,0.495631999999659,
-0.0589931289062502,-0.0558327827148438,0.308181637695316,0.318705837248708,0.498618999999962,
-0.928088331542969,1.77333728564453,3.751043625,4.25163513915017,0.501570999999785,
-3.81310133203125,1.56983014453125,-1.81308103320312,4.50459446387557,0.504564999999729,
-1.50509093164063,1.92177778857422,-1.03017709033203,2.64948927505076,0.507481000000098,
2.08860576025391,-1.37024949414063,-2.12911565234375,3.28222350838781,0.510389000000032,
1.66004366308594,-2.0118955390625,-2.38529522998047,3.53455824080166,0.513380999999754,
1.86833920751953,-1.26011621777344,1.39036078808594,2.6479591004578,0.516337999999905,
-0.509103041015625,-2.38778519970703,-1.15467557666015,2.700736890859,0.519326999999976,
-0.226587245117188,-0.546644123046875,3.43500900585938,3.48560589385067,0.522266999999829,
0.585047117675781,-1.40855672070313,1.42148540966797,2.08492995931221,0.525197999999818,
-0.379816151367188,-0.264128327148438,-0.510635330078122,0.689037388220412,0.52815099999998,
-0.3846045546875,0.581024858886719,-0.797939529296873,1.0593479327139,0.531089000000065,
-0.5761406875,0.185981584960938,-2.12672145068359,2.21121490826542,0.534081999999671,
-0.664726148925782,0.767772588378906,-0.61358600146484,1.18651733309099,0.537012999999661,
-0.564169679199219,0.494833599121094,0.178894748046879,0.771460335095487,0.539940999999999,
-0.861050685058594,0.901847881347656,1.26825650341797,1.77854222378697,0.542958999999883,
-1.37819824365234,1.11014342578125,1.02883633740235,2.04703518137115,0.545866999999816,
-0.679091358886719,0.743830571777344,0.308181637695316,1.05329241668104,0.548882999999933,
-0.343903126464844,0.502016204101563,-0.40289625537109,0.729804783599616,0.551809999999932,
-0.394181361328125,0.0351468803710937,-1.2504436430664,1.31157293098916,0.55480099999977,
-0.195462623535156,-0.0989284125976563,-0.596826589843747,0.635762885329786,0.557706999999937,
-0.190674220214844,-0.426934040039063,-0.115592056152341,0.481654291213253,0.560610999999881,
0.0295923325195311,-0.414963031738281,0.681677096679691,0.798594820914226,0.563611999999921,
0.163667625488281,-0.795641095703125,0.648158273437504,1.03920209402701,0.566531999999825,
0.367174766601562,-1.02069605175781,0.377613485839847,1.14857724337156,0.569504000000052,
0.276195103515625,-1.03266706005859,-0.316704995605466,1.11489328923333,0.572424999999839,
0.180427037109375,-0.886620758789063,-0.642316421386715,1.10960383507755,0.575338999999985,
0.24746468359375,-0.817188910644531,-0.61358600146484,1.05143914065445,0.578330999999707,
0.130148802246094,-0.673536811035156,-0.237696340820309,0.726009708602347,0.581304999999702,
-0.0135032973632815,-0.482000678222656,0.27945121777344,0.557314970157666,0.584436000000096,
-0.260106068359375,-0.0845632026367188,0.423103317382816,0.503808018215168,0.587446999999884,
-0.377421949707032,0.102184526855469,0.243538192871098,0.460651557075685,0.590476999999737,
-0.449247999511719,0.257807634765625,-0.127563064453122,0.533442477706265,0.593469999999797,
-0.501920436035157,0.4397669609375,-0.443597683593747,0.801310182720565,0.596411999999873,
-0.655149342285157,0.509198809082031,-0.44120348193359,0.939768375897782,0.599410999999691,
-0.592900099121094,0.492439397460938,-0.149110879394527,0.785023020084955,0.602363999999852,
-0.59529430078125,0.461314775878906,0.253114999511721,0.794514839360891,0.605310999999801,
-0.55698707421875,0.377517717773437,0.291422226074221,0.733267442294885,0.608331999999791,
-0.516285645996094,0.221894609863281,0.0807324799804725,0.567719842415059,0.611253000000033,
-0.382210353027344,-0.0127371528320313,-0.156293484374997,0.413127876427664,0.614236999999775,
-0.140395985351563,-0.276099335449219,-0.359800625488278,0.474761377788982,0.617150000000038,
-0.0350511123046877,-0.419751435058594,-0.177841299316404,0.457216989459153,0.620063999999729,
-0.0422337172851565,-0.508336896484375,-0.09643844287109,0.519124706083701,0.623082000000068,
-0.0111090957031252,-0.762122272460938,-0.156293484374997,0.778062608950232,0.626017000000047,
0.161273423828125,-0.69029622265625,0.176500546386722,0.730527504698861,0.629014999999981,
0.108600987304687,-0.742968659179688,0.035242648437503,0.751690526237829,0.631958999999824,
0.1516966171875,-0.57537454296875,-0.163476089355465,0.617083592516917,0.634882999999718,
-0.104482960449219,-0.271310932128906,-0.127563064453122,0.317488025490034,0.637867999999798,
-0.193068421875,-0.292858747070313,-0.319099197265622,0.474200336309941,0.640765000000101,
-0.018291700683594,-0.177937067382813,-0.0102471831054647,0.179168052465529,0.643751000000066,
-0.13560758203125,-0.158783454101563,-0.0892558378906223,0.227086340844936,0.646649999999681,
-0.391787159667969,0.293720659667969,0.255509201171879,0.552316898419714,0.649660999999924,
-0.533045057617188,0.336816289550781,0.0496078583984403,0.632489672620626,0.652603999999883,
-0.408546571289063,0.298509062988281,-0.00545877978515286,0.506011620296346,0.655515999999807,
-0.437276991210938,0.217106206542969,-0.175447097656246,0.51877543893092,0.6585070000001,
-0.5378334609375,0.332027886230469,-0.113197854492183,0.642122342860234,0.661446000000069,
-0.547410267578125,0.202740996582031,-0.232907937499997,0.62849663491186,0.664428000000044,
-0.3846045546875,0.0255700737304687,-0.0102471831054647,0.385589803960827,0.667361999999684,
-0.243346656738281,-0.120476227539063,0.0974918916015657,0.288507860682849,0.670262000000093,
-0.303201698242188,-0.194696479003906,0.0160890351562539,0.360689403511836,0.673241999999846,
-0.238558253417969,-0.312012360351563,-0.0748906279296833,0.399837916458266,0.676150999999663,
-0.0805409438476564,-0.434116645019531,-0.175447097656246,0.475106082043669,0.679157999999916,
0.0200155258789061,-0.525096308105469,-0.161081887695309,0.549612707827691,0.682084999999915,
0.0295923325195311,-0.532278913085938,-0.122774661132809,0.547055906536224,0.685026999999991,
-0.00153228906250025,-0.513125299804688,-0.0437660063476528,0.514990664498925,0.688017999999829,
0.00325611425781225,-0.419751435058594,0.0687614716796912,0.425358683350141,0.69098299999996,
-0.00632069238281274,-0.364684796875,0.0113006318359403,0.364914587957031,0.693956999999955,
-0.0637815322265627,-0.254551520507813,-0.0246123930664037,0.263572248801847,0.696871999999985,
-0.149972791992188,-0.0797747993164063,-0.0868616362304646,0.190789938918535,0.699767999999949,
-0.219404640136719,0.0135990654296875,-0.0844674345703087,0.235495388908092,0.702772999999979,
-0.281653883300782,0.145280156738281,-0.0198239897460901,0.317534603610005,0.705707000000075,
-0.319961109863281,0.11415553515625,-0.0246123930664037,0.340605883572506,0.708701999999903,
-0.394181361328125,0.181193181640625,-0.0150355864257783,0.434092137167576,0.711628000000019,
-0.458824806152344,0.197952593261719,-0.0365834013671833,0.501042689972988,0.714536999999837,
-0.473190016113282,0.154856963378906,-0.132351467773434,0.515176068425161,0.717533999999887,
-0.389392958007813,-0.00316034619140632,-0.09643844287109,0.401169835353463,0.720538000000033,
-0.360662538085938,-0.029496564453125,-0.146716677734371,0.390478292890321,0.723611999999775,
-0.353479933105469,-0.110899420898438,-0.0557370146484342,0.374637637545636,0.726619999999912,
-0.324749513183594,-0.201879083984375,-0.170658694335934,0.418738344095448,0.729565000000093,
-0.197856825195313,-0.352713788574219,-0.0724964262695273,0.410865028626921,0.732541999999739,
-0.106877162109375,-0.340742780273438,-0.0868616362304646,0.367523215508435,0.735455000000002,
-0.0829351455078127,-0.381444208496094,-0.077284829589841,0.39793324495491,0.738436999999976,
-0.027868507324219,-0.328771771972656,-0.0174297880859342,0.330410849185133,0.741369999999733,
0.0128329208984373,-0.343136981933594,-0.10362104785156,0.358671149923068,0.744341999999961,
0.0128329208984373,-0.335954376953125,-0.0437660063476528,0.339036119852105,0.747272000000066,
-0.0661757338867189,-0.254551520507813,-0.0724964262695273,0.272821253149637,0.75017200000002,
-0.13560758203125,-0.187513874023438,-0.0677080229492155,0.241112516529796,0.753142999999909,
-0.21222203515625,-0.0558327827148438,-0.137139871093746,0.258771783769315,0.756080000000111,
-0.161943800292969,-0.0534385810546876,-0.060525417968746,0.180955250321064,0.759047999999893,
-0.296019093261719,-0.00794874951171881,-0.0629196196289037,0.302736460850913,0.761997000000065,
-0.339114723144532,0.0878193168945312,-0.0844674345703087,0.360341193004774,0.764920999999958,
-0.360662538085938,0.0806367119140625,-0.0270065947265596,0.370552427931091,0.767923999999766,
-0.410940772949219,-0.00794874951171881,-0.0509486113281223,0.414163328274204,0.77083599999969,
-0.413334974609375,0.0519062919921874,-0.0341891997070274,0.417982016072843,0.773846999999932,
-0.396575562988281,-0.00555454785156256,-0.101226846191404,0.409328602165993,0.776749000000109,
-0.353479933105469,-0.0606211860351563,-0.022218191406246,0.359328038613633,0.779637000000093,
-0.315172706542969,-0.144418244140625,-0.0653138212890596,0.352783728992227,0.78259799999978,
-0.248135060058594,-0.244974713867188,-0.0677080229492155,0.355201344080064,0.78551299999981,
-0.178703211914063,-0.256945722167969,-0.0581312163085901,0.318331871477453,0.788481999999931,
-0.104482960449219,-0.285676142089844,0.013694833496098,0.30449153625028,0.79143299999987,
-0.130819178710938,-0.254551520507813,-0.0437660063476528,0.289526505562213,0.794320999999854,
-0.0518105239257815,-0.278493537109375,-0.0461602080078087,0.287008267136121,0.797305000000051,
-0.0805409438476564,-0.297647150390625,-0.0916500395507782,0.321683694832657,0.800210999999763,
-0.027868507324219,-0.23060950390625,0.0113006318359403,0.23256203747013,0.803208999999697,
-0.0925119521484377,-0.137235639160156,-0.0653138212890596,0.177926887224474,0.806119999999737,
-0.183491615234375,-0.132447235839844,-0.0868616362304646,0.242397167870354,0.809009999999944,
-0.217010438476563,-0.144418244140625,-0.077284829589841,0.271888036759954,0.811980999999832,
-0.152366993652344,-0.0486501777343751,-0.0246123930664037,0.161828027364529,0.814906999999948,
-0.219404640136719,-0.0127371528320313,0.00651222851562849,0.219870508017855,0.81789899999967,
-0.372633546386719,0.0112048637695312,-0.0844674345703087,0.382251300020976,0.820830999999998,
-0.391787159667969,-0.0127371528320313,-0.0724964262695273,0.398641625228493,0.823726000000079,
-0.310384303222656,-0.0989284125976563,-0.0844674345703087,0.33654122185699,0.826690999999755,
-0.157155396972656,-0.335954376953125,-0.268820962402341,0.458069723970616,0.829596000000038,
-0.456430604492188,0.224288811523437,0.303393234375003,0.592183943007766,0.832603999999719,
-0.853868080078125,0.672004521972656,0.516477182128909,1.20309162385407,0.835540999999921,
-1.35186202539063,1.10296082080078,0.174106344726566,1.75338715838483,0.838502999999946,
-0.430094386230469,-0.0678037910156251,-1.41803775927734,1.48337777449959,0.841409000000112,
1.12613669287109,-0.84352512890625,-0.244878945800778,1.42817512659458,0.844315999999708,
0.403087791503906,-1.19307857128906,-0.532183145019529,1.36716317415718,0.84733099999994,
-0.111665565429688,-0.898591767089844,0.391978695800784,0.986703430796743,0.850278999999773,
-0.2313756484375,-0.714238239257813,0.557178610351565,0.934943290762213,0.85324700000001,
0.55392249609375,-0.704661432617188,0.660129281738286,1.11317048779832,0.856241999999838,
0.168456028808594,-0.393415216796875,-0.422049868652341,0.601064936657223,0.859270999999808,
-0.427700184570313,0.126126543457031,-0.714142471191403,0.841923287482454,0.862380999999914,
-0.183491615234375,0.0303584770507812,-0.457962893554685,0.494288197171592,0.865407999999661,
-0.152366993652344,-0.278493537109375,-0.347829617187497,0.470913785696644,0.868404999999711,
-0.260106068359375,-0.0271023627929688,0.353671469238284,0.439855900289515,0.871318999999858,
-0.700639173828125,0.636091497070312,0.782233566406253,1.22776096898393,0.8742400000001,
-0.947241944824219,0.760589983398438,0.212413571289066,1.23324123761257,0.877274999999827,
-0.528256654296875,0.468497380859375,-0.149110879394527,0.721650152799008,0.880209999999806,
-0.348691529785156,-0.106111017578125,-0.69738305957031,0.78688529200324,0.883191999999781,
-0.355874134765625,-0.0725921943359376,-0.572884573242185,0.678316121533735,0.886113000000023,
-0.59529430078125,0.212317803222656,-0.0413718046874969,0.633376491773284,0.889044999999896,
-0.564169679199219,0.138097551757812,0.418314914062503,0.71578329685483,0.892080999999962,
-0.0805409438476564,-0.4029920234375,0.315364242675784,0.518019324107309,0.895033999999669,
0.158879222167969,-0.675931012695313,0.052002060058598,0.696297031022212,0.898063999999977,
0.0248039291992186,-0.589739752929688,-0.309522390624997,0.666492551636927,0.901030999999875,
-0.159549598632813,-0.393415216796875,-0.359800625488278,0.556496268929972,0.903964000000087,
-0.0901177504882814,-0.429328241699219,-0.304733987304685,0.534141134057491,0.906963999999789,
0.242676280273437,-0.704661432617188,-0.060525417968746,0.747731795395749,0.909902999999758,
0.269012498535156,-0.642412189453125,0.131010714843754,0.708678314138338,0.912917000000107,
-0.0637815322265627,-0.244974713867188,0.24114399121094,0.349615672967647,0.915844000000106,
-0.197856825195313,-0.0941400092773438,-0.0150355864257783,0.219626349699379,0.918736999999965,
-0.0925119521484377,-0.122870429199219,-0.192206509277341,0.246168531438313,0.921710999999959,
-0.0589931289062502,-0.0917458076171875,-0.230513735839841,0.255017773663561,0.92461400000002,
-0.382210353027344,0.145280156738281,-0.189812307617185,0.450799057259604,0.92762300000004,
-0.545016065917969,0.327239482910156,-0.00306457812499694,0.635718163121906,0.930558999999903,
-0.487555226074219,0.214712004882812,0.0543962617187539,0.535509380685395,0.933568999999807,
-0.427700184570313,0.140491753417969,0.221990377929691,0.501941339753264,0.936507999999776,
-0.420517579589844,0.07584830859375,-0.0437660063476528,0.429538664117977,0.939417000000049,
-0.568958082519532,0.197952593261719,-0.0581312163085901,0.605208862420948,0.942414999999983,
-0.492343629394531,0.07584830859375,-0.13474566943359,0.516053883575174,0.945345999999972,
-0.334326319824219,-0.228215302246094,-0.228119534179685,0.464644847362842,0.948312999999871,
-0.145184388671875,-0.359896393554688,-0.0653138212890596,0.393535025199887,0.951239999999871,
-0.181097413574219,-0.28807034375,-0.0174297880859342,0.340711892460823,0.954144999999698,
-0.169126405273438,-0.280887738769531,0.0567904633789098,0.332756396606537,0.957143000000087,
-0.0805409438476564,-0.393415216796875,0.0496078583984403,0.404627379273923,0.96008699999993,
0.0535343491210936,-0.551432526367188,-0.151505081054685,0.574367084064629,0.963104999999814,
0.0990241806640623,-0.501154291503906,-0.213754324218746,0.553761973569135,0.966051999999763,
-0.0254743056640627,-0.3263775703125,-0.129957266113278,0.352221733667578,0.968955999999707,
-0.0781467421875002,-0.158783454101563,-0.0150355864257783,0.177609592843713,0.971935999999914,
-0.133213380371094,-0.233003705566406,-0.098832644531246,0.286014725394708,0.974852999999712,
-0.094906153808594,-0.197090680664063,0.0113006318359403,0.219042504357614,0.977848999999878,
-0.21222203515625,0.00162805712890618,0.0184832368164098,0.213031623988288,0.980786999999964,
-0.36545094140625,0.142885955078125,-0.122774661132809,0.411150099294137,0.983694000000014,
-0.437276991210938,0.0782425102539062,-0.196994912597653,0.485942437993102,0.986693999999716,
-0.322355311523438,-0.00555454785156256,-0.0724964262695273,0.330453524252747,0.989591999999902,
-0.341508924804688,0.07584830859375,0.0208774384765658,0.350452820041628,0.99260299999969,
-0.585717494140625,0.1333091484375,-0.0413718046874969,0.602119538150528,0.995614999999816,
-0.456430604492188,0.0351468803710937,-0.0294007963867156,0.458724979421327,0.998627999999826,
-0.324749513183594,-0.146812445800781,-0.139534072753904,0.382734761962224,1.00170299999991,
-0.257711866699219,-0.182725470703125,-0.117986257812497,0.337231020094344,1.00467799999979,
