X,Y,Z,Magnitude,Seconds,
0.133835872802734,0.565510432128906,-0.0333272871093744,0.582086589573719,0.0,
0.141018477783203,0.584664045410156,-0.0333272871093744,0.602352857665448,0.00386900000012247,
0.152989486083984,0.555933625488281,-0.0237504804687489,0.577089303421301,0.00784400000020469,
0.143412679443359,0.575087238769531,0.0121625444335951,0.592824136070544,0.0117589999999836,
0.107499654541016,0.608606062011719,0.0408929643554696,0.619378518337234,0.0156870000000708,
0.145806881103515,0.577481440429688,-0.0309330854492185,0.5964070056541,0.0196359999999913,
0.107499654541016,0.587058247070313,-0.0452982954101557,0.598536128188409,0.0234960000002502,
0.162566292724609,0.642124885253906,-0.00459686718749985,0.66239965200814,0.0273290000000088,
0.0811634362792967,0.591846650390625,0.0169509477539069,0.597626384622552,0.0312420000000202,
0.121864864501953,0.565510432128906,-0.0237504804687489,0.578979429141656,0.0351260000002185,
0.117076461181641,0.603817658691406,0.0624407792968764,0.618224484818896,0.0389820000000327,
0.0787692346191404,0.577481440429688,0.014556746093751,0.583010553266465,0.0429979999998977,
0.164960494384765,0.618182868652344,0.00258573779296967,0.639819279049046,0.0470150000001013,
0.0883460412597654,0.646913288574219,-0.0429040937499998,0.654326055725043,0.0509809999998652,
0.100317049560547,0.572693037109375,0.0408929643554696,0.582849088289474,0.054873999999927,
0.117076461181641,0.611000263671875,-0.00220266552734216,0.622119821019506,0.0587599999998929,
0.15538368774414,0.555933625488281,-0.0500866987304676,0.579409150562217,0.0625860000000102,
0.162566292724609,0.589452448730469,-0.059663505371093,0.614362859162023,0.0664440000000468,
0.124259066162109,0.584664045410156,0.0169509477539069,0.597962955498586,0.0705189999998765,
0.117076461181641,0.565510432128906,-0.0237504804687489,0.577990511973973,0.074387999999999,
0.148201082763672,0.575087238769531,0.00258573779296967,0.5938817888838,0.0783030000002327,
0.105105452880859,0.608606062011719,-0.0117794721679676,0.617727489195081,0.0822240000002239,
0.121864864501953,0.579875642089844,0.0073741411132815,0.592588544815327,0.0861039999999775,
0.129047469482422,0.599029255371094,0.0241335527343765,0.613246872424024,0.0899480000002768,
0.121864864501953,0.606211860351563,-0.0237504804687489,0.618795564102942,0.0938180000002831,
0.114682259521484,0.567904633789063,-0.00459686718749985,0.579386593662627,0.0976730000002135,
0.157777889404297,0.558327827148438,-0.0476924970703116,0.582149808236653,0.1015510000002,
0.157777889404297,0.587058247070313,0.0504697709960951,0.609982332221632,0.105440000000272,
0.143412679443359,0.596635053710938,0.0217393510742188,0.614013992777775,0.109222999999929,
0.143412679443359,0.603817658691406,0.0169509477539069,0.620846435282068,0.113114000000223,
0.169748897705078,0.591846650390625,0.0313161577148442,0.61650453979246,0.117173999999977,
0.124259066162109,0.570298835449219,-0.0333272871093744,0.584629613776351,0.121018000000277,
0.131441671142578,0.584664045410156,0.000191536132813752,0.599257036332668,0.125039000000015,
0.131441671142578,0.579875642089844,-0.0141736738281235,0.594755047251932,0.128943000000163,
0.145806881103515,0.570298835449219,0.0337103593750001,0.589607324090417,0.132849999999962,
0.129047469482422,0.56311623046875,-0.0285388837890626,0.578418193252146,0.136712999999872,
0.167354696044922,0.565510432128906,0.0121625444335951,0.589879284788006,0.140757000000121,
0.119470662841797,0.58226984375,0.0169509477539069,0.594641694510454,0.144776999999976,
0.109893856201172,0.565510432128906,-0.0452982954101557,0.577867323911339,0.148693999999978,
0.181719906005859,0.584664045410156,0.000191536132813752,0.612253384572301,0.152676000000156,
0.141018477783203,0.594240852050781,0.0217393510742188,0.611130919449719,0.15661399999999,
0.0979228479003904,0.567904633789063,0.0289219560546883,0.577010430375432,0.160514000000148,
0.143412679443359,0.594240852050781,0.0217393510742188,0.611687817645807,0.164401999999882,
0.17453730102539,0.56311623046875,-0.00459686718749985,0.589562795344569,0.168333999999959,
0.133835872802734,0.599029255371094,0.000191536132813752,0.613798115283362,0.17217299999993,
0.13623007446289,0.572693037109375,0.00976834277343741,0.588754081482468,0.176104000000123,
0.148201082763672,0.572693037109375,-0.00220266552734216,0.591562107830877,0.179993000000195,
0.131441671142578,0.551145222167969,-0.00699106884765577,0.566645253994919,0.183857999999873,
0.152989486083984,0.579875642089844,0.000191536132813752,0.599717916880462,0.187816999999995,
0.112288057861328,0.577481440429688,0.0073741411132815,0.588343267095132,0.191917000000103,
0.129047469482422,0.558327827148438,-0.00938527050781168,0.573124153435027,0.195838999999978,
0.124259066162109,0.608606062011719,-0.00459686718749985,0.621178545531662,0.199785000000247,
0.148201082763672,0.577481440429688,0.0504697709960951,0.598327312394704,0.203659000000243,
0.126653267822265,0.575087238769531,-0.0381156904296862,0.590100998391423,0.207472999999936,
0.148201082763672,0.584664045410156,-0.00220266552734216,0.603158734217718,0.211307999999917,
0.124259066162109,0.572693037109375,-0.0309330854492185,0.586834291817075,0.215352000000166,
0.131441671142578,0.575087238769531,0.0121625444335951,0.590042517616669,0.219290000000001,
0.119470662841797,0.575087238769531,0.0289219560546883,0.588077419237851,0.223163000000113,
0.141018477783203,0.615788666992188,0.00497993945312558,0.631748916318235,0.227175999999872,
0.141018477783203,0.611000263671875,0.0456813676757815,0.628724359824019,0.231143999999858,
0.117076461181641,0.606211860351563,0.0384987626953137,0.618612861265257,0.235087000000021,
0.129047469482422,0.558327827148438,0.014556746093751,0.573232161349091,0.238972000000103,
0.157777889404297,0.560722028808594,-0.0141736738281235,0.582669674005681,0.242964000000029,
0.129047469482422,0.594240852050781,0.000191536132813752,0.608091667688306,0.246899000000212,
0.133835872802734,0.608606062011719,-0.00699106884765577,0.623187174619243,0.250829000000067,
0.117076461181641,0.599029255371094,0.0361045610351578,0.611429869961229,0.254752000000281,
0.100317049560547,0.606211860351563,0.052863972656251,0.616725976158323,0.258636999999908,
0.114682259521484,0.565510432128906,-0.0476924970703116,0.578989329584214,0.262669000000187,
0.0811634362792967,0.608606062011719,-0.0357214887695303,0.615032411232113,0.26667499999985,
0.0907402429199217,0.575087238769531,0.0241335527343765,0.582701941174314,0.270758000000114,
0.176931502685547,0.587058247070313,-0.0357214887695303,0.614180890988759,0.274664999999914,
0.148201082763672,0.560722028808594,-0.0117794721679676,0.580096121766131,0.278593000000001,
0.13623007446289,0.534385810546875,-0.0141736738281235,0.551659062040851,0.282443999999941,
0.129047469482422,0.599029255371094,0.0456813676757815,0.614472200773146,0.286395000000084,
0.117076461181641,0.594240852050781,0.0480755693359374,0.607569212827501,0.290440000000217,
0.141018477783203,0.596635053710938,0.00497993945312558,0.613094118541274,0.294492999999875,
0.102711251220703,0.577481440429688,0.00258573779296967,0.586550169387072,0.29846600000019,
0.124259066162109,0.589452448730469,0.100748005859376,0.610773825177918,0.302439999999933,
0.160172091064453,0.5439626171875,-0.239228629882811,0.615451675608281,0.306307000000288,
-0.0840364782714846,0.816901606445313,0.656202791015625,1.05118621910197,0.31025499999987,
0.210450325927734,0.268629426269531,-0.0141736738281235,0.341543557062307,0.314170999999988,
0.373256038818359,0.321301862792969,-1.05086299267578,1.16054641739316,0.317144000000098,
-0.0433350500488283,0.785776984863281,0.51973329638672,0.943104498916515,0.320103000000017,
0.112288057861328,0.776200178222656,0.605924556152344,0.991080164446634,0.323154000000159,
0.035673604736328,0.663672700195313,-0.739616776855469,0.994367656184318,0.326109000000088,
0.15538368774414,0.476924970703125,0.246794307128907,0.559024997766989,0.329181000000062,
0.167354696044922,0.570298835449219,-0.143460563476562,0.611415807185287,0.332139000000097,
0.0380678063964842,0.663672700195313,0.332985566894532,0.743498485962447,0.335121000000072,
0.234392342529297,0.548751020507813,-0.220075016601562,0.636003510742602,0.338180000000193,
0.100317049560547,0.546356818847656,0.0265277543945324,0.556123192905206,0.341136000000006,
0.0620098229980467,0.632548078613281,0.220458088867188,0.672728815238783,0.344175000000178,
0.13623007446289,0.673249506835938,-0.119518546875,0.697214611644155,0.347150000000056,
0.17453730102539,0.56311623046875,0.0720175859375001,0.593927345010168,0.350150000000212,
0.184114107666015,0.510443793945313,0.0384987626953137,0.543997266673288,0.353235000000041,
0.0548272180175779,0.611000263671875,0.0289219560546883,0.614136650579232,0.356227000000217,
0.119470662841797,0.565510432128906,0.0480755693359374,0.579988403757743,0.359318000000258,
0.152989486083984,0.606211860351563,-0.0405098920898439,0.626529850717645,0.362277000000176,
0.138624276123047,0.584664045410156,0.0313161577148442,0.601688821285579,0.365260000000035,
0.181719906005859,0.5439626171875,-0.0261446821289049,0.57410887254934,0.368332000000009,
0.100317049560547,0.589452448730469,-0.0309330854492185,0.598727446775482,0.371356999999989,
0.112288057861328,0.599029255371094,-0.0572693037109371,0.612147392280856,0.37440800000013,
0.114682259521484,0.615788666992188,-0.0381156904296862,0.627535265066355,0.377354000000196,
0.141018477783203,0.670855305175781,0.0217393510742188,0.685861247588687,0.380412999999862,
0.141018477783203,0.5439626171875,0.00497993945312558,0.561966493459106,0.383428000000094,
0.114682259521484,0.584664045410156,-0.00459686718749985,0.595823126298621,0.386359999999968,
0.210450325927734,0.608606062011719,-0.0285388837890626,0.644596886657411,0.389400000000023,
0.143412679443359,0.608606062011719,0.052863972656251,0.627505485989992,0.392329000000245,
0.0859518395996092,0.594240852050781,0.00497993945312558,0.600445425308206,0.395360999999866,
0.117076461181641,0.575087238769531,0.000191536132813752,0.586883520508516,0.398310999999921,
0.112288057861328,0.551145222167969,-0.0548751020507812,0.56513798375435,0.401298000000224,
0.133835872802734,0.6205770703125,-0.0117794721679676,0.634954090475108,0.404407999999876,
0.102711251220703,0.615788666992188,-0.059663505371093,0.627140349041986,0.407353000000057,
0.121864864501953,0.584664045410156,-0.00938527050781168,0.597303251705491,0.410429000000022,
0.117076461181641,0.572693037109375,0.0265277543945324,0.585139243487901,0.413383999999951,
0.100317049560547,0.591846650390625,-0.0812113203124998,0.605756755272309,0.416333000000122,
0.107499654541016,0.596635053710938,0.0289219560546883,0.606931662203514,0.419370000000072,
0.114682259521484,0.575087238769531,-0.0165678754882812,0.586644566447787,0.42233699999997,
0.107499654541016,0.565510432128906,-0.0333272871093744,0.576601190285912,0.425426000000243,
0.148201082763672,0.539174213867188,-0.0333272871093744,0.56016345998083,0.428380000000288,
0.150595284423828,0.56311623046875,-0.059663505371093,0.585950989913998,0.431298999999854,
0.124259066162109,0.6205770703125,0.00976834277343741,0.632970486074718,0.434361999999965,
0.102711251220703,0.555933625488281,-0.0620577070312489,0.568738038184403,0.437299000000166,
0.148201082763672,0.603817658691406,-0.0692403120117184,0.625582565843532,0.440297999999984,
0.138624276123047,0.572693037109375,-0.0285388837890626,0.589922429283821,0.443295000000035,
0.138624276123047,0.606211860351563,-0.0429040937499998,0.623338006880737,0.446256000000176,
0.0811634362792967,0.594240852050781,0.0121625444335951,0.59988133920118,0.449297000000115,
0.141018477783203,0.608606062011719,-0.0357214887695303,0.625750409151776,0.452232999999978,
0.0883460412597654,0.551145222167969,-0.0381156904296862,0.559480906539074,0.455273000000034,
0.119470662841797,0.594240852050781,-0.0165678754882812,0.60635791742509,0.458243000000039,
0.112288057861328,0.567904633789063,-0.0381156904296862,0.580152641012941,0.46118400000023,
0.145806881103515,0.615788666992188,0.0552581743164069,0.635223421169223,0.46419300000025,
0.0979228479003904,0.584664045410156,0.0313161577148442,0.593634257662337,0.467183000000205,
0.102711251220703,0.579875642089844,-0.0189620771484371,0.58920702795046,0.470256999999947,
0.13623007446289,0.5439626171875,0.0600465776367187,0.563967688410889,0.47324400000025,
0.102711251220703,0.58226984375,0.0289219560546883,0.591966427772725,0.47624500000029,
0.126653267822265,0.60142345703125,-0.0189620771484371,0.614907135498737,0.479205000000093,
0.164960494384765,0.577481440429688,0.0289219560546883,0.601276357667955,0.482132000000092,
0.119470662841797,0.613394465332031,0.0935654008789069,0.631886456273164,0.485199000000193,
0.129047469482422,0.60142345703125,-0.0189620771484371,0.615404732202329,0.488166999999976,
0.148201082763672,0.606211860351563,0.0241335527343765,0.624530871079093,0.491249000000153,
0.145806881103515,0.56311623046875,0.0169509477539069,0.581933733533488,0.494251000000077,
0.157777889404297,0.608606062011719,0.0313161577148442,0.629504489925455,0.497276000000056,
0.129047469482422,0.6205770703125,0.00497993945312558,0.633872186938675,0.500371000000086,
0.145806881103515,0.584664045410156,0.0169509477539069,0.602809279293426,0.503345999999965,
0.109893856201172,0.613394465332031,0.0169509477539069,0.623391341262042,0.50640599999997,
0.141018477783203,0.577481440429688,-0.0357214887695303,0.595522501570638,0.509477000000061,
0.0907402429199217,0.589452448730469,-0.0476924970703116,0.598299720270964,0.512457000000268,
0.141018477783203,0.608606062011719,0.0265277543945324,0.625292948582439,0.515506000000187,
0.117076461181641,0.548751020507813,0.0768059892578137,0.566333594498025,0.518473999999969,
0.121864864501953,0.60142345703125,0.0313161577148442,0.614444400740637,0.521552000000156,
0.13623007446289,0.627759675292969,-0.0141736738281235,0.642527615081161,0.524539999999888,
0.114682259521484,0.56311623046875,-0.00938527050781168,0.574752114366526,0.5274730000001,
0.131441671142578,0.572693037109375,0.0241335527343765,0.588078783866496,0.530506000000059,
0.0883460412597654,0.60142345703125,-0.0644519086914048,0.611284914101156,0.533445000000029,
0.114682259521484,0.565510432128906,0.0217393510742188,0.577431094487215,0.536490999999842,
0.150595284423828,0.618182868652344,-0.0381156904296862,0.637402388325355,0.539446000000225,
0.131441671142578,0.615788666992188,-0.0117794721679676,0.629770872042622,0.542491000000155,
0.141018477783203,0.575087238769531,-0.059663505371093,0.595122909275909,0.545536999999968,
0.167354696044922,0.591846650390625,-0.0548751020507812,0.617496015122344,0.548608999999942,
0.112288057861328,0.596635053710938,0.0648349809570323,0.610561684034153,0.55165500000021,
0.133835872802734,0.512837995605469,0.0121625444335951,0.53015354197874,0.554649000000154,
0.179325704345703,0.455377155761719,-0.0836055219726557,0.496503721570177,0.557628000000022,
0.176931502685547,0.682826313476563,-0.248805436523437,0.747971039721577,0.560653000000002,
0.0644040246582029,0.673249506835938,0.354533381835939,0.763614232242325,0.563658000000032,
0.176931502685547,0.510443793945313,-0.1578257734375,0.562820218347738,0.566721000000143,
0.133835872802734,0.520020600585938,0.00976834277343741,0.537055757257259,0.569675000000188,
0.145806881103515,0.567904633789063,-0.0357214887695303,0.587410711867034,0.572681999999986,
0.121864864501953,0.632548078613281,0.0193451494140628,0.64447059805959,0.575710000000072,
0.0955286462402342,0.615788666992188,0.0073741411132815,0.623198028403224,0.578641999999945,
0.188902510986328,0.560722028808594,-0.00459686718749985,0.591704726562248,0.581707000000279,
0.0979228479003904,0.589452448730469,0.0720175859375001,0.601855137171341,0.584691000000021,
0.105105452880859,0.60142345703125,-0.0644519086914048,0.613931086871056,0.587711000000127,
0.133835872802734,0.5439626171875,-0.0333272871093744,0.56117562118504,0.590686000000005,
0.150595284423828,0.58226984375,0.0480755693359374,0.603347636937709,0.593621999999868,
0.117076461181641,0.567904633789063,-0.0572693037109371,0.58266829670872,0.596667000000252,
0.100317049560547,0.594240852050781,0.0432871660156255,0.604201522192915,0.599631999999929,
0.126653267822265,0.558327827148438,0.0169509477539069,0.572763779797666,0.602674000000206,
0.143412679443359,0.570298835449219,0.0768059892578137,0.593049001622741,0.605632000000242,
0.160172091064453,0.603817658691406,0.0768059892578137,0.629404499260533,0.608596000000034,
0.141018477783203,0.579875642089844,0.0217393510742188,0.597172144988803,0.611663000000135,
0.119470662841797,0.56311623046875,-0.00699106884765577,0.575692629222249,0.614640000000236,
0.143412679443359,0.599029255371094,0.00497993945312558,0.61597730900783,0.617713000000094,
0.145806881103515,0.58226984375,0.0456813676757815,0.601983890872932,0.62065900000016,
0.121864864501953,0.58226984375,-0.00699106884765577,0.594926962899112,0.623598000000129,
0.0979228479003904,0.555933625488281,0.00497993945312558,0.56451384383948,0.626693000000159,
0.167354696044922,0.529597407226563,-0.0285388837890626,0.556143395103557,0.629692999999861,
0.126653267822265,0.58226984375,-0.0405098920898439,0.597260640380595,0.632802999999967,
0.114682259521484,0.596635053710938,0.0337103593750001,0.608491410206256,0.635771000000204,
0.124259066162109,0.603817658691406,-0.0189620771484371,0.616762223908724,0.638742999999977,
0.109893856201172,0.58226984375,0.014556746093751,0.592728208733355,0.641814999999951,
0.117076461181641,0.541568415527344,-0.0476924970703116,0.55612752200949,0.644784999999956,
0.13623007446289,0.589452448730469,-0.0452982954101557,0.606683408434396,0.647906000000148,
0.129047469482422,0.572693037109375,-0.0476924970703116,0.588986534999042,0.650940999999875,
0.152989486083984,0.579875642089844,0.0217393510742188,0.600111775027351,0.653886999999941,
0.133835872802734,0.579875642089844,-0.0381156904296862,0.596339338795379,0.6569199999999,
0.121864864501953,0.594240852050781,-0.0405098920898439,0.607959116062296,0.659900000000107,
0.119470662841797,0.570298835449219,-0.0548751020507812,0.585256591436335,0.662986000000274,
0.0979228479003904,0.606211860351563,-0.0716345136718743,0.618233942226429,0.665931999999884,
0.13623007446289,0.565510432128906,0.0289219560546883,0.582406354341036,0.668932000000041,
0.138624276123047,0.579875642089844,0.0337103593750001,0.597167345514588,0.671867999999904,
0.131441671142578,0.591846650390625,0.0337103593750001,0.607203226951692,0.674835000000257,
0.117076461181641,0.613394465332031,-0.0429040937499998,0.625939636964535,0.677858999999899,
0.145806881103515,0.6205770703125,0.0289219560546883,0.638131668479797,0.680835999999999,
0.109893856201172,0.555933625488281,-0.0165678754882812,0.566933285385065,0.68392700000004,
0.133835872802734,0.594240852050781,-0.059663505371093,0.612040819691036,0.686893999999938,
0.148201082763672,0.567904633789063,-0.0285388837890626,0.587616968695884,0.689875999999913,
0.0979228479003904,0.611000263671875,-0.0548751020507812,0.621225790814505,0.692923000000064,
0.15538368774414,0.56311623046875,-0.0524809003906235,0.586513618205164,0.695893999999953,
0.148201082763672,0.551145222167969,-0.0548751020507812,0.573354945627914,0.698937000000114,
0.114682259521484,0.555933625488281,-0.0572693037109371,0.570520805707411,0.701907000000119,
0.150595284423828,0.589452448730469,-0.0165678754882812,0.608611225252406,0.704894999999851,
0.138624276123047,0.594240852050781,-0.00220266552734216,0.610199747551654,0.707960000000185,
0.131441671142578,0.56311623046875,-0.00459686718749985,0.578271504674083,0.710885999999846,
0.0572214196777342,0.613394465332031,-0.0381156904296862,0.617235665549906,0.713945999999851,
0.15538368774414,0.572693037109375,-0.0572693037109371,0.596155330696677,0.716895000000022,
0.160172091064453,0.575087238769531,0.00976834277343741,0.597055986882355,0.719805000000179,
0.145806881103515,0.577481440429688,0.0241335527343765,0.596093020413311,0.722878999999921,
0.13623007446289,0.572693037109375,0.0408929643554696,0.590091672942012,0.725832000000082,
0.145806881103515,0.58226984375,-0.0141736738281235,0.600415448291906,0.728893999999855,
0.0907402429199217,0.591846650390625,0.000191536132813752,0.598762295030223,0.731822000000193,
0.138624276123047,0.606211860351563,0.0384987626953137,0.623050290338277,0.73476699999992,
0.107499654541016,0.572693037109375,-0.021356278808593,0.583086255304091,0.737802999999985,
0.124259066162109,0.618182868652344,0.00497993945312558,0.630567343283552,0.740763000000243,
0.0883460412597654,0.603817658691406,0.0456813676757815,0.611953899657951,0.743781000000126,
0.109893856201172,0.570298835449219,0.0289219560546883,0.581510017873749,0.746748000000025,
0.143412679443359,0.587058247070313,0.0432871660156255,0.605869920709104,0.749760000000151,
0.121864864501953,0.536780012207031,0.0169509477539069,0.550700609528277,0.752810999999838,
0.119470662841797,0.529597407226563,-0.0357214887695303,0.544079661245362,0.755739000000176,
0.143412679443359,0.565510432128906,-0.00938527050781168,0.583487213890974,0.758802000000287,
0.129047469482422,0.6205770703125,-0.0285388837890626,0.634494773394855,0.761718000000201,
0.150595284423828,0.570298835449219,0.0073741411132815,0.589893277943212,0.764768000000004,
0.114682259521484,0.560722028808594,-0.0117794721679676,0.572450845230169,0.767737000000125,
0.141018477783203,0.575087238769531,-0.0309330854492185,0.592932035774139,0.770735000000059,
0.145806881103515,0.567904633789063,0.0073741411132815,0.586369932391986,0.773827999999867,
0.107499654541016,0.58226984375,0.00258573779296967,0.592115725772438,0.776836999999887,
0.105105452880859,0.58226984375,-0.0452982954101557,0.593411545837293,0.77989400000024,
0.131441671142578,0.630153876953125,-0.0357214887695303,0.644706790961379,0.78290300000026,
0.129047469482422,0.575087238769531,0.0600465776367187,0.59243917245677,0.785860999999841,
0.157777889404297,0.58226984375,0.0217393510742188,0.603659368113054,0.788996000000225,
0.117076461181641,0.570298835449219,-0.021356278808593,0.582583685080609,0.791959000000134,
0.148201082763672,0.58226984375,-0.0740287153320303,0.605377553735423,0.795020999999906,
0.100317049560547,0.591846650390625,0.000191536132813752,0.600288267998989,0.797974000000067,
0.107499654541016,0.618182868652344,0.00976834277343741,0.627536178512616,0.800958000000264,
0.0979228479003904,0.613394465332031,0.0217393510742188,0.621541835781003,0.8040289999999,
0.160172091064453,0.596635053710938,-0.0644519086914048,0.621113946556168,0.8069559999999,
0.114682259521484,0.548751020507813,0.0480755693359374,0.562664165843439,0.809991999999966,
0.119470662841797,0.627759675292969,0.0576523759765628,0.641622354395118,0.812923999999839,
0.121864864501953,0.577481440429688,0.0265277543945324,0.590795718496709,0.815859000000273,
0.126653267822265,0.589452448730469,0.0241335527343765,0.603388488398633,0.81890199999998,
0.0811634362792967,0.606211860351563,-0.0165678754882812,0.611845419626364,0.821954000000005,
0.145806881103515,0.587058247070313,0.0265277543945324,0.605475642601434,0.825018999999884,
0.112288057861328,0.58226984375,0.0121625444335951,0.593122842559632,0.82803899999999,
0.184114107666015,0.599029255371094,-0.00459686718749985,0.626701830713809,0.830985999999939,
0.114682259521484,0.567904633789063,0.014556746093751,0.579551199278269,0.83406100000002,
0.121864864501953,0.575087238769531,-0.0476924970703116,0.58978890433141,0.837027000000035,
0.131441671142578,0.58226984375,-0.021356278808593,0.597303251705491,0.840059999999994,
0.145806881103515,0.575087238769531,0.0361045610351578,0.594380785439974,0.843071000000236,
0.117076461181641,0.584664045410156,0.0073741411132815,0.59631646104677,0.846045000000231,
0.138624276123047,0.591846650390625,0.0289219560546883,0.608552074231344,0.849071999999978,
0.157777889404297,0.587058247070313,-0.00220266552734216,0.607894809628745,0.852012000000286,
0.114682259521484,0.584664045410156,0.000191536132813752,0.595805424052528,0.855101999999988,
0.143412679443359,0.587058247070313,-0.00699106884765577,0.604362024884113,0.858028999999988,
0.0931344445800779,0.575087238769531,0.0384987626953137,0.583850590212833,0.861077000000023,
0.107499654541016,0.622971271972656,-0.0548751020507812,0.634555480832646,0.86406100000022,
0.112288057861328,0.577481440429688,0.0408929643554696,0.589716589992848,0.867009999999937,
0.141018477783203,0.56311623046875,0.0217393510742188,0.580911955014488,0.870045000000118,
0.105105452880859,0.565510432128906,0.0241335527343765,0.575700993085383,0.872973999999886,
0.152989486083984,0.613394465332031,0.0193451494140628,0.632481452501228,0.875992000000224,
0.121864864501953,0.579875642089844,-0.0764229169921862,0.597450640413735,0.87896899999987,
0.121864864501953,0.60142345703125,-0.0237504804687489,0.614105288358597,0.881893000000218,
0.157777889404297,0.587058247070313,0.0480755693359374,0.609788904626115,0.884951000000001,
0.138624276123047,0.587058247070313,0.000191536132813752,0.603203209598554,0.887928000000102,
0.13623007446289,0.575087238769531,-0.0452982954101557,0.592735945384447,0.891039000000092,
0.114682259521484,0.587058247070313,-0.00938527050781168,0.598228626366815,0.894024000000172,
0.141018477783203,0.603817658691406,-0.00699106884765577,0.620105516075689,0.896983000000091,
0.117076461181641,0.599029255371094,0.0169509477539069,0.61059829772365,0.900024999999914,
0.0883460412597654,0.565510432128906,-0.0117794721679676,0.5724908975848,0.90296699999999,
0.107499654541016,0.606211860351563,-0.0141736738281235,0.615832678888614,0.906049000000166,
0.0979228479003904,0.606211860351563,0.0504697709960951,0.616140326188948,0.90907100000004,
0.0787692346191404,0.579875642089844,0.0121625444335951,0.585327498156966,0.912084999999934,
0.143412679443359,0.608606062011719,-0.0333272871093744,0.626162313947914,0.915156000000025,
0.148201082763672,0.613394465332031,0.0313161577148442,0.631820411799361,0.918154999999842,
0.143412679443359,0.60142345703125,-0.00699106884765577,0.618325356374924,0.921218999999837,
0.138624276123047,0.56311623046875,0.000191536132813752,0.579928112470902,0.924191999999948,
0.13623007446289,0.611000263671875,0.0073741411132815,0.626046590400766,0.927201999999852,
0.112288057861328,0.618182868652344,0.0384987626953137,0.62947662527101,0.930335000000014,
0.157777889404297,0.60142345703125,0.00976834277343741,0.621851636303093,0.933286999999837,
0.138624276123047,0.627759675292969,-0.0692403120117184,0.646601206820752,0.936317000000145,
0.102711251220703,0.579875642089844,0.000191536132813752,0.588901857784912,0.939321000000291,
0.105105452880859,0.577481440429688,-0.0836055219726557,0.592892784211747,0.942289999999957,
0.121864864501953,0.536780012207031,-0.0548751020507812,0.553168241613836,0.945332000000235,
0.124259066162109,0.572693037109375,-0.0285388837890626,0.58671296062467,0.948268999999982,
0.0859518395996092,0.577481440429688,0.000191536132813752,0.583842932180731,0.951297000000068,
0.129047469482422,0.603817658691406,-0.0165678754882812,0.617675893026095,0.954274000000169,
0.164960494384765,0.570298835449219,0.0408929643554696,0.595083994874824,0.957268999999997,
0.121864864501953,0.572693037109375,-0.0452982954101557,0.587265098163261,0.960272000000259,
0.141018477783203,0.565510432128906,0.00258573779296967,0.582833549105444,0.963305000000219,
0.148201082763672,0.594240852050781,-0.0716345136718743,0.616617591970396,0.966335999999956,
0.138624276123047,0.603817658691406,0.0217393510742188,0.619907294894437,0.969335000000228,
0.129047469482422,0.6205770703125,-0.0692403120117184,0.637623219766142,0.972325000000183,
0.133835872802734,0.644519086914063,0.000191536132813752,0.658268129967946,0.975315000000137,
0.129047469482422,0.572693037109375,0.014556746093751,0.587232886502633,0.978258000000096,
0.141018477783203,0.596635053710938,-0.0165678754882812,0.613297719620039,0.981301000000258,
0.102711251220703,0.611000263671875,-0.0524809003906235,0.621791901073208,0.984285,
0.162566292724609,0.577481440429688,0.0480755693359374,0.601850375041791,0.987345000000005,
0.13623007446289,0.560722028808594,-0.0668461103515625,0.580892614214128,0.990271000000121,
0.141018477783203,0.630153876953125,0.0265277543945324,0.646284644308189,0.993236000000252,
0.124259066162109,0.591846650390625,-0.0309330854492185,0.605540773918232,0.996282999999949,
0.157777889404297,0.58226984375,0.0193451494140628,0.603577889034528,0.999213000000054,
0.114682259521484,0.606211860351563,-0.0117794721679676,0.617076653459205,1.00229100000024,
0.126653267822265,0.558327827148438,-0.00459686718749985,0.572531347618883,1.00527000000011,
0.133835872802734,0.589452448730469,0.0552581743164069,0.606975861127935,1.00822999999991,
0.141018477783203,0.603817658691406,0.00976834277343741,0.620143045227795,1.01126500000009,
0.119470662841797,0.611000263671875,-0.0117794721679676,0.622682356785155,1.01421699999992,
0.13623007446289,0.553539423828125,0.0337103593750001,0.571052462781949,1.01726499999995,
0.143412679443359,0.553539423828125,0.0504697709960951,0.574038577224122,1.020219,
0.109893856201172,0.546356818847656,0.0265277543945324,0.557930241952622,1.02313800000002,
0.112288057861328,0.565510432128906,0.0169509477539069,0.57679978451335,1.02619600000025,
0.0979228479003904,0.587058247070313,0.00976834277343741,0.595249267210578,1.0291830000001,
