X,Y,Z,Magnitude,Seconds,
0.016519991455078,0.144130939941406,-0.0117794721679676,0.145552031695284,0.0,
0.0308852014160155,0.132159931640625,0.0624407792968764,0.149395428701697,0.00379000000020824,
0.0476446130371092,0.170467158203125,0.0768059892578137,0.192946161307181,0.00756600000022445,
0.0308852014160155,0.117794721679687,-0.0668461103515625,0.138916862155881,0.0113089999999829,
-0.0337582434082033,0.144130939941406,0.0744117875976578,0.165681806423879,0.015114000000267,
0.0117315881347655,0.134554133300781,0.0504697709960951,0.144186139184342,0.0188620000003539,
0.045250411376953,0.184832368164063,-0.0357214887695303,0.193614639970305,0.0225930000001426,
0.0284909997558592,0.1608903515625,0.0672291826171882,0.176683913496301,0.0263370000002396,
-0.000239420166015747,0.158496149902344,-0.0309330854492185,0.16148666394254,0.0300280000001294,
-0.0217872351074221,0.144130939941406,0.0289219560546883,0.14860986173215,0.0337370000002011,
0.0117315881347655,0.146525141601563,-0.0788171186523439,0.166791443048435,0.037485000000288,
0.0021547814941405,0.146525141601563,-0.0476924970703116,0.15410656858631,0.0415929999999207,
0.0189141931152342,0.0962469067382813,0.0552581743164069,0.112581879477428,0.0454610000001594,
-0.0505176550292971,0.172861359863281,-0.0309330854492185,0.182729141022582,0.049199999999928,
0.0117315881347655,0.134554133300781,0.0121625444335951,0.135611107345923,0.0529850000002625,
0.00933738647460924,0.163284553222656,0.0337103593750001,0.16698928240007,0.0567770000002383,
-0.0193930334472658,0.163284553222656,0.052863972656251,0.172720973458379,0.0605980000000272,
0.0021547814941405,0.120188923339844,0.0552581743164069,0.132300741515914,0.0645060000001649,
0.0117315881347655,0.163284553222656,0.0265277543945324,0.16584087926233,0.0683180000000903,
0.0141257897949217,0.151313544921875,0.0792001909179696,0.171370934103766,0.0721270000003642,
0.0021547814941405,0.122583125,0.0313161577148442,0.126538402677109,0.0759430000002794,
-0.00263362182617211,0.156101948242188,-0.00459686718749985,0.156191822439171,0.0796840000002703,
0.026096798095703,0.14173673828125,-0.00459686718749985,0.144192499934619,0.0834480000003168,
0.016519991455078,0.148919343261719,-0.0189620771484371,0.151027948688184,0.0872320000003128,
-0.0193930334472658,0.136948334960938,0.0361045610351578,0.142949206092239,0.0910840000001372,
-0.0146046301269533,0.144130939941406,-0.0429040937499998,0.151088663803897,0.0948069999999461,
-0.0146046301269533,0.139342536621094,0.0600465776367187,0.15243106382568,0.0985359999999673,
-0.0457292517089846,0.136948334960938,-0.0165678754882812,0.145328955850622,0.102229000000079,
0.0428562097167967,0.175255561523438,0.00976834277343741,0.18068366577177,0.105980000000272,
0.0284909997558592,0.196803376464844,-0.0261446821289049,0.200566324338541,0.109818000000359,
0.0332794030761717,0.1608903515625,-0.0548751020507812,0.17321807272942,0.113862000000154,
0.0021547814941405,0.134554133300781,0.0935654008789069,0.16390223339919,0.11763000000019,
-0.0337582434082033,0.144130939941406,0.0121625444335951,0.148530381853343,0.121380000000045,
0.006943184814453,0.136948334960938,0.0241335527343765,0.139231758702976,0.125143000000207,
0.0237025964355467,0.144130939941406,0.000191536132813752,0.14606703122974,0.128932000000077,
-0.0193930334472658,0.124977326660156,-0.0117794721679676,0.127020383757734,0.13270300000022,
-0.0217872351074221,0.144130939941406,-0.021356278808593,0.147324478979461,0.136525000000347,
-0.00502782348632835,0.172861359863281,-0.00220266552734216,0.172948490823765,0.140276000000085,
0.00454898315429675,0.139342536621094,0.0337103593750001,0.143434389491958,0.144045000000006,
0.0955286462402342,-0.00909796630859376,-0.00459686718749985,0.0960709447824035,0.147817000000032,
-0.0768538732910158,0.163284553222656,-0.0524809003906235,0.187943097949258,0.151528000000326,
-0.0529118566894533,0.259052619628906,0.0672291826171882,0.272814382520972,0.155220000000099,
-0.0481234533691408,0.259052619628906,0.0313161577148442,0.265339081619711,0.158908000000338,
0.0308852014160155,0.227927998046875,0.0504697709960951,0.23548304767979,0.162728000000243,
0.0524330163574217,0.0531512768554687,0.0480755693359374,0.0888005619502425,0.166441000000304,
-0.0577002600097658,0.129765729980469,-0.00938527050781168,0.142325500122302,0.170116000000235,
-0.0385466467285158,0.139342536621094,-0.0141736738281235,0.145268990207132,0.173778000000311,
-0.0529118566894533,0.187226569824219,0.0361045610351578,0.197881258218179,0.177484000000277,
0.0596156213378904,0.158496149902344,-0.0333272871093744,0.172585514767143,0.181391000000076,
0.0811634362792967,0.153707746582031,0.11750741748047,0.209813173825951,0.185339000000113,
0.0021547814941405,0.151313544921875,-0.0452982954101557,0.157963184087867,0.189102000000275,
-0.0241814367675783,0.105823713378906,-0.0285388837890626,0.112240224898968,0.192867000000206,
-0.0768538732910158,0.156101948242188,-0.0836055219726557,0.193039424442673,0.196596000000227,
-0.0122104284667971,0.1608903515625,0.052863972656251,0.169792224186647,0.200392000000193,
0.0524330163574217,0.139342536621094,0.0241335527343765,0.150824374966122,0.204154000000017,
0.0548272180175779,0.156101948242188,-0.0500866987304676,0.172865611011185,0.207887000000028,
0.0141257897949217,0.122583125,0.0600465776367187,0.137228830636927,0.211740000000191,
-0.0577002600097658,0.165678754882813,-0.095576530273437,0.199783990759577,0.215508000000227,
-0.0720654699707033,0.170467158203125,-0.00938527050781168,0.185312080800072,0.219243000000006,
0.0141257897949217,0.146525141601563,-0.00459686718749985,0.147276224308704,0.222974000000249,
0.0117315881347655,0.172861359863281,-0.0500866987304676,0.180353423265718,0.226752999999917,
0.0907402429199217,0.074699091796875,0.119901619140625,0.167899208672906,0.230491000000256,
-0.0241814367675783,0.110612116699219,-0.00459686718749985,0.113317754269865,0.234243000000333,
-0.0385466467285158,0.105823713378906,0.0121625444335951,0.11328031503493,0.237988000000314,
0.026096798095703,0.0723048901367187,0.0672291826171882,0.102121510975436,0.24169000000029,
-0.0169988317871096,0.227927998046875,0.129478425781251,0.2626876383056,0.245386000000053,
0.0380678063964842,0.182438166503906,0.0792001909179696,0.202498179553768,0.249184000000241,
0.00454898315429675,0.199197578125,0.0720175859375001,0.21186528989636,0.253181000000041,
-0.0146046301269533,0.213562788085938,0.0313161577148442,0.216340152098969,0.257037000000309,
0.0596156213378904,0.139342536621094,-0.00459686718749985,0.151629469455786,0.260843000000023,
-0.0217872351074221,0.14173673828125,-0.0476924970703116,0.151124322559393,0.264609000000291,
0.026096798095703,0.0890643017578125,0.0504697709960951,0.10564416927996,0.268459000000348,
-0.000239420166015747,0.168072956542969,0.0169509477539069,0.16892575491282,0.272265999999945,
0.0380678063964842,0.120188923339844,0.0313161577148442,0.129904722437069,0.276068000000123,
0.0021547814941405,0.170467158203125,0.00976834277343741,0.170760404162312,0.279843000000255,
0.016519991455078,0.158496149902344,0.0839885942382814,0.180133349532131,0.283729000000221,
0.0476446130371092,0.134554133300781,0.0073741411132815,0.142930759100128,0.287487999999939,
0.0189141931152342,0.110612116699219,0.0337103593750001,0.117171563918357,0.291224000000057,
0.0189141931152342,0.132159931640625,0.222852290527344,0.259782866305187,0.294921000000159,
0.722809481201172,0.6971915234375,-2.08036970654297,2.31007958355748,0.298641000000316,
-0.251630594482422,-1.36421610595703,-0.615118290527343,1.51748939079436,0.302008000000114,
0.0715866296386717,0.661278498535156,6.35200854052735,6.38673832226593,0.304943999999978,
0.674925447998047,0.168072956542969,-1.56322214794922,1.71097526659956,0.307851000000028,
0.172143099365234,0.146525141601563,-2.64061289501953,2.65027155686429,0.310860000000048,
-0.62991445678711,0.644519086914063,-1.5368859296875,1.78163280087041,0.313790000000154,
-0.249236392822266,0.335667072753906,0.687327412597657,0.804493713677379,0.316783000000214,
-0.148679923095703,0.304542451171875,1.31460824755859,1.35758854909969,0.319718000000194,
-0.179804544677735,0.27581203125,0.574799934570313,0.662417478370744,0.322625000000244,
-0.491050760498047,0.567904633789063,-0.270353251464844,0.797958271491945,0.325615000000198,
-0.22768857788086,0.323696064453125,-0.41879375439453,0.576202602701268,0.328537000000324,
0.0404620080566405,0.055545478515625,0.342562373535158,0.349387255121801,0.331544000000122,
0.143412679443359,-0.040222587890625,0.0241335527343765,0.150888970999625,0.334572000000207,
0.19369091430664,0.0196324536132812,-0.11233594189453,0.22476869746731,0.33765399999993,
0.191296712646484,-0.109654436035156,0.00258573779296967,0.220511255158266,0.34083099999998,
0.0859518395996092,-0.0689530078125,-0.0117794721679676,0.110819637165547,0.343873000000258,
-0.0433350500488283,0.0483628735351562,-0.059663505371093,0.08818519134457,0.346867000000202,
-0.129526309814453,0.127371528320313,0.0456813676757815,0.187316199282208,0.349799999999959,
-0.0409408483886721,0.146525141601563,0.0456813676757815,0.15884759217839,0.352726000000075,
-0.0744596716308595,0.175255561523438,0.0839885942382814,0.208117367142662,0.355737000000317,
-0.0553060583496096,0.194409174804688,0.0073741411132815,0.202257423338597,0.358686000000034,
-0.0481234533691408,0.165678754882813,-0.059663505371093,0.182551500834305,0.361675000000105,
0.006943184814453,0.156101948242188,0.0720175859375001,0.172053941380718,0.36462100000017,
0.0189141931152342,0.172861359863281,0.100748005859376,0.200970040353343,0.367627000000084,
0.0811634362792967,0.163284553222656,-0.0189620771484371,0.183327327694398,0.370583000000352,
0.0213083947753905,0.18004396484375,0.0169509477539069,0.182091217784706,0.373528999999962,
-0.000239420166015747,0.1608903515625,0.0337103593750001,0.164384156405392,0.376560000000154,
0.016519991455078,0.168072956542969,0.0720175859375001,0.183597280816018,0.379548000000341,
-0.0122104284667971,0.132159931640625,0.0576523759765628,0.144703623141718,0.382524000000103,
-0.0553060583496096,0.110612116699219,0.0289219560546883,0.127005039242076,0.385484000000361,
0.016519991455078,0.115400520019531,0.0576523759765628,0.130053783467445,0.38842300000033,
-0.0361524450683596,0.115400520019531,0.0337103593750001,0.125541497658705,0.39142800000036,
-0.0193930334472658,0.108217915039063,0.0456813676757815,0.119054585104558,0.394367000000329,
0.026096798095703,0.113006318359375,0.0504697709960951,0.126485843652112,0.397386000000097,
0.016519991455078,0.132159931640625,0.0241335527343765,0.135357253283721,0.400319000000309,
-0.0146046301269533,0.18004396484375,0.000191536132813752,0.180635437231715,0.403231000000233,
-0.000239420166015747,0.182438166503906,0.014556746093751,0.183018143297764,0.406243000000359,
-0.0672770666503908,0.177649763183594,0.0696233842773442,0.202319197543137,0.409183000000212,
0.026096798095703,0.177649763183594,0.0744117875976578,0.194364593904121,0.412199000000328,
-0.0074220251464846,0.151313544921875,0.0720175859375001,0.167742087796607,0.415135000000191,
-0.0074220251464846,0.105823713378906,-0.0261446821289049,0.109257902113291,0.418036000000029,
-0.0505176550292971,0.158496149902344,-0.00220266552734216,0.166366807804173,0.421029999999973,
-0.0122104284667971,0.117794721679687,0.0121625444335951,0.119048807243235,0.423972000000049,
-0.000239420166015747,0.18004396484375,-0.0381156904296862,0.184034487136528,0.426950000000033,
0.016519991455078,0.187226569824219,-0.00938527050781168,0.188188155494239,0.429900000000089,
0.0021547814941405,0.146525141601563,0.0696233842773442,0.162239563124647,0.432851000000028,
0.00933738647460924,0.129765729980469,-0.00938527050781168,0.130439314495458,0.435835000000225,
-0.0074220251464846,0.158496149902344,-0.0620577070312489,0.17037392697569,0.438775000000078,
-0.0074220251464846,0.199197578125,0.00497993945312558,0.199397997445053,0.441770000000361,
-0.0193930334472658,0.203985981445313,0.115113215820314,0.235026430064766,0.444707000000108,
-0.0074220251464846,0.144130939941406,-0.0189620771484371,0.145562270782822,0.447594000000208,
-0.00263362182617211,0.148919343261719,0.0073741411132815,0.149125064018707,0.450615000000198,
0.0237025964355467,0.110612116699219,0.0408929643554696,0.120287522097039,0.453563999999915,
-0.0361524450683596,0.120188923339844,-0.00220266552734216,0.125527798966751,0.456544000000122,
-0.0122104284667971,0.144130939941406,-0.0429040937499998,0.150876054005415,0.459463000000142,
-0.0146046301269533,0.189620771484375,-0.0405098920898439,0.19444892274478,0.462455000000318,
0.006943184814453,0.165678754882813,0.0576523759765628,0.175560400120955,0.465402000000267,
0.0284909997558592,0.136948334960938,0.0121625444335951,0.140408372267328,0.468321000000287,
0.0021547814941405,0.139342536621094,0.0384987626953137,0.144579183578959,0.471336000000065,
0.0237025964355467,0.158496149902344,-0.00220266552734216,0.160273810546446,0.474394000000302,
0.00454898315429675,0.127371528320313,-0.0333272871093744,0.131738026174909,0.477484000000004,
-0.00502782348632835,0.192014973144531,0.0456813676757815,0.197438132774382,0.480549000000337,
-0.00502782348632835,0.139342536621094,-0.0117794721679676,0.139929902042296,0.483490999999958,
0.016519991455078,0.158496149902344,-0.00459686718749985,0.159421048922285,0.486519999999928,
-0.0337582434082033,0.120188923339844,0.0121625444335951,0.125430952235473,0.489465999999993,
-0.0409408483886721,0.187226569824219,0.088776997558595,0.211213865099917,0.492498999999953,
0.016519991455078,0.120188923339844,0.0265277543945324,0.124185382249616,0.495474000000286,
0.0117315881347655,0.156101948242188,-0.0668461103515625,0.170217069867577,0.498383000000103,
-0.0074220251464846,0.14173673828125,0.00258573779296967,0.141954483817231,0.501393000000007,
-0.0193930334472658,0.136948334960938,0.0121625444335951,0.138848347782604,0.504337000000305,
0.0021547814941405,0.211168586425781,0.052863972656251,0.217695692610927,0.507360000000062,
0.026096798095703,0.134554133300781,0.0504697709960951,0.146058397374374,0.510330000000067,
-0.00263362182617211,0.177649763183594,0.014556746093751,0.178264615613835,0.513261000000057,
-0.0385466467285158,0.14173673828125,0.0384987626953137,0.151846309410834,0.516291000000365,
-0.0241814367675783,0.146525141601563,0.0073741411132815,0.148690070154873,0.519240999999965,
0.0811634362792967,0.117794721679687,0.00497993945312558,0.143135948109534,0.522255000000314,
0.0404620080566405,0.127371528320313,-0.00938527050781168,0.133972995880262,0.525188000000071,
-0.00502782348632835,0.122583125,0.0576523759765628,0.135556991702819,0.52813500000002,
-0.0193930334472658,0.110612116699219,-0.308660478027344,0.328454594735767,0.531127000000197,
-0.0385466467285158,0.259052619628906,0.0720175859375001,0.271625912598333,0.534059999999954,
-0.15107412475586,0.175255561523438,-0.282324259765625,0.365027246473263,0.537052000000131,
-0.203746561279297,-0.00670376464843751,-0.143460563476562,0.249276021643905,0.540001000000302,
0.0715866296386717,0.055545478515625,1.7575355546875,1.75986964622874,0.542938999999933,
0.370861837158203,0.127371528320313,-0.562445854003906,0.68564374654276,0.545924000000014,
0.0691924279785154,0.345243879394531,-1.26873534375,1.31668914358302,0.548882999999933,
0.114682259521484,0.27581203125,0.431147834960939,0.524511918666019,0.551902000000155,
0.284670577392578,0.0723048901367187,0.58916514453125,0.658316718837701,0.554826999999932,
0.006943184814453,0.120188923339844,-0.176979386718749,0.214045061686326,0.557827000000088,
-0.277966812744141,0.268629426269531,-0.162614176757812,0.419369393408311,0.560740000000351,
-0.280361014404297,0.192014973144531,0.0504697709960951,0.3435392933769,0.563665000000128,
-0.0122104284667971,0.0411802685546875,0.0839885942382814,0.0943344743118953,0.566655000000083,
0.0189141931152342,0.0316034619140625,0.088776997558595,0.0961138949459065,0.569640000000163,
-0.0265756384277346,0.124977326660156,-0.0117794721679676,0.128313493840348,0.572613000000274,
0.0141257897949217,0.132159931640625,-0.0500866987304676,0.142036836272502,0.575553000000127,
0.121864864501953,0.0842758984375,0.0384987626953137,0.153086991565571,0.578504000000066,
0.0332794030761717,0.163284553222656,0.0193451494140628,0.167760540044676,0.581521000000066,
-0.0553060583496096,0.244687409667969,-0.021356278808593,0.251767311588977,0.584436000000096,
0.00454898315429675,0.182438166503906,0.0696233842773442,0.195324840927302,0.587460000000192,
-0.0481234533691408,0.199197578125,0.0384987626953137,0.208513061039608,0.590387000000192,
-0.0624886633300783,0.1608903515625,0.0289219560546883,0.175005765084222,0.593309000000318,
0.0213083947753905,0.10342951171875,0.0217393510742188,0.107816097904771,0.596328999999969,
0.0117315881347655,0.134554133300781,-0.021356278808593,0.1367425888048,0.599271000000044,
-0.0193930334472658,0.134554133300781,0.0337103593750001,0.140061746611282,0.60229100000015,
-0.0074220251464846,0.124977326660156,-0.00699106884765577,0.125392558311995,0.605238999999983,
-0.0169988317871096,0.0986411083984375,0.0337103593750001,0.105619206953046,0.608168000000205,
0.00933738647460924,0.129765729980469,0.0696233842773442,0.147559300288972,0.611233000000084,
-0.0433350500488283,0.148919343261719,0.0624407792968764,0.167193744737766,0.614287000000331,
0.0189141931152342,0.134554133300781,0.0432871660156255,0.14260554067493,0.617407000000185,
-0.0122104284667971,0.168072956542969,-0.00220266552734216,0.168530308905736,0.620446000000356,
0.00454898315429675,0.146525141601563,-0.0476924970703116,0.154158634678365,0.623394000000189,
0.0284909997558592,0.177649763183594,0.0121625444335951,0.180330537939015,0.626428000000033,
-0.000239420166015747,0.146525141601563,0.0361045610351578,0.150907964570845,0.62937200000033,
-0.0241814367675783,0.139342536621094,0.0169509477539069,0.142437421437981,0.632399999999961,
-0.0265756384277346,0.122583125,0.00258573779296967,0.125457455468144,0.635373000000072,
-0.0433350500488283,0.148919343261719,-0.059663505371093,0.166176506261874,0.638303000000178,
-0.0217872351074221,0.1608903515625,-0.0141736738281235,0.162976323032878,0.641301000000112,
-0.0361524450683596,0.189620771484375,0.0169509477539069,0.193779180750941,0.644256999999925,
-0.0577002600097658,0.211168586425781,-0.00459686718749985,0.218958039555977,0.647259000000304,
-0.0553060583496096,0.211168586425781,0.0696233842773442,0.229125178933839,0.65023999999994,
0.0428562097167967,0.093852705078125,0.0361045610351578,0.109309305593408,0.653295000000071,
0.0524330163574217,0.00287304199218749,0.0432871660156255,0.0680533196566549,0.656275000000278,
-0.0193930334472658,0.0794874951171875,0.151026240722658,0.171765179862246,0.659203000000161,
0.0572214196777342,0.115400520019531,-0.114730143554686,0.172495149876141,0.662237000000005,
0.0548272180175779,0.105823713378906,-0.0668461103515625,0.136649495491133,0.665199999999913,
0.0380678063964842,0.194409174804688,-0.00459686718749985,0.19815452636773,0.66821200000004,
-0.0361524450683596,0.268629426269531,0.0265277543945324,0.272346268003685,0.671161000000211,
-0.0720654699707033,0.25665841796875,0.0648349809570323,0.27435478897227,0.674084000000221,
-0.0816422766113283,0.225533796386719,0.0672291826171882,0.249099814609047,0.677114000000074,
-0.0265756384277346,0.192014973144531,-0.0261446821289049,0.195600508366308,0.68004000000019,
0.0404620080566405,0.0914585034179687,0.0480755693359374,0.110964374059447,0.683084000000235,
-0.0122104284667971,0.0986411083984375,-0.00699106884765577,0.0996395397071249,0.686020999999982,
0.045250411376953,0.0699106884765625,0.0361045610351578,0.0907669731818346,0.688947999999982,
0.0548272180175779,0.0962469067382813,0.0193451494140628,0.112444322658313,0.691976000000068,
-0.0505176550292971,0.117794721679687,0.0480755693359374,0.136890066448332,0.69491300000027,
-0.0289698400878908,0.184832368164063,0.000191536132813752,0.18708899658169,0.697928000000047,
-0.0313640417480471,0.187226569824219,0.0624407792968764,0.199840792837993,0.700878999999986,
-0.0409408483886721,0.187226569824219,0.0768059892578137,0.206468160985656,0.703805999999986,
-0.00981622680664085,0.184832368164063,-0.021356278808593,0.186320834246751,0.706814000000122,
-0.00502782348632835,0.184832368164063,0.00258573779296967,0.184918818323283,0.709775000000263,
0.0213083947753905,0.148919343261719,0.0648349809570323,0.163812677290569,0.71280999999999,
0.006943184814453,0.158496149902344,-0.0117794721679676,0.159084861988153,0.715747000000192,
0.0021547814941405,0.117794721679687,-0.0429040937499998,0.125383415168799,0.718698000000131,
0.00933738647460924,0.093852705078125,-0.0261446821289049,0.0978726797440389,0.721717000000353,
-0.0529118566894533,0.136948334960938,0.0863827958984373,0.170342297900813,0.724664000000303,
-0.0122104284667971,0.148919343261719,0.0337103593750001,0.153174585653221,0.727687999999944,
0.0763750329589842,0.134554133300781,-0.0117794721679676,0.155166737454798,0.730639000000338,
0.0476446130371092,0.136948334960938,-0.0500866987304676,0.153406430731393,0.733576999999968,
-0.00263362182617211,0.184832368164063,0.0169509477539069,0.18562670851689,0.736617000000024,
-0.0481234533691408,0.18004396484375,0.0121625444335951,0.186760872582906,0.739565000000312,
-0.0193930334472658,0.199197578125,0.0456813676757815,0.205286512537678,0.742584000000079,
-0.0122104284667971,0.136948334960938,0.0265277543945324,0.140027364344019,0.745519999999942,
-0.0146046301269533,0.115400520019531,-0.00459686718749985,0.116411796781352,0.748524000000089,
0.00454898315429675,0.113006318359375,-0.0189620771484371,0.114676421319562,0.751573000000008,
-0.0289698400878908,0.0914585034179687,0.0744117875976578,0.121412617201226,0.754627000000255,
-0.0146046301269533,0.124977326660156,-0.0500866987304676,0.13543007343268,0.757727000000159,
-0.0313640417480471,0.105823713378906,0.000191536132813752,0.110373901417701,0.760740000000169,
0.006943184814453,0.153707746582031,0.0552581743164069,0.163486222671747,0.763752000000295,
-0.0146046301269533,0.192014973144531,-0.00220266552734216,0.192582182115235,0.766679000000295,
-0.00263362182617211,0.18004396484375,-0.0165678754882812,0.180823836201912,0.769606000000294,
-0.0313640417480471,0.148919343261719,0.0121625444335951,0.152671547445403,0.772651000000224,
0.026096798095703,0.148919343261719,0.0552581743164069,0.160970430505518,0.775609000000259,
0.0213083947753905,0.139342536621094,0.0624407792968764,0.154172763869323,0.778629000000365,
0.0237025964355467,0.124977326660156,-0.00699106884765577,0.127397096907812,0.781596000000263,
-0.0241814367675783,0.132159931640625,-0.0405098920898439,0.140328332037867,0.784512000000177,
-0.0313640417480471,0.170467158203125,-0.00459686718749985,0.173389406621518,0.787557000000106,
-0.0193930334472658,0.170467158203125,0.0576523759765628,0.180994304407291,0.790538000000197,
-0.0241814367675783,0.146525141601563,0.052863972656251,0.157635524582827,0.793590000000222,
-0.0146046301269533,0.124977326660156,-0.00220266552734216,0.12584704659105,0.796533000000181,
-0.00263362182617211,0.153707746582031,-0.0117794721679676,0.154180943335437,0.799451000000317,
0.026096798095703,0.110612116699219,0.0337103593750001,0.118543121102496,0.802500000000236,
0.0021547814941405,0.122583125,0.0313161577148442,0.126538402677109,0.805455000000165,
-0.00502782348632835,0.124977326660156,0.0073741411132815,0.125295607047046,0.808463000000302,
0.0213083947753905,0.1608903515625,-0.0165678754882812,0.163138736699792,0.811427999999978,
0.0428562097167967,0.18004396484375,-0.00459686718749985,0.185131345741036,0.814366000000064,
-0.0457292517089846,0.153707746582031,0.0768059892578137,0.177809999176258,0.817395000000033,
0.0189141931152342,0.168072956542969,-0.00459686718749985,0.169196325640466,0.820352000000184,
0.026096798095703,0.139342536621094,-0.0285388837890626,0.144609312531297,0.823382999999922,
-0.0122104284667971,0.151313544921875,-0.0189620771484371,0.152985109765462,0.826334000000315,
-0.0361524450683596,0.110612116699219,-0.0189620771484371,0.117905046604824,0.829251000000113,
0.0141257897949217,0.0986411083984375,0.0073741411132815,0.099919888713715,0.832278000000315,
0.016519991455078,0.144130939941406,0.0241335527343765,0.147068236997837,0.835211999999956,
0.00454898315429675,0.163284553222656,0.00258573779296967,0.163368370894719,0.838247000000138,
-0.0169988317871096,0.170467158203125,0.0265277543945324,0.173354359798628,0.841182000000117,
0.006943184814453,0.172861359863281,0.0600465776367187,0.183125227740563,0.844199000000117,
-0.00502782348632835,0.168072956542969,-0.00459686718749985,0.168210965510706,0.847142000000076,
0.006943184814453,0.1608903515625,0.103142207519532,0.191238667672819,0.850083000000268,
0.00933738647460924,0.1608903515625,-0.0285388837890626,0.163668445034486,0.853094000000056,
-0.0648828649902345,0.122583125,0.0384987626953137,0.143939443632302,0.856056999999964,
0.026096798095703,0.196803376464844,0.0504697709960951,0.204840937420256,0.859081999999944,
0.0380678063964842,0.184832368164063,0.00497993945312558,0.188777546339422,0.862037000000328,
-0.0122104284667971,0.148919343261719,0.000191536132813752,0.149419215788782,0.864956000000348,
-0.0193930334472658,0.172861359863281,0.0959596025390628,0.1986589660688,0.867975999999999,
0.016519991455078,0.148919343261719,-0.00938527050781168,0.150126494056453,0.870922999999948,
0.0189141931152342,0.139342536621094,0.0361045610351578,0.145181364302526,0.873947999999928,
-0.00263362182617211,0.170467158203125,0.0289219560546883,0.172923299563135,0.876904000000195,
-0.000239420166015747,0.170467158203125,0.00258573779296967,0.170486936120628,0.879835000000185,
0.0189141931152342,0.153707746582031,0.0408929643554696,0.160175068579052,0.882855000000291,
-0.0122104284667971,0.151313544921875,-0.0620577070312489,0.164000129396728,0.885780999999952,
-0.0241814367675783,0.113006318359375,-0.0357214887695303,0.120959475169151,0.888831000000209,
0.0189141931152342,0.146525141601563,-0.0668461103515625,0.162159693795011,0.891892999999982,
0.0021547814941405,0.10342951171875,0.0169509477539069,0.104831491487159,0.894928000000164,
-0.0241814367675783,0.151313544921875,0.0624407792968764,0.165467161939068,0.898040000000037,
-0.000239420166015747,0.148919343261719,0.0337103593750001,0.152687315939174,0.901005000000168,
0.0021547814941405,0.122583125,0.00497993945312558,0.122703159759681,0.904033000000254,
0.0117315881347655,0.129765729980469,0.0408929643554696,0.13656137583997,0.906973999999991,
-0.0146046301269533,0.153707746582031,0.0552581743164069,0.163990342426783,0.909916000000067,
0.026096798095703,0.165678754882813,-0.0500866987304676,0.175040481261003,0.912955000000238,
-0.0409408483886721,0.175255561523438,0.0073741411132815,0.180125075624795,0.915911999999935,
-0.0409408483886721,0.144130939941406,-0.0117794721679676,0.150295165856169,0.918893000000025,
0.0308852014160155,0.156101948242188,-0.0476924970703116,0.166121305642341,0.921863999999914,
-0.0122104284667971,0.156101948242188,-0.0500866987304676,0.164394617302593,0.924789000000146,
-0.0313640417480471,0.113006318359375,0.0169509477539069,0.118496690813159,0.927826000000096,
-0.0193930334472658,0.136948334960938,0.0121625444335951,0.138848347782604,0.930788000000121,
-0.00981622680664085,0.120188923339844,0.0576523759765628,0.133662006785972,0.933847000000242,
-0.0122104284667971,0.132159931640625,0.014556746093751,0.13351869139351,0.936783000000105,
-0.0122104284667971,0.139342536621094,-0.00699106884765577,0.140051105382915,0.939771000000292,
-0.000239420166015747,0.113006318359375,0.0504697709960951,0.123764627804371,0.942741000000296,
0.006943184814453,0.163284553222656,0.0265277543945324,0.165571056920305,0.945688000000246,
-0.0169988317871096,0.117794721679687,0.0121625444335951,0.119634795209507,0.948687999999947,
-0.0146046301269533,0.139342536621094,0.0265277543945324,0.142595089278567,0.951631000000361,
-0.00502782348632835,0.146525141601563,0.00976834277343741,0.146936437451393,0.954637000000275,
-0.00502782348632835,0.18004396484375,0.00258573779296967,0.180132713091213,0.957593999999972,
-0.00502782348632835,0.1608903515625,0.0361045610351578,0.16496825016486,0.96053400000028,
-0.0169988317871096,0.156101948242188,0.0241335527343765,0.158868520779656,0.963575000000219,
-0.0313640417480471,0.168072956542969,0.0313161577148442,0.173818651386694,0.966523999999936,
0.006943184814453,0.18004396484375,-0.0381156904296862,0.184165259886214,0.969556000000011,
-0.0265756384277346,0.148919343261719,0.0720175859375001,0.167540347497576,0.972514000000047,
0.016519991455078,0.144130939941406,0.0313161577148442,0.148416103237115,0.975454000000354,
-0.00263362182617211,0.139342536621094,-0.0309330854492185,0.142759007601387,0.978457000000162,
-0.0289698400878908,0.129765729980469,0.0408929643554696,0.139106544942571,0.981420000000071,
0.0332794030761717,0.132159931640625,0.0839885942382814,0.160087008100232,0.98446100000001,
-0.00502782348632835,0.134554133300781,-0.0141736738281235,0.135391974751534,0.987411000000066,
-0.00263362182617211,0.139342536621094,0.00497993945312558,0.139456366914103,0.990342999999939,
0.0141257897949217,0.14173673828125,-0.00459686718749985,0.14251305941519,0.993371000000025,
-0.0146046301269533,0.192014973144531,0.0384987626953137,0.196380243053904,0.996336000000156,
-0.0074220251464846,0.117794721679687,0.0408929643554696,0.124911638555612,0.999353000000156,
-0.0265756384277346,0.1608903515625,-0.00938527050781168,0.163340298414847,1.00228900000002,
-0.0433350500488283,0.120188923339844,0.0121625444335951,0.128340295088583,1.00523300000032,
0.0380678063964842,0.1608903515625,-0.00459686718749985,0.165396476073962,1.00824899999998,
-0.00263362182617211,0.172861359863281,0.0193451494140628,0.173960399239478,1.01121200000034,
