X,Y,Z,Magnitude,Seconds,
0.035673604736328,0.158496149902344,0.0265277543945324,0.164612749694447,0.0,
-0.00502782348632835,0.153707746582031,0.0265277543945324,0.156061116622791,0.00396599999976388,
-0.00263362182617211,0.158496149902344,-0.00459686718749985,0.158584667246645,0.00785399999995207,
-0.0361524450683596,0.182438166503906,0.014556746093751,0.186554503399317,0.0118179999999484,
-0.0074220251464846,0.187226569824219,-0.0381156904296862,0.191211089538107,0.0156939999997121,
0.00454898315429675,0.182438166503906,0.0696233842773442,0.195324840927302,0.0196359999999913,
-0.0217872351074221,0.165678754882813,0.0576523759765628,0.176770840041247,0.0235720000000583,
-0.0193930334472658,0.168072956542969,0.0217393510742188,0.170579036966767,0.0274970000000394,
0.00454898315429675,0.168072956542969,0.0648349809570323,0.180202071920751,0.031449000000066,
-0.0122104284667971,0.199197578125,0.0073741411132815,0.199707655465099,0.0353000000000065,
-0.0289698400878908,0.189620771484375,0.103142207519532,0.217792570086883,0.0391740000000027,
-0.000239420166015747,0.175255561523438,0.0073741411132815,0.175410795346438,0.043076999999812,
-0.0289698400878908,0.211168586425781,0.0576523759765628,0.220805842276702,0.0469709999997576,
-0.0217872351074221,0.156101948242188,0.0169509477539069,0.158523930333525,0.0508810000001176,
-0.0122104284667971,0.208774384765625,-0.0189620771484371,0.209989044160383,0.0549609999998211,
-0.00981622680664085,0.163284553222656,-0.0381156904296862,0.167961333308513,0.0590910000000804,
0.0021547814941405,0.175255561523438,0.0193451494140628,0.17633317819978,0.0630270000001474,
0.0021547814941405,0.134554133300781,-0.0333272871093744,0.138636813068112,0.0670569999997497,
-0.0241814367675783,0.182438166503906,0.0265277543945324,0.185935871296176,0.0709859999997207,
-0.00981622680664085,0.203985981445313,-0.0548751020507812,0.211466110192651,0.0748319999997875,
0.0141257897949217,0.168072956542969,0.052863972656251,0.176755922852463,0.0787589999999909,
-0.00981622680664085,0.120188923339844,-0.0141736738281235,0.121419226781002,0.0827369999997245,
-0.0361524450683596,0.1608903515625,-0.00938527050781168,0.165168967463112,0.0866639999999279,
-0.0217872351074221,0.184832368164063,0.0408929643554696,0.190551626780092,0.0905319999997118,
-0.0289698400878908,0.156101948242188,0.0193451494140628,0.159941566472187,0.0945120000001225,
-0.0241814367675783,0.192014973144531,0.052863972656251,0.20062176203204,0.0984269999999015,
-0.0529118566894533,0.203985981445313,0.0241335527343765,0.212114057931377,0.102454999999736,
-0.00502782348632835,0.177649763183594,0.0480755693359374,0.184108603099288,0.106371999999737,
-0.000239420166015747,0.165678754882813,0.0193451494140628,0.16680450217961,0.110216000000037,
-0.0457292517089846,0.148919343261719,0.0480755693359374,0.163031885305727,0.114036999999826,
-0.0361524450683596,0.132159931640625,-0.00459686718749985,0.137092589163729,0.117901000000074,
-0.0289698400878908,0.144130939941406,0.00258573779296967,0.147036272814041,0.121796999999788,
-0.00263362182617211,0.18004396484375,0.0504697709960951,0.187002574915371,0.125643999999738,
-0.0241814367675783,0.156101948242188,-0.0333272871093744,0.161441222106442,0.129685999999765,
-0.0457292517089846,0.156101948242188,0.0265277543945324,0.164811117525751,0.133700999999746,
0.0021547814941405,0.165678754882813,0.052863972656251,0.17392151249287,0.137682000000041,
-0.00502782348632835,0.163284553222656,0.0193451494140628,0.164503371199452,0.141564000000017,
-0.0337582434082033,0.168072956542969,0.0839885942382814,0.190898459085517,0.145500000000084,
-0.0169988317871096,0.153707746582031,-0.0117794721679676,0.155092835443834,0.149284999999963,
0.00933738647460924,0.175255561523438,0.124690022460939,0.215288876471547,0.153205000000071,
-0.0217872351074221,0.105823713378906,0.0265277543945324,0.111252252472225,0.157146999999895,
-0.0169988317871096,0.168072956542969,0.0361045610351578,0.172745530566676,0.161031999999977,
-0.00981622680664085,0.189620771484375,0.0289219560546883,0.192064767276766,0.164907999999741,
-0.0289698400878908,0.201591779785156,-0.0285388837890626,0.205652535115886,0.168806000000131,
-0.0217872351074221,0.129765729980469,0.00976834277343741,0.131944112454969,0.172661000000062,
0.0021547814941405,0.158496149902344,0.00976834277343741,0.158811501906169,0.176523999999972,
-0.0217872351074221,0.151313544921875,0.0241335527343765,0.154767247368535,0.18044400000008,
-0.0409408483886721,0.172861359863281,0.0337103593750001,0.180813691765194,0.184261999999762,
0.0500388146972655,0.124977326660156,0.0217393510742188,0.136366471467714,0.188071000000036,
0.0141257897949217,0.153707746582031,0.0121625444335951,0.154833900628239,0.191913999999997,
-0.0146046301269533,0.199197578125,0.00976834277343741,0.199970975075259,0.195662000000084,
-0.0146046301269533,0.168072956542969,-0.0309330854492185,0.171518715356804,0.1995280000001,
-0.0193930334472658,0.215956989746094,-0.0117794721679676,0.217145727867341,0.203563999999915,
0.0021547814941405,0.175255561523438,0.0911711992187509,0.197563515091142,0.207441000000017,
0.0284909997558592,0.187226569824219,0.0265277543945324,0.191230874255304,0.211424999999963,
-0.0433350500488283,0.18004396484375,0.0193451494140628,0.186193422669128,0.215310999999929,
-0.0457292517089846,0.1608903515625,0.0337103593750001,0.17062607660308,0.219200000000001,
0.0237025964355467,0.175255561523438,0.0552581743164069,0.185283001787709,0.223066000000017,
-0.0624886633300783,0.158496149902344,0.0480755693359374,0.177022944686898,0.227068000000145,
0.0141257897949217,0.175255561523438,-0.00459686718749985,0.175883998618877,0.231104999999843,
-0.0433350500488283,0.153707746582031,0.0265277543945324,0.16188798496268,0.235047000000122,
0.0189141931152342,0.170467158203125,0.0169509477539069,0.172348871063333,0.239019999999982,
-0.0361524450683596,0.201591779785156,0.0408929643554696,0.208850375855887,0.242940999999973,
-0.00981622680664085,0.165678754882813,0.0959596025390628,0.191713467048336,0.246858999999858,
-0.0074220251464846,0.163284553222656,-0.0668461103515625,0.176593698210131,0.250735999999961,
-0.0457292517089846,0.194409174804688,-0.0452982954101557,0.204787761541477,0.254691000000093,
-0.0146046301269533,0.201591779785156,0.0337103593750001,0.204912003619319,0.258534000000054,
-0.0169988317871096,0.163284553222656,0.0768059892578137,0.181245594675072,0.262459999999919,
-0.0169988317871096,0.187226569824219,0.0169509477539069,0.188759326551101,0.266350999999759,
-0.0361524450683596,0.165678754882813,0.0648349809570323,0.181548957197883,0.270188999999846,
0.0141257897949217,0.184832368164063,0.0217393510742188,0.186641746786709,0.274143999999978,
0.00933738647460924,0.144130939941406,0.0696233842773442,0.160338174720808,0.278245999999854,
-0.0169988317871096,0.153707746582031,-0.00459686718749985,0.154713163077328,0.282157999999981,
-0.0505176550292971,0.153707746582031,0.0600465776367187,0.172579536199596,0.286137999999937,
-0.0122104284667971,0.165678754882813,-0.0261446821289049,0.168172794430262,0.28999900000008,
-0.0265756384277346,0.158496149902344,0.00976834277343741,0.161005324794701,0.293869000000086,
-0.00263362182617211,0.177649763183594,0.0456813676757815,0.183447980844271,0.297688000000107,
-0.0481234533691408,0.175255561523438,0.0504697709960951,0.188620190842512,0.301666999999725,
-0.00263362182617211,0.124977326660156,0.134266829101563,0.18344985565552,0.305687000000034,
-0.124737906494141,0.18004396484375,-1.58237576123047,1.59746312142813,0.309576000000106,
0.141018477783203,0.10342951171875,2.13821361865234,2.14535343334403,0.313638000000083,
-0.0241814367675783,0.25665841796875,-0.133883756835937,0.290487772105592,0.316561000000092,
-0.244447989501953,0.328484467773438,-2.61427667675781,2.6461480320987,0.319516000000021,
-0.119949503173828,0.254264216308594,0.878863545410157,0.922734689094099,0.322529999999915,
0.267911165771484,-0.0234631762695313,1.56360522021484,1.58656490509175,0.32548399999996,
0.0189141931152342,0.206380183105469,-0.888057279785155,0.911918997970355,0.328553999999713,
-0.213323367919922,0.359609089355469,-0.363727116210937,0.554186765914608,0.331484999999702,
-0.0505176550292971,0.25665841796875,0.179756660644532,0.317392555095349,0.334399999999732,
0.19369091430664,-0.00191536132812501,0.407205818359376,0.450928394980499,0.337453000000096,
-0.0792480749511721,0.316513459472656,-0.30387207470703,0.445869112181558,0.340380000000096,
-0.0744596716308595,0.189620771484375,-0.232046024902344,0.308780888901312,0.343390999999883,
0.117076461181641,0.0220266552734375,0.242005903808595,0.269738630499167,0.346348999999918,
0.045250411376953,0.108217915039063,0.0935654008789069,0.150043997236863,0.349247999999989,
-0.15107412475586,0.223139594726563,-0.121912748535156,0.295765765701306,0.352282999999716,
-0.0720654699707033,0.223139594726563,0.0863827958984373,0.249893373509711,0.355265000000145,
0.0524330163574217,0.151313544921875,0.0839885942382814,0.180828908206859,0.358316999999715,
-0.0337582434082033,0.203985981445313,-0.0165678754882812,0.207423224645675,0.361218000000008,
-0.0672770666503908,0.189620771484375,0.0289219560546883,0.203270067194951,0.364160000000084,
-0.0193930334472658,0.122583125,0.00976834277343741,0.124491496904776,0.367162000000008,
0.00933738647460924,0.184832368164063,-0.0141736738281235,0.185610032425776,0.37013799999977,
-0.0146046301269533,0.134554133300781,0.0169509477539069,0.13640177652518,0.37315899999976,
-0.0169988317871096,0.148919343261719,-0.0141736738281235,0.150555053417061,0.376144999999724,
-0.0648828649902345,0.148919343261719,-0.0333272871093744,0.165823596128275,0.379178000000138,
0.00454898315429675,0.177649763183594,-0.0141736738281235,0.178272332785295,0.382215000000087,
0.0667982263183592,0.182438166503906,0.0241335527343765,0.195775677764549,0.385238999999729,
0.00454898315429675,0.168072956542969,0.00497993945312558,0.168208239292222,0.388294999999744,
-0.0313640417480471,0.189620771484375,-0.00459686718749985,0.192252103450241,0.391223000000082,
-0.00502782348632835,0.194409174804688,0.0720175859375001,0.207380661927564,0.394349000000147,
-0.0217872351074221,0.170467158203125,0.0408929643554696,0.176652116243347,0.397333999999773,
-0.00981622680664085,0.175255561523438,-0.0524809003906235,0.183207846609869,0.400270000000091,
0.00933738647460924,0.127371528320313,0.052863972656251,0.138221896303839,0.403316999999788,
-0.0409408483886721,0.144130939941406,-0.0357214887695303,0.154032157925185,0.40626599999996,
-0.0337582434082033,0.182438166503906,-0.0237504804687489,0.187049161767197,0.409334999999828,
-0.0313640417480471,0.163284553222656,0.0265277543945324,0.168372415166833,0.412261999999828,
-0.0217872351074221,0.192014973144531,0.0504697709960951,0.199728894528857,0.41517500000009,
0.00933738647460924,0.189620771484375,0.0552581743164069,0.197728828432498,0.418215000000146,
-0.0313640417480471,0.144130939941406,0.0384987626953137,0.152445353134284,0.421136999999817,
-0.0241814367675783,0.153707746582031,0.0241335527343765,0.157458698111769,0.424173999999766,
-0.000239420166015747,0.168072956542969,-0.0429040937499998,0.173462783626977,0.427206999999726,
-0.00981622680664085,0.153707746582031,-0.00699106884765577,0.154179456192056,0.430137999999715,
-0.0169988317871096,0.170467158203125,0.00497993945312558,0.171384982145264,0.433265000000119,
-0.00263362182617211,0.177649763183594,-0.00938527050781168,0.17791699644951,0.436200999999983,
-0.0169988317871096,0.192014973144531,0.0265277543945324,0.194582712353997,0.439276999999947,
-0.0529118566894533,0.153707746582031,0.0480755693359374,0.169519899435511,0.442238000000089,
0.026096798095703,0.153707746582031,0.0313161577148442,0.159021432405179,0.445189000000028,
-0.0313640417480471,0.144130939941406,0.0361045610351578,0.151858388937549,0.448241000000053,
0.0213083947753905,0.223139594726563,-0.0141736738281235,0.224602358519283,0.451223999999911,
-0.0505176550292971,0.163284553222656,0.0313161577148442,0.173765878482522,0.454253999999764,
-0.0146046301269533,0.177649763183594,0.0217393510742188,0.179569855391879,0.457188999999744,
0.00454898315429675,0.168072956542969,0.0073741411132815,0.168296137584887,0.460191000000123,
-0.0337582434082033,0.148919343261719,-0.021356278808593,0.154183917579167,0.463166999999885,
-0.00502782348632835,0.172861359863281,-0.102759135253905,0.201161051451127,0.466148999999859,
-0.000239420166015747,0.153707746582031,-0.0357214887695303,0.157804161672795,0.469196000000011,
-0.0313640417480471,0.18004396484375,0.0265277543945324,0.184670664006624,0.472170000000006,
-0.0146046301269533,0.201591779785156,0.0720175859375001,0.214567177318334,0.475183999999899,
-0.0122104284667971,0.172861359863281,-0.00459686718749985,0.173353037138278,0.478117000000111,
0.0021547814941405,0.168072956542969,-0.0189620771484371,0.169152954967288,0.481081999999788,
-0.00981622680664085,0.201591779785156,0.0169509477539069,0.202541202266161,0.484120999999959,
-0.0241814367675783,0.170467158203125,-0.00699106884765577,0.172315608560648,0.487047000000075,
0.00454898315429675,0.18004396484375,-0.0261446821289049,0.181989194536426,0.490092999999888,
-0.0553060583496096,0.172861359863281,0.0289219560546883,0.183783267372148,0.493075999999746,
-0.0241814367675783,0.14173673828125,0.00976834277343741,0.144116152402468,0.496032000000014,
0.0308852014160155,0.196803376464844,0.0337103593750001,0.202044185721001,0.499115999999958,
0.0021547814941405,0.144130939941406,-0.0237504804687489,0.146090575514566,0.502074999999877,
-0.00981622680664085,0.182438166503906,0.0480755693359374,0.18892142089504,0.505121000000145,
-0.0241814367675783,0.21835119140625,-0.0716345136718743,0.231070310125899,0.508057999999892,
-0.0074220251464846,0.14173673828125,-0.00459686718749985,0.142005354208291,0.511038000000099,
-0.00502782348632835,0.148919343261719,-0.0117794721679676,0.149469079648826,0.514119999999821,
0.0213083947753905,0.182438166503906,0.0456813676757815,0.189273663350031,0.517132999999831,
-0.0433350500488283,0.146525141601563,-0.0333272871093744,0.156391341672623,0.520179000000098,
-0.0217872351074221,0.194409174804688,-0.124306950195312,0.231779698698409,0.52316699999983,
0.026096798095703,0.206380183105469,0.222852290527344,0.304855648205472,0.526152999999795,
0.0548272180175779,-0.0138863696289063,0.342562373535158,0.34719999259657,0.529236999999739,
-0.103190091552735,0.290177241210938,-0.959883329589843,1.00808086616895,0.532240999999885,
-0.0529118566894533,0.0986411083984375,0.407205818359376,0.422310681075114,0.535359999999855,
0.0596156213378904,0.105823713378906,0.356927583496095,0.37702782454504,0.538328000000092,
-0.0313640417480471,0.208774384765625,-0.373303922851562,0.428866256151499,0.541245999999774,
-0.0505176550292971,0.215956989746094,0.162997249023439,0.275240909166974,0.544307000000117,
0.00933738647460924,0.156101948242188,0.0193451494140628,0.157572966707603,0.547318999999789,
0.0141257897949217,0.0986411083984375,0.1103248125,0.148664624092495,0.550358999999844,
-0.0888248815917971,0.225533796386719,-0.0764229169921862,0.254157067861583,0.55328099999997,
-0.0337582434082033,0.153707746582031,-0.021356278808593,0.158813667553784,0.55618000000004,
-0.0217872351074221,0.163284553222656,0.0169509477539069,0.165601520417248,0.559218999999757,
-0.0146046301269533,0.194409174804688,0.0720175859375001,0.207833479385901,0.562147000000095,
0.0308852014160155,0.146525141601563,-0.00699106884765577,0.149907931182771,0.565212999999858,
0.0404620080566405,0.172861359863281,-0.0141736738281235,0.1780986155464,0.568257999999787,
-0.0553060583496096,0.196803376464844,0.0217393510742188,0.205579494267453,0.571277999999893,
0.0213083947753905,0.136948334960938,-0.0117794721679676,0.139095830638567,0.574264999999741,
-0.00502782348632835,0.182438166503906,0.0241335527343765,0.184096148720987,0.577213999999913,
-0.0313640417480471,0.18004396484375,0.000191536132813752,0.182755489869719,0.580251999999746,
-0.0146046301269533,0.134554133300781,0.0456813676757815,0.142845711738923,0.583190999999715,
-0.0385466467285158,0.113006318359375,0.0217393510742188,0.121362561559492,0.586225000000013,
-0.0481234533691408,0.158496149902344,-0.0117794721679676,0.166059183011943,0.589208999999755,
-0.0481234533691408,0.146525141601563,-0.00699106884765577,0.154383803972964,0.592133999999987,
0.00454898315429675,0.129765729980469,-0.021356278808593,0.131590001784529,0.59517199999982,
0.00454898315429675,0.220745393066406,0.0337103593750001,0.223350867777522,0.598160999999891,
-0.0241814367675783,0.151313544921875,-0.0189620771484371,0.154402367633246,0.601177999999891,
0.00454898315429675,0.153707746582031,-0.00699106884765577,0.153933880775795,0.604092999999921,
-0.0146046301269533,0.168072956542969,-0.0165678754882812,0.169517870563652,0.607067999999799,
-0.0122104284667971,0.189620771484375,0.00497993945312558,0.190078750360552,0.610119999999824,
-0.0241814367675783,0.129765729980469,0.0073741411132815,0.132205387631015,0.613046999999824,
-0.0505176550292971,0.165678754882813,0.00976834277343741,0.173484592427447,0.616077000000132,
0.006943184814453,0.1608903515625,-0.0117794721679676,0.161470334754804,0.619033999999829,
-0.0122104284667971,0.139342536621094,-0.0405098920898439,0.145624477449618,0.621936000000005,
0.016519991455078,0.194409174804688,-0.0644519086914048,0.20547964838368,0.624995000000126,
-0.0289698400878908,0.189620771484375,0.0241335527343765,0.193333176099268,0.627918000000136,
0.00454898315429675,0.148919343261719,0.0600465776367187,0.160633917748159,0.630998999999974,
-0.0146046301269533,0.146525141601563,0.014556746093751,0.147968953498161,0.634004999999888,
-0.0241814367675783,0.189620771484375,-0.0524809003906235,0.198229724734421,0.636950999999954,
0.006943184814453,0.144130939941406,0.174968257324219,0.226794679688115,0.639975000000049,
0.0380678063964842,0.153707746582031,0.0672291826171882,0.172031951214132,0.642946999999822,
-0.0361524450683596,0.213562788085938,0.0313161577148442,0.218853296693198,0.645947999999862,
-0.0313640417480471,0.177649763183594,0.11750741748047,0.215293136529917,0.648932999999943,
-0.0074220251464846,0.1608903515625,0.0672291826171882,0.174529523802006,0.651875999999902,
-0.0457292517089846,0.163284553222656,0.100748005859376,0.197238866523885,0.65496099999973,
-0.00981622680664085,0.177649763183594,0.0432871660156255,0.183110828214966,0.657930999999735,
-0.0074220251464846,0.153707746582031,-0.00938527050781168,0.154172763869322,0.661020999999892,
0.0308852014160155,0.168072956542969,0.0456813676757815,0.176887539810843,0.664026999999805,
-0.0385466467285158,0.175255561523438,0.0480755693359374,0.185773023299625,0.667051999999785,
-0.0217872351074221,0.18004396484375,0.0384987626953137,0.185398672107849,0.670028999999886,
-0.0409408483886721,0.134554133300781,-0.0333272871093744,0.144539530652273,0.67303099999981,
0.00454898315429675,0.146525141601563,0.0193451494140628,0.147866646593978,0.676116999999977,
-0.0241814367675783,0.1608903515625,-0.00459686718749985,0.162762336853428,0.679047999999966,
-0.00981622680664085,0.170467158203125,0.0289219560546883,0.173181667264748,0.682064000000082,
0.00454898315429675,0.18004396484375,0.0361045610351578,0.183684680504219,0.685063999999784,
-0.0289698400878908,0.175255561523438,0.0480755693359374,0.184024519688513,0.688032999999905,
-0.0457292517089846,0.168072956542969,0.0217393510742188,0.175534277473337,0.691060000000107,
-0.0337582434082033,0.172861359863281,0.0169509477539069,0.176940677520874,0.693979000000127,
-0.00981622680664085,0.163284553222656,-0.0357214887695303,0.167434250945718,0.697002999999768,
-0.0289698400878908,0.182438166503906,0.00497993945312558,0.184791060468254,0.699955000000045,
-0.0169988317871096,0.153707746582031,0.0720175859375001,0.170591806150582,0.702886999999919,
-0.0361524450683596,0.220745393066406,-0.00699106884765577,0.223795448765375,0.706020999999964,
-0.0361524450683596,0.163284553222656,0.0408929643554696,0.172165847772783,0.708990999999969,
-0.0074220251464846,0.158496149902344,0.0480755693359374,0.165793173436411,0.712105000000065,
-0.0337582434082033,0.189620771484375,0.0313161577148442,0.195131642001901,0.715056999999888,
0.00454898315429675,0.170467158203125,0.0313161577148442,0.173379488428154,0.718033000000105,
0.0021547814941405,0.151313544921875,-0.00699106884765577,0.151490286829699,0.721094999999877,
-0.0193930334472658,0.165678754882813,0.0480755693359374,0.17359953897629,0.724032999999963,
-0.00981622680664085,0.146525141601563,0.0768059892578137,0.1657260855024,0.727116000000024,
-0.0146046301269533,0.136948334960938,0.0863827958984373,0.162573457541351,0.7300809999997,
-0.00502782348632835,0.132159931640625,0.0672291826171882,0.148362021877702,0.733005000000048,
-0.0672770666503908,0.170467158203125,0.00258573779296967,0.183281045836345,0.736049999999977,
-0.00263362182617211,0.187226569824219,0.0648349809570323,0.198152212119282,0.739040999999816,
-0.0265756384277346,0.153707746582031,0.00497993945312558,0.156067727971302,0.742060000000038,
-0.0289698400878908,0.199197578125,0.0983538041992187,0.224036598720034,0.74503999999979,
-0.00263362182617211,0.189620771484375,-0.0189620771484371,0.190584714266481,0.748011000000133,
-0.00263362182617211,0.177649763183594,0.0863827958984373,0.197555971183716,0.751052999999956,
-0.0217872351074221,0.153707746582031,0.0337103593750001,0.158862025991562,0.753999000000022,
-0.0553060583496096,0.168072956542969,0.0720175859375001,0.191033535002445,0.757016000000021,
-0.0337582434082033,0.172861359863281,0.0648349809570323,0.187681228383366,0.75997899999993,
-0.0169988317871096,0.146525141601563,0.0408929643554696,0.153071264244018,0.762995000000046,
-0.0361524450683596,0.158496149902344,0.0480755693359374,0.169526662166343,0.765934000000016,
-0.0361524450683596,0.122583125,0.0384987626953137,0.133475752660386,0.768894999999702,
0.006943184814453,0.177649763183594,0.0456813676757815,0.183560435626211,0.771960000000036,
0.0284909997558592,0.172861359863281,0.0169509477539069,0.176011708220297,0.774992999999995,
-0.00981622680664085,0.172861359863281,0.0169509477539069,0.173967648349508,0.778025000000071,
-0.0217872351074221,0.175255561523438,0.0983538041992187,0.202145161354359,0.781015999999909,
-0.0241814367675783,0.163284553222656,0.0169509477539069,0.165933486177512,0.783950000000004,
-0.0337582434082033,0.187226569824219,0.00976834277343741,0.190496267592544,0.786990999999944,
-0.0169988317871096,0.151313544921875,0.0480755693359374,0.159674699078862,0.789984000000004,
0.006943184814453,0.136948334960938,0.0217393510742188,0.138836787808811,0.793084999999792,
-0.00502782348632835,0.182438166503906,0.000191536132813752,0.182507534892143,0.79611900000009,
-0.0241814367675783,0.129765729980469,0.0504697709960951,0.1413190869837,0.799079999999776,
-0.0265756384277346,0.189620771484375,-0.0285388837890626,0.193589176929127,0.802145999999993,
-0.0146046301269533,0.156101948242188,0.0217393510742188,0.158283646822026,0.805131000000074,
0.00933738647460924,0.163284553222656,-0.0572693037109371,0.173288214414121,0.80818999999974,
-0.00981622680664085,0.153707746582031,0.0408929643554696,0.159357033738154,0.81121899999971,
-0.00981622680664085,0.203985981445313,0.0408929643554696,0.208275955090127,0.814264999999978,
-0.0361524450683596,0.206380183105469,0.014556746093751,0.210027803206874,0.817306999999801,
-0.0146046301269533,0.156101948242188,-0.0452982954101557,0.16319635116392,0.820252999999866,
-0.0361524450683596,0.189620771484375,-0.0405098920898439,0.197241191488698,0.823328999999831,
-0.0337582434082033,0.1608903515625,-0.0117794721679676,0.164815291124544,0.826303999999709,
-0.0074220251464846,0.175255561523438,0.0432871660156255,0.18067478253435,0.82926099999986,
-0.0217872351074221,0.199197578125,0.0193451494140628,0.20131714668737,0.832268999999997,
-0.00981622680664085,0.208774384765625,0.00497993945312558,0.209064348562689,0.835203000000092,
-0.0074220251464846,0.163284553222656,-0.0285388837890626,0.165925886064602,0.838248000000021,
-0.0457292517089846,0.172861359863281,0.0696233842773442,0.19188441790275,0.841183000000001,
-0.0193930334472658,0.172861359863281,-0.00459686718749985,0.174006524785736,0.844142999999804,
-0.0313640417480471,0.148919343261719,0.00258573779296967,0.152208278198687,0.847267999999985,
-0.0217872351074221,0.156101948242188,-0.0117794721679676,0.158054603929112,0.850196999999753,
-0.000239420166015747,0.189620771484375,-0.00938527050781168,0.189853042121664,0.853260999999748,
-0.0337582434082033,0.158496149902344,0.0576523759765628,0.172001293563789,0.856198999999833,
-0.0337582434082033,0.156101948242188,-0.00220266552734216,0.159725667876016,0.859212999999727,
-0.0577002600097658,0.158496149902344,-0.0117794721679676,0.169083131931061,0.862168000000111,
-0.0241814367675783,0.184832368164063,-0.0572693037109371,0.195006459772018,0.86512700000003,
0.00933738647460924,0.153707746582031,-0.0237504804687489,0.155811884874032,0.868216999999731,
-0.0361524450683596,0.132159931640625,0.00976834277343741,0.137363267783694,0.871181999999862,
0.0380678063964842,0.170467158203125,0.0193451494140628,0.175734016956143,0.874215999999706,
-0.0193930334472658,0.189620771484375,0.0552581743164069,0.198458037260774,0.877188999999817,
-0.00263362182617211,0.182438166503906,0.0959596025390628,0.206152530619164,0.880155999999715,
-0.0624886633300783,0.189620771484375,0.0384987626953137,0.203329842256811,0.883155999999872,
-0.0409408483886721,0.177649763183594,0.0337103593750001,0.18539681700386,0.886164000000008,
-0.0241814367675783,0.151313544921875,0.0648349809570323,0.166385412571738,0.889239999999972,
0.0213083947753905,0.192014973144531,0.0792001909179696,0.208797672020168,0.892205999999987,
0.00454898315429675,0.146525141601563,0.0313161577148442,0.149903342534838,0.895148999999947,
-0.00502782348632835,0.163284553222656,0.0552581743164069,0.172454603182735,0.898189000000002,
0.0021547814941405,0.168072956542969,0.0648349809570323,0.180157532620984,0.901152999999795,
0.006943184814453,0.177649763183594,-0.0165678754882812,0.178555707477386,0.904187000000093,
0.0189141931152342,0.156101948242188,0.0337103593750001,0.160816520530071,0.907145000000128,
-0.000239420166015747,0.187226569824219,-0.0261446821289049,0.189043355275398,0.910085999999865,
-0.0193930334472658,0.170467158203125,0.0361045610351578,0.175324502279851,0.913161999999829,
-0.0074220251464846,0.18004396484375,0.0241335527343765,0.181805786765756,0.916135999999824,
0.00454898315429675,0.196803376464844,0.000191536132813752,0.19685603603088,0.919172999999773,
-0.00981622680664085,0.18004396484375,0.0576523759765628,0.189303946184753,0.922118999999839,
-0.0217872351074221,0.156101948242188,-0.0261446821289049,0.159768727422653,0.925009999999929,
-0.0193930334472658,0.192014973144531,0.0600465776367187,0.202117369723298,0.928077999999914,
-0.0193930334472658,0.151313544921875,0.0289219560546883,0.155268664466274,0.931036999999833,
-0.0361524450683596,0.170467158203125,0.0408929643554696,0.178992418398232,0.934093999999732,
-0.0074220251464846,0.1608903515625,0.0241335527343765,0.162859510163708,0.937089000000014,
-0.0241814367675783,0.18004396484375,-0.0165678754882812,0.182414543441572,0.940071999999873,
-0.00981622680664085,0.189620771484375,0.000191536132813752,0.189874779718474,0.943124999999782,
-0.0074220251464846,0.182438166503906,0.0121625444335951,0.182993711754479,0.946120999999948,
-0.0457292517089846,0.158496149902344,-0.00938527050781168,0.165227955559084,0.949141000000054,
-0.0217872351074221,0.194409174804688,0.103142207519532,0.221151364078696,0.952190999999857,
-0.0313640417480471,0.172861359863281,0.0456813676757815,0.181525591036873,0.955245999999988,
-0.0433350500488283,0.153707746582031,0.00258573779296967,0.159720643506074,0.958189999999831,
-0.0169988317871096,0.158496149902344,0.0121625444335951,0.159868437482487,0.961131999999907,
-0.0074220251464846,0.168072956542969,0.0408929643554696,0.173135321965645,0.9641859999997,
-0.0074220251464846,0.203985981445313,0.0648349809570323,0.214170357050599,0.967180999999982,
-0.0146046301269533,0.148919343261719,-0.00938527050781168,0.149927813700966,0.970163999999841,
-0.0361524450683596,0.139342536621094,0.0313161577148442,0.147322922623883,0.973099999999704,
-0.0169988317871096,0.148919343261719,-0.0357214887695303,0.154084249161099,0.976026999999704,
-0.0193930334472658,0.163284553222656,0.0169509477539069,0.165303568313467,0.979065999999875,
-0.0361524450683596,0.199197578125,0.0073741411132815,0.202585913558778,0.982005999999728,
-0.0193930334472658,0.158496149902344,0.00976834277343741,0.159976685178473,0.985126000000037,
-0.0169988317871096,0.170467158203125,-0.021356278808593,0.172638648490209,0.988090999999713,
-0.0241814367675783,0.189620771484375,0.0480755693359374,0.19710920635386,0.991066000000046,
-0.0289698400878908,0.168072956542969,0.0624407792968764,0.181622193784278,0.994104999999763,
-0.0337582434082033,0.168072956542969,0.0504697709960951,0.178704604035544,0.99708099999998,
-0.00263362182617211,0.182438166503906,-0.0261446821289049,0.184320820757862,1.00011199999972,
-0.0074220251464846,0.1608903515625,-0.0141736738281235,0.161683903691635,1.00304700000015,
-0.0074220251464846,0.172861359863281,0.014556746093751,0.173631895249392,1.00604199999998,
-0.0409408483886721,0.168072956542969,0.0193451494140628,0.174065811099513,1.00911599999972,
-0.0385466467285158,0.153707746582031,0.0361045610351578,0.162528319565793,1.01206000000002,
-0.0193930334472658,0.192014973144531,0.0241335527343765,0.194494904883302,1.01507399999991,
-0.0457292517089846,0.1608903515625,-0.00459686718749985,0.167326031673819,1.01804600000014,
-0.0074220251464846,0.168072956542969,0.0480755693359374,0.17497104201937,1.02098100000012,
-0.00502782348632835,0.132159931640625,0.000191536132813752,0.132255673701942,1.02400799999987,
-0.0289698400878908,0.168072956542969,0.00976834277343741,0.170830883848185,1.02701900000011,
