X,Y,Z,Magnitude,Seconds,
-0.0361524450683596,0.177649763183594,-0.0429040937499998,0.186298681970959,0.0,
-0.0146046301269533,0.184832368164063,0.0480755693359374,0.191539969482234,0.00299100000029284,
-0.00502782348632835,0.18004396484375,0.0720175859375001,0.193978454911705,0.00599899999997433,
-0.0672770666503908,0.196803376464844,0.0504697709960951,0.214020958014495,0.00900400000000445,
-0.0313640417480471,0.146525141601563,0.0241335527343765,0.151775322775852,0.0120650000003479,
-0.0146046301269533,0.170467158203125,0.0193451494140628,0.172181828462956,0.0150320000002466,
-0.0193930334472658,0.187226569824219,-0.0309330854492185,0.190753070669488,0.0179520000001503,
-0.0529118566894533,0.1608903515625,0.0408929643554696,0.174234337425227,0.0210080000001653,
-0.0481234533691408,0.153707746582031,0.0073741411132815,0.16123373121235,0.0239660000002004,
-0.0624886633300783,0.182438166503906,-0.021356278808593,0.194022185037272,0.0269870000001902,
-0.0433350500488283,0.182438166503906,-0.00938527050781168,0.187749019871067,0.0299190000000635,
-0.0169988317871096,0.182438166503906,0.00976834277343741,0.183488597465818,0.032901000000038,
-0.0361524450683596,0.187226569824219,0.0815943925781255,0.207408853795486,0.0359660000003714,
0.006943184814453,0.175255561523438,0.0313161577148442,0.178166835842937,0.0389650000001893,
-0.0122104284667971,0.168072956542969,0.0600465776367187,0.17889439558108,0.0420149999999921,
-0.0481234533691408,0.184832368164063,0.0600465776367187,0.200211045077912,0.0450090000003911,
-0.00263362182617211,0.163284553222656,0.0073741411132815,0.163472197153535,0.0479310000000623,
-0.000239420166015747,0.1608903515625,-0.0117794721679676,0.161321165729971,0.0509810000003199,
-0.0122104284667971,0.18004396484375,0.0432871660156255,0.185576675747963,0.0539700000003904,
-0.0122104284667971,0.182438166503906,0.0313161577148442,0.185508708406562,0.0570700000002944,
-0.0146046301269533,0.189620771484375,-0.0189620771484371,0.191125332097182,0.0600580000000264,
-0.0241814367675783,0.177649763183594,0.00497993945312558,0.179357129884173,0.0631860000003144,
-0.0146046301269533,0.139342536621094,0.0265277543945324,0.142595089278567,0.0661600000003091,
-0.0385466467285158,0.203985981445313,0.0456813676757815,0.212562724749544,0.0691500000002634,
-0.0146046301269533,0.187226569824219,-0.0117794721679676,0.188164395234178,0.0721760000001268,
-0.0409408483886721,0.175255561523438,0.0337103593750001,0.183103941085033,0.0752340000003642,
-0.0289698400878908,0.18004396484375,0.0241335527343765,0.183949746612922,0.0783180000003085,
-0.0457292517089846,0.148919343261719,0.0169509477539069,0.156701850305352,0.0812780000001112,
0.0021547814941405,0.156101948242188,0.000191536132813752,0.156116936987581,0.0842210000000705,
-0.0241814367675783,0.168072956542969,0.0169509477539069,0.170647576118135,0.0872950000002675,
0.0021547814941405,0.206380183105469,0.000191536132813752,0.206391520533244,0.0903270000003431,
-0.0146046301269533,0.203985981445313,0.00258573779296967,0.204524477477114,0.0933430000000044,
-0.0122104284667971,0.151313544921875,0.0193451494140628,0.153033062591126,0.0962970000000496,
-0.0074220251464846,0.189620771484375,0.0121625444335951,0.190155333668829,0.0992250000003878,
-0.0193930334472658,0.175255561523438,-0.0261446821289049,0.178253039230201,0.102288000000044,
-0.00981622680664085,0.201591779785156,0.00497993945312558,0.201892059731489,0.105254000000059,
-0.0433350500488283,0.194409174804688,0.0169509477539069,0.199900446324488,0.108345000000099,
-0.0241814367675783,0.14173673828125,0.0193451494140628,0.145080252510824,0.111364000000322,
-0.0385466467285158,0.244687409667969,0.0169509477539069,0.248284327040168,0.1143390000002,
-0.0337582434082033,0.182438166503906,0.0863827958984373,0.204658962722246,0.117408000000069,
-0.0193930334472658,0.223139594726563,0.0217393510742188,0.225033259466572,0.120366999999987,
-0.0313640417480471,0.146525141601563,0.0384987626953137,0.154710940030759,0.123425000000225,
-0.0122104284667971,0.194409174804688,0.0073741411132815,0.194931782346391,0.126388000000134,
-0.069671268310547,0.184832368164063,-0.0381156904296862,0.201171309599723,0.129360000000361,
-0.0265756384277346,0.194409174804688,0.0576523759765628,0.204511584664107,0.132436000000325,
-0.0074220251464846,0.177649763183594,-0.00699106884765577,0.177942125029726,0.135378000000401,
-0.00502782348632835,0.184832368164063,0.0265277543945324,0.186794017793295,0.138416000000234,
0.0141257897949217,0.175255561523438,0.0073741411132815,0.175978486581128,0.141398000000208,
-0.0146046301269533,0.165678754882813,0.0384987626953137,0.170718773922888,0.144333000000188,
-0.0409408483886721,0.14173673828125,0.0337103593750001,0.151333553366672,0.147328000000016,
-0.0265756384277346,0.182438166503906,0.0169509477539069,0.185141253600877,0.150331000000278,
-0.00981622680664085,0.223139594726563,0.0073741411132815,0.223477101736649,0.153400000000147,
-0.0122104284667971,0.134554133300781,-0.0261446821289049,0.137613421421345,0.156313000000409,
0.045250411376953,0.144130939941406,0.0169509477539069,0.1520153354367,0.159327000000303,
-0.00263362182617211,0.220745393066406,0.0576523759765628,0.228164986314089,0.162302000000182,
0.0237025964355467,0.189620771484375,0.0672291826171882,0.202577424831819,0.16527700000006,
0.00454898315429675,0.21835119140625,0.014556746093751,0.218883153515991,0.16829800000005,
-0.00502782348632835,0.158496149902344,0.0337103593750001,0.162119390796004,0.17121300000008,
-0.0289698400878908,0.18004396484375,0.0720175859375001,0.196065329917455,0.174260000000231,
-0.0193930334472658,0.172861359863281,0.0073741411132815,0.174102031686101,0.177304000000277,
-0.0289698400878908,0.194409174804688,-0.0165678754882812,0.197252815901707,0.180227000000286,
-0.00981622680664085,0.18004396484375,-0.00938527050781168,0.180555451005728,0.183266000000003,
-0.0122104284667971,0.168072956542969,0.0337103593750001,0.171854594391972,0.186229000000367,
-0.000239420166015747,0.194409174804688,-0.0141736738281235,0.194925312876603,0.189221000000089,
-0.00981622680664085,0.182438166503906,0.0169509477539069,0.183486723050422,0.192246000000068,
-0.0313640417480471,0.199197578125,-0.0141736738281235,0.202149131275464,0.195210000000316,
-0.0361524450683596,0.165678754882813,-0.0381156904296862,0.173808098087723,0.19830600000023,
-0.0624886633300783,0.163284553222656,0.000191536132813752,0.174833392268161,0.201288000000204,
-0.0481234533691408,0.182438166503906,-0.0309330854492185,0.191197298979059,0.204376000000138,
-0.0337582434082033,0.175255561523438,-0.00220266552734216,0.178490847323688,0.207374000000073,
-0.0553060583496096,0.187226569824219,0.00976834277343741,0.195468588419861,0.210369000000355,
0.006943184814453,0.151313544921875,-0.00699106884765577,0.151634005868818,0.213438000000224,
-0.0553060583496096,0.192014973144531,0.0768059892578137,0.214073982510105,0.216519000000062,
-0.0146046301269533,0.182438166503906,0.0672291826171882,0.19497882657824,0.219554000000244,
-0.00981622680664085,0.194409174804688,-0.021356278808593,0.195824861040444,0.222532000000228,
-0.0385466467285158,0.165678754882813,0.00497993945312558,0.170176654070084,0.225514000000203,
-0.0600944616699221,0.206380183105469,-0.00938527050781168,0.215156239985154,0.228571999999986,
-0.0457292517089846,0.1608903515625,-0.0548751020507812,0.176034503756656,0.231545000000096,
-0.0289698400878908,0.184832368164063,0.0217393510742188,0.188347697997564,0.234576000000288,
-0.66822168334961,0.747469758300781,-0.0333272871093744,1.00316597118268,21.4699430000001,
-0.713711514892578,0.807324799804688,0.0073741411132815,1.07759539569687,21.4743740000004,
-0.673010086669922,0.778594379882813,0.00258573779296967,1.02915425043309,21.477308,
-0.637097061767578,0.79295958984375,-0.0237504804687489,1.0174682612055,21.4802060000002,
-0.658644876708985,0.764229169921875,0.0265277543945324,1.00923883175772,21.4832160000001,
-0.637097061767578,0.764229169921875,-0.0500866987304676,0.996216626874937,21.4861330000003,
-0.64906807006836,0.790565388183594,0.00976834277343741,1.02292639671517,21.489141,
-0.689769498291016,0.795353791503906,0.0121625444335951,1.052861596754,21.4920700000002,
-0.673010086669922,0.778594379882813,-0.0405098920898439,1.02994797757056,21.4949660000002,
-0.684981094970703,0.776200178222656,0.0193451494140628,1.03540332815092,21.4979600000001,
-0.663433280029297,0.79295958984375,0.00497993945312558,1.03390203983383,21.500892,
-0.689769498291016,0.752258161621094,-0.0285388837890626,1.02102339365272,21.5038840000002,
-0.661039078369141,0.807324799804688,0.0361045610351578,1.04405437350664,21.5068220000003,
-0.658644876708985,0.790565388183594,-0.0141736738281235,1.02908094902134,21.5097180000003,
-0.682586893310547,0.749863959960938,-0.00699106884765577,1.01403634077447,21.512725,
-0.658644876708985,0.769017573242188,-0.0405098920898439,1.01333220264996,21.515652,
-0.677798489990235,0.79295958984375,0.0241335527343765,1.04344531841673,21.5186600000002,
-0.637097061767578,0.711556733398438,-0.0117794721679676,0.955167214115986,21.5215790000002,
-0.66822168334961,0.783382783203125,0.0576523759765628,1.03127716913224,21.5245,
-0.656250675048828,0.804930598144531,-0.0548751020507812,1.03999494862064,21.5274720000002,
-0.646673868408203,0.761834968261719,-0.0141736738281235,0.99939006597932,21.5303990000002,
-0.682586893310547,0.807324799804688,-0.0668461103515625,1.05932365298248,21.5333950000004,
-0.627520255126953,0.759440766601563,-0.0261446821289049,0.985502660054547,21.5363270000003,
-0.661039078369141,0.761834968261719,-0.0237504804687489,1.00892480756494,21.5393090000002,
-0.689769498291016,0.785776984863281,0.014556746093751,1.04567649374475,21.5422450000001,
-0.658644876708985,0.742681354980469,-0.0141736738281235,0.992768634516827,21.545145,
-0.677798489990235,0.800142194824219,0.00497993945312558,1.04864823690698,21.548143,
-0.665827481689453,0.771411774902344,0.0121625444335951,1.01909287570761,21.55107,
-0.711317313232422,0.778594379882813,-0.0333272871093744,1.05512664479453,21.554036,
-0.661039078369141,0.745075556640625,-0.0812113203124998,0.999352553797387,21.556975,
-0.680192691650391,0.761834968261719,0.014556746093751,1.02140418811447,21.55989,
-0.673010086669922,0.771411774902344,-0.0237504804687489,1.0240033147114,21.5628800000004,
-0.644279666748047,0.785776984863281,0.000191536132813752,1.01614063771306,21.5658250000001,
-0.680192691650391,0.788171186523438,-0.0883939252929675,1.04483941496723,21.568902,
-0.665827481689453,0.790565388183594,0.00497993945312558,1.03360759873549,21.5719340000001,
-0.716105716552735,0.780988581542969,-0.0644519086914048,1.06155763400485,21.5749380000002,
-0.656250675048828,0.809719001464844,-0.0716345136718743,1.04472068677914,21.5779940000002,
-0.653856473388672,0.812113203125,-0.00699106884765577,1.04264328393073,21.5809300000001,
-0.644279666748047,0.788171186523438,0.00258573779296967,1.01799646084388,21.5839300000002,
-0.658644876708985,0.79295958984375,0.000191536132813752,1.03082395268361,21.586867,
-0.637097061767578,0.778594379882813,0.00258573779296967,1.00603606323924,21.5897670000004,
-0.680192691650391,0.7738059765625,0.000191536132813752,1.03026104644626,21.5927410000004,
-0.66822168334961,0.790565388183594,0.00497993945312558,1.03515151107914,21.5956640000004,
-0.677798489990235,0.757046564941406,-0.0285388837890626,1.01653566706267,21.598649,
-0.675404288330078,0.747469758300781,-0.0261446821289049,1.00775271603331,21.6015560000001,
-0.701740506591797,0.771411774902344,0.0289219560546883,1.0432412686391,21.6044860000002,
-0.680192691650391,0.788171186523438,0.0265277543945324,1.04143153341618,21.6074840000001,
-0.661039078369141,0.752258161621094,0.00497993945312558,1.00144385996102,21.6104380000002,
-0.644279666748047,0.757046564941406,-0.0357214887695303,0.994732031873142,21.613417,
-0.670615885009766,0.778594379882813,0.0720175859375001,1.03010747317782,21.6163670000001,
-0.661039078369141,0.790565388183594,-0.0309330854492185,1.03098164479316,21.6192510000001,
-0.646673868408203,0.7738059765625,-0.0117794721679676,1.00851452017828,21.6222340000004,
-0.656250675048828,0.783382783203125,-0.0237504804687489,1.02221212027818,21.6251460000003,
-0.637097061767578,0.783382783203125,-0.0500866987304676,1.01098463317781,21.6281320000003,
-0.680192691650391,0.757046564941406,-0.0836055219726557,1.02116182976476,21.6310530000001,
-0.64906807006836,0.75465236328125,0.000191536132813752,0.995384139754261,21.6340370000003,
-0.651462271728516,0.783382783203125,-0.0141736738281235,1.01896642218208,21.6369550000004,
-0.656250675048828,0.769017573242188,0.00258573779296967,1.01096966447925,21.6398960000001,
-0.670615885009766,0.790565388183594,-0.021356278808593,1.03690664423846,21.6428700000001,
-0.639491263427735,0.807324799804688,0.00976834277343741,1.02996011034439,21.6458230000003,
-0.665827481689453,0.785776984863281,-0.0237504804687489,1.03021152713229,21.6488020000002,
-0.677798489990235,0.740287153320313,-0.0333272871093744,1.00426419356174,21.6517400000002,
-0.64906807006836,0.769017573242188,-0.0405098920898439,1.00713377408103,21.654661,
-0.663433280029297,0.776200178222656,0.0576523759765628,1.02271903775136,21.657678,
-0.677798489990235,0.804930598144531,-0.0692403120117184,1.05457018811923,21.6605940000004,
-0.670615885009766,0.79295958984375,-0.0405098920898439,1.03930343389682,21.6636170000002,
-0.673010086669922,0.785776984863281,-0.0572693037109371,1.03617943419459,21.6665580000004,
-0.637097061767578,0.802536396484375,-0.0788171186523439,1.0277010615873,21.6694850000004,
-0.670615885009766,0.766623371582031,-0.0381156904296862,1.01925946889895,21.6724880000002,
-0.632308658447266,0.769017573242188,0.00258573779296967,0.995594773762206,21.6754410000003,
-0.651462271728516,0.800142194824219,-0.0452982954101557,1.03280325279835,21.678433,
-0.658644876708985,0.783382783203125,-0.00459686718749985,1.02348560801899,21.6813740000002,
-0.661039078369141,0.783382783203125,-0.0189620771484371,1.02519305914544,21.6842890000003,
-0.680192691650391,0.771411774902344,-0.0907881269531234,1.03246341738012,21.6872970000004,
-0.641885465087891,0.804930598144531,-0.0668461103515625,1.03169696160721,21.6902380000001,
-0.684981094970703,0.778594379882813,0.0672291826171882,1.03919587751672,21.6932530000004,
-0.634702860107422,0.759440766601563,-0.0309330854492185,0.990229697787498,21.696171,
-0.673010086669922,0.761834968261719,-0.0476924970703116,1.0176490897665,21.6990940000001,
-0.670615885009766,0.783382783203125,-0.0285388837890626,1.03161461706125,21.7020900000002,
-0.646673868408203,0.749863959960938,-0.0620577070312489,0.992136184972761,21.7050600000002,
-0.651462271728516,0.776200178222656,-0.00459686718749985,1.01336614278675,21.7081440000002,
-0.675404288330078,0.79295958984375,-0.0309330854492185,1.04207136012618,21.7111790000004,
-0.661039078369141,0.788171186523438,0.00497993945312558,1.02869396916374,21.7141840000004,
-0.66822168334961,0.788171186523438,-0.0117794721679676,1.03337930757728,21.7171910000002,
-0.632308658447266,0.783382783203125,0.0241335527343765,1.00701800030289,21.7201380000001,
-0.637097061767578,0.761834968261719,-0.0452982954101557,0.994151457548739,21.7231420000003,
-0.627520255126953,0.757046564941406,-0.0572693037109371,0.984977636919598,21.7260880000003,
-0.677798489990235,0.757046564941406,0.0361045610351578,1.01677619653991,21.7291050000003,
-0.658644876708985,0.752258161621094,0.0217393510742188,1.00008900340203,21.7320250000002,
-0.651462271728516,0.778594379882813,-0.0189620771484371,1.01536784479348,21.7349470000004,
-0.663433280029297,0.776200178222656,-0.0117794721679676,1.02116070708183,21.7379620000002,
-0.644279666748047,0.721133540039063,-0.0405098920898439,0.9678692695356,21.7409270000003,
-0.689769498291016,0.804930598144531,0.000191536132813752,1.06004493550417,21.7439380000001,
-0.673010086669922,0.769017573242188,0.0121625444335951,1.02199732494848,21.7469070000002,
-0.699346304931641,0.769017573242188,0.0289219560546883,1.03986045300265,21.7498440000004,
-0.684981094970703,0.761834968261719,-0.00699106884765577,1.02451964079623,21.7528570000004,
-0.639491263427735,0.745075556640625,-0.0500866987304676,0.983155805807734,21.7557850000003,
-0.66822168334961,0.788171186523438,-0.0189620771484371,1.03348613814319,21.758793,
-0.663433280029297,0.771411774902344,-0.0405098920898439,1.01826366667261,21.7617300000002,
-0.665827481689453,0.769017573242188,-0.0333272871093744,1.0177548680278,21.764639,
-0.634702860107422,0.788171186523438,-0.0141736738281235,1.012058512599,21.7676310000002,
-0.663433280029297,0.795353791503906,0.0169509477539069,1.03586616188571,21.7705650000003,
-0.66822168334961,0.79295958984375,-0.00459686718749985,1.03697939247205,21.7735480000001,
-0.680192691650391,0.797747993164063,-0.0309330854492185,1.0488187708786,21.7764900000002,
-0.661039078369141,0.769017573242188,-0.021356278808593,1.01430605920056,21.779399,
-0.625126053466797,0.771411774902344,0.0073741411132815,0.992931562162325,21.7824060000003,
-0.682586893310547,0.778594379882813,-0.0476924970703116,1.03653685394261,21.7853230000001,
-0.653856473388672,0.780988581542969,-0.0189620771484371,1.01873991414028,21.7883260000003,
-0.661039078369141,0.740287153320313,-0.00459686718749985,0.992481165408268,21.7912610000003,
-0.661039078369141,0.749863959960938,-0.0500866987304676,1.00088825498611,21.7941850000002,
-0.670615885009766,0.740287153320313,-0.00699106884765577,0.998899198939591,21.7971820000002,
-0.701740506591797,0.800142194824219,0.00258573779296967,1.0642715614775,21.8001350000004,
-0.684981094970703,0.769017573242188,-0.0117794721679676,1.02991547438958,21.8031370000003,
-0.637097061767578,0.75465236328125,-0.0141736738281235,0.98772149341231,21.80609,
-0.68737529663086,0.778594379882813,-0.0189620771484371,1.03877503203208,21.8090040000002,
-0.708923111572266,0.75465236328125,-0.0357214887695303,1.03602518902158,21.8120160000003,
-0.658644876708985,0.761834968261719,0.0600465776367187,1.00886628646576,21.8149580000004,
-0.656250675048828,0.778594379882813,-0.0405098920898439,1.01907566365029,21.8179620000001,
-0.637097061767578,0.764229169921875,-0.0500866987304676,0.996216626874937,21.820909,
-0.653856473388672,0.75465236328125,-0.0189620771484371,0.998693164874993,21.8239060000001,
-0.692163699951172,0.809719001464844,0.00497993945312558,1.0652512608114,21.8268580000004,
-0.634702860107422,0.769017573242188,0.014556746093751,0.997219959407493,21.8297830000001,
-0.696952103271485,0.764229169921875,-0.0429040937499998,1.03519525678711,21.8327800000002,
-0.692163699951172,0.79295958984375,-0.00220266552734216,1.05255895340389,21.835732,
-0.64906807006836,0.778594379882813,-0.0476924970703116,1.01477738556009,21.8387340000004,
-0.661039078369141,0.788171186523438,0.00258573779296967,1.02868516487642,21.841692,
-0.663433280029297,0.747469758300781,-0.0141736738281235,0.999527713299859,21.8446690000001,
-0.682586893310547,0.800142194824219,-0.0764229169921862,1.05451072118735,21.8477740000003,
-0.627520255126953,0.795353791503906,-0.021356278808593,1.01332394371138,21.850801,
-0.677798489990235,0.783382783203125,0.0696233842773442,1.0382421652439,21.8538900000003,
-0.663433280029297,0.742681354980469,0.0265277543945324,0.996204313300878,21.8568260000002,
-0.64906807006836,0.757046564941406,-0.00699106884765577,0.99722501779462,21.859743,
-0.665827481689453,0.7738059765625,0.0624407792968764,1.02274179324792,21.8627500000002,
-0.665827481689453,0.769017573242188,-0.0261446821289049,1.01754499051975,21.8657120000003,
-0.653856473388672,0.718739338378906,0.0361045610351578,0.972326109725107,21.8687380000001,
-0.634702860107422,0.747469758300781,0.00258573779296967,0.980594435147735,21.8716900000004,
-0.694557901611328,0.780988581542969,0.00976834277343741,1.04520297727847,21.8746000000001,
-0.646673868408203,0.797747993164063,0.0456813676757815,1.02794734302495,21.8776050000001,
-0.675404288330078,0.802536396484375,-0.0285388837890626,1.04930933869127,21.880553,
-0.680192691650391,0.7738059765625,-0.0476924970703116,1.03136432041023,21.883562,
-0.658644876708985,0.7738059765625,0.0193451494140628,1.01634787242592,21.88654,
-0.694557901611328,0.761834968261719,-0.0309330854492185,1.0313874409418,21.8894740000001,
-0.694557901611328,0.7738059765625,0.0289219560546883,1.04020327224856,21.8924920000004,
-0.696952103271485,0.778594379882813,-0.0285388837890626,1.04535444253496,21.8954280000003,
-0.701740506591797,0.704374128417969,0.0169509477539069,0.994419421575243,21.898451,
-0.682586893310547,0.79295958984375,0.0552581743164069,1.04774197390068,21.9013910000003,
-0.684981094970703,0.795353791503906,-0.0261446821289049,1.04998585634785,21.904301,
-0.661039078369141,0.769017573242188,0.014556746093751,1.01418567823809,21.9073130000002,
-0.68737529663086,0.7738059765625,0.0384987626953137,1.03573290114357,21.910241,
-0.651462271728516,0.766623371582031,-0.0620577070312489,1.00795121129123,21.9132370000002,
-0.665827481689453,0.766623371582031,0.0241335527343765,1.01568698800187,21.9162100000003,
-0.675404288330078,0.769017573242188,0.0169509477539069,1.02364364662695,21.9192040000003,
-0.658644876708985,0.7738059765625,0.0121625444335951,1.01623653273534,21.9221340000004,
-0.653856473388672,0.776200178222656,0.0241335527343765,1.01518344787173,21.9250480000001,
-0.684981094970703,0.761834968261719,-0.0165678754882812,1.02462974475261,21.9280440000002,
-0.670615885009766,0.7738059765625,-0.0165678754882812,1.02409757791407,21.930996,
-0.634702860107422,0.778594379882813,0.0193451494140628,1.00470451567588,21.9339910000003,
-0.661039078369141,0.764229169921875,-0.0381156904296862,1.01117342387324,21.9369300000003,
-0.639491263427735,0.759440766601563,-0.059663505371093,0.994615045055088,21.9398660000002,
-0.658644876708985,0.785776984863281,-0.0452982954101557,1.02630915377526,21.9428860000003,
-0.639491263427735,0.761834968261719,0.0121625444335951,0.994730879360761,21.9458380000001,
-0.680192691650391,0.783382783203125,-0.00220266552734216,1.03747555852131,21.9488470000001,
-0.644279666748047,0.745075556640625,0.0121625444335951,0.985079591492693,21.9517970000002,
-0.699346304931641,0.757046564941406,-0.0500866987304676,1.03184952057015,21.9547160000002,
-0.694557901611328,0.759440766601563,0.0217393510742188,1.02938503780278,21.9577280000003,
-0.682586893310547,0.783382783203125,-0.0548751020507812,1.04049254142618,21.9606590000003,
-0.64906807006836,0.780988581542969,-0.0524809003906235,1.01685139965905,21.9636610000002,
-0.682586893310547,0.797747993164063,0.052863972656251,1.05124750992411,21.9666050000001,
-0.677798489990235,0.833661018066406,0.0121625444335951,1.07449961077874,21.9695070000002,
-0.661039078369141,0.783382783203125,-0.021356278808593,1.02524013713605,21.9725040000003,
-0.658644876708985,0.795353791503906,-0.0357214887695303,1.03328444875288,21.9754440000002,
-0.670615885009766,0.7738059765625,-0.0261446821289049,1.02429727081297,21.978447,
-0.646673868408203,0.759440766601563,-0.0117794721679676,0.997535024960505,21.9814040000001,
-0.673010086669922,0.7738059765625,0.000191536132813752,1.02553317977011,21.9844240000002,
-0.64906807006836,0.797747993164063,-0.0692403120117184,1.0307693442216,21.9875040000002,
-0.673010086669922,0.771411774902344,-0.0381156904296862,1.02443716697237,21.9905430000003,
-0.639491263427735,0.769017573242188,-0.0452982954101557,1.0011938071736,21.9935660000001,
-0.673010086669922,0.783382783203125,0.0073741411132815,1.03280469583348,21.9965110000003,
-0.694557901611328,0.783382783203125,-0.00459686718749985,1.04695768534251,21.9994110000002,
-0.641885465087891,0.800142194824219,0.014556746093751,1.02589296765601,22.0024150000004,
-0.694557901611328,0.812113203125,0.0169509477539069,1.06874967509255,22.005357,
-0.723288321533203,0.761834968261719,0.0289219560546883,1.05089247522032,22.0083500000001,
-0.689769498291016,0.764229169921875,0.00976834277343741,1.02952591295832,22.0112610000001,
-0.639491263427735,0.764229169921875,0.0432871660156255,0.997431240187284,22.0142570000003,
-0.663433280029297,0.769017573242188,0.0384987626953137,1.01637291371563,22.0171610000002,
-0.656250675048828,0.766623371582031,-0.0907881269531234,1.01322200250167,22.0200680000003,
-0.694557901611328,0.783382783203125,-0.0237504804687489,1.04721695413716,22.0230860000001,
-0.653856473388672,0.745075556640625,0.000191536132813752,0.991295066860367,22.0260510000003,
-0.620337650146485,0.75465236328125,-0.00938527050781168,0.976937599285514,22.0290330000003,
-0.682586893310547,0.778594379882813,-0.0165678754882812,1.03557161500431,22.0319720000002,
-0.658644876708985,0.745075556640625,-0.0381156904296862,0.995190165031419,22.0348900000004,
-0.670615885009766,0.785776984863281,-0.00938527050781168,1.03308238706831,22.037902,
-0.661039078369141,0.780988581542969,0.0073741411132815,1.02321562028185,22.040833,
-0.632308658447266,0.785776984863281,-0.0309330854492185,1.00906717579338,22.043827,
-0.66822168334961,0.785776984863281,0.0241335527343765,1.0317694104823,22.0467630000003,
-0.66822168334961,0.804930598144531,-0.0500866987304676,1.04735006722567,22.0496740000003,
-0.670615885009766,0.780988581542969,0.0552581743164069,1.0308842299486,22.052682,
-0.661039078369141,0.75465236328125,-0.0476924970703116,1.00436419032834,22.055605,
-0.634702860107422,0.788171186523438,-0.107547538574218,1.01765810218741,22.0585980000001,
-0.682586893310547,0.742681354980469,-0.0812113203124998,1.01197615609355,22.0615360000002,
-0.66822168334961,0.771411774902344,-0.0429040937499998,1.02148769244523,22.064449,
-0.684981094970703,0.742681354980469,-0.0285388837890626,1.0107369407471,22.0674430000004,
-0.663433280029297,0.764229169921875,-0.0189620771484371,1.0122003268028,22.0703780000003,
-0.658644876708985,0.804930598144531,-0.0165678754882812,1.04019269173673,22.0733700000001,
-0.644279666748047,0.780988581542969,-0.0524809003906235,1.01380160701751,22.0762970000001,
-0.62991445678711,0.764229169921875,-0.0309330854492185,0.990855843604046,22.0792180000003,
-0.675404288330078,0.759440766601563,-0.0429040937499998,1.01723251615918,22.0822170000001,
-0.663433280029297,0.764229169921875,0.00258573779296967,1.01202600127163,22.085145,
-0.663433280029297,0.785776984863281,0.0265277543945324,1.02873364324517,22.0881330000002,
-0.637097061767578,0.804930598144531,-0.0261446821289049,1.02688338108366,22.0910530000001,
-0.634702860107422,0.804930598144531,0.0217393510742188,1.02529682913924,22.0939750000002,
-0.680192691650391,0.83126681640625,-0.0836055219726557,1.07733769131926,22.0969700000001,
-0.696952103271485,0.816901606445313,-0.0333272871093744,1.07432824450144,22.0999040000002,
-0.673010086669922,0.761834968261719,0.052863972656251,1.01790456096374,22.1029020000001,
-0.632308658447266,0.795353791503906,-0.00220266552734216,1.01607418279496,22.10583,
-0.615549246826172,0.764229169921875,-0.021356278808593,0.981531043865805,22.1088260000001,
-0.641885465087891,0.802536396484375,0.00258573779296967,1.02766157075817,22.1117550000004,
-0.661039078369141,0.771411774902344,-0.0285388837890626,1.01629880324491,22.1146600000002,
-0.64906807006836,0.776200178222656,0.000191536132813752,1.01181822129335,22.117655,
-0.661039078369141,0.790565388183594,0.0361045610351578,1.03114976383285,22.1206470000002,
-0.625126053466797,0.809719001464844,-0.0141736738281235,1.02304855069834,22.123709,
-0.665827481689453,0.761834968261719,-0.00459686718749985,1.01180031894994,22.1267430000003,
-0.677798489990235,0.800142194824219,0.0073741411132815,1.04866233980644,22.1297370000002,
-0.661039078369141,0.769017573242188,-0.0357214887695303,1.01471016346853,22.1327350000001,
-0.680192691650391,0.804930598144531,0.0265277543945324,1.05417222850782,22.1356760000003,
-0.637097061767578,0.783382783203125,0.0552581743164069,1.01125403186377,22.1386660000003,
-0.665827481689453,0.79295958984375,-0.0476924970703116,1.0365257935888,22.1416060000001,
-0.689769498291016,0.783382783203125,-0.0165678754882812,1.04390854019397,22.1445290000002,
-0.663433280029297,0.764229169921875,-0.0452982954101557,1.01303597012987,22.1475390000001,
-0.644279666748047,0.764229169921875,-0.00938527050781168,0.99961522419727,22.150474,
-0.637097061767578,0.785776984863281,0.00976834277343741,1.01164892950779,22.153487,
-0.658644876708985,0.766623371582031,0.0121625444335951,1.01077811361243,22.156422,
-0.701740506591797,0.757046564941406,0.00976834277343741,1.03230550739683,22.1593280000002,
-0.66822168334961,0.812113203125,-0.0429040937499998,1.05256298341194,22.1623540000001,
-0.701740506591797,0.824084211425781,-0.0452982954101557,1.08333118743994,22.165301,
-0.646673868408203,0.785776984863281,0.00258573779296967,1.0176636222558,22.1683050000001,
-0.680192691650391,0.771411774902344,-0.0764229169921862,1.0312995134655,22.1712230000003,
-0.646673868408203,0.783382783203125,-0.0333272871093744,1.01635937795997,22.174137,
-0.622731851806641,0.785776984863281,-0.00699106884765577,1.00264116424521,22.17713,
-0.677798489990235,0.759440766601563,0.00258573779296967,1.01792325695474,22.1800780000003,
