X,Y,Z,Magnitude,Seconds,
-0.129526309814453,0.625365473632813,0.00497993945312558,0.638657842935557,0.0,
-0.143891519775391,0.591846650390625,-0.0429040937499998,0.610596420151955,0.0039070000002539,
-0.105584293212891,0.606211860351563,-0.0357214887695303,0.616373983360816,0.00787300000001778,
-0.124737906494141,0.6205770703125,0.0576523759765628,0.635609346981249,0.0118000000002212,
-0.184592947998047,0.613394465332031,-0.0117794721679676,0.640676269667556,0.015625,
-0.13192051147461,0.606211860351563,-0.00220266552734216,0.62040365304699,0.0194320000000516,
-0.134314713134766,0.599029255371094,0.0361045610351578,0.614963438167232,0.0233860000003006,
-0.124737906494141,0.596635053710938,0.0408929643554696,0.610905203093714,0.027234000000135,
-0.139103116455078,0.599029255371094,0.0337103593750001,0.61589131681422,0.0310730000001058,
-0.0912190832519533,0.611000263671875,-0.0189620771484371,0.618062944793013,0.0351370000003044,
-0.127132108154297,0.644519086914063,0.0289219560546883,0.657574258819734,0.0392030000002705,
-0.110372696533203,0.663672700195313,-0.0189620771484371,0.673055083551362,0.0431650000000445,
-0.143891519775391,0.618182868652344,0.0624407792968764,0.637772435495384,0.0470720000002984,
-0.155862528076172,0.539174213867188,-0.00459686718749985,0.561269179401056,0.0509730000003401,
-0.136708914794922,0.551145222167969,-0.0452982954101557,0.569651050091238,0.0548069999999825,
-0.0984016882324221,0.611000263671875,0.0121625444335951,0.618992844822289,0.0587410000002819,
-0.129526309814453,0.685220515136719,0.0432871660156255,0.698697357974141,0.0627490000001671,
-0.153468326416016,0.546356818847656,-0.00938527050781168,0.567579407675057,0.0666500000002088,
-0.201352359619141,0.52480900390625,0.0313161577148442,0.562981318552656,0.0705580000003465,
-0.136708914794922,0.596635053710938,0.00976834277343741,0.612174922078321,0.0744720000002417,
-0.139103116455078,0.577481440429688,0.00976834277343741,0.594079044882751,0.0783840000003693,
-0.143891519775391,0.589452448730469,-0.00459686718749985,0.606778452126933,0.0822230000003401,
-0.155862528076172,0.642124885253906,0.0169509477539069,0.660987768835698,0.0861880000002202,
-0.139103116455078,0.646913288574219,0.0552581743164069,0.664002971205858,0.0899730000001,
-0.172621939697266,0.577481440429688,-0.0117794721679676,0.602844842451314,0.0937770000000455,
-0.124737906494141,0.555933625488281,0.0456813676757815,0.571584227054785,0.0976450000002842,
-0.107978494873047,0.627759675292969,-0.0333272871093744,0.637849726303189,0.101468000000295,
-0.117555301513672,0.608606062011719,-0.00699106884765577,0.619894719024945,0.105357000000367,
-0.165439334716797,0.608606062011719,-0.0357214887695303,0.631702095096146,0.109437000000071,
-0.13192051147461,0.632548078613281,-0.021356278808593,0.646510776205337,0.113331000000017,
-0.122343704833985,0.596635053710938,-0.00220266552734216,0.609053545400225,0.117327000000387,
-0.143891519775391,0.611000263671875,-0.0452982954101557,0.629347302558324,0.121192000000065,
-0.13192051147461,0.6205770703125,-0.0836055219726557,0.639928749822735,0.125072000000273,
-0.15107412475586,0.615788666992188,0.0073741411132815,0.634092620619356,0.128919000000224,
-0.105584293212891,0.599029255371094,-0.00220266552734216,0.608267164574201,0.132876000000124,
-0.13192051147461,0.615788666992188,-0.059663505371093,0.632580775566966,0.136829000000034,
-0.122343704833985,0.58226984375,-0.00699106884765577,0.595025233159727,0.140696000000389,
-0.155862528076172,0.591846650390625,-0.0500866987304676,0.614071870896734,0.144585000000006,
-0.134314713134766,0.58226984375,0.014556746093751,0.597737828786134,0.148495000000366,
-0.17022773803711,0.634942280273438,0.0408929643554696,0.658636027415629,0.152340999999979,
-0.0936132849121096,0.596635053710938,0.0480755693359374,0.605844942865469,0.156224000000293,
-0.100795889892578,0.555933625488281,-0.0740287153320303,0.569826515758518,0.160173000000214,
-0.239659586181641,0.611000263671875,0.0744117875976578,0.66052642156793,0.164005000000088,
-0.117555301513672,0.596635053710938,0.00497993945312558,0.608126167853004,0.167895000000044,
-0.141497318115235,0.618182868652344,-0.00459686718749985,0.634186629721082,0.171728000000257,
-0.143891519775391,0.575087238769531,0.0744117875976578,0.597467334498142,0.175580000000082,
-0.158256729736328,0.560722028808594,-0.0165678754882812,0.582862660149248,0.179526000000351,
-0.110372696533203,0.615788666992188,0.0456813676757815,0.627267568019227,0.183580000000347,
-0.146285721435547,0.627759675292969,0.00976834277343741,0.644652730344324,0.187520000000404,
-0.141497318115235,0.589452448730469,-0.0285388837890626,0.606869136005511,0.19151200000033,
-0.134314713134766,0.606211860351563,-0.00459686718749985,0.620930264186983,0.1953910000002,
-0.136708914794922,0.58226984375,-0.0668461103515625,0.601827135308959,0.199207000000115,
-0.127132108154297,0.589452448730469,-0.0117794721679676,0.603121478810577,0.20303100000001,
-0.15107412475586,0.599029255371094,0.0456813676757815,0.61947253959633,0.207024000000274,
-0.186987149658203,0.603817658691406,0.0600465776367187,0.634953187700285,0.211087000000134,
-0.0888248815917971,0.553539423828125,0.00258573779296967,0.560626827186947,0.215009000000009,
-0.175016141357422,0.594240852050781,-0.00699106884765577,0.619517324233401,0.219036000000415,
-0.127132108154297,0.596635053710938,-0.119518546875,0.621627415167253,0.223034999999982,
-0.153468326416016,0.615788666992188,0.052863972656251,0.636822431462609,0.227028000000246,
-0.182198746337891,0.577481440429688,0.00976834277343741,0.605620853115532,0.230954999999994,
-0.153468326416016,0.599029255371094,-0.0237504804687489,0.618831690628297,0.234924000000319,
-0.15107412475586,0.555933625488281,-0.0285388837890626,0.576801573339757,0.238833000000341,
-0.11276689819336,0.611000263671875,0.0456813676757815,0.622996374698908,0.242817000000286,
-0.153468326416016,0.606211860351563,0.014556746093751,0.625505592061872,0.246768000000429,
-0.15107412475586,0.591846650390625,-0.0429040937499998,0.612328841399669,0.250654000000395,
-0.141497318115235,0.613394465332031,0.0073741411132815,0.629546375647522,0.254661000000397,
-0.139103116455078,0.56311623046875,0.0648349809570323,0.583654984370517,0.258651999999984,
-0.129526309814453,0.6205770703125,-0.0141736738281235,0.634108711627258,0.262677000000167,
-0.141497318115235,0.656490095214844,0.0552581743164069,0.673835441319155,0.266568000000007,
-0.148679923095703,0.5439626171875,0.0193451494140628,0.564247537198942,0.270502000000306,
-0.0888248815917971,0.541568415527344,-0.0285388837890626,0.549545881773779,0.274323000000095,
-0.18938135131836,0.615788666992188,0.0600465776367187,0.647044488508376,0.27822500000002,
-0.110372696533203,0.6205770703125,0.0073741411132815,0.630358953529507,0.282256000000416,
-0.184592947998047,0.594240852050781,0.0121625444335951,0.622370206696744,0.286319000000276,
-0.127132108154297,0.579875642089844,-0.00938527050781168,0.59372250800805,0.290291000000252,
-0.153468326416016,0.58226984375,0.0337103593750001,0.603097907874645,0.294315000000097,
-0.107978494873047,0.596635053710938,0.00976834277343741,0.606405939278501,0.298260000000028,
-0.153468326416016,0.654095893554688,0.0792001909179696,0.676510632155534,0.302195000000211,
-0.376129080810547,0.259052619628906,0.373686995117188,0.590104495396959,0.306072000000313,
0.521696541748047,0.546356818847656,-3.00453154736328,3.09804500843264,0.310040000000299,
-0.831027396240234,1.10420580566406,5.48051913623047,5.65207634388925,0.313520000000153,
-0.0313640417480471,0.493684382324219,-4.51048439160156,4.53752988082139,0.316481000000294,
0.686896456298828,0.0316034619140625,-2.16656096630859,2.27306223874597,0.319527000000107,
0.176931502685547,1.02759135253906,2.32496134814453,2.54807653237136,0.322626000000128,
-0.644279666748047,0.936611689453125,2.25792370166016,2.52795513969768,0.325591000000259,
-0.110372696533203,0.546356818847656,-1.94390021191406,2.02223538182895,0.328616000000238,
-0.110372696533203,0.397916315917969,-0.871297868164062,0.964198891142786,0.331576000000041,
-0.699346304931641,0.618182868652344,1.42474152392578,1.70326854116288,0.334544000000278,
-0.51499277709961,0.321301862792969,-0.210498209960937,0.642465519616235,0.337629000000106,
0.0524330163574217,0.3907337109375,-0.500196610839843,0.636882016988228,0.340642000000116,
-0.127132108154297,0.704374128417969,0.256371113769532,0.760283916496831,0.343714000000091,
-0.0672770666503908,0.809719001464844,0.337773970214844,0.87992176924145,0.346718000000237,
0.236786544189453,0.613394465332031,-0.205709806640625,0.688939157079401,0.349693000000116,
-0.069671268310547,0.567904633789063,-0.0165678754882812,0.572402177848132,0.352772000000186,
-0.364158072509766,0.644519086914063,0.0768059892578137,0.744254738081281,0.355773000000227,
-0.258813199462891,0.520020600585938,-0.0572693037109371,0.583682679542157,0.358898000000409,
-0.196563956298828,0.52480900390625,-0.0285388837890626,0.561138438698369,0.361850000000231,
-0.210929166259766,0.654095893554688,-0.0117794721679676,0.687365482919168,0.364780000000337,
-0.0193930334472658,0.60142345703125,0.052863972656251,0.604053692993187,0.367885000000115,
-0.0217872351074221,0.603817658691406,0.000191536132813752,0.604210629869492,0.370866000000206,
-0.119949503173828,0.630153876953125,-0.0476924970703116,0.643238965103564,0.373904000000039,
-0.122343704833985,0.565510432128906,-0.0237504804687489,0.57908040571377,0.376839000000018,
-0.172621939697266,0.572693037109375,0.0552581743164069,0.600690531511184,0.379820000000109,
-0.215717569580078,0.575087238769531,0.0839885942382814,0.619930226705573,0.382825000000139,
-0.136708914794922,0.599029255371094,-0.0764229169921862,0.619165437033146,0.385732000000189,
-0.13192051147461,0.6205770703125,0.0337103593750001,0.635338736324616,0.388821000000007,
-0.100795889892578,0.587058247070313,0.0576523759765628,0.598432112547654,0.391840000000229,
-0.0816422766113283,0.565510432128906,-0.0285388837890626,0.572085638750728,0.394845000000259,
-0.17022773803711,0.560722028808594,0.0193451494140628,0.586311275001862,0.397872000000007,
-0.172621939697266,0.599029255371094,0.0241335527343765,0.623872431850356,0.400802999999996,
-0.17022773803711,0.567904633789063,-0.0381156904296862,0.594092553171012,0.403835000000072,
-0.165439334716797,0.611000263671875,-0.00220266552734216,0.633005803617994,0.406770000000051,
-0.115161099853516,0.651701691894531,0.0839885942382814,0.667106631731231,0.409823000000415,
-0.115161099853516,0.594240852050781,0.0241335527343765,0.605777762494706,0.412827000000107,
-0.141497318115235,0.584664045410156,-0.0165678754882812,0.601770746653049,0.415748000000349,
-0.143891519775391,0.553539423828125,0.000191536132813752,0.571935922880644,0.418789000000288,
-0.148679923095703,0.584664045410156,0.00497993945312558,0.60329310067667,0.421755000000303,
-0.100795889892578,0.587058247070313,0.0169509477539069,0.595889697429198,0.424805000000106,
-0.0960074865722658,0.584664045410156,-0.0429040937499998,0.594045658795519,0.427706000000398,
-0.15107412475586,0.589452448730469,-0.0285388837890626,0.609173249883004,0.430683000000045,
-0.124737906494141,0.60142345703125,0.0217393510742188,0.614607451442861,0.433758000000125,
-0.141497318115235,0.591846650390625,0.0217393510742188,0.608914236980492,0.436712000000171,
-0.115161099853516,0.565510432128906,-0.00459686718749985,0.577135390488257,0.439728000000287,
-0.122343704833985,0.615788666992188,0.0265277543945324,0.628384743816825,0.442693000000418,
-0.148679923095703,0.613394465332031,0.0241335527343765,0.631617699244801,0.445628000000397,
-0.119949503173828,0.584664045410156,0.00976834277343741,0.596921560866716,0.448667000000114,
-0.172621939697266,0.555933625488281,0.014556746093751,0.582299260578467,0.451591000000008,
-0.124737906494141,0.591846650390625,0.0265277543945324,0.605430197998382,0.454660000000331,
-0.127132108154297,0.611000263671875,-0.0189620771484371,0.624374451351623,0.457656000000043,
-0.160650931396485,0.577481440429688,0.0073741411132815,0.599456348499591,0.460618000000068,
-0.103190091552735,0.618182868652344,0.0169509477539069,0.626965380798381,0.463668000000325,
-0.186987149658203,0.606211860351563,-0.0357214887695303,0.63539990441305,0.466628000000128,
-0.191775552978516,0.608606062011719,0.0504697709960951,0.640098741775069,0.469648000000234,
-0.155862528076172,0.608606062011719,0.0169509477539069,0.628475775989388,0.472642000000178,
-0.139103116455078,0.579875642089844,0.0289219560546883,0.597027567905078,0.47567300000037,
-0.139103116455078,0.646913288574219,0.0744117875976578,0.665870553542432,0.478688000000147,
-0.0840364782714846,0.622971271972656,0.0648349809570323,0.631948502758889,0.481654000000162,
-0.160650931396485,0.591846650390625,0.0193451494140628,0.613567774694054,0.484778000000006,
-0.127132108154297,0.553539423828125,0.0313161577148442,0.568813825772326,0.487769000000299,
-0.119949503173828,0.627759675292969,0.0169509477539069,0.639341401651213,0.490811000000122,
-0.158256729736328,0.651701691894531,0.0576523759765628,0.673115208698165,0.493811000000278,
-0.105584293212891,0.558327827148438,0.000191536132813752,0.568223584716132,0.496838000000025,
-0.139103116455078,0.608606062011719,0.0384987626953137,0.625486347136368,0.499920000000202,
-0.107978494873047,0.606211860351563,0.0169509477539069,0.615986614802389,0.502877000000353,
-0.146285721435547,0.575087238769531,0.0432871660156255,0.594977834236828,0.505926000000272,
-0.119949503173828,0.575087238769531,0.0193451494140628,0.587781805020421,0.508924000000206,
-0.141497318115235,0.606211860351563,-0.0285388837890626,0.623160315290241,0.511904000000413,
-0.107978494873047,0.575087238769531,0.0456813676757815,0.586916923340384,0.514945000000353,
-0.136708914794922,0.613394465332031,0.052863972656251,0.630663695712203,0.517878999999994,
-0.129526309814453,0.591846650390625,0.0696233842773442,0.609841732051016,0.520905000000312,
-0.155862528076172,0.570298835449219,0.0265277543945324,0.591808762292556,0.523863000000347,
-0.13192051147461,0.606211860351563,0.0265277543945324,0.620966635763824,0.5268030000002,
-0.158256729736328,0.625365473632813,0.0408929643554696,0.646374042372222,0.529946000000109,
-0.148679923095703,0.599029255371094,-0.0261446821289049,0.617758296363402,0.532890000000407,
-0.107978494873047,0.622971271972656,-0.0117794721679676,0.632369604758826,0.535964000000149,
-0.127132108154297,0.570298835449219,0.014556746093751,0.584478599689782,0.53893300000027,
-0.153468326416016,0.56311623046875,0.0456813676757815,0.585439325278886,0.541896000000179,
-0.15107412475586,0.58226984375,-0.00699106884765577,0.601589924412827,0.54493900000034,
-0.134314713134766,0.555933625488281,-0.0716345136718743,0.57639755521864,0.54787000000033,
-0.069671268310547,0.704374128417969,-0.220075016601562,0.74123546282187,0.550943000000188,
0.0596156213378904,0.948582697753906,0.170179854003907,0.965569437945492,0.553933000000143,
-0.522175382080078,0.560722028808594,1.66416168994141,1.83207817887511,0.556866000000355,
-0.206140762939453,0.304542451171875,-1.80264231396484,1.83977157027919,0.559878000000026,
0.0931344445800779,0.297359846191406,-0.672579130371092,0.741255414486094,0.562871000000086,
-0.282755216064453,0.634942280273438,1.76471815966797,1.89666349006681,0.565907000000152,
-0.167833536376953,0.654095893554688,-0.473860392578125,0.824956487065951,0.568860000000313,
0.0644040246582029,0.589452448730469,-0.493014005859374,0.771145172895498,0.571940000000268,
-0.179804544677735,0.723527741699219,0.426359431640625,0.858839002516802,0.57492000000002,
-0.275572611083985,0.723527741699219,0.000191536132813752,0.774230387981579,0.577856000000338,
-0.0385466467285158,0.548751020507813,-0.167402580078125,0.575010565380491,0.580858000000262,
-0.191775552978516,0.594240852050781,0.112719014160158,0.634512118969758,0.583848000000216,
-0.218111771240235,0.570298835449219,-0.00699106884765577,0.610624583121184,0.586843000000044,
-0.0313640417480471,0.551145222167969,-0.0285388837890626,0.552774119257838,0.589795000000322,
-0.0792480749511721,0.649307490234375,0.0576523759765628,0.656661458221565,0.592714000000342,
-0.11276689819336,0.654095893554688,0.0121625444335951,0.66385671554964,0.595788000000084,
-0.139103116455078,0.618182868652344,-0.0476924970703116,0.635432380650812,0.598777000000155,
-0.237265384521485,0.630153876953125,-0.0189620771484371,0.673608440936547,0.601823000000422,
-0.194169754638672,0.611000263671875,0.014556746093751,0.641276161010513,0.604766000000382,
-0.136708914794922,0.553539423828125,0.00976834277343741,0.570254891813229,0.607702000000245,
-0.110372696533203,0.56311623046875,-0.0117794721679676,0.573951894431842,0.610709000000043,
-0.117555301513672,0.596635053710938,0.0408929643554696,0.609479179926929,0.613706000000093,
-0.0816422766113283,0.567904633789063,-0.00459686718749985,0.573761505851786,0.616785000000164,
-0.167833536376953,0.584664045410156,0.0217393510742188,0.608664719951216,0.619834000000083,
-0.134314713134766,0.625365473632813,-0.00938527050781168,0.639695631592847,0.622762000000421,
-0.146285721435547,0.579875642089844,-0.0429040937499998,0.599579881121386,0.625852000000123,
-0.163045133056641,0.630153876953125,0.00976834277343741,0.65097852850386,0.628811000000042,
-0.146285721435547,0.615788666992188,0.014556746093751,0.633093273972147,0.631889000000228,
-0.124737906494141,0.579875642089844,-0.0381156904296862,0.594363618892157,0.634881000000405,
-0.134314713134766,0.594240852050781,0.0720175859375001,0.613473035344487,0.637932000000092,
-0.134314713134766,0.603817658691406,-0.00459686718749985,0.618593031241046,0.640953000000081,
-0.148679923095703,0.587058247070313,0.0983538041992187,0.613527974737477,0.643933000000288,
-0.160650931396485,0.606211860351563,0.0408929643554696,0.628469391397257,0.647010000000137,
-0.146285721435547,0.584664045410156,0.0361045610351578,0.603767420136951,0.649995000000217,
-0.153468326416016,0.584664045410156,-0.0165678754882812,0.604697500992436,0.652930000000197,
-0.0984016882324221,0.6205770703125,0.0456813676757815,0.629988555290782,0.65596000000005,
-0.160650931396485,0.637336481933594,0.0576523759765628,0.659795657319591,0.658889000000272,
-0.158256729736328,0.599029255371094,0.0935654008789069,0.626606515716933,0.661952000000383,
-0.13192051147461,0.555933625488281,-0.00459686718749985,0.571389839325313,0.664866000000075,
-0.119949503173828,0.558327827148438,-0.0261446821289049,0.571665453113589,0.66791000000012,
-0.153468326416016,0.649307490234375,0.0863827958984373,0.672766476211937,0.670926000000236,
-0.141497318115235,0.603817658691406,-0.0309330854492185,0.62094614239625,0.673871000000418,
-0.184592947998047,0.529597407226563,0.0744117875976578,0.56576062458003,0.676958000000013,
-0.184592947998047,0.527203205566406,-0.0333272871093744,0.559578845629617,0.679888000000119,
-0.124737906494141,0.555933625488281,-0.15064316845703,0.589334459766149,0.682896000000255,
-0.0912190832519533,0.603817658691406,0.232429097167969,0.653406436536415,0.68587000000025,
-0.129526309814453,0.646913288574219,0.0672291826171882,0.663169383237371,0.688835000000381,
-0.15107412475586,0.634942280273438,-0.0788171186523439,0.657409483231144,0.69190400000025,
-0.15107412475586,0.603817658691406,0.0815943925781255,0.627755367176191,0.694878000000244,
-0.184592947998047,0.577481440429688,-0.00459686718749985,0.606284175679438,0.697875000000295,
-0.167833536376953,0.555933625488281,0.00258573779296967,0.580721084446977,0.700854000000163,
-0.127132108154297,0.572693037109375,-0.0237504804687489,0.587114957227128,0.703797000000122,
-0.0864306799316408,0.599029255371094,-0.0429040937499998,0.606751244320439,0.706791000000067,
-0.143891519775391,0.651701691894531,0.00976834277343741,0.667469314052718,0.709802000000309,
-0.155862528076172,0.611000263671875,-0.0357214887695303,0.631577766094808,0.712838000000374,
-0.115161099853516,0.618182868652344,0.0289219560546883,0.629482817523038,0.715815000000021,
-0.158256729736328,0.572693037109375,0.0432871660156255,0.595731723179202,0.718751000000339,
-0.153468326416016,0.611000263671875,0.0313161577148442,0.630757125329595,0.721789000000172,
-0.146285721435547,0.606211860351563,-0.00699106884765577,0.623651510837947,0.724714000000404,
-0.124737906494141,0.622971271972656,0.0361045610351578,0.636361760594799,0.727742000000035,
-0.136708914794922,0.58226984375,-0.0261446821289049,0.598674404604603,0.730686000000333,
-0.136708914794922,0.613394465332031,-0.0405098920898439,0.629748480618655,0.733642000000145,
-0.117555301513672,0.634942280273438,-0.00459686718749985,0.645749238776743,0.736689000000297,
-0.175016141357422,0.572693037109375,-0.0309330854492185,0.599637240558498,0.739664000000175,
-0.141497318115235,0.587058247070313,0.0169509477539069,0.604107781043108,0.742705999999998,
-0.127132108154297,0.625365473632813,0.0073741411132815,0.638199754381735,0.745692000000417,
-0.160650931396485,0.596635053710938,0.0720175859375001,0.62206803627857,0.748606999999993,
-0.124737906494141,0.577481440429688,-0.0333272871093744,0.591739019689726,0.751666999999998,
-0.139103116455078,0.589452448730469,0.0169509477539069,0.605880517058947,0.754661000000397,
-0.11276689819336,0.553539423828125,-0.0572693037109371,0.567804579241538,0.757723000000169,
-0.155862528076172,0.603817658691406,-0.0189620771484371,0.623897790487874,0.76070400000026,
-0.139103116455078,0.625365473632813,0.00976834277343741,0.640723866529136,0.763840000000073,
-0.129526309814453,0.622971271972656,0.0911711992187509,0.642792702357739,0.766823000000386,
-0.124737906494141,0.587058247070313,0.014556746093751,0.600340594684923,0.769797000000381,
-0.146285721435547,0.60142345703125,0.0552581743164069,0.621420270664001,0.772836999999981,
-0.141497318115235,0.6205770703125,0.0313161577148442,0.637273954406949,0.775900000000092,
-0.143891519775391,0.589452448730469,-0.00220266552734216,0.60676503731926,0.778952000000118,
-0.13192051147461,0.599029255371094,0.00976834277343741,0.613461075096627,0.781921000000239,
-0.165439334716797,0.625365473632813,0.0313161577148442,0.64763635692999,0.784853999999996,
-0.15107412475586,0.634942280273438,0.0121625444335951,0.652780987726114,0.787936000000172,
-0.110372696533203,0.596635053710938,0.0337103593750001,0.607693926072867,0.790949000000182,
-0.158256729736328,0.577481440429688,-0.0141736738281235,0.598941482598567,0.79395599999998,
-0.129526309814453,0.56311623046875,-0.00699106884765577,0.5778631576724,0.796888000000308,
-0.153468326416016,0.627759675292969,0.0265277543945324,0.646790892708055,0.799820000000182,
-0.153468326416016,0.594240852050781,0.0432871660156255,0.615262948828089,0.80287700000008,
-0.127132108154297,0.627759675292969,-0.0788171186523439,0.645334735653015,0.805819000000156,
-0.141497318115235,0.596635053710938,0.014556746093751,0.613356973717015,0.808949000000212,
-0.13192051147461,0.567904633789063,-0.021356278808593,0.583416476516872,0.811935000000176,
-0.141497318115235,0.608606062011719,0.0217393510742188,0.625216305878489,0.814927000000353,
-0.0960074865722658,0.594240852050781,0.000191536132813752,0.601946562752918,0.817973000000165,
-0.146285721435547,0.596635053710938,0.0121625444335951,0.614427234991802,0.820949000000383,
-0.172621939697266,0.618182868652344,0.000191536132813752,0.641832088513949,0.823993000000428,
-0.179804544677735,0.565510432128906,-0.00459686718749985,0.593424682939064,0.826935000000049,
-0.117555301513672,0.58226984375,-0.0524809003906235,0.596331841142522,0.829920000000129,
-0.134314713134766,0.591846650390625,0.0456813676757815,0.608612920579088,0.832977000000028,
-0.127132108154297,0.608606062011719,0.00497993945312558,0.621762584463013,0.835953000000245,
-0.129526309814453,0.608606062011719,-0.00459686718749985,0.622253593673433,0.838968000000023,
-0.153468326416016,0.618182868652344,0.0384987626953137,0.638110289085863,0.841960000000199,
-0.122343704833985,0.58226984375,0.0432871660156255,0.596556729737264,0.844899000000169,
-0.124737906494141,0.589452448730469,0.0408929643554696,0.603892348986692,0.847928000000138,
-0.17022773803711,0.622971271972656,-0.0548751020507812,0.648137304377355,0.850908000000345,
-0.122343704833985,0.575087238769531,-0.0285388837890626,0.588649116363895,0.85396000000037,
-0.127132108154297,0.551145222167969,0.0217393510742188,0.566035536187847,0.85689900000034,
-0.13192051147461,0.579875642089844,0.0576523759765628,0.597480190544067,0.859903000000031,
-0.11276689819336,0.591846650390625,-0.0309330854492185,0.603287399737607,0.862884000000122,
-0.146285721435547,0.596635053710938,0.0696233842773442,0.618239690775999,0.865834000000177,
-0.158256729736328,0.587058247070313,-0.0117794721679676,0.608129372686981,0.868846000000303,
-0.110372696533203,0.613394465332031,0.0073741411132815,0.623289082366391,0.871800000000349,
-0.139103116455078,0.637336481933594,0.0456813676757815,0.653937501267312,0.874840000000404,
-0.172621939697266,0.587058247070313,0.00497993945312558,0.611931793025229,0.877866000000267,
-0.115161099853516,0.579875642089844,-0.0309330854492185,0.592009032856754,0.880803000000014,
-0.146285721435547,0.587058247070313,0.00976834277343741,0.605088686284685,0.883845000000292,
-0.136708914794922,0.599029255371094,-0.0836055219726557,0.620092944226245,0.886781000000155,
-0.17022773803711,0.599029255371094,0.0289219560546883,0.62341800674163,0.889817000000221,
-0.100795889892578,0.611000263671875,0.0361045610351578,0.620310142552803,0.892791000000216,
-0.134314713134766,0.603817658691406,0.0265277543945324,0.619144513716517,0.895783000000392,
-0.129526309814453,0.599029255371094,0.0672291826171882,0.616549168128522,0.89890800000012,
-0.139103116455078,0.615788666992188,-0.0237504804687489,0.631751093965042,0.901861000000281,
-0.139103116455078,0.572693037109375,0.0600465776367187,0.592395630678483,0.904960000000301,
-0.13192051147461,0.618182868652344,-0.00699106884765577,0.632140771890721,0.907926000000316,
-0.134314713134766,0.60142345703125,0.00976834277343741,0.616316507447621,0.910918000000038,
-0.119949503173828,0.60142345703125,0.0720175859375001,0.617482461826515,0.913989000000129,
-0.163045133056641,0.594240852050781,-0.0261446821289049,0.616757205116501,0.917029000000184,
-0.160650931396485,0.625365473632813,0.0193451494140628,0.645960472611446,0.920071000000007,
-0.17022773803711,0.603817658691406,-0.0357214887695303,0.628370330700546,0.923039000000244,
-0.146285721435547,0.615788666992188,-0.0405098920898439,0.634220975724601,0.926025000000209,
-0.15107412475586,0.611000263671875,0.0289219560546883,0.630064435530112,0.929093000000194,
-0.146285721435547,0.591846650390625,0.0432871660156255,0.611192071787737,0.932065000000421,
-0.119949503173828,0.56311623046875,-0.0572693037109371,0.578591000168961,0.935077999999976,
-0.134314713134766,0.584664045410156,0.0361045610351578,0.600979223840047,0.938028000000031,
-0.158256729736328,0.644519086914063,0.00976834277343741,0.663735991508607,0.941001000000142,
-0.196563956298828,0.567904633789063,-0.00938527050781168,0.601033397821986,0.944000000000415,
-0.115161099853516,0.654095893554688,-0.0357214887695303,0.665116186575314,0.946969000000081,
-0.127132108154297,0.627759675292969,0.0480755693359374,0.642305257034896,0.950079000000187,
-0.115161099853516,0.591846650390625,-0.0357214887695303,0.604003775864014,0.953025000000252,
-0.124737906494141,0.625365473632813,0.0624407792968764,0.640734244322663,0.956116000000293,
-0.148679923095703,0.608606062011719,0.00258573779296967,0.626509173347917,0.95906500000001,
-0.13192051147461,0.572693037109375,0.00976834277343741,0.587771857630001,0.962021000000277,
-0.110372696533203,0.584664045410156,0.0313161577148442,0.595814467657005,0.965061000000333,
-0.13192051147461,0.60142345703125,0.014556746093751,0.615893736672147,0.968051000000287,
-0.160650931396485,0.611000263671875,0.00976834277343741,0.631842911241551,0.971106000000418,
-0.15107412475586,0.599029255371094,-0.0261446821289049,0.618338891195449,0.974074000000201,
-0.146285721435547,0.591846650390625,-0.00459686718749985,0.609674586203543,0.976983000000018,
-0.100795889892578,0.6205770703125,0.014556746093751,0.628878056918605,0.980028000000402,
-0.146285721435547,0.577481440429688,0.0361045610351578,0.596814766627139,0.982999000000291,
-0.141497318115235,0.611000263671875,-0.0452982954101557,0.628804221366214,0.985996000000341,
-0.127132108154297,0.570298835449219,0.0648349809570323,0.587883414797687,0.989013000000341,
-0.160650931396485,0.618182868652344,-0.0405098920898439,0.639999868914775,0.991955000000416,
-0.153468326416016,0.589452448730469,0.0241335527343765,0.609581122488928,0.995001000000229,
-0.13192051147461,0.618182868652344,0.0337103593750001,0.633000370278055,0.997954000000391,
-0.122343704833985,0.622971271972656,-0.0500866987304676,0.636843674071943,1.00097400000004,
-0.155862528076172,0.575087238769531,0.0241335527343765,0.596322805384334,1.00393600000007,
-0.155862528076172,0.584664045410156,0.0313161577148442,0.605892626946133,1.00687000000016,
-0.134314713134766,0.627759675292969,-0.0165678754882812,0.642181552667626,1.0098780000003,
-0.122343704833985,0.634942280273438,0.052863972656251,0.648779069480774,1.0128480000003,
-0.110372696533203,0.587058247070313,0.0361045610351578,0.598433836711144,1.01590700000042,
-0.167833536376953,0.58226984375,0.0265277543945324,0.606555841309488,1.01888100000042,
-0.158256729736328,0.560722028808594,0.00258573779296967,0.58263287938289,1.02184299999999,
-0.143891519775391,0.579875642089844,0.0073741411132815,0.597507244901297,1.02490000000034,
-0.146285721435547,0.58226984375,-0.00220266552734216,0.600368665881218,1.02782300000035,
