X,Y,Z,Magnitude,Seconds,
-0.13192051147461,0.546356818847656,0.0121625444335951,0.562189222892215,0.0,
-0.153468326416016,0.608606062011719,0.0337103593750001,0.628562052831331,0.00372700000025361,
-0.0960074865722658,0.599029255371094,0.00976834277343741,0.606752755897252,0.00762299999996685,
-0.153468326416016,0.575087238769531,-0.00699106884765577,0.595253504359386,0.0115230000001247,
-0.129526309814453,0.584664045410156,0.00976834277343741,0.598919469920672,0.0152800000000752,
-0.15107412475586,0.572693037109375,0.0313161577148442,0.593111631700416,0.0190340000003744,
-0.155862528076172,0.642124885253906,-0.0285388837890626,0.661386395240002,0.0228910000000724,
-0.155862528076172,0.625365473632813,0.11750741748047,0.655120673184122,0.0267149999999674,
-0.0984016882324221,0.596635053710938,-0.0237504804687489,0.605161437044811,0.0305160000002616,
-0.155862528076172,0.587058247070313,-0.0117794721679676,0.607510715194489,0.0342510000000402,
-0.165439334716797,0.560722028808594,0.0289219560546883,0.585333961602085,0.0380250000002889,
-0.141497318115235,0.608606062011719,0.0337103593750001,0.625746928143005,0.0417950000000928,
-0.136708914794922,0.591846650390625,0.0432871660156255,0.608970905466486,0.0456500000000233,
-0.134314713134766,0.613394465332031,0.052863972656251,0.630149039410078,0.0494020000001001,
-0.136708914794922,0.587058247070313,0.0337103593750001,0.603707794522205,0.0531580000001668,
-0.148679923095703,0.630153876953125,0.0672291826171882,0.650937317386378,0.0569040000000314,
-0.134314713134766,0.603817658691406,0.0720175859375001,0.622754156787662,0.0606480000001284,
-0.105584293212891,0.584664045410156,0.0337103593750001,0.595076866713727,0.0643780000000334,
-0.17022773803711,0.572693037109375,0.0600465776367187,0.600466809271481,0.0681670000003578,
-0.15107412475586,0.567904633789063,0.0121625444335951,0.587781414929851,0.0718910000000506,
-0.155862528076172,0.618182868652344,0.0121625444335951,0.637644975076755,0.0756240000000616,
-0.146285721435547,0.591846650390625,0.0121625444335951,0.609778564203122,0.0795930000003864,
-0.146285721435547,0.584664045410156,-0.0644519086914048,0.606123425405464,0.0834100000001854,
-0.105584293212891,0.584664045410156,0.00258573779296967,0.594126901434844,0.0872070000000349,
-0.11276689819336,0.565510432128906,0.0313161577148442,0.577493830191107,0.0910130000002027,
-0.11276689819336,0.584664045410156,0.0480755693359374,0.597377334429835,0.0949090000003707,
-0.155862528076172,0.570298835449219,0.0432871660156255,0.592796481192909,0.098765000000185,
-0.141497318115235,0.606211860351563,0.0241335527343765,0.622974107834579,0.102589999999964,
-0.141497318115235,0.599029255371094,0.0241335527343765,0.615986987031247,0.106390000000374,
-0.129526309814453,0.608606062011719,0.0217393510742188,0.62261625664344,0.110199000000193,
-0.129526309814453,0.613394465332031,0.0289219560546883,0.627587694729707,0.114019999999982,
-0.115161099853516,0.615788666992188,0.00497993945312558,0.626484286405049,0.117877000000135,
-0.127132108154297,0.565510432128906,0.00258573779296967,0.57963031995429,0.121654000000035,
-0.105584293212891,0.615788666992188,0.00976834277343741,0.624851299022272,0.125403000000006,
-0.129526309814453,0.565510432128906,0.0265277543945324,0.580760566441962,0.129139000000123,
-0.158256729736328,0.618182868652344,-0.0309330854492185,0.638867832479838,0.132849999999962,
-0.129526309814453,0.603817658691406,-0.00220266552734216,0.617557836657545,0.136584000000312,
-0.122343704833985,0.591846650390625,-0.021356278808593,0.604736744654778,0.140309000000343,
-0.148679923095703,0.6205770703125,0.0480755693359374,0.639947560426918,0.144158000000061,
-0.107978494873047,0.575087238769531,0.0121625444335951,0.58526285977987,0.148001000000022,
-0.0984016882324221,0.577481440429688,0.00258573779296967,0.5858108844394,0.152022000000215,
-0.153468326416016,0.548751020507813,0.0911711992187509,0.577054934376515,0.155822000000171,
-0.153468326416016,0.594240852050781,0.0289219560546883,0.614419398294846,0.159650000000056,
-0.139103116455078,0.596635053710938,0.088776997558595,0.61903507139716,0.163448000000244,
-0.105584293212891,0.567904633789063,0.0121625444335951,0.57776434948814,0.167385000000195,
-0.148679923095703,0.589452448730469,0.000191536132813752,0.607914422869026,0.171240000000125,
-0.110372696533203,0.606211860351563,-0.0261446821289049,0.616732110542766,0.175013000000035,
-0.115161099853516,0.589452448730469,0.0073741411132815,0.600641861836965,0.178800000000138,
-0.158256729736328,0.611000263671875,0.0792001909179696,0.636112556828885,0.182604999999967,
-0.158256729736328,0.634942280273438,-0.00459686718749985,0.654383697056711,0.186382000000322,
-0.110372696533203,0.58226984375,0.0073741411132815,0.592684301325603,0.190223999999944,
-0.127132108154297,0.572693037109375,-0.0237504804687489,0.587114957227128,0.193960999999945,
-0.115161099853516,0.615788666992188,0.0432871660156255,0.627958231140536,0.197727000000214,
-0.141497318115235,0.56311623046875,0.0121625444335951,0.580748919532561,0.201452000000245,
-0.13192051147461,0.567904633789063,0.0241335527343765,0.583524740516111,0.205183000000034,
-0.117555301513672,0.589452448730469,0.0337103593750001,0.602004839314028,0.208903000000191,
-0.0768538732910158,0.56311623046875,-0.00220266552734216,0.568340794411761,0.212602999999945,
-0.172621939697266,0.546356818847656,-0.00699106884765577,0.57302092685155,0.216421999999966,
-0.103190091552735,0.608606062011719,0.0217393510742188,0.617674779392199,0.220365000000129,
-0.103190091552735,0.589452448730469,0.000191536132813752,0.598416594852698,0.224243999999999,
-0.136708914794922,0.58226984375,0.0241335527343765,0.598589948706657,0.228016000000025,
-0.119949503173828,0.584664045410156,-0.0285388837890626,0.59752355367378,0.231772999999976,
-0.117555301513672,0.596635053710938,0.014556746093751,0.608279980837329,0.235517999999956,
-0.117555301513672,0.627759675292969,0.0241335527343765,0.639127442068862,0.239398000000165,
-0.124737906494141,0.579875642089844,-0.0452982954101557,0.59486741478477,0.243212000000312,
-0.129526309814453,0.594240852050781,-0.0500866987304676,0.610252351548034,0.246953000000303,
-0.165439334716797,0.603817658691406,0.0337103593750001,0.626978729103548,0.250737000000299,
-0.122343704833985,0.570298835449219,-0.0141736738281235,0.583446344454249,0.254501000000346,
-0.143891519775391,0.560722028808594,0.0432871660156255,0.580506452846272,0.258281000000352,
-0.100795889892578,0.584664045410156,0.0384987626953137,0.594536804700665,0.262028999999984,
-0.127132108154297,0.572693037109375,0.0169509477539069,0.586879222930129,0.265902000000096,
-0.0840364782714846,0.611000263671875,0.0361045610351578,0.617808215561202,0.269651999999951,
-0.124737906494141,0.630153876953125,0.0241335527343765,0.642834257272571,0.273404000000028,
-0.107978494873047,0.572693037109375,0.0241335527343765,0.583283034620579,0.277138000000377,
-0.143891519775391,0.58226984375,0.0241335527343765,0.600271079406216,0.280862999999954,
-0.107978494873047,0.611000263671875,0.0217393510742188,0.620848835826627,0.284583999999995,
-0.136708914794922,0.594240852050781,-0.0452982954101557,0.611443744916496,0.288430000000062,
-0.13192051147461,0.584664045410156,0.0361045610351578,0.60044867113737,0.29243600000018,
-0.206140762939453,0.534385810546875,0.2252464921875,0.61546583244066,0.296264000000065,
-0.00263362182617211,0.462559760742188,-0.526532829101562,0.700860391478565,0.300053000000389,
0.0404620080566405,1.30771294677734,2.70803361376953,3.00752329643026,0.30390400000033,
-0.538934793701172,0.505655390625,-1.88404517041016,2.02379946883966,0.306841000000077,
0.351708223876953,0.0483628735351562,-1.55603954296875,1.59602528224388,0.309770000000299,
-0.0529118566894533,1.00843773925781,1.83654420947266,2.09586282277378,0.312809000000016,
-0.486262357177735,0.94618849609375,0.720846235839845,1.28504593142528,0.315767000000051,
-0.163045133056641,0.124977326660156,-0.844961649902343,0.869576470126847,0.318759000000227,
-0.0936132849121096,0.452982954101563,-0.710886356933592,0.848125236208031,0.321691000000101,
-0.333033450927735,0.859997236328125,0.840556318847657,1.24781467016684,0.324618999999984,
0.100317049560547,0.510443793945313,0.127084224121095,0.535506094484721,0.327628000000004,
0.0428562097167967,0.548751020507813,-0.528927030761718,0.7633663216897,0.330572000000302,
-0.333033450927735,0.809719001464844,0.371292793457032,0.951007086852241,0.333583999999973,
-0.0864306799316408,0.618182868652344,-0.0764229169921862,0.628856727538381,0.336514999999963,
-0.0648828649902345,0.5439626171875,-0.0812113203124998,0.55380537521201,0.339421000000129,
-0.299514627685547,0.606211860351563,0.0815943925781255,0.681072299193491,0.342424000000392,
-0.153468326416016,0.575087238769531,-0.0405098920898439,0.596589398804259,0.3453370000002,
-0.0648828649902345,0.567904633789063,0.0337103593750001,0.572592217531484,0.348347000000103,
-0.160650931396485,0.625365473632813,-0.0285388837890626,0.646301141309897,0.351259000000027,
-0.0672770666503908,0.611000263671875,0.0432871660156255,0.616215307052532,0.354178000000047,
-0.124737906494141,0.608606062011719,0.0672291826171882,0.624884506952547,0.357171000000108,
-0.186987149658203,0.622971271972656,0.000191536132813752,0.650428655985127,0.360095000000001,
-0.0960074865722658,0.539174213867188,-0.0500866987304676,0.549940858426559,0.363076000000092,
-0.17022773803711,0.591846650390625,-0.0429040937499998,0.617333541642071,0.365999000000102,
-0.17022773803711,0.589452448730469,0.0432871660156255,0.615065403719996,0.368993000000046,
-0.0912190832519533,0.649307490234375,-0.0405098920898439,0.65693393075782,0.371903000000202,
-0.148679923095703,0.584664045410156,0.014556746093751,0.603448145563437,0.374822000000222,
-0.158256729736328,0.618182868652344,-0.0405098920898439,0.639403083320067,0.377801999999974,
-0.167833536376953,0.560722028808594,0.0217393510742188,0.585704608919161,0.380742000000282,
-0.119949503173828,0.539174213867188,-0.021356278808593,0.552768312094225,0.383719000000383,
-0.134314713134766,0.625365473632813,0.0169509477539069,0.639851351804638,0.386659000000236,
-0.0960074865722658,0.587058247070313,0.0935654008789069,0.602170496763851,0.389569000000392,
-0.175016141357422,0.589452448730469,-0.00699106884765577,0.614925779337328,0.392563000000337,
-0.153468326416016,0.553539423828125,-0.00699106884765577,0.574462614961616,0.395484000000124,
-0.0984016882324221,0.584664045410156,-0.0117794721679676,0.593003958002741,0.398469000000205,
-0.122343704833985,0.625365473632813,0.014556746093751,0.637386740198865,0.40139900000031,
-0.129526309814453,0.599029255371094,-0.00459686718749985,0.612890075717119,0.404300000000148,
-0.122343704833985,0.596635053710938,0.0696233842773442,0.613016137689204,0.407348000000184,
-0.136708914794922,0.622971271972656,0.0313161577148442,0.638563414878785,0.410371000000396,
-0.146285721435547,0.599029255371094,-0.00938527050781168,0.616703854689486,0.413438000000042,
-0.13192051147461,0.649307490234375,0.0456813676757815,0.664146087525113,0.416473000000224,
-0.143891519775391,0.606211860351563,0.0744117875976578,0.627482831022215,0.419386000000031,
-0.163045133056641,0.599029255371094,0.00976834277343741,0.620898691192407,0.422383999999965,
-0.160650931396485,0.60142345703125,0.000191536132813752,0.622510187155253,0.425322000000051,
-0.124737906494141,0.608606062011719,0.0863827958984373,0.627234303479317,0.428331000000071,
-0.105584293212891,0.591846650390625,0.0504697709960951,0.603305642552982,0.431283000000349,
-0.179804544677735,0.594240852050781,0.0313161577148442,0.621637005226384,0.434202000000369,
-0.172621939697266,0.6205770703125,0.00258573779296967,0.644143555663197,0.437190999999984,
-0.110372696533203,0.570298835449219,0.0720175859375001,0.58532847747142,0.440140000000156,
-0.155862528076172,0.632548078613281,0.0193451494140628,0.651754888145461,0.443142999999964,
-0.124737906494141,0.627759675292969,0.0313161577148442,0.64079829663826,0.446083000000272,
-0.0936132849121096,0.565510432128906,0.0552581743164069,0.575863665972633,0.449018000000251,
-0.15107412475586,0.58226984375,-0.0572693037109371,0.604269257251214,0.452021999999943,
-0.141497318115235,0.603817658691406,-0.021356278808593,0.620542783880311,0.454944000000069,
-0.100795889892578,0.611000263671875,0.0337103593750001,0.620175396122363,0.457961000000068,
-0.139103116455078,0.603817658691406,0.0121625444335951,0.619752667958909,0.46089800000027,
-0.105584293212891,0.599029255371094,0.0408929643554696,0.609636224561411,0.463883000000351,
-0.117555301513672,0.613394465332031,0.0241335527343765,0.625023557461254,0.466809000000012,
-0.11276689819336,0.596635053710938,0.0241335527343765,0.607677701592207,0.469730000000254,
-0.124737906494141,0.615788666992188,0.0217393510742188,0.628671477878299,0.472731000000294,
-0.158256729736328,0.613394465332031,-0.0309330854492185,0.634235617402724,0.475640999999996,
-0.141497318115235,0.577481440429688,-0.0500866987304676,0.596669910808537,0.478625000000193,
-0.136708914794922,0.591846650390625,0.0696233842773442,0.611407556872859,0.481570000000374,
-0.119949503173828,0.603817658691406,0.00258573779296967,0.615621908560079,0.48447699999997,
-0.148679923095703,0.58226984375,-0.00699106884765577,0.600993149308731,0.48746600000004,
-0.141497318115235,0.613394465332031,-0.0261446821289049,0.630045875740326,0.490379000000303,
-0.136708914794922,0.591846650390625,-0.00459686718749985,0.607447871138707,0.493367000000035,
-0.100795889892578,0.6205770703125,-0.021356278808593,0.62907217571709,0.496298000000024,
-0.146285721435547,0.608606062011719,0.0121625444335951,0.626058127093986,0.499208000000181,
-0.110372696533203,0.613394465332031,-0.0189620771484371,0.623533850412119,0.502195000000029,
-0.146285721435547,0.565510432128906,0.0983538041992187,0.592347053629035,0.505145999999968,
-0.146285721435547,0.606211860351563,0.0552581743164069,0.626055746523904,0.508138000000145,
-0.134314713134766,0.618182868652344,0.00976834277343741,0.632681532668889,0.511067000000367,
-0.139103116455078,0.594240852050781,0.0408929643554696,0.611673198519709,0.513977999999952,
-0.0792480749511721,0.565510432128906,-0.148248966796874,0.589966153593941,0.516959000000043,
-0.0624886633300783,0.749863959960938,0.282707332031251,0.803818528697433,0.519893000000138,
-0.244447989501953,0.646913288574219,0.165391450683595,0.711059740433025,0.522894000000178,
-0.230082779541016,0.232716401367187,-0.45710098095703,0.562171073338439,0.525805000000219,
0.0524330163574217,0.560722028808594,-0.399640141113281,0.69055822143003,0.528735000000324,
-0.175016141357422,0.864785639648438,1.01772724169922,1.34694231159857,0.531739000000016,
-0.0744596716308595,0.548751020507813,-0.459495182617188,0.719588596391121,0.534662000000026,
-0.124737906494141,0.548751020507813,-0.270353251464844,0.624322119104009,0.537650000000212,
-0.280361014404297,0.661278498535156,0.388052205078125,0.816379853308931,0.540577000000212,
-0.0912190832519533,0.541568415527344,-0.095576530273437,0.557451471417229,0.543473000000176,
-0.124737906494141,0.539174213867188,-0.0261446821289049,0.554032420188081,0.546538000000055,
-0.244447989501953,0.584664045410156,0.143843635742188,0.64982909838699,0.549562000000151,
-0.069671268310547,0.56311623046875,-0.097970731933593,0.575805730225862,0.552642000000105,
-0.119949503173828,0.632548078613281,-0.0165678754882812,0.644033733252535,0.55562400000008,
-0.17022773803711,0.615788666992188,0.088776997558595,0.645022883693877,0.558618000000024,
-0.139103116455078,0.575087238769531,-0.0644519086914048,0.595171452387498,0.56153200000017,
-0.172621939697266,0.589452448730469,0.0265277543945324,0.614781461279054,0.564448999999968,
-0.182198746337891,0.589452448730469,0.0408929643554696,0.618322575210725,0.567493000000013,
-0.0816422766113283,0.551145222167969,-0.0740287153320303,0.562055840591103,0.570408000000043,
-0.13192051147461,0.661278498535156,0.0217393510742188,0.674659079356204,0.573399000000336,
-0.143891519775391,0.634942280273438,-0.021356278808593,0.651392784260506,0.576318000000356,
-0.129526309814453,0.627759675292969,0.000191536132813752,0.640983082104492,0.57922600000029,
-0.134314713134766,0.560722028808594,-0.00938527050781168,0.576660835377438,0.582253000000037,
-0.172621939697266,0.60142345703125,-0.0309330854492185,0.626470561565087,0.585176000000047,
-0.110372696533203,0.584664045410156,-0.0405098920898439,0.59636836728025,0.588197000000036,
-0.148679923095703,0.613394465332031,-0.00938527050781168,0.631226245441535,0.591122000000269,
-0.124737906494141,0.644519086914063,-0.0117794721679676,0.65658446119112,0.594021000000339,
-0.0984016882324221,0.575087238769531,0.0959596025390628,0.591283747250007,0.59703300000001,
-0.175016141357422,0.575087238769531,-0.0165678754882812,0.601357195375095,0.599950000000263,
-0.163045133056641,0.591846650390625,0.0289219560546883,0.61457518053863,0.602945000000091,
-0.127132108154297,0.644519086914063,-0.0357214887695303,0.657908391100315,0.605862000000343,
-0.124737906494141,0.591846650390625,0.014556746093751,0.605023885273947,0.60878300000013,
-0.105584293212891,0.596635053710938,0.0408929643554696,0.607283842057153,0.611776000000191,
-0.148679923095703,0.615788666992188,-0.021356278808593,0.633843429067707,0.614696999999978,
-0.107978494873047,0.622971271972656,0.0552581743164069,0.634670014170404,0.617725999999948,
-0.143891519775391,0.603817658691406,0.0408929643554696,0.622071353579813,0.620657000000392,
-0.15107412475586,0.594240852050781,-0.0429040937499998,0.61464326456677,0.623559000000114,
-0.158256729736328,0.608606062011719,-0.00459686718749985,0.6288621966792,0.626549000000068,
-0.129526309814453,0.587058247070313,-0.0117794721679676,0.601292945536511,0.629468999999972,
-0.117555301513672,0.615788666992188,0.0289219560546883,0.62757582079938,0.632477999999992,
-0.182198746337891,0.560722028808594,0.0552581743164069,0.592164709001733,0.635400000000118,
-0.194169754638672,0.52480900390625,-0.00699106884765577,0.559620638684051,0.638304999999946,
-0.160650931396485,0.603817658691406,-0.00938527050781168,0.624894047026081,0.641292000000249,
-0.127132108154297,0.670855305175781,0.186939265625,0.707923514539997,0.644228000000112,
-0.0744596716308595,0.603817658691406,-0.00220266552734216,0.608395315056233,0.647213000000193,
-0.129526309814453,0.622971271972656,-0.0261446821289049,0.636831072609527,0.650131000000329,
-0.175016141357422,0.596635053710938,0.0313161577148442,0.622563040009858,0.653110000000197,
-0.117555301513672,0.577481440429688,-0.00699106884765577,0.589366556565903,0.656025000000227,
-0.141497318115235,0.572693037109375,0.052863972656251,0.592278148670339,0.658947000000353,
-0.122343704833985,0.625365473632813,0.00976834277343741,0.637295361857464,0.661941000000297,
-0.0720654699707033,0.589452448730469,-0.0333272871093744,0.594775864794895,0.664854000000105,
-0.127132108154297,0.594240852050781,0.0624407792968764,0.610887562558771,0.667851000000155,
-0.141497318115235,0.603817658691406,0.0265277543945324,0.620742279641553,0.670782000000145,
-0.122343704833985,0.596635053710938,0.0456813676757815,0.610760310417997,0.673698999999942,
-0.13192051147461,0.570298835449219,0.00258573779296967,0.585363535849639,0.676699000000099,
-0.0648828649902345,0.613394465332031,0.0552581743164069,0.619286704280087,0.679636000000301,
-0.110372696533203,0.606211860351563,0.0768059892578137,0.62094614239625,0.682670000000144,
-0.17022773803711,0.630153876953125,-0.0285388837890626,0.653365027625607,0.685683000000154,
-0.129526309814453,0.603817658691406,-0.00459686718749985,0.617571017025298,0.688684000000194,
-0.129526309814453,0.599029255371094,0.0313161577148442,0.613672400763321,0.691775000000234,
-0.177410343017578,0.613394465332031,0.0265277543945324,0.63908600490294,0.694726000000173,
-0.143891519775391,0.560722028808594,0.0432871660156255,0.580506452846272,0.697727000000214,
-0.110372696533203,0.634942280273438,0.0169509477539069,0.644686874419356,0.700658000000203,
-0.124737906494141,0.570298835449219,0.0361045610351578,0.58489644071307,0.703568000000359,
-0.139103116455078,0.572693037109375,0.0289219560546883,0.590053786788208,0.706594000000223,
-0.15107412475586,0.584664045410156,-0.0117794721679676,0.603981947686083,0.709508000000369,
-0.110372696533203,0.599029255371094,0.0073741411132815,0.609157253004195,0.712518000000273,
-0.139103116455078,0.630153876953125,0.0313161577148442,0.646083808325662,0.715468000000328,
-0.146285721435547,0.615788666992188,0.0217393510742188,0.63329913475155,0.718383000000358,
-0.11276689819336,0.611000263671875,-0.021356278808593,0.621686244161637,0.72138700000005,
-0.139103116455078,0.572693037109375,0.052863972656251,0.591710732846782,0.724347000000307,
-0.136708914794922,0.591846650390625,-0.00938527050781168,0.607502977989008,0.727356000000327,
-0.117555301513672,0.570298835449219,0.0265277543945324,0.582892556464673,0.730302000000393,
-0.141497318115235,0.622971271972656,0.00258573779296967,0.638843785895243,0.733212999999978,
-0.13192051147461,0.558327827148438,0.0552581743164069,0.576356183054195,0.736212000000251,
-0.117555301513672,0.634942280273438,-0.00459686718749985,0.645749238776743,0.739123000000291,
-0.158256729736328,0.618182868652344,0.0169509477539069,0.638343627078577,0.742122000000109,
-0.129526309814453,0.615788666992188,0.00976834277343741,0.62933946948424,0.745049000000108,
-0.117555301513672,0.579875642089844,0.0672291826171882,0.595478607674914,0.748034000000189,
-0.136708914794922,0.622971271972656,-0.0500866987304676,0.639758712701399,0.750938000000133,
-0.124737906494141,0.584664045410156,-0.0237504804687489,0.598293971751686,0.753846999999951,
-0.127132108154297,0.60142345703125,0.00258573779296967,0.614718987530977,0.756851000000097,
-0.136708914794922,0.594240852050781,0.0672291826171882,0.613458458761324,0.759782000000087,
-0.146285721435547,0.58226984375,0.0241335527343765,0.600849491640087,0.762772000000041,
-0.0960074865722658,0.622971271972656,0.0480755693359374,0.632156549873627,0.76570700000002,
-0.15107412475586,0.630153876953125,0.0361045610351578,0.649015284209351,0.768627000000379,
-0.172621939697266,0.60142345703125,0.0217393510742188,0.626083946541831,0.771631999999954,
-0.129526309814453,0.596635053710938,0.014556746093751,0.610706436111198,0.774558999999954,
-0.139103116455078,0.587058247070313,-0.0429040937499998,0.604837022445958,0.777543000000151,
-0.179804544677735,0.608606062011719,-0.0285388837890626,0.635252297038039,0.78047800000013,
-0.129526309814453,0.591846650390625,-0.0117794721679676,0.605968875832174,0.783374000000094,
-0.105584293212891,0.627759675292969,-0.0237504804687489,0.637019888401999,0.786359000000175,
-0.110372696533203,0.575087238769531,0.0169509477539069,0.585828301608355,0.789296000000377,
-0.117555301513672,0.63973068359375,-0.0117794721679676,0.650548501197146,0.792276000000129,
-0.139103116455078,0.608606062011719,0.105536409179688,0.633157918206406,0.795215999999982,
-0.127132108154297,0.567904633789063,0.0408929643554696,0.583395646655529,0.798126000000138,
-0.136708914794922,0.625365473632813,-0.00459686718749985,0.640150321552943,0.801107000000229,
-0.148679923095703,0.606211860351563,0.0073741411132815,0.624221849281011,0.804049000000305,
-0.110372696533203,0.589452448730469,0.0313161577148442,0.60051396585623,0.807042000000365,
-0.143891519775391,0.577481440429688,0.000191536132813752,0.595138320216493,0.809966000000259,
-0.15107412475586,0.63973068359375,-0.0189620771484371,0.657600409878111,0.812862000000223,
-0.15107412475586,0.606211860351563,0.0241335527343765,0.625218873011072,0.815863000000263,
-0.117555301513672,0.613394465332031,0.0241335527343765,0.625023557461254,0.81879600000002,
-0.146285721435547,0.627759675292969,0.0552581743164069,0.646942955791803,0.821866000000227,
-0.110372696533203,0.603817658691406,0.0169509477539069,0.614056375031917,0.824887000000217,
-0.155862528076172,0.565510432128906,0.0121625444335951,0.586722339775824,0.827883000000384,
-0.146285721435547,0.60142345703125,-0.0405098920898439,0.620282788992625,0.830924000000323,
-0.11276689819336,0.594240852050781,-0.00220266552734216,0.60484991139093,0.833843000000343,
-0.146285721435547,0.587058247070313,-0.0357214887695303,0.60606346409357,0.836819999999989,
-0.146285721435547,0.565510432128906,0.0193451494140628,0.584444861341421,0.83978100000013,
-0.155862528076172,0.584664045410156,0.0217393510742188,0.605473181106144,0.842792000000372,
-0.124737906494141,0.584664045410156,0.0073741411132815,0.597867852680732,0.84572100000014,
-0.0936132849121096,0.58226984375,0.014556746093751,0.589926704692645,0.848648000000139,
-0.107978494873047,0.589452448730469,-0.00699106884765577,0.599301609970328,0.85164500000019,
-0.165439334716797,0.591846650390625,0.00976834277343741,0.614612114728207,0.854600000000119,
-0.13192051147461,0.594240852050781,-0.0429040937499998,0.61021797159234,0.857605000000149,
-0.122343704833985,0.567904633789063,-0.0357214887695303,0.582030652072128,0.860533000000032,
-0.134314713134766,0.579875642089844,0.000191536132813752,0.595227888408862,0.86347300000034,
-0.134314713134766,0.579875642089844,0.0863827958984373,0.601463373681901,0.866488000000118,
-0.163045133056641,0.603817658691406,-0.00220266552734216,0.625447305611316,0.869407000000137,
-0.13192051147461,0.615788666992188,0.0073741411132815,0.629804002607872,0.87241800000038,
-0.182198746337891,0.644519086914063,-0.00220266552734216,0.66978062699593,0.875336000000061,
-0.141497318115235,0.611000263671875,0.0648349809570323,0.630512797646966,0.878257000000303,
-0.13192051147461,0.637336481933594,-0.00220266552734216,0.650849955278971,0.881238000000394,
-0.119949503173828,0.570298835449219,0.0361045610351578,0.583893983830905,0.884175000000141,
-0.134314713134766,0.565510432128906,0.0265277543945324,0.581847241777697,0.887175000000298,
-0.13192051147461,0.58226984375,-0.0548751020507812,0.599543550639531,0.890091000000211,
-0.0744596716308595,0.579875642089844,-0.0333272871093744,0.58558578453934,0.893008000000009,
-0.136708914794922,0.587058247070313,-0.00220266552734216,0.602769910142418,0.895991000000322,
-0.139103116455078,0.565510432128906,-0.00220266552734216,0.582371511656917,0.898906000000352,
-0.167833536376953,0.615788666992188,0.0313161577148442,0.639018372242012,0.90190500000017,
-0.141497318115235,0.596635053710938,0.0337103593750001,0.614110142140357,0.904833000000053,
-0.129526309814453,0.587058247070313,-0.021356278808593,0.601556764596633,0.90773100000024,
-0.115161099853516,0.608606062011719,0.0289219560546883,0.620080557007646,0.910733000000164,
-0.124737906494141,0.58226984375,-0.0285388837890626,0.596164561295886,0.913653999999951,
-0.103190091552735,0.606211860351563,0.0337103593750001,0.615855017804317,0.916666999999961,
-0.153468326416016,0.60142345703125,0.0768059892578137,0.62542934202532,0.919616000000133,
-0.143891519775391,0.575087238769531,0.014556746093751,0.592994098213189,0.922527000000173,
-0.115161099853516,0.589452448730469,-0.021356278808593,0.600976171639415,0.925516000000243,
-0.105584293212891,0.575087238769531,0.0576523759765628,0.587534825882324,0.928449000000001,
-0.119949503173828,0.60142345703125,0.000191536132813752,0.613268370833812,0.931448000000273,
-0.155862528076172,0.570298835449219,0.0624407792968764,0.594502094438894,0.934374000000389,
-0.139103116455078,0.587058247070313,0.014556746093751,0.603488990220717,0.937361000000237,
-0.124737906494141,0.618182868652344,-0.0500866987304676,0.632628075413587,0.940276000000267,
-0.124737906494141,0.594240852050781,0.0552581743164069,0.609700911424087,0.943202000000383,
-0.0792480749511721,0.575087238769531,0.0289219560546883,0.581241833595157,0.946200000000317,
-0.13192051147461,0.596635053710938,0.0696233842773442,0.614999044147718,0.949125999999978,
-0.139103116455078,0.611000263671875,0.00258573779296967,0.626639996532738,0.952111000000059,
-0.136708914794922,0.560722028808594,0.0600465776367187,0.580262106691031,0.955038000000059,
-0.119949503173828,0.637336481933594,-0.0165678754882812,0.64873736520516,0.957949999999983,
-0.122343704833985,0.570298835449219,0.014556746093751,0.583455776116818,0.961060000000089,
-0.122343704833985,0.584664045410156,-0.0333272871093744,0.598256413399761,0.964066000000003,
-0.115161099853516,0.565510432128906,0.0217393510742188,0.577526386541102,0.967158000000381,
-0.122343704833985,0.618182868652344,0.0504697709960951,0.632190824824391,0.970111000000088,
-0.11276689819336,0.577481440429688,0.00976834277343741,0.588469717053849,0.973021000000244,
-0.143891519775391,0.577481440429688,0.0456813676757815,0.596888909979695,0.976012000000082,
-0.0936132849121096,0.579875642089844,0.014556746093751,0.587563703999815,0.978946000000178,
-0.115161099853516,0.587058247070313,0.0193451494140628,0.598559687231434,0.981970000000274,
-0.153468326416016,0.596635053710938,0.0313161577148442,0.616852183479646,0.984898000000157,
-0.110372696533203,0.611000263671875,-0.021356278808593,0.621256424507354,0.987800000000334,
-0.146285721435547,0.58226984375,0.0193451494140628,0.600676217310475,0.990810000000238,
-0.115161099853516,0.646913288574219,0.0265277543945324,0.657618889332262,0.993750000000091,
-0.117555301513672,0.594240852050781,0.0576523759765628,0.608494236304463,0.996759000000111,
-0.11276689819336,0.589452448730469,-0.0141736738281235,0.600309466585597,0.999705000000176,
-0.182198746337891,0.594240852050781,-0.0117794721679676,0.621656922568786,1.00263800000039,
-0.129526309814453,0.613394465332031,-0.00459686718749985,0.626937769018631,1.00562800000034,
-0.13192051147461,0.565510432128906,0.00258573779296967,0.58069936820551,1.00857700000006,
