X,Y,Z,Magnitude,Seconds,
-0.179804544677735,0.567904633789063,0.0217393510742188,0.596085519662225,0.0,
-0.179804544677735,0.58226984375,0.0408929643554696,0.610770071107937,0.00378199999977369,
-0.218111771240235,0.60142345703125,-0.0405098920898439,0.641033517671349,0.00757100000009814,
-0.196563956298828,0.587058247070313,-0.0117794721679676,0.619203948900257,0.0114169999997102,
-0.177410343017578,0.572693037109375,0.0121625444335951,0.599666300579142,0.015186999999969,
-0.163045133056641,0.584664045410156,0.00497993945312558,0.606993048729377,0.0189199999995253,
-0.179804544677735,0.577481440429688,0.0744117875976578,0.609386250633367,0.0226529999999912,
-0.184592947998047,0.584664045410156,-0.0237504804687489,0.61357207218751,0.026361000000179,
-0.222900174560547,0.56311623046875,0.0384987626953137,0.606849677898511,0.0300919999999678,
-0.186987149658203,0.56311623046875,0.00976834277343741,0.593430285438124,0.0338940000001458,
-0.177410343017578,0.551145222167969,0.0217393510742188,0.57940321462115,0.0376409999998941,
-0.194169754638672,0.570298835449219,0.014556746093751,0.602623061447216,0.0413829999997688,
-0.191775552978516,0.587058247070313,0.00258573779296967,0.61759366432422,0.0452820000000429,
-0.172621939697266,0.579875642089844,-0.0285388837890626,0.605696757661687,0.0491649999994479,
-0.160650931396485,0.558327827148438,0.0313161577148442,0.581824188274151,0.0529520000000048,
-0.184592947998047,0.553539423828125,0.000191536132813752,0.583507058113844,0.056735000000117,
-0.198958157958985,0.567904633789063,-0.00699106884765577,0.601788082917196,0.0606149999994159,
-0.210929166259766,0.575087238769531,0.0432871660156255,0.614076724942631,0.0644409999995332,
-0.201352359619141,0.553539423828125,0.0361045610351578,0.59012897385547,0.0682529999994586,
-0.194169754638672,0.539174213867188,0.0648349809570323,0.576727232989253,0.0720289999999295,
-0.184592947998047,0.572693037109375,0.00976834277343741,0.601786749376147,0.0758150000001478,
-0.222900174560547,0.565510432128906,-0.00938527050781168,0.607926492240838,0.0795929999994769,
-0.17022773803711,0.565510432128906,0.0552581743164069,0.59315512091917,0.0834489999997459,
-0.20853496459961,0.539174213867188,-0.0189620771484371,0.5784074902088,0.0871809999998732,
-0.186987149658203,0.589452448730469,-0.0117794721679676,0.618512036597673,0.0909350000001723,
-0.213323367919922,0.615788666992188,0.0121625444335951,0.651805545530117,0.0946850000000268,
-0.179804544677735,0.572693037109375,-0.0548751020507812,0.602758878711389,0.0984060000000682,
-0.198958157958985,0.575087238769531,0.0408929643554696,0.609903201621187,0.102154000000155,
-0.191775552978516,0.575087238769531,0.0408929643554696,0.607598082164153,0.105889999999818,
-0.24684219116211,0.570298835449219,0.0073741411132815,0.621471002549278,0.109730999999556,
-0.256418997802735,0.575087238769531,-0.0500866987304676,0.631652366432232,0.113483999999517,
-0.220505972900391,0.572693037109375,0.0361045610351578,0.614738756030437,0.117480999999316,
-0.203746561279297,0.551145222167969,-0.00220266552734216,0.587604091959155,0.121306000000004,
-0.20853496459961,0.587058247070313,-0.021356278808593,0.623362099873243,0.125095999999758,
-0.218111771240235,0.58226984375,0.0480755693359374,0.623636253004246,0.128920000000107,
-0.194169754638672,0.579875642089844,-0.0237504804687489,0.61198181282457,0.132813999999598,
-0.218111771240235,0.575087238769531,-0.0165678754882812,0.615282513523106,0.136669999999867,
-0.172621939697266,0.577481440429688,0.014556746093751,0.602905504173275,0.140502000000197,
-0.222900174560547,0.608606062011719,0.0408929643554696,0.649429026969316,0.144295000000056,
-0.203746561279297,0.572693037109375,0.0265277543945324,0.608435450758677,0.148105000000214,
-0.191775552978516,0.553539423828125,0.0432871660156255,0.587415981391256,0.151904999999715,
-0.215717569580078,0.570298835449219,-0.0261446821289049,0.61029368007861,0.155719999999747,
-0.18938135131836,0.56311623046875,-0.021356278808593,0.594492452339853,0.159474999999475,
-0.163045133056641,0.575087238769531,-0.0285388837890626,0.598434219857912,0.163207999999941,
-0.198958157958985,0.56311623046875,-0.0237504804687489,0.597702537185733,0.166935999999623,
-0.175016141357422,0.606211860351563,-0.0452982954101557,0.632594186610665,0.170632999999725,
-0.198958157958985,0.560722028808594,0.00976834277343741,0.595053747765861,0.174368999999388,
-0.234871182861328,0.56311623046875,0.0217393510742188,0.610521875890735,0.178097999999409,
-0.206140762939453,0.599029255371094,0.0744117875976578,0.637861408982536,0.181947000000036,
-0.186987149658203,0.560722028808594,-0.0165678754882812,0.591310309589407,0.185790999999881,
-0.184592947998047,0.594240852050781,-0.0117794721679676,0.622362838432055,0.189752999999655,
-0.177410343017578,0.58226984375,-0.0333272871093744,0.609609144301769,0.193513999999595,
-0.177410343017578,0.560722028808594,0.0217393510742188,0.588520367350161,0.197285999999622,
-0.194169754638672,0.567904633789063,0.0313161577148442,0.600997727474532,0.201062000000093,
-0.213323367919922,0.596635053710938,0.00497993945312558,0.633644258566515,0.204931999999644,
-0.20853496459961,0.577481440429688,0.0504697709960951,0.61605100704869,0.208754999999655,
-0.215717569580078,0.6205770703125,-0.0189620771484371,0.657274318981782,0.212515999999596,
-0.165439334716797,0.56311623046875,-0.0381156904296862,0.588152079266751,0.216265000000021,
-0.194169754638672,0.555933625488281,0.00976834277343741,0.588947799117652,0.220053000000007,
-0.17022773803711,0.577481440429688,-0.0309330854492185,0.602842560386529,0.223782999999457,
-0.167833536376953,0.594240852050781,-0.0716345136718743,0.621628337294753,0.227511999999479,
-0.213323367919922,0.606211860351563,0.0121625444335951,0.642765592124143,0.23136599999998,
-0.177410343017578,0.591846650390625,0.0073741411132815,0.617908784000823,0.235133000000133,
-0.203746561279297,0.618182868652344,0.00976834277343741,0.650967081232929,0.238875999999436,
-0.20853496459961,0.577481440429688,0.0217393510742188,0.614364911828821,0.242612000000008,
-0.18938135131836,0.572693037109375,0.0361045610351578,0.604273241429959,0.246355999999651,
-0.225294376220703,0.594240852050781,0.00976834277343741,0.635590407985562,0.250082999999904,
-0.165439334716797,0.579875642089844,-0.00938527050781168,0.603087072538576,0.253872999999658,
-0.201352359619141,0.555933625488281,0.052863972656251,0.59363251955881,0.257850999999391,
-0.20853496459961,0.5439626171875,0.014556746093751,0.582746994170603,0.261714000000211,
-0.191775552978516,0.611000263671875,-0.0141736738281235,0.64054670240124,0.265467999999601,
-0.184592947998047,0.584664045410156,0.014556746093751,0.613285008216259,0.269272999999885,
-0.222900174560547,0.599029255371094,-0.0620577070312489,0.642161736334038,0.273041999999805,
-0.220505972900391,0.594240852050781,0.00497993945312558,0.633853196038123,0.276952999999594,
-0.218111771240235,0.596635053710938,-0.00699106884765577,0.635291277378998,0.280756999999539,
-0.175016141357422,0.603817658691406,-0.0141736738281235,0.628830110374017,0.284520000000157,
-0.177410343017578,0.591846650390625,0.0600465776367187,0.620775707380774,0.28830299999936,
-0.234871182861328,0.555933625488281,-0.00938527050781168,0.603584916801049,0.292075999999724,
-0.136708914794922,0.603817658691406,-0.0907881269531234,0.625721644445542,0.295828999999685,
-0.160650931396485,0.6971915234375,0.498185481445313,0.871821952026077,0.299584999999752,
-0.531752188720703,0.129765729980469,-0.466677787597655,0.719296665030267,0.3034889999999,
-0.220505972900391,0.402704719238281,-0.241622831542967,0.518821325414031,0.306427999999869,
0.157777889404297,0.996466730957031,0.0504697709960951,1.01014207222225,0.30937399999948,
-0.239659586181641,0.699585725097656,1.03927505664063,1.27551932457511,0.3123829999995,
-0.191775552978516,0.299754047851563,-0.890451481445313,0.958923455095225,0.315316999999595,
-0.289937821044922,0.649307490234375,-0.397245939453125,0.814535753272216,0.318331999999828,
-0.306697232666016,0.613394465332031,0.797460688964845,1.05178872073684,0.321274999999332,
-0.107978494873047,0.491290180664063,-0.212892411621093,0.546212940068084,0.324187999999594,
-0.222900174560547,0.71634513671875,-0.138672160156249,0.762931720878171,0.327199999999721,
-0.237265384521485,0.551145222167969,0.0792001909179696,0.605250847873962,0.330143999999564,
-0.13192051147461,0.452982954101563,-0.0237504804687489,0.472398839305091,0.333152999999584,
-0.182198746337891,0.661278498535156,0.088776997558595,0.691640796286287,0.336102999999639,
-0.24684219116211,0.611000263671875,-0.121912748535156,0.670160508982892,0.33901699999933,
-0.143891519775391,0.452982954101563,0.000191536132813752,0.475287663269246,0.342075999999906,
-0.301908829345703,0.575087238769531,0.0744117875976578,0.653767074397247,0.345124999999825,
-0.206140762939453,0.632548078613281,-0.0117794721679676,0.665394500929463,0.348234999999477,
-0.105584293212891,0.517626398925781,0.014556746093751,0.528485601218213,0.351273999999648,
-0.263601602783203,0.611000263671875,0.0839885942382814,0.670716938178169,0.354236999999557,
-0.201352359619141,0.567904633789063,-0.0524809003906235,0.604824512324935,0.357231999999385,
-0.127132108154297,0.515232197265625,0.000191536132813752,0.530685242595844,0.360163999999713,
-0.232476981201172,0.625365473632813,0.0720175859375001,0.6710544352619,0.363190000000031,
-0.225294376220703,0.587058247070313,-0.00459686718749985,0.628821176963597,0.366153999999369,
-0.175016141357422,0.606211860351563,0.014556746093751,0.631138153040506,0.369157999999516,
-0.201352359619141,0.606211860351563,-0.0476924970703116,0.640554577402972,0.372089999999844,
-0.141497318115235,0.565510432128906,0.000191536132813752,0.582943888008543,0.375043999999434,
-0.222900174560547,0.570298835449219,0.00976834277343741,0.612389312491977,0.378056999999899,
-0.270784207763672,0.615788666992188,-0.0117794721679676,0.672799023137497,0.381010999999489,
-0.210929166259766,0.584664045410156,0.014556746093751,0.621719436748802,0.384044999999787,
-0.232476981201172,0.575087238769531,-0.0141736738281235,0.620460935123042,0.386998999999378,
-0.218111771240235,0.627759675292969,-0.021356278808593,0.664914314270671,0.389933999999812,
-0.153468326416016,0.572693037109375,0.014556746093751,0.5930781911547,0.392947999999706,
-0.196563956298828,0.577481440429688,0.0313161577148442,0.610821499859505,0.395899000000099,
-0.203746561279297,0.60142345703125,0.0217393510742188,0.635370313506766,0.398916000000099,
-0.175016141357422,0.548751020507813,0.0552581743164069,0.578629240596074,0.401858999999604,
-0.177410343017578,0.570298835449219,0.0241335527343765,0.597743774448495,0.404778000000078,
-0.206140762939453,0.572693037109375,-0.0429040937499998,0.610173819627923,0.407790999999634,
-0.172621939697266,0.615788666992188,-0.0692403120117184,0.643263738499491,0.410713000000214,
-0.237265384521485,0.546356818847656,0.0408929643554696,0.597053490675029,0.413746000000174,
-0.218111771240235,0.560722028808594,0.0480755693359374,0.60356706231516,0.416690999999446,
-0.179804544677735,0.584664045410156,-0.00938527050781168,0.611759596234208,0.419605000000047,
-0.184592947998047,0.608606062011719,0.0408929643554696,0.637297520552057,0.422633000000133,
-0.222900174560547,0.560722028808594,0.0504697709960951,0.605508777140964,0.425576999999976,
-0.179804544677735,0.539174213867188,-0.0141736738281235,0.568541467454972,0.428589000000102,
-0.234871182861328,0.565510432128906,0.0241335527343765,0.612820487380183,0.431552000000011,
-0.191775552978516,0.579875642089844,0.0408929643554696,0.612132222271546,0.434481999999662,
-0.194169754638672,0.58226984375,-0.0141736738281235,0.613955175551829,0.437488999999914,
-0.177410343017578,0.594240852050781,0.0337103593750001,0.62107407640703,0.440458999999464,
-0.213323367919922,0.575087238769531,0.0241335527343765,0.613852278536005,0.44347899999957,
-0.182198746337891,0.591846650390625,-0.00459686718749985,0.619273745554937,0.446412999999666,
-0.177410343017578,0.572693037109375,-0.095576530273437,0.607113348315028,0.449337999999443,
-0.191775552978516,0.565510432128906,0.0265277543945324,0.597732074863023,0.45235700000012,
-0.148679923095703,0.611000263671875,0.0504697709960951,0.630851994942747,0.455299000000196,
-0.222900174560547,0.553539423828125,0.0313161577148442,0.597554251332141,0.458321000000069,
-0.165439334716797,0.591846650390625,0.0217393510742188,0.614918881182931,0.461253999999826,
-0.165439334716797,0.572693037109375,-0.0117794721679676,0.596226671820082,0.464232999999695,
-0.194169754638672,0.575087238769531,-0.0429040937499998,0.608496497173578,0.467171999999664,
-0.232476981201172,0.608606062011719,0.0600465776367187,0.654257194833733,0.47009799999978,
-0.201352359619141,0.567904633789063,0.0169509477539069,0.602781702138544,0.473113999999441,
-0.203746561279297,0.587058247070313,0.014556746093751,0.621580200411214,0.476048999999875,
-0.179804544677735,0.558327827148438,0.0121625444335951,0.586692052393896,0.479041999999936,
-0.163045133056641,0.575087238769531,-0.021356278808593,0.598134715807043,0.482046999999511,
-0.220505972900391,0.541568415527344,0.0337103593750001,0.585709502322386,0.485082000000148,
-0.179804544677735,0.560722028808594,0.014556746093751,0.589025268333058,0.488202999999885,
-0.158256729736328,0.591846650390625,0.0121625444335951,0.612760620122197,0.49121599999944,
-0.182198746337891,0.584664045410156,-0.0285388837890626,0.613060271955698,0.494219999999586,
-0.203746561279297,0.575087238769531,0.0408929643554696,0.611481993162906,0.497151999999915,
-0.210929166259766,0.558327827148438,0.0313161577148442,0.597663598926149,0.500068999999712,
-0.186987149658203,0.565510432128906,0.00976834277343741,0.595702663670779,0.503106000000116,
-0.163045133056641,0.608606062011719,-0.0524809003906235,0.632249396232753,0.506027999999787,
-0.244447989501953,0.603817658691406,0.014556746093751,0.651584594182487,0.509048999999322,
-0.182198746337891,0.548751020507813,0.0289219560546883,0.57893051847134,0.511980000000221,
-0.18938135131836,0.553539423828125,0.0792001909179696,0.590376032881234,0.514901999999893,
-0.198958157958985,0.553539423828125,-0.0620577070312489,0.591473922799967,0.517911999999342,
-0.210929166259766,0.587058247070313,-0.0165678754882812,0.624021628736139,0.520838999999796,
-0.213323367919922,0.565510432128906,-0.00938527050781168,0.604480761852539,0.523878999999397,
-0.191775552978516,0.589452448730469,-0.0452982954101557,0.621517487768146,0.52681500000017,
-0.198958157958985,0.577481440429688,-0.00699106884765577,0.610833887159849,0.529709999999795,
-0.234871182861328,0.5439626171875,0.0361045610351578,0.593602005356868,0.532737999999881,
-0.165439334716797,0.548751020507813,0.0193451494140628,0.573473705400478,0.535671999999977,
-0.196563956298828,0.5439626171875,-0.00699106884765577,0.578430283488819,0.538668000000143,
-0.191775552978516,0.575087238769531,-0.0405098920898439,0.607572420599314,0.541588999999476,
-0.198958157958985,0.565510432128906,-0.0620577070312489,0.602691925005662,0.544496999999865,
-0.194169754638672,0.577481440429688,0.0432871660156255,0.610786776542234,0.54750999999942,
-0.261207401123047,0.579875642089844,-0.0141736738281235,0.636149321873686,0.550424000000021,
-0.196563956298828,0.56311623046875,-0.00220266552734216,0.596441220631679,0.55344199999945,
-0.24684219116211,0.594240852050781,0.0169509477539069,0.643692933170394,0.55637200000001,
-0.203746561279297,0.615788666992188,-0.00220266552734216,0.648624078619179,0.559349000000111,
-0.24684219116211,0.555933625488281,-0.0165678754882812,0.60849630876814,0.562280000000101,
-0.191775552978516,0.572693037109375,0.0576523759765628,0.606695124366035,0.565190999999686,
-0.172621939697266,0.548751020507813,0.0193451494140628,0.575586875613981,0.568202999999812,
-0.20853496459961,0.613394465332031,-0.0189620771484371,0.648150570415789,0.571124000000054,
-0.182198746337891,0.579875642089844,0.0911711992187509,0.614625358265662,0.574114999999438,
-0.218111771240235,0.622971271972656,0.0696233842773442,0.66371180951902,0.577061999999387,
-0.234871182861328,0.56311623046875,0.0289219560546883,0.610819810662722,0.579987999999503,
-0.239659586181641,0.551145222167969,-0.0764229169921862,0.605836805921306,0.582988999999543,
-0.13192051147461,0.661278498535156,-0.0405098920898439,0.675524481665738,0.585908000000018,
-0.201352359619141,0.642124885253906,0.0384987626953137,0.674054371483197,0.588915999999699,
-0.24684219116211,0.520020600585938,0.0863827958984373,0.5820777265956,0.591838999999709,
-0.215717569580078,0.551145222167969,-0.258382243164062,0.645799124594179,0.594737999999779,
-0.263601602783203,0.615788666992188,0.0241335527343765,0.670271523901674,0.597753000000012,
-0.177410343017578,0.527203205566406,0.0696233842773442,0.560593493903863,0.600679000000127,
-0.172621939697266,0.618182868652344,-0.0141736738281235,0.641988540544045,0.603680000000168,
-0.210929166259766,0.608606062011719,0.0361045610351578,0.645132537719183,0.60661699999946,
-0.215717569580078,0.56311623046875,-0.00699106884765577,0.60306121902051,0.609524999999849,
-0.237265384521485,0.575087238769531,-0.0309330854492185,0.622878038353497,0.612532000000101,
-0.230082779541016,0.551145222167969,0.00497993945312558,0.597263711568731,0.615461999999752,
-0.172621939697266,0.572693037109375,0.014556746093751,0.598320606092791,0.618500999999924,
-0.239659586181641,0.56311623046875,-0.0141736738281235,0.612158067247239,0.621527999999671,
-0.163045133056641,0.622971271972656,0.0480755693359374,0.645746220649925,0.62456099999963,
-0.160650931396485,0.577481440429688,-0.0117794721679676,0.599526723144065,0.627663999999641,
-0.163045133056641,0.596635053710938,0.0432871660156255,0.620024903912557,0.630642999999509,
-0.239659586181641,0.560722028808594,0.0289219560546883,0.610477182523647,0.633644999999888,
-0.184592947998047,0.603817658691406,-0.0165678754882812,0.631620784883126,0.636560999999347,
-0.201352359619141,0.579875642089844,-0.0381156904296862,0.615021413342849,0.639495999999781,
-0.191775552978516,0.591846650390625,0.00258573779296967,0.622147093812028,0.642527999999402,
-0.165439334716797,0.575087238769531,0.000191536132813752,0.598410847456152,0.645457999999962,
-0.20853496459961,0.589452448730469,-0.0524809003906235,0.627451405035256,0.648470999999518,
-0.194169754638672,0.603817658691406,-0.0285388837890626,0.634911116969879,0.651404999999613,
-0.203746561279297,0.60142345703125,-0.0141736738281235,0.635156460197284,0.654373999999734,
-0.261207401123047,0.613394465332031,0.0337103593750001,0.667546601242652,0.657350999999835,
-0.191775552978516,0.570298835449219,0.0169509477539069,0.601918565143746,0.660288000000037,
-0.203746561279297,0.579875642089844,0.00258573779296967,0.614634124957426,0.663337999999385,
-0.222900174560547,0.618182868652344,0.0432871660156255,0.658565354126701,0.666282000000137,
-0.244447989501953,0.560722028808594,-0.0141736738281235,0.611853664034595,0.6692579999999,
-0.184592947998047,0.577481440429688,0.0672291826171882,0.609982896060809,0.672206999999617,
-0.194169754638672,0.599029255371094,0.0193451494140628,0.63000966438043,0.675124999999753,
-0.210929166259766,0.558327827148438,0.0600465776367187,0.599855538636777,0.678143000000091,
-0.194169754638672,0.587058247070313,0.00258573779296967,0.618341301474877,0.681067999999868,
-0.196563956298828,0.567904633789063,-0.0429040937499998,0.602489687260658,0.684056999999484,
-0.239659586181641,0.572693037109375,0.0169509477539069,0.621048602471716,0.687007999999878,
-0.194169754638672,0.584664045410156,0.0193451494140628,0.616366915414564,0.689926999999443,
-0.220505972900391,0.622971271972656,0.00976834277343741,0.660917173561496,0.692946999999549,
-0.177410343017578,0.58226984375,0.0193451494140628,0.60900479107813,0.695871999999326,
-0.213323367919922,0.555933625488281,0.00258573779296967,0.595462627953407,0.69888600000013,
-0.198958157958985,0.587058247070313,0.0480755693359374,0.621717777161531,0.701811999999336,
-0.177410343017578,0.565510432128906,0.00976834277343741,0.592766310764011,0.704729999999472,
-0.198958157958985,0.565510432128906,-0.0620577070312489,0.602691925005662,0.707731999999851,
-0.198958157958985,0.572693037109375,-0.0189620771484371,0.606565102640908,0.710645999999542,
-0.186987149658203,0.551145222167969,-0.0357214887695303,0.583096282629027,0.713641999999709,
-0.222900174560547,0.548751020507813,0.0241335527343765,0.592785457560382,0.716598999999405,
-0.210929166259766,0.579875642089844,0.0408929643554696,0.618400443080312,0.719524000000092,
-0.203746561279297,0.60142345703125,-0.0309330854492185,0.635751281301082,0.722525000000132,
-0.18938135131836,0.560722028808594,-0.0740287153320303,0.59645179227839,0.725454999999783,
-0.20853496459961,0.575087238769531,-0.0333272871093744,0.612636002633044,0.728454999999485,
-0.20853496459961,0.52480900390625,-0.0357214887695303,0.565850993461655,0.731372000000192,
-0.203746561279297,0.58226984375,-0.0117794721679676,0.617000476611116,0.734278999999333,
-0.167833536376953,0.541568415527344,-0.0189620771484371,0.567295341951064,0.737270999999964,
-0.218111771240235,0.606211860351563,-0.0476924970703116,0.646018682904184,0.740182999999888,
-0.191775552978516,0.570298835449219,-0.0309330854492185,0.602474464363727,0.743183999999928,
-0.239659586181641,0.527203205566406,-0.021356278808593,0.579513613172978,0.746100999999726,
-0.184592947998047,0.58226984375,0.0289219560546883,0.611513864874124,0.749097999999321,
-0.172621939697266,0.584664045410156,-0.0524809003906235,0.611869777784478,0.752018999999564,
-0.191775552978516,0.58226984375,0.00258573779296967,0.613043815482058,0.754942999999912,
-0.186987149658203,0.553539423828125,0.000191536132813752,0.584268880358489,0.758014999999432,
-0.191775552978516,0.575087238769531,-0.00220266552734216,0.606224419378834,0.761034000000109,
-0.22768857788086,0.56311623046875,-0.0333272871093744,0.60831955876892,0.764126999999462,
-0.17022773803711,0.58226984375,0.0337103593750001,0.607578836092134,0.767148999999336,
-0.198958157958985,0.570298835449219,0.0217393510742188,0.604398634775341,0.77006799999981,
-0.210929166259766,0.56311623046875,0.0504697709960951,0.603438646409701,0.773078999999598,
-0.218111771240235,0.546356818847656,-0.0237504804687489,0.588763622838045,0.775994999999966,
-0.196563956298828,0.611000263671875,0.014556746093751,0.642005147938696,0.779023000000052,
-0.230082779541016,0.5439626171875,-0.0189620771484371,0.590925523825615,0.781954000000042,
-0.222900174560547,0.558327827148438,-0.0261446821289049,0.601745789175994,0.784867999999733,
-0.158256729736328,0.579875642089844,-0.0812113203124998,0.606544500711073,0.787859999999455,
-0.175016141357422,0.589452448730469,0.0648349809570323,0.618294762880688,0.790799999999763,
-0.194169754638672,0.611000263671875,0.0768059892578137,0.645695265438283,0.793824999999742,
-0.194169754638672,0.603817658691406,0.0480755693359374,0.636088766549912,0.796757000000071,
-0.210929166259766,0.546356818847656,0.0121625444335951,0.58578563841005,0.799705999999787,
-0.201352359619141,0.58226984375,0.0289219560546883,0.616779882297465,0.802748999999494,
-0.160650931396485,0.572693037109375,0.0337103593750001,0.595753661206802,0.805675999999949,
-0.194169754638672,0.56311623046875,0.0959596025390628,0.603332435688014,0.808696000000054,
-0.225294376220703,0.584664045410156,-0.0165678754882812,0.626788717551808,0.811608999999407,
-0.194169754638672,0.596635053710938,-0.0165678754882812,0.627654184588369,0.814520999999331,
-0.177410343017578,0.577481440429688,0.0073741411132815,0.604163572062666,0.817535999999564,
-0.172621939697266,0.60142345703125,-0.0165678754882812,0.625925717022764,0.820455999999467,
-0.206140762939453,0.579875642089844,-0.0572693037109371,0.618085388584704,0.82345499999974,
-0.184592947998047,0.534385810546875,0.0576523759765628,0.568301458224588,0.826383999999962,
-0.225294376220703,0.551145222167969,-0.0117794721679676,0.595531164457253,0.829303999999865,
-0.191775552978516,0.546356818847656,0.00497993945312558,0.579058231975423,0.832320999999865,
-0.198958157958985,0.565510432128906,-0.0476924970703116,0.601382550247225,0.835232999999789,
-0.225294376220703,0.577481440429688,0.0169509477539069,0.620104591683676,0.838252999999895,
-0.201352359619141,0.565510432128906,0.0456813676757815,0.602022930562905,0.841176999999334,
-0.186987149658203,0.560722028808594,0.0193451494140628,0.591394641956095,0.844167999999627,
-0.191775552978516,0.572693037109375,0.0265277543945324,0.604531967084448,0.847107999999935,
-0.198958157958985,0.572693037109375,-0.021356278808593,0.606644668662424,0.850002000000131,
-0.22768857788086,0.567904633789063,0.0241335527343765,0.612323599042271,0.853032999999414,
-0.177410343017578,0.577481440429688,-0.0261446821289049,0.604684040019234,0.855955999999424,
-0.206140762939453,0.558327827148438,0.0193451494140628,0.59548149553064,0.858954999999696,
-0.196563956298828,0.553539423828125,0.00497993945312558,0.587424958990318,0.861893999999666,
-0.203746561279297,0.567904633789063,-0.00699106884765577,0.603388108397788,0.864791999999397,
-0.143891519775391,0.587058247070313,-0.00459686718749985,0.604452881624763,0.867793999999776,
-0.194169754638672,0.560722028808594,-0.0261446821289049,0.593965177103245,0.870708999999806,
-0.225294376220703,0.587058247070313,0.00497993945312558,0.628824094009526,0.873727999999574,
-0.225294376220703,0.551145222167969,-0.0500866987304676,0.59751760582009,0.876643999999942,
-0.210929166259766,0.603817658691406,-0.0285388837890626,0.640235383288472,0.879559999999401,
-0.201352359619141,0.555933625488281,0.0600465776367187,0.594315202698554,0.882576999999401,
-0.184592947998047,0.589452448730469,0.0384987626953137,0.618878744580896,0.88550799999939,
-0.198958157958985,0.579875642089844,-0.0524809003906235,0.615300214377788,0.888508000000002,
-0.210929166259766,0.58226984375,-0.0261446821289049,0.619849036881813,0.891432999999779,
-0.198958157958985,0.575087238769531,-0.0237504804687489,0.608994060838439,0.894349999999577,
-0.191775552978516,0.567904633789063,0.052863972656251,0.601737596801384,0.897476999999526,
-0.20853496459961,0.596635053710938,-0.0237504804687489,0.632474745819713,0.900504000000183,
-0.215717569580078,0.591846650390625,-0.0429040937499998,0.631393133209926,0.903609999999389,
-0.175016141357422,0.56311623046875,0.0792001909179696,0.594981687948813,0.906584999999723,
-0.215717569580078,0.551145222167969,-0.00699106884765577,0.591898640636848,0.909491999999773,
-0.191775552978516,0.611000263671875,-0.00459686718749985,0.640406367953393,0.912499999999454,
-0.201352359619141,0.558327827148438,0.0073741411132815,0.593571489586259,0.915450999999848,
-0.167833536376953,0.560722028808594,0.0792001909179696,0.590635217173394,0.918483999999808,
-0.215717569580078,0.565510432128906,-0.0165678754882812,0.605483784399181,0.921401999999944,
-0.179804544677735,0.551145222167969,-0.0141736738281235,0.579906564228353,0.924309999999423,
-0.167833536376953,0.608606062011719,0.0983538041992187,0.638938890231816,0.927334999999402,
-0.196563956298828,0.58226984375,-0.0189620771484371,0.614845606820347,0.930239999999685,
-0.198958157958985,0.560722028808594,-0.0476924970703116,0.596881995445046,0.933277000000089,
-0.222900174560547,0.570298835449219,0.0432871660156255,0.613839578616043,0.936213999999381,
-0.218111771240235,0.603817658691406,-0.0237504804687489,0.642442678395217,0.939228999999614,
-0.198958157958985,0.594240852050781,-0.00459686718749985,0.626679878448646,0.942162999999709,
-0.218111771240235,0.553539423828125,0.00258573779296967,0.594966658330918,0.945074999999633,
-0.186987149658203,0.579875642089844,-0.0405098920898439,0.610623456627355,0.948085999999421,
-0.18938135131836,0.558327827148438,-0.00459686718749985,0.589590018558153,0.951003999999557,
-0.239659586181641,0.577481440429688,0.0169509477539069,0.625466918325228,0.953993000000082,
-0.198958157958985,0.589452448730469,-0.0572693037109371,0.624754600687593,0.956916000000092,
-0.182198746337891,0.587058247070313,0.0217393510742188,0.615066149292493,0.959844999999405,
-0.198958157958985,0.548751020507813,-0.0141736738281235,0.583877490708953,0.962842999999339,
-0.198958157958985,0.611000263671875,-0.0141736738281235,0.642733664790727,0.965757999999369,
-0.198958157958985,0.579875642089844,0.0265277543945324,0.613631673449764,0.968781999999919,
-0.182198746337891,0.56311623046875,0.0768059892578137,0.596821105667607,0.971713999999338,
-0.167833536376953,0.570298835449219,0.0241335527343765,0.594971668245734,0.974631000000045,
-0.215717569580078,0.589452448730469,0.052863972656251,0.629907023889147,0.977638999999726,
-0.230082779541016,0.570298835449219,0.0624407792968764,0.618124338685394,0.980571999999484,
-0.182198746337891,0.56311623046875,0.0265277543945324,0.592452524627628,0.983588999999483,
-0.172621939697266,0.599029255371094,0.0552581743164069,0.625849701353349,0.986517999999705,
-0.191775552978516,0.565510432128906,-0.0452982954101557,0.598858787306243,0.9894290000002,
-0.196563956298828,0.613394465332031,0.00976834277343741,0.644193743788587,0.992463999999927,
-0.18938135131836,0.599029255371094,0.00497993945312558,0.628272349236039,0.995393000000149,
-0.184592947998047,0.587058247070313,0.00497993945312558,0.615415909528536,0.998402999999598,
-0.220505972900391,0.596635053710938,0.0648349809570323,0.639374574218509,1.00133800000003,
-0.225294376220703,0.589452448730469,-0.0309330854492185,0.631797911555927,1.00424699999985,
-0.22768857788086,0.558327827148438,-0.0117794721679676,0.603084411198184,1.00724600000012,
-0.167833536376953,0.575087238769531,0.0408929643554696,0.600471200526833,1.01018000000022,
