X,Y,Z,Magnitude,Seconds,
0.00296881005859373,0.024899697265625,0.0368228215331996,0.0445502967751018,0.0,
-0.0209732065429687,0.00335188232421871,0.00569819995116916,0.0219904522575808,0.00370399999999904,
0.0293050283203125,0.015322890625,-0.00866701000976811,0.034186148137359,0.00741399999999715,
0.0269108266601562,-0.00861912597656254,-0.0254264216308631,0.0380129562265716,0.0111069999999955,
-0.00181959326171877,-0.00143652099609379,0.0440054265136691,0.044066450672368,0.0148529999999951,
0.00296881005859373,0.0105344873046874,0.0152750065917946,0.0187913565853026,0.018581999999995,
0.024516625,-0.0205901342773438,0.0511880314941369,0.0603757658269808,0.0223019999999963,
-0.0185790048828125,-0.013407529296875,-0.00627280834961219,0.0237547761276148,0.0262189999999975,
0.014939818359375,0.00095768066406246,0.0559764348144505,0.0579437363258692,0.0300419999999946,
0.0316992299804688,-0.0253785375976563,0.0727358464355436,0.0833031494521383,0.0337939999999932,
0.0364876333007813,0.00095768066406246,-0.0254264216308631,0.0444833390506718,0.0375919999999965,
-0.0185790048828125,0.0296881005859375,-0.00387860668945628,0.0352364346761673,0.041485999999999,
0.0101514150390625,0.0201112939453125,0.0751300480956996,0.0784349379952085,0.0453319999999948,
-0.0185790048828125,-0.00383072265625004,-0.0541568415527376,0.0573830754271066,0.0490870000000001,
-0.00181959326171877,0.00335188232421871,0.0942836613769504,0.0943607695888337,0.052861,
-0.0137906015625,0.044053310546875,0.0296402165527319,0.0548581561747009,0.0566699999999969,
0.00536301171874998,0.00335188232421871,0.0224576115722623,0.0233311235764905,0.0604569999999995,
0.00296881005859373,-0.0397437475585938,0.0368228215331996,0.0542613996210115,0.0642759999999996,
0.00775721337890622,-0.0110133276367188,0.0416112248535132,0.0437374185206355,0.0680279999999982,
0.0388818349609375,0.00095768066406246,0.0871010563964809,0.0953902944096875,0.0717739999999978,
-0.0353384165039063,0.0081402856445312,-0.0397916315918003,0.0538371793105441,0.0754589999999951,
-0.0209732065429687,0.0272938989257812,-0.00387860668945628,0.0346392248919672,0.0791609999999991,
0.0101514150390625,0.00574608398437496,-0.0469742365722681,0.0484009050535029,0.0828469999999939,
-0.0113963999023438,0.0296881005859375,-0.0254264216308631,0.0407156501125219,0.0865969999999976,
-0.0640688364257813,0.0272938989257812,0.0176692082519505,0.0718468763397204,0.0903129999999948,
-0.0161848032226563,0.00335188232421871,-0.0326090266113308,0.0365586048285488,0.0941069999999939,
0.0293050283203125,-0.00383072265625004,-0.0206380183105495,0.0360470098719714,0.0980439999999945,
-0.00181959326171877,-0.0205901342773438,0.0535822331542946,0.0574310043356228,0.101793999999998,
-0.0185790048828125,-0.0445321508789063,0.00569819995116916,0.048587666820097,0.105528999999997,
0.0101514150390625,0.0129286889648437,-0.00866701000976811,0.0185827685815218,0.109310999999998,
-0.0137906015625,0.044053310546875,0.0344286198730437,0.0575864977920829,0.113222999999998,
-0.0353384165039063,0.0105344873046874,0.0272460148925759,0.0458489305360839,0.117035999999999,
0.00775721337890622,-0.0229843359375,-0.049368438232424,0.055006333738965,0.120762999999997,
0.00536301171874998,0.00095768066406246,-0.00148440502930036,0.00564645953149236,0.124522999999996,
0.0125456166992187,-0.0110133276367188,0.010486603271481,0.0197143280933149,0.12829,
-0.00181959326171877,-0.00143652099609379,-0.0373974299316444,0.0374692177353967,0.131999999999998,
0.0101514150390625,0.063206923828125,0.00809240161132507,0.0645263776369685,0.135784999999998,
0.014939818359375,0.00095768066406246,-0.0445800349121122,0.0470265333363047,0.139500999999996,
0.0101514150390625,0.03447650390625,0.0440054265136691,0.056816882275807,0.143225999999999,
-0.00421379492187501,0.0129286889648437,-0.0182438166503935,0.0227539867268676,0.146896999999996,
0.014939818359375,0.0201112939453125,0.0152750065917946,0.0293425994612824,0.150601999999999,
0.034093431640625,0.015322890625,0.046399628173825,0.0595825356359471,0.154305999999998,
-0.00660799658203126,0.0201112939453125,0.084706854736325,0.0873119751368835,0.157981999999997,
-0.00421379492187501,-0.00383072265625004,0.0440054265136691,0.0443723795436154,0.161764999999995,
0.014939818359375,0.00095768066406246,0.0368228215331996,0.039749660508378,0.165687999999996,
0.0221224233398437,-0.0541089575195313,0.00330399829101324,0.0585499556189817,0.169516999999999,
-0.0257616098632813,0.0081402856445312,0.0535822331542946,0.0600081703014153,0.173246999999996,
0.014939818359375,0.0105344873046874,0.0248518132324183,0.0308510326621774,0.177007999999994,
0.0125456166992187,-0.0181959326171875,-0.0469742365722681,0.0519139996891046,0.180701999999997,
-0.023367408203125,0.0081402856445312,-0.00387860668945628,0.0250468282694143,0.184550999999999,
0.014939818359375,-0.0110133276367188,-0.0134554133300817,0.0229246528027836,0.188336999999997,
-0.0281558115234375,-0.0062249243164063,-0.011061211669924,0.0308844590189822,0.192043999999996,
-0.0185790048828125,0.0081402856445312,0.0703416447753877,0.0732078592947298,0.195774999999998,
0.00536301171874998,0.00574608398437496,0.0368228215331996,0.0376523513411421,0.199565,
-0.00900219824218751,0.00574608398437496,0.0440054265136691,0.0452828291629075,0.203291,
-0.0161848032226563,-0.0373495458984375,0.0703416447753877,0.0812704338851616,0.207070999999999,
-0.00181959326171877,-0.00861912597656254,0.0272460148925759,0.0286346918922558,0.210794,
-0.0688572397460938,-0.0062249243164063,0.0200634099121064,0.0719903435572941,0.214504999999996,
-0.03294421484375,0.0201112939453125,0.00569819995116916,0.0390160853816657,0.218213999999996,
-0.0281558115234375,0.0201112939453125,-0.00627280834961219,0.0351647833960209,0.221884999999993,
-0.023367408203125,-0.0181959326171875,-0.0254264216308631,0.0390337116719782,0.225537999999993,
-0.03294421484375,-0.0229843359375,-0.00627280834961219,0.0406564769102044,0.229220999999995,
0.024516625,0.0201112939453125,0.00569819995116916,0.0322179845463506,0.232985999999997,
0.024516625,0.024899697265625,-0.0158496149902376,0.0383701722780751,0.236939999999997,
-0.0161848032226563,-0.0205901342773438,0.0559764348144505,0.0618001839758716,0.240723999999993,
0.0293050283203125,0.0225054956054687,0.00809240161132507,0.0378255070176338,0.244506999999999,
0.0125456166992187,0.024899697265625,-0.0206380183105495,0.0346888342564299,0.248269999999998,
-0.0161848032226563,0.0129286889648437,-0.0134554133300817,0.0247011538513713,0.252146999999994,
0.0173340200195312,0.0177170922851562,-0.0182438166503935,0.0307766218914849,0.256019999999999,
0.000574608398437482,-0.00383072265625004,-0.011061211669924,0.011719855565984,0.259785999999998,
-0.0305500131835938,0.0201112939453125,-0.00148440502930036,0.0366056130663527,0.263542999999999,
-0.0113963999023438,-0.0110133276367188,-0.00387860668945628,0.0163160934729901,0.267290999999993,
-0.0113963999023438,-0.0181959326171875,0.00569819995116916,0.0222134953851679,0.271070999999999,
-0.00421379492187501,0.0129286889648437,0.0416112248535132,0.0437767186961623,0.274812999999995,
-0.080828248046875,-0.0541089575195313,0.0368228215331996,0.104004351600515,0.27863,
-0.0449152231445313,0.00574608398437496,0.0272460148925759,0.0528463818894444,0.282379999999996,
0.034093431640625,0.0320823022460937,0.0344286198730437,0.0581116689211919,0.286106999999994,
0.0173340200195312,0.024899697265625,0.0655532414550759,0.0722335838736025,0.289807999999994,
-0.231662952636719,-0.0110133276367188,0.046399628173825,0.236520490665535,0.293473999999996,
0.323791832519531,-0.0158017309570313,-0.0589452448730494,0.329492621162809,0.297149999999995,
0.091554271484375,0.0177170922851562,0.0727358464355436,0.118264886347429,0.300546999999995,
-0.14786589453125,0.00335188232421871,-0.0182438166503935,0.149024812452878,0.303516999999999,
-0.123923877929688,0.0105344873046874,0.0200634099121064,0.125978741703535,0.306541999999993,
0.0963426748046875,-0.0181959326171875,0.048793829833981,0.109516395038362,0.309652,
0.072400658203125,-0.00383072265625004,0.0152750065917946,0.0740935595763505,0.312688999999999,
0.00296881005859373,-0.032561142578125,0.0176692082519505,0.0371650744571808,0.315711999999998,
-0.143077491210938,-0.00861912597656254,-0.0589452448730494,0.154983869215346,0.318625999999995,
-0.00181959326171877,0.063206923828125,0.0248518132324183,0.0679414362549945,0.321567999999999,
0.0747948598632812,0.0225054956054687,-0.0158496149902376,0.079699301689252,0.324605999999996,
0.0652180532226562,-0.0541089575195313,-0.0134554133300817,0.0858033909463198,0.327546999999996,
-0.0784340463867188,0.00095768066406246,0.0440054265136691,0.089940504487679,0.330570999999999,
0.014939818359375,0.0703895288085937,-0.0302148249511749,0.0780437030473126,0.333521999999995,
0.0484586416015625,0.024899697265625,-0.0373974299316444,0.0660817874703818,0.336479999999995,
0.0700064565429687,-0.0660799658203126,0.0440054265136691,0.105848681631687,0.339509,
-0.0113963999023438,-0.0397437475585938,-0.0158496149902376,0.0442792693715031,0.342447999999997,
-0.0592804331054688,-0.013407529296875,0.00569819995116916,0.0610442550425675,0.345472999999998,
0.0101514150390625,0.0105344873046874,0.0344286198730437,0.0374079739685333,0.348458999999998,
-0.0281558115234375,-0.00861912597656254,-0.011061211669924,0.0314545618114457,0.351332999999997,
0.0125456166992187,0.015322890625,0.010486603271481,0.0224087555130325,0.354358999999995,
0.0316992299804688,0.03447650390625,0.0416112248535132,0.0626495374026174,0.357323999999998,
0.053247044921875,-0.0205901342773438,0.00569819995116916,0.0573730851981548,0.360332999999997,
-0.07125144140625,-0.0301669409179688,0.0392170231933573,0.086745530922145,0.363253999999998,
0.0484586416015625,-0.0684741674804688,-0.0445800349121122,0.0949964792546393,0.366247999999999,
0.014939818359375,-0.121146604003906,-0.00387860668945628,0.122125924455629,0.369190999999994,
-0.0353384165039063,0.00574608398437496,-0.0302148249511749,0.0468482316527442,0.372097999999994,
-0.135894886230469,0.161369191894531,0.048793829833981,0.216537003826491,0.375117999999993,
-0.0904050546875,0.147003981933594,0.0535822331542946,0.180705009136945,0.378064999999999,
0.0269108266601562,-0.0158017309570313,0.048793829833981,0.0579199889730554,0.381060999999995,
0.0843716665039063,-0.11875240234375,-0.0373974299316444,0.150397070904159,0.383996999999994,
-0.00900219824218751,-0.0110133276367188,-0.0158496149902376,0.0212965549834738,0.386875999999994,
-0.0688572397460938,0.0320823022460937,-0.0206380183105495,0.0787179863985819,0.389885999999997,
-0.0161848032226563,0.0225054956054687,0.00330399829101324,0.0279170484204705,0.392844999999994,
0.0484586416015625,-0.0397437475585938,0.0440054265136691,0.0765786065328943,0.395857999999997,
0.0316992299804688,-0.0588973608398438,0.010486603271481,0.0677030955232244,0.398800999999999,
-0.00181959326171877,-0.0181959326171875,0.0152750065917946,0.0238270583544568,0.401708999999997,
-0.00421379492187501,0.0464475122070312,0.0344286198730437,0.0579694516467809,0.404727999999999,
0.0173340200195312,0.0201112939453125,0.0535822331542946,0.0597995660853275,0.407699999999998,
0.024516625,-0.0660799658203126,0.0248518132324183,0.0747344592884922,0.410712999999994,
0.0388818349609375,-0.013407529296875,0.0128808049316369,0.0430984230275659,0.413671999999998,
-0.0113963999023438,0.0177170922851562,0.0152750065917946,0.0260211282644364,0.416601999999997,
-0.00421379492187501,0.03447650390625,0.0176692082519505,0.0389690429635125,0.419619999999995,
0.00296881005859373,0.0129286889648437,-0.0302148249511749,0.0329984920616658,0.422573999999997,
0.0364876333007813,-0.0062249243164063,0.0152750065917946,0.0400427633039559,0.425593999999997,
0.0293050283203125,-0.00383072265625004,0.0152750065917946,0.0332683775874748,0.428539999999998,
-0.03294421484375,0.0105344873046874,0.0368228215331996,0.0505194705050404,0.431464999999996,
-0.0568862314453125,0.0272938989257812,0.00809240161132507,0.0636120052384721,0.434476999999994,
0.0125456166992187,-0.0253785375976563,0.0655532414550759,0.0714051128017235,0.437422999999995,
-0.0185790048828125,0.00574608398437496,-0.027820623291019,0.0339438357274461,0.440418999999999,
0.000574608398437482,0.0296881005859375,-0.049368438232424,0.0576103826121729,0.443466999999998,
-0.00181959326171877,0.0201112939453125,0.0272460148925759,0.033913424942334,0.446498999999996,
0.014939818359375,-0.0373495458984375,0.048793829833981,0.0632378413712715,0.449597999999995,
0.00775721337890622,-0.00861912597656254,0.0200634099121064,0.0231733491171852,0.452601999999999,
-0.00421379492187501,0.0081402856445312,0.0272460148925759,0.0287465762403917,0.455615999999999,
-0.0257616098632813,0.00095768066406246,-0.0230322199707054,0.03456965217906,0.458549999999995,
0.00296881005859373,0.0105344873046874,-0.0445800349121122,0.0459039079894269,0.461580999999995,
0.014939818359375,-0.00143652099609379,-0.00387860668945628,0.0155017855434408,0.464534999999998,
0.0388818349609375,-0.013407529296875,-0.00148440502930036,0.0411553446112064,0.467451999999994,
0.0173340200195312,0.0177170922851562,0.00330399829101324,0.0250055996485841,0.470479999999995,
0.0125456166992187,0.0272938989257812,0.0655532414550759,0.0721080916555275,0.473447,
-0.00181959326171877,0.0272938989257812,-0.00148440502930036,0.0273947311813762,0.476416999999998,
0.00536301171874998,0.0464475122070312,0.0392170231933573,0.0610254716742615,0.479410999999999,
0.024516625,0.0416591088867187,0.0320344182128878,0.0579892249031172,0.482348999999999,
0.024516625,-0.00861912597656254,0.0535822331542946,0.0595517417360035,0.485381999999994,
-0.0353384165039063,0.0464475122070312,0.046399628173825,0.0745593761098837,0.488336999999994,
-0.138289087890625,0.063206923828125,0.0344286198730437,0.15589841858017,0.491354999999999,
0.134649901367188,-0.0684741674804688,-0.0326090266113308,0.154540144191971,0.494296999999996,
0.206475951171875,-0.0181959326171875,0.0296402165527319,0.209384700523779,0.497235999999994,
-0.042521021484375,-0.00861912597656254,0.0655532414550759,0.078610139714556,0.500224999999993,
-0.231662952636719,0.0608127221679687,-0.0373974299316444,0.242413858034836,0.503159999999994,
-0.099981861328125,0.0272938989257812,0.0128808049316369,0.104437754901635,0.506186,
0.134649901367188,-0.032561142578125,0.00809240161132507,0.138767110325269,0.509120999999993,
0.115496288085937,-0.032561142578125,-0.0757046564941444,0.14188310534563,0.512041999999994,
-0.188567322753906,-0.0158017309570313,-0.0134554133300817,0.189706030636081,0.515029999999996,
-0.176596314453125,0.0584185205078125,-0.0254264216308631,0.1877378084822,0.517964999999997,
0.0747948598632812,0.00095768066406246,-0.00866701000976811,0.0753014294468015,0.520990999999995,
0.127467296386719,-0.0493205541992188,0.0559764348144505,0.147694921947893,0.523943999999993,
-0.102376062988281,-0.04213794921875,0.0655532414550759,0.128661153821229,0.526845999999999,
-0.155048499511719,-0.0181959326171875,0.00569819995116916,0.15621651208284,0.529840999999998,
-0.0257616098632813,0.024899697265625,0.046399628173825,0.0586223588858117,0.532781,
0.110707884765625,0.0177170922851562,0.00569819995116916,0.112261304958579,0.535801999999997,
0.0388818349609375,-0.0373495458984375,0.106254669677732,0.119150495160838,0.538760999999994,
-0.0568862314453125,0.00095768066406246,-0.0182438166503935,0.0597477809318234,0.541684999999994,
-0.0832224497070313,0.0512359155273437,-0.0373974299316444,0.104640637138048,0.544688999999998,
0.0316992299804688,0.0464475122070312,0.00569819995116916,0.0565215185063217,0.547658999999996,
0.0676122548828125,-0.0301669409179688,-0.00387860668945628,0.0741384173322989,0.550647999999995,
-0.0353384165039063,-0.0277727392578125,0.0248518132324183,0.0513589461323439,0.553584999999998,
0.00775721337890622,0.0320823022460937,0.0368228215331996,0.0494506689791095,0.556605999999995,
0.0388818349609375,0.0751779321289062,0.0320344182128878,0.0904970856953206,0.559555999999994,
0.053247044921875,-0.0349553442382813,0.00569819995116916,0.0639499285880166,0.562477999999999,
0.00536301171874998,-0.0253785375976563,0.0248518132324183,0.0359227600029578,0.565493999999994,
-0.0161848032226563,-0.032561142578125,0.00569819995116916,0.036805506979698,0.568418999999999,
0.00775721337890622,0.0177170922851562,0.0248518132324183,0.0314909882249767,0.571433999999996,
-0.0353384165039063,0.00095768066406246,0.0440054265136691,0.0564464205765769,0.574371999999997,
-0.023367408203125,0.00335188232421871,0.0224576115722623,0.0325824369680584,0.577289999999998,
0.0197282216796875,-0.0158017309570313,0.010486603271481,0.0273654212475293,0.580352999999995,
-0.0137906015625,0.0272938989257812,-0.00627280834961219,0.031216754069207,0.583377999999996,
-0.0377326181640625,0.00095768066406246,-0.0421858332519562,0.0566066440705605,0.586478999999997,
-0.0113963999023438,0.0560243188476562,-0.0469742365722681,0.0739944669189893,0.589506,
0.053247044921875,0.024899697265625,0.0296402165527319,0.0658314905962548,0.592454999999994,
0.014939818359375,-0.00383072265625004,0.0152750065917946,0.0217071056352429,0.595458999999998,
-0.0401268198242188,-0.0062249243164063,-0.00627280834961219,0.0410884348271052,0.598367999999994,
-0.0281558115234375,-0.0181959326171875,0.0368228215331996,0.0497972074720906,0.601364999999994,
-0.0281558115234375,-0.00861912597656254,0.0272460148925759,0.0401171332808024,0.604322999999994,
0.000574608398437482,0.0177170922851562,0.00809240161132507,0.0194862130156496,0.607265999999996,
0.024516625,0.0272938989257812,0.00330399829101324,0.0368366424184996,0.610287999999997,
0.0101514150390625,0.0656011254882812,0.0248518132324183,0.0708813904601449,0.613253999999998,
0.00296881005859373,0.0751779321289062,0.00809240161132507,0.0756704848417229,0.616274999999995,
-0.0401268198242188,-0.00861912597656254,-0.0661278498535189,0.0778289376007068,0.619194999999998,
-0.00660799658203126,-0.00143652099609379,-0.0876756647949257,0.0879360643230781,0.622117999999993,
0.00536301171874998,0.0464475122070312,0.0368228215331996,0.0595151532853914,0.625160999999999,
-0.0137906015625,-0.0110133276367188,-0.027820623291019,0.0329463375413737,0.628068999999996,
-0.03294421484375,-0.0684741674804688,-0.0134554133300817,0.0771691716406091,0.631051999999997,
-0.0257616098632813,-0.0373495458984375,-0.0541568415527376,0.0706513454120707,0.633980999999999,
-0.042521021484375,-0.0110133276367188,-0.0206380183105495,0.0485310050740243,0.636868,
0.0221224233398437,0.044053310546875,-0.0230322199707054,0.0544112023515896,0.639885,
0.0412760366210938,0.044053310546875,0.0416112248535132,0.073320525114697,0.642846999999996,
0.0508528432617187,-0.0612915625,-0.0445800349121122,0.091269090136023,0.64584,
-0.0449152231445313,-0.0948103857421876,0.0248518132324183,0.107814651767023,0.648773999999996,
0.0101514150390625,0.0081402856445312,0.0224576115722623,0.025954957044859,0.651812,
0.08197746484375,0.0799663354492187,0.0296402165527319,0.11829396427831,0.654771999999994,
0.034093431640625,-0.00383072265625004,0.108648871337888,0.113936884985065,0.657695999999994,
-0.0161848032226563,-0.0373495458984375,0.0344286198730437,0.0533129093235225,0.660693999999999,
-0.07125144140625,-0.0349553442382813,0.0440054265136691,0.0907475705235956,0.663623999999999,
0.0269108266601562,0.0943315454101562,0.0511880314941369,0.110647402225475,0.666643999999998,
0.0460644399414062,0.07278373046875,-0.0326090266113308,0.0921018602667804,0.669596999999996,
0.0316992299804688,-0.0277727392578125,-0.011061211669924,0.0435719707018624,0.672507999999993,
-0.0401268198242188,0.0081402856445312,0.000909796630855553,0.04095428731512,0.675543999999995,
-0.00421379492187501,0.00574608398437496,-0.00148440502930036,0.00727853055843844,0.678493999999993,
0.0316992299804688,0.0488417138671875,0.0128808049316369,0.0596344642847217,0.681533999999999,
0.0173340200195312,0.0320823022460937,0.046399628173825,0.0590141327320536,0.684486999999997,
-0.0113963999023438,0.00574608398437496,0.0176692082519505,0.0217967046165338,0.68741,
-0.0209732065429687,0.03447650390625,0.010486603271481,0.0416950064451983,0.690408999999995,
0.00536301171874998,0.0488417138671875,0.0344286198730437,0.059996706364118,0.693368,
-0.00181959326171877,0.0536301171875,-0.0254264216308631,0.0593801591959258,0.696360999999996,
-0.023367408203125,0.0177170922851562,0.0224576115722623,0.0369360994516588,0.699315999999996,
-0.0377326181640625,0.0272938989257812,0.0655532414550759,0.0804110369125606,0.702240999999994,
-0.03294421484375,0.0201112939453125,-0.00627280834961219,0.0391041373823396,0.705240999999994,
-0.00181959326171877,0.0679953271484375,-0.00627280834961219,0.0683082978726018,0.708177999999997,
-0.0353384165039063,0.00335188232421871,0.0535822331542946,0.0642735910457798,0.711184999999993,
-0.00421379492187501,-0.00143652099609379,0.010486603271481,0.0113924759551765,0.714106999999998,
-0.00900219824218751,-0.0181959326171875,-0.0134554133300817,0.0243552804312374,0.716995999999995,
-0.00181959326171877,-0.00143652099609379,-0.00387860668945628,0.00451863940382563,0.720062999999996,
0.0460644399414062,-0.0636857641601563,-0.0469742365722681,0.0915663043118258,0.723087,
-0.0305500131835938,-0.04213794921875,0.0176692082519505,0.0549646339943286,0.726177999999997,
-0.0544920297851563,-0.0373495458984375,-0.0206380183105495,0.0692119764832101,0.729143999999998,
-0.0113963999023438,0.0105344873046874,0.0248518132324183,0.0292995900047383,0.732073,
0.0293050283203125,0.00335188232421871,-0.0230322199707054,0.0374232943064702,0.735082999999996,
0.014939818359375,-0.032561142578125,-0.0541568415527376,0.0649337328787775,0.738017999999997,
-0.0497036264648438,0.0081402856445312,0.0368228215331996,0.0623909842829647,0.741073,
-0.042521021484375,0.0129286889648437,-0.00148440502930036,0.0444678729502027,0.744,
-0.0377326181640625,0.0129286889648437,-0.00148440502930036,0.0399137185708827,0.746993999999994,
0.00536301171874998,0.015322890625,0.010486603271481,0.0193267100142419,0.749966999999998,
-0.0137906015625,-0.0253785375976563,-0.0254264216308631,0.0384805636523389,0.752837999999997,
0.00536301171874998,-0.0277727392578125,-0.0206380183105495,0.0350144932901287,0.755856999999999,
-0.0784340463867188,0.00574608398437496,-0.0230322199707054,0.0819475458481119,0.758796999999994,
-0.023367408203125,0.0488417138671875,0.0416112248535132,0.0682864760653625,0.761835999999995,
-0.00900219824218751,-0.0277727392578125,-0.0804930598144562,0.0856241630462319,0.764761999999997,
0.00296881005859373,0.0177170922851562,0.0631590397949182,0.0656640959735289,0.767716,
-0.0497036264648438,0.024899697265625,-0.0206380183105495,0.0592990152318153,0.770708999999997,
-0.00181959326171877,0.0105344873046874,-0.0350032282714867,0.0365993487897875,0.773657,
-0.0568862314453125,0.0296881005859375,0.0368228215331996,0.0739820710045094,0.776667999999994,
-0.099981861328125,-0.0205901342773438,-0.0589452448730494,0.117876495186018,0.779584999999997,
0.0388818349609375,-0.0062249243164063,0.0344286198730437,0.0523056081031194,0.782511999999997,
0.144226708007813,0.0129286889648437,0.0248518132324183,0.146922111753335,0.785536999999998,
0.014939818359375,-0.0588973608398438,0.0392170231933573,0.0723192380674617,0.788484999999994,
-0.0880108530273438,-0.0062249243164063,0.0248518132324183,0.0916639108607346,0.791484999999994,
-0.0377326181640625,0.0177170922851562,0.0128808049316369,0.0436298174216048,0.794438999999997,
0.0987368764648437,-0.00383072265625004,-0.0780988581543003,0.125948707238734,0.797340999999996,
0.0125456166992187,-0.0684741674804688,0.185263324462888,0.197910594717787,0.800367999999999,
-0.12871228125,-0.0229843359375,-0.0613394465332053,0.144421808408796,0.803288999999999,
-0.14786589453125,0.0799663354492187,0.0703416447753877,0.182227562570569,0.806321999999994,
0.014939818359375,0.115879360351562,-0.0445800349121122,0.12505440352448,0.809270999999995,
0.129861498046875,0.0320823022460937,0.0631590397949182,0.147926830224284,0.812213999999997,
0.04367023828125,-0.125935007324219,-0.085281463134768,0.158239197848381,0.815261,
-0.0736456430664063,0.00095768066406246,-0.00387860668945628,0.0737539252160204,0.818228999999995,
-0.0353384165039063,0.0775721337890625,0.0176692082519505,0.0870542390802571,0.821247,
-0.00660799658203126,-0.00383072265625004,0.0152750065917946,0.0170782282827175,0.824169999999995,
-0.0137906015625,0.0368707055664062,-0.106829278076175,0.113851325309357,0.827081999999997,
0.00775721337890622,-0.00861912597656254,0.0392170231933573,0.0408954594075438,0.830090999999996,
0.0364876333007813,-0.0181959326171875,0.0176692082519505,0.0444369246005201,0.833037999999995,
-0.0281558115234375,0.0272938989257812,0.0152750065917946,0.0420836365763876,0.836045999999996,
-0.169413709472656,0.0512359155273437,0.000909796630855553,0.176994213823843,0.838988999999998,
0.024516625,-0.00383072265625004,-0.0469742365722681,0.0531254951883475,0.841974999999998,
0.170562926269531,0.0105344873046874,-0.0517626398925817,0.17855547633452,0.844922999999994,
0.0508528432617187,-0.0541089575195313,-0.0517626398925817,0.090516086085847,0.847835999999994,
-0.061674634765625,-0.0205901342773438,-0.0469742365722681,0.0802140455567458,0.850815999999995,
-0.099981861328125,0.0584185205078125,0.0152750065917946,0.116800778932923,0.853766999999998,
-0.03294421484375,0.0225054956054687,-0.00627280834961219,0.0403877054152609,0.856793999999994,
0.113102086425781,0.0105344873046874,0.0176692082519505,0.114957636966355,0.859848,
0.127467296386719,0.0081402856445312,0.0152750065917946,0.128637093114286,0.862866999999994,
-0.116741272949219,-0.0277727392578125,0.010486603271481,0.120456708837075,0.865941999999997,
-0.10955866796875,0.0272938989257812,-0.0302148249511749,0.116880256213305,0.868895999999999,
0.0747948598632812,0.0751779321289062,0.0344286198730437,0.111495840314824,0.871929999999999,
0.0867658681640625,0.0368707055664062,0.00569819995116916,0.0944469919579846,0.874873999999998,
0.0125456166992187,-0.0229843359375,0.010486603271481,0.0282071098311225,0.877803999999998,
-0.0257616098632813,-0.013407529296875,0.0535822331542946,0.060946518312334,0.880801999999996,
-0.0185790048828125,-0.0181959326171875,-0.0302148249511749,0.0398648596269314,0.883711999999996,
-0.00421379492187501,-0.00383072265625004,0.00809240161132507,0.00989532554046119,0.886724999999998,
0.034093431640625,0.00335188232421871,-0.0565510432128935,0.0661182099320295,0.889695999999994,
-0.061674634765625,0.0225054956054687,0.0344286198730437,0.0741322316693862,0.892657999999997,
-0.0401268198242188,-0.00143652099609379,-0.00387860668945628,0.0403394205663521,0.895648999999999,
-0.042521021484375,0.0129286889648437,0.00330399829101324,0.0445657342712018,0.898629999999997,
0.0197282216796875,-0.0062249243164063,0.0416112248535132,0.0464698444929345,0.901672999999995,
0.000574608398437482,0.015322890625,0.0248518132324183,0.0292016056554475,0.904637999999998,
-0.023367408203125,-0.00861912597656254,0.0631590397949182,0.0678924841683334,0.907534999999996,
-0.0449152231445313,-0.0181959326171875,0.0272460148925759,0.0555950947607677,0.910534999999996,
-0.0497036264648438,-0.00383072265625004,-0.0517626398925817,0.0718644265855848,0.913450999999995,
-0.0113963999023438,0.0272938989257812,-0.049368438232424,0.0575506519755733,0.916450999999995,
-0.0281558115234375,0.0105344873046874,0.0440054265136691,0.0532935522175609,0.919395999999999,
0.0197282216796875,0.015322890625,0.0751300480956996,0.0791739719517136,0.922342999999998,
0.00536301171874998,-0.0253785375976563,0.0559764348144505,0.0616943540352561,0.925334999999997,
-0.00900219824218751,0.0560243188476562,0.0224576115722623,0.0610254716742616,0.928286,
0.014939818359375,0.0225054956054687,0.0128808049316369,0.0299267545976133,0.931331999999998,
0.165774522949219,-0.0876277807617188,-0.0469742365722681,0.193303904052175,0.934251999999994,
-0.07125144140625,-0.0469263525390626,-0.0373974299316444,0.0931526608883553,0.937227999999998,
-0.195749927734375,0.113485158691406,0.0894952580566368,0.243323481534049,0.940173999999999,
0.0412760366210938,0.0560243188476562,-0.063733648193363,0.0943631994663443,0.943117999999998,
0.172957127929687,-0.0253785375976563,0.0679474431152318,0.187550242063772,0.946134999999998,
0.00536301171874998,-0.0493205541992188,-0.0733104548339867,0.088519499259652,0.949066999999999,
-0.143077491210938,0.044053310546875,0.0559764348144505,0.159828733073536,0.952077999999993,
-0.155048499511719,0.120667763671875,-0.0613394465332053,0.205823405110806,0.955032999999993,
0.0484586416015625,0.063206923828125,0.0703416447753877,0.106260539032088,0.957970999999993,
0.127467296386719,-0.0229843359375,-0.0373974299316444,0.134813794220472,0.960960999999998,
0.0197282216796875,-0.0253785375976563,0.0535822331542946,0.0624846269976842,0.963909999999998,
-0.0664630380859375,0.0320823022460937,0.0200634099121064,0.0764797356580402,0.966919999999995,
-0.00421379492187501,0.00574608398437496,0.0176692082519505,0.0190518888577985,0.969859999999997,
0.00536301171874998,-0.0301669409179688,-0.0613394465332053,0.0685662739256234,0.972773999999994,
-0.0113963999023438,0.0775721337890625,0.127802484619137,0.149935949478926,0.975792999999996,
0.0580354482421875,0.120667763671875,-0.0326090266113308,0.137812086040309,0.978748999999993,
-0.0401268198242188,-0.0349553442382813,0.0775242497558573,0.0940321597126781,0.981747999999996,
-0.152654297851563,-0.0349553442382813,0.0416112248535132,0.162039207530708,0.984676999999998,
-0.0449152231445313,0.0871489404296875,-0.0326090266113308,0.103323103440996,0.987596999999994,
0.0221224233398437,0.0775721337890625,0.0320344182128878,0.0867930959538468,0.990635999999995,
0.0412760366210938,-0.0708683691406251,-0.0302148249511749,0.0874012161850618,0.993558999999998,
-0.03294421484375,-0.0445321508789063,0.0607648381347623,0.0822240798496201,0.996651999999997,
-0.0784340463867188,0.024899697265625,0.00569819995116916,0.0824885691426226,0.999684999999999,
-0.0832224497070313,0.0225054956054687,0.00569819995116916,0.086399901333107,1.002712,
0.0197282216796875,-0.0110133276367188,-0.0326090266113308,0.0396717119975315,1.00577,
0.129861498046875,0.015322890625,0.0775242497558573,0.152015818098949,1.00874099999999,
