X,Y,Z,Magnitude,Seconds,
0.0787692346191404,0.211168586425781,0.00497993945312558,0.225436385733325,0.0,
0.162566292724609,0.194409174804688,0.0504697709960951,0.258398770436047,0.0037689999999202,
0.138624276123047,0.18004396484375,0.052863972656251,0.23329620402462,0.00783099999989645,
0.141018477783203,0.227927998046875,-0.0189620771484371,0.268694889679226,0.0116690000004382,
0.138624276123047,0.196803376464844,-0.0452982954101557,0.244949371270202,0.0154680000005101,
0.129047469482422,0.220745393066406,0.0121625444335951,0.255987705616809,0.0192759999999907,
0.102711251220703,0.223139594726563,-0.0237504804687489,0.246789313351598,0.0230940000001283,
0.126653267822265,0.21835119140625,-0.00459686718749985,0.252466679438153,0.0269459999999526,
0.121864864501953,0.196803376464844,-0.00938527050781168,0.231669371066931,0.0308230000000549,
0.15538368774414,0.230322199707031,0.0217393510742188,0.278684419155399,0.0346440000002985,
0.129047469482422,0.170467158203125,0.0432871660156255,0.218142339190103,0.0384670000003098,
0.145806881103515,0.196803376464844,0.014556746093751,0.245363229563714,0.0422480000006544,
0.152989486083984,0.192014973144531,0.0504697709960951,0.250644630000994,0.0460100000000239,
0.102711251220703,0.249475812988281,-0.0165678754882812,0.270300345711361,0.0497550000000047,
0.172143099365234,0.227927998046875,-0.0261446821289049,0.286823923960932,0.053501000000324,
0.162566292724609,0.225533796386719,-0.0285388837890626,0.279477656943726,0.0573610000001281,
0.133835872802734,0.201591779785156,-0.0309330854492185,0.243942907872365,0.0611020000005738,
0.152989486083984,0.227927998046875,0.0073741411132815,0.274611239943045,0.0648310000005949,
0.0955286462402342,0.2375048046875,0.0408929643554696,0.259242143633934,0.0685389999998733,
0.107499654541016,0.230322199707031,-0.0141736738281235,0.254569017034888,0.0722480000003998,
0.157777889404297,0.220745393066406,-0.0237504804687489,0.272371944714233,0.0761270000002696,
0.138624276123047,0.199197578125,-0.0333272871093744,0.24496341181404,0.0801710000005187,
0.119470662841797,0.213562788085938,-0.0357214887695303,0.247302099657098,0.0839519999999538,
0.131441671142578,0.156101948242188,-0.0500866987304676,0.210127124730428,0.0877250000003187,
0.102711251220703,0.196803376464844,0.0265277543945324,0.223573012388575,0.0915020000002187,
0.117076461181641,0.211168586425781,0.00497993945312558,0.241503352881147,0.0952770000003511,
0.133835872802734,0.196803376464844,0.00976834277343741,0.238199559943699,0.0990890000002764,
0.126653267822265,0.225533796386719,0.014556746093751,0.259072272579492,0.102839000000131,
0.141018477783203,0.194409174804688,-0.00220266552734216,0.240179079147116,0.106685000000653,
0.109893856201172,0.213562788085938,-0.0285388837890626,0.241868129305472,0.110486999999921,
0.0979228479003904,0.2375048046875,0.0480755693359374,0.261359286725276,0.114265000000159,
0.105105452880859,0.220745393066406,0.0432871660156255,0.248293100039041,0.117981000000327,
0.124259066162109,0.158496149902344,0.0169509477539069,0.202110563027026,0.121695000000727,
0.119470662841797,0.220745393066406,0.0456813676757815,0.255124587589339,0.125414000000092,
0.131441671142578,0.223139594726563,-0.0333272871093744,0.261110895432494,0.129201000000648,
0.112288057861328,0.153707746582031,0.0432871660156255,0.195213877681017,0.132967999999892,
0.100317049560547,0.206380183105469,0.0289219560546883,0.231285040487294,0.13669100000061,
0.131441671142578,0.242293208007813,-0.0357214887695303,0.277954917782331,0.140411000000313,
0.107499654541016,0.208774384765625,0.0384987626953137,0.237960236572779,0.14413500000046,
0.107499654541016,0.187226569824219,-0.0429040937499998,0.220115254889545,0.148067000000083,
0.131441671142578,0.184832368164063,0.0480755693359374,0.23184300205282,0.152020000000448,
0.131441671142578,0.170467158203125,0.0217393510742188,0.216352869922567,0.15580300000056,
0.124259066162109,0.263841022949219,0.00497993945312558,0.291679962821114,0.159577000000354,
0.13623007446289,0.223139594726563,0.0193451494140628,0.262152907152966,0.163341000000401,
0.143412679443359,0.177649763183594,-0.0117794721679676,0.228616252591251,0.167170000000624,
0.107499654541016,0.230322199707031,0.0241335527343765,0.255317292347985,0.170982999999978,
0.112288057861328,0.211168586425781,-0.0452982954101557,0.243418806583216,0.174754000000576,
0.119470662841797,0.170467158203125,-0.0572693037109371,0.215898273391065,0.178638000000319,
0.0979228479003904,0.223139594726563,0.014556746093751,0.244114853567937,0.182458000000224,
0.131441671142578,0.199197578125,-0.0309330854492185,0.240652121991533,0.186196000000564,
0.150595284423828,0.192014973144531,-0.0764229169921862,0.255713026347864,0.18995300000006,
0.138624276123047,0.192014973144531,-0.0261446821289049,0.238264525781651,0.193729000000531,
0.112288057861328,0.21835119140625,-0.0668461103515625,0.25446857015343,0.197505000000092,
0.124259066162109,0.225533796386719,-0.0141736738281235,0.257888933197746,0.201342000000295,
0.126653267822265,0.203985981445313,-0.0165678754882812,0.240677845624522,0.205104000000574,
0.150595284423828,0.199197578125,-0.0309330854492185,0.251625655681148,0.208848000000216,
0.160172091064453,0.1608903515625,-0.0500866987304676,0.232485443354161,0.212582000000111,
0.157777889404297,0.203985981445313,0.0337103593750001,0.260077933205171,0.216409999999996,
0.169748897705078,0.156101948242188,-0.0357214887695303,0.233363517450795,0.220420000000559,
0.160172091064453,0.177649763183594,0.0337103593750001,0.241559362154188,0.224240000000464,
0.141018477783203,0.18004396484375,0.014556746093751,0.229159200578522,0.228149000000485,
0.131441671142578,0.230322199707031,0.00258573779296967,0.265201648996708,0.231927000000724,
0.126653267822265,0.196803376464844,0.00258573779296967,0.234049792304876,0.235764000000017,
0.109893856201172,0.213562788085938,0.0241335527343765,0.241387970813348,0.2395860000006,
0.119470662841797,0.194409174804688,-0.0261446821289049,0.229677406228212,0.243353000000752,
0.119470662841797,0.177649763183594,0.0265277543945324,0.215722969088277,0.247147000000041,
0.15538368774414,0.192014973144531,0.0121625444335951,0.247309053242624,0.250993999999992,
0.169748897705078,0.21835119140625,0.0384987626953137,0.279238403142705,0.254796000000169,
0.121864864501953,0.225533796386719,-0.0333272871093744,0.258509664381732,0.258514000000105,
0.179325704345703,0.187226569824219,-0.0117794721679676,0.259519272216499,0.262252000000444,
0.15538368774414,0.206380183105469,-0.0189620771484371,0.259029787409477,0.26601699999992,
0.112288057861328,0.184832368164063,-0.0405098920898439,0.22002877906432,0.269761999999901,
0.148201082763672,0.2375048046875,0.0361045610351578,0.282268723930785,0.273575000000164,
0.172143099365234,0.192014973144531,0.0265277543945324,0.259242585861159,0.277310000000398,
0.143412679443359,0.213562788085938,-0.00938527050781168,0.257418617008692,0.281006000000161,
0.105105452880859,0.227927998046875,-0.0117794721679676,0.251270938398181,0.28474499999993,
0.126653267822265,0.220745393066406,0.00497993945312558,0.254547399529159,0.288652000000184,
0.109893856201172,0.156101948242188,0.0265277543945324,0.192738682233191,0.292562999999973,
0.114682259521484,0.321301862792969,-0.220075016601562,0.405980197319232,0.296299000000545,
0.181719906005859,0.297359846191406,0.517339094726564,0.623766575970736,0.300216999999975,
0.19369091430664,-0.442448466796875,-0.435553166015625,0.650371721773081,0.304022000000259,
-0.196563956298828,0.699585725097656,-0.26556484814453,0.773680983510832,0.306984000000739,
0.215238729248047,0.79295958984375,0.435936238281251,0.93013602528893,0.309944000000542,
0.459447298583984,-0.147961662597656,0.32819716357422,0.583693285855634,0.312987000000248,
0.0213083947753905,-0.0617704028320313,-0.497802409179688,0.502072573378627,0.315945000000283,
-0.0409408483886721,0.172861359863281,-0.241622831542967,0.299897975190578,0.318951000000197,
0.0428562097167967,0.316513459472656,0.534098506347657,0.622317153243776,0.321898000000147,
0.184114107666015,0.40988732421875,-0.167402580078125,0.47950938157003,0.324803000000429,
0.375650240478515,0.172861359863281,-0.165008378417967,0.445221201037727,0.327803000000131,
0.0859518395996092,0.122583125,0.25158271044922,0.292759630861734,0.33075000000008,
-0.134314713134766,0.196803376464844,-0.217680814941406,0.32273355627513,0.33372000000054,
0.19369091430664,0.184832368164063,-0.0931823286132811,0.283482135189982,0.33666600000015,
0.255940157470703,0.321301862792969,0.153420442382814,0.438495248983724,0.339600000000246,
0.186508309326172,0.302148249511719,0.0193451494140628,0.355602515368712,0.342599000000519,
0.210450325927734,0.0699106884765625,-0.097970731933593,0.242435781934022,0.345520000000761,
0.045250411376953,0.18004396484375,0.0935654008789069,0.207889185019499,0.34853800000019,
0.0404620080566405,0.280600434570313,0.0193451494140628,0.28416194816139,0.351472000000285,
0.243969149169922,0.225533796386719,0.0073741411132815,0.332326371232347,0.35439100000076,
0.181719906005859,0.249475812988281,0.0432871660156255,0.311663414995419,0.357389000000694,
0.119470662841797,0.172861359863281,-0.0429040937499998,0.214464566476959,0.360309000000598,
0.117076461181641,0.18004396484375,-0.0500866987304676,0.220525292039689,0.3633319999999,
0.006943184814453,0.2375048046875,-0.00220266552734216,0.23761648048997,0.36626299999989,
0.188902510986328,0.168072956542969,-0.0788171186523439,0.264848665412329,0.369263000000501,
0.224815535888672,0.213562788085938,-0.059663505371093,0.315770206804119,0.372200000000703,
0.172143099365234,0.251870014648437,0.0600465776367187,0.310929803048784,0.375124000000142,
0.0787692346191404,0.21835119140625,-0.0452982954101557,0.236503214942376,0.378132000000733,
0.0715866296386717,0.25665841796875,-0.00699106884765577,0.266546551470618,0.381070000000364,
0.15538368774414,0.206380183105469,0.0600465776367187,0.265221533593141,0.38408200000049,
0.17453730102539,0.18004396484375,0.0289219560546883,0.252419449068242,0.387027000000671,
0.15538368774414,0.201591779785156,0.0265277543945324,0.255904392004381,0.389944000000469,
0.131441671142578,0.239899006347656,0.0241335527343765,0.274610404986645,0.392958000000363,
0.0907402429199217,0.225533796386719,-0.0357214887695303,0.245713877828836,0.395886000000246,
0.124259066162109,0.232716401367187,-0.0237504804687489,0.264879829944203,0.398893999999927,
0.145806881103515,0.18004396484375,0.000191536132813752,0.231679762905357,0.401835000000574,
0.133835872802734,0.230322199707031,-0.0500866987304676,0.271051718158125,0.404814999999871,
0.0644040246582029,0.206380183105469,-0.0165678754882812,0.216829778556859,0.407906000000366,
0.126653267822265,0.211168586425781,0.0217393510742188,0.247195917296887,0.410948000000644,
0.119470662841797,0.215956989746094,-0.0452982954101557,0.250923486878208,0.414013999999952,
0.15538368774414,0.199197578125,0.00258573779296967,0.252646891110435,0.416967000000113,
0.138624276123047,0.213562788085938,0.0361045610351578,0.257156166002721,0.41987700000027,
0.131441671142578,0.203985981445313,0.0313161577148442,0.244679168040481,0.422876999999971,
0.181719906005859,0.211168586425781,-0.0476924970703116,0.28264619298452,0.425838000000113,
0.0811634362792967,0.184832368164063,-0.00220266552734216,0.201879566685745,0.428853000000345,
0.129047469482422,0.211168586425781,-0.0476924970703116,0.252031735203488,0.431789000000208,
0.143412679443359,0.208774384765625,0.014556746093751,0.253704235708092,0.434720000000198,
0.145806881103515,0.172861359863281,-0.021356278808593,0.227149261401986,0.43771900000047,
0.131441671142578,0.220745393066406,-0.00459686718749985,0.256956363339644,0.440683000000718,
0.13623007446289,0.194409174804688,0.0313161577148442,0.239445739511951,0.443693000000167,
0.145806881103515,0.192014973144531,-0.0931823286132811,0.258480836532659,0.446660999999949,
0.160172091064453,0.225533796386719,-0.0333272871093744,0.278623940347265,0.449590000000171,
0.131441671142578,0.199197578125,0.0313161577148442,0.240701661352057,0.452599000000191,
0.114682259521484,0.251870014648437,-0.0357214887695303,0.279045784214471,0.455520000000433,
0.129047469482422,0.215956989746094,-0.00459686718749985,0.251618365760432,0.458539000000201,
0.169748897705078,0.1608903515625,-0.0189620771484371,0.234648575251965,0.461476000000403,
0.131441671142578,0.184832368164063,0.0456813676757815,0.231358389920528,0.464476000000104,
0.131441671142578,0.225533796386719,0.014556746093751,0.261446562574836,0.467396000000008,
0.13623007446289,0.2375048046875,-0.00220266552734216,0.273810184568138,0.470306000000164,
0.112288057861328,0.220745393066406,0.00976834277343741,0.247855919878567,0.473304000000098,
0.119470662841797,0.18004396484375,-0.0285388837890626,0.217953060185998,0.476255000000492,
0.131441671142578,0.203985981445313,0.00258573779296967,0.242680612284737,0.479248999999982,
0.145806881103515,0.189620771484375,0.0121625444335951,0.239507016687536,0.482190000000628,
0.117076461181641,0.215956989746094,0.0217393510742188,0.246610864659566,0.485110999999961,
0.121864864501953,0.213562788085938,0.0839885942382814,0.259834935328645,0.488119000000552,
0.150595284423828,0.187226569824219,-0.0381156904296862,0.243280771940095,0.49105099999997,
0.121864864501953,0.182438166503906,-0.00220266552734216,0.219407341565436,0.49406799999997,
0.145806881103515,0.189620771484375,-0.0141736738281235,0.239617563181939,0.496992000000319,
0.119470662841797,0.199197578125,0.0959596025390628,0.25131884077836,0.499949000000015,
0.129047469482422,0.187226569824219,0.0384987626953137,0.230627822599594,0.502962999999909,
0.138624276123047,0.199197578125,-0.0548751020507812,0.248812463286283,0.505898000000343,
0.119470662841797,0.18004396484375,0.0265277543945324,0.217698852339034,0.508910000000469,
0.148201082763672,0.230322199707031,0.014556746093751,0.274269530693893,0.511849000000439,
0.0955286462402342,0.232716401367187,0.0576523759765628,0.258082239167147,0.514761000000362,
0.0955286462402342,0.199197578125,0.0624407792968764,0.229574058426815,0.517767000000276,
0.162566292724609,0.165678754882813,-0.00459686718749985,0.232160247539672,0.520688000000519,
0.126653267822265,0.199197578125,0.0313161577148442,0.238120614636669,0.523707000000286,
0.0979228479003904,0.199197578125,-0.021356278808593,0.222990246235881,0.526640000000043,
0.126653267822265,0.21835119140625,-0.0357214887695303,0.254939831722112,0.529559000000518,
0.0907402429199217,0.194409174804688,0.014556746093751,0.215036317375098,0.532563000000664,
0.119470662841797,0.227927998046875,0.0193451494140628,0.258067135411247,0.535498000000189,
0.13623007446289,0.206380183105469,0.0241335527343765,0.248462958073018,0.538489999999911,
0.129047469482422,0.203985981445313,0.0265277543945324,0.242831735486202,0.541442000000643,
0.114682259521484,0.211168586425781,-0.059663505371093,0.247596297256607,0.544442000000345,
0.167354696044922,0.225533796386719,-0.00220266552734216,0.280852166337238,0.547531000000163,
0.126653267822265,0.227927998046875,0.0073741411132815,0.260857433286601,0.550563000000693,
0.133835872802734,0.192014973144531,-0.0237504804687489,0.235257042579093,0.553595000000314,
0.152989486083984,0.199197578125,-0.0644519086914048,0.259305816589355,0.556528000000071,
0.15538368774414,0.215956989746094,0.052863972656251,0.27124916855571,0.559528000000682,
0.145806881103515,0.206380183105469,0.0289219560546883,0.254340138589667,0.562470000000758,
0.150595284423828,0.172861359863281,0.0169509477539069,0.229885458553237,0.565421000000242,
0.138624276123047,0.223139594726563,-0.0237504804687489,0.263765149304964,0.568411000000197,
0.145806881103515,0.203985981445313,-0.0237504804687489,0.251861097682509,0.571350000000166,
0.126653267822265,0.172861359863281,0.00976834277343741,0.214516946893202,0.574351000000206,
0.124259066162109,0.177649763183594,-0.0237504804687489,0.218091355182095,0.577288000000408,
0.126653267822265,0.239899006347656,0.052863972656251,0.276382313293836,0.580222000000504,
0.131441671142578,0.21835119140625,0.0337103593750001,0.257080812256524,0.583247999999912,
0.15538368774414,0.203985981445313,-0.00699106884765577,0.256521433971527,0.586197000000539,
0.105105452880859,0.203985981445313,-0.00699106884765577,0.229578552776889,0.589219000000412,
0.121864864501953,0.168072956542969,-0.00459686718749985,0.207655231355036,0.592153999999937,
0.141018477783203,0.211168586425781,-0.0117794721679676,0.254199014423562,0.595102000000225,
0.121864864501953,0.232716401367187,0.0193451494140628,0.263405017930991,0.598111000000245,
0.117076461181641,0.225533796386719,-0.0357214887695303,0.256609461702669,0.601047000000108,
0.145806881103515,0.223139594726563,-0.0524809003906235,0.271671069894606,0.604055000000699,
0.109893856201172,0.21835119140625,-0.0165678754882812,0.245006932386592,0.606999999999971,
0.169748897705078,0.201591779785156,0.0265277543945324,0.264872904809557,0.609925000000658,
0.133835872802734,0.232716401367187,-0.0716345136718743,0.277849721725917,0.612938000000213,
0.133835872802734,0.247081611328125,-0.0476924970703116,0.285019188445575,0.615878000000521,
0.141018477783203,0.213562788085938,0.0696233842773442,0.26522196585042,0.618894000000182,
0.164960494384765,0.129765729980469,0.0839885942382814,0.226064577824906,0.62181099999998,
0.0955286462402342,0.139342536621094,-0.0883939252929675,0.190671316125922,0.624728000000687,
0.0667982263183592,0.405098920898438,-0.059663505371093,0.414881757402665,0.627747000000454,
0.19369091430664,0.309330854492188,0.186939265625,0.4100585773499,0.630703000000722,
0.17453730102539,0.0316034619140625,0.103142207519532,0.205183730412973,0.633711000000403,
0.0596156213378904,0.0579396801757812,-0.126701151855467,0.151539469208114,0.636657000000014,
0.119470662841797,0.261446821289062,-0.0357214887695303,0.289661361596477,0.639573000000382,
0.131441671142578,0.359609089355469,0.141449434082032,0.408170984345961,0.642587000000276,
0.227209737548828,0.235110603027344,-0.0452982954101557,0.330080590250251,0.645516000000498,
0.152989486083984,0.127371528320313,-0.00459686718749985,0.199124132808741,0.6485160000002,
0.0907402429199217,0.122583125,0.0169509477539069,0.153452757712879,0.651466000000255,
0.0931344445800779,0.227927998046875,0.0313161577148442,0.248205356096352,0.654457999999977,
0.138624276123047,0.261446821289062,0.0432871660156255,0.299073417465441,0.657375000000684,
0.212844527587891,0.263841022949219,0.0361045610351578,0.340908224662509,0.660291000000143,
0.107499654541016,0.132159931640625,-0.0692403120117184,0.183893023427134,0.663282999999865,
0.0787692346191404,0.124977326660156,-0.0429040937499998,0.153833305113403,0.666239000000132,
0.0667982263183592,0.235110603027344,0.0432871660156255,0.24821921246516,0.669238000000405,
0.227209737548828,0.259052619628906,0.0241335527343765,0.34541996604306,0.67217299999993,
0.215238729248047,0.223139594726563,0.0289219560546883,0.311376731380297,0.675101000000723,
0.129047469482422,0.18004396484375,-0.0907881269531234,0.239398334689551,0.678107000000637,
0.109893856201172,0.158496149902344,0.00258573779296967,0.19288435707585,0.681115000000318,
0.121864864501953,0.215956989746094,0.014556746093751,0.24839558264412,0.684207000000242,
0.13623007446289,0.263841022949219,-0.00699106884765577,0.297017833846198,0.687209000000621,
0.133835872802734,0.227927998046875,0.00976834277343741,0.264496944525008,0.690228000000388,
0.141018477783203,0.189620771484375,0.0265277543945324,0.237793965036621,0.69322800000009,
0.0979228479003904,0.182438166503906,0.0193451494140628,0.207958658257074,0.696163000000524,
0.0883460412597654,0.211168586425781,-0.0476924970703116,0.233819950338153,0.699164999999994,
0.129047469482422,0.203985981445313,-0.0716345136718743,0.251783703910777,0.702143000000433,
0.179325704345703,0.18004396484375,-0.0333272871093744,0.25628937859734,0.705072000000655,
0.160172091064453,0.208774384765625,0.0217393510742188,0.264034925484022,0.708092000000761,
0.15538368774414,0.196803376464844,-0.0309330854492185,0.25265097502353,0.711032000000159,
0.13623007446289,0.215956989746094,-0.0405098920898439,0.258528733346005,0.714069000000563,
0.119470662841797,0.220745393066406,0.00497993945312558,0.251050926381197,0.717032999999901,
0.172143099365234,0.223139594726563,-0.00938527050781168,0.281979801929692,0.719950000000608,
0.17453730102539,0.170467158203125,0.0576523759765628,0.250691280125217,0.722995000000083,
0.152989486083984,0.239899006347656,-0.0883939252929675,0.297944293664996,0.725952000000689,
0.15538368774414,0.189620771484375,-0.00699106884765577,0.245252935637743,0.72896000000037,
0.152989486083984,0.213562788085938,-0.0189620771484371,0.263390219402817,0.731913999999961,
0.152989486083984,0.194409174804688,-0.0261446821289049,0.248765460834302,0.734831000000668,
0.129047469482422,0.208774384765625,-0.0237504804687489,0.246584830102296,0.737831000000369,
0.112288057861328,0.182438166503906,-0.0189620771484371,0.215062439550376,0.740764000000127,
0.109893856201172,0.201591779785156,-0.00459686718749985,0.229645458251737,0.743773000000147,
0.121864864501953,0.196803376464844,-0.0165678754882812,0.232071343957494,0.746713000000454,
0.167354696044922,0.220745393066406,0.0361045610351578,0.279355798536332,0.74971000000005,
0.169748897705078,0.196803376464844,0.00497993945312558,0.259944334535317,0.75265600000057,
0.105105452880859,0.194409174804688,-0.00459686718749985,0.221050253701437,0.755575000000135,
0.150595284423828,0.215956989746094,-0.0117794721679676,0.263543387462945,0.758575000000747,
0.143412679443359,0.175255561523438,0.0241335527343765,0.227736990490351,0.761527999999998,
0.179325704345703,0.189620771484375,-0.0692403120117184,0.270014751494973,0.764506000000438,
0.17453730102539,0.223139594726563,-0.0285388837890626,0.284726212477685,0.767447000000175,
0.126653267822265,0.192014973144531,0.00258573779296967,0.23003801034109,0.770374000000629,
0.126653267822265,0.21835119140625,-0.0309330854492185,0.254313092101048,0.773372000000563,
0.114682259521484,0.220745393066406,0.0313161577148442,0.250721460874446,0.776326000000154,
0.124259066162109,0.211168586425781,-0.0141736738281235,0.24542489777186,0.779334000000745,
0.141018477783203,0.215956989746094,-0.0261446821289049,0.259243470313348,0.782272000000376,
0.133835872802734,0.242293208007813,0.014556746093751,0.277182139309921,0.785208000000239,
0.141018477783203,0.251870014648437,0.0456813676757815,0.292252463989657,0.788188000000446,
0.105105452880859,0.242293208007813,0.0600465776367187,0.270848197996387,0.791143000000375,
0.133835872802734,0.230322199707031,0.0384987626953137,0.26915146526784,0.794151000000056,
0.13623007446289,0.165678754882813,0.0337103593750001,0.217127776520821,0.79709400000047,
0.117076461181641,0.18004396484375,-0.0452982954101557,0.219487272083234,0.799995000000308,
0.172143099365234,0.244687409667969,-0.0189620771484371,0.299774474361765,0.80301000000054,
0.148201082763672,0.184832368164063,0.0911711992187509,0.253847893078602,0.805951000000277,
0.124259066162109,0.127371528320313,0.0744117875976578,0.19287544136984,0.808944000000338,
0.0787692346191404,0.172861359863281,-0.0141736738281235,0.190490249320153,0.811877000000095,
0.129047469482422,0.247081611328125,-0.00220266552734216,0.27876051329366,0.814799000000676,
0.112288057861328,0.27581203125,0.0337103593750001,0.299695300012716,0.817815000000337,
0.15538368774414,0.230322199707031,-0.0261446821289049,0.279062628272715,0.820838999999978,
0.17453730102539,0.168072956542969,0.0121625444335951,0.242610213423552,0.823944000000665,
0.0883460412597654,0.220745393066406,0.0217393510742188,0.23875960912902,0.826978000000054,
0.133835872802734,0.232716401367187,0.0313161577148442,0.270277017240062,0.82993500000066,
0.169748897705078,0.273417829589844,-0.021356278808593,0.322533856291491,0.832930000000488,
0.100317049560547,0.215956989746094,-0.0165678754882812,0.238695258333556,0.835866000000351,
0.141018477783203,0.158496149902344,-0.0141736738281235,0.212622044106306,0.838872000000265,
0.15538368774414,0.211168586425781,-0.0381156904296862,0.264932195414153,0.841854000000239,
0.17453730102539,0.25665841796875,0.0169509477539069,0.310844249734823,0.844837999999982,
0.167354696044922,0.215956989746094,0.00497993945312558,0.273257782149822,0.847783000000163,
0.126653267822265,0.187226569824219,-0.0261446821289049,0.227548638980379,0.850706000000173,
0.112288057861328,0.189620771484375,0.0121625444335951,0.220709248568558,0.853707000000213,
0.117076461181641,0.170467158203125,-0.0309330854492185,0.209099989392812,0.856668000000354,
0.121864864501953,0.223139594726563,0.000191536132813752,0.254248619703046,0.859682000000248,
0.114682259521484,0.213562788085938,0.0217393510742188,0.243379712566845,0.862652000000708,
0.0955286462402342,0.203985981445313,0.0384987626953137,0.228512926566024,0.865571000000273,
0.100317049560547,0.170467158203125,0.0696233842773442,0.209690195518563,0.868567000000439,
0.107499654541016,0.199197578125,0.0744117875976578,0.238270780816243,0.871509999999944,
0.119470662841797,0.208774384765625,0.00497993945312558,0.240592565992967,0.87451400000009,
0.119470662841797,0.196803376464844,0.0432871660156255,0.234261791612473,0.877443000000312,
0.133835872802734,0.192014973144531,-0.0189620771484371,0.234821956235672,0.880347000000256,
0.126653267822265,0.187226569824219,0.0792001909179696,0.239515153883099,0.883354999999938,
0.119470662841797,0.208774384765625,0.0337103593750001,0.242891686443392,0.88629100000071,
0.117076461181641,0.223139594726563,0.000191536132813752,0.251988517959928,0.889300000000731,
0.13623007446289,0.223139594726563,0.0384987626953137,0.264257576337878,0.892237000000023,
0.143412679443359,0.220745393066406,0.0408929643554696,0.266398122589,0.895155000000159,
0.15538368774414,0.225533796386719,-0.00699106884765577,0.273967988592111,0.898159000000305,
0.124259066162109,0.213562788085938,-0.00220266552734216,0.247091545209349,0.901102000000719,
0.117076461181641,0.184832368164063,-0.0285388837890626,0.220645348856207,0.904119000000719,
0.145806881103515,0.223139594726563,0.0337103593750001,0.268676968944234,0.907071000000542,
0.167354696044922,0.189620771484375,0.000191536132813752,0.252910395106069,0.909990000000107,
0.112288057861328,0.199197578125,-0.0141736738281235,0.229105163841674,0.912984000000506,
0.114682259521484,0.199197578125,-0.0357214887695303,0.232610662996627,0.915944000000309,
0.129047469482422,0.208774384765625,-0.0381156904296862,0.248380351418975,0.918947000000117,
0.162566292724609,0.192014973144531,0.0648349809570323,0.259809784645646,0.92189800000051,
0.167354696044922,0.223139594726563,-0.00699106884765577,0.279012093047336,0.924799000000348,
0.126653267822265,0.201591779785156,-0.00220266552734216,0.238086428975762,0.927803000000495,
0.107499654541016,0.172861359863281,-0.0309330854492185,0.205898230287754,0.930742999999893,
0.15538368774414,0.203985981445313,-0.0740287153320303,0.266898148620193,0.933759999999893,
0.179325704345703,0.220745393066406,0.0169509477539069,0.284909760150263,0.936703000000307,
0.129047469482422,0.263841022949219,-0.0644519086914048,0.300698159795952,0.939675000000534,
0.124259066162109,0.177649763183594,0.0241335527343765,0.218133404709708,0.942633999999998,
0.114682259521484,0.192014973144531,0.0432871660156255,0.2278059465912,0.945547000000261,
0.141018477783203,0.227927998046875,0.0313161577148442,0.269848263110899,0.948538999999982,
0.100317049560547,0.168072956542969,0.0408929643554696,0.19996065534851,0.951472000000649,
0.145806881103515,0.21835119140625,-0.00699106884765577,0.262651412349708,0.954447000000073,
0.121864864501953,0.21835119140625,-0.0141736738281235,0.250457942613913,0.957438000000366,
0.0811634362792967,0.192014973144531,-0.00699106884765577,0.208581227208949,0.960446000000047,
0.102711251220703,0.172861359863281,-0.0117794721679676,0.201418486802133,0.96353900000031,
0.121864864501953,0.21835119140625,0.0576523759765628,0.256616609837226,0.966562999999951,
0.121864864501953,0.203985981445313,0.00258573779296967,0.237629989408367,0.969571000000542,
0.119470662841797,0.194409174804688,-0.0357214887695303,0.230963614640942,0.972498000000087,
0.126653267822265,0.189620771484375,0.0241335527343765,0.229302236351875,0.975425000000541,
0.0955286462402342,0.156101948242188,0.000191536132813752,0.183012505538798,0.978429000000688,
0.112288057861328,0.182438166503906,0.0361045610351578,0.217246016909672,0.981381000000511,
0.148201082763672,0.259052619628906,-0.059663505371093,0.304354324007545,0.984366000000591,
0.0907402429199217,0.177649763183594,0.0456813676757815,0.204646078381882,0.9873290000005,
0.131441671142578,0.239899006347656,0.0720175859375001,0.282869190340008,0.990243000000191,
0.138624276123047,0.213562788085938,0.0456813676757815,0.258674586572411,0.993264000000636,
0.133835872802734,0.192014973144531,0.0361045610351578,0.236823415413481,0.996199000000161,
0.15538368774414,0.203985981445313,0.00976834277343741,0.256612142276462,0.999231000000691,
0.126653267822265,0.192014973144531,-0.021356278808593,0.231012750311111,1.00218600000062,
0.138624276123047,0.242293208007813,0.0480755693359374,0.283255977773339,1.00513099999989,
0.0931344445800779,0.263841022949219,0.0384987626953137,0.28243276171011,1.00812300000052,
0.157777889404297,0.177649763183594,0.0552581743164069,0.24394008808075,1.01108300000033,
