X,Y,Z,Magnitude,Seconds,
0.224815535888672,0.177649763183594,0.00258573779296967,0.286545196393224,0.0,
0.191296712646484,0.127371528320313,0.0121625444335951,0.230143142376876,0.00379899999916233,
0.241574947509765,0.122583125,-0.0429040937499998,0.274273292647353,0.00756499999988591,
0.176931502685547,0.134554133300781,0.014556746093751,0.222758771516921,0.0113419999997859,
0.241574947509765,0.122583125,-0.0524809003906235,0.275933547625007,0.0151949999999488,
0.186508309326172,0.151313544921875,0.00976834277343741,0.240367549484265,0.019004999999197,
0.253545955810547,0.129765729980469,-0.00459686718749985,0.284861067141839,0.0227379999996629,
0.224815535888672,0.139342536621094,0.0337103593750001,0.26663599910384,0.0264769999994314,
0.188902510986328,0.163284553222656,0.0265277543945324,0.251097044449509,0.0301979999994728,
0.19369091430664,0.14173673828125,-0.0261446821289049,0.241431186194268,0.0339069999999992,
0.222421334228516,0.175255561523438,-0.0452982954101557,0.286771158473013,0.0377609999995911,
0.234392342529297,0.144130939941406,-0.0333272871093744,0.27717179898185,0.0418569999992542,
0.220027132568359,0.136948334960938,-0.0189620771484371,0.259858318867437,0.0456479999993462,
0.217632930908203,0.136948334960938,-0.00220266552734216,0.257145466224262,0.0494559999997364,
0.236786544189453,0.129765729980469,-0.0381156904296862,0.272689966891852,0.0532699999994293,
0.212844527587891,0.136948334960938,0.0193451494140628,0.253834343969719,0.057105999999294,
0.179325704345703,0.120188923339844,-0.0237504804687489,0.217180042488185,0.0609449999992648,
0.17453730102539,0.139342536621094,0.0193451494140628,0.224173697759307,0.0647909999997864,
0.203267720947266,0.1608903515625,0.0265277543945324,0.260590086837963,0.068623999999545,
0.205661922607422,0.124977326660156,-0.0357214887695303,0.24329443756406,0.0724069999996573,
0.208056124267578,0.139342536621094,-0.0381156904296862,0.253291332686648,0.076176999999916,
0.212844527587891,0.151313544921875,-0.0740287153320303,0.271438450656217,0.0799589999996897,
0.217632930908203,0.148919343261719,-0.0117794721679676,0.263969353103257,0.0837219999993977,
0.229603939208984,0.177649763183594,-0.00459686718749985,0.290342105880992,0.0874799999992319,
0.212844527587891,0.136948334960938,-0.021356278808593,0.253995531490685,0.0913219999993089,
0.198479317626953,0.153707746582031,-0.0620577070312489,0.258594798646383,0.0951059999997597,
0.186508309326172,0.139342536621094,-0.0381156904296862,0.235912055259242,0.0988349999997808,
0.215238729248047,0.18004396484375,-0.0285388837890626,0.28206029095372,0.102610999999342,
0.181719906005859,0.144130939941406,0.0959596025390628,0.251006170056886,0.106358999999429,
0.186508309326172,0.14173673828125,0.0193451494140628,0.235050818403525,0.110261999999238,
0.196085115966797,0.10342951171875,0.00497993945312558,0.221747235371826,0.114216999999371,
0.220027132568359,0.120188923339844,0.0289219560546883,0.252376298217314,0.118024999999761,
0.231998140869141,0.117794721679687,0.0289219560546883,0.26179230959744,0.121789999999237,
0.217632930908203,0.122583125,-0.0429040937499998,0.253439295317378,0.125551999999516,
0.241574947509765,0.122583125,-0.00459686718749985,0.27093580233526,0.129380999999739,
0.227209737548828,0.117794721679687,-0.0333272871093744,0.258090234915374,0.133186999999452,
0.215238729248047,0.168072956542969,0.0408929643554696,0.276131243837394,0.137031999999635,
0.239180745849609,0.158496149902344,-0.0261446821289049,0.288118036788159,0.140802999999323,
0.215238729248047,0.113006318359375,-0.0165678754882812,0.243665001704491,0.144629999999779,
0.224815535888672,0.122583125,-0.0285388837890626,0.257649210360913,0.148400000000038,
0.186508309326172,0.158496149902344,0.00258573779296967,0.244771454670489,0.152168999999958,
0.203267720947266,0.115400520019531,-0.00220266552734216,0.233751787448351,0.155933999999434,
0.196085115966797,0.127371528320313,-0.0237504804687489,0.235025454478575,0.159685999999965,
0.191296712646484,0.156101948242188,0.052863972656251,0.25250118835237,0.16356899999937,
0.220027132568359,0.1608903515625,0.0480755693359374,0.276783136515095,0.167308999999477,
0.220027132568359,0.153707746582031,0.014556746093751,0.26879343236474,0.171027999999751,
0.198479317626953,0.148919343261719,-0.0165678754882812,0.248687564669723,0.174771999999393,
0.186508309326172,0.151313544921875,-0.0476924970703116,0.244858556316362,0.178504999999859,
0.167354696044922,0.156101948242188,-0.0381156904296862,0.232009091180123,0.182225999999901,
0.248757552490234,0.144130939941406,-0.0189620771484371,0.288120822120006,0.186012999999548,
0.196085115966797,0.134554133300781,-0.00699106884765577,0.23791398137913,0.189774999999827,
0.224815535888672,0.151313544921875,-0.0261446821289049,0.272252380076569,0.193504999999277,
0.208056124267578,0.163284553222656,0.0432871660156255,0.267998087508162,0.197233999999298,
0.227209737548828,0.115400520019531,-0.0309330854492185,0.256706837916706,0.20096999999987,
0.229603939208984,0.120188923339844,0.0337103593750001,0.261342178997317,0.204725999999937,
0.212844527587891,0.156101948242188,0.0217393510742188,0.264845635331691,0.20845399999962,
0.25115175415039,0.136948334960938,-0.0165678754882812,0.286542395745528,0.21225400000003,
0.222421334228516,0.158496149902344,-0.100364933593749,0.290973193523281,0.215994999999566,
0.27030536743164,0.151313544921875,-0.0572693037109371,0.315024687424199,0.219740999999885,
0.172143099365234,0.115400520019531,-0.0764229169921862,0.220886823784131,0.22363999999925,
0.203267720947266,0.168072956542969,0.0073741411132815,0.263857277817665,0.227623999999196,
0.227209737548828,0.146525141601563,0.0193451494140628,0.271050026312889,0.231406999999308,
0.212844527587891,0.134554133300781,0.0313161577148442,0.253748516146317,0.235264999999345,
0.205661922607422,0.14173673828125,0.0600465776367187,0.256888537842916,0.239085999999588,
0.217632930908203,0.156101948242188,-0.00459686718749985,0.267867583049239,0.242905000000064,
0.212844527587891,0.136948334960938,0.000191536132813752,0.253096179463017,0.246752999999444,
0.227209737548828,0.158496149902344,-0.00938527050781168,0.277188343321609,0.250521999999364,
0.217632930908203,0.139342536621094,0.00976834277343741,0.258603665187164,0.254285999999411,
0.19369091430664,0.144130939941406,-0.0644519086914048,0.249887868187515,0.25812599999972,
0.215238729248047,0.14173673828125,0.000191536132813752,0.25771505627924,0.261926999999559,
0.196085115966797,0.165678754882813,0.0217393510742188,0.257626516314527,0.265696999999818,
0.176931502685547,0.134554133300781,0.0193451494140628,0.22312285009999,0.269427999999607,
0.227209737548828,0.115400520019531,-0.00220266552734216,0.254845829067715,0.273185000000012,
0.208056124267578,0.139342536621094,-0.0261446821289049,0.251768222301521,0.276920999999675,
0.217632930908203,0.153707746582031,-0.00699106884765577,0.266531497235605,0.280679999999847,
0.253545955810547,0.120188923339844,0.0289219560546883,0.282076955002538,0.284545999999864,
0.203267720947266,0.139342536621094,-0.0237504804687489,0.24758472128464,0.288241999999627,
0.260728560791015,0.136948334960938,-0.021356278808593,0.295280069603889,0.2920009999998,
0.243969149169922,0.115400520019531,0.0792001909179696,0.281266592415304,0.295994999999493,
0.100317049560547,0.220745393066406,-0.651031315429687,0.694718513257481,0.299839999999676,
0.191296712646484,0.764229169921875,0.751970857421876,1.08908256199455,0.303699000000051,
1.15615998168945,-1.38815812255859,1.40079950732422,2.28602890099958,0.306670999999369,
-0.215717569580078,-0.193451494140625,-2.44907676220703,2.46615784928566,0.309586999999738,
-0.663433280029297,1.48488386962891,-0.325419889648437,1.6585903436091,0.312604999999166,
0.0620098229980467,0.826478413085938,1.51093278369141,1.72331937326741,0.315576999999394,
0.715626876220703,0.0316034619140625,1.09673589648438,1.30994283516944,0.318607999999585,
0.322977803955078,0.093852705078125,-1.39562803173828,1.43558371231767,0.321578999999474,
0.569580574951172,-0.576523759765625,-0.387669132812499,0.898381340785523,0.324513999999908,
-0.435984122314453,0.117794721679687,0.890834553710938,0.998771221777673,0.327561999999489,
0.121864864501953,0.251870014648437,0.107930610839844,0.299897592913557,0.330492999999478,
0.490571920166015,0.318907661132813,-0.792289213378906,0.984928983643561,0.333533999999418,
0.138624276123047,0.498472785644531,0.373686995117188,0.63822705856033,0.336473999999725,
0.471418306884765,-0.131202250976563,0.431147834960939,0.652179198011498,0.33940899999925,
0.19369091430664,0.017238251953125,-0.581599467285155,0.613246498531967,0.342424999999821,
0.0739808312988279,0.036391865234375,0.0504697709960951,0.0966681386978193,0.345359999999346,
0.160172091064453,0.0842758984375,0.287495735351563,0.339722421483692,0.34839699999975,
0.109893856201172,0.347638081054688,-0.2344402265625,0.433464087163891,0.351340999999593,
0.375650240478515,0.208774384765625,0.0289219560546883,0.430739278970308,0.354279999999562,
0.301429989013672,0.184832368164063,0.2252464921875,0.419236239894276,0.357308999999987,
0.138624276123047,0.0627280834960938,-0.0620577070312489,0.164324865409067,0.360225999999784,
0.220027132568359,-0.097683427734375,-0.0788171186523439,0.253310341898725,0.363274999999703,
0.0859518395996092,0.151313544921875,0.184545063964844,0.253654071998006,0.366216999999779,
0.277487972412109,0.206380183105469,0.0121625444335951,0.346035088248474,0.369200999999521,
0.327766207275391,0.280600434570313,-0.021356278808593,0.431999283746273,0.372144999999364,
0.220027132568359,0.182438166503906,0.0265277543945324,0.287052861711529,0.375104999999166,
0.267911165771484,-0.00670376464843751,0.00497993945312558,0.268041289734351,0.378130000000056,
0.141018477783203,0.10342951171875,-0.0764229169921862,0.190851610452376,0.381057999999939,
0.200873519287109,0.10342951171875,-0.0285388837890626,0.227732963211506,0.384059999999408,
0.231998140869141,0.254264216308594,0.0576523759765628,0.34899459239006,0.387013999999908,
0.243969149169922,0.213562788085938,0.000191536132813752,0.324237639529751,0.389946999999665,
0.344525618896484,0.122583125,-0.00938527050781168,0.365804056720638,0.392966999999771,
0.181719906005859,0.124977326660156,-0.0524809003906235,0.226706200452719,0.39589899999919,
0.217632930908203,0.06512228515625,0.000191536132813752,0.227167430160569,0.398920999999973,
0.184114107666015,0.120188923339844,-0.0572693037109371,0.227207295399552,0.401855000000069,
0.198479317626953,0.223139594726563,0.0432871660156255,0.301759999009245,0.404788999999255,
0.248757552490234,0.146525141601563,0.00497993945312558,0.288746838665372,0.407806999999593,
0.220027132568359,0.0986411083984375,-0.0476924970703116,0.245797847039245,0.410727999999835,
0.196085115966797,0.115400520019531,-0.0333272871093744,0.229950779060565,0.41374899999937,
0.186508309326172,0.117794721679687,0.0265277543945324,0.222181609627167,0.416720999999598,
0.191296712646484,0.206380183105469,0.0600465776367187,0.287737386750281,0.419734000000062,
0.229603939208984,0.201591779785156,0.0073741411132815,0.305633101175884,0.422847999999249,
0.246363350830078,0.163284553222656,-0.0261446821289049,0.296715841095429,0.425862000000052,
0.236786544189453,0.136948334960938,-0.00459686718749985,0.273576031745649,0.428898999999547,
0.191296712646484,0.0986411083984375,-0.0261446821289049,0.216813387361217,0.431840999999622,
0.167354696044922,0.153707746582031,0.000191536132813752,0.2272305048485,0.434770999999273,
0.239180745849609,0.122583125,0.0073741411132815,0.268865077087188,0.437793000000056,
0.255940157470703,0.184832368164063,-0.0788171186523439,0.325392849829128,0.440747999999985,
0.248757552490234,0.115400520019531,-0.0452982954101557,0.277938006592793,0.443778999999267,
0.210450325927734,0.120188923339844,-0.0429040937499998,0.246120861036177,0.446704999999383,
0.164960494384765,0.113006318359375,-0.0668461103515625,0.210833572198405,0.449655999999777,
0.164960494384765,0.144130939941406,-0.0309330854492185,0.221229628059779,0.452658999999585,
0.231998140869141,0.175255561523438,-0.0572693037109371,0.296340045149434,0.4556249999996,
0.255940157470703,0.101035310058594,0.00497993945312558,0.275205919052845,0.458686999999372,
0.25115175415039,0.146525141601563,-0.0285388837890626,0.292166542612432,0.461624999999913,
0.241574947509765,0.148919343261719,-0.0452982954101557,0.28738016916432,0.464625999999953,
0.205661922607422,0.1608903515625,0.0480755693359374,0.26550667035587,0.467586999999185,
0.191296712646484,0.148919343261719,0.0265277543945324,0.243875223874976,0.470516999999745,
0.260728560791015,0.184832368164063,-0.0405098920898439,0.322154369969461,0.473525999999765,
0.227209737548828,0.148919343261719,-0.021356278808593,0.272501974816806,0.47646099999929,
0.200873519287109,0.165678754882813,0.0672291826171882,0.268922634907668,0.479452999999921,
0.224815535888672,0.144130939941406,0.0121625444335951,0.267326916924583,0.482391999999891,
0.224815535888672,0.136948334960938,0.0289219560546883,0.264827021218593,0.485290999999961,
0.220027132568359,0.158496149902344,-0.0285388837890626,0.272667263322985,0.488314999999602,
0.258334359130859,0.146525141601563,0.0361045610351578,0.299181880394604,0.491260999999213,
0.220027132568359,0.148919343261719,-0.0117794721679676,0.265946734945763,0.494281999999657,
0.25115175415039,0.168072956542969,-0.0117794721679676,0.302430947983947,0.497208999999202,
0.215238729248047,0.139342536621094,0.00258573779296967,0.256419069338161,0.500131999999212,
0.220027132568359,0.14173673828125,-0.0572693037109371,0.267919792461097,0.503147999999783,
0.227209737548828,0.151313544921875,0.0361045610351578,0.275360841517767,0.506109999999353,
0.186508309326172,0.127371528320313,-0.0476924970703116,0.230832038398401,0.509104999999181,
0.236786544189453,0.127371528320313,-0.0189620771484371,0.269538372232265,0.51204400000006,
0.176931502685547,0.117794721679687,-0.0117794721679676,0.212882852909098,0.514995999999883,
0.210450325927734,0.146525141601563,-0.00699106884765577,0.256530372174681,0.518032999999377,
0.176931502685547,0.146525141601563,-0.0285388837890626,0.231492638439863,0.520961999999599,
0.220027132568359,0.175255561523438,-0.00459686718749985,0.281331800724855,0.524000999999771,
0.234392342529297,0.148919343261719,-0.021356278808593,0.278518996979422,0.526927999999316,
0.17453730102539,0.132159931640625,-0.00938527050781168,0.219129186287421,0.529850999999326,
0.258334359130859,0.146525141601563,-0.0189620771484371,0.297600098452089,0.532898999999816,
0.203267720947266,0.168072956542969,-0.00220266552734216,0.263763410721835,0.535836999999447,
0.196085115966797,0.144130939941406,0.00976834277343741,0.243553938733589,0.538862999999765,
0.236786544189453,0.175255561523438,-0.0285388837890626,0.295967645599996,0.541790999999648,
0.236786544189453,0.184832368164063,-0.0620577070312489,0.306727942698893,0.544717999999193,
0.229603939208984,0.1608903515625,-0.0548751020507812,0.285683305342247,0.54773699999987,
0.205661922607422,0.163284553222656,0.00976834277343741,0.262781453402334,0.550670999999966,
0.205661922607422,0.146525141601563,0.0217393510742188,0.253454222527594,0.553704999999354,
0.191296712646484,0.122583125,-0.0620577070312489,0.235525399492483,0.556701999999859,
0.243969149169922,0.136948334960938,-0.0357214887695303,0.282049316530249,0.559769999999844,
0.210450325927734,0.144130939941406,-0.0548751020507812,0.260910606063775,0.562815999999657,
0.234392342529297,0.1608903515625,-0.0333272871093744,0.28624497118438,0.565816999999697,
0.239180745849609,0.132159931640625,-0.0859997236328116,0.286477973291752,0.568832999999358,
0.208056124267578,0.175255561523438,-0.059663505371093,0.278498826861636,0.571772999999666,
0.196085115966797,0.153707746582031,0.014556746093751,0.249574323438682,0.574760999999853,
0.227209737548828,0.194409174804688,-0.0500866987304676,0.303196090797628,0.577744999999595,
0.210450325927734,0.170467158203125,-0.0452982954101557,0.274591200288728,0.580660999999964,
0.200873519287109,0.139342536621094,-0.0165678754882812,0.245032666722183,0.583698999999797,
0.234392342529297,0.168072956542969,0.000191536132813752,0.288423864552772,0.586653999999726,
0.205661922607422,0.168072956542969,0.0313161577148442,0.267443539584894,0.589674999999261,
0.220027132568359,0.139342536621094,0.0073741411132815,0.260543008993551,0.592615999999907,
0.203267720947266,0.148919343261719,0.0073741411132815,0.252089498261541,0.595554999999877,
0.19369091430664,0.136948334960938,-0.0524809003906235,0.242951150726491,0.598586999999497,
0.186508309326172,0.122583125,-0.0429040937499998,0.227272376770652,0.601542999999765,
0.215238729248047,0.192014973144531,0.0265277543945324,0.289657007913197,0.604585000000043,
0.184114107666015,0.127371528320313,0.0241335527343765,0.225175352194436,0.607496999999967,
0.205661922607422,0.168072956542969,-0.0165678754882812,0.266119972249117,0.610419999999976,
0.239180745849609,0.144130939941406,0.0121625444335951,0.27951580370467,0.613440999999511,
0.196085115966797,0.144130939941406,-0.0620577070312489,0.251145892966781,0.616358999999647,
0.17453730102539,0.117794721679687,0.0121625444335951,0.210918926111248,0.619400999999925,
0.236786544189453,0.117794721679687,0.0289219560546883,0.266045002784883,0.622313999999278,
0.217632930908203,0.122583125,0.0792001909179696,0.262036992411192,0.625239999999394,
0.169748897705078,0.182438166503906,-0.210498209960937,0.32620219077461,0.628268999999818,
0.119470662841797,0.350032282714844,0.0313161577148442,0.37118262345703,0.631202999999914,
0.397198055419922,-0.040222587890625,0.419176826660157,0.578872493572519,0.634232999999767,
0.188902510986328,-0.332315190429688,-0.119518546875,0.400502468774377,0.637178999999378,
0.0332794030761717,0.479319172363281,-0.660608122070311,0.816858297753894,0.640110999999706,
0.224815535888672,0.500866987304688,0.246794307128907,0.601927897824832,0.643137999999453,
0.318189400634766,0.182438166503906,0.562828926269532,0.671792065686498,0.646074999999655,
0.282276375732422,-0.00909796630859376,-0.394851737792967,0.485459184819599,0.649106999999276,
0.260728560791015,-0.0713472094726563,-0.308660478027344,0.410293915879529,0.65206599999965,
0.026096798095703,0.136948334960938,0.253976912109376,0.289724284802008,0.655065999999351,
0.100317049560547,0.227927998046875,0.25158271044922,0.353989467248908,0.658027999999831,
0.299035787353515,0.297359846191406,-0.22725762158203,0.479052509451975,0.66095199999927,
0.27030536743164,0.261446821289062,0.00258573779296967,0.376066640456772,0.663977999999588,
0.301429989013672,0.06512228515625,0.105536409179688,0.325943068592196,0.666905999999472,
0.196085115966797,0.0507570751953125,-0.0931823286132811,0.22295425484141,0.669894999999997,
0.121864864501953,0.115400520019531,-0.0740287153320303,0.183435481612932,0.672867999999653,
0.167354696044922,0.187226569824219,0.11750741748047,0.277253270313193,0.675793999999769,
0.255940157470703,0.235110603027344,-0.00459686718749985,0.347567966087137,0.678811999999198,
0.306218392333984,0.175255561523438,-0.0309330854492185,0.354176610498087,0.68174099999942,
0.258334359130859,0.0866701000976562,0.00497993945312558,0.272531002191395,0.68477299999995,
0.198479317626953,0.0962469067382813,-0.0117794721679676,0.220898760854162,0.687693999999283,
0.196085115966797,0.139342536621094,-0.0812113203124998,0.253891696915461,0.690613999999186,
0.191296712646484,0.184832368164063,0.0313161577148442,0.26783976240377,0.693679999999404,
0.27030536743164,0.151313544921875,0.0720175859375001,0.318036653899269,0.696704999999383,
0.255940157470703,0.208774384765625,-0.0572693037109371,0.335219153820197,0.69980299999952,
0.181719906005859,0.122583125,-0.0357214887695303,0.222091808794146,0.702828999999838,
0.162566292724609,0.132159931640625,0.0217393510742188,0.210633915708288,0.70576600000004,
0.169748897705078,0.148919343261719,0.0361045610351578,0.22868143430793,0.708799999999428,
0.212844527587891,0.177649763183594,-0.00699106884765577,0.27732851697388,0.711714000000029,
0.265516964111328,0.158496149902344,0.0456813676757815,0.312581309609984,0.714742999999544,
0.234392342529297,0.168072956542969,0.0073741411132815,0.288518053013368,0.717703999999685,
0.181719906005859,0.129765729980469,-0.0859997236328116,0.239284812265765,0.720609999999397,
0.164960494384765,0.105823713378906,0.0193451494140628,0.196938715916448,0.723657999999887,
0.198479317626953,0.110612116699219,-0.0836055219726557,0.242113533679269,0.726603000000068,
0.220027132568359,0.182438166503906,0.0241335527343765,0.286841510299929,0.729629999999815,
0.227209737548828,0.18004396484375,-0.0117794721679676,0.290135916560189,0.732570999999552,
0.215238729248047,0.115400520019531,0.0552581743164069,0.250396598255397,0.735520999999608,
0.200873519287109,0.115400520019531,0.0313161577148442,0.233769443053595,0.738558000000012,
0.200873519287109,0.158496149902344,-0.0309330854492185,0.257736408099561,0.741481000000022,
0.210450325927734,0.117794721679687,-0.0285388837890626,0.242856756188932,0.744504999999663,
0.203267720947266,0.153707746582031,0.00497993945312558,0.254889461405093,0.74745299999995,
0.248757552490234,0.1608903515625,0.0432871660156255,0.299399071288641,0.750435999999354,
0.217632930908203,0.132159931640625,-0.0476924970703116,0.259046162727324,0.753363999999237,
0.200873519287109,0.158496149902344,-0.0620577070312489,0.263291396150028,0.756295999999566,
0.191296712646484,0.144130939941406,-0.0117794721679676,0.239805996760508,0.759321999999884,
0.164960494384765,0.182438166503906,-0.0524809003906235,0.251495316478824,0.762267000000065,
0.188902510986328,0.163284553222656,-0.0237504804687489,0.250818837611051,0.76525700000002,
0.248757552490234,0.170467158203125,0.0073741411132815,0.301651702968738,0.768229999999676,
0.217632930908203,0.144130939941406,-0.00938527050781168,0.261200887759963,0.77113399999962,
0.229603939208984,0.132159931640625,-0.059663505371093,0.271558373659705,0.774166999999579,
0.210450325927734,0.139342536621094,-0.00938527050781168,0.252574277189098,0.777091999999357,
0.188902510986328,0.120188923339844,-0.0141736738281235,0.22434444272216,0.780141999999614,
0.208056124267578,0.146525141601563,-0.0333272871093744,0.256646987187994,0.783081999999922,
0.215238729248047,0.156101948242188,-0.0668461103515625,0.274160411588642,0.786011999999573,
0.19369091430664,0.144130939941406,0.0289219560546883,0.243159161199748,0.789036999999553,
0.181719906005859,0.144130939941406,0.014556746093751,0.232395677550185,0.791986999999608,
0.203267720947266,0.18004396484375,-0.0620577070312489,0.278540400404913,0.795024000000012,
0.224815535888672,0.144130939941406,-0.00938527050781168,0.267214962769319,0.79794099999981,
0.255940157470703,0.148919343261719,-0.0165678754882812,0.296575166697795,0.800892999999633,
0.217632930908203,0.117794721679687,-0.0357214887695303,0.250031425687255,0.803924999999253,
0.208056124267578,0.172861359863281,-0.0309330854492185,0.272259538592199,0.80685799999992,
0.181719906005859,0.187226569824219,0.00497993945312558,0.260961132132504,0.809906999999839,
0.212844527587891,0.163284553222656,-0.095576530273437,0.284779759435856,0.812819999999192,
0.215238729248047,0.163284553222656,0.0193451494140628,0.270857509948107,0.815748999999414,
0.203267720947266,0.120188923339844,0.0768059892578137,0.248318955495865,0.818769999999859,
0.222421334228516,0.045968671875,0.00258573779296967,0.227136643353463,0.821688999999424,
0.186508309326172,0.211168586425781,-0.176979386718749,0.332714930028867,0.824717999999848,
0.227209737548828,0.282994636230469,0.0456813676757815,0.365782744706407,0.827655999999479,
0.210450325927734,0.132159931640625,0.172574055664063,0.302551469840567,0.83056199999919,
0.196085115966797,0.02681505859375,-0.0907881269531234,0.217740451149424,0.833662999999433,
0.229603939208984,0.0531512768554687,-0.133883756835937,0.271049603349929,0.83668999999918,
0.138624276123047,0.175255561523438,0.00497993945312558,0.223508392622047,0.839814999999362,
0.224815535888672,0.187226569824219,-0.0141736738281235,0.292910748616092,0.842802999999549,
0.208056124267578,0.189620771484375,-0.126701151855467,0.308701424851065,0.845794999999271,
0.28945898071289,0.1608903515625,0.0289219560546883,0.33242846791946,0.848748999999771,
0.229603939208984,0.0603338818359375,0.0193451494140628,0.238185602007191,0.851668999999674,
0.167354696044922,0.127371528320313,-0.0357214887695303,0.213323991325055,0.854694999999992,
0.212844527587891,0.187226569824219,0.014556746093751,0.283845874074458,0.857642999999371,
0.227209737548828,0.175255561523438,0.105536409179688,0.305739611997604,0.860631999999896,
0.239180745849609,0.134554133300781,0.00497993945312558,0.274475943882987,0.8635749999994,
0.231998140869141,0.105823713378906,-0.0476924970703116,0.259415438933075,0.866498999999749,
0.198479317626953,0.132159931640625,-0.0165678754882812,0.23902882996641,0.869526999999835,
0.186508309326172,0.175255561523438,-0.0620577070312489,0.263345818828738,0.872466999999233,
0.224815535888672,0.182438166503906,-0.0141736738281235,0.289873425487753,0.875529999999344,
0.231998140869141,0.151313544921875,-0.00220266552734216,0.276990573808906,0.878477999999632,
0.241574947509765,0.153707746582031,-0.00938527050781168,0.286483175642439,0.881414999999834,
0.188902510986328,0.144130939941406,-0.059663505371093,0.244984939085037,0.884428999999727,
0.224815535888672,0.105823713378906,0.0121625444335951,0.248774216866038,0.887383999999656,
0.200873519287109,0.165678754882813,0.014556746093751,0.260790182766042,0.890400999999656,
0.203267720947266,0.151313544921875,0.0456813676757815,0.257488529081685,0.893321999999898,
0.241574947509765,0.199197578125,0.00258573779296967,0.313121089093573,0.896236999999928,
0.229603939208984,0.158496149902344,-0.0117794721679676,0.279244972020456,0.89925299999959,
0.231998140869141,0.14173673828125,-0.00938527050781168,0.272030372656896,0.902166999999281,
0.217632930908203,0.146525141601563,-0.059663505371093,0.269060297350276,0.905224999999518,
0.188902510986328,0.134554133300781,0.0265277543945324,0.233436704908377,0.90814699999919,
0.205661922607422,0.139342536621094,0.0169509477539069,0.248999003115148,0.911073999999644,
0.217632930908203,0.14173673828125,-0.0357214887695303,0.262162965260568,0.914097999999285,
0.246363350830078,0.122583125,-0.021356278808593,0.276002923556147,0.917043999999805,
0.212844527587891,0.105823713378906,0.0241335527343765,0.23892232964919,0.920085999999174,
0.220027132568359,0.127371528320313,-0.021356278808593,0.255130429266007,0.923001999999542,
0.198479317626953,0.148919343261719,-0.00938527050781168,0.248312491884052,0.925930999999764,
0.198479317626953,0.192014973144531,0.014556746093751,0.276542380647513,0.928970999999365,
0.248757552490234,0.187226569824219,-0.059663505371093,0.317007637514053,0.931897999999819,
0.234392342529297,0.127371528320313,0.00497993945312558,0.26681093729452,0.934921000000031,
0.224815535888672,0.151313544921875,-0.0141736738281235,0.271364528049487,0.937852000000021,
0.203267720947266,0.0818816967773438,-0.0405098920898439,0.222852933575852,0.940832999999657,
0.200873519287109,0.120188923339844,-0.0429040937499998,0.237983842529043,0.943790999999692,
0.198479317626953,0.146525141601563,0.0456813676757815,0.250899270624186,0.946729999999661,
0.222421334228516,0.1608903515625,-0.0309330854492185,0.276249544653573,0.949744999999893,
0.258334359130859,0.153707746582031,-0.0429040937499998,0.303650249015848,0.952674999999545,
0.196085115966797,0.124977326660156,-0.0429040937499998,0.236451826263491,0.955666999999266,
0.210450325927734,0.108217915039063,-0.00220266552734216,0.236654407425504,0.95861799999966,
0.19369091430664,0.127371528320313,-0.0668461103515625,0.241263505281524,0.961534999999458,
0.200873519287109,0.158496149902344,-0.0285388837890626,0.257460032184765,0.964574999999968,
0.231998140869141,0.163284553222656,0.0337103593750001,0.285694541454771,0.967504999999619,
0.248757552490234,0.122583125,-0.0333272871093744,0.27931639859086,0.970537999999578,
0.231998140869141,0.122583125,0.014556746093751,0.262795849964076,0.97356899999977,
0.215238729248047,0.14173673828125,0.0169509477539069,0.258271849369375,0.97657099999924,
0.222421334228516,0.168072956542969,-0.00220266552734216,0.278791356351866,0.97969699999976,
0.222421334228516,0.1608903515625,0.0169509477539069,0.275035070083169,0.982664999999542,
0.231998140869141,0.139342536621094,-0.00459686718749985,0.270666974466184,0.98568399999931,
0.227209737548828,0.132159931640625,0.00497993945312558,0.262897912059451,0.988620999999512,
0.205661922607422,0.172861359863281,-0.00699106884765577,0.268750351047206,0.991545999999289,
0.17453730102539,0.163284553222656,0.0217393510742188,0.239995237776666,0.994603999999526,
0.19369091430664,0.165678754882813,-0.0117794721679676,0.255155591882712,0.997521999999663,
0.220027132568359,0.163284553222656,-0.00938527050781168,0.274156648086239,1.00055099999918,
0.179325704345703,0.148919343261719,-0.00220266552734216,0.233108409912662,1.00350199999957,
0.208056124267578,0.139342536621094,-0.0405098920898439,0.253662659282713,1.00640999999996,
0.217632930908203,0.151313544921875,-0.00220266552734216,0.265074957753358,1.00946799999929,
0.231998140869141,0.168072956542969,-0.0141736738281235,0.286831917885054,1.01241499999924,
