X,Y,Z,Magnitude,Seconds,
-0.896149681396485,0.153851398681641,0.0748906279296886,0.912339361474129,0.0,
-0.879390269775391,0.146668793701172,0.0294007963867209,0.892022078454096,0.00303500000001122,
-0.900938084716797,0.168216608642578,0.0461602080078141,0.91766934389229,0.00616800000000239,
-0.934456907958985,0.199341230224609,0.0317949980468768,0.956011276502808,0.0091419999999971,
-0.951216319580078,0.165822406982422,0.0748906279296886,0.968461751152113,0.0121819999999957,
-0.951216319580078,0.184976020263672,0.0365834013671886,0.969725198168867,0.0151419999999973,
-0.893755479736328,0.122726777099609,0.027006594726565,0.902546439544635,0.0181080000000122,
-0.884178673095703,0.170610810302734,0.0174297880859395,0.900657411040488,0.0211520000000007,
-0.941639512939453,0.216100641845703,0.0413718046875022,0.967003663880379,0.0240990000000068,
-0.929668504638672,0.168216608642578,0.0341891997070327,0.945383127264773,0.0271419999999978,
-0.891361278076172,0.125120978759766,0.0078529814453141,0.900134354803198,0.030097000000012,
-0.893755479736328,0.177793415283203,0.0246123930664091,0.91160031042625,0.0330440000000181,
-0.900938084716797,0.134697785400391,0.0868616362304699,0.915083531560685,0.0360929999999939,
-0.900938084716797,0.177793415283203,0.0413718046875022,0.919245101827764,0.0390529999999956,
-0.958398924560547,0.158639802001953,0.0126413847656277,0.971521945190547,0.0421240000000012,
0.949779798583984,1.47784491674805,0.0892558378906276,1.75899797281118,0.0450999999999908,
-1.84664774047852,-1.42632169702148,-0.0280600434570299,2.33351426540475,0.0480090000000075,
-2.11479832641602,-0.617081535888672,-0.147770126464842,2.20793967164462,0.0510429999999928,
-0.00550666381835963,1.15941609594727,0.261638357421877,1.18858345813932,0.0539960000000121,
0.442209046630859,1.50657533666992,0.15150508105469,1.57742571158507,0.0570419999999956,
-1.32710598022461,-1.91952723901367,0.608797598144534,2.41172751768725,0.0599819999999909,
-1.39653782836914,-1.1078928762207,-0.370430880859374,1.82070414091385,0.0629780000000153,
-0.201831199951172,1.06364802954102,0.0222181914062514,1.0828557669651,0.0659469999999942,
-1.34865379516602,0.963091559814453,-0.224384579589842,1.67235189220428,0.0689020000000085,
-2.24887361938477,-0.0400789357910157,0.0605254179687513,2.25004493361336,0.0719270000000165,
-1.24330892211914,0.857746686767578,-0.133404916503904,1.51635857442402,0.0748940000000005,
-0.692642540283203,1.32222180883789,-0.238749789550779,1.51163013412245,0.0778990000000022,
-1.41090303833008,0.314262909912109,0.352618020507814,1.48786693911194,0.0808700000000044,
-1.23612631713867,-0.0233195241699219,-0.0759440766601536,1.23867654168071,0.0837730000000079,
-0.58011506225586,0.388483161376953,0.0437660063476581,0.699548508283146,0.0867990000000134,
-0.898543883056641,-0.147818010498047,-0.437468527343748,1.0102524369792,0.0897050000000092,
-1.69102463256836,-0.430333806396484,-0.10467449658203,1.74805842096749,0.0927210000000116,
-1.7436970690918,0.156245600341797,-0.425497519042967,1.80164932633884,0.0956989999999962,
1.44298534057617,-0.0448673391113282,-0.85166541455078,1.67617235079768,0.0986100000000079,
0.854011732177734,-0.720032207275391,0.0772848295898463,1.11971217868514,0.101637000000011,
-1.97593463012695,0.0269587106933593,0.0916500395507835,1.97824269602262,0.104596000000015,
-2.34224748413086,0.204129633544922,-0.583514828613279,2.42245366094382,0.107603000000012,
-0.747709178466797,0.596778705810547,0.0892558378906276,0.960822795248927,0.110563000000013,
0.906684168701172,-0.89959733178711,0.0533428129882836,1.27835714760364,0.113500000000016,
-1.05656119262695,-0.447093218017578,0.0940442412109395,1.15111173161755,0.116507000000013,
-1.88974337036133,0.936755341552734,-0.0208774384765604,2.10928339565586,0.119462999999996,
-0.965581529541016,0.625509125732422,0.0365834013671886,1.15106372622062,0.12251599999999,
-0.247321031494141,-0.997759599853516,0.027006594726565,1.02830990847988,0.125457000000011,
-0.458010777587891,0.393271564697266,-0.00172382519531133,0.60368813766663,0.128375000000005,
-1.70060143920898,0.800285846923828,0.0222181914062514,1.87962664905976,0.131421000000017,
-1.30076976196289,-0.147818010498047,0.0533428129882836,1.31022806929256,0.134348000000017,
-0.0677559069824221,-0.298652715087891,0.027006594726565,0.307430745565736,0.137405999999999,
-0.663912120361328,0.431578791259766,0.0294007963867209,0.792403914336678,0.140451000000013,
-1.56173774291992,0.254407868408203,-0.00651222851562316,1.5823370533135,0.143500000000017,
-0.991917747802735,-0.0879629689941407,0.00545877978515819,0.995825336390402,0.14657600000001,
-0.165918175048828,0.0892079538574218,0.0222181914062514,0.189685391826377,0.149530999999996,
-0.666306322021485,0.0413239206542969,0.134745669433595,0.681049320251587,0.152556000000004,
-1.31513497192383,-0.61229313256836,-0.430285922363279,1.51315195851292,0.155495999999999,
-0.891361278076172,-0.384843974853516,-0.0711556733398417,0.973495219753588,0.158495000000016,
-0.747709178466797,-0.135847002197266,-0.269874411132811,0.806446291673387,0.161451,
-0.857842454833985,-0.238797673583984,0.173052895996095,0.90711923749712,0.164380999999992,
-0.256897838134766,2.3996125559082,0.12516886279297,2.41656867519289,0.167406,
-0.50350060913086,0.426790387939453,0.632739614746097,0.914342560915598,0.170363000000009,
-1.08289741088867,0.0125935007324218,-0.32733525097656,1.13135925563102,0.17337599999999,
-0.88657287475586,0.141880390380859,-0.18128894970703,0.915973356988822,0.176323999999994,
-0.862630858154297,0.0556891306152343,0.127563064453128,0.873788081929121,0.179289000000011,
-1.60483337280273,0.0485065256347656,-0.317758444335936,1.63670811888906,0.182363000000009,
-1.25049152709961,0.826622065185547,0.321493398925783,1.53309853028186,0.185317999999995,
-0.996706151123047,1.3054623972168,-0.320152645996092,1.67336575170279,0.188337000000018,
-1.49230589477539,0.704517780517578,0.106015249511721,1.65365093649652,0.191305999999997,
-1.7269376574707,0.254407868408203,-0.600274240234373,1.84590525211544,0.194242000000003,
-1.67905362426758,0.0892079538574218,-0.281845419433592,1.70488004641183,0.197278000000011,
-1.79158110229492,0.244831061767578,-0.700830709960936,1.93929594928956,0.200220000000002,
-1.32471177856445,0.316657111572266,1.00144667041016,1.69057045290999,0.203265000000016,
0.858800135498047,0.314262909912109,-0.439862729003904,1.01477981338054,0.206203000000016,
-0.462799180908203,-0.00177170922851566,0.15150508105469,0.486970235628711,0.209136999999998,
-2.21774899780273,-0.547649687744141,-0.205230966308592,2.29356721010596,0.212148000000013,
-1.00867715942383,-0.186125237060547,0.213754324218751,1.04774191809643,0.215082999999993,
-0.0845153186035159,0.654239545654297,0.0868616362304699,0.66536994674033,0.218135000000018,
0.00646434448242172,-0.712849602294922,-0.154952731445311,0.729524977107692,0.221080000000001,
-0.436462962646485,-1.19408413598633,0.0126413847656277,1.27141521391918,0.224018999999998,
-1.3223175769043,0.967879963134766,0.0820732329101581,1.64074721172645,0.227075000000013,
-1.49948849975586,0.934361139892578,-0.150164328124998,1.77314574304615,0.230029000000002,
-1.33189438354492,-0.0400789357910157,-0.0735498749999977,1.33452559140886,0.233053000000012,
1.33524626586914,6.88634646704102,-1.42627381298828,7.15813573804394,14.560057,
1.36158248413086,6.75945377905273,-1.15572902539062,6.99141129046008,14.564402,
1.26342021606445,6.6134074777832,-1.05277835400391,6.81481704612958,14.567368,
1.32806366088867,6.46975537817383,-0.878001632812499,6.66276028444695,14.570327,
1.25144920776367,6.38835252172852,-0.631398861816404,6.54032396630247,14.573393,
1.15807534301758,6.37159311010742,-0.504506173828123,6.49560341618116,14.576377,
1.09582609985352,6.25427722875977,-0.432680124023436,6.36427769546773,14.579422,
1.08385509155273,6.10823092749023,-0.231567184570311,6.20796667871235,14.58241,
1.03597105834961,6.02443386938477,-0.154952731445311,6.11482214208318,14.58542,
1.05512467163086,5.94781941625977,0.0317949980468768,6.0407660774956,14.588579,
0.995269630126953,5.86162815649414,0.0820732329101581,5.94608966441125,14.591663,
0.973721815185547,5.76825429174805,0.182629702636721,5.85271264935527,14.594787,
1.05991307495117,5.68445723364258,0.280791970703127,5.7892412195706,14.597765,
1.03836526000977,5.58868916723633,0.359800625488283,5.69570939491137,14.600741,
1.07667248657227,5.48573849584961,0.352618020507814,5.6015078288417,14.603792,
1.13652752807617,5.44503706762695,0.460357095214846,5.58140234573903,14.606794,
1.17244055297852,5.37799942114258,0.501058523437502,5.52707465735608,14.609881,
1.2442666027832,5.3277211862793,0.558519363281253,5.49952327903892,14.612875,
1.26342021606445,5.29180816137695,0.539365750000002,5.46720949584421,14.615833,
1.36876508911133,5.29420236303711,0.659075833007815,5.50785597883719,14.618905,
1.34003466918945,5.30856757299805,0.568096169921876,5.50448143334102,14.62191,
1.29454483764648,5.39236463110352,0.711748269531252,5.59106682580651,14.625011,
1.29693903930664,5.45940227758789,0.644710623046876,5.64825423362644,14.628033,
1.29693903930664,5.60305437719727,0.663864236328127,5.78938554164279,14.631106,
1.2610260144043,5.81613832495117,0.639922219726564,5.9855786747206,14.634098,
1.26342021606445,6.0387990793457,0.706959866210939,6.20992087030905,14.637079,
1.28017962768555,6.30216126196289,0.635133816406253,6.46215841771691,14.640136,
1.30172744262695,6.55115823461914,0.635133816406253,6.70936386810621,14.64314,
1.26820861938477,6.73311756079102,0.668652639648439,6.88406286594065,14.646177,
1.21793038452148,6.95577831518555,0.618374404785158,7.08862421743737,14.649176,
1.15089273803711,7.07069999487305,0.637528018066408,7.19206468865401,14.652147,
1.05991307495117,7.1880158762207,0.575278774902346,7.28847951441907,14.655192,
0.978510218505859,7.25744772436524,0.520212136718753,7.34157002192338,14.658179,
0.882742152099609,7.27420713598633,0.60400919482422,7.35242478858234,14.661248,
0.815704505615234,7.32448537084961,0.615980203125002,7.39546424498914,14.664223,
0.727119044189453,7.24547671606445,0.599220791503909,7.30648345679546,14.667188,
0.686417615966797,7.2263231027832,0.589643984863283,7.28276010577125,14.670237,
0.605014759521484,7.1281608347168,0.699777261230471,7.18793488841994,14.673224,
0.535582911376953,7.04675797827148,0.769209109375002,7.10882055711335,14.676274,
0.523611903076172,6.88395226538086,0.888919192382815,6.96082937211306,14.679266,
0.466151063232422,6.74030016577148,0.860188772460939,6.81093737034189,14.682232,
0.391930811767578,6.54397562963867,0.989475662109378,6.629953912994,14.685284,
0.305739552001953,6.41708294165039,0.996658267089845,6.50121202969395,14.68827,
0.238701905517578,6.21597000219727,1.10439734179688,6.31782835763065,14.691333,
0.181241065673828,5.93584840795898,1.12833935839844,6.0448568513958,14.694321,
0.183635267333984,5.68445723364258,1.12355095507813,5.79733927773571,14.6973,
0.114203419189453,5.46897908422852,1.14031036669922,5.58776183968906,14.700326,
0.0495599743652342,5.17688648168945,1.14031036669922,5.30121849839825,14.703302,
0.0782903942871092,5.01886917211914,1.03257129199219,5.12458589797575,14.70634,
0.0160411511230467,4.79620841772461,0.994264065429689,4.89820717575181,14.709313,
0.0447715710449217,4.64058530981445,0.999052468750001,4.74711937353117,14.712269,
0.0304063610839842,4.53045203344727,0.989475662109378,4.63734646754668,14.715301,
-0.0246602770996096,4.52566363012695,0.941591628906252,4.62264363951482,14.718244,
0.0208295544433592,4.45623178198242,0.898495999023439,4.5459576136772,14.721303,
0.0519541760253905,4.50411581518555,0.783574319335939,4.57206159483157,14.724293,
0.142933839111328,4.43228976538086,0.68062364794922,4.48652105721245,14.727429,
0.18602946899414,4.46102018530273,0.64949902636719,4.51189062835798,14.730511,
0.217154090576172,4.52087522680664,0.515423733398439,4.5553408588555,14.733591,
0.265038123779297,4.55199984838867,0.479510708496095,4.58485314337868,14.736688,
0.341652576904297,4.63579690649414,0.316704995605471,4.65914600498927,14.739685,
0.391930811767578,4.7363533762207,0.15150508105469,4.75495603084145,14.742734,
0.468545264892578,4.77705480444336,0.0868616362304699,4.80076371151063,14.745732,
0.451785853271484,4.87282287084961,0.0198239897460954,4.8937619658562,14.748758,
0.533188709716797,4.98774455053711,-0.109462899902342,5.01735667737875,14.751812,
0.614591566162109,5.1361850534668,-0.315364242675779,5.18242938226965,14.754811,
0.669658204345703,5.2511067331543,-0.300999032714842,5.30218487524918,14.757893,
0.705571229248047,5.38039362280273,-0.329729452636716,5.43646832123347,14.760895,
0.806127698974609,5.5192573190918,-0.401555502441404,5.59225268053433,14.763908,
0.861194337158203,5.6940340402832,-0.473381552246092,5.77821507320938,14.766976,
0.935414588623047,5.78501370336914,-0.51887138378906,5.88307840451687,14.770021,
0.980904420166016,5.9621846262207,-0.554784408691404,6.06775120936668,14.77309,
0.980904420166016,6.05316428930664,-0.609851046874999,6.16237695164885,14.776101,
1.02160584838867,6.17766277563477,-0.66012928173828,6.29626607979155,14.77909,
1.07906668823242,6.16090336401367,-0.801387179687499,6.30581767815526,14.782173,
1.05751887329102,6.2470946237793,-0.755897348144529,6.38090261693053,14.785172,
1.02160584838867,6.25906563208008,-0.791810373046873,6.39113016320373,14.788238,
0.964145008544922,6.12977874243164,-0.779839364746092,6.25395174777328,14.791229,
0.942597193603516,6.01246286108398,-0.803781381347655,6.13875098324607,14.794202,
0.83725232055664,5.87838756811523,-0.753503146484373,5.98533197416911,14.797251,
0.736695850830078,5.6724862253418,-0.753503146484373,5.76953964758754,14.800255,
0.624168372802734,5.47376748754883,-0.751108944824217,5.56020515020343,14.803293,
0.557130726318359,5.21998211157227,-0.681677096679685,5.29370300975415,14.806279,
0.478122071533203,4.94225471899414,-0.614639450195311,5.00322536734489,14.809235,
0.427843836669922,4.65495051977539,-0.631398861816404,4.71702016243695,14.812279,
0.35841198852539,4.45144337866211,-0.576332223632811,4.5028842022587,14.815252,
0.255461317138672,4.16892758276367,-0.593091635253904,4.21864615281848,14.818309,
0.214759888916015,3.92471901342773,-0.554784408691404,3.9695499599294,14.821285,
0.142933839111328,3.67572204077148,-0.549996005371092,3.71938949416441,14.824363,
0.126174427490234,3.53446414282227,-0.581120626953123,3.58413977770388,14.827333,
0.118991822509765,3.38123523657227,-0.607456845214841,3.43742848618854,14.830296,
0.075896192626953,3.27110196020508,-0.686465499999999,3.34321748452042,14.833336,
0.0112527478027342,3.16096868383789,-0.760685751464841,3.25122937625425,14.836331,
0.00885854614257786,3.02449918920898,-0.777445163085936,3.122834417796,14.839365,
-0.0318428820800782,2.99816297094727,-0.933068270996092,3.14016107354991,14.842343,
-0.0797269152832034,2.9742209543457,-0.988134909179685,3.13508488960493,14.845291,
-0.132399351806641,2.95985574438477,-1.07432616894531,3.15157933950694,14.848345,
-0.113245738525391,3.03647019750977,-1.31374633496094,3.31042373273913,14.851306,
-0.113245738525391,3.09871944067383,-1.38317818310547,3.39530096685449,14.854369,
-0.122822545166016,3.21124691870117,-1.58189692089844,3.58184170767174,14.857327,
-0.0390254870605471,3.32138019506836,-1.71836641552734,3.73976904726013,14.860292,
-0.0342370837402346,3.47939750463867,-1.89074893505859,3.96008973491941,14.863329,
0.0615309826660155,3.65896262915039,-1.96736338818359,4.15479389194124,14.866368,
0.0998382092285155,3.91514220678711,-2.1636879243164,4.47435488101027,14.869524,
0.140539637451172,4.12822615454102,-2.34325304882812,4.74898277777186,14.872623,
0.238701905517578,4.22878262426758,-2.4318385102539,4.88399627589529,14.875688,
0.260249720458984,4.3915883371582,-2.62098044140625,5.12087067931783,14.878759,
0.288980140380859,4.56875926000977,-2.74547892773437,5.33804507662618,14.881731,
0.315316358642578,4.68846934301758,-2.80533396923828,5.47275687980066,14.884819,
0.317710560302734,4.85606345922852,-2.89870783398437,5.6643445717033,14.887804,
0.336864173583984,4.89915908911133,-2.98011069042969,5.74424033089493,14.890846,
0.265038123779297,4.89197648413086,-3.00165850537109,5.74557507228061,14.893979,
0.195606275634765,4.7914200144043,-3.15249320996094,5.73883097924582,14.896997,
0.107020814208984,4.72198816625977,-3.08306136181641,5.64038057738097,14.900098,
0.0232237561035153,4.64537371313477,-3.06390774853515,5.56485102847011,14.903121,
-0.163523973388672,4.6214316965332,-2.99687010205078,5.51049919917973,14.906106,
-0.285628258056641,4.45862598364258,-3.02081211865234,5.39316558433079,14.909148,
-0.412520946044922,4.24554203588867,-2.96574548046875,5.19523310009708,14.91216,
-0.50350060913086,4.10667833959961,-2.93462085888672,5.07250622806367,14.915238,
-0.616028087158203,3.98457405493164,-2.77420934765625,4.89413511338066,14.918204,
-0.699825145263672,3.87922918188477,-2.67844128125,4.76573414875755,14.921245,
-0.77165119506836,3.70445246069336,-2.60661523144531,4.59487285625949,14.924237,
-0.821929429931641,3.57755977270508,-2.49887615673828,4.44059500087324,14.927195,
-0.879390269775391,3.42672506811523,-2.47732834179687,4.31890352428658,14.930226,
-0.946427916259766,3.30701498510742,-2.47253993847656,4.23621619606017,14.933245,
-1.0541669909668,3.17772809545898,-2.37198346875,4.10311216877344,14.936304,
-1.05895539428711,2.93351952612305,-2.41747330029297,3.94602337738442,14.939279,
-1.10923362915039,2.7994442331543,-2.37198346875,3.83322225217926,14.942233,
-1.20260749389648,2.72043557836914,-2.38874288037109,3.81485610068797,14.945297,
-1.2672509387207,2.69888776342773,-2.42944430859375,3.84605248921892,14.948275,
-1.2840103503418,2.65339793188477,-2.51324136669922,3.87370434235802,14.951327,
-1.31513497192383,2.70128196508789,-2.64971086132812,4.0059295922328,14.95429,
-1.24330892211914,2.72043557836914,-2.67125867626953,4.01026304965434,14.957313,
-1.21218430053711,2.7826848215332,-2.87476581738281,4.18055069330018,14.960445,
-1.10205102416992,2.85451087133789,-3.02799472363281,4.30482297206381,14.963444,
-0.972764134521485,2.99337456762695,-3.14531060498047,4.44966742187883,14.966471,
-0.939245311279297,3.27349616186523,-3.31051051953125,4.74946720974402,14.969445,
-0.79080480834961,3.55601195776367,-3.49007564404297,5.04492034523926,14.97238,
-0.704613548583985,3.76430750219727,-3.69118858349609,5.318962716816,14.975468,
-0.79080480834961,4.35567531225586,-3.58344950878906,5.69547101236979,14.978453,
-0.716584556884766,4.58073026831055,-3.70076539013672,5.93230542799475,14.981563,
-0.61842228881836,4.86324606420898,-3.76780303662109,6.18303712839593,14.984584,
-0.56096144897461,5.19364589331055,-3.77977404492187,6.44789324066414,14.987652,
-0.505894810791016,5.4809500925293,-3.85399429638672,6.71937612527856,14.990784,
-0.40773254272461,5.76346588842773,-3.88033051464844,6.95993892044884,14.993799,
-0.33111808959961,5.97415563452148,-4.00961740429687,7.20258331875344,14.996864,
-0.278445653076172,6.15611496069336,-3.99046379101562,7.34159959807101,14.999951,
-0.25450363647461,6.23991201879883,-4.06947244580078,7.45398417562451,15.002924,
-0.209013804931641,6.28061344702148,-4.11735647900391,7.51281680974284,15.005971,
-0.151552965087891,6.30216126196289,-4.23706656201172,7.59558673993856,15.008952,
-0.146764561767578,6.18963378393555,-4.26819118359375,7.52001078426983,15.012078,
-0.194648594970703,6.06513529760742,-4.30171000683594,7.438310509566,15.015074,
-0.247321031494141,5.87838756811523,-4.31368101513672,7.29550902911798,15.018107,
-0.328723887939453,5.72994706518555,-4.287344796875,7.16391500309863,15.021066,
-0.496318004150391,5.5192573190918,-4.15087530224609,6.92374888989981,15.024055,
-0.616028087158203,5.33729799291992,-4.06228984082031,6.73560978829881,15.02714,
-0.726161363525391,5.11224303686523,-3.88511891796875,6.46192604419246,15.030156,
-0.865025059814453,4.97098513891602,-3.74386102001953,6.28294970078963,15.033325,
-0.979946739501953,4.89437068579102,-3.6576697602539,6.18819101977846,15.036313,
-1.07092640258789,4.81536203100586,-3.5044408540039,6.05109085608738,15.039394,
-1.19303068725586,4.76268959448242,-3.44698001416015,5.99901705383014,15.042504,
-1.3438653918457,4.75790119116211,-3.4062785859375,6.00385973697577,15.045541,
-1.34625959350586,4.77705480444336,-3.35839455273437,5.99261891576612,15.048646,
-1.37738421508789,4.74353598120117,-3.22910766308594,5.9013097851853,15.051657,
-1.30316396362305,4.85366925756836,-3.3129047211914,6.01927564326823,15.054692,
-1.20500169555664,4.85366925756836,-3.25065547802734,5.96463707068483,15.057796,
-1.18105967895508,5.04759959204102,-3.17164682324219,6.07721212219948,15.060778,
-1.17866547729492,5.27983715307617,-3.24107867138672,6.30638752571456,15.063865,
-1.1523292590332,5.45221967260742,-3.24347287304687,6.44784292285275,15.066919,
-0.94403371459961,5.6724862253418,-3.21234825146484,6.58691740647189,15.069875,
-0.836294639892578,5.80656151831055,-3.24347287304687,6.70340672112538,15.072998,
-0.802775816650391,6.01964546606445,-3.29135690625,6.90750395101071,15.076037,
-0.764468590087891,6.22554680883789,-3.30332791455078,7.08899291897749,15.079135,
-0.546596239013672,6.27582504370117,-3.34163514111328,7.13100784209174,15.082114,
-0.558567247314453,6.57749445288086,-3.3296641328125,7.39338176241353,15.085074,
-0.474770189208985,6.94859571020508,-3.2745974946289,7.69619242406736,15.088141,
-0.405338341064453,7.30533175756836,-3.17164682324219,7.97442880902801,15.091107,
-0.280839854736328,7.56869394018555,-3.05193674023437,8.16567920326302,15.094154,
-0.240138426513672,7.80571990454102,-2.96335127880859,8.35274688313089,15.097158,
-0.141976158447266,7.99725603735352,-2.86758321240234,8.4970168198378,15.100148,
-0.606451280517578,8.5072209909668,-2.72632531445312,8.95396235557283,15.103244,
-0.247321031494141,8.4138471262207,-2.64731665966797,8.82396037233777,15.106238,
-0.180283385009766,8.18639796850586,-2.22114876416016,8.48428639487126,15.109333,
-0.683065733642578,8.38511670629883,-2.16847632763672,8.68786800994635,15.112291,
-0.302387669677735,8.19118637182617,-2.18284153759766,8.48243889804257,15.115335,
-0.77165119506836,8.10499511206055,-1.84525910351562,8.34813586931137,15.118367,
-0.639970103759766,7.92303578588867,-1.74470263378906,8.13806150618987,15.121396,
-0.850659849853516,7.8176909128418,-1.43106221630859,7.99298770522188,15.124527,
-1.13796404907227,7.58305915014649,-1.18206524365234,7.75854538504816,15.127554,
-1.21457850219727,7.38434041235352,-0.708013314941404,7.51697858967627,15.130643,
-1.5904681628418,7.19519848120117,-0.492535165527341,7.38532741658581,15.133699,
-1.61680438110352,7.02521016333008,-0.360854074218748,7.21788403263671,15.136707,
-1.56173774291992,6.75945377905273,-0.150164328124998,6.9391490468394,15.13986,
-1.63835219604492,6.56791764624024,-0.119039706542967,6.77022234330697,15.142944,
-1.49948849975586,6.18245117895508,-0.128616513183593,6.36299540692327,15.146031,
-1.64553480102539,6.1321729440918,-0.0543962617187486,6.34935341203544,15.149038,
-1.64314059936523,5.86641655981445,-0.0807324799804672,6.09272287371348,15.152064,
-1.47794068481445,5.54798773901367,-0.210019369628904,5.74530980502315,15.155191,
-1.3438653918457,5.22716471655273,-0.279451217773435,5.40437953408988,15.158176,
-1.32950018188477,4.87761127416992,-0.233961386230467,5.06096832689042,15.161217,
-1.23852051879883,4.82015043432617,-0.193259958007811,4.98047514765305,15.164188,
-1.16430026733398,4.70522875463867,-0.408738107421874,4.8643436953459,15.167191,
-1.08050320922852,4.72677656958008,-0.552390207031248,4.88006545701063,15.170233,
-0.977552537841797,4.71719976293945,-0.657735080078123,4.86211867433142,15.173231,
-0.819535228271485,4.88000547583008,-0.691253903320311,4.99639103687503,15.176386,
-0.836294639892578,5.07154160864258,-0.681677096679685,5.18503680575593,15.179376,
-0.876996068115235,5.64136160375977,-0.798992978027341,5.76476128099001,15.182388,
-0.709401951904297,5.90951218969727,-0.758291549804685,6.00004929346846,15.185451,
-0.601662877197266,6.18484538061523,-0.870819027832029,6.27476185836158,15.188447,
-0.582509263916016,6.49369739477539,-0.878001632812499,6.57862521843904,15.191512,
-0.678277330322266,6.8815580637207,-0.949827682617185,6.97983338969165,15.194502,
-0.625604893798828,7.27420713598633,-0.913914657714843,7.35803716638925,15.197512,
-0.625604893798828,7.61657797338867,-0.92827986767578,7.69839886084027,15.200604,
-0.659123717041016,7.94697780249023,-0.978558102539061,8.03408216460868,15.203582,
-0.666306322021485,8.21991679174805,-1.069537765625,8.31594295375608,15.206675,
-0.850659849853516,8.5072209909668,-1.10305658886718,8.62050839611807,15.209649,
-0.970369932861328,8.66763250219727,-1.14615221875,8.79676849236657,15.212664,
-1.08768581420898,8.80170779516602,-1.08390297558594,8.93464975264289,15.215698,
-1.2840103503418,8.81607300512695,-1.07911457226562,8.97420269837879,15.218697,
-1.4204798449707,8.75142956030274,-1.07911457226562,8.93139242218057,15.22178,
-1.60962177612305,8.70593972875977,-0.971375497558592,8.90661771831622,15.224745,
-1.81312891723633,8.5838354440918,-0.868424826171873,8.81611190267438,15.227782,
-1.97832883178711,8.34680947973633,-0.73674373486328,8.60963441666118,15.230782,
-2.13155773803711,8.19118637182617,-0.573938021972655,8.48342368514284,15.233749,
-2.27760403930664,8.07147628881836,-0.408738107421874,8.39662292122742,15.236786,
-2.3781605090332,7.9326125925293,-0.310575839355467,8.28724606258743,15.239783,
-2.4332271472168,7.70037503149414,-0.190865756347653,8.07792050669956,15.242934,
-2.52181260864258,7.52799251196289,-0.0328484467773418,7.93922471742259,15.245926,
-2.48829378540039,7.31490856420899,0.0796790312500022,7.72695554621748,15.248882,
-2.4715343737793,6.97014352514648,0.0916500395507835,7.39593014107514,15.251949,
-2.41407353393555,6.73311756079102,0.201783315917972,7.15565088732418,15.254889,
-2.41167933227539,6.42665974829102,0.115592056152346,6.86523956213283,15.257978,
-2.34703588745117,6.18005697729492,0.223331130859377,6.61449608765523,15.260942,
-2.40689092895508,5.79937891333008,0.244878945800783,6.28377954915354,15.263958,
-2.08127950317383,5.58390076391602,0.101226846191409,5.96002676050898,15.267075,
-2.12198093139649,5.28462555639648,0.175447097656251,5.69744258668792,15.2701,
-1.93044479858398,5.10266623022461,0.0820732329101581,5.45624007838868,15.273228,
-1.70778404418945,4.95901413061523,-0.00651222851562316,5.2448441252672,15.276224,
-1.65271740600586,4.77705480444336,-0.0998860932617163,5.05585844940275,15.279199,
-1.4372392565918,4.68607514135742,-0.123828109863279,4.90308987393958,15.282341,
-1.23852051879883,4.60706648657227,-0.339306259277341,4.78268997790656,15.285339,
