X,Y,Z,Magnitude,Seconds,
0.00536301171874998,0.0368707055664062,-0.0326090266113308,0.0495132249020254,0.0,
0.0173340200195312,-0.0205901342773438,-0.0613394465332053,0.0669846966149471,0.00395000000000323,
-0.023367408203125,0.0081402856445312,-0.00148440502930036,0.0247891805995488,0.00797099999999773,
0.0197282216796875,0.0320823022460937,-0.0565510432128935,0.0679448109609494,0.0118490000000122,
-0.042521021484375,0.00335188232421871,-0.00866701000976811,0.0435245843828464,0.015814000000006,
-0.0473094248046875,-0.00383072265625004,0.0416112248535132,0.0631217089853334,0.0198320000000081,
0.00536301171874998,-0.04213794921875,-0.00387860668945628,0.0426545689101285,0.0237209999999948,
0.014939818359375,-0.0301669409179688,-0.0373974299316444,0.0503170971186891,0.0275780000000054,
-0.0209732065429687,0.015322890625,0.0200634099121064,0.0328208285559787,0.0315650000000005,
-0.0161848032226563,0.0129286889648437,-0.00387860668945628,0.0210746872706873,0.0354700000000037,
-0.00900219824218751,-0.0181959326171875,-0.0685220515136749,0.0714660974213898,0.0393550000000005,
-0.0185790048828125,-0.00143652099609379,0.0176692082519505,0.0256796404814901,0.0433649999999943,
-0.0377326181640625,0.0320823022460937,-0.0589452448730494,0.0769906908922657,0.0474990000000162,
-0.0473094248046875,0.0105344873046874,0.0440054265136691,0.0654647589224381,0.0514990000000068,
-0.00900219824218751,-0.0158017309570313,0.0392170231933573,0.0432285690554102,0.0553969999999993,
-0.0353384165039063,0.0225054956054687,0.0535822331542946,0.0680173266400004,0.0592819999999961,
0.00296881005859373,0.00095768066406246,0.0200634099121064,0.0203044675556769,0.0631879999999967,
-0.00660799658203126,0.00574608398437496,-0.0182438166503935,0.020236599169742,0.0670829999999967,
-0.00421379492187501,-0.013407529296875,-0.0158496149902376,0.0211832057259742,0.0710050000000138,
-0.0137906015625,0.0225054956054687,-0.0565510432128935,0.06240751967808,0.0748880000000156,
-0.0257616098632813,0.0105344873046874,0.0679474431152318,0.0734267729879109,0.0788670000000025,
0.00775721337890622,-0.0229843359375,-0.0469742365722681,0.0528680712665135,0.0827380000000062,
-0.0113963999023438,-0.0181959326171875,-0.0373974299316444,0.0431223568469492,0.0866990000000101,
-0.0257616098632813,0.0081402856445312,-0.011061211669924,0.0291937527003525,0.0905410000000018,
0.000574608398437482,-0.0158017309570313,-0.0757046564941444,0.0773383468335492,0.0944939999999974,
-0.0377326181640625,0.0105344873046874,0.046399628173825,0.060726035528073,0.0983540000000005,
0.00775721337890622,-0.00383072265625004,-0.0158496149902376,0.0180571063798648,0.10227900000001,
-0.0305500131835938,0.00574608398437496,0.0272460148925759,0.0413360147353336,0.106357000000003,
0.04367023828125,-0.0158017309570313,0.0200634099121064,0.0505897700141122,0.110287999999997,
-0.023367408203125,0.0536301171875,0.010486603271481,0.0594322646703783,0.114235000000008,
-0.0377326181640625,-0.0469263525390626,-0.0230322199707054,0.0644694981593178,0.118157999999994,
-0.00421379492187501,0.0201112939453125,-0.00627280834961219,0.0214841415092469,0.122095999999999,
-0.0209732065429687,-0.00143652099609379,-0.0206380183105495,0.0294595788335954,0.12594900000002,
-0.00660799658203126,-0.0158017309570313,0.0368228215331996,0.0406113346952843,0.129755000000017,
0.00296881005859373,0.0488417138671875,0.0703416447753877,0.0856870692482539,0.133608000000009,
0.0197282216796875,-0.0229843359375,-0.027820623291019,0.041127478763371,0.137451999999996,
0.000574608398437482,0.0225054956054687,0.0176692082519505,0.0286186727069954,0.141318000000012,
-0.00900219824218751,0.00574608398437496,-0.0517626398925817,0.0528528896371449,0.145159000000007,
-0.00421379492187501,-0.0541089575195313,0.00809240161132507,0.0548727830106423,0.149082000000021,
0.0101514150390625,0.03447650390625,0.00809240161132507,0.036839754515088,0.15312400000002,
-0.042521021484375,0.00095768066406246,-0.0254264216308631,0.0495525714497182,0.156947000000002,
-0.0185790048828125,0.00335188232421871,0.0320344182128878,0.0371835782004526,0.160908000000006,
0.00536301171874998,0.0201112939453125,0.0368228215331996,0.0422983004920538,0.164801000000011,
0.0125456166992187,0.063206923828125,-0.049368438232424,0.0811772776809297,0.168655999999999,
-0.00660799658203126,0.0177170922851562,-0.0230322199707054,0.0298000693732051,0.172559000000007,
0.0197282216796875,0.015322890625,-0.011061211669924,0.0273192992471525,0.176517000000018,
-0.00660799658203126,-0.04213794921875,0.0344286198730437,0.0548142522484128,0.180459000000013,
-0.023367408203125,0.0272938989257812,0.0152750065917946,0.0390425218330169,0.184314999999998,
-0.0257616098632813,-0.0181959326171875,0.0176692082519505,0.0361518108371896,0.188243999999997,
-0.0281558115234375,-0.013407529296875,-0.0230322199707054,0.0387684758685309,0.192137000000002,
-0.0473094248046875,-0.00143652099609379,0.0272460148925759,0.0546130991196166,0.196055999999999,
-0.0281558115234375,-0.0229843359375,-0.0421858332519562,0.0556836955328313,0.199929999999995,
-0.0353384165039063,0.0225054956054687,-0.0421858332519562,0.0594554080014021,0.203762000000012,
-0.0137906015625,0.00574608398437496,0.010486603271481,0.0182528633585132,0.207573999999994,
-0.0209732065429687,0.0129286889648437,0.0559764348144505,0.0611587086650799,0.211517000000015,
0.0293050283203125,0.03447650390625,-0.0182438166503935,0.0487878145895588,0.215367000000015,
-0.0161848032226563,-0.0062249243164063,0.0224576115722623,0.0283732595172233,0.219268,
-0.023367408203125,-0.013407529296875,-0.00866701000976811,0.0283004358709801,0.223192000000012,
0.00775721337890622,-0.0158017309570313,0.010486603271481,0.0204899465303772,0.227214000000004,
-0.00660799658203126,0.0177170922851562,0.0272460148925759,0.0331648353741632,0.231140000000011,
-0.00660799658203126,0.0464475122070312,-0.0302148249511749,0.0558029807078492,0.234995999999995,
-0.0377326181640625,0.0392649072265625,0.0128808049316369,0.0559589005316614,0.238875000000007,
-0.0592804331054688,0.0416591088867187,0.00330399829101324,0.0725297697991277,0.242688000000015,
0.0269108266601562,-0.0253785375976563,-0.00866701000976811,0.0379918389215111,0.246621000000005,
-0.023367408203125,0.00095768066406246,-0.00387860668945628,0.0237064655365849,0.250568000000015,
-0.0161848032226563,-0.0181959326171875,0.0320344182128878,0.0402398281482852,0.254412000000002,
0.0364876333007813,0.0368707055664062,0.0272460148925759,0.0585930169933531,0.258279000000016,
0.0269108266601562,0.00574608398437496,0.00330399829101324,0.0277150947571081,0.262172000000021,
0.000574608398437482,-0.0110133276367188,0.0128808049316369,0.0169569660061035,0.266050000000007,
0.00536301171874998,-0.0301669409179688,0.0559764348144505,0.0638135367581213,0.269947000000002,
-0.052097828125,0.0177170922851562,0.0200634099121064,0.058571490263472,0.273765999999995,
0.0173340200195312,0.0272938989257812,0.0368228215331996,0.0490035238964928,0.277553000000012,
-0.0161848032226563,0.0105344873046874,0.048793829833981,0.0524762909130992,0.28134,
0.0388818349609375,0.0392649072265625,-0.0158496149902376,0.0574868708904816,0.285176000000007,
-0.0305500131835938,0.0368707055664062,0.0631590397949182,0.0792579115438858,0.288984999999997,
-0.0473094248046875,-0.133117612304688,0.010486603271481,0.141663154098816,0.292833999999999,
0.053247044921875,0.106302553710937,0.0176692082519505,0.12019850930286,0.296983000000012,
-0.126318079589844,-0.0780509741210938,0.0703416447753877,0.164305078382333,0.300820000000016,
-0.150260096191406,-0.190578452148438,-0.0397916315918003,0.245930105671271,0.304778999999996,
-0.03294421484375,0.407971962890625,0.101466266357418,0.421689277792328,0.308671000000004,
0.3692816640625,0.063206923828125,0.144561896240232,0.401574656168881,0.312413000000021,
-0.171807911132813,-0.418027609863281,-0.063733648193363,0.456428547362962,0.315334000000007,
-0.456717908691406,-0.101992990722656,-0.0469742365722681,0.470319462894691,0.318241999999998,
0.034093431640625,0.319386501464844,-0.0302148249511749,0.322619024618538,0.321277000000009,
0.338157042480469,0.218830031738281,0.0703416447753877,0.408882275428297,0.324229000000003,
0.0508528432617187,-0.209732065429688,-0.0397916315918003,0.219446861180426,0.327299000000011,
-0.269970179199219,-0.231279880371094,-0.0709162531738308,0.36249606299316,0.330303000000015,
-0.0640688364257813,0.101514150390625,0.00569819995116916,0.120176570150622,0.333247,
0.172957127929687,0.24516625,-0.0421858332519562,0.302985647791955,0.336325000000016,
0.0795832631835937,-0.0612915625,-0.0134554133300817,0.101346926744346,0.339250000000021,
-0.140683289550781,-0.207337863769531,-0.00627280834961219,0.250639433920388,0.342295000000007,
-0.104770264648438,0.015322890625,-0.00387860668945628,0.105955853644151,0.345224999999999,
0.0700064565429687,0.170945998535156,0.0176692082519505,0.185568422133549,0.348184000000003,
0.110707884765625,0.0392649072265625,0.0152750065917946,0.118453765306,0.351258999999999,
-0.102376062988281,-0.15705962890625,-0.0373974299316444,0.191173097141417,0.354183000000006,
-0.138289087890625,-0.0541089575195313,-0.00627280834961219,0.148630411551817,0.357160000000022,
-0.0209732065429687,0.0775721337890625,0.0416112248535132,0.0904920182507378,0.360118,
0.0580354482421875,0.0679953271484375,0.0200634099121064,0.0916188746055957,0.363078000000002,
-0.00660799658203126,-0.0756567724609376,-0.0469742365722681,0.0892983299932402,0.366038000000003,
-0.099981861328125,-0.0732625708007813,-0.0206380183105495,0.125657091621454,0.368988000000002,
-0.0209732065429687,0.044053310546875,0.00330399829101324,0.048902821672583,0.372039999999998,
0.0101514150390625,0.0895431420898437,-0.0254264216308631,0.0936350812439849,0.375005000000016,
-0.0137906015625,-0.0181959326171875,-0.0350032282714867,0.0417911311726623,0.377971000000002,
-0.0568862314453125,-0.0852335791015626,-0.0206380183105495,0.104531019962012,0.380898999999999,
-0.00900219824218751,0.0105344873046874,-0.0326090266113308,0.03543111079973,0.383838999999995,
-0.03294421484375,0.03447650390625,-0.00627280834961219,0.048096764317985,0.38685700000002,
0.0173340200195312,-0.0397437475585938,0.0176692082519505,0.0468213054099257,0.389796000000018,
-0.0377326181640625,0.0081402856445312,0.0727358464355436,0.0823439012956302,0.392830000000004,
-0.0736456430664063,-0.0373495458984375,-0.0206380183105495,0.0851151991201958,0.395832000000013,
-0.0161848032226563,0.0105344873046874,-0.0469742365722681,0.0507887997463627,0.398782000000011,
-0.023367408203125,0.0368707055664062,0.0368228215331996,0.0571087110759993,0.40182200000001,
0.0101514150390625,-0.04213794921875,-0.0158496149902376,0.0461504960644631,0.404762000000005,
-0.0137906015625,0.0201112939453125,-0.0182438166503935,0.0304545839174264,0.407769999999999,
-0.023367408203125,0.0225054956054687,-0.0230322199707054,0.0397871368077449,0.410742999999997,
-0.0137906015625,-0.0397437475585938,-0.00627280834961219,0.0425334490260057,0.413660000000021,
-0.00181959326171877,-0.00143652099609379,-0.0182438166503935,0.0183905235973174,0.416663,
-0.0185790048828125,-0.0229843359375,0.0200634099121064,0.0357211357353687,0.419641000000013,
-0.07125144140625,-0.0253785375976563,-0.0589452448730494,0.0958925438509569,0.422681000000011,
-0.0281558115234375,0.0272938989257812,0.0631590397949182,0.0743422554737894,0.425691,
-0.052097828125,-0.0181959326171875,0.0296402165527319,0.0626403871032428,0.428645000000017,
0.000574608398437482,-0.0110133276367188,0.0224576115722623,0.0250193500710126,0.431675000000013,
-0.00900219824218751,-0.0469263525390626,-0.00866701000976811,0.0485617050598663,0.434674999999999,
0.0293050283203125,-0.0301669409179688,-0.0326090266113308,0.0532182076524663,0.437725,
0.0125456166992187,-0.0229843359375,0.0942836613769504,0.0978523428411146,0.440695000000005,
0.0316992299804688,-0.0253785375976563,0.00330399829101324,0.0407409837468037,0.443640000000016,
-0.023367408203125,-0.0373495458984375,0.0344286198730437,0.055913810559767,0.446695000000005,
-0.0353384165039063,-0.013407529296875,-0.0134554133300817,0.0401199909114329,0.449642000000011,
-0.0185790048828125,-0.0253785375976563,-0.0541568415527376,0.0626275744380983,0.452625000000012,
-0.0473094248046875,-0.0158017309570313,0.000909796630855553,0.0498869131786915,0.455537000000021,
-0.0209732065429687,-0.0205901342773438,0.0176692082519505,0.0342932929667577,0.458438000000001,
-0.0185790048828125,0.015322890625,-0.0565510432128935,0.0614653633195789,0.461449000000016,
-0.03294421484375,0.0177170922851562,0.0224576115722623,0.0436298174216042,0.464414000000005,
0.000574608398437482,-0.00143652099609379,0.00330399829101324,0.00364831085446287,0.46754900000002,
-0.0209732065429687,-0.0181959326171875,-0.0326090266113308,0.0428289151513523,0.470472000000001,
-0.00181959326171877,-0.0158017309570313,-0.0182438166503935,0.024204182837883,0.473506000000015,
-0.03294421484375,-0.032561142578125,-0.0326090266113308,0.0566471350926296,0.476444000000015,
-0.0568862314453125,0.024899697265625,0.00809240161132507,0.0626220824933858,0.479393000000016,
-0.00421379492187501,-0.00143652099609379,-0.0685220515136749,0.0686665217107911,0.482409000000018,
-0.0281558115234375,0.0272938989257812,-0.0326090266113308,0.0510005417388147,0.485344999999995,
-0.0473094248046875,0.0129286889648437,0.0918894597167945,0.104158559325408,0.488403000000005,
-0.00660799658203126,0.00574608398437496,-0.00627280834961219,0.0107717790812192,0.491360000000014,
-0.0209732065429687,0.0081402856445312,-0.0373974299316444,0.0436429537103166,0.494281999999998,
-0.00900219824218751,0.0105344873046874,-0.0589452448730494,0.0605521006168079,0.497302000000019,
-0.061674634765625,0.00335188232421871,-0.00387860668945628,0.0618873111262733,0.500280000000004,
-0.0113963999023438,0.00574608398437496,0.0128808049316369,0.0181331339700702,0.503286000000003,
-0.0161848032226563,0.0201112939453125,0.0296402165527319,0.0393059084210466,0.50625500000001,
-0.00421379492187501,0.0177170922851562,0.010486603271481,0.0210147632596182,0.509229000000005,
-0.0377326181640625,0.00095768066406246,-0.0206380183105495,0.0430185474598554,0.512242000000015,
-0.0305500131835938,-0.0349553442382813,-0.0182438166503935,0.0498800184673951,0.515151000000003,
-0.0281558115234375,0.0129286889648437,-0.0350032282714867,0.0467453389154343,0.518145000000004,
-0.061674634765625,0.044053310546875,0.000909796630855553,0.0757976416092359,0.521107000000001,
-0.0592804331054688,0.0201112939453125,0.000909796630855553,0.0626056037686423,0.524023999999997,
0.0101514150390625,-0.00861912597656254,0.0392170231933573,0.0414163671516888,0.52703200000002,
-0.0353384165039063,0.0320823022460937,0.00809240161132507,0.0484103786625579,0.529985000000011,
-0.00181959326171877,0.015322890625,0.0200634099121064,0.0253109129437287,0.533035000000012,
-0.023367408203125,-0.0062249243164063,0.0248518132324183,0.0346756120323126,0.536031000000008,
-0.0305500131835938,-0.0373495458984375,-0.0373974299316444,0.0610480110227147,0.538943000000017,
-0.0281558115234375,0.00335188232421871,-0.0182438166503935,0.0337167863775883,0.541988000000003,
-0.0305500131835938,0.00574608398437496,0.010486603271481,0.0328068534737283,0.544936000000007,
0.034093431640625,-0.0158017309570313,0.0607648381347623,0.0714452401200824,0.547960000000018,
-0.0281558115234375,0.0129286889648437,0.0248518132324183,0.0397179221741522,0.55094600000001,
-0.00900219824218751,-0.013407529296875,-0.0182438166503935,0.0243646929184708,0.553899999999999,
-0.0161848032226563,0.0320823022460937,-0.0158496149902376,0.0392738114792107,0.557015000000007,
-0.0161848032226563,-0.0110133276367188,0.010486603271481,0.022208333777284,0.559982000000019,
-0.0137906015625,0.0105344873046874,-0.0230322199707054,0.0288381565119411,0.563048000000009,
-0.052097828125,-0.032561142578125,0.0152750065917946,0.0633066941777439,0.566010000000006,
-0.00181959326171877,0.00574608398437496,0.0823126530761691,0.0825330313100843,0.569050000000004,
-0.0137906015625,0.00335188232421871,0.0368228215331996,0.0394630965870255,0.572092999999995,
0.000574608398437482,0.0105344873046874,-0.027820623291019,0.0297538682843923,0.575141000000002,
0.0125456166992187,-0.00383072265625004,-0.0206380183105495,0.0244539308541469,0.57815500000001,
-0.00660799658203126,0.0129286889648437,0.0511880314941369,0.0532074354336173,0.581128000000007,
-0.0305500131835938,-0.00143652099609379,-0.00627280834961219,0.0312204263693009,0.584158000000002,
-0.0137906015625,0.0105344873046874,0.0583706364746064,0.0608957085243197,0.587170000000015,
-0.0257616098632813,-0.0062249243164063,0.0320344182128878,0.0415766061112628,0.590109000000012,
-0.0281558115234375,0.00335188232421871,-0.0206380183105495,0.0350701103141311,0.593130000000002,
0.00296881005859373,-0.0301669409179688,-0.00866701000976811,0.0315273725518263,0.596051000000017,
-0.023367408203125,-0.0110133276367188,-0.0445800349121122,0.0515238649999234,0.599083000000007,
-0.080828248046875,-0.0301669409179688,0.0272460148925759,0.0904742799595656,0.601995000000016,
-0.0113963999023438,-0.0158017309570313,-0.011061211669924,0.0224036388914704,0.604948000000007,
0.024516625,-0.0110133276367188,-0.049368438232424,0.05621032805929,0.60805400000001,
-0.0664630380859375,-0.0349553442382813,0.00809240161132507,0.0755294544285109,0.611015000000009,
-0.0305500131835938,0.0105344873046874,-0.063733648193363,0.0714580761028853,0.614097000000015,
-0.00421379492187501,0.00574608398437496,-0.0517626398925817,0.0522507840845302,0.617031999999995,
0.00775721337890622,0.0105344873046874,-0.0134554133300817,0.0187669371518595,0.620014999999995,
-0.00421379492187501,-0.013407529296875,0.0416112248535132,0.0439205184771289,0.623050000000006,
-0.0113963999023438,-0.00143652099609379,0.0511880314941369,0.0524609959069698,0.625991999999997,
-0.0257616098632813,-0.013407529296875,0.00569819995116916,0.029595470384469,0.629044000000022,
-0.0209732065429687,0.0201112939453125,-0.0350032282714867,0.0454924776888949,0.632008000000013,
0.00775721337890622,0.00095768066406246,-0.0350032282714867,0.0358652687301518,0.634943000000021,
-0.03294421484375,-0.0469263525390626,-0.00866701000976811,0.0579872478809002,0.637947999999994,
-0.0257616098632813,-0.032561142578125,0.0440054265136691,0.0605009595906613,0.640905000000004,
-0.0137906015625,-0.0181959326171875,0.0152750065917946,0.02746995598184,0.643889000000001,
-0.0305500131835938,-0.00383072265625004,-0.085281463134768,0.0906692102976179,0.646848000000006,
-0.00900219824218751,-0.0062249243164063,-0.00627280834961219,0.0126149665289922,0.649798000000004,
-0.00660799658203126,-0.0205901342773438,0.0152750065917946,0.0264753673207106,0.652834000000013,
-0.0544920297851563,-0.0277727392578125,-0.0134554133300817,0.0626239131951377,0.655739000000011,
-0.00181959326171877,0.044053310546875,-0.0206380183105495,0.0486819565092044,0.658788000000015,
-0.0305500131835938,0.00574608398437496,-0.0326090266113308,0.0450518523838002,0.661732999999998,
-0.0281558115234375,-0.0349553442382813,-0.0613394465332053,0.0760075885314094,0.664738999999997,
-0.0137906015625,0.0081402856445312,-0.0373974299316444,0.0406818473931856,0.667665999999997,
0.0388818349609375,-0.0205901342773438,0.0152750065917946,0.0465733458736647,0.670636000000002,
-0.0209732065429687,-0.0110133276367188,-0.0158496149902376,0.0285022643603365,0.673665,
-0.0209732065429687,-0.0181959326171875,0.0631590397949182,0.0689929827179498,0.676643000000013,
-0.0185790048828125,-0.0301669409179688,-0.00387860668945628,0.0356408099884849,0.679628000000008,
-0.00660799658203126,0.0129286889648437,-0.0230322199707054,0.0272268208565886,0.682589000000007,
-0.0185790048828125,0.015322890625,0.000909796630855553,0.0240997537217873,0.685507000000001,
-0.0257616098632813,0.0272938989257812,0.0152750065917946,0.0405208993939922,0.688576000000012,
0.0269108266601562,0.015322890625,0.0392170231933573,0.049969575511375,0.691552999999999,
-0.0209732065429687,-0.0158017309570313,0.0152750065917946,0.0303792021013027,0.694590000000005,
-0.0137906015625,0.00335188232421871,0.0272460148925759,0.0307206955340778,0.697604000000013,
-0.00660799658203126,0.0272938989257812,-0.00866701000976811,0.0293894470840865,0.700590000000005,
-0.061674634765625,-0.013407529296875,0.00569819995116916,0.0633718541468001,0.703640000000007,
0.0125456166992187,0.00574608398437496,0.0200634099121064,0.0243505728232503,0.706665000000015,
-0.0305500131835938,-0.0349553442382813,0.00330399829101324,0.0465413343281165,0.709678999999994,
-0.0281558115234375,-0.032561142578125,-0.00627280834961219,0.043500871866289,0.712702000000007,
-0.0257616098632813,0.0129286889648437,-0.0206380183105495,0.0354505196137399,0.715686000000005,
-0.0257616098632813,0.0081402856445312,0.0918894597167945,0.0957788995560446,0.718733000000014,
-0.0281558115234375,-0.00383072265625004,-0.0326090266113308,0.0432524308582873,0.721672000000012,
-0.042521021484375,-0.0205901342773438,0.00569819995116916,0.0475863465745925,0.72474600000001,
-0.00421379492187501,-0.0205901342773438,0.0320344182128878,0.0383133612130398,0.727733000000001,
-0.0185790048828125,0.0105344873046874,0.0128808049316369,0.0249413307763454,0.73066,
-0.0113963999023438,0.00095768066406246,-0.0517626398925817,0.0530109985912126,0.733672000000013,
-0.0305500131835938,0.0105344873046874,0.0224576115722623,0.0393525481490206,0.736626999999999,
-0.0353384165039063,-0.013407529296875,0.00809240161132507,0.0386529751337345,0.739647000000019,
-0.0377326181640625,-0.0110133276367188,0.0344286198730437,0.0522529781496825,0.742583999999994,
-0.0281558115234375,-0.0349553442382813,0.0200634099121064,0.0491646847916398,0.745607000000007,
-0.0209732065429687,0.00095768066406246,-0.0469742365722681,0.051452613602185,0.748649,
-0.052097828125,0.0272938989257812,-0.0158496149902376,0.0609126498295023,0.751633999999996,
-0.0353384165039063,0.0416591088867187,0.0224576115722623,0.0590646201356587,0.754690000000011,
-0.023367408203125,-0.0469263525390626,-0.00627280834961219,0.0527964625078501,0.757629000000009,
-0.0161848032226563,-0.0349553442382813,0.000909796630855553,0.0385311779742375,0.760655000000014,
-0.0353384165039063,0.0201112939453125,-0.0230322199707054,0.0467306214589243,0.763603000000018,
-0.0281558115234375,0.0105344873046874,-0.0206380183105495,0.036464406550807,0.766602000000006,
0.000574608398437482,-0.00143652099609379,0.0272460148925759,0.0272899082979449,0.76969600000001,
0.00296881005859373,0.024899697265625,-0.0302148249511749,0.0392650532141995,0.772671000000003,
-0.0377326181640625,0.00574608398437496,0.0511880314941369,0.063851253103719,0.775699000000003,
-0.0305500131835938,-0.04213794921875,0.0200634099121064,0.0557803772592201,0.778671000000003,
-0.0449152231445313,0.00335188232421871,0.010486603271481,0.0462447968252849,0.781610000000001,
-0.0161848032226563,-0.0110133276367188,-0.0254264216308631,0.0320896269523383,0.784621000000016,
-0.0161848032226563,0.00574608398437496,-0.0254264216308631,0.0306833546644107,0.787611999999996,
0.0173340200195312,-0.00861912597656254,-0.0326090266113308,0.0379223706956177,0.790639999999996,
0.0101514150390625,0.0296881005859375,0.0224576115722623,0.0385846972416093,0.793610000000001,
-0.0137906015625,-0.0349553442382813,0.0535822331542946,0.0654454925267857,0.796509000000015,
-0.061674634765625,-0.0205901342773438,0.0200634099121064,0.0680459743139409,0.799537000000015,
-0.0257616098632813,-0.013407529296875,0.0200634099121064,0.0352981982811543,0.80247700000001,
-0.0281558115234375,-0.04213794921875,0.0200634099121064,0.0545059345778651,0.805472000000009,
-0.00181959326171877,-0.0062249243164063,-0.011061211669924,0.0128222855213079,0.808400000000006,
-0.023367408203125,0.00095768066406246,-0.0158496149902376,0.0282517824875628,0.811379000000017,
-0.023367408203125,-0.0181959326171875,-0.0517626398925817,0.0596363866996467,0.814447999999999,
-0.00900219824218751,-0.0277727392578125,-0.0326090266113308,0.0437688614840798,0.817379000000017,
-0.0305500131835938,-0.0277727392578125,-0.00866701000976811,0.0421870289770401,0.820428000000021,
-0.0305500131835938,-0.032561142578125,0.0416112248535132,0.0610329857152702,0.823352,
-0.0353384165039063,0.0416591088867187,-0.0182438166503935,0.057594460499359,0.826314999999994,
-0.0281558115234375,-0.0205901342773438,0.0751300480956996,0.0828325266967302,0.829390000000018,
-0.0185790048828125,0.0560243188476562,-0.027820623291019,0.0652525156992449,0.832379000000003,
-0.0137906015625,-0.00861912597656254,0.00569819995116916,0.0172319327627224,0.835445000000021,
-0.03294421484375,0.0081402856445312,-0.0397916315918003,0.0522968401223562,0.838471999999996,
-0.0401268198242188,0.0320823022460937,0.0248518132324183,0.0570705563977961,0.841486000000003,
-0.061674634765625,-0.00143652099609379,-0.0182438166503935,0.0643324258210324,0.844507000000021,
0.00775721337890622,-0.0062249243164063,-0.0134554133300817,0.0167323695283785,0.847507000000007,
-0.0449152231445313,0.0081402856445312,-0.0326090266113308,0.0560980404028169,0.850674999999995,
-0.0257616098632813,-0.0924161840820313,0.00569819995116916,0.0961086942254202,0.853608000000008,
0.000574608398437482,-0.0181959326171875,-0.00387860668945628,0.0186135898867542,0.856634000000014,
-0.042521021484375,0.024899697265625,0.0200634099121064,0.0532031259353777,0.859663000000012,
0.0125456166992187,-0.0158017309570313,-0.0182438166503935,0.0272015449115541,0.862657000000013,
-0.00900219824218751,-0.013407529296875,-0.0397916315918003,0.0429438628883775,0.865683000000018,
-0.0377326181640625,0.015322890625,-0.0373974299316444,0.0552911314417865,0.868621000000019,
-0.0377326181640625,0.0129286889648437,-0.0613394465332053,0.0731671317796767,0.871613999999994,
-0.00181959326171877,-0.0253785375976563,-0.0302148249511749,0.0395008447639274,0.87455300000002,
-0.0401268198242188,-0.013407529296875,0.0128808049316369,0.0442248645756972,0.87749500000001,
0.0197282216796875,-0.00143652099609379,-0.027820623291019,0.0341358082300082,0.880595,
0.0173340200195312,-0.032561142578125,0.0200634099121064,0.0419909117944789,0.883576000000005,
-0.0497036264648438,-0.0373495458984375,0.010486603271481,0.0630508359242734,0.886651000000001,
-0.0473094248046875,0.015322890625,0.0248518132324183,0.0555930325975755,0.889622000000003,
-0.0281558115234375,0.0105344873046874,0.00330399829101324,0.0302430413487628,0.892598000000021,
-0.052097828125,0.0296881005859375,-0.049368438232424,0.0776711639236303,0.895645999999999,
-0.03294421484375,0.0201112939453125,-0.049368438232424,0.0626660045745266,0.898610000000019,
-0.0401268198242188,0.0177170922851562,0.0176692082519505,0.0472890891062289,0.901673000000017,
-0.0544920297851563,0.00095768066406246,0.0511880314941369,0.0747697333859458,0.904650000000004,
-0.0161848032226563,0.0201112939453125,0.0511880314941369,0.0573291075088006,0.907566000000003,
-0.0473094248046875,0.00095768066406246,-0.0230322199707054,0.0526268181100061,0.910634000000016,
-0.00900219824218751,0.0129286889648437,-0.0206380183105495,0.0259637896180024,0.913582000000019,
-0.0640688364257813,-0.0181959326171875,-0.027820623291019,0.0721796013085659,0.916587000000021,
-0.00900219824218751,0.0177170922851562,0.0416112248535132,0.0461132189945792,0.919612000000001,
-0.0185790048828125,-0.0229843359375,0.0631590397949182,0.0697317963969055,0.922537000000005,
-0.0137906015625,-0.0229843359375,0.0152750065917946,0.0308510326621793,0.925553000000008,
-0.00421379492187501,0.0272938989257812,0.010486603271481,0.0295411887774987,0.928516999999999,
-0.042521021484375,0.015322890625,-0.011061211669924,0.0465314801912346,0.931540000000012,
-0.0401268198242188,0.00574608398437496,-0.049368438232424,0.0638781797163121,0.934510000000017,
0.00775721337890622,0.00095768066406246,-0.0350032282714867,0.0358652687301518,0.937439000000012,
-0.0377326181640625,0.0368707055664062,0.0248518132324183,0.0583164815761253,0.940505000000002,
-0.042521021484375,0.024899697265625,0.0583706364746064,0.0763882412053394,0.943501999999995,
-0.0377326181640625,-0.0158017309570313,-0.0613394465332053,0.0737290504194466,0.94651300000001,
-0.0497036264648438,0.015322890625,-0.0421858332519562,0.0669692913806342,0.949461000000014,
-0.0473094248046875,-0.0349553442382813,-0.0158496149902376,0.0609201777862302,0.952449999999999,
-0.0137906015625,-0.00143652099609379,0.0416112248535132,0.0438604413775954,0.955384000000009,
-0.023367408203125,-0.00861912597656254,0.0248518132324183,0.0351843391251041,0.958355000000012,
-0.0113963999023438,0.024899697265625,0.0248518132324183,0.0369795277902911,0.961438000000015,
-0.03294421484375,-0.04213794921875,-0.00387860668945628,0.053628086352998,0.96444200000002,
-0.00421379492187501,0.0177170922851562,0.0200634099121064,0.0270959746823319,0.967500000000001,
-0.0113963999023438,0.0081402856445312,0.0320344182128878,0.034962067034815,0.970537000000007,
-0.0377326181640625,-0.0277727392578125,0.0368228215331996,0.0595902316245142,0.973473000000013,
0.014939818359375,0.0129286889648437,-0.0134554133300817,0.0239039184830464,0.976539000000002,
-0.0113963999023438,0.0201112939453125,-0.0158496149902376,0.0280277071882034,0.979574000000014,
-0.0401268198242188,-0.0062249243164063,0.0272460148925759,0.0489004772929342,0.982640000000004,
-0.0161848032226563,0.0272938989257812,0.0368228215331996,0.0486088979467004,0.985597000000013,
0.00775721337890622,0.0225054956054687,0.0535822331542946,0.0586321362535499,0.988562000000002,
0.0101514150390625,-0.0158017309570313,-0.0350032282714867,0.0397236946665276,0.991624999999999,
-0.0281558115234375,0.0081402856445312,-0.0350032282714867,0.0456534770016886,0.994605000000007,
-0.023367408203125,-0.0110133276367188,0.0272460148925759,0.0375456319602116,0.997614999999996,
-0.00900219824218751,-0.00143652099609379,0.000909796630855553,0.00916138066414546,1.00052700000001,
0.0173340200195312,-0.0158017309570313,0.0176692082519505,0.0293660326146844,1.003501,
-0.0209732065429687,-0.0062249243164063,-0.0565510432128935,0.0606353491282565,1.00648800000002,
-0.07125144140625,0.0296881005859375,-0.0517626398925817,0.0929382704138511,1.009525,
-0.0257616098632813,-0.00861912597656254,-0.0158496149902376,0.0314509168496967,1.01260100000002,
0.014939818359375,0.0129286889648437,0.0799184514160132,0.0823244073631535,1.015593,
0.014939818359375,-0.00143652099609379,0.0272460148925759,0.0311063834720433,1.01857700000002,
-0.00900219824218751,-0.00143652099609379,-0.0254264216308631,0.0270112214221105,1.02158600000001,
0.00536301171874998,0.0296881005859375,0.0128808049316369,0.032803358772892,1.02457900000002,
