X,Y,Z,Magnitude,Seconds,
0.0197282216796875,0.0106302553710937,-0.0390733710937532,0.0450436831145912,0.0,
-0.0473094248046875,-0.00612915625000006,-0.0175255561523464,0.050822173803728,0.00377599999998779,
-0.0233674082031249,-0.0444363828125001,0.0590888969726535,0.0775378980179072,0.0075390000000084,
-0.00181959326171871,-0.0468305844726563,0.0351468803710908,0.0585808651481733,0.0113100000000088,
-0.0209732065429687,-0.0348595761718751,-0.0199197578125023,0.0452974855249773,0.0150209999999902,
0.000574608398437537,-0.0276769711914063,-0.0294965644531278,0.0404523450949263,0.0187469999999905,
0.014939818359375,-0.00373495458984381,-0.0294965644531278,0.0332745454204386,0.0225639999999885,
-0.0353384165039062,-0.0157059628906251,0.0447236870117163,0.0591243531148308,0.0263050000000078,
-0.0377326181640625,-0.0181001645507813,0.0423294853515603,0.0595243795466048,0.030003999999991,
0.0245166250000001,-0.00134075292968756,-0.0318907661132837,0.040247776126157,0.0337159999999983,
0.0388818349609376,-0.0109175595703126,-0.0749863959960955,0.0851701225864103,0.0374229999999898,
0.0316992299804688,-0.00612915625000006,-0.043861774414065,0.0544634096659574,0.0411080000000084,
0.0508528432617188,-0.0372537778320313,0.00402225878906037,0.0631667174730923,0.0450370000000078,
-0.0137906015624999,0.0010534487304687,-0.0342849677734396,0.0369695748002211,0.0489680000000021,
-0.03294421484375,-0.0420421811523438,0.0231758720703095,0.0582235977412681,0.0526849999999968,
0.053247044921875,-0.0300711728515626,-0.0199197578125023,0.0643142284482173,0.0564310000000035,
-0.0185790048828124,-0.0468305844726563,-0.0582269843750023,0.0769978231763271,0.0601540000000114,
-0.00421379492187496,-0.0300711728515626,-0.0630153876953141,0.0699497719131586,0.0638989999999922,
0.00296881005859378,-0.0109175595703126,-0.0175255561523464,0.0208602986216492,0.067734999999999,
-0.00900219824218745,0.00344765039062495,0.0375410820312485,0.038758982268431,0.0714839999999981,
-0.0113963999023437,-0.0444363828125001,-0.082169000976565,0.0941074639424521,0.0751649999999984,
0.00536301171875003,-0.0157059628906251,0.0112048637695281,0.0200246881901024,0.0789169999999899,
0.00296881005859378,0.00584185205078119,-0.00794874951172098,0.0103016351783253,0.0826549999999884,
-0.0113963999023437,-0.0516189877929688,-0.0247081611328142,0.0583514443529028,0.0863469999999893,
0.000574608398437537,0.0106302553710937,-0.0917458076171904,0.0923613865172927,0.0901519999999891,
0.0460644399414063,-0.0492247861328126,-0.0247081611328142,0.0718018483292852,0.0938820000000078,
0.04367023828125,-0.0276769711914063,-0.0414675727539091,0.066277175829782,0.0975740000000087,
-0.0449152231445312,-0.0372537778320313,-0.0366791694335955,0.0689244710042797,0.101254000000012,
-0.0664630380859375,0.0345722719726562,-0.0630153876953141,0.0978954366012779,0.104951,
0.0508528432617188,-0.0564073911132813,-0.0390733710937532,0.0854080427631835,0.108654999999999,
0.0556412465820313,-0.113868230957031,-0.0294965644531278,0.13012290212343,0.112344000000007,
-0.0209732065429687,0.0106302553710937,-0.0342849677734396,0.0415732695030651,0.116409000000004,
-0.0257616098632812,0.00823605371093744,0.00641646044921629,0.0277968359381731,0.120242999999988,
-0.0233674082031249,-0.0204943662109376,0.00162805712890446,0.0311240322345044,0.123963000000003,
-0.0209732065429687,0.0202070620117187,0.0207816704101536,0.0357781857124662,0.127753000000013,
-0.00421379492187496,-0.0324653745117188,0.0327526787109349,0.0463086878735676,0.131490000000014,
0.0412760366210938,-0.0420421811523438,0.0351468803710908,0.0686043686292071,0.135314999999991,
-0.0137906015624999,-0.0204943662109376,0.0112048637695281,0.0271246881998177,0.139141999999993,
-0.00181959326171871,-0.0109175595703126,0.00641646044921629,0.0127935527241565,0.142898000000002,
0.0197282216796875,-0.0468305844726563,0.0231758720703095,0.0558518345169865,0.146669000000003,
-0.0664630380859375,0.0202070620117187,0.0159932670898417,0.0712842575816374,0.150455999999991,
0.0101514150390625,0.0154186586914062,-0.0103429511718769,0.0211604088353985,0.154234000000002,
0.000574608398437537,0.0010534487304687,-0.0247081611328142,0.0247372827045411,0.157982000000004,
-0.0449152231445312,-0.0252827695312501,-0.0271023627929718,0.0582334420608571,0.161798000000005,
-0.0233674082031249,-0.0492247861328126,-0.000766144531251456,0.0544949751206051,0.165511000000009,
0.00296881005859378,0.0202070620117187,-0.0725921943359396,0.0754106482323038,0.169264999999996,
0.014939818359375,0.0273896669921875,0.00402225878906037,0.0314574410326113,0.173000000000002,
-0.0353384165039062,0.00344765039062495,-0.0510443793945328,0.0621789244197142,0.176693999999998,
0.0125456166992188,-0.0348595761718751,0.0135990654296858,0.0394653915450912,0.180412999999987,
-0.0137906015624999,-0.00134075292968756,-0.00794874951172098,0.0159737575001681,0.184190999999998,
-0.0113963999023437,-0.0468305844726563,-0.0318907661132837,0.0577927550483354,0.188253000000003,
0.014939818359375,-0.0157059628906251,-0.000766144531251456,0.0216901456974262,0.192028999999991,
-0.0161848032226562,-0.0252827695312501,-0.0151313544921905,0.0336173196328134,0.195795000000004,
0.00296881005859378,-0.0109175595703126,-0.0223139594726582,0.0250183877874408,0.199541000000011,
-0.0377326181640625,-0.0492247861328126,0.0543004936523417,0.0824340563979723,0.20334299999999,
-0.00181959326171871,-0.0133117612304688,0.00402225878906037,0.0140247093538967,0.207133999999996,
-0.0281558115234375,-0.0181001645507813,-0.0294965644531278,0.044614044804817,0.210952999999989,
0.0316992299804688,-0.0157059628906251,-0.0151313544921905,0.0384769585654152,0.214729000000005,
-0.042521021484375,-0.0109175595703126,-0.00316034619140915,0.0440138405856107,0.218465000000009,
0.00296881005859378,-0.0516189877929688,-0.043861774414065,0.067802573614023,0.222190000000012,
0.014939818359375,-0.0204943662109376,-0.00555454785156506,0.0259628623390115,0.225894000000011,
-0.0257616098632812,0.0154186586914062,0.0375410820312485,0.0480700365993923,0.229614999999995,
-0.0449152231445312,0.00344765039062495,-0.0318907661132837,0.055193156519909,0.233328,
0.00536301171875003,0.0202070620117187,0.00641646044921629,0.021869115540809,0.237177000000003,
-0.00181959326171871,-0.00852335791015631,-0.00555454785156506,0.0103349674183348,0.24085199999999,
-0.0497036264648437,-0.0157059628906251,-0.082169000976565,0.0973081316004225,0.244540000000001,
-0.00421379492187496,0.00823605371093744,0.030358477050779,0.0317368205278308,0.248225999999988,
0.0269108266601563,-0.00134075292968756,-0.0199197578125023,0.0335080133887432,0.251925999999997,
-0.0305500131835937,-0.0228885678710938,0.0159932670898417,0.0413880953525822,0.255796000000004,
0.0245166250000001,0.00584185205078119,-0.0127371528320328,0.0282387534965764,0.259781000000004,
0.0293050283203126,0.0106302553710937,0.0375410820312485,0.0487967197072295,0.263553000000002,
0.00775721337890628,-0.0204943662109376,-0.0390733710937532,0.0447986800522521,0.267310000000009,
0.000574608398437537,-0.0276769711914063,0.0183874687499976,0.0332331749336958,0.271070000000009,
-0.0305500131835937,-0.0157059628906251,-0.0342849677734396,0.0485328712427488,0.274826999999988,
-0.00181959326171871,0.0297838686523437,-0.0510443793945328,0.0591262921153623,0.278605999999996,
-0.0113963999023437,-0.00373495458984381,-0.00794874951172098,0.014387857217891,0.282405000000011,
0.0221224233398438,-0.0348595761718751,0.0447236870117163,0.0608670670004066,0.286167000000006,
-0.00421379492187496,-0.0157059628906251,-0.0342849677734396,0.0379459135242664,0.289909999999992,
-0.042521021484375,-0.353288396972656,0.0207816704101536,0.356444394721842,0.293651000000011,
0.113102086425781,0.206954791503906,0.0878193168945298,0.251663664640154,0.297402000000005,
-0.00421379492187496,-0.0947146176757813,-0.0749863959960955,0.12087834567695,0.30095399999999,
-0.0568862314453125,-0.185694280761719,0.00402225878906037,0.194253926090125,0.303890999999993,
0.0173340200195313,0.0369664736328124,-0.0678037910156277,0.0791475994517449,0.306844000000012,
0.0460644399414063,0.0728794985351562,0.0375410820312485,0.0940355612198289,0.309889999999996,
-0.0640688364257812,-0.0468305844726563,0.0112048637695281,0.0801465433758549,0.312808999999987,
0.000574608398437537,-0.135416045898438,0.0135990654296858,0.136098384421492,0.315840000000009,
0.0340934316406251,0.0345722719726562,-0.0247081611328142,0.0544802468510413,0.318808999999987,
-0.0377326181640625,0.0369664736328124,-0.0127371528320328,0.0543369644774799,0.321741000000003,
-0.0401268198242187,-0.0635899960937501,-0.0725921943359396,0.104515434032086,0.324740999999989,
-0.052097828125,-0.0564073911132813,0.0112048637695281,0.0775984950861962,0.327697000000001,
0.0173340200195313,0.0202070620117187,-0.0151313544921905,0.0306227283884256,0.330736000000002,
-0.00421379492187496,0.0393606752929687,0.0543004936523417,0.0671979347751859,0.333705000000009,
-0.03294421484375,-0.0396479794921876,0.0112048637695281,0.0527525595737095,0.336619000000013,
-0.0473094248046875,-0.0659841977539063,-0.0869574042968768,0.118969265739633,0.339610999999991,
0.0340934316406251,-0.00373495458984381,0.0351468803710908,0.0491081985684869,0.342619000000013,
0.00536301171875003,-0.00612915625000006,0.0351468803710908,0.0360781325854337,0.345742999999999,
-0.03294421484375,-0.0204943662109376,-0.0749863959960955,0.0844292598720516,0.348756000000009,
0.000574608398437537,-0.0851378110351563,-0.0294965644531278,0.0901045190720591,0.351765,
-0.0113963999023437,-0.0324653745117188,0.0590888969726535,0.0683767227816979,0.354792000000003,
-0.0185790048828124,0.00584185205078119,0.0279642753906231,0.0340779599732935,0.357746999999989,
0.0173340200195313,-0.0611957944335938,-0.0127371528320328,0.06486623596805,0.360762999999992,
-0.042521021484375,0.00344765039062495,-0.0103429511718769,0.0438964713870544,0.363731000000001,
0.000574608398437537,-0.0755610043945313,-0.0342849677734396,0.0829774341321044,0.366756000000009,
0.0484586416015626,-0.10189722265625,-0.0606211860351582,0.128086736734275,0.369715000000014,
0.000574608398437537,-0.0564073911132813,-0.0223139594726582,0.0606633063256997,0.372653000000014,
-0.0137906015624999,0.0345722719726562,0.0519062919921858,0.063872418375892,0.375709000000001,
-0.0281558115234375,0.0561200869140625,0.0375410820312485,0.0731542665731958,0.378672999999992,
0.0604296499023438,-0.0252827695312501,0.066271501953123,0.0931819349102225,0.381700999999993,
0.0197282216796875,-0.0755610043945313,0.00162805712890446,0.07811093832344,0.384677000000011,
-0.03294421484375,0.0249954653320312,-0.0318907661132837,0.0522217918318406,0.387634999999989,
0.0221224233398438,0.00823605371093744,0.00402225878906037,0.0239460385225382,0.390679000000006,
0.053247044921875,-0.106685625976563,-0.0151313544921905,0.120191632286493,0.393606000000005,
-0.0185790048828124,-0.0372537778320313,-0.0749863959960955,0.0857670272871641,0.396614,
-0.0688572397460937,0.118369330078125,0.00641646044921629,0.137090439977744,0.399569000000014,
-0.0377326181640625,0.0178128603515624,-0.0199197578125023,0.0462368383297123,0.40249399999999,
0.0891600698242188,-0.0827436093750001,0.0399352836914044,0.128026754340548,0.405514000000011,
0.0245166250000001,-0.0731668027343751,0.0327526787109349,0.083828300033481,0.408467999999999,
-0.126318079589844,0.0393606752929687,0.00641646044921629,0.132463923222442,0.411476999999991,
-0.0401268198242187,0.0369664736328124,-0.0271023627929718,0.0609197825916393,0.414429000000013,
0.141832506347656,-0.104291424316406,0.0447236870117163,0.181640769715184,0.417361999999997,
0.0245166250000001,-0.0588015927734376,0.00162805712890446,0.0637286653249445,0.420389999999998,
-0.080828248046875,0.070485296875,-0.0103429511718769,0.10774209667919,0.423328999999995,
-0.0568862314453125,0.0609084902343749,-0.00555454785156506,0.0835268849683498,0.426350000000014,
0.0460644399414063,-0.0516189877929688,0.068665703613279,0.0974752859990303,0.429302000000007,
-0.00181959326171871,-0.0995030209960938,-0.0151313544921905,0.100663399484398,0.432206000000008,
-0.102376062988281,-0.00612915625000006,-0.00555454785156506,0.102709677397764,0.435187000000013,
-0.052097828125,0.0489374819335937,-0.0534385810546905,0.089245407604434,0.438144999999992,
0.0460644399414063,-0.0300711728515626,-0.0294965644531278,0.0624199918160961,0.441163999999986,
0.0412760366210938,-0.0540131894531251,0.00641646044921629,0.0682810866839523,0.444119000000001,
-0.0377326181640625,0.0106302553710937,-0.0247081611328142,0.0463383861321768,0.447035,
-0.0233674082031249,0.0178128603515624,0.0327526787109349,0.0440008150240136,0.450069000000013,
0.0412760366210938,-0.0348595761718751,-0.0390733710937532,0.0666755545808116,0.452990999999997,
-0.00900219824218745,-0.0324653745117188,-0.101322614257814,0.10677692763615,0.455984000000001,
0.0197282216796875,0.0369664736328124,-0.0223139594726582,0.0474724729799886,0.458946999999995,
-0.0209732065429687,0.00823605371093744,-0.0749863959960955,0.0782985795395211,0.461957000000012,
-0.00900219824218745,0.0130244570312499,-0.0414675727539091,0.044387336530268,0.464891999999992,
0.0460644399414063,-0.0731668027343751,0.00641646044921629,0.0866976621033274,0.467840999999993,
-0.0137906015624999,0.00823605371093744,0.0327526787109349,0.0364794631940603,0.470855999999998,
-0.0281558115234375,-0.0348595761718751,0.121338140136716,0.129347918519254,0.473793000000001,
-0.0904050546875,0.0465432802734375,-0.0366791694335955,0.108095847848102,0.476797000000005,
-0.00421379492187496,-0.0659841977539063,-0.0773805976562532,0.101781271924206,0.479726999999997,
0.0245166250000001,-0.0372537778320313,-0.0103429511718769,0.0457808420968073,0.482734999999991,
-0.0185790048828124,0.0489374819335937,-0.0103429511718769,0.0533575973913763,0.485854999999987,
-0.0113963999023437,0.00344765039062495,-0.0534385810546905,0.0547489376069421,0.488888000000003,
0.0221224233398438,-0.0540131894531251,-0.0773805976562532,0.0969256578154896,0.491965999999991,
0.0101514150390625,-0.0324653745117188,0.0231758720703095,0.0411603306072827,0.494916999999987,
-0.0856166513671875,0.0393606752929687,-0.0749863959960955,0.120426049239076,0.497854999999987,
0.0173340200195313,-0.0133117612304688,0.0255700737304672,0.0336377750107829,0.500897000000009,
-0.0137906015624999,-0.0540131894531251,-0.0223139594726582,0.0600459666730601,0.50384600000001,
-0.0281558115234375,0.0106302553710937,0.0135990654296858,0.0330255451485494,0.506877000000003,
-0.0137906015624999,0.0130244570312499,-0.00555454785156506,0.0197653781711817,0.509834000000012,
0.0269108266601563,-0.0324653745117188,0.030358477050779,0.0519598909021354,0.512796000000009,
-0.00181959326171871,-0.0468305844726563,0.0207816704101536,0.0512668741657314,0.51580899999999,
-0.0281558115234375,-0.0252827695312501,-0.0294965644531278,0.0479793233825901,0.518754999999999,
0.0508528432617188,0.0106302553710937,0.0519062919921858,0.0734389348059573,0.521805999999998,
0.00775721337890628,0.0321780703124999,0.00641646044921629,0.0337160723266876,0.524799999999999,
-0.0209732065429687,-0.0731668027343751,-0.0247081611328142,0.0800234318286218,0.527714000000003,
-0.0137906015624999,-0.0228885678710938,0.00641646044921629,0.0274815973942864,0.530727000000013,
-0.0161848032226562,-0.0372537778320313,0.0183874687499976,0.0445857693120416,0.533671999999996,
-0.0257616098632812,0.0202070620117187,-0.0127371528320328,0.0351314810413668,0.536689999999993,
0.0197282216796875,-0.0157059628906251,-0.0175255561523464,0.0307087140631716,0.539635000000004,
-0.0185790048828124,-0.0396479794921876,0.0159932670898417,0.0466146574851249,0.542559000000011,
-0.00900219824218745,-0.0396479794921876,-0.000766144531251456,0.0406643434528007,0.545544000000007,
0.0101514150390625,-0.0372537778320313,0.00641646044921629,0.0391416166598929,0.548502000000013,
-0.042521021484375,-0.0276769711914063,-0.0127371528320328,0.0523095312985232,0.551490999999999,
-0.0185790048828124,-0.0300711728515626,0.0423294853515603,0.0551474404594817,0.55444399999999,
0.0197282216796875,-0.0252827695312501,0.0255700737304672,0.0410152390751867,0.55746400000001,
0.00775721337890628,-0.0300711728515626,-0.0175255561523464,0.0356594295316608,0.560395999999997,
-0.052097828125,0.0752737001953125,-0.0175255561523464,0.0932065381552435,0.56332900000001,
0.0293050283203126,-0.0420421811523438,-0.0199197578125023,0.054982964927417,0.566337000000004,
-0.0473094248046875,-0.0659841977539063,-0.0223139594726582,0.0842021900898333,0.569269999999989,
-0.0233674082031249,0.022601263671875,-0.0199197578125023,0.0381267574939941,0.572274999999991,
-0.03294421484375,0.0178128603515624,-0.0199197578125023,0.0424195242416056,0.575214999999986,
0.0293050283203126,-0.0276769711914063,-0.0175255561523464,0.0439538910408772,0.578137999999996,
0.00296881005859378,-0.0611957944335938,-0.00555454785156506,0.0615190384463054,0.581166999999994,
-0.0161848032226562,-0.0372537778320313,-0.0223139594726582,0.0463433339916528,0.584086000000013,
-0.080828248046875,0.0633026918945312,-0.00794874951172098,0.102973875824022,0.587104000000011,
0.0125456166992188,-0.0588015927734376,0.0207816704101536,0.0636152311643458,0.590056000000004,
0.0388818349609376,-0.0755610043945313,-0.0606211860351582,0.104384820119351,0.592980000000011,
0.000574608398437537,-0.0779552060546876,0.0519062919921858,0.093656860262441,0.596021000000007,
-0.0568862314453125,0.0369664736328124,0.0183874687499976,0.0702898464070538,0.598976999999991,
0.0101514150390625,-0.0396479794921876,-0.0175255561523464,0.0445214400436158,0.601983999999987,
0.0628238515625,-0.0204943662109376,0.0327526787109349,0.0737535987886475,0.60494700000001,
0.0293050283203126,0.0417548769531249,-0.0199197578125023,0.0547635936141308,0.607886000000008,
-0.00421379492187496,-0.0396479794921876,0.0135990654296858,0.0421266296541442,0.61090200000001,
-0.00421379492187496,-0.104291424316406,-0.00316034619140915,0.104424350807835,0.613817000000012,
0.0915542714843751,-0.0372537778320313,-0.0318907661132837,0.103860721897574,0.616838999999999,
-0.0161848032226562,0.0752737001953125,-0.043861774414065,0.088611133900883,0.619809000000004,
-0.00421379492187496,-0.0204943662109376,-0.0654095893554718,0.0686745185180289,0.622814000000005,
-0.0568862314453125,-0.0396479794921876,-0.0175255561523464,0.0715202819087819,0.625892999999991,
-0.0233674082031249,-0.0204943662109376,0.00162805712890446,0.0311240322345044,0.628915000000006,
-0.00421379492187496,0.00823605371093744,-0.0127371528320328,0.0157424175601979,0.631949999999989,
-0.0449152231445312,0.0154186586914062,-0.0630153876953141,0.078905331837309,0.634895,
0.000574608398437537,-0.0707726010742188,0.030358477050779,0.0770112223410637,0.637829000000011,
0.0388818349609376,-0.0324653745117188,-0.0103429511718769,0.0516988807524842,0.640862999999996,
-0.0257616098632812,0.0273896669921875,0.0375410820312485,0.053133673322741,0.643854000000005,
0.0173340200195313,-0.00373495458984381,0.0159932670898417,0.0238789180666277,0.646881000000008,
0.0388818349609376,-0.0157059628906251,0.0135990654296858,0.0440841121132337,0.649841000000009,
-0.0257616098632812,-0.0252827695312501,-0.0893516059570327,0.0963669469528793,0.652830999999992,
0.0197282216796875,-0.0276769711914063,-0.0414675727539091,0.0536169474613538,0.655788999999999,
-0.0305500131835937,-0.0300711728515626,-0.0103429511718769,0.0440971130702468,0.658713000000006,
0.00296881005859378,-0.0252827695312501,-0.0342849677734396,0.0427023568853067,0.661748999999986,
0.0197282216796875,-0.0204943662109376,-0.0175255561523464,0.0334120770901774,0.664723000000009,
-0.042521021484375,-0.0204943662109376,0.0375410820312485,0.0603107714636418,0.667731000000003,
-0.00900219824218745,-0.0276769711914063,-0.0103429511718769,0.0308873913833041,0.670658000000003,
-0.0233674082031249,-0.00134075292968756,-0.0534385810546905,0.0583396548643258,0.673578999999989,
0.00775721337890628,-0.0372537778320313,0.00402225878906037,0.0382648257271662,0.676617999999991,
-0.0113963999023437,-0.0396479794921876,0.0183874687499976,0.045165686262684,0.67954499999999,
-0.0927992563476562,0.0585142885742187,-0.0199197578125023,0.111500765456268,0.682566000000008,
-0.00660799658203121,-0.0252827695312501,-0.00794874951172098,0.0273142210725206,0.685480000000013,
-0.0233674082031249,-0.0540131894531251,-0.0223139594726582,0.0629394406423991,0.688385000000011,
0.0412760366210938,-0.0444363828125001,0.0112048637695281,0.0616753783020308,0.691418999999996,
-0.0401268198242187,0.0178128603515624,-0.0294965644531278,0.052891464128412,0.69437400000001,
0.0245166250000001,0.022601263671875,0.0327526787109349,0.0467399185247254,0.697419999999994,
0.0556412465820313,-0.0540131894531251,-0.0342849677734396,0.084786979963479,0.700352000000009,
0.00536301171875003,-0.0540131894531251,-0.0414675727539091,0.0683062670601708,0.703274999999991,
-0.03294421484375,0.00344765039062495,-0.00794874951172098,0.0340645006375731,0.706294000000014,
-0.0161848032226562,-0.0157059628906251,-0.0390733710937532,0.0451148917133572,0.709214000000003,
0.0101514150390625,-0.0444363828125001,0.0088106621093722,0.0464248975395733,0.712236999999988,
-0.0161848032226562,-0.0252827695312501,0.066271501953123,0.0727535446672476,0.715165000000013,
-0.0688572397460937,-0.0109175595703126,-0.00316034619140915,0.0697889701920863,0.718087999999995,
0.000574608398437537,0.0249954653320312,0.0638773002929671,0.0685960126734362,0.721124000000003,
0.0508528432617188,-0.0468305844726563,0.00641646044921629,0.0694282815180377,0.724070000000012,
0.0364876333007813,-0.0181001645507813,0.00402225878906037,0.0409284974855396,0.727093999999994,
-0.0281558115234375,-0.0181001645507813,-0.0678037910156277,0.0756156052372764,0.730007999999998,
-0.0161848032226562,0.0010534487304687,-0.101322614257814,0.102612522479577,0.732927999999987,
0.0293050283203126,-0.0923204160156251,-0.0318907661132837,0.101974824645324,0.735935000000012,
-0.00900219824218745,-0.0228885678710938,-0.0366791694335955,0.0441620604446817,0.738852000000009,
-0.0377326181640625,0.00823605371093744,0.0207816704101536,0.0438572785211376,0.741884999999996,
0.0173340200195313,0.0297838686523437,0.030358477050779,0.0459258555802747,0.744860999999986,
0.0269108266601563,-0.0157059628906251,-0.00555454785156506,0.0316500057454971,0.747852999999992,
0.014939818359375,-0.0420421811523438,-0.0175255561523464,0.0479362940485251,0.750792999999987,
-0.0353384165039062,0.00584185205078119,0.0351468803710908,0.0501820098860791,0.753747000000004,
-0.00660799658203121,0.0010534487304687,-0.0414675727539091,0.0420039874673418,0.756765999999999,
0.175351329589844,-0.264702935546875,-0.0773805976562532,0.326808031984678,0.759768000000008,
-0.432775892089844,0.436798150878906,-0.0678037910156277,0.618615350166388,0.762893999999989,
0.15859191796875,-0.233578313964844,0.0159932670898417,0.282782619324231,0.765927000000005,
-0.0113963999023437,-0.0707726010742188,-0.0678037910156277,0.0986711359498591,0.768888000000004,
0.132255699707031,-0.104291424316406,0.0255700737304672,0.170358739023047,0.771917999999999,
-0.099981861328125,0.142311346679687,-0.0175255561523464,0.174802852113092,0.774856999999997,
-0.0305500131835937,0.113580926757812,-0.0103429511718769,0.118071617536244,0.777895000000001,
0.053247044921875,-0.0995030209960938,-0.0701979926757836,0.132905444418092,0.780849999999987,
0.0987368764648438,-0.0971088193359376,-0.082169000976565,0.161030550791893,0.78378699999999,
-0.0473094248046875,0.0633026918945312,0.0327526787109349,0.0855461889226285,0.786837999999989,
-0.0305500131835937,0.0561200869140625,-0.0558327827148464,0.0848532090521208,0.789801000000011,
0.0508528432617188,-0.0611957944335938,0.00641646044921629,0.0798254839562903,0.792824999999993,
0.0269108266601563,-0.0707726010742188,-0.000766144531251456,0.0757201468024611,0.795794000000001,
-0.0880108530273437,0.0489374819335937,0.0183874687499976,0.102366431976667,0.798743999999999,
-0.0640688364257812,0.0752737001953125,-0.0414675727539091,0.107193774689336,0.801801000000012,
0.0891600698242188,-0.0827436093750001,-0.00316034619140915,0.121679952052554,0.804757999999993,
0.0484586416015626,-0.0803494077148438,-0.101322614257814,0.138096123863172,0.807784999999996,
-0.0497036264648437,0.0202070620117187,-0.0749863959960955,0.0922048557473271,0.810728000000012,
-0.0257616098632812,0.0297838686523437,-0.0127371528320328,0.0413880953525833,0.813659000000001,
0.04367023828125,-0.0564073911132813,-0.0414675727539091,0.0825132902861629,0.816677999999996,
0.0460644399414063,-0.0611957944335938,-0.00555454785156506,0.0767965551656416,0.819624000000005,
-0.0880108530273437,0.0273896669921875,0.0112048637695281,0.0928528571484869,0.822663000000006,
-0.0449152231445312,0.0321780703124999,0.00162805712890446,0.0552761797628436,0.825619999999986,
0.0412760366210938,-0.0300711728515626,-0.0342849677734396,0.0615097199720517,0.828538000000009,
-0.0209732065429687,-0.0444363828125001,-0.0103429511718769,0.0502139836011534,0.831548999999995,
-0.0185790048828124,0.0202070620117187,0.0207816704101536,0.0344293857426656,0.834497999999996,
0.0173340200195313,0.022601263671875,-0.0199197578125023,0.0347574757557547,0.837534000000005,
-0.00900219824218745,-0.0157059628906251,0.00162805712890446,0.0181760120358761,0.840472000000005,
-0.00181959326171871,-0.0468305844726563,0.0590888969726535,0.0754182491651295,0.843465000000009,
-0.052097828125,0.0178128603515624,-0.0582269843750023,0.080136529739271,0.846405000000004,
-0.0137906015624999,0.0680910952148437,-0.0271023627929718,0.0745728905700617,0.849338999999986,
0.00296881005859378,-0.0420421811523438,-0.0606211860351582,0.0738328316233352,0.852343999999988,
0.0556412465820313,-0.0468305844726563,-0.043861774414065,0.0849288361983333,0.855287000000004,
0.0388818349609376,-0.0635899960937501,-0.0342849677734396,0.0820423287599671,0.858303000000006,
-0.0353384165039062,0.0154186586914062,-0.0223139594726582,0.0445471828985073,0.861257999999992,
-0.0185790048828124,0.0896389101562499,-0.0175255561523464,0.0932065381552435,0.86417800000001,
0.00775721337890628,-0.142598650878906,0.00402225878906037,0.142866119698325,0.86721399999999,
0.00536301171875003,-0.0588015927734376,-0.0582269843750023,0.0829262981013586,0.870149999999995,
-0.0664630380859375,0.0321780703124999,0.0519062919921858,0.0902608818316496,0.873187000000001,
-0.0568862314453125,0.05133168359375,-0.0318907661132837,0.0829940120244267,0.876128999999992,
0.0484586416015626,-0.0611957944335938,0.0590888969726535,0.0979012918590568,0.879063000000002,
0.014939818359375,-0.0707726010742188,-0.0630153876953141,0.0959317378233731,0.88207700000001,
-0.0401268198242187,-0.00852335791015631,-0.00794874951172098,0.0417850681233144,0.884987999999993,
-0.0353384165039062,0.00584185205078119,-0.00794874951172098,0.0366894199352736,0.888000000000005,
0.0460644399414063,-0.0540131894531251,-0.0534385810546905,0.088854033150743,0.890940999999998,
0.0508528432617188,-0.0348595761718751,0.0399352836914044,0.073457665373987,0.893883999999986,
-0.0449152231445312,0.0130244570312499,-0.0247081611328142,0.0528914641284113,0.89691400000001,
-0.0257616098632812,0.00823605371093744,0.0375410820312485,0.046269060543243,0.899964000000011,
-0.0305500131835937,0.022601263671875,-0.0366791694335955,0.0528155459634923,0.903068999999988,
0.0364876333007813,-0.0181001645507813,-0.0342849677734396,0.0532392933450796,0.906091000000004,
-0.111952869628906,-0.0228885678710938,-0.101322614257814,0.152720672200506,0.909023999999988,
0.0556412465820313,0.0249954653320312,-0.000766144531251456,0.0610025293394458,0.912067000000008,
0.0747948598632813,0.0633026918945312,-0.00316034619140915,0.0980382050585963,0.915024999999986,
-0.03294421484375,-0.0157059628906251,0.0112048637695281,0.0381778408777465,0.918046000000004,
-0.104770264648437,-0.0971088193359376,-0.127658832519533,0.19158211990573,0.920988999999992,
0.0197282216796875,-0.0252827695312501,-0.00316034619140915,0.0322243534281567,0.923909000000009,
0.0843716665039063,-0.00134075292968756,0.0159932670898417,0.0858845755608763,0.926932999999991,
0.014939818359375,-0.00134075292968756,-0.0294965644531278,0.0330914355319787,0.929879999999997,
0.0316992299804688,-0.0683783994140626,-0.0103429511718769,0.0760751163438319,0.932905000000005,
-0.0401268198242187,0.0154186586914062,0.0183874687499976,0.0467546330546987,0.935888000000006,
-0.00181959326171871,-0.0971088193359376,-0.0366791694335955,0.103820976602979,0.938885999999997,
-0.00660799658203121,-0.10189722265625,-0.0223139594726582,0.104520918438526,0.941842000000008,
0.0173340200195313,0.00823605371093744,-0.0342849677734396,0.0392907094106577,0.944803000000007,
-0.0161848032226562,0.0417548769531249,0.0159932670898417,0.0475520998162407,0.947846999999996,
-0.00181959326171871,-0.0971088193359376,-0.0366791694335955,0.103820976602979,0.950784999999996,
0.0173340200195313,-0.104291424316406,-0.0701979926757836,0.126905191429238,0.953789,
-0.0209732065429687,0.00823605371093744,0.0231758720703095,0.0323238150539633,0.956756000000013,
-0.0664630380859375,0.0369664736328124,0.0135990654296858,0.0772579457727104,0.959694000000013,
-0.0209732065429687,-0.0276769711914063,-0.0223139594726582,0.0412771476045934,0.962689000000012,
0.0340934316406251,-0.128233440917969,0.0088106621093722,0.132980469308473,0.965641000000005,
-0.0185790048828124,-0.0157059628906251,0.0255700737304672,0.0352942681371747,0.968648000000002,
0.0125456166992188,0.070485296875,0.00162805712890446,0.0716115922454987,0.971631000000002,
0.0269108266601563,-0.00612915625000006,-0.000766144531251456,0.0276106161704635,0.974544000000009,
0.0316992299804688,0.00584185205078119,-0.0558327827148464,0.0644691247220025,0.977588999999995,
0.000574608398437537,-0.00612915625000006,-0.0797747993164091,0.0800119699615115,0.980525,
-0.0544920297851562,-0.0588015927734376,-0.0271023627929718,0.0846259221028722,0.983523999999989,
0.00296881005859378,-0.0731668027343751,-0.0199197578125023,0.0758880201800238,0.98646500000001,
-0.03294421484375,-0.0348595761718751,0.0207816704101536,0.0522722600199204,0.989384999999999,
-0.0257616098632812,0.0896389101562499,-0.0247081611328142,0.0964846515426846,0.992408000000012,
0.0364876333007813,-0.0300711728515626,0.0159932670898417,0.0499140001679674,0.995386999999994,
0.0101514150390625,-0.1593580625,0.0495120903320281,0.167181010883701,0.99842799999999,
-0.0305500131835937,-0.0204943662109376,0.00641646044921629,0.0373429152129574,1.001351,
-0.0257616098632812,0.0896389101562499,-0.0199197578125023,0.0953708105662152,1.004278,
0.0484586416015626,0.0321780703124999,0.0159932670898417,0.0603278770313683,1.007318,
0.0316992299804688,-0.10189722265625,0.0950019218749976,0.142874946461425,1.010265,
