X,Y,Z,Magnitude,Seconds,
0.00296881005859378,-0.0109175595703126,-0.0773805976562532,0.0782033492490844,0.0,
-0.00181959326171871,-0.0707726010742188,-0.0510443793945328,0.0872788671456133,0.00378200000000106,
0.0412760366210938,-0.0300711728515626,0.0327526787109349,0.0606689755851882,0.007583000000011,
-0.0209732065429687,-0.0516189877929688,0.00402225878906037,0.0558620968030279,0.0114300000000185,
0.00775721337890628,-0.00373495458984381,-0.0486501777343769,0.0494061133745667,0.0153140000000178,
-0.0137906015624999,0.0130244570312499,-0.0103429511718769,0.0216054116220527,0.0191420000000164,
0.0388818349609376,-0.0300711728515626,0.0375410820312485,0.0618498614927719,0.0230590000000177,
-0.00660799658203121,-0.0228885678710938,-0.0271023627929718,0.0360844873453908,0.0270370000000071,
-0.0209732065429687,-0.0133117612304688,0.0112048637695281,0.0272511899161251,0.0308980000000076,
-0.0257616098632812,-0.0109175595703126,-0.0414675727539091,0.0500241265772824,0.0347600000000057,
-0.0113963999023437,-0.0324653745117188,-0.0318907661132837,0.0469137446406963,0.0386510000000158,
-0.042521021484375,0.0106302553710937,0.00641646044921629,0.0442968459602453,0.0424990000000207,
-0.0185790048828124,-0.0372537778320313,-0.0342849677734396,0.0539303476756798,0.046258000000023,
-0.0185790048828124,-0.0707726010742188,0.0375410820312485,0.0822391228389689,0.0501959999999997,
0.00536301171875003,-0.0204943662109376,-0.0247081611328142,0.032546492401618,0.0540850000000148,
0.00775721337890628,-0.0300711728515626,-0.0199197578125023,0.0368950748391053,0.0579510000000028,
0.0101514150390625,-0.0516189877929688,-0.0294965644531278,0.0603126723218553,0.0619310000000155,
-0.0305500131835937,-0.00134075292968756,0.0159932670898417,0.0345092091497796,0.0659860000000094,
-0.0209732065429687,-0.0348595761718751,-0.0534385810546905,0.067162097858208,0.0699030000000107,
-0.0209732065429687,-0.00852335791015631,0.00641646044921629,0.0235307030803375,0.0737740000000144,
-0.0185790048828124,-0.0109175595703126,0.0255700737304672,0.0334395155465569,0.0776290000000017,
0.0388818349609376,-0.0300711728515626,-0.0103429511718769,0.0502299628264044,0.0815110000000061,
-0.0353384165039062,0.0010534487304687,-0.0199197578125023,0.040579677013747,0.0854180000000042,
0.00775721337890628,-0.0157059628906251,-0.0199197578125023,0.0265263714261171,0.0894190000000208,
-0.0113963999023437,-0.00373495458984381,-0.0678037910156277,0.0688562407673644,0.0932750000000055,
-0.0209732065429687,-0.0133117612304688,-0.0103429511718769,0.0269082704515706,0.097251,
0.000574608398437537,0.00823605371093744,-0.0678037910156277,0.0683045886572192,0.101173000000017,
-0.0233674082031249,-0.0276769711914063,-0.0175255561523464,0.0402392298498673,0.105146000000019,
-0.0473094248046875,0.00584185205078119,0.0159932670898417,0.050280150188127,0.109028000000023,
-0.0113963999023437,-0.00612915625000006,-0.000766144531251456,0.0129626951099615,0.112884000000008,
-0.0281558115234375,0.0010534487304687,-0.0462559760742209,0.0541615620098789,0.116849999999999,
0.0221224233398438,0.00584185205078119,-0.0199197578125023,0.0303368686768959,0.120820000000009,
0.0125456166992188,-0.0157059628906251,-0.0151313544921905,0.0251600408873623,0.124762000000004,
-0.0257616098632812,-0.0396479794921876,-0.0606211860351582,0.0768801080700989,0.128625,
0.0125456166992188,-0.0133117612304688,0.00641646044921629,0.0193846962864288,0.132621,
0.000574608398437537,-0.0372537778320313,-0.0271023627929718,0.0460729009997392,0.136534000000012,
-0.00900219824218745,-0.0276769711914063,0.0207816704101536,0.0357621606248536,0.140472000000017,
0.00536301171875003,-0.0109175595703126,-0.0845632026367209,0.085433542837962,0.144339000000002,
-0.0137906015624999,-0.0133117612304688,-0.0342849677734396,0.0392790363137696,0.148159000000021,
-0.0281558115234375,-0.0157059628906251,0.0112048637695281,0.0341317442413761,0.152006,
-0.0209732065429687,-0.0611957944335938,-0.0199197578125023,0.0676874981097798,0.155878000000001,
-0.042521021484375,0.0273896669921875,-0.0175255561523464,0.0535292092643507,0.159712000000013,
-0.042521021484375,-0.00612915625000006,-0.0366791694335955,0.0564886297829041,0.163697000000013,
-0.00181959326171871,-0.0109175595703126,-0.0486501777343769,0.0498933244051333,0.167664000000002,
-0.00900219824218745,-0.0109175595703126,0.00162805712890446,0.0142437091439675,0.171548000000001,
0.00296881005859378,-0.0181001645507813,-0.00555454785156506,0.0191646234443752,0.175485000000009,
-0.0353384165039062,-0.0276769711914063,-0.043861774414065,0.0627588533203389,0.179358000000008,
-0.0257616098632812,-0.0468305844726563,-0.0175255561523464,0.0562486382346058,0.183166,
-0.0257616098632812,0.0010534487304687,-0.0151313544921905,0.029895287015581,0.186966000000012,
-0.0113963999023437,-0.0420421811523438,-0.0869574042968768,0.0972574577543086,0.191048000000023,
0.0197282216796875,0.00823605371093744,-0.0390733710937532,0.0445394616043177,0.194948000000011,
0.000574608398437537,0.0010534487304687,-0.0294965644531278,0.0295209627820097,0.198886000000016,
0.000574608398437537,-0.0204943662109376,-0.000766144531251456,0.0205167297258199,0.20275700000002,
-0.0137906015624999,-0.0731668027343751,0.0088106621093722,0.0749745922338502,0.206611000000009,
-0.0257616098632812,-0.0276769711914063,-0.101322614257814,0.10814780366293,0.210431,
-0.0257616098632812,-0.00852335791015631,0.0255700737304672,0.0372845389322982,0.214285000000018,
-0.0257616098632812,0.0202070620117187,0.030358477050779,0.0446500058984993,0.218101000000019,
-0.0257616098632812,-0.0204943662109376,-0.0390733710937532,0.0510921512344712,0.221962000000019,
-0.00421379492187496,-0.0228885678710938,0.0375410820312485,0.0441698477121013,0.225759000000011,
-0.0473094248046875,-0.0252827695312501,-0.0462559760742209,0.0708308932112224,0.229564000000011,
0.014939818359375,-0.0468305844726563,0.0471178886718722,0.0680910952148419,0.233521000000025,
-0.0161848032226562,-0.0396479794921876,-0.0175255561523464,0.0462715382456438,0.237289000000004,
-0.0449152231445312,0.00344765039062495,-0.0294965644531278,0.0538452493529051,0.241355000000027,
-0.0137906015624999,-0.0181001645507813,-0.00555454785156506,0.0234232715489599,0.245202000000006,
0.0340934316406251,-0.0396479794921876,-0.0342849677734396,0.062528260603288,0.249011000000024,
-0.0401268198242187,0.022601263671875,0.0159932670898417,0.0487520602741868,0.252862000000022,
0.04367023828125,-0.0492247861328126,0.0088106621093722,0.0663912422550431,0.256815000000017,
-0.0281558115234375,-0.0252827695312501,-0.043861774414065,0.0579294692920967,0.260657000000009,
-0.03294421484375,-0.00373495458984381,0.0112048637695281,0.0349974306135898,0.264591000000024,
-0.00421379492187496,-0.0683783994140626,0.0088106621093722,0.0690723485982504,0.268489000000017,
0.0173340200195313,-0.0755610043945313,-0.0294965644531278,0.082945650577263,0.27230800000001,
0.00296881005859378,-0.0109175595703126,-0.0390733710937532,0.0406784373933596,0.276174000000026,
0.0125456166992188,0.00344765039062495,-0.0725921943359396,0.0737489353827329,0.280010000000004,
-0.00900219824218745,0.0010534487304687,-0.0175255561523464,0.0197305460103976,0.283798000000019,
-0.0353384165039062,0.0010534487304687,-0.00794874951172098,0.036236667258888,0.287738000000019,
-0.00660799658203121,-0.0468305844726563,-0.0606211860351582,0.0768875637355483,0.291605000000004,
0.0101514150390625,-0.0851378110351563,0.0495120903320281,0.0990098236752303,0.295448000000022,
-0.0760398447265624,0.163859161621094,-0.249763117187502,0.308242595272661,0.299369000000013,
0.27351359765625,-0.1210508359375,0.00641646044921629,0.299172465224875,0.303348,
-0.313065809082031,0.0920331118164062,-0.0606211860351582,0.331896403540483,0.307365000000004,
-0.0113963999023437,0.0130244570312499,-0.0294965644531278,0.0341988556274992,0.310822999999999,
0.319003429199219,-0.221607305664063,-0.0199197578125023,0.38893416218668,0.313790000000012,
-0.0281558115234375,-0.00612915625000006,-0.0151313544921905,0.0325464924016181,0.316780000000023,
-0.234057154296875,0.115975128417969,-0.00316034619140915,0.261233553888403,0.319832000000019,
-0.0473094248046875,0.0537258852539062,0.0088106621093722,0.0721268340388777,0.322800000000001,
0.175351329589844,-0.118656634277344,-0.0606211860351582,0.220232635736084,0.325807000000026,
0.0197282216796875,-0.0971088193359376,0.030358477050779,0.103638615642555,0.328777000000002,
-0.164625306152344,0.00344765039062495,-0.00316034619140915,0.164691728714646,0.331725000000006,
0.0364876333007813,0.0417548769531249,-0.00555454785156506,0.0557285396820894,0.334869000000026,
0.108313683105469,-0.0731668027343751,-0.0414675727539091,0.137130574856024,0.337801000000013,
-0.00181959326171871,-0.0851378110351563,0.0543004936523417,0.100996541516945,0.340869000000026,
-0.104770264648437,-0.0133117612304688,-0.0247081611328142,0.108464300892624,0.343785000000025,
-0.0185790048828124,0.0202070620117187,-0.00555454785156506,0.0280063881894174,0.346752000000009,
0.0412760366210938,-0.0420421811523438,-0.0582269843750023,0.0828350041021254,0.349788000000018,
-0.00660799658203121,-0.0540131894531251,0.00402225878906037,0.054564354843556,0.352755999999999,
-0.0880108530273437,0.0010534487304687,-0.0462559760742209,0.099431561022682,0.355816000000004,
-0.00421379492187496,-0.0157059628906251,-0.00794874951172098,0.0181001645507823,0.358743000000004,
0.0388818349609376,-0.0157059628906251,-0.0247081611328142,0.0486720411203022,0.361655000000013,
0.0125456166992188,-0.0492247861328126,0.030358477050779,0.0591786211146181,0.364727000000016,
-0.0449152231445312,-0.0635899960937501,-0.000766144531251456,0.0778566108353616,0.367643000000015,
-0.0281558115234375,-0.00852335791015631,-0.00555454785156506,0.0299374406795786,0.370672000000013,
0.0412760366210938,-0.0252827695312501,-0.0366791694335955,0.0607313025107694,0.373651000000024,
0.0316992299804688,-0.0468305844726563,0.0231758720703095,0.0611151852621311,0.37670300000002,
-0.0497036264648437,-0.0228885678710938,-0.0510443793945328,0.0748322503384696,0.379623000000009,
-0.0161848032226562,0.00344765039062495,-0.0606211860351582,0.0628391784230295,0.382585000000006,
0.0269108266601563,-0.0420421811523438,-0.00794874951172098,0.0505462185171112,0.385593,
-0.00421379492187496,-0.0133117612304688,-0.000766144531251456,0.0139837774633108,0.388525000000016,
-0.0209732065429687,0.00344765039062495,-0.0342849677734396,0.0403388237450696,0.391514000000001,
-0.0401268198242187,-0.00373495458984381,-0.0223139594726582,0.0460654354406961,0.394491000000016,
-0.00181959326171871,-0.0228885678710938,0.0351468803710908,0.0419821469037438,0.397475000000014,
-0.0209732065429687,-0.0372537778320313,0.0159932670898417,0.0456454154068006,0.400509,
-0.0712514414062499,0.0178128603515624,-0.0486501777343769,0.0880960026900142,0.403474000000017,
-0.042521021484375,0.0489374819335937,-0.0342849677734396,0.0733373944267267,0.406514000000016,
0.0316992299804688,0.0178128603515624,-0.0701979926757836,0.0790562922920642,0.409495000000021,
0.00296881005859378,-0.0659841977539063,-0.0701979926757836,0.0963871690740007,0.412479000000019,
0.00775721337890628,-0.00612915625000006,0.00641646044921629,0.0117860884282765,0.415557000000007,
-0.0113963999023437,-0.0181001645507813,0.0207816704101536,0.02982233579946,0.418545000000023,
-0.0161848032226562,-0.0540131894531251,-0.0486501777343769,0.0744728963035663,0.421615000000003,
-0.00421379492187496,-0.0157059628906251,0.0279642753906231,0.0323486326772542,0.42462500000002,
-0.0305500131835937,0.0321780703124999,-0.0893516059570327,0.0997619216016552,0.42759700000002,
-0.03294421484375,-0.0157059628906251,0.00641646044921629,0.0370563021183874,0.430665000000005,
0.0125456166992188,-0.0564073911132813,-0.0199197578125023,0.0611226882743156,0.433751000000001,
0.00536301171875003,-0.0324653745117188,-0.00794874951172098,0.0338518102275446,0.436800000000005,
-0.0233674082031249,0.0178128603515624,-0.0701979926757836,0.0760992242782087,0.439759000000009,
-0.0281558115234375,0.0178128603515624,-0.0294965644531278,0.0444982587410465,0.442734000000002,
-0.0281558115234375,0.00823605371093744,-0.00794874951172098,0.0303935013131568,0.445817000000005,
-0.0401268198242187,-0.0109175595703126,-0.0462559760742209,0.0622010458011402,0.448769000000027,
-0.0233674082031249,0.00344765039062495,0.0159932670898417,0.0285255438432725,0.451813000000016,
-0.0473094248046875,0.0393606752929687,-0.0127371528320328,0.0628464756142734,0.454762000000017,
-0.00900219824218745,-0.00612915625000006,-0.000766144531251456,0.0109175595703126,0.457696000000027,
0.00775721337890628,-0.0348595761718751,0.0112048637695281,0.0374287774631008,0.460729000000015,
-0.0401268198242187,0.0321780703124999,-0.0366791694335955,0.0631739768304949,0.463773000000003,
-0.0353384165039062,-0.0348595761718751,0.0351468803710908,0.0608218458426418,0.466830000000016,
-0.0209732065429687,-0.00612915625000006,0.00402225878906037,0.0222175722075368,0.469878000000023,
0.0293050283203126,-0.0827436093750001,-0.0175255561523464,0.0895122041718668,0.472897000000017,
0.0269108266601563,-0.0468305844726563,0.0207816704101536,0.057872049027314,0.475885000000005,
-0.0209732065429687,-0.0252827695312501,-0.0127371528320328,0.0352324976425301,0.478815000000026,
-0.0449152231445312,0.00823605371093744,-0.0271023627929718,0.0531012986641037,0.481879000000021,
0.000574608398437537,-0.00373495458984381,0.0159932670898417,0.0164336439296574,0.484901000000008,
-0.0353384165039062,-0.0396479794921876,-0.0342849677734396,0.0632157019579967,0.487874000000005,
-0.0353384165039062,0.00344765039062495,-0.00794874951172098,0.0363850600249555,0.490847000000002,
-0.0113963999023437,-0.00134075292968756,-0.000766144531251456,0.0115005446216852,0.493787000000026,
0.014939818359375,-0.00373495458984381,0.0135990654296858,0.0205446498865323,0.496845000000008,
-0.0257616098632812,-0.0444363828125001,0.030358477050779,0.0596648119836946,0.499796000000003,
-0.0401268198242187,0.00823605371093744,-0.0175255561523464,0.0445549028546108,0.502880000000005,
-0.0281558115234375,-0.0133117612304688,0.0255700737304672,0.0402961707880771,0.50584600000002,
0.0101514150390625,-0.0109175595703126,-0.0318907661132837,0.0352032001039506,0.508771000000024,
-0.0161848032226562,-0.0348595761718751,-0.0390733710937532,0.0548075381208553,0.511789000000022,
-0.0568862314453125,-0.0204943662109376,-0.0654095893554718,0.0890756799249331,0.514738000000023,
-0.03294421484375,0.0178128603515624,-0.0630153876953141,0.0733045590121526,0.517799000000025,
-0.00660799658203121,-0.0252827695312501,-0.0845632026367209,0.0885088656247359,0.520692000000025,
-0.00900219824218745,-0.0252827695312501,-0.0414675727539091,0.0493945098008138,0.523637000000008,
-0.03294421484375,0.0010534487304687,0.0279642753906231,0.0432253599640476,0.526754000000011,
-0.00421379492187496,0.0297838686523437,-0.00555454785156506,0.0305890160250212,0.529710000000023,
0.00536301171875003,-0.00612915625000006,-0.0342849677734396,0.0352390048988072,0.532788000000011,
-0.0209732065429687,-0.0564073911132813,-0.0199197578125023,0.0633913709917167,0.535717000000005,
-0.0305500131835937,-0.0228885678710938,-0.00555454785156506,0.0385751584124128,0.538634999999999,
-0.0281558115234375,0.0393606752929687,-0.0342849677734396,0.0593082751164426,0.541725000000014,
0.00775721337890628,0.0010534487304687,-0.0390733710937532,0.0398498738048661,0.544738000000024,
-0.0281558115234375,-0.00612915625000006,-0.0941400092773463,0.0984512957030993,0.547820000000002,
-0.0568862314453125,-0.00134075292968756,-0.0318907661132837,0.0652293025392751,0.550816000000026,
0.0245166250000001,-0.00612915625000006,0.00641646044921629,0.0260730209685011,0.553826000000015,
0.000574608398437537,0.00823605371093744,0.00162805712890446,0.00841506539225798,0.556913000000009,
-0.00181959326171871,-0.00852335791015631,-0.0175255561523464,0.0195730342091297,0.559842000000003,
0.0101514150390625,-0.00612915625000006,0.0231758720703095,0.0260334175599665,0.563003000000009,
-0.00660799658203121,0.0249954653320312,0.0183874687499976,0.031725981671574,0.565989000000002,
-0.0233674082031249,0.0010534487304687,0.0112048637695281,0.0259363546485022,0.569022000000018,
0.0125456166992188,-0.0204943662109376,-0.0127371528320328,0.0271964447496046,0.572023000000002,
-0.0137906015624999,-0.0348595761718751,0.00402225878906037,0.0377034389426821,0.575029000000001,
0.0197282216796875,-0.0252827695312501,-0.0103429511718769,0.0336956644801231,0.57808,
-0.0592804331054687,-0.0300711728515626,-0.0271023627929718,0.071784282783924,0.581002000000012,
-0.0401268198242187,-0.0109175595703126,0.0614830986328094,0.0742261826693816,0.583984000000015,
0.00296881005859378,-0.0157059628906251,-0.0534385810546905,0.0557778903206676,0.586977000000019,
-0.0113963999023437,-0.0324653745117188,-0.0318907661132837,0.0469137446406963,0.589895000000013,
-0.00421379492187496,-0.0420421811523438,-0.0486501777343769,0.0644371077662287,0.592981000000009,
0.00536301171875003,0.00344765039062495,-0.0271023627929718,0.0278421668853789,0.596032000000008,
-0.0568862314453125,-0.0252827695312501,0.0471178886718722,0.0780727685951696,0.599136000000016,
-0.0305500131835937,-0.0420421811523438,-0.0103429511718769,0.0529889133735357,0.602077000000008,
-0.00900219824218745,-0.00612915625000006,0.0088106621093722,0.0140083509498472,0.605048000000011,
-0.0473094248046875,-0.00612915625000006,-0.0175255561523464,0.050822173803728,0.608081000000027,
-0.0377326181640625,-0.0372537778320313,-0.0510443793945328,0.0736011080354521,0.611021000000022,
-0.0209732065429687,0.0321780703124999,-0.0318907661132837,0.0499231866473123,0.614114000000001,
0.0628238515625,-0.00612915625000006,-0.0534385810546905,0.0827048053417858,0.617092000000014,
0.0484586416015626,-0.0420421811523438,-0.0271023627929718,0.069644260430254,0.620029000000017,
-0.0760398447265624,0.00344765039062495,-0.0127371528320328,0.0771762874302869,0.623084000000006,
-0.0137906015624999,0.0010534487304687,-0.0103429511718769,0.0172704106675893,0.626077000000009,
0.0293050283203126,-0.00134075292968756,0.0231758720703095,0.0373858709874752,0.629110000000026,
0.0125456166992188,-0.0635899960937501,0.0231758720703095,0.0688345926681216,0.632128000000023,
-0.0473094248046875,-0.00373495458984381,-0.0366791694335955,0.0599791049572847,0.635074000000003,
-0.0353384165039062,-0.0109175595703126,-0.0486501777343769,0.0611133093651566,0.638114000000002,
0.0245166250000001,-0.0731668027343751,-0.0582269843750023,0.0966686486569888,0.641059000000013,
-0.0113963999023437,-0.0540131894531251,-0.0654095893554718,0.0855904021797116,0.644078000000007,
-0.052097828125,0.0178128603515624,-0.0558327827148464,0.078414165269609,0.647063000000003,
0.0125456166992188,0.0202070620117187,-0.000766144531251456,0.023797160144688,0.650008000000014,
0.0101514150390625,-0.0372537778320313,-0.000766144531251456,0.0386197121622678,0.653071000000011,
-0.0113963999023437,-0.0540131894531251,-0.0845632026367209,0.100986324845557,0.656034000000005,
-0.00181959326171871,-0.0516189877929688,-0.0558327827148464,0.0760600450045358,0.659072000000009,
-0.0449152231445312,0.0202070620117187,0.0135990654296858,0.0510943950529738,0.662056000000007,
-0.0233674082031249,-0.0635899960937501,0.030358477050779,0.0742385378235408,0.665104000000014,
0.014939818359375,-0.0372537778320313,-0.0271023627929718,0.0484311904079523,0.668041000000017,
-0.0233674082031249,-0.0133117612304688,-0.0318907661132837,0.041716420226101,0.671029000000004,
-0.0568862314453125,0.0800621035156249,-0.0414675727539091,0.106609302302834,0.674083000000024,
-0.0257616098632812,-0.0492247861328126,-0.0127371528320328,0.0569997822349841,0.677122000000026,
0.0340934316406251,-0.0755610043945313,-0.00555454785156506,0.0830823715837462,0.680202000000008,
0.0245166250000001,-0.0348595761718751,-0.0366791694335955,0.0562282528859985,0.683218000000011,
-0.0568862314453125,0.0393606752929687,-0.0486501777343769,0.0845703605357966,0.686185000000023,
-0.0113963999023437,0.0178128603515624,-0.0175255561523464,0.0274649056631814,0.689246000000026,
0.0125456166992188,-0.0588015927734376,-0.0103429511718769,0.0610081670762262,0.692253000000022,
-0.0401268198242187,-0.0444363828125001,0.00402225878906037,0.0600077691005968,0.695366000000007,
-0.0449152231445312,0.0106302553710937,-0.0199197578125023,0.0502710289400013,0.698320000000024,
-0.0377326181640625,-0.0157059628906251,0.0638773002929671,0.0758336154785892,0.701280000000025,
0.0412760366210938,-0.0468305844726563,0.0255700737304672,0.0674584576741716,0.704376000000025,
0.000574608398437537,-0.0420421811523438,-0.0127371528320328,0.0439330198498192,0.707378000000006,
-0.061674634765625,0.00823605371093744,0.0159932670898417,0.064244670957284,0.710431,
-0.0161848032226562,-0.0133117612304688,-0.0318907661132837,0.0381598192567166,0.713351000000017,
-0.00660799658203121,-0.0492247861328126,-0.0390733710937532,0.0631939357634846,0.716280000000012,
-0.042521021484375,0.0154186586914062,-0.0510443793945328,0.0682004470050582,0.71931600000002,
-0.0568862314453125,-0.0204943662109376,-0.0103429511718769,0.0613436142836523,0.722289000000018,
0.00296881005859378,-0.0133117612304688,-0.0175255561523464,0.0222072496872095,0.72539900000001,
-0.00900219824218745,-0.00852335791015631,-0.0606211860351582,0.0618758062538625,0.728356000000019,
0.014939818359375,-0.0276769711914063,0.0207816704101536,0.0376973570953894,0.731372000000022,
0.00296881005859378,-0.0252827695312501,-0.0414675727539091,0.0486579064329227,0.734402000000017,
-0.0377326181640625,0.0130244570312499,0.0279642753906231,0.0487379487934856,0.737420000000014,
-0.00421379492187496,0.0321780703124999,-0.00794874951172098,0.0334120770901765,0.740438000000012,
0.0460644399414063,-0.0276769711914063,0.0327526787109349,0.0629339759127539,0.743465000000015,
0.0101514150390625,0.0178128603515624,-0.0630153876953141,0.0662667964186463,0.746472000000011,
-0.0592804331054687,0.0106302553710937,-0.0366791694335955,0.070516193521524,0.749528000000026,
0.00775721337890628,-0.00373495458984381,0.0399352836914044,0.0408527982971428,0.75249100000002,
0.0293050283203126,-0.00612915625000006,-0.0630153876953141,0.0697659682623411,0.755576000000019,
0.0316992299804688,-0.0133117612304688,0.0135990654296858,0.0369726757075079,0.758509000000004,
-0.0664630380859375,0.0130244570312499,-0.00555454785156506,0.0679545797897903,0.761581000000007,
-0.0401268198242187,-0.00612915625000006,-0.0486501777343769,0.063360618834799,0.764544000000001,
0.0101514150390625,-0.0252827695312501,0.0112048637695281,0.0294587615924243,0.767513000000008,
0.0245166250000001,-0.00134075292968756,-0.043861774414065,0.050266467695268,0.770531000000005,
-0.10955866796875,0.00344765039062495,-0.127658832519533,0.168261004218306,0.773491000000007,
-0.0568862314453125,0.0178128603515624,-0.0869574042968768,0.105427375401289,0.776499000000001,
0.0245166250000001,-0.0635899960937501,-0.0725921943359396,0.0995709756058491,0.779462000000024,
0.0221224233398438,-0.0372537778320313,-0.0127371528320328,0.0451606093786629,0.782386000000002,
-0.0401268198242187,0.0010534487304687,-0.0486501777343769,0.0630722697944152,0.785482999999999,
-0.0544920297851562,0.0178128603515624,-0.0869574042968768,0.104155026120015,0.78851800000001,
0.0340934316406251,-0.0372537778320313,-0.0318907661132837,0.0597262673125023,0.791591000000011,
-0.0113963999023437,-0.0300711728515626,-0.0223139594726582,0.0391416166598945,0.794531000000006,
-0.0353384165039062,0.00584185205078119,-0.0462559760742209,0.0585025319021807,0.797462000000024,
0.00536301171875003,-0.0228885678710938,0.00402225878906037,0.0238500943321256,0.800536000000022,
0.00536301171875003,-0.00134075292968756,-0.043861774414065,0.0442087634735947,0.803516999999999,
0.0340934316406251,-0.0181001645507813,0.00402225878906037,0.0388092334833543,0.806623000000002,
-0.0449152231445312,0.0010534487304687,-0.0294965644531278,0.0537450866488117,0.809590000000014,
-0.00900219824218745,-0.0133117612304688,0.0399352836914044,0.0430472931060898,0.812583000000018,
0.00296881005859378,-0.00852335791015631,0.0471178886718722,0.0479745442513378,0.815681000000012,
-0.0137906015624999,0.0154186586914062,-0.0606211860351582,0.0640534458371051,0.818645000000004,
-0.0281558115234375,0.00823605371093744,-0.00794874951172098,0.0303935013131568,0.821722000000022,
-0.00900219824218745,-0.0252827695312501,-0.0175255561523464,0.0320531297506343,0.824771000000027,
0.0700064565429688,-0.0372537778320313,-0.00555454785156506,0.0794959176454757,0.827690000000018,
0.0221224233398438,-0.0348595761718751,-0.0103429511718769,0.042562522296662,0.830727000000024,
-0.0640688364257812,0.0106302553710937,-0.0271023627929718,0.0703729791835619,0.833714000000015,
-0.0113963999023437,-0.00134075292968756,0.00162805712890446,0.0115899145453097,0.836797000000018,
0.0316992299804688,0.00344765039062495,-0.0869574042968768,0.0926192077088825,0.83976100000001,
0.0508528432617188,-0.0157059628906251,0.0423294853515603,0.0680034871771337,0.842700000000008,
-0.0544920297851562,0.0154186586914062,-0.0342849677734396,0.0662010223574698,0.845710000000025,
-0.0401268198242187,0.0202070620117187,-0.0558327827148464,0.0716644029489816,0.848675000000014,
0.0460644399414063,-0.0659841977539063,-0.0414675727539091,0.0905284848566615,0.851694000000009,
-0.00660799658203121,-0.0181001645507813,-0.0414675727539091,0.0457257166777541,0.854738000000026,
-0.052097828125,-0.0109175595703126,0.030358477050779,0.0612781684709655,0.857725000000016,
-0.0281558115234375,0.0609084902343749,-0.000766144531251456,0.0671057440359396,0.860800000000012,
0.0771890615234376,-0.0468305844726563,0.0566946953124976,0.106609302302832,0.863742999999999,
0.00536301171875003,-0.0635899960937501,-0.0247081611328142,0.0684320299601269,0.866809000000018,
-0.138289087890625,0.022601263671875,-0.0366791694335955,0.144844918514683,0.869768000000022,
-0.0377326181640625,0.00584185205078119,-0.0606211860351582,0.071643603379558,0.872795000000025,
0.00296881005859378,-0.0396479794921876,0.0135990654296858,0.0420203604403604,0.875788,
-0.00900219824218745,-0.0324653745117188,-0.0845632026367209,0.0910273330135346,0.878717000000023,
-0.0688572397460937,0.0154186586914062,-0.00794874951172098,0.0710087115788844,0.881746000000021,
-0.0257616098632812,0.0249954653320312,-0.0127371528320328,0.0380876475012469,0.884701000000007,
0.0508528432617188,-0.0444363828125001,-0.0654095893554718,0.0940160526979911,0.887726000000015,
-0.00421379492187496,-0.0635899960937501,0.00641646044921629,0.0640516559937612,0.890669000000003,
-0.0664630380859375,-0.00852335791015631,0.0207816704101536,0.070155975417021,0.893660000000011,
0.00775721337890628,0.0130244570312499,-0.0103429511718769,0.0183517704679573,0.896727000000027,
0.053247044921875,-0.0516189877929688,-0.0941400092773463,0.119842017007482,0.899666000000025,
-0.03294421484375,-0.0396479794921876,-0.00794874951172098,0.052158088426285,0.902681000000001,
-0.0951934580078125,0.0130244570312499,-0.0247081611328142,0.0992064723443443,0.905633000000023,
-0.00900219824218745,0.0130244570312499,0.00402225878906037,0.016335685474344,0.908597000000015,
0.0388818349609376,-0.0755610043945313,-0.0486501777343769,0.0979188555316412,0.911605000000009,
-0.00660799658203121,-0.0157059628906251,-0.0749863959960955,0.0768980004527626,0.914560000000023,
-0.0544920297851562,-0.0540131894531251,-0.0103429511718769,0.0774195232738446,0.917633000000023,
0.0197282216796875,0.00823605371093744,-0.0414675727539091,0.0466539912705557,0.920608000000016,
0.0197282216796875,-0.0157059628906251,-0.0294965644531278,0.0388062793308261,0.923546000000016,
-0.0377326181640625,-0.0181001645507813,-0.0175255561523464,0.0453708226587236,0.926576000000011,
-0.052097828125,0.00823605371093744,0.0279642753906231,0.0596993883904525,0.929520000000025,
0.0245166250000001,-0.00612915625000006,-0.0701979926757836,0.0746082410557769,0.932589000000007,
0.0628238515625,-0.0659841977539063,-0.00316034619140915,0.0911632517323905,0.935569000000015,
-0.0401268198242187,0.0010534487304687,0.0471178886718722,0.0618980359650286,0.938602000000003,
-0.0185790048828124,0.0010534487304687,-0.000766144531251456,0.0186246115155743,0.941665,
0.0340934316406251,0.00344765039062495,0.0806367119140603,0.0876157958507546,0.944681000000003,
0.0221224233398438,-0.0348595761718751,0.0375410820312485,0.0558025492731914,0.94777000000002,
0.0125456166992188,-0.0181001645507813,-0.00794874951172098,0.0234134806026178,0.950723000000011,
-0.0137906015624999,0.00344765039062495,0.0159932670898417,0.0213974665995444,0.953852000000012,
-0.03294421484375,-0.0372537778320313,0.0495120903320281,0.070175582245368,0.956852000000026,
0.0412760366210938,-0.0372537778320313,-0.0103429511718769,0.0565555638363552,0.959798000000006,
0.000574608398437537,-0.0228885678710938,0.0207816704101536,0.0309207784351797,0.962871000000007,
0.00296881005859378,-0.0133117612304688,0.00641646044921629,0.0150727497463926,0.965877000000006,
-0.00660799658203121,-0.00852335791015631,-0.0103429511718769,0.014942887533425,0.968884000000003,
0.0364876333007813,-0.0252827695312501,-0.0390733710937532,0.0591379247834479,0.971845000000002,
-0.0353384165039062,-0.0588015927734376,-0.0414675727539091,0.0801622765632157,0.974752000000024,
-0.0377326181640625,-0.0324653745117188,-0.0390733710937532,0.0632809556211918,0.977807000000013,
-0.0281558115234375,0.00344765039062495,-0.0271023627929718,0.0392323091943512,0.980739,
0.00536301171875003,-0.0276769711914063,0.0183874687499976,0.0336582179572467,0.983857,
0.0340934316406251,-0.0516189877929688,-0.0127371528320328,0.0631594572813225,0.986857000000015,
-0.00900219824218745,0.00823605371093744,-0.0271023627929718,0.029722217664282,0.989844000000005,
-0.00660799658203121,-0.0300711728515626,-0.00555454785156506,0.0312856845431264,0.992886000000027,
0.0125456166992188,-0.0324653745117188,-0.0127371528320328,0.0370624891610971,0.995856000000003,
-0.00421379492187496,-0.0157059628906251,-0.0271023627929718,0.0316065089329267,0.998885000000001,
-0.03294421484375,-0.0109175595703126,0.0399352836914044,0.0529088015565977,1.00182600000002,
-0.0185790048828124,-0.00373495458984381,-0.0462559760742209,0.049987444731679,1.00481100000002,
0.0412760366210938,-0.00612915625000006,0.00641646044921629,0.0422190563629642,1.00789500000002,
-0.00421379492187496,-0.0181001645507813,0.00402225878906037,0.0190144836946774,1.010828,
-0.00900219824218745,-0.0396479794921876,-0.0151313544921905,0.0433815599047902,1.01385200000001,
-0.0113963999023437,-0.0157059628906251,-0.0223139594726582,0.0295714049108808,1.01681300000001,
0.0173340200195313,-0.0348595761718751,0.0088106621093722,0.0399159876205738,1.01975700000003,
0.014939818359375,-0.0252827695312501,-0.0510443793945328,0.0588892628206062,1.02283200000002,
-0.0257616098632812,-0.0683783994140626,0.0471178886718722,0.0869445885726761,1.02581900000001,
