X,Y,Z,Magnitude,Seconds,
-0.659841977539063,-0.1210508359375,0.0499909306640642,0.672713782639012,0.0,
-0.676601389160156,-0.0396479794921876,-0.0194409174804662,0.678040818361069,0.00377500000013242,
-0.667024582519531,-0.0276769711914062,-0.0122583124999984,0.667711071231437,0.00751499999933003,
-0.676601389160156,-0.0683783994140624,-0.000287304199217076,0.680047886448877,0.0112060000001293,
-0.640688364257813,-0.0204943662109374,0.0188663090820338,0.6412936431621,0.0149069999997664,
-0.650265170898438,-0.0540131894531251,-0.0266235224609357,0.653047493729745,0.0186029999995299,
-0.681389792480469,-0.0540131894531251,-0.038594530761717,0.684615959305794,0.0222999999996318,
-0.65505357421875,-0.0492247861328126,0.00928950244140836,0.656966178370081,0.0260479999997187,
-0.652659372558594,-0.0683783994140624,0.0571735356445338,0.658717447220812,0.0298949999996694,
-0.688572397460938,-0.0755610043945312,0.0164721074218761,0.692901682963125,0.033806999999797,
-0.669418784179688,-0.0588015927734374,-0.0649307490234357,0.675126016454742,0.0375269999994998,
-0.652659372558594,-0.0803494077148437,0.0571735356445338,0.660067494341905,0.0413129999997182,
-0.652659372558594,-0.0803494077148437,0.00450109912109475,0.657602116634368,0.0450819999996384,
-0.647870969238281,-0.0444363828125001,-0.0194409174804662,0.649684026409524,0.048942999999781,
-0.628717355957031,-0.109079827636719,-0.0218351191406239,0.638483120298996,0.0527759999995396,
-0.688572397460938,-0.0899262143554688,0.0140779057617202,0.6945623499759,0.0565179999994143,
-0.688572397460938,-0.0731668027343749,-0.0194409174804662,0.692721644558589,0.060247999999774,
-0.676601389160156,-0.0803494077148437,0.0332315190429711,0.682165523162438,0.0640229999999065,
-0.657447775878906,-0.0635899960937499,-0.0170467158203103,0.660735844442832,0.0677740000000995,
-0.69336080078125,-0.0468305844726562,-0.0074699091796866,0.694980649547324,0.0714950000001409,
-0.664630380859375,-0.0468305844726562,0.0116837041015643,0.666380638783017,0.0753239999994548,
-0.664630380859375,-0.0372537778320312,-0.0362003291015611,0.666657221479748,0.0790409999999611,
-0.664630380859375,-0.0396479794921876,0.0188663090820338,0.666079156750509,0.0827709999994113,
-0.647870969238281,-0.0827436093749999,0.0643561406250015,0.656296434936453,0.0864659999997457,
-0.669418784179688,-0.0683783994140624,0.00210689746093884,0.672905307703804,0.0901669999993828,
-0.662236179199219,-0.0827436093749999,0.0236547124023456,0.667804467903308,0.0938829999995505,
-0.676601389160156,-0.092320416015625,0.0523851323242202,0.684877143081427,0.0976659999996627,
-0.667024582519531,-0.0516189877929687,-0.0481713374023425,0.670750916013729,0.101646000000073,
-0.664630380859375,-0.0611957944335937,-0.0625365473632797,0.670365040984206,0.105450000000019,
-0.688572397460938,-0.0564073911132812,-0.0050757075195289,0.690897606830516,0.109198000000106,
-0.628717355957031,-0.0683783994140624,0.0116837041015643,0.632532709138083,0.112962000000152,
-0.650265170898438,-0.10189722265625,-0.0050757075195289,0.65822002345375,0.116699000000153,
-0.657447775878906,-0.0851378110351562,-0.0122583124999984,0.663050745494888,0.120581999999558,
-0.664630380859375,-0.0875320126953125,0.00210689746093884,0.670372907734703,0.124393000000055,
-0.667024582519531,-0.0564073911132812,0.00210689746093884,0.669408714071211,0.128157000000101,
-0.645476767578125,-0.0851378110351562,-0.00986411083984251,0.651142077455929,0.131914999999935,
-0.690966599121094,-0.0683783994140624,0.0954807622070337,0.70087589668859,0.135722999999416,
-0.686178195800781,-0.0851378110351562,-0.000287304199217076,0.691439835274173,0.139457999999649,
-0.710120212402344,-0.0683783994140624,-0.0314119257812475,0.714095953391465,0.143180000000029,
-0.6742071875,-0.0396479794921876,-0.038594530761717,0.676473821931928,0.14703499999996,
-0.669418784179688,-0.0420421811523437,-0.0433829340820289,0.672139221127754,0.150783999999476,
-0.640688364257813,-0.0564073911132812,0.117028577148439,0.653727054463058,0.154518999999709,
-0.611957944335938,-0.133021844238281,0.24392126513672,0.672075085289075,0.158227999999326,
-0.645476767578125,-0.0252827695312499,0.229556055175783,0.685547560994963,0.161948999999368,
-0.592804331054688,-0.149781255859375,0.196037231933596,0.64209189048624,0.165665999999874,
-0.705331809082031,-0.0588015927734374,-0.203794445312498,0.736534292586471,0.169549999999617,
-0.69336080078125,0.0273896669921876,-0.196611840332029,0.721218142919815,0.173565999999482,
-0.657447775878906,-0.00373495458984374,-0.175064025390624,0.680366769382425,0.177332000000206,
-0.7125144140625,-0.125839239257812,-0.127179992187498,0.734633959735476,0.181112999999641,
-0.688572397460938,-0.0707726010742187,-0.0840843623046865,0.697288238529878,0.184900999999627,
-0.647870969238281,-0.0396479794921876,-0.10084377392578,0.65687001895288,0.188705999999911,
-0.698149204101563,-0.0803494077148437,0.0954807622070337,0.709214293750068,0.192545999999311,
-0.724485422363281,-0.0468305844726562,0.0212605107421897,0.726308639750328,0.196447999999691,
-0.599986936035156,-0.0611957944335937,0.0954807622070337,0.610611025629942,0.200244999999995,
-0.726879624023438,-0.135416045898437,0.0188663090820338,0.739626548283389,0.204044999999496,
-0.647870969238281,0.00105344873046875,0.107451770507815,0.656722000180626,0.207851999999548,
-0.592804331054688,-0.161752264160156,0.035625720703127,0.615507889351347,0.211623999999574,
-0.724485422363281,0.070485296875,-0.119997387207029,0.73773076201889,0.215360000000146,
-0.595198532714844,-0.0420421811523437,-0.0792959589843729,0.601927476904985,0.219158999999308,
-0.662236179199219,-0.118656634277344,0.0475967290039083,0.674463937145848,0.222888999999668,
-0.667024582519531,0.0728794985351564,0.13618219042969,0.684674232012801,0.226627999999437,
-0.621534750976562,-0.113868230957031,0.0188663090820338,0.632160864267285,0.230356999999458,
-0.6742071875,-0.0276769711914062,0.0380199223632829,0.675845293619405,0.234089999999924,
-0.633505759277344,-0.0372537778320312,0.0428083256835947,0.636042407193227,0.237819999999374,
-0.623928952636719,-0.10189722265625,-0.0170467158203103,0.632424677288662,0.241812000000209,
-0.76997525390625,-0.0133117612304687,0.0236547124023456,0.770453528795793,0.245726999999533,
-0.702937607421875,-0.0420421811523437,0.0859039555664083,0.709414064214963,0.249504999999772,
-0.621534750976562,-0.0851378110351562,0.0404141240234388,0.628639161172717,0.253260999999839,
-0.688572397460938,-0.0324653745117187,0.0308373173828134,0.690026729359565,0.256996999999501,
-0.628717355957031,-0.0947146176757813,0.0308373173828134,0.636558962411526,0.260827000000063,
-0.61674634765625,-0.104291424316406,0.00689530078125244,0.625540009676546,0.26462199999969,
-0.645476767578125,-0.0372537778320312,-0.0290177241210916,0.647201768970876,0.268469999999979,
-0.638294162597656,-0.0683783994140624,-0.0122583124999984,0.642063322218315,0.272211999999854,
-0.650265170898438,-0.092320416015625,0.00210689746093884,0.6567893807864,0.275986999999986,
-0.73166802734375,-0.0252827695312499,-0.160698815429686,0.749534141952699,0.279711999999563,
-0.82743609375,0.080062103515625,-0.110420580566405,0.838601892599956,0.283453000000009,
-0.494642062988281,-0.291039153808594,0.0787213505859388,0.579285430996671,0.287205999999969,
-0.743639035644531,0.0752737001953125,-0.0960553706054679,0.753585946987851,0.291021000000001,
-0.657447775878906,0.115975128417969,0.0835097539062524,0.672801372930502,0.294818999999734,
-0.492247861328125,-0.429902850097656,-0.00268150585937299,0.653553064393301,0.298518999999942,
-0.810676682128906,0.0393606752929687,-0.076901757324217,0.815266720764808,0.302110999999968,
-0.793917270507813,0.197377984863281,-0.242101671874998,0.853156445702624,0.305045000000064,
-0.432392819824219,-0.379624615234375,0.0739329472656269,0.580124538197419,0.307966999999735,
-0.937569370117188,-0.185694280761719,-0.220553856933591,0.980898921142151,0.310974999999416,
-0.717302817382813,0.173435968261719,0.138576392089846,0.750870683511375,0.314013999999588,
-0.614352145996094,0.123157733398437,-0.0242293208007798,0.627043416816024,0.31712299999981,
-0.46351744140625,-0.461027471679687,-0.119997387207029,0.664675951925203,0.320141000000149,
-0.820253488769531,-0.0803494077148437,0.150547400390627,0.837816407647338,0.323135999999977,
-0.803494077148438,0.154282354980469,-0.0649307490234357,0.820744649230005,0.326148999999532,
-0.506613071289063,0.113580926757813,-0.0505655390624984,0.521645765500671,0.329103000000032,
-0.537737692871094,-0.384413018554687,0.140970593750001,0.675875656811873,0.332100999999966,
-0.844195505371094,-0.269491338867187,-0.0864785639648424,0.890376423227057,0.33505199999945,
-0.76997525390625,0.31948226953125,0.0619619389648456,0.835924694008447,0.337988999999652,
-0.465911643066406,0.187801178222656,0.0452025273437524,0.504367138268265,0.341010999999526,
-0.588015927734375,-0.396384026855469,-0.0457771357421866,0.710618444857881,0.343933999999535,
-0.927992563476563,-0.154569659179687,-0.0194409174804662,0.940978175453187,0.346943999999894,
-0.7125144140625,0.149493951660156,0.100269165527346,0.734900767032766,0.349914999999783,
-0.485065256347656,0.0513316835937501,0.0140779057617202,0.487976876590297,0.35285599999952,
-0.667024582519531,-0.133021844238281,-0.0697191523437475,0.683723163958513,0.355878999999732,
-0.758004245605469,-0.25512612890625,0.0906923588867201,0.804912965460889,0.358839999999873,
-0.717302817382813,0.0321780703125001,-0.038594530761717,0.719060705253092,0.361860999999408,
-0.583227524414063,0.154282354980469,0.0188663090820338,0.603583737281625,0.364849999999933,
-0.695755002441406,-0.0899262143554688,-0.0362003291015611,0.702475772733557,0.36783800000012,
-0.698149204101563,-0.264702935546875,-0.0529597407226543,0.748521669300354,0.370767999999771,
-0.698149204101563,0.0944273134765625,-0.0529597407226543,0.706493851958711,0.373708000000079,
-0.566468112792969,0.12794613671875,0.0260489140625015,0.581321668817116,0.376742999999806,
-0.695755002441406,-0.283856548828125,-0.0840843623046865,0.756121513858084,0.379675000000134,
-0.710120212402344,-0.29343335546875,-0.0625365473632797,0.770898611958875,0.382649999999558,
-0.678995590820313,0.362577899414062,0.121816980468752,0.779318370261772,0.385627999999997,
-0.544920297851563,0.0489374819335937,-0.038594530761717,0.548472921805037,0.388557999999648,
-0.657447775878906,-0.5041231015625,-0.0721133540039052,0.831611697466316,0.391555000000153,
-0.781946262207031,-0.137810247558594,0.0667503422851574,0.796798110883111,0.394486000000143,
-0.647870969238281,0.3386358828125,0.035625720703127,0.731901800712069,0.397516999999425,
-0.556891306152344,-0.0899262143554688,-0.076901757324217,0.569322870764843,0.4004359999999,
-0.698149204101563,-0.475392681640625,0.0547793339843761,0.846410827185523,0.403357999999571,
-0.887291135253906,0.0417548769531251,-0.0577481440429679,0.890148232930866,0.406380999999783,
-0.54013189453125,0.194983783203125,0.0954807622070337,0.58213204271347,0.409356999999545,
-0.504218869628906,-0.209636297363281,0.0859039555664083,0.552778016245214,0.412373999999545,
-0.868137521972656,-0.161752264160156,-0.0050757075195289,0.883092472408516,0.415302999999767,
-0.736456430664063,0.0154186586914062,-0.0242293208007798,0.737016193369427,0.418233999999757,
-0.437181223144531,-0.0181001645507812,-0.0194409174804662,0.43798742801523,0.421225000000049,
-0.664630380859375,-0.0755610043945312,-0.000287304199217076,0.668911870944216,0.424148999999488,
-0.796311472167969,-0.092320416015625,0.071538745605471,0.804830921400526,0.427158999999847,
-0.650265170898438,-0.0971088193359375,0.0140779057617202,0.657626871947178,0.430085999999392,
-0.758004245605469,0.0441490786132812,-1.1830229243164,1.40572501470112,0.433003999999528,
-14.357069675293,18.5555177645264,-29.8511936030273,37.9674393223495,0.435993999999482,
-3.42275069335938,18.5555177645264,9.37480784655762,21.0691595460859,0.438937999999325,
18.739775524292,-20.6704836850586,9.37480784655762,29.4335710479548,0.441939999999704,
-20.486225925293,-3.12098551611328,-29.8511936030273,36.3389565449994,0.444832999999562,
-11.6803522192383,18.5555177645264,9.37480784655762,23.8458568651872,0.447734999999739,
-5.67569445556641,18.5555177645264,-3.83819256542969,19.7801028620157,0.450754999999845,
18.739775524292,-17.0528449765625,9.37480784655762,27.0160272922464,0.453789000000143,
-1.22487356933594,-20.6704836850586,-2.93079013623047,20.9131236752848,0.456894999999349,
-16.4687555395508,-2.32371636328125,-5.7798901118164,17.6075749739463,0.459893000000193,
-13.0306819555664,16.2840189394531,-3.49103332470703,21.1460459358672,0.462939999999435,
12.5896700097656,2.21329578271484,0.717973193847659,12.8028885289086,0.465909999999894,
10.7389521264648,-6.95889077734375,4.28533366748047,13.4950116067807,0.468839999999545,
-6.22157243408203,-2.81213350195313,1.26145697070313,6.94315001092963,0.471843999999692,
-12.1496157446289,4.97859870019531,-3.3665348383789,13.5548207135963,0.474819999999454,
0.946667336425781,0.748044366699219,-0.194217638671873,1.22207606619932,0.477833999999348,
7.90182315917969,-4.09303139013672,0.686848572265626,8.92543983010453,0.480791999999383,
0.637815322265625,-0.226395708984375,1.0004889897461,1.2079079521911,0.483744999999544,
-6.24790865234375,3.10393880029297,-0.218159655273436,6.9798561761103,0.486785000000054,
-3.81300556396484,0.997041339355469,-0.227736461914061,3.94777997858236,0.489757999999711,
3.53001092773438,-3.51124038671875,-0.653904357421874,5.02169066270557,0.492795999999544,
2.05039430175781,-0.954233013671875,0.203219836914064,2.27067737452453,0.495785999999498,
-3.04446683105469,2.65382888818359,0.636570337402345,4.08861930822747,0.498732999999447,
-3.42753909667969,1.39447881494141,-0.103237975585936,3.70179058081238,0.501733999999487,
0.898783303222656,-2.44103224462891,-0.761643432128905,2.71045209571668,0.504696999999396,
1.61943800292969,-1.79938619970703,0.327718323242189,2.44290184829798,0.507738999999674,
-1.70131969970703,1.94275099511719,0.265469080078127,2.59600538946235,0.510669999999664,
-2.55365549072266,1.86613654199219,-0.167881420410154,3.1673026584107,0.513591999999335,
0.242772048339844,-1.91909628271484,-0.0362003291015611,1.93472976759343,0.516634999999951,
0.640209523925781,-1.78980939306641,-0.0936611689453102,1.90317059471878,0.519586999999774,
-1.44992852539063,1.48067007470703,0.0667503422851574,2.07343488131881,0.522608999999647,
-1.60315743164063,1.45672805810547,0.107451770507815,2.168805263015,0.525549999999384,
0.0320823022460938,-1.21759519628906,-0.117603185546873,1.22368208509988,0.52849199999946,
-0.0588973608398438,-1.39237191748047,0.00450109912109475,1.39362430934432,0.53150899999946,
-1.33979524902344,0.846206634765625,0.0691445439453133,1.58615823485065,0.534466999999495,
-1.04291424316406,0.93239789453125,0.176883618652345,1.41007934772066,0.537486000000172,
-0.142694418945313,-0.79142730078125,-0.0697191523437475,0.807204825198392,0.540422000000035,
-0.487459458007813,-0.820157720703125,-0.00268150585937299,0.954087312830377,0.543327999999747,
-1.09319247802734,0.460740167480469,0.0763271489257829,1.18877126883545,0.546350999999959,
-0.741244833984375,0.439192352539063,-0.0649307490234357,0.864031150252156,0.549312999999529,
-0.279163913574219,-0.5041231015625,-0.00268150585937299,0.576263639877394,0.552311999999802,
-0.657447775878906,-0.405960833496094,-0.0457771357421866,0.774039613002928,0.555233000000044,
-1.05009684814453,0.31948226953125,-0.0074699091796866,1.09764662372326,0.558256999999685,
-0.580833322753906,0.130340338378906,0.00689530078125244,0.595317980412935,0.561216999999488,
-0.293529123535156,-0.393989825195313,0.0547793339843761,0.494356252264014,0.564131999999518,
-0.822647690429688,-0.128233440917969,0.00210689746093884,0.832584816673876,0.567140000000109,
-0.96151138671875,0.115975128417969,-0.0553539423828102,0.970061047634992,0.570103000000017,
-0.643082565917969,0.0273896669921876,-0.0146525141601543,0.643832335796203,0.573102999999719,
-0.408450803222656,-0.219213104003906,0.0260489140625015,0.464289768941871,0.576036999999815,
-0.705331809082031,-0.128233440917969,0.0643561406250015,0.719776693918842,0.578950999999506,
-0.882502731933594,0.0130244570312501,0.0404141240234388,0.883523632831515,0.581983999999466,
-0.599986936035156,-0.125839239257812,-0.0122583124999984,0.613164010502237,0.584891999999854,
-0.50182466796875,-0.144992852539062,-0.0433829340820289,0.52414979122282,0.587892999999895,
-0.743639035644531,-0.0468305844726562,0.0188663090820338,0.745350962027123,0.590884999999616,
-0.76997525390625,-0.0683783994140624,0.0140779057617202,0.773133678328049,0.593896999999743,
-0.595198532714844,-0.168934869140625,-0.0338061274414052,0.619631453050963,0.596979999999348,
-0.585621726074219,-0.00134075292968738,0.0164721074218761,0.585854874513717,0.600005999999667,
-0.765186850585938,0.0321780703125001,0.0140779057617202,0.765992514290641,0.60303599999952,
-0.762792648925781,-0.10189722265625,-0.172669823730468,0.788701805036212,0.605964999999742,
-0.547314499511719,-0.228789910644531,0.0547793339843761,0.595733799628884,0.608886999999413,
-0.844195505371094,0.0872447084960939,-0.289985705078124,0.896866433533434,0.611925999999585,
-0.611957944335938,-0.0755610043945312,0.279834290039064,0.677133089505042,0.61487599999964,
-0.61674634765625,-0.247943523925781,-0.0050757075195289,0.664738904541386,0.617882999999892,
-0.726879624023438,0.0441490786132812,-0.17027562207031,0.747861562345791,0.620848999999907,
-0.5592855078125,0.0656968935546876,0.107451770507815,0.573290715132459,0.623813000000155,
-0.6742071875,-0.0635899960937499,-0.0577481440429679,0.679657169034706,0.626827000000048,
-0.786734665527344,0.0872447084960939,-0.368994359863279,0.873338371259331,0.629796000000169,
-1.20811415771484,1.04013696923828,-1.27400258740234,2.04071245538295,0.632850999999391,
-1.56485020507813,1.82064671044922,-0.637144945800779,2.4838406330846,0.635823999999957,
1.34889321533203,-2.13696863378906,6.00676466113281,6.51669928279655,0.638758000000053,
2.82611563964844,-8.52230446142578,-0.68742318066406,9.00495161404089,0.641764999999396,
-6.17608260253906,4.53806559472656,-4.68334575146484,8.98174610436024,0.644731999999749,
-2.91517994140625,8.60581421533203,1.08428604785157,9.15062777262598,0.647758999999496,
5.31369116455078,-3.00845803808594,1.24709176074219,6.23228460669601,0.650692000000163,
0.424731374511719,-7.04747623876953,0.16730681201172,7.06224536856808,0.653715999999804,
-5.92469142822266,1.70093662744141,-1.03458242138672,6.25024117269639,0.6566499999999,
-1.94552826904297,4.90916685205078,0.0763271489257829,5.28117650344908,0.659591999999975,
4.33925108886719,-1.21280679296875,0.399544373046878,4.52323291853732,0.662623999999596,
0.357693728027344,-3.24548400244141,0.0811155522460947,3.26614313005254,0.665573999999651,
-4.56717908691406,0.494258990722656,-0.0816901606445288,4.59457180205092,0.668555000000197,
-2.01256591552734,2.11034511132813,-0.347446544921873,2.93678347087882,0.671510000000126,
2.57233026367188,-0.729178057617188,0.208008240234376,2.68176267650924,0.674454999999398,
0.362482131347656,-1.09309670996094,0.0116837041015643,1.15169015877331,0.677490999999463,
-2.82898868164063,0.257233026367188,-0.199006041992186,2.84762167351181,0.680414999999812,
-1.86891381591797,0.736073358398438,0.109845972167971,2.01164335255396,0.683433999999579,
1.14299187255859,-0.635804192871094,0.0859039555664083,1.31074668871961,0.686393999999382,
0.161369191894531,-0.413143438476563,0.00689530078125244,0.443593352093779,0.689347999999882,
-1.89764423583984,0.324270672851563,0.00928950244140836,1.92517308571032,0.692357999999331,
-1.46908213867188,0.130340338378906,-0.0194409174804662,1.47498097724884,0.69529700000021,
0.276290871582031,-0.422720245117188,-0.0984495722656238,0.51451080613606,0.698304999999891,
0.300232888183594,-0.329346380371094,0.0236547124023456,0.446282837256197,0.701277000000118,
-1.03333743652344,0.0752737001953125,0.121816980468752,1.04321223362864,0.704213999999411,
-1.48105314697266,0.223714203125,-0.0457771357421866,1.49855330735821,0.707217999999557,
-0.360566770019531,-0.310192767089844,0.0380199223632829,0.477151404581064,0.710164000000077,
-0.08044517578125,-0.257520330566406,-0.0433829340820289,0.273258533134965,0.713157999999567,
-0.935175168457031,0.142311346679687,0.0763271489257829,0.949015778981341,0.716126999999688,
-1.19135474609375,0.247656219726563,-0.0601423457031238,1.21830900676143,0.719057999999677,
-0.415633408203125,-0.2742797421875,-0.0457771357421866,0.500076047362544,0.72204899999997,
-0.346201560058594,-0.31258696875,-0.0170467158203103,0.466751243961466,0.724978999999621,
-0.872925925292969,0.171041766601563,0.0739329472656269,0.892592313243931,0.728056999999353,
-0.848983908691406,-0.00134075292968738,0.184066223632815,0.868709300927417,0.731114999999591,
-0.341413156738281,-0.635804192871094,0.093086560546876,0.72765034392963,0.734126999999717,
-0.561679709472656,-0.31258696875,-0.0553539423828102,0.645181190056654,0.737205999999787,
-1.04291424316406,0.60678646875,-0.0481713374023425,1.20755141298402,0.740209999999934,
-0.566468112792969,0.16625336328125,-0.0218351191406239,0.590764822955328,0.743235999999342,
-0.389297189941406,-0.63819839453125,-0.00986411083984251,0.747627443023061,0.746159999999691,
-0.82743609375,-0.128233440917969,0.0523851323242202,0.838950836878149,0.749155999999857,
-0.870531723632813,0.420038739257813,0.00210689746093884,0.966572533928685,0.752148999999918,
-0.437181223144531,-0.0468305844726562,0.0212605107421897,0.440196018643079,0.755073999999695,
-0.4826710546875,-0.472998479980469,0.00928950244140836,0.675858863929879,0.758073999999397,
-0.882502731933594,0.00105344873046875,0.0116837041015643,0.882580699180544,0.761050999999497,
-0.760398447265625,0.233291009765625,0.035625720703127,0.796178174667615,0.764045999999325,
-0.384508786621094,-0.147387054199219,0.0188663090820338,0.412220679191047,0.767007999999805,
-0.573650717773438,-0.303010162109375,-0.0433829340820289,0.650209491866349,0.769925999999941,
-0.899262143554688,-0.0779552060546874,0.0643561406250015,0.904926035550832,0.772993999999926,
-0.683783994140625,0.0633026918945312,-0.0338061274414052,0.687539552096157,0.775955999999496,
-0.456334836425781,-0.116262432617187,0.0164721074218761,0.471200346452259,0.778964999999516,
-0.69336080078125,-0.144992852539062,-0.0266235224609357,0.708858899426154,0.781904999999824,
-0.844195505371094,-0.00852335791015624,-0.0290177241210916,0.844737075800506,0.784824999999728,
-0.690966599121094,-0.0276769711914062,0.0188663090820338,0.691777994340438,0.78783999999996,
-0.516189877929688,-0.1593580625,-0.0577481440429679,0.543306387134577,0.790779999999359,
-0.722091220703125,-0.123445037597656,0.114634375488283,0.741481927202278,0.793807999999444,
-0.801099875488281,0.0106302553710937,-0.0553539423828102,0.80308036445546,0.796768000000156,
-0.631111557617188,-0.0228885678710937,-0.0314119257812475,0.632307198898185,0.799691999999595,
-0.556891306152344,-0.0588015927734374,-0.0529597407226543,0.56248581165943,0.802700000000186,
-0.748427438964844,-0.0683783994140624,-0.0673249506835916,0.75455409738895,0.805634999999711,
-0.734062229003906,-0.0228885678710937,-0.0577481440429679,0.736685883351772,0.808627999999771,
-0.628717355957031,0.00344765039062511,-0.0314119257812475,0.629511007891127,0.811597999999321,
-0.611957944335938,-0.0516189877929687,-0.00986411083984251,0.614210343627733,0.814512999999351,
-0.73166802734375,-0.0803494077148437,-0.0553539423828102,0.738145099891979,0.817519000000175,
-0.7125144140625,-0.0755610043945312,-0.0218351191406239,0.716842401131395,0.82044599999972,
-0.645476767578125,-0.0444363828125001,0.0499909306640642,0.648932926232922,0.823461999999381,
-0.576044919433594,-0.0444363828125001,-0.0362003291015611,0.578889285744499,0.826412999999775,
-0.659841977539063,-0.0659841977539062,0.0212605107421897,0.663473706331235,0.829343999999764,
-0.6742071875,-0.10189722265625,-0.0362003291015611,0.682824164400162,0.832333999999719,
-0.645476767578125,-0.0779552060546874,0.0404141240234388,0.651421962367493,0.835293000000092,
-0.65505357421875,-0.0492247861328126,0.0978749638671896,0.664151920285249,0.838300999999774,
-0.65505357421875,-0.0444363828125001,-0.0194409174804662,0.656846805949988,0.841233000000102,
-0.683783994140625,-0.0683783994140624,-0.00268150585937299,0.687199641023632,0.844220999999379,
-0.65505357421875,-0.104291424316406,-0.0146525141601543,0.663465584980802,0.847144999999728,
-0.657447775878906,-0.0611957944335937,0.00928950244140836,0.660355054588127,0.850078999999823,
-0.690966599121094,-0.0348595761718749,-0.000287304199217076,0.691845440611959,0.853073999999651,
-0.6742071875,-0.0851378110351562,0.00450109912109475,0.679576366891769,0.856013999999959,
-0.6742071875,-0.0611957944335937,0.0188663090820338,0.677241607221085,0.859004999999343,
-0.638294162597656,-0.0516189877929687,-0.00268150585937299,0.640383594715455,0.861930999999458,
-0.659841977539063,-0.0492247861328126,0.035625720703127,0.662633916177024,0.864864999999554,
-0.659841977539063,-0.0492247861328126,-0.0050757075195289,0.66169500353207,0.86790800000017,
-0.664630380859375,-0.0707726010742187,-0.0146525141601543,0.668548427860916,0.870938999999453,
-0.643082565917969,-0.0899262143554688,0.0332315190429711,0.650189391234468,0.874041000000034,
-0.667024582519531,-0.0827436093749999,0.0475967290039083,0.673820263267312,0.877071999999316,
-0.657447775878906,-0.0827436093749999,-0.0338061274414052,0.663495996335402,0.879979999999705,
-0.669418784179688,-0.092320416015625,0.00928950244140836,0.675818661092987,0.882996999999705,
-0.671812985839844,-0.1210508359375,-0.0888727656249984,0.688392592416602,0.885927999999694,
-0.69336080078125,-0.0947146176757813,0.00928950244140836,0.699861667558022,0.888959999999315,
-0.669418784179688,-0.0588015927734374,0.0475967290039083,0.673679882835443,0.891905999999835,
-0.643082565917969,-0.0540131894531251,-0.00986411083984251,0.645422274100607,0.894823999999971,
-0.659841977539063,-0.0851378110351562,0.0260489140625015,0.665821618839727,0.897837999999865,
-0.657447775878906,-0.0564073911132812,-0.0338061274414052,0.660728556998191,0.900786000000153,
-0.705331809082031,-0.0731668027343749,0.0380199223632829,0.710135097303191,0.903830000000198,
-0.681389792480469,-0.0947146176757813,0.0547793339843761,0.690118601060584,0.906777999999576,
-0.638294162597656,-0.0707726010742187,0.0428083256835947,0.643630912726297,0.909732999999505,
-0.667024582519531,-0.0731668027343749,-0.0050757075195289,0.671044661341218,0.912760000000162,
-0.669418784179688,-0.0731668027343749,0.00450109912109475,0.673420484933656,0.91571599999952,
-0.676601389160156,-0.0492247861328126,0.0332315190429711,0.679203101613338,0.918735999999626,
-0.657447775878906,-0.0659841977539062,-0.0194409174804662,0.66103664167263,0.921676999999363,
-0.638294162597656,-0.0731668027343749,-0.0170467158203103,0.642700093005184,0.924594999999499,
-0.698149204101563,-0.0372537778320312,0.0140779057617202,0.69928416440031,0.927603999999519,
-0.650265170898438,-0.0540131894531251,0.00689530078125244,0.652541004298839,0.930548999999701,
-0.669418784179688,-0.0755610043945312,-0.040988732421873,0.674915587450218,0.933549999999741,
-0.671812985839844,-0.092320416015625,0.00450109912109475,0.678141583336136,0.93649699999969,
-0.669418784179688,-0.0468305844726562,-0.0601423457031238,0.673744546546639,0.939488999999412,
-0.628717355957031,-0.0468305844726562,-0.0816901606445288,0.635729423316068,0.942427999999381,
-0.652659372558594,-0.0731668027343749,0.0380199223632829,0.657847362317018,0.945354999999836,
-0.659841977539063,-0.0420421811523437,-0.0170467158203103,0.661399705805019,0.948354000000108,
-0.652659372558594,-0.0731668027343749,0.035625720703127,0.657713333897501,0.951301000000058,
-0.688572397460938,-0.0468305844726562,-0.0457771357421866,0.69167954743791,0.954286000000138,
-0.667024582519531,-0.0468305844726562,-0.0050757075195289,0.668685770847735,0.957219999999325,
-0.643082565917969,-0.0564073911132812,0.0140779057617202,0.645705170949158,0.960140000000138,
-0.688572397460938,-0.0779552060546874,-0.0314119257812475,0.693682686664024,0.963136999999733,
-0.659841977539063,-0.0492247861328126,-0.000287304199217076,0.661675598338177,0.966081999999915,
-0.647870969238281,-0.0851378110351562,0.0619619389648456,0.656372243113533,0.969086000000061,
-0.686178195800781,-0.0875320126953125,-0.0338061274414052,0.692564238097443,0.972012999999606,
-0.667024582519531,-0.0875320126953125,0.0332315190429711,0.673563642716671,0.974943000000167,
-0.705331809082031,-0.0851378110351562,0.0667503422851574,0.713580420111129,0.97794999999951,
-0.669418784179688,-0.0875320126953125,0.105057568847657,0.683242603056399,0.980892999999924,
-0.669418784179688,-0.0971088193359375,-0.0050757075195289,0.676444671952004,0.983894999999393,
-0.683783994140625,-0.0779552060546874,0.0140779057617202,0.688357285299263,0.98685099999966,
-0.657447775878906,-0.0899262143554688,0.0116837041015643,0.663672216518033,0.989787999999862,
-0.667024582519531,-0.092320416015625,0.0140779057617202,0.673530281672093,0.992799999999988,
-0.657447775878906,-0.0635899960937499,-0.000287304199217076,0.660515971158175,0.995734000000084,
-0.671812985839844,-0.0276769711914062,0.0308373173828134,0.673089624656884,0.998756999999387,
-0.669418784179688,-0.0588015927734374,-0.0505655390624984,0.673896141601942,1.00168899999971,
-0.647870969238281,-0.0564073911132812,0.0116837041015643,0.650426856376249,1.0046199999997,
-0.647870969238281,-0.0875320126953125,0.0332315190429711,0.65460139007349,1.00773099999969,
-0.676601389160156,-0.0468305844726562,-0.0338061274414052,0.67906214568925,1.01075700000001,
