X,Y,Z,Magnitude,Seconds,
0.0278206232910158,-0.0183874687500001,0.0164242233886736,0.0371731247173801,0.0,
0.0134554133300783,-0.0471178886718752,0.0571256516113294,0.075262764052335,0.00380399999994552,
0.0158496149902345,-0.0135990654296876,-0.0290656081542959,0.0357904240444098,0.00782000000003791,
-0.000909796630859216,-0.00641646044921884,0.0140300217285176,0.0154544558075847,0.0116379999999481,
0.011061211669922,0.000766144531249902,0.00684741674804812,0.0130316728462248,0.015472999999929,
0.0158496149902345,0.0055545478515624,-0.00272938989257732,0.017015077618385,0.0192809999998644,
0.020638018310547,0.0366791694335936,0.047548844970704,0.0634994639990983,0.0232160000000476,
-0.00809240161132796,0.00794874951171864,-0.000335188232421402,0.0113482128015924,0.0270550000000185,
0.049368438232422,-0.0303584770507814,-0.0170945998535146,0.0604243755987852,0.0308259999999336,
-0.000909796630859216,-0.0183874687500001,-0.00751779321288915,0.0198857725958413,0.0345700000000306,
0.0373974299316408,-0.0112048637695313,0.0283952316894549,0.0482742780400035,0.03837099999987,
0.020638018310547,-0.00881066210937509,0.026001030029299,0.0343454382586183,0.0421599999999671,
-0.0224576115722654,-0.00881066210937509,0.0810676682128921,0.0845809607051841,0.0458869999999933,
0.0278206232910158,0.0271023627929686,0.0451546433105481,0.0595606158611974,0.0497539999998935,
0.00866701000976578,0.0127371528320311,0.0331836350097667,0.0365855949416887,0.0535150000000613,
0.0445800349121095,-0.00881066210937509,0.0164242233886736,0.0483193790677357,0.0572250000000167,
0.0134554133300783,0.0055545478515624,0.0307894333496108,0.0340571630601944,0.0609729999998763,
-0.00809240161132796,0.0103429511718749,-0.00751779321288915,0.015132112131972,0.0646719999999732,
0.0182438166503908,-0.00881066210937509,0.0116358200683599,0.023363581091988,0.0683970000000045,
0.0733104548339845,0.0199197578124999,-0.0362482131347637,0.0841733478883761,0.0721810000000005,
0.0254264216308596,-0.0135990654296876,0.0547314499511735,0.0618625016570538,0.0760800000000472,
0.0278206232910158,0.0247081611328124,0.0116358200683599,0.0389855436736347,0.0800209999999879,
0.0445800349121095,0.0103429511718749,-0.00512359155273323,0.0460500525744318,0.0837599999999838,
0.011061211669922,0.0103429511718749,0.0547314499511735,0.0567878389825535,0.0875360000000001,
-0.00569819995117171,-0.00881066210937509,-0.00751779321288915,0.0129079225393118,0.0912479999999505,
0.0637336481933595,0.0103429511718749,-0.00272938989257732,0.0646251044112457,0.0951230000000578,
0.0517626398925783,-0.0423294853515627,-0.0290656081542959,0.072910669974675,0.0989299999998821,
0.0326090266113283,0.00794874951171864,0.0667024582519549,0.0746709392748755,0.102707999999893,
0.0302148249511721,0.0199197578124999,0.0786734665527362,0.0865981913065344,0.106467000000066,
0.0134554133300783,-0.00402225878906259,0.0619140549316413,0.0634868247097595,0.110233999999991,
0.0302148249511721,0.00794874951171864,0.0116358200683599,0.0333393247426109,0.114008000000013,
-0.0272460148925779,0.00316034619140615,0.047548844970704,0.0548928572186232,0.117735999999923,
0.0661278498535158,-0.0207816704101563,0.0906444748535176,0.114110434109925,0.121585999999979,
-0.000909796630859216,-0.0135990654296876,0.0355778366699226,0.0380991439875247,0.125295999999935,
-0.00809240161132796,-0.00881066210937509,-0.012306196533201,0.0171626688996312,0.128979000000072,
-0.00569819995117171,-0.0255700737304688,0.0762792648925803,0.0806524916280804,0.132687000000033,
0.0158496149902345,0.0294965644531249,0.0547314499511735,0.0641622102458591,0.136428000000024,
0.00387860668945328,-0.0255700737304688,-0.00512359155273323,0.0263651939274552,0.140120000000024,
0.020638018310547,0.0151313544921874,0.0451546433105481,0.0519020953436134,0.143933999999945,
0.0278206232910158,-0.0351468803710939,0.0307894333496108,0.0543808742676203,0.147895999999946,
0.0469742365722658,0.0055545478515624,-0.00991199487304506,0.0483288686578298,0.151765000000069,
0.0278206232910158,-0.0112048637695313,0.0379720383300786,0.0483881364317259,0.155555999999933,
0.020638018310547,-0.0231758720703126,0.0451546433105481,0.054790424879798,0.159355999999889,
0.0373974299316408,0.0199197578124999,-0.0290656081542959,0.0513826244384199,0.163162000000057,
0.0254264216308596,-0.0255700737304688,0.0283952316894549,0.0458979386272377,0.167011000000002,
0.0230322199707033,-0.0135990654296876,0.0547314499511735,0.0609175619267351,0.170918999999913,
0.00387860668945328,-0.0447236870117189,0.0188184250488295,0.0486763278308058,0.174724999999853,
0.020638018310547,-0.0399352836914064,-0.0290656081542959,0.0535309654375732,0.178492000000006,
-0.0487938298339842,0.00794874951171864,-0.00751779321288915,0.0500053763455453,0.182303999999931,
0.0373974299316408,-0.00162805712890635,-0.000335188232421402,0.0374343516927717,0.186077000000068,
0.011061211669922,-0.00881066210937509,0.0212126267089854,0.0254941895793366,0.189843999999994,
0.00627280834960953,-0.0495120903320314,0.0236068283691413,0.0552093973820423,0.193690999999944,
0.058945244873047,-0.0231758720703126,0.0236068283691413,0.0675939737329672,0.197472000000062,
0.0254264216308596,0.0175255561523436,-0.00751779321288915,0.0317830969257396,0.201229000000012,
0.0541568415527345,-0.0351468803710939,-0.00512359155273323,0.0647650976775857,0.204966000000013,
0.00866701000976578,-0.0159932670898438,-0.00512359155273323,0.0188984879055363,0.208679999999958,
0.0254264216308596,-0.00162805712890635,0.0738850632324226,0.0781546931145169,0.212420000000066,
0.0326090266113283,-0.0231758720703126,-0.0386424147949214,0.055621092077921,0.216300000000047,
0.011061211669922,0.0342849677734374,0.0116358200683599,0.0378576508449178,0.220348999999942,
0.0326090266113283,0.0725921943359373,0.00684741674804812,0.0798740409092107,0.224144999999908,
0.0350032282714846,-0.00881066210937509,0.083461869873048,0.0909325985493478,0.22792000000004,
0.0302148249511721,0.0103429511718749,0.0571256516113294,0.0654465610845424,0.231708000000026,
0.00148440502929703,0.00316034619140615,0.0451546433105481,0.0452894365039284,0.235527000000047,
-0.0224576115722654,0.0055545478515624,0.0667024582519549,0.0706003913319171,0.239334999999983,
0.0613394465332033,-0.00641646044921884,0.00684741674804812,0.0620530884148206,0.243224999999939,
0.0445800349121095,-0.0112048637695313,-0.0314598098144518,0.0557014193573211,0.246992999999975,
0.011061211669922,0.0342849677734374,-0.0458250197753891,0.0582901523093503,0.250794999999925,
0.0541568415527345,-0.0327526787109377,0.0379720383300786,0.0738077038299584,0.254564000000073,
0.0254264216308596,-0.0231758720703126,0.0188184250488295,0.0392142459380281,0.258292999999867,
0.0254264216308596,0.0462559760742186,-0.0242772048339823,0.0580990612151355,0.262027999999873,
0.0326090266113283,0.0127371528320311,0.0379720383300786,0.0516474527324029,0.265840000000026,
0.039791631591797,0.0151313544921874,0.0116358200683599,0.0441330277928989,0.269583999999895,
0.0373974299316408,0.000766144531249902,0.0236068283691413,0.0442316299562298,0.273306999999932,
0.00148440502929703,0.0103429511718749,0.0714908615722667,0.0722504213522647,0.277029999999968,
0.0302148249511721,-0.00402225878906259,0.00205901342773629,0.0305508387592184,0.280751000000009,
0.011061211669922,-0.0207816704101563,-0.06497863305664,0.0691118729492455,0.284433999999919,
0.011061211669922,-0.0255700737304688,-0.0194888015136705,0.033999889097285,0.288328999999976,
0.0350032282714846,-0.0543004936523439,0.109798088134767,0.127394622172068,0.292324999999892,
0.0661278498535158,-0.0614830986328126,-0.246937959228514,0.262928544763943,0.296063999999888,
-0.0440054265136717,0.745362860839844,0.516812370361329,0.908073399038041,0.299855999999863,
0.00627280834960953,-1.12211443408203,-0.0937090529785145,1.12603798244551,0.303461999999854,
0.109223479736328,0.103716815917969,-0.0147003981933587,0.151337530496956,0.30644499999994,
0.109223479736328,0.158783454101562,-1.27883887475586,1.29327909648651,0.309428999999909,
-0.106254669677734,1.37503789746094,1.25662068334961,1.86577458877115,0.312453000000005,
-0.0583706364746092,-0.339210491210938,0.502447160400392,0.609035333576332,0.315382,
-0.0392170231933592,-2.36470509570313,-1.1615229934082,2.63486315181044,0.318358999999873,
0.386950872314453,0.359896393554687,0.179229936279299,0.558014123241758,0.321341999999959,
0.0948582697753907,3.22814998242188,0.557513798583985,3.27731170869765,0.324274999999943,
-0.273848785888672,-0.521169817382813,-0.048219221435545,0.590708243889811,0.327264000000014,
-0.293002399169922,-3.76770726855469,-0.493540730224607,3.81117448037082,0.330195000000003,
0.398921880615235,0.673536811035156,0.358795060791017,0.861118109379331,0.333227999999963,
0.240904571044922,3.90331485058594,-0.177506111083984,3.9147682248924,0.336178999999902,
0.0900698664550782,-0.767772588378906,0.356400859130861,0.851239625897724,0.339140000000043,
-0.594671808349609,-3.75094785693359,-0.383407453857421,3.81709911591957,0.342139999999972,
-0.0440054265136717,0.642412189453125,0.00205901342773629,0.643920909939181,0.345107999999982,
0.583275408447266,3.44841653515625,0.128951701416018,3.49977361315506,0.348146000000042,
0.363008855712891,-0.636091497070313,0.181624137939455,0.754569512671552,0.351116000000047,
-0.439048700439453,-3.09014819873047,0.0283952316894549,3.12131157378712,0.354041999999936,
-0.53002836352539,-0.968885527832031,-0.29482199243164,1.14306134542514,0.357054000000062,
0.487507342041016,2.74452124707031,0.385131279052736,2.81396275495414,0.360024000000067,
0.547362383544922,0.788458490722656,0.397102287353517,1.0387312439385,0.363078999999971,
-0.403135675537109,-2.49638618701172,-0.366648042236326,2.55516988759444,0.365990000000011,
-0.546787775146484,-0.509198809082031,-0.268485774169921,0.793942635932737,0.368993000000046,
0.626371038330078,1.93049268261719,0.480899345458985,2.08576289538387,0.37197100000003,
0.532997173583985,0.525096308105469,0.124163298095704,0.758438293092136,0.374922999999853,
-0.613825421630859,-1.37111140673828,-0.337917622314452,1.53977805459059,0.377911999999924,
-0.510874750244141,-0.636091497070313,-0.0458250197753891,0.817132385553026,0.380869999999959,
0.674255071533203,0.90098596875,0.217537162841799,1.14617539433975,0.383898000000045,
0.626371038330078,0.675931012695312,0.085856071533204,0.925524001094043,0.386868999999933,
-0.609037018310547,-0.597784270507813,-0.105680061279296,0.85990720376745,0.389775999999983,
-0.597066010009766,-0.712705950195313,-0.0984974562988263,0.934954191738892,0.392787999999882,
0.590458013427735,0.419751435058594,0.140922709716799,0.738031938989567,0.395766999999978,
0.631159441650391,0.620864374511719,0.128951701416018,0.894686176053004,0.398803999999927,
-0.489326935302734,-0.332027886230469,-0.0697670363769518,0.595441690018647,0.401728999999932,
-0.527634161865234,-0.566659648925781,-0.0458250197753891,0.775629356668076,0.404690999999957,
0.372585662353516,0.244974713867187,0.0762792648925803,0.452383921551453,0.407826999999997,
0.497084148681641,0.419751435058594,0.0523372482910176,0.652704455065979,0.410889999999881,
-0.216387946044922,-0.238654021484375,0.0044532150878922,0.322179012800064,0.413974999999937,
-0.386376263916016,-0.389488726074219,-0.0314598098144518,0.549525071939559,0.416911999999911,
0.154713311279297,0.142024042480469,0.00684741674804812,0.210128352312628,0.419865000000073,
0.422863897216797,0.350319586914063,0.083461869873048,0.555430978851309,0.422892000000047,
-0.00569819995117171,-0.138097551757813,-0.00272938989257732,0.138242008280302,0.42579499999988,
-0.314550214111328,-0.353575701171875,0.0188184250488295,0.473615610783665,0.428828999999951,
-0.103860468017578,0.101322614257812,-0.0984974562988263,0.175371086197831,0.431761999999935,
0.398921880615235,0.242580512207031,0.0499430466308599,0.469551146993587,0.434709999999995,
0.269634990966797,-0.0710599052734376,0.0810676682128921,0.290386820156512,0.437730999999985,
-0.324127020751953,-0.221894609863281,-0.0841322463378891,0.40171355259908,0.44065599999999,
-0.230753156005859,0.0055545478515624,0.0140300217285176,0.231246002166962,0.443700999999919,
0.372585662353516,0.108505219238281,0.116980693115236,0.405312152488766,0.446703999999954,
0.264846587646485,0.0606211860351561,0.0595198532714853,0.278138915144492,0.449662999999873,
-0.283425592529297,-0.0710599052734376,-0.06497863305664,0.299335596600141,0.452637999999979,
-0.137379291259766,-0.0926077202148439,0.0116358200683599,0.166086278238419,0.455580999999938,
0.267240789306641,-0.0135990654296876,0.0307894333496108,0.26935211760034,0.458609000000024,
0.183443731201172,0.11568782421875,0.0188184250488295,0.217691084591893,0.461563999999953,
-0.180474921142578,-0.0590888969726564,0.00924161840820403,0.190126543169721,0.464539999999943,
-0.132590887939453,-0.0830309135742189,-0.00272938989257732,0.156467011675713,0.467450999999983,
0.185837932861328,0.0797747993164062,0.0236068283691413,0.203610015082251,0.470403000000033,
0.152319109619141,0.0989284125976562,0.026001030029299,0.183477506896198,0.473412000000053,
-0.173292316162109,-0.0782425102539064,-0.06497863305664,0.200933670661665,0.476324999999861,
-0.115831476318359,-0.159645366699219,-0.0147003981933587,0.197786945276128,0.479303000000073,
0.214568352783203,0.0582269843749998,0.0499430466308599,0.227868970314687,0.482265999999981,
0.169078521240235,0.163571857421875,0.00684741674804812,0.235351197152995,0.485206999999946,
-0.137379291259766,-0.0135990654296876,0.0571256516113294,0.149403294206036,0.488198000000011,
-0.084706854736328,-0.207529399902344,-0.000335188232421402,0.224151322579858,0.491109000000051,
0.193020537841797,-0.142885955078125,0.0714908615722667,0.250567889953341,0.494144000000006,
0.0158496149902345,0.197090680664062,-0.0242772048339823,0.199211770170623,0.497102999999925,
-0.0966778630371092,0.146812445800781,-0.0314598098144518,0.178578338767586,0.500037999999904,
0.0302148249511721,-0.140491753417969,0.0451546433105481,0.150631372023852,0.503066999999874,
0.0661278498535158,-0.205135198242188,-0.0697670363769518,0.226540904582227,0.506016999999929,
-0.0535822331542967,0.0366791694335936,-0.0338540114746078,0.0732291695505456,0.509025000000065,
0.0254264216308596,0.187513874023437,0.0571256516113294,0.197664604672275,0.512001999999939,
0.19780894116211,-0.0734541069335939,-0.0434308181152332,0.215430079123704,0.514913999999862,
0.00866701000976578,-0.1333091484375,0.047548844970704,0.141800348298898,0.517945000000054,
-0.163715509521484,0.122870429199219,0.0762792648925803,0.218445500484748,0.520894999999882,
0.104435076416016,0.0055545478515624,0.0571256516113294,0.119167437917719,0.523930000000064,
0.212174151123047,-0.159645366699219,-0.0218830031738264,0.266427061953585,0.526855000000069,
-0.12780248461914,0.0223139594726561,0.0188184250488295,0.131093558131174,0.529798999999912,
-0.194840131103516,0.106111017578125,-0.0194888015136705,0.222715150190416,0.532795999999962,
0.226539361083985,-0.11415553515625,-0.0218830031738264,0.254618212536055,0.535736999999926,
0.118800286376953,-0.0471178886718752,-0.0434308181152332,0.134980885455311,0.538733999999977,
-0.134985089599609,0.0414675727539061,0.0595198532714853,0.15324211868078,0.54170299999987,
-0.10864887133789,0.00316034619140615,0.0427604416503922,0.116803340710716,0.544713999999885,
0.0948582697753907,-0.0112048637695313,0.0331836350097667,0.10111772322069,0.547827999999981,
0.058945244873047,-0.0207816704101563,0.00205901342773629,0.0625352640873567,0.550878000000012,
-0.0871010563964843,0.0366791694335936,0.0307894333496108,0.0993979109524538,0.553959000000077,
0.00866701000976578,-0.0806367119140626,0.0379720383300786,0.0895503884177052,0.556908000000021,
0.078098858154297,-0.0854251152343751,-0.0410366164550773,0.122804258264493,0.559899999999971,
0.0565510432128908,0.0917458076171874,0.0403662399902363,0.115085824647285,0.562856999999894,
-0.00330399829101546,0.0678037910156248,0.026001030029299,0.0726933562533886,0.565824000000021,
-0.017669208251953,-0.118943938476563,-0.00512359155273323,0.12035826773,0.56880000000001,
0.0661278498535158,-0.106972930175781,0.0140300217285176,0.126542253126552,0.571754000000055,
0.0350032282714846,0.180331269042969,0.0738850632324226,0.197998977656281,0.57477700000004,
-0.0487938298339842,0.101322614257812,-0.0530076247558586,0.124325855203828,0.577719999999999,
0.0158496149902345,-0.188375786621094,-0.00512359155273323,0.189110810031721,0.58066400000007,
0.111617681396485,-0.109367131835938,-0.012306196533201,0.156751774469893,0.583683999999948,
0.0302148249511721,0.156389252441406,0.0116358200683599,0.159705748909283,0.586691999999857,
-0.0799184514160154,0.0845632026367187,0.0403662399902363,0.123155704081712,0.589713000000074,
-0.00569819995117171,-0.154856963378906,-0.02667140649414,0.157240301812211,0.592625999999882,
0.116406084716797,-0.130914946777344,0.00684741674804812,0.17531681883074,0.595571999999947,
-0.0224576115722654,0.120476227539062,-0.000335188232421402,0.122551940297679,0.598572999999988,
-0.0583706364746092,0.0414675727539061,0.0499430466308599,0.0872983315953044,0.601523999999927,
0.020638018310547,-0.126126543457031,0.0283952316894549,0.130920288522836,0.604536000000053,
0.0469742365722658,-0.0471178886718752,0.0307894333496108,0.0733120968219607,0.607479000000012,
0.00387860668945328,0.1348414375,0.0547314499511735,0.145577431185866,0.610433000000057,
0.0350032282714846,0.0318907661132811,0.0451546433105481,0.0654307937077068,0.613456999999926,
0.0158496149902345,-0.123732341796875,0.0307894333496108,0.128486932829247,0.61640999999986,
-0.0248518132324217,-0.0447236870117189,-0.0386424147949214,0.0641175250773462,0.619386999999961,
-0.00330399829101546,0.0654095893554686,0.0738850632324226,0.098733648535933,0.622339000000011,
0.0350032282714846,0.0438617744140624,0.0906444748535176,0.106609108736757,0.625287999999955,
0.0541568415527345,-0.0830309135742189,-0.0338540114746078,0.104752996085364,0.628275999999914,
0.0134554133300783,-0.0662715019531251,-0.0170945998535146,0.0697508814507609,0.631223999999975,
0.00866701000976578,-0.0207816704101563,-0.012306196533201,0.0256600343074501,0.634219999999914,
0.0709162531738283,0.0821690009765624,-0.00991199487304506,0.10899131767285,0.637187999999924,
0.0828872614746095,-0.0159932670898438,-0.00272938989257732,0.0844602408009418,0.640118999999913,
-0.0679474431152342,-0.0902135185546876,-0.0386424147949214,0.119367374843789,0.643112999999857,
-0.00569819995117171,-0.00881066210937509,-0.00272938989257732,0.0108419010636887,0.646028999999999,
0.0900698664550782,0.0941400092773437,0.0379720383300786,0.135708503362593,0.649071999999933,
0.0757046564941408,0.00794874951171864,0.026001030029299,0.0804389905225097,0.652026999999862,
-0.0751300480957029,-0.0782425102539064,0.0283952316894549,0.112128068387862,0.655013000000054,
-0.00809240161132796,-0.0543004936523439,-0.0218830031738264,0.0591007309822219,0.657927999999856,
0.135559697998047,0.0438617744140624,0.00684741674804812,0.142643521031252,0.660881999999901,
0.0661278498535158,0.0055545478515624,-0.0458250197753891,0.0806453840309489,0.663898999999901,
-0.0679474431152342,-0.0686657036132814,-0.0362482131347637,0.103178325408335,0.666821999999911,
-0.00809240161132796,-0.0423294853515627,-0.00272938989257732,0.0431824253968311,0.669785000000047,
0.116406084716797,0.0414675727539061,0.0978270798339853,0.157607340241626,0.672755999999936,
0.0421858332519533,0.0462559760742186,0.047548844970704,0.07861394601334,0.675688000000036,
-0.055976434814453,-0.0662715019531251,0.0355778366699226,0.0937606297321614,0.67867299999989,
0.0182438166503908,-0.0375410820312502,-0.0721612380371077,0.0833631451008073,0.681646999999884,
0.114011883056641,0.0151313544921874,0.0355778366699226,0.120388744610952,0.684786999999915,
0.0158496149902345,0.0223139594726561,-0.00751779321288915,0.0283838034357231,0.687827999999854,
-0.111043072998047,-0.0854251152343751,0.026001030029299,0.142492343430236,0.690859000000046,
-0.0152750065917967,0.00794874951171864,0.026001030029299,0.0311859264374812,0.693890999999894,
0.0948582697753907,0.0151313544921874,0.0212126267089854,0.098371869787271,0.696856999999909,
0.0134554133300783,-0.00162805712890635,0.0451546433105481,0.0471448886985753,0.699861999999939,
0.00148440502929703,-0.0686657036132814,0.0547314499511735,0.0878220583040264,0.702813999999989,
0.011061211669922,-0.00881066210937509,0.0283952316894549,0.0317217173732795,0.705784999999878,
0.0541568415527345,0.0247081611328124,-0.02667140649414,0.0652289861787585,0.708802999999989,
0.039791631591797,-0.0543004936523439,-0.0314598098144518,0.0743077195800478,0.711737999999968,
-0.036822821533203,-0.0351468803710939,-0.0170945998535146,0.0536977534878126,0.714739999999892,
0.0254264216308596,-0.0135990654296876,-0.0434308181152332,0.052131309782794,0.717671999999993,
0.068522051513672,-0.00881066210937509,0.0212126267089854,0.0722694599560745,0.720632000000023,
0.0182438166503908,-0.0135990654296876,0.0427604416503922,0.048437865319093,0.723669999999856,
-0.0487938298339842,-0.0231758720703126,0.0690966599121108,0.0877057996206477,0.726623000000018,
0.0373974299316408,-0.0447236870117189,0.0690966599121108,0.0904053336724337,0.729646999999886,
0.0541568415527345,-0.0351468803710939,0.047548844970704,0.080182038791964,0.732608999999911,
0.0302148249511721,-0.00162805712890635,0.0667024582519549,0.0732448233918189,0.735539999999901,
-0.0535822331542967,0.00794874951171864,0.026001030029299,0.0600857045493017,0.738540000000057,
-0.0104866032714842,-0.0279642753906251,0.047548844970704,0.0561503535549356,0.741461999999956,
0.0565510432128908,-0.0112048637695313,-0.0458250197753891,0.0736444288318865,0.744462999999996,
0.0445800349121095,-0.00881066210937509,-0.0745554396972636,0.087312776087024,0.747397999999976,
0.0134554133300783,0.0247081611328124,0.00684741674804812,0.0289556296869835,0.750420000000076,
0.0278206232910158,0.000766144531249902,0.0044532150878922,0.0281851943822001,0.753367000000026,
0.0230322199707033,-0.0279642753906251,-0.0194888015136705,0.0411375405115672,0.756280999999944,
0.039791631591797,-0.0135990654296876,0.0547314499511735,0.0690205776493941,0.759297000000061,
0.0230322199707033,0.0103429511718749,0.0571256516113294,0.0624563837228961,0.762260999999853,
0.00627280834960953,-0.0135990654296876,-0.0314598098144518,0.0348425363415658,0.765237999999954,
-0.017669208251953,0.00794874951171864,-0.00751779321288915,0.0207822220622024,0.768184999999903,
0.020638018310547,-0.00641646044921884,0.0307894333496108,0.0376176550368705,0.771121999999878,
-0.00809240161132796,-0.0471178886718752,0.0188184250488295,0.0513781618788825,0.774120000000039,
0.0254264216308596,-0.00641646044921884,0.0212126267089854,0.0337290588890558,0.777074999999968,
0.0541568415527345,0.00794874951171864,0.0355778366699226,0.0652834478859667,0.780135999999857,
0.0278206232910158,-0.0183874687500001,0.0164242233886736,0.0371731247173801,0.783079000000043,
0.00866701000976578,-0.00402225878906259,0.0427604416503922,0.0438149631793998,0.786018000000013,
-0.017669208251953,0.0199197578124999,-0.0194888015136705,0.0329971370879169,0.789033999999901,
0.0230322199707033,-0.00402225878906259,0.00924161840820403,0.0251409871196004,0.791987000000063,
0.0254264216308596,-0.0375410820312502,0.0547314499511735,0.0710729721538723,0.795000000000073,
0.011061211669922,0.00316034619140615,-0.0530076247558586,0.0542415567062218,0.797964999999976,
0.0373974299316408,0.0151313544921874,0.0188184250488295,0.0445158261248585,0.800911000000042,
-0.000909796630859216,-0.0543004936523439,0.0044532150878922,0.0544903887434912,0.803906999999981,
-0.0128808049316405,0.0175255561523436,0.026001030029299,0.0338985813378736,0.80685399999993,
0.011061211669922,-0.00402225878906259,-0.0242772048339823,0.0269798377297593,0.80985899999996,
0.011061211669922,-0.0112048637695313,0.0427604416503922,0.045567035736782,0.812803999999915,
-0.00809240161132796,-0.0159932670898438,0.0140300217285176,0.0227620971298512,0.815722999999934,
0.0278206232910158,-0.0183874687500001,0.00924161840820403,0.0346048204465172,0.818745999999919,
0.0661278498535158,0.0175255561523436,-0.0338540114746078,0.076329101511946,0.821791999999959,
0.00866701000976578,-0.00881066210937509,0.0283952316894549,0.0309682742821227,0.824910999999929,
-0.0272460148925779,-0.0375410820312502,0.0188184250488295,0.0500580791573353,0.827949999999873,
0.020638018310547,0.0127371528320311,0.0547314499511735,0.0598639664223045,0.830968999999868,
0.0350032282714846,0.0175255561523436,0.0044532150878922,0.0393979978234128,0.833987999999863,
-0.0200634099121092,0.0318907661132811,0.0403662399902363,0.0552177028817993,0.836925999999949,
-0.00569819995117171,-0.0255700737304688,-0.00512359155273323,0.0266936199055951,0.839909999999918,
0.011061211669922,-0.00641646044921884,0.0283952316894549,0.0311417814358947,0.842891000000009,
0.0373974299316408,-0.0112048637695313,0.0116358200683599,0.0407370721364335,0.845894000000044,
0.0182438166503908,-0.00641646044921884,0.0499430466308599,0.0535566589458464,0.848840999999993,
0.00627280834960953,-0.0231758720703126,0.0619140549316413,0.0664064708359714,0.851783000000069,
0.0158496149902345,0.0151313544921874,0.0403662399902363,0.0459303985945719,0.854806999999937,
0.0517626398925783,-0.0135990654296876,0.0427604416503922,0.0685037286528716,0.857774999999947,
-0.00330399829101546,0.0223139594726561,0.0403662399902363,0.0462413507912963,0.860777999999982,
0.0230322199707033,-0.00641646044921884,0.0427604416503922,0.0489909123370023,0.863767999999936,
0.00627280834960953,-0.0231758720703126,0.0523372482910176,0.0575817395489755,0.86671699999988,
0.0373974299316408,0.0247081611328124,0.0786734665527362,0.0905459846237342,0.869760000000042,
0.00866701000976578,-0.0303584770507814,0.0283952316894549,0.0424622582306927,0.872712999999976,
0.011061211669922,-0.0112048637695313,-0.0434308181152332,0.046196702673016,0.875731999999971,
0.0302148249511721,-0.00641646044921884,-0.012306196533201,0.0332497982646531,0.878664000000072,
0.011061211669922,-0.0303584770507814,0.0331836350097667,0.0463156686760653,0.881605000000036,
0.0230322199707033,0.0558327827148436,-0.0625844313964823,0.0869746735301881,0.884620999999925,
0.0278206232910158,0.0055545478515624,-0.00512359155273323,0.0288286536719138,0.887604999999894,
0.058945244873047,0.0127371528320311,0.026001030029299,0.0656721441556045,0.89062899999999,
0.0661278498535158,-0.00402225878906259,0.0164242233886736,0.068255594685977,0.89359300000001,
0.0158496149902345,-0.0375410820312502,0.0499430466308599,0.0644581340265755,0.896516999999903,
0.039791631591797,0.000766144531249902,0.0619140549316413,0.0736023852891899,0.899546999999984,
0.0230322199707033,-0.0183874687500001,-0.0338540114746078,0.0448851451677943,0.902467999999999,
0.0373974299316408,-0.0327526787109377,0.0188184250488295,0.0531548572526755,0.905490999999984,
0.0373974299316408,-0.0183874687500001,0.0283952316894549,0.0504277300224989,0.908433000000059,
0.049368438232422,0.00794874951171864,0.00924161840820403,0.0508510847781183,0.911382000000003,
0.0230322199707033,0.0127371528320311,0.0355778366699226,0.0442549509225474,0.914401999999882,
0.00148440502929703,-0.0183874687500001,0.0164242233886736,0.0246993437006792,0.917351000000053,
-0.00330399829101546,-0.0255700737304688,-0.00751779321288915,0.0268563268166071,0.920337999999902,
0.0182438166503908,-0.0207816704101563,-0.0170945998535146,0.0325106138847181,0.923276999999871,
0.0326090266113283,-0.0255700737304688,0.00684741674804812,0.0420007666982566,0.926209999999855,
0.058945244873047,-0.00641646044921884,0.0403662399902363,0.0717296743948362,0.929225999999971,
0.0326090266113283,0.0199197578124999,-0.0362482131347637,0.0526695198697522,0.93218499999989,
0.0373974299316408,0.0055545478515624,0.0044532150878922,0.0380690411219709,0.935226000000057,
0.0278206232910158,-0.0423294853515627,0.0786734665527362,0.0935696892687652,0.938161000000036,
-0.017669208251953,-0.0112048637695313,-0.0218830031738264,0.0302756621769093,0.941137000000026,
0.011061211669922,0.000766144531249902,-0.0170945998535146,0.0203755423290121,0.944107000000031,
0.00627280834960953,-0.0183874687500001,0.0571256516113294,0.0603389360499681,0.947044000000005,
0.0373974299316408,0.0247081611328124,0.00684741674804812,0.0453425639788759,0.950071999999864,
0.0350032282714846,-0.0207816704101563,0.0164242233886736,0.0438960012801061,0.953029999999899,
0.0254264216308596,0.00316034619140615,-0.0338540114746078,0.0424568580787916,0.956042000000025,
0.00866701000976578,-0.0351468803710939,0.0116358200683599,0.0380238421387505,0.959041999999954,
-0.0152750065917967,-0.0135990654296876,-0.00272938989257732,0.0206327403930273,0.962042999999994,
0.0326090266113283,0.0103429511718749,-0.0194888015136705,0.0393718000594506,0.965171999999939,
0.0134554133300783,-0.0471178886718752,0.00924161840820403,0.0498653295545244,0.968225999999959,
0.0541568415527345,-0.0327526787109377,0.0188184250488295,0.0660290433902258,0.971281999999974,
0.0158496149902345,0.0294965644531249,0.0427604416503922,0.0543112601585768,0.974236999999903,
0.00387860668945328,-0.0135990654296876,0.0116358200683599,0.018313123138221,0.977159999999913,
0.0134554133300783,0.0103429511718749,0.0044532150878922,0.0175458231908927,0.980199999999968,
0.058945244873047,-0.0255700737304688,0.0212126267089854,0.0676634768218413,0.983179999999948,
0.0182438166503908,0.000766144531249902,0.085856071533204,0.0877763569677534,0.986206000000038,
0.011061211669922,-0.00402225878906259,-0.0194888015136705,0.0227671331926586,0.989147999999886,
0.011061211669922,-0.0495120903320314,0.0595198532714853,0.0782074831848795,0.992103000000043,
0.0182438166503908,-0.0399352836914064,0.0236068283691413,0.0498492334458242,0.995134999999891,
0.0278206232910158,-0.00402225878906259,0.00924161840820403,0.0295900854488401,0.998102000000017,
-0.017669208251953,-0.0112048637695313,0.0595198532714853,0.0630901167046296,1.001127,
0.0158496149902345,0.0199197578124999,0.047548844970704,0.0539342164557469,1.00412899999992,
0.0733104548339845,0.0055545478515624,-0.00991199487304506,0.0741857360424782,1.00707999999986,
-0.0152750065917967,-0.0207816704101563,0.00205901342773629,0.0258736002077677,1.010088,
0.0254264216308596,-0.0351468803710939,-0.0362482131347637,0.0565308683131038,1.01303600000006,
