X,Y,Z,Magnitude,Seconds,
0.0134554133300783,0.00794874951171864,0.0044532150878922,0.01624998127083,0.0,
0.0158496149902345,-0.0399352836914064,-0.0577960280761705,0.0720167899883997,0.00398300000006202,
-0.00569819995117171,0.0175255561523436,-0.0218830031738264,0.0286090969629973,0.00783000000001266,
-0.0152750065917967,-0.0231758720703126,-0.0338540114746078,0.0437783161567665,0.0117979999999989,
-0.0272460148925779,-0.0351468803710939,0.0451546433105481,0.0633765756399744,0.0156710000001112,
0.0254264216308596,0.0199197578124999,0.0379720383300786,0.0498515332081156,0.0197080000000369,
0.0230322199707033,-0.00402225878906259,0.0379720383300786,0.0445930198291842,0.0235669999999573,
0.0182438166503908,-0.0471178886718752,-0.00991199487304506,0.051489609837632,0.0274879999999484,
-0.0392170231933592,-0.0327526787109377,0.047548844970704,0.0697968876737239,0.0314519999999447,
0.011061211669922,0.00316034619140615,0.00924161840820403,0.0147562089460406,0.0353820000000269,
-0.0272460148925779,-0.0351468803710939,0.0307894333496108,0.0540891646574126,0.0392830000000686,
-0.036822821533203,0.0103429511718749,-0.00991199487304506,0.03951132074448,0.0432780000001003,
0.0373974299316408,0.00316034619140615,0.083461869873048,0.0915119624762092,0.0471600000000763,
-0.00809240161132796,-0.0471178886718752,-0.02667140649414,0.0547443725063125,0.0509759999999915,
-0.0104866032714842,-0.0399352836914064,-0.000335188232421402,0.041290532605402,0.0547249999999622,
0.0302148249511721,0.000766144531249902,0.0307894333496108,0.0431452411079468,0.0585499999999683,
-0.00569819995117171,0.00794874951171864,0.0236068283691413,0.0255525820052236,0.0624099999999999,
0.020638018310547,0.000766144531249902,0.0140300217285176,0.0249671040958281,0.0662890000000971,
0.00387860668945328,-0.0231758720703126,-0.0554018264160145,0.0601791243397673,0.0702309999999216,
0.0182438166503908,-0.0112048637695313,0.026001030029299,0.0336814397057391,0.074190999999928,
-0.036822821533203,-0.0135990654296876,0.0738850632324226,0.0836651500631304,0.0781999999999243,
-0.00809240161132796,0.0271023627929686,-0.00272938989257732,0.0284160975854605,0.0820670000000518,
0.0254264216308596,0.0342849677734374,-0.0242772048339823,0.0491054437585795,0.086046000000124,
-0.0224576115722654,-0.0231758720703126,0.00684741674804812,0.0329901876301378,0.0899529999999231,
0.0230322199707033,-0.00881066210937509,-0.00512359155273323,0.0251865462893125,0.0938889999999901,
0.00627280834960953,-0.0255700737304688,-0.02667140649414,0.0374772026643958,0.0977560000001176,
-0.0200634099121092,0.0055545478515624,0.0427604416503922,0.0475588981082742,0.101750999999922,
0.00387860668945328,-0.0471178886718752,-0.0338540114746078,0.0581483715650711,0.105645999999979,
-0.00809240161132796,-0.0423294853515627,-0.012306196533201,0.0448186876992282,0.109553000000005,
-0.036822821533203,-0.0662715019531251,0.026001030029299,0.0801491467164417,0.113562000000002,
0.011061211669922,0.0055545478515624,0.00205901342773629,0.0125476269365053,0.117678000000069,
0.00148440502929703,-0.0351468803710939,-0.0194888015136705,0.0402159177758041,0.12166400000001,
0.00866701000976578,-0.0303584770507814,-0.0170945998535146,0.0359023611410724,0.125581000000011,
0.0134554133300783,-0.00162805712890635,0.0331836350097667,0.0358448371506922,0.129502000000002,
-0.017669208251953,-0.0159932670898438,-0.000335188232421402,0.0238348036201081,0.133385999999973,
0.020638018310547,-0.0112048637695313,0.0116358200683599,0.0262081872807617,0.137333000000126,
-0.00809240161132796,0.00316034619140615,0.00684741674804812,0.011061729883251,0.141260000000102,
-0.0152750065917967,-0.0375410820312502,0.00684741674804812,0.0411040847432215,0.145246000000043,
-0.00330399829101546,-0.00162805712890635,0.0188184250488295,0.0191755077127159,0.149303000000145,
0.00387860668945328,-0.00641646044921884,-0.0170945998535146,0.0186665449052481,0.153233,
0.0230322199707033,0.0318907661132811,-0.00751779321288915,0.0400502351411652,0.157296999999971,
0.00866701000976578,-0.0351468803710939,0.0188184250488295,0.040798938511287,0.161213999999973,
-0.00569819995117171,0.00316034619140615,0.0164242233886736,0.0176695326665455,0.165111000000024,
0.0350032282714846,-0.0279642753906251,-0.0194888015136705,0.048857344094697,0.169006000000081,
0.00627280834960953,-0.0279642753906251,-0.0625844313964823,0.0688342928774216,0.172898000000032,
-0.0128808049316405,0.0103429511718749,-0.00751779321288915,0.0181496278039668,0.176901000000043,
-0.00330399829101546,-0.0159932670898438,0.0307894333496108,0.0348524059844402,0.18080400000008,
-0.00330399829101546,0.0318907661132811,0.0116358200683599,0.0341076190412389,0.184745000000021,
0.020638018310547,-0.00641646044921884,0.00205901342773629,0.0217103270536964,0.188687000000073,
-0.00569819995117171,-0.0375410820312502,0.0044532150878922,0.0382313150098139,0.192526000000043,
0.0326090266113283,-0.00162805712890635,0.0140300217285176,0.0355364699464645,0.196556999999984,
0.039791631591797,-0.0255700737304688,0.0283952316894549,0.055167851127416,0.20038599999998,
0.0350032282714846,-0.00402225878906259,-0.048219221435545,0.059720163019218,0.204234999999926,
0.0134554133300783,-0.00641646044921884,0.0164242233886736,0.0221804920256673,0.208133000000089,
-0.00809240161132796,-0.0231758720703126,0.00924161840820403,0.0262300499591856,0.211999999999989,
0.0230322199707033,0.000766144531249902,-0.0506134230957009,0.0556128468223491,0.215903000000026,
0.0158496149902345,-0.0423294853515627,-0.0506134230957009,0.067858044644178,0.219916000000012,
0.0541568415527345,0.0175255561523436,-0.00991199487304506,0.0577785102592669,0.223997999999938,
0.0230322199707033,0.0151313544921874,0.0595198532714853,0.0655900448163153,0.22807899999998,
0.0373974299316408,0.0199197578124999,0.0212126267089854,0.047385019243379,0.231995999999981,
-0.0248518132324217,-0.00402225878906259,-0.0170945998535146,0.0304305197270297,0.235903000000008,
-0.000909796630859216,0.00316034619140615,0.0044532150878922,0.00553594098397814,0.239773000000014,
-0.0104866032714842,-0.0159932670898438,0.0044532150878922,0.0196363073157765,0.243719000000056,
0.0254264216308596,0.00316034619140615,-0.0673728347167959,0.0720804381422344,0.247743000000128,
0.00148440502929703,-0.0231758720703126,0.0355778366699226,0.0424865504203647,0.251647999999932,
0.00627280834960953,-0.00162805712890635,0.0164242233886736,0.0176565514335888,0.255634999999984,
-0.00330399829101546,-0.0231758720703126,0.0619140549316413,0.0661920512524338,0.25958700000001,
-0.0104866032714842,-0.0327526787109377,0.0379720383300786,0.0512306793421322,0.263513999999986,
-0.0200634099121092,-0.00881066210937509,-0.000335188232421402,0.0219153036770667,0.267338999999993,
0.020638018310547,0.000766144531249902,-0.00272938989257732,0.0208318109249998,0.271367000000055,
0.020638018310547,-0.0375410820312502,0.0188184250488295,0.0467909581135281,0.275231000000076,
0.011061211669922,-0.0183874687500001,-0.00272938989257732,0.0216309726971478,0.279107000000067,
0.0326090266113283,-0.0112048637695313,0.0164242233886736,0.0381923120870304,0.282965999999988,
-0.000909796630859216,-0.0135990654296876,0.0547314499511735,0.056402960243486,0.28686800000014,
0.0326090266113283,0.00794874951171864,0.00924161840820403,0.0348129106243822,0.291046999999935,
-0.00330399829101546,-0.0112048637695313,0.0403662399902363,0.0420225975845156,0.294986999999992,
0.0182438166503908,-0.0303584770507814,0.0164242233886736,0.0390413766245115,0.299019999999928,
-0.0320344182128905,0.000766144531249902,0.0906444748535176,0.0961416233956506,0.30291299999999,
0.0350032282714846,-0.312874272949219,-0.0218830031738264,0.315585808443336,0.882892000000083,
0.221750957763672,0.302435553710937,0.0236068283691413,0.375763268246375,0.88731800000005,
-0.273848785888672,-0.145280156738281,-0.0601902297363264,0.315788450121772,0.890865000000076,
-0.0631590397949217,-0.219500408203125,-0.0314598098144518,0.230562818213858,0.893774000000121,
0.272029192626953,0.156389252441406,0.0331836350097667,0.315529132653255,0.896727999999939,
0.0661278498535158,0.201879083984375,0.0762792648925803,0.225713498331783,0.899767999999995,
-0.123014081298828,-0.162039568359375,0.0307894333496108,0.205760236969822,0.902682000000141,
-0.094283661376953,-0.178798979980469,0.0307894333496108,0.204466313241791,0.905684000000065,
0.185837932861328,0.142024042480469,0.0882502731933599,0.249989353076022,0.908648999999969,
0.0661278498535158,0.0773805976562499,0.0212126267089854,0.103974155210717,0.911587999999938,
-0.0894952580566405,-0.102184526855469,-0.0242772048339823,0.137987178454565,0.914563000000044,
-0.0703416447753905,-0.102184526855469,-0.0218830031738264,0.125970196262009,0.917474000000084,
0.078098858154297,0.1348414375,0.0667024582519549,0.169501807804298,0.920509000000038,
0.0900698664550782,0.125264630859375,-0.00512359155273323,0.154369879762764,0.923449000000119,
0.00148440502929703,-0.0614830986328126,0.0188184250488295,0.0643156901315813,0.926378000000113,
-0.0703416447753905,-0.212317803222656,-0.0362482131347637,0.226584927809563,0.929350000000113,
0.0637336481933595,0.113293622558594,0.119374894775392,0.176487360247469,0.932307000000037,
0.0996466730957034,0.0749863959960937,0.0547314499511735,0.136190861137166,0.935327000000143,
-0.0727358464355467,-0.401459734375,-0.108074262939452,0.422066899899823,0.938231000000087,
-0.139773492919922,0.151600849121094,-0.127227876220703,0.242293993456095,0.941148999999996,
0.15950171459961,0.369473200195312,0.15289371801758,0.430497075056289,0.944173999999975,
0.135559697998047,-0.298509062988281,-0.0721612380371077,0.335695303336987,0.94709499999999,
-0.149350299560547,-0.315268474609375,-0.0554018264160145,0.353226677123313,0.950080000000071,
-0.0966778630371092,0.209061688964844,0.0547314499511735,0.236746553529324,0.953026000000136,
0.104435076416016,0.242580512207031,0.0930386765136735,0.280014616432894,0.956042000000025,
0.111617681396485,-0.19076998828125,0.0140300217285176,0.221469042393871,0.958978000000116,
-0.125408282958984,-0.221894609863281,-0.0721612380371077,0.264899414110614,0.961941000000024,
-0.084706854736328,0.199484882324219,0.0164242233886736,0.217345864071875,0.965079999999944,
0.0948582697753907,0.118082025878906,0.026001030029299,0.153679893750067,0.968164999999999,
0.0661278498535158,-0.123732341796875,-0.00272938989257732,0.140321183368633,0.97124400000007,
-0.151744501220703,-0.109367131835938,0.026001030029299,0.188848131416024,0.974181000000044,
0.0158496149902345,0.0127371528320311,-0.02667140649414,0.0335381764856237,0.977131000000099,
0.10204087475586,0.0606211860351561,0.0427604416503922,0.126157535198602,0.980174000000034,
-0.0344286198730467,-0.00402225878906259,-0.0194888015136705,0.0397658373050057,0.983104000000139,
-0.0583706364746092,-0.126126543457031,0.00924161840820403,0.139285475472758,0.986120000000028,
0.0565510432128908,-0.0447236870117189,0.00684741674804812,0.0724231715993568,0.989062999999987,
0.0517626398925783,0.0654095893554686,0.0236068283691413,0.0866894896394589,0.992021000000022,
0.0278206232910158,-0.0279642753906251,-0.0242772048339823,0.0463181438852472,0.995014000000083,
0.0254264216308596,-0.128520745117188,0.0283952316894549,0.13405362369263,0.997984000000088,
-0.00569819995117171,0.0438617744140624,0.0140300217285176,0.0464022224374685,1.00102400000014,
0.0182438166503908,0.0247081611328124,-0.0290656081542959,0.0422864002950969,1.00401299999999,
0.0661278498535158,-0.0519062919921877,0.085856071533204,0.120159979584477,1.00694199999998,
0.0804930598144533,-0.0447236870117189,-0.00751779321288915,0.0923897076140362,1.00994100000003,
-0.055976434814453,0.0678037910156248,-0.0338540114746078,0.094216821340725,1.01286900000014,
-0.0248518132324217,-0.00402225878906259,0.00684741674804812,0.0260898122420766,1.01585799999998,
0.0924640681152345,-0.0231758720703126,0.00684741674804812,0.0955699327966682,1.01880299999993,
0.0158496149902345,-0.00162805712890635,0.0164242233886736,0.0228826567354995,1.02175000000011,
-0.0607648381347655,-0.0351468803710939,0.0882502731933599,0.112764265049114,1.02475700000014,
-0.0128808049316405,-0.0207816704101563,0.0116358200683599,0.0270773940656517,1.02770899999996,
0.0852814631347658,-0.00641646044921884,0.0188184250488295,0.087568442034909,1.03072999999995,
0.039791631591797,0.0151313544921874,-0.048219221435545,0.0643228198181304,1.0336850000001,
-0.0440054265136717,-0.0471178886718752,-0.0410366164550773,0.076423667051683,1.03658599999994,
-0.0392170231933592,-0.0279642753906251,-0.00751779321288915,0.0487492853389971,1.03955900000005,
0.0565510432128908,0.000766144531249902,0.047548844970704,0.0738884302442341,1.04251700000009,
0.0757046564941408,0.0247081611328124,-0.0314598098144518,0.0856236408652561,1.04553800000008,
-0.0248518132324217,-0.0973961235351564,0.026001030029299,0.103825194741927,1.04846599999996,
-0.0487938298339842,-0.0566946953125002,0.0140300217285176,0.0761049789182529,1.05146100000002,
0.0421858332519533,0.0390733710937499,0.0140300217285176,0.0591879579432689,1.05441900000005,
0.039791631591797,0.0294965644531249,0.0116358200683599,0.0508803849035942,1.05736200000001,
0.0182438166503908,-0.0926077202148439,-0.0170945998535146,0.0959231569200871,1.06035199999997,
-0.0679474431152342,-0.0423294853515627,0.0236068283691413,0.0834621033863648,1.06328899999994,
-0.00569819995117171,0.0678037910156248,-0.0170945998535146,0.070157315391382,1.06629100000009,
0.0637336481933595,-0.00402225878906259,0.0116358200683599,0.0649118539749433,1.06931299999997,
-0.0200634099121092,-0.0662715019531251,0.0499430466308599,0.085374236718091,1.07234100000005,
-0.046399628173828,-0.0614830986328126,-0.0410366164550773,0.0872760035877146,1.07545499999992,
0.0254264216308596,0.0606211860351561,-0.0194888015136705,0.0685656218355707,1.07850800000006,
0.0733104548339845,-0.0447236870117189,-0.00751779321288915,0.0862041076902931,1.08151700000008,
-0.00809240161132796,-0.0471178886718752,0.00684741674804812,0.0482956469348501,1.084474,
-0.0296402165527342,-0.0112048637695313,-0.0625844313964823,0.0701491444182161,1.08739000000014,
0.0445800349121095,0.0318907661132811,-0.02667140649414,0.0609570701431143,1.09046200000012,
0.0613394465332033,0.0271023627929686,0.0523372482910176,0.085066170294877,1.09348199999999,
-0.0248518132324217,-0.00162805712890635,0.026001030029299,0.0360043990859264,1.09648900000002,
-0.0416112248535155,-0.00641646044921884,0.0164242233886736,0.0451931423163655,1.0994290000001,
0.0469742365722658,-0.00162805712890635,-0.0506134230957009,0.0690720498394728,1.10236800000007,
0.0278206232910158,-0.0183874687500001,0.0810676682128921,0.0876587298379825,1.10540900000001,
-0.0440054265136717,-0.00641646044921884,-0.00751779321288915,0.0451017265981948,1.10836799999993,
-0.0320344182128905,-0.0183874687500001,0.00205901342773629,0.0369938169640036,1.11142300000006,
0.0302148249511721,-0.0159932670898438,0.0283952316894549,0.0444410780892507,1.11439700000005,
0.00387860668945328,0.000766144531249902,0.047548844970704,0.0477129251392354,1.11735799999997,
-0.0152750065917967,-0.0112048637695313,0.0140300217285176,0.0235736358709442,1.12036699999999,
0.011061211669922,-0.0686657036132814,-0.00512359155273323,0.0697393751528723,1.12333100000001,
0.0445800349121095,-0.0758483085937501,0.0116358200683599,0.0887453533316585,1.12637999999993,
-0.0200634099121092,-0.0135990654296876,-0.0218830031738264,0.0326548744564719,1.12931700000013,
-0.0392170231933592,0.0462559760742186,0.00924161840820403,0.0613432778838074,1.13225899999998,
0.0302148249511721,-0.0327526787109377,0.0164242233886736,0.047491354197295,1.13528300000007,
0.0373974299316408,-0.00162805712890635,0.0236068283691413,0.0442549509225472,1.13823100000013,
0.0134554133300783,0.0318907661132811,0.0978270798339853,0.1037699699336,1.14130599999999,
0.00148440502929703,0.0390733710937499,0.0786734665527362,0.0878546875604563,1.14426400000002,
0.0158496149902345,0.0127371528320311,-0.02667140649414,0.0335381764856237,1.14727199999993,
-0.000909796630859216,-0.0566946953125002,0.0355778366699226,0.0669395150012191,1.15020400000003,
0.0278206232910158,-0.0279642753906251,-0.00272938989257732,0.0395403255880504,1.15312799999992,
-0.0104866032714842,0.0151313544921874,0.0619140549316413,0.0645931647701213,1.15615500000013,
-0.000909796630859216,0.0103429511718749,0.0427604416503922,0.0440029514804394,1.15910200000008,
0.0134554133300783,-0.0303584770507814,0.0355778366699226,0.048666905992037,1.16213300000004,
0.0230322199707033,-0.0231758720703126,0.0044532150878922,0.0329762843209691,1.16511100000002,
-0.00809240161132796,0.00316034619140615,0.0236068283691413,0.0251546635345944,1.16807199999994,
-0.0104866032714842,0.0247081611328124,-0.0410366164550773,0.0490353542336511,1.1711130000001,
-0.017669208251953,0.00794874951171864,-0.0434308181152332,0.0475564874776239,1.17407700000012,
0.00627280834960953,-0.0327526787109377,0.00924161840820403,0.0346048204465172,1.17712099999994,
-0.017669208251953,-0.00881066210937509,0.00684741674804812,0.0208977463660058,1.18004900000005,
0.0302148249511721,0.0366791694335936,-0.000335188232421402,0.047522725809021,1.182998,
0.058945244873047,-0.0495120903320314,0.0307894333496108,0.0829094577728068,1.18602400000009,
-0.0128808049316405,-0.0423294853515627,0.00924161840820403,0.0452007519474841,1.18894900000009,
-0.0224576115722654,0.000766144531249902,0.00205901342773629,0.022564814009185,1.19197400000007,
-0.00330399829101546,0.0175255561523436,-0.00991199487304506,0.0204036556900781,1.19491300000004,
-0.0224576115722654,0.000766144531249902,0.0355778366699226,0.0420798497749838,1.19784500000014,
0.00627280834960953,-0.00162805712890635,0.0236068283691413,0.0244802173245257,1.200875,
0.00627280834960953,0.00316034619140615,0.00924161840820403,0.011607903490438,1.20383900000002,
-0.0224576115722654,-0.00402225878906259,0.0164242233886736,0.0281118835587015,1.20683000000008,
0.0421858332519533,-0.0399352836914064,-0.0218830031738264,0.0620752546396744,1.20986900000003,
-0.0128808049316405,-0.0231758720703126,0.0236068283691413,0.0355009651637327,1.21289999999999,
0.011061211669922,0.0127371528320311,0.0236068283691413,0.0290149584098174,1.21605100000011,
-0.0200634099121092,-0.0351468803710939,0.00684741674804812,0.0410454715314949,1.21902999999998,
-0.0104866032714842,-0.0135990654296876,0.00924161840820403,0.0195015624896387,1.22203000000013,
0.0302148249511721,-0.0590888969726564,-0.00991199487304506,0.0671020196017858,1.22496599999999,
0.00387860668945328,-0.0351468803710939,0.0212126267089854,0.0412349647940461,1.22789299999999,
0.0469742365722658,0.0055545478515624,0.00205901342773629,0.0473462927765003,1.23096699999996,
0.00387860668945328,-0.00162805712890635,-0.00512359155273323,0.00662912892209028,1.23389399999996,
0.011061211669922,-0.0375410820312502,-0.00272938989257732,0.0392317831976776,1.23690600000009,
-0.000909796630859216,-0.0279642753906251,-0.0194888015136705,0.0340975338180269,1.23983999999996,
-0.0104866032714842,-0.00641646044921884,-0.0314598098144518,0.0337766109376203,1.24280999999996,
0.0158496149902345,-0.00162805712890635,-0.012306196533201,0.020132146891661,1.24577399999998,
-0.0248518132324217,0.0055545478515624,0.0116358200683599,0.0279974629464478,1.24873700000012,
0.011061211669922,-0.0112048637695313,-0.0290656081542959,0.0330561484913117,1.25177600000006,
-0.0152750065917967,-0.00641646044921884,-0.0170945998535146,0.0238059264727841,1.25471100000004,
0.00866701000976578,-0.0279642753906251,0.0140300217285176,0.0324647388767379,1.25773900000013,
0.00148440502929703,-0.00881066210937509,-0.00991199487304506,0.0133446194198205,1.26068099999998,
0.011061211669922,-0.0423294853515627,-0.02667140649414,0.0512396297616467,1.26361399999996,
0.0158496149902345,-0.0327526787109377,-0.0218830031738264,0.0424595582405926,1.26663200000007,
-0.0104866032714842,-0.0279642753906251,-0.000335188232421402,0.0298677400793461,1.26956100000007,
0.0158496149902345,-0.0183874687500001,-0.0170945998535146,0.0296906491428308,1.27258899999993,
0.011061211669922,-0.0495120903320314,-0.0242772048339823,0.0562421564949744,1.27552900000001,
-0.0104866032714842,-0.0183874687500001,0.0212126267089854,0.0299673720419474,1.2784650000001,
-0.000909796630859216,-0.0303584770507814,0.00205901342773629,0.0304418198379785,1.281477,
0.049368438232422,-0.0207816704101563,0.0451546433105481,0.0700575644099027,1.28443600000014,
0.0182438166503908,0.0055545478515624,-0.000335188232421402,0.0190735995281312,1.28746999999998,
0.0326090266113283,-0.0279642753906251,0.0714908615722667,0.0834043919887079,1.29043200000001,
0.0302148249511721,0.0103429511718749,0.0714908615722667,0.0782997801664778,1.29338000000007,
0.00627280834960953,-0.0135990654296876,-0.000335188232421402,0.0149798216378904,1.2963870000001,
0.00627280834960953,0.0055545478515624,0.0523372482910176,0.0530036667137459,1.29934300000014,
-0.0152750065917967,-0.0303584770507814,-0.00751779321288915,0.0348063237072521,1.30232100000012,
0.0230322199707033,-0.0159932670898438,-0.012306196533201,0.0306220545048779,1.30528200000003,
0.0445800349121095,-0.0159932670898438,-0.00751779321288915,0.047954992646895,1.30820900000003,
0.020638018310547,-0.0255700737304688,0.0140300217285176,0.0357295113326612,1.31123900000011,
0.0302148249511721,-0.0135990654296876,0.026001030029299,0.0421179746661138,1.31419000000005,
0.00866701000976578,-0.0375410820312502,-0.0314598098144518,0.0497410246793119,1.31719700000008,
0.0326090266113283,-0.0279642753906251,-0.0218830031738264,0.0482101145255509,1.32013699999993,
0.00387860668945328,-0.0231758720703126,-0.0410366164550773,0.0472881436107624,1.32306100000005,
0.020638018310547,-0.00881066210937509,0.0307894333496108,0.0380991439875252,1.32608099999993,
0.00387860668945328,-0.00162805712890635,0.0595198532714853,0.0596683089531252,1.32903099999999,
0.00627280834960953,0.0223139594726561,0.064308256591799,0.0683579752319722,1.33207800000014,
-0.017669208251953,0.00794874951171864,-0.00512359155273323,0.0200408265660419,1.33500700000013,
0.0278206232910158,-0.00162805712890635,-0.0386424147949214,0.0476431933385909,1.33800799999995,
-0.00330399829101546,0.0175255561523436,0.0307894333496108,0.0355816066127727,1.34096700000009,
0.0278206232910158,-0.00641646044921884,0.0619140549316413,0.0681799695150657,1.34390099999996,
0.0230322199707033,-0.0327526787109377,0.047548844970704,0.062161996248261,1.34697400000005,
-0.0248518132324217,-0.0471178886718752,-0.0147003981933587,0.055261286275997,1.34999599999992,
0.0254264216308596,-0.0255700737304688,-0.0697670363769518,0.078535157428726,1.35308899999995,
-0.0104866032714842,-0.0519062919921877,-0.000335188232421402,0.0529560605379866,1.35612300000003,
-0.00330399829101546,-0.0231758720703126,-0.0194888015136705,0.0304606440405611,1.35902899999996,
-0.000909796630859216,-0.00881066210937509,0.0427604416503922,0.0436681905607697,1.36204500000008,
-0.0128808049316405,-0.0112048637695313,0.0283952316894549,0.0331323601706633,1.36497000000008,
0.0230322199707033,0.000766144531249902,0.00924161840820403,0.0248289678606358,1.36801700000001,
0.0661278498535158,-0.0375410820312502,-0.0170945998535146,0.0779387625670177,1.37096199999996,
-0.0128808049316405,-0.00881066210937509,0.0164242233886736,0.0226560812236715,1.37389099999996,
-0.0296402165527342,-0.0183874687500001,0.0619140549316413,0.0710632932138914,1.37689799999998,
0.011061211669922,-0.0303584770507814,0.0331836350097667,0.0463156686760653,1.37986500000011,
0.0302148249511721,-0.0112048637695313,-0.000335188232421402,0.0322272705961097,1.38289099999997,
0.0158496149902345,-0.00402225878906259,0.0212126267089854,0.0267836590666701,1.38586299999997,
0.0278206232910158,-0.0207816704101563,-0.0961032546386704,0.102184639048548,1.38881400000014,
-0.0296402165527342,-0.0375410820312502,0.0762792648925803,0.0900355570312222,1.39186199999995,
-0.00569819995117171,0.0103429511718749,-0.0625844313964823,0.0636887523417465,1.39480500000013,
0.0182438166503908,-0.0303584770507814,-0.0290656081542959,0.0458179391962905,1.39782400000013,
0.00866701000976578,0.0127371528320311,0.0164242233886736,0.0225190416913542,1.40079400000013,
0.020638018310547,-0.0135990654296876,0.0331836350097667,0.0413765152327841,1.40373,
0.00387860668945328,-0.0279642753906251,-0.00751779321288915,0.0292157748958667,1.40673400000014,
-0.00330399829101546,0.00794874951171864,-0.000335188232421402,0.00861460240859869,1.40968199999998,
0.0158496149902345,0.0318907661132811,-0.0242772048339823,0.043100045628535,1.41271400000005,
0.0134554133300783,-0.0375410820312502,-0.0530076247558586,0.0663339224697154,1.41566699999998,
0.00387860668945328,-0.0135990654296876,0.0140300217285176,0.0199203333334328,1.41861799999992,
-0.00809240161132796,-0.0255700737304688,0.0044532150878922,0.0271872536134062,1.42163000000005,
-0.0128808049316405,-0.0112048637695313,0.0140300217285176,0.022097638278409,1.42456500000003,
0.0230322199707033,0.000766144531249902,0.0116358200683599,0.0258159338952686,1.42761599999994,
0.00387860668945328,-0.0327526787109377,-0.012306196533201,0.0352026139044695,1.43054800000004,
-0.0296402165527342,-0.0375410820312502,-0.00991199487304506,0.0488479571705236,1.4335410000001,
0.00148440502929703,-0.0399352836914064,0.00924161840820403,0.0410175310398733,1.43650300000013,
-0.0320344182128905,0.0151313544921874,-0.00512359155273323,0.0357968298792763,1.43942600000014,
0.020638018310547,0.0199197578124999,0.00205901342773629,0.0287569832804264,1.44247100000007,
0.020638018310547,0.0103429511718749,-0.0218830031738264,0.0318083364330164,1.44543500000009,
0.011061211669922,-0.0279642753906251,0.0427604416503922,0.0522762515093243,1.4484480000001,
-0.00330399829101546,-0.00641646044921884,0.0283952316894549,0.0292980639650685,1.45137999999997,
-0.0224576115722654,-0.00641646044921884,0.0403662399902363,0.0466363443376139,1.45429800000011,
0.00627280834960953,-0.0159932670898438,0.0595198532714853,0.0619495411626039,1.45732900000007,
-0.0152750065917967,-0.0112048637695313,0.0403662399902363,0.0445904488587246,1.46026000000006,
0.00627280834960953,-0.0279642753906251,-0.00272938989257732,0.0287888588155097,1.46329200000014,
0.00866701000976578,0.000766144531249902,-0.012306196533201,0.0150713805958815,1.46625100000006,
0.00866701000976578,0.0247081611328124,-0.0554018264160145,0.0612778317118402,1.469202,
-0.017669208251953,-0.0327526787109377,-0.0338540114746078,0.050309372644823,1.47219300000006,
-0.00569819995117171,-0.0471178886718752,-0.0506134230957009,0.0693850381065197,1.47511400000008,
-0.0200634099121092,-0.0303584770507814,-0.00751779321288915,0.0371577012332021,1.47810300000015,
-0.0272460148925779,0.00316034619140615,0.00684741674804812,0.0282704834004932,1.48105699999996,
0.0326090266113283,0.00316034619140615,0.00205901342773629,0.0328264518473053,1.48400200000015,
0.00627280834960953,-0.0327526787109377,0.00924161840820403,0.0346048204465172,1.48710400000004,
0.0158496149902345,-0.00881066210937509,-0.0242772048339823,0.0303021572944135,1.49014499999998,
0.00148440502929703,-0.0327526787109377,0.0882502731933599,0.0941437843924683,1.49328400000013,
0.00148440502929703,-0.00162805712890635,-0.00751779321288915,0.00783398002918996,1.49628499999994,
-0.0416112248535155,-0.0207816704101563,0.00684741674804812,0.0470133914429457,1.49920900000006,
0.020638018310547,0.0103429511718749,0.0499430466308599,0.0550201085558954,1.50224500000013,
0.0134554133300783,0.00316034619140615,0.026001030029299,0.0294463834539539,1.50520200000005,
0.0230322199707033,-0.00641646044921884,0.0116358200683599,0.026590344678821,1.50823300000002,
0.0158496149902345,0.000766144531249902,-0.012306196533201,0.020080830308909,1.51119500000004,
-0.00809240161132796,0.0199197578124999,0.0044532150878922,0.0219571136483533,1.51415500000007,
-0.036822821533203,-0.00641646044921884,0.0331836350097667,0.0499824447463699,1.51717000000008,
-0.00809240161132796,0.0151313544921874,0.0188184250488295,0.0254671940724862,1.520127,
0.0278206232910158,0.0055545478515624,-0.02667140649414,0.0389384643573878,1.52320299999997,
-0.0248518132324217,-0.00881066210937509,0.00205901342773629,0.026447682772605,1.52614599999993,
0.0278206232910158,-0.0231758720703126,0.0188184250488295,0.0408073675681061,1.52919900000006,
0.00387860668945328,-0.0159932670898438,-0.000335188232421402,0.0164602713589329,1.53214900000012,
0.0230322199707033,0.0223139594726561,-0.02667140649414,0.0417104287738913,1.53509699999995,
-0.00809240161132796,-0.00641646044921884,0.0116358200683599,0.015557963787034,1.53811300000007,
-0.0200634099121092,-0.0135990654296876,-0.02667140649414,0.0360394079063169,1.54103299999997,
0.0541568415527345,0.0175255561523436,-0.0218830031738264,0.0609833947343262,1.54405100000008,
0.0469742365722658,0.0271023627929686,-0.0530076247558586,0.0758348551311783,1.54701999999997,
0.00627280834960953,0.0055545478515624,0.0331836350097667,0.0342250603927538,1.54996699999992,
0.020638018310547,0.0151313544921874,0.0236068283691413,0.0348162036156271,1.5530060000001,
-0.0224576115722654,-0.0279642753906251,-0.0147003981933587,0.0387614076459663,1.55591000000004,
0.0326090266113283,-0.0231758720703126,0.0140300217285176,0.0423947068920224,1.55895299999997,
-0.0272460148925779,-0.00162805712890635,0.00684741674804812,0.0281404160179449,1.56187599999998,
-0.0128808049316405,-0.0495120903320314,0.0379720383300786,0.0637121489174174,1.56479300000001,
-0.0152750065917967,0.0151313544921874,-0.0147003981933587,0.0260458331061031,1.56781300000011,
0.0326090266113283,0.0103429511718749,0.047548844970704,0.0585765986852271,1.57077800000002,
-0.00330399829101546,-0.0135990654296876,-0.0434308181152332,0.0456298909425217,1.57375900000011,
0.039791631591797,-0.0423294853515627,0.00924161840820403,0.0588265823048417,1.57671900000014,
0.0254264216308596,0.00794874951171864,-0.00272938989257732,0.0267793783523067,1.57966800000008,
-0.0152750065917967,-0.0399352836914064,0.0044532150878922,0.0429881824983515,1.58269399999995,
-0.0272460148925779,0.0055545478515624,-0.000335188232421402,0.0278084641883192,1.58563800000002,
0.0278206232910158,0.0366791694335936,-0.0697670363769518,0.0835870080542532,1.58867699999996,
-0.0272460148925779,0.0366791694335936,-0.0458250197753891,0.0647119713444093,1.59162500000002,
-0.00330399829101546,0.000766144531249902,0.0283952316894549,0.0285970726622083,1.59457700000007,
0.0278206232910158,-0.0207816704101563,-0.0147003981933587,0.0377089725712632,1.59758600000009,
-0.000909796630859216,-0.0375410820312502,0.0547314499511735,0.0663753883886519,1.60053700000003,
