X,Y,Z,Magnitude,Seconds,
-0.0281558115234375,-0.0300711728515626,0.0135990654296858,0.0433815599047886,0.0,
-0.00660799658203121,0.0010534487304687,-0.000766144531251456,0.00673515779314997,0.00375299999998902,
-0.0161848032226562,-0.0300711728515626,-0.0294965644531278,0.0451250551973311,0.00747400000000198,
-0.0185790048828124,-0.0276769711914063,-0.0414675727539091,0.0532048282288953,0.0112019999999973,
-0.00181959326171871,0.0106302553710937,-0.0318907661132837,0.0336650295140955,0.0149759999999901,
-0.03294421484375,-0.00852335791015631,0.0543004936523417,0.0640820765317712,0.0188719999999876,
0.000574608398437537,-0.0300711728515626,-0.0127371528320328,0.0326625270569604,0.0226169999999968,
-0.03294421484375,0.0130244570312499,0.0135990654296858,0.0379459135242638,0.0263769999999965,
-0.0233674082031249,0.0178128603515624,0.00641646044921629,0.0300749850329488,0.0301450000000045,
0.00296881005859378,-0.0396479794921876,0.0159932670898417,0.0428551129176432,0.0339050000000043,
0.0221224233398438,-0.00373495458984381,0.0088106621093722,0.0241035115080975,0.0376410000000078,
-0.0113963999023437,0.00823605371093744,-0.0630153876953141,0.0645650803287221,0.0414499999999975,
-0.00181959326171871,0.0273896669921875,-0.0175255561523464,0.0325676203617959,0.0451779999999928,
0.00775721337890628,-0.0348595761718751,-0.00794874951172098,0.0365861589824448,0.0488809999999944,
-0.0161848032226562,-0.0133117612304688,-0.0606211860351582,0.0641410869780235,0.0525749999999903,
0.000574608398437537,0.00584185205078119,0.00162805712890446,0.00609163198246152,0.0563170000000071,
0.0125456166992188,-0.00373495458984381,0.00162805712890446,0.0131906388839544,0.0600179999999852,
-0.03294421484375,-0.0204943662109376,-0.0247081611328142,0.0459981908842542,0.0637959999999964,
-0.00660799658203121,-0.0228885678710938,0.00641646044921629,0.0246723149038383,0.0677719999999908,
0.00775721337890628,-0.0109175595703126,0.030358477050779,0.0331813892900807,0.0716160000000059,
0.00775721337890628,0.00584185205078119,-0.0342849677734396,0.0356337004816352,0.0754100000000051,
-0.0353384165039062,-0.00373495458984381,-0.0606211860351582,0.0702686399690574,0.0791619999999966,
-0.00181959326171871,0.00584185205078119,-0.0271023627929718,0.0277844601168202,0.0829280000000097,
0.00536301171875003,-0.00134075292968756,0.0159932670898417,0.0169217051540597,0.0867739999999912,
-0.0161848032226562,-0.0204943662109376,0.00641646044921629,0.0268912228513409,0.0906620000000089,
0.014939818359375,-0.00612915625000006,0.0375410820312485,0.0408668272444163,0.0944430000000125,
0.00775721337890628,-0.0300711728515626,-0.0223139594726582,0.0382408496691937,0.098228000000006,
0.014939818359375,-0.00852335791015631,0.0471178886718722,0.0501591590397076,0.102012000000002,
-0.0209732065429687,-0.0252827695312501,0.0495120903320281,0.0594183550505333,0.105768000000012,
0.0197282216796875,0.0106302553710937,-0.000766144531251456,0.0224230247143494,0.109519000000006,
-0.0113963999023437,0.00584185205078119,0.0159932670898417,0.0204887715181845,0.11336399999999,
0.00775721337890628,-0.0492247861328126,-0.0606211860351582,0.0784740856941722,0.117090999999988,
-0.00421379492187496,-0.0204943662109376,-0.0175255561523464,0.0272932268609024,0.120796000000013,
-0.0544920297851562,0.0010534487304687,-0.0366791694335955,0.06569514848657,0.124511000000012,
-0.00421379492187496,-0.0492247861328126,0.0279642753906231,0.0567700302588202,0.128228000000007,
-0.0305500131835937,-0.00852335791015631,0.0327526787109349,0.0455926408351622,0.131922000000003,
-0.0544920297851562,-0.0204943662109376,0.0471178886718722,0.0748965672737363,0.135739999999998,
0.0197282216796875,0.0154186586914062,0.0327526787109349,0.0412271237079025,0.139868000000007,
0.0556412465820313,0.00584185205078119,0.0614830986328094,0.0831278952823744,0.143667999999991,
-0.03294421484375,0.0130244570312499,-0.0175255561523464,0.0395234473582338,0.147447999999997,
0.00536301171875003,0.0345722719726562,-0.0558327827148464,0.0658885688851261,0.151264999999995,
0.0173340200195313,-0.0157059628906251,-0.0199197578125023,0.0307236435285262,0.155049999999989,
0.000574608398437537,-0.0252827695312501,0.0088106621093722,0.0267801489313892,0.15886900000001,
-0.00181959326171871,0.00823605371093744,0.0159932670898417,0.0180811529658524,0.162723999999997,
-0.042521021484375,0.0106302553710937,-0.0366791694335955,0.0571524371104833,0.166491000000008,
-0.00421379492187496,-0.0564073911132813,-0.043861774414065,0.0715779651471082,0.17025000000001,
-0.0257616098632812,0.0106302553710937,-0.0725921943359396,0.0777578905996645,0.173994999999991,
-0.0473094248046875,0.0393606752929687,-0.0486501777343769,0.0784492461943093,0.177739000000003,
-0.0137906015624999,0.05133168359375,-0.0318907661132837,0.0619850255732515,0.181453000000005,
0.0245166250000001,0.0178128603515624,0.00162805712890446,0.030348203658699,0.185275999999988,
-0.00421379492187496,-0.0109175595703126,-0.00794874951172098,0.0141467944572269,0.188963000000001,
0.0340934316406251,-0.0228885678710938,-0.0175255561523464,0.0446474382095176,0.192671999999988,
-0.0353384165039062,-0.00373495458984381,-0.0127371528320328,0.0377490215642513,0.196359999999999,
0.014939818359375,-0.0564073911132813,0.0375410820312485,0.0693853355176347,0.200085000000001,
-0.0233674082031249,-0.0228885678710938,-0.000766144531251456,0.0327186381557042,0.203767999999997,
0.0101514150390625,-0.00373495458984381,-0.0606211860351582,0.0615786432896403,0.207659000000007,
-0.0113963999023437,-0.0109175595703126,0.0159932670898417,0.0224689926323473,0.211638999999991,
0.0101514150390625,0.0441490786132812,0.0758483085937485,0.0883468068819099,0.215399999999988,
-0.0449152231445312,-0.0444363828125001,-0.0175255561523464,0.0655676330671707,0.219115999999985,
-0.0473094248046875,-0.0157059628906251,0.0351468803710908,0.0609931319534572,0.222834000000006,
-0.0113963999023437,0.0297838686523437,0.00402225878906037,0.0321424225658299,0.226622999999989,
-0.0113963999023437,-0.0109175595703126,0.0351468803710908,0.0385275776233756,0.230380999999994,
0.0676122548828125,-0.0157059628906251,-0.0534385810546905,0.087600092612958,0.234190000000012,
-0.0161848032226562,-0.0133117612304688,-0.0606211860351582,0.0641410869780235,0.237920000000003,
-0.00421379492187496,-0.0228885678710938,0.0327526787109349,0.0401793550169115,0.241669999999999,
-0.00181959326171871,-0.0109175595703126,-0.0103429511718769,0.0151486192622709,0.245399999999989,
-0.0401268198242187,0.0273896669921875,0.0710599052734349,0.086080576581583,0.249144000000001,
-0.00900219824218745,-0.0204943662109376,-0.000766144531251456,0.0223974462165317,0.252856000000008,
0.000574608398437537,0.0154186586914062,-0.0223139594726582,0.0271289144272502,0.25660400000001,
-0.0113963999023437,0.0297838686523437,-0.0175255561523464,0.0363882107430861,0.260437999999994,
0.0245166250000001,0.00823605371093744,0.00162805712890446,0.0259142441937837,0.264172000000002,
0.0556412465820313,-0.0348595761718751,-0.163571857421877,0.176258023682691,0.267861000000011,
-0.0856166513671875,0.0944273134765624,0.0255700737304672,0.130002143029694,0.271589000000006,
0.0340934316406251,-0.0731668027343751,0.0183874687499976,0.0827879345704256,0.275366999999989,
0.0269108266601563,-0.0492247861328126,-0.0342849677734396,0.0657474803819881,0.279336000000001,
-0.03294421484375,0.0273896669921875,0.0183874687499976,0.0466220350976469,0.283222999999992,
0.0388818349609376,0.0202070620117187,-0.0103429511718769,0.0450233171147891,0.287043000000011,
-0.0281558115234375,-0.0300711728515626,0.00402225878906037,0.0413908652359197,0.290842999999995,
-0.236451355957031,-0.288644952148438,-0.108505219238284,0.388585299177208,0.294651999999985,
0.2926672109375,0.384125714355469,-0.0151313544921905,0.48315175532725,0.298522999999989,
-0.190961524414062,-0.0516189877929688,0.0255700737304672,0.19946090438453,0.30195599999999,
-0.171807911132812,-0.489757891601563,-0.0917458076171904,0.527065502503397,0.304877000000005,
0.105919481445313,0.144705548339844,0.00641646044921629,0.179443036183283,0.307819999999992,
0.237600572753906,0.199772186523437,0.0758483085937485,0.319555823914808,0.310835999999995,
-0.126318079589844,-0.1976652890625,-0.0678037910156277,0.244182673028859,0.313743999999986,
-0.162231104492187,-0.200059490722656,-0.0294965644531278,0.259254273653302,0.316735999999992,
-0.00900219824218745,0.202166388183594,0.00162805712890446,0.202373265661268,0.319692000000003,
0.0221224233398438,0.14709975,0.0088106621093722,0.149014649720406,0.322639000000009,
-0.0568862314453125,-0.176117474121094,-0.0103429511718769,0.185365543340146,0.325647000000004,
0.000574608398437537,-0.171329070800781,0.0112048637695281,0.171696038534278,0.328620000000001,
0.0340934316406251,0.144705548339844,0.0710599052734349,0.164777328352047,0.331652999999989,
-0.00900219824218745,0.070485296875,-0.0223139594726582,0.0744790536734722,0.334575000000001,
-0.0449152231445312,-0.106685625976563,-0.043861774414065,0.123786329273003,0.337472999999989,
-0.0161848032226562,-0.0731668027343751,0.0423294853515603,0.0860645932300561,0.34045900000001,
0.0221224233398438,0.16625336328125,0.00402225878906037,0.167766984184972,0.343422000000004,
-0.0640688364257812,0.0752737001953125,-0.00316034619140915,0.0988986022656379,0.346426000000008,
-0.0736456430664062,-0.0324653745117188,0.00641646044921629,0.0807394095194349,0.349349999999987,
0.0101514150390625,-0.1210508359375,-0.00555454785156506,0.121602669009764,0.352316999999999,
-0.00181959326171871,0.0393606752929687,0.0112048637695281,0.04096489535261,0.355355000000003,
-0.0185790048828124,0.0680910952148437,-0.00555454785156506,0.0707985146159706,0.358276999999987,
-0.0688572397460937,0.0154186586914062,-0.0247081611328142,0.0747632779368201,0.361286000000007,
-0.0137906015624999,-0.0923204160156251,-0.00316034619140915,0.0933982210366089,0.364185999999989,
0.0364876333007813,-0.00134075292968756,0.0447236870117163,0.0577351988152176,0.367183000000011,
0.0221224233398438,0.0800621035156249,0.0159932670898417,0.084587981569375,0.370145000000008,
0.00536301171875003,-0.0133117612304688,-0.0103429511718769,0.0176901532129118,0.373044999999991,
0.014939818359375,-0.0516189877929688,-0.0366791694335955,0.0650621206518831,0.376044000000007,
-0.00421379492187496,-0.0300711728515626,-0.0342849677734396,0.0457983680881531,0.378951000000001,
-0.0377326181640625,0.0273896669921875,0.0255700737304672,0.0531768088741642,0.381950999999987,
-0.00660799658203121,0.022601263671875,0.0159932670898417,0.0284651950739981,0.384895,
-0.00421379492187496,-0.0635899960937501,-0.0294965644531278,0.0702245753663508,0.387878000000001,
-0.00421379492187496,-0.0109175595703126,0.0088106621093722,0.0146484450171501,0.390990999999985,
-0.03294421484375,0.0441490786132812,-0.0318907661132837,0.0636512639101927,0.394017999999988,
-0.0161848032226562,0.0417548769531249,-0.043861774414065,0.0626839122859848,0.397086000000002,
0.00296881005859378,-0.0588015927734376,-0.0127371528320328,0.060238494404523,0.400007999999985,
-0.00181959326171871,-0.0540131894531251,0.00162805712890446,0.0540683467895242,0.402926000000008,
-0.00660799658203121,0.0178128603515624,-0.0414675727539091,0.0456127526338101,0.405941000000013,
-0.0401268198242187,0.0465432802734375,-0.0342849677734396,0.0703697209248613,0.408893000000006,
0.014939818359375,-0.0564073911132813,0.00162805712890446,0.0583750161870023,0.411902999999995,
-0.0401268198242187,-0.0611957944335938,-0.0199197578125023,0.0758411740209283,0.414827000000002,
0.00296881005859378,0.0537258852539062,0.0207816704101536,0.0576815603509142,0.417781999999988,
0.000574608398437537,0.0393606752929687,-0.0390733710937532,0.055464594679491,0.420812000000012,
0.0197282216796875,0.0130244570312499,-0.000766144531251456,0.0236521920558018,0.423791999999992,
0.0173340200195313,-0.0444363828125001,-0.0318907661132837,0.0573766619000158,0.426818999999995,
-0.0113963999023437,0.0154186586914062,0.0327526787109349,0.0379519555401028,0.429805999999985,
-0.0161848032226562,-0.00134075292968756,-0.000766144531251456,0.0162583040695312,0.432705999999996,
0.00536301171875003,-0.0564073911132813,-0.000766144531251456,0.0566669449003994,0.435719000000006,
0.0101514150390625,-0.0444363828125001,0.030358477050779,0.0547656870092673,0.438687999999985,
0.00296881005859378,0.0345722719726562,0.0566946953124976,0.0664706273408959,0.44174000000001,
-0.0353384165039062,0.0130244570312499,0.0255700737304672,0.0455221795671512,0.444689000000011,
-0.0113963999023437,-0.0157059628906251,-0.0342849677734396,0.0393956116373591,0.447585000000004,
-0.0161848032226562,-0.0324653745117188,-0.0151313544921905,0.0393052959066663,0.450574999999986,
-0.0281558115234375,0.05133168359375,-0.0366791694335955,0.069087284889845,0.453506000000004,
-0.0137906015624999,0.0178128603515624,0.00641646044921629,0.0234232715489585,0.456544000000008,
0.000574608398437537,-0.0540131894531251,0.0159932670898417,0.056334176144839,0.459496999999999,
0.014939818359375,-0.00134075292968756,-0.0103429511718769,0.01822011059169,0.462492999999995,
-0.0305500131835937,0.0106302553710937,0.0375410820312485,0.0495543991472942,0.465451999999999,
-0.00421379492187496,0.0202070620117187,-0.0318907661132837,0.0379881874545394,0.468382999999989,
0.0125456166992188,-0.0564073911132813,-0.0175255561523464,0.0603848605945187,0.471392000000009,
0.00296881005859378,0.0297838686523437,-0.0486501777343769,0.0571203331454792,0.474356,
-0.0113963999023437,-0.00852335791015631,0.0231758720703095,0.0271964447496013,0.477344999999985,
-0.00900219824218745,-0.0516189877929688,0.0423294853515603,0.0673598159445991,0.480280999999991,
-0.03294421484375,0.0154186586914062,-0.0342849677734396,0.0499851512225283,0.483205999999996,
-0.00660799658203121,0.0154186586914062,-0.0582269843750023,0.0605952338396096,0.486232000000001,
0.00775721337890628,0.0417548769531249,0.0279642753906231,0.0508492360502997,0.489193999999998,
0.014939818359375,-0.00373495458984381,-0.0510443793945328,0.0533167583989529,0.492201999999992,
-0.042521021484375,-0.0611957944335938,0.0519062919921858,0.0908142371702334,0.495134000000007,
-0.0209732065429687,0.0393606752929687,-0.0199197578125023,0.0488460326282625,0.498049000000009,
0.0173340200195313,0.0154186586914062,-0.0366791694335955,0.0434000547951036,0.501085999999987,
0.0340934316406251,-0.00373495458984381,0.0231758720703095,0.0413936349339064,0.504035999999985,
0.0101514150390625,-0.00612915625000006,-0.0654095893554718,0.0664758013361529,0.507044000000008,
-0.0568862314453125,0.0273896669921875,-0.0318907661132837,0.0707337129612517,0.509986999999995,
-0.00660799658203121,0.0010534487304687,0.00402225878906037,0.00780730035428608,0.512923999999998,
-0.0305500131835937,-0.0204943662109376,0.0088106621093722,0.0378279013257582,0.515928000000002,
0.0221224233398438,-0.0372537778320313,-0.0582269843750023,0.072578421632,0.518860999999987,
-0.0137906015624999,-0.0348595761718751,-0.0271023627929718,0.0462591484065612,0.521858000000009,
0.0173340200195313,0.0537258852539062,0.0231758720703095,0.0610250771615469,0.524867999999998,
0.0125456166992188,-0.0228885678710938,-0.0462559760742209,0.0531120924096602,0.527889999999985,
-0.0113963999023437,-0.0300711728515626,0.0375410820312485,0.0494316316489717,0.531000000000006,
0.00775721337890628,0.0130244570312499,-0.00555454785156506,0.0161450872465925,0.53405699999999,
-0.0305500131835937,-0.0133117612304688,-0.0654095893554718,0.0734092682992156,0.537056000000007,
-0.0353384165039062,-0.0157059628906251,-0.0510443793945328,0.064039125689677,0.539968999999985,
-0.0137906015624999,-0.00612915625000006,-0.000766144531251456,0.0151107321210889,0.542871999999988,
0.0316992299804688,0.0202070620117187,0.00162805712890446,0.0376273451962144,0.545927000000006,
0.00775721337890628,-0.0109175595703126,0.0088106621093722,0.0160310708682462,0.548882999999989,
-0.0353384165039062,0.00584185205078119,-0.0318907661132837,0.0479578135414755,0.551895000000002,
0.000574608398437537,0.0130244570312499,-0.0366791694335955,0.0389272157507937,0.554850999999985,
0.00536301171875003,-0.00134075292968756,-0.00316034619140915,0.00636767627659182,0.55785800000001,
-0.0281558115234375,-0.0133117612304688,-0.0271023627929718,0.0412854790278884,0.560811000000001,
-0.00660799658203121,-0.00373495458984381,-0.00316034619140915,0.00822212215099519,0.563726000000003,
0.0197282216796875,-0.0444363828125001,-0.000766144531251456,0.0486249095170851,0.566777000000002,
0.0101514150390625,0.0106302553710937,0.0231758720703095,0.0274440267229378,0.56977599999999,
-0.0233674082031249,0.0249954653320312,-0.0199197578125023,0.0395930019650568,0.572755999999998,
0.0412760366210938,-0.0540131894531251,-0.0462559760742209,0.0822237870486635,0.575692000000004,
-0.00421379492187496,0.00823605371093744,0.0255700737304672,0.0271922290177652,0.578634999999991,
-0.0137906015624999,0.05133168359375,0.00641646044921629,0.053537775418118,0.581655000000012,
0.0221224233398438,0.00344765039062495,0.0207816704101536,0.0305477615003046,0.584607000000005,
-0.00421379492187496,-0.0252827695312501,0.0543004936523417,0.0600459666730574,0.587594999999993,
-0.00660799658203121,-0.00373495458984381,0.0255700737304672,0.0266729108872252,0.590510999999992,
-0.0449152231445312,-0.00373495458984381,0.0327526787109349,0.0557141375115236,0.593409000000008,
0.014939818359375,0.00823605371093744,-0.0151313544921905,0.0228032594623861,0.596444999999989,
-0.00421379492187496,0.0465432802734375,0.0423294853515603,0.0630540905602748,0.599406999999985,
0.014939818359375,-0.0324653745117188,-0.106111017578128,0.1119676148101,0.602406999999999,
0.000574608398437537,-0.0731668027343751,-0.00794874951172098,0.0735995503789432,0.605330000000009,
-0.0209732065429687,0.0273896669921875,-0.00555454785156506,0.0349416979048282,0.608252999999991,
0.0173340200195313,-0.00134075292968756,0.00402225878906037,0.0178450114660134,0.611284000000012,
0.0316992299804688,-0.0133117612304688,-0.00316034619140915,0.034525815797186,0.614217999999994,
-0.0113963999023437,-0.0444363828125001,-0.0342849677734396,0.0572706649465412,0.617212999999992,
-0.0209732065429687,0.0609084902343749,0.0088106621093722,0.0650180539706511,0.620168000000007,
0.0508528432617188,-0.125839239257813,0.0351468803710908,0.140202813825564,0.623130000000003,
0.00536301171875003,-0.0396479794921876,-0.000766144531251456,0.0400163860181194,0.626138999999995,
-0.0401268198242187,0.0441490786132812,-0.00316034619140915,0.0597435402337069,0.62907899999999,
-0.00660799658203121,0.0106302553710937,-0.0630153876953141,0.0642464554234204,0.632092,
0.0484586416015626,-0.111474029296875,0.068665703613279,0.139605436879285,0.635038000000009,
-0.0688572397460937,0.05133168359375,0.00402225878906037,0.0859792985071759,0.637967000000003,
-0.0137906015624999,0.00344765039062495,0.0399352836914044,0.0423897849509119,0.640993000000009,
-0.0281558115234375,0.0609084902343749,-0.0989284125976582,0.119538381803782,0.643923999999998,
0.014939818359375,-0.0683783994140626,0.0135990654296858,0.0713003384255718,0.646963,
0.000574608398437537,-0.00612915625000006,-0.0414675727539091,0.0419220266834658,0.649889999999999,
-0.0664630380859375,0.0848505068359374,0.0638773002929671,0.125288680393107,0.652915000000007,
0.04367023828125,-0.0468305844726563,0.0638773002929671,0.0904461322904946,0.655868999999996,
0.00296881005859378,-0.00852335791015631,-0.0271023627929718,0.0285657055258661,0.658799999999985,
-0.0592804331054687,-0.00612915625000006,-0.0294965644531278,0.0664964932913487,0.661792999999989,
-0.0712514414062499,0.0106302553710937,-0.0103429511718769,0.0727787528793038,0.664828999999997,
0.0604296499023438,-0.0659841977539063,-0.0294965644531278,0.0942109561308236,0.667927999999989,
-0.0137906015624999,0.0297838686523437,0.0207816704101536,0.038847617023338,0.671013999999985,
-0.0185790048828124,0.0154186586914062,-0.0582269843750023,0.0630340873471204,0.673984999999988,
-0.03294421484375,-0.00852335791015631,-0.00555454785156506,0.0344792970283779,0.67698200000001,
0.00536301171875003,-0.0707726010742188,0.0088106621093722,0.0715202819087809,0.679925999999995,
0.0340934316406251,0.0249954653320312,-0.0869574042968768,0.0966888076782894,0.682978999999989,
-0.0760398447265624,0.0561200869140625,0.0543004936523417,0.108995714375243,0.685951999999986,
0.014939818359375,-0.0444363828125001,-0.0318907661132837,0.0566993055809534,0.688873000000001,
0.0173340200195313,-0.0731668027343751,-0.0749863959960955,0.106192320140826,0.691899000000006,
-0.00181959326171871,-0.00612915625000006,-0.0630153876953141,0.0633389024404888,0.694824000000011,
-0.0640688364257812,0.12794613671875,-0.00555454785156506,0.143198752452813,0.697839999999985,
0.00775721337890628,-0.0468305844726563,-0.00555454785156506,0.0477925831410252,0.700801000000013,
0.0556412465820313,-0.0923204160156251,-0.0606211860351582,0.123668652983728,0.703728000000012,
-0.0832224497070312,0.0178128603515624,0.0399352836914044,0.0940111749349861,0.706816000000003,
0.000574608398437537,0.0345722719726562,-0.043861774414065,0.0558518345169896,0.709786000000008,
-0.00421379492187496,0.0369664736328124,-0.0175255561523464,0.0411268933781544,0.712813000000011,
0.0580354482421875,-0.0635899960937501,-0.0534385810546905,0.101328588271097,0.715764000000007,
0.000574608398437537,0.0393606752929687,0.0279642753906231,0.0482865781812366,0.718735000000009,
0.00536301171875003,-0.0803494077148438,-0.0318907661132837,0.0866129908161231,0.721753000000007,
0.00536301171875003,0.0369664736328124,-0.0486501777343769,0.0613361382964996,0.724718999999993,
-0.03294421484375,0.0106302553710937,0.0758483085937485,0.083374393775657,0.727774000000011,
-0.00181959326171871,-0.00852335791015631,0.0159932670898417,0.0182138173349172,0.730704000000003,
0.0221224233398438,0.00584185205078119,-0.0247081611328142,0.0336752442660122,0.733655999999996,
-0.0233674082031249,-0.0396479794921876,-0.0127371528320328,0.0477517864190541,0.736665999999985,
-0.0760398447265624,0.022601263671875,0.0590888969726535,0.0989159888544324,0.739620000000002,
-0.00900219824218745,0.0465432802734375,-0.0510443793945328,0.0696623655898678,0.742638999999997,
0.0652180532226563,-0.0540131894531251,0.00162805712890446,0.0846963380026987,0.745594000000011,
0.000574608398437537,-0.0396479794921876,-0.00316034619140915,0.0397778863273809,0.74860000000001,
-0.0281558115234375,0.0154186586914062,-0.0510443793945328,0.0602993650560138,0.751554999999996,
0.014939818359375,-0.0252827695312501,-0.0366791694335955,0.0469869990329222,0.754473999999988,
0.000574608398437537,0.0106302553710937,-0.0103429511718769,0.0148428145245452,0.757517000000007,
-0.0161848032226562,-0.0204943662109376,-0.0342849677734396,0.0430978644130995,0.760442000000012,
0.000574608398437537,0.0393606752929687,-0.00555454785156506,0.0397548228038486,0.763467999999989,
0.0460644399414063,-0.0659841977539063,0.0471178886718722,0.0932520370460452,0.766432000000009,
0.0197282216796875,-0.0133117612304688,-0.00316034619140915,0.0240081966367626,0.769362000000001,
0.0101514150390625,-0.0133117612304688,-0.0151313544921905,0.0225657285085293,0.772391999999996,
-0.00181959326171871,0.00584185205078119,0.0183874687499976,0.0193787812324059,0.775351000000001,
0.0364876333007813,-0.0348595761718751,-0.0151313544921905,0.052682969957505,0.778362999999985,
-0.0305500131835937,-0.0420421811523438,-0.000766144531251456,0.0519753333708117,0.781271000000004,
0.00536301171875003,0.00823605371093744,0.0447236870117163,0.0457908577703765,0.784221000000002,
-0.00181959326171871,0.0249954653320312,0.030358477050779,0.0393665001701388,0.787231999999989,
0.0101514150390625,-0.0133117612304688,-0.0199197578125023,0.026020203028821,0.790163000000007,
-0.0113963999023437,-0.0228885678710938,-0.00316034619140915,0.0257633898773698,0.793150999999995,
0.0101514150390625,-0.0564073911132813,0.0495120903320281,0.0757383132143099,0.796102999999988,
-0.0281558115234375,0.0297838686523437,-0.0127371528320328,0.0429192685947694,0.799019999999985,
-0.0137906015624999,-0.0181001645507813,-0.0486501777343769,0.0537088115843894,0.802055999999993,
0.0125456166992188,-0.0228885678710938,0.0135990654296858,0.029431507234837,0.805103000000003,
0.014939818359375,-0.0444363828125001,-0.000766144531251456,0.0468868560207755,0.808213999999992,
0.0173340200195313,-0.0276769711914063,-0.0678037910156277,0.0752584683637554,0.811240999999995,
-0.0377326181640625,0.0345722719726562,-0.0103429511718769,0.0522108140312912,0.814189999999996,
-0.00421379492187496,0.0130244570312499,-0.0199197578125023,0.0241700082728832,0.817190000000011,
0.0101514150390625,-0.0157059628906251,-0.0151313544921905,0.0240559012798384,0.820121,
0.0101514150390625,-0.0109175595703126,-0.0678037910156277,0.0694233275661542,0.823140999999993,
-0.00660799658203121,-0.0109175595703126,-0.0749863959960955,0.0760645667198775,0.826080999999988,
-0.00900219824218745,-0.0204943662109376,0.068665703613279,0.072222139765354,0.828974999999986,
-0.0305500131835937,0.00344765039062495,-0.0175255561523464,0.035388341543265,0.831977999999992,
-0.0473094248046875,0.0321780703124999,0.0495120903320281,0.0756641062422168,0.834926999999993,
0.00775721337890628,-0.00373495458984381,0.0590888969726535,0.0597128293638724,0.837957999999986,
0.000574608398437537,-0.0420421811523438,0.00162805712890446,0.0420776156747626,0.840897000000012,
0.014939818359375,-0.0276769711914063,0.00162805712890446,0.0314938641159835,0.843927000000008,
-0.00421379492187496,-0.00612915625000006,0.0279642753906231,0.0289365395668373,0.846872999999988,
-0.0664630380859375,-0.00852335791015631,0.0399352836914044,0.0780051917835624,0.849788999999987,
-0.0137906015624999,-0.0420421811523438,-0.00555454785156506,0.0445934825881254,0.852767,
0.0173340200195313,-0.0396479794921876,-0.0223139594726582,0.0486861717040668,0.855699999999985,
-0.0257616098632812,0.0154186586914062,-0.000766144531251456,0.0300330244236698,0.858696000000009,
-0.0281558115234375,0.0130244570312499,-0.0366791694335955,0.048039022407212,0.861631999999986,
0.0197282216796875,0.0010534487304687,-0.0151313544921905,0.0248851436330786,0.864565999999996,
0.0963426748046876,-0.0372537778320313,-0.0462559760742209,0.113178488565005,0.867583999999994,
-0.00181959326171871,0.0321780703124999,-0.00555454785156506,0.0327046194062797,0.870504000000011,
-0.0257616098632812,0.0202070620117187,0.0135990654296858,0.0354530743159776,0.873529999999988,
-0.00660799658203121,-0.0492247861328126,-0.0749863959960955,0.0899427861094625,0.876431999999994,
0.00296881005859378,-0.0252827695312501,0.0088106621093722,0.0269380777922227,0.879363000000012,
0.0173340200195313,-0.00134075292968756,-0.043861774414065,0.0471817880458796,0.88236599999999,
-0.0305500131835937,-0.00852335791015631,-0.00316034619140915,0.0318737936812035,0.88527400000001,
-0.0257616098632812,0.0441490786132812,-0.0199197578125023,0.054859807112843,0.888273999999996,
0.0245166250000001,-0.0181001645507813,-0.0342849677734396,0.0458709044316959,0.891206000000011,
0.00536301171875003,0.0202070620117187,-0.0103429511718769,0.0233251771436944,0.894131999999985,
-0.0161848032226562,0.00344765039062495,0.0255700737304672,0.0304575576688875,0.897167999999994,
-0.0113963999023437,-0.0109175595703126,0.0159932670898417,0.0224689926323473,0.900097999999986,
0.00775721337890628,-0.00852335791015631,-0.0318907661132837,0.0339093343013789,0.903109000000001,
0.000574608398437537,-0.0588015927734376,-0.0175255561523464,0.0613604319244396,0.906023000000005,
-0.0209732065429687,-0.0204943662109376,-0.0271023627929718,0.039930345704037,0.908927000000006,
0.014939818359375,-0.0540131894531251,0.00641646044921629,0.056407391113281,0.911939999999987,
0.00536301171875003,-0.00134075292968756,-0.0845632026367209,0.0847437003752671,0.914864999999992,
0.0125456166992188,-0.0157059628906251,-0.0342849677734396,0.0397432860230656,0.917868999999996,
-0.03294421484375,0.022601263671875,-0.0510443793945328,0.0648202675018375,0.920807999999994,
-0.00900219824218745,0.00344765039062495,-0.0151313544921905,0.0179411191171552,0.923723999999993,
-0.00900219824218745,-0.0468305844726563,-0.0749863959960955,0.0888656446537439,0.926712000000009,
-0.0353384165039062,-0.0204943662109376,-0.0366791694335955,0.0549015864773503,0.929607000000004,
-0.061674634765625,0.0465432802734375,0.00402225878906037,0.0773706409295617,0.93264099999999,
0.0245166250000001,0.0321780703124999,0.00402225878906037,0.0406530647822891,0.935588999999993,
0.00296881005859378,-0.0444363828125001,-0.0223139594726582,0.0498128370801191,0.938567000000006,
0.000574608398437537,-0.0252827695312501,-0.0917458076171904,0.0951674409938209,0.941579999999988,
-0.0185790048828124,0.0154186586914062,0.0183874687499976,0.0303482036586976,0.944618999999989,
0.000574608398437537,0.00584185205078119,-0.0294965644531278,0.0300749850329521,0.947755000000001,
-0.0353384165039062,-0.0300711728515626,-0.0414675727539091,0.0622305287441208,0.950734000000011,
0.0508528432617188,-0.0109175595703126,-0.0151313544921905,0.0541679117517059,0.953723999999994,
-0.03294421484375,0.00584185205078119,-0.00316034619140915,0.0336070872749176,0.956671,
0.00296881005859378,0.00344765039062495,0.0159932670898417,0.0166278296415076,0.95961299999999,
-0.00181959326171871,-0.0133117612304688,-0.0390733710937532,0.0413187879217827,0.962628999999993,
-0.00660799658203121,-0.0157059628906251,-0.0151313544921905,0.0227881718862694,0.965532999999994,
-0.042521021484375,0.0561200869140625,0.0590888969726535,0.0919184375887747,0.968565000000012,
-0.0233674082031249,0.0345722719726562,0.0423294853515603,0.0594395750793252,0.971498999999994,
-0.0281558115234375,-0.0396479794921876,-0.0151313544921905,0.0509280854649436,0.974394999999987,
-0.0137906015624999,0.0106302553710937,0.0375410820312485,0.041382555029713,0.977431999999993,
-0.00181959326171871,0.0130244570312499,-0.0510443793945328,0.0527112518194168,0.980367000000001,
0.0197282216796875,0.0321780703124999,0.0088106621093722,0.0387589822684318,0.983434999999986,
0.0412760366210938,-0.0324653745117188,0.030358477050779,0.0606576365363399,0.986385000000013,
0.0269108266601563,-0.00373495458984381,0.0183874687499976,0.0328061196174329,0.98931300000001,
-0.0185790048828124,0.0297838686523437,-0.0103429511718769,0.0365955583818509,0.992327999999986,
-0.00181959326171871,0.00823605371093744,-0.0247081611328142,0.0261081735656221,0.995260999999999,
-0.0185790048828124,-0.0276769711914063,0.00641646044921629,0.0339465038179466,0.998255,
-0.03294421484375,-0.0300711728515626,-0.0223139594726582,0.0498749387537182,1.00115399999999,
-0.0185790048828124,-0.0276769711914063,-0.0127371528320328,0.0356851400309998,1.00403700000001,
-0.0377326181640625,0.0249954653320312,-0.0510443793945328,0.0682206158609897,1.00705199999999,
-0.0161848032226562,0.00344765039062495,-0.0175255561523464,0.0241035115081003,1.00997799999999,
