X,Y,Z,Magnitude,Seconds,
-0.00660799658203121,-0.0348595761718751,0.0088106621093722,0.0365579462841722,0.0,
-0.0640688364257812,-0.0109175595703126,-0.0965342109375023,0.116373806284967,0.00373700000000099,
-0.0401268198242187,-0.0157059628906251,-0.0606211860351582,0.0743758504881542,0.00741400000003978,
-0.0401268198242187,-0.0348595761718751,-0.0558327827148464,0.0770885941353928,0.0111459999999965,
-0.0209732065429687,-0.0324653745117188,-0.0749863959960955,0.0843613390088341,0.0148300000000177,
-0.0640688364257812,-0.0228885678710938,-0.0294965644531278,0.0741535545653794,0.0184970000000249,
0.000574608398437537,-0.0348595761718751,-0.0294965644531278,0.0456680144108744,0.0221750000000043,
-0.0161848032226562,-0.0109175595703126,-0.0797747993164091,0.0821289204135837,0.025841000000014,
-0.052097828125,-0.0181001645507813,-0.0701979926757836,0.0892723799829307,0.0295000000000414,
-0.0257616098632812,0.0202070620117187,0.030358477050779,0.0446500058984993,0.0332390000000373,
0.00775721337890628,-0.0324653745117188,0.0255700737304672,0.0420476345609782,0.0372580000000085,
-0.061674634765625,0.00584185205078119,-0.00316034619140915,0.0620312469397964,0.0411380000000463,
-0.0664630380859375,0.0178128603515624,-0.0294965644531278,0.0748644157130379,0.0448790000000372,
0.000574608398437537,-0.0468305844726563,-0.082169000976565,0.0945789539926769,0.0486630000000332,
-0.0449152231445312,-0.0157059628906251,-0.0917458076171904,0.103350605976817,0.0523820000000228,
-0.0688572397460937,0.0106302553710937,-0.0558327827148464,0.0892839370793478,0.056205000000034,
-0.00421379492187496,0.00584185205078119,-0.0271023627929718,0.028043205451387,0.0600820000000226,
-0.0377326181640625,-0.0396479794921876,-0.0486501777343769,0.0732294513492647,0.063837000000035,
0.00536301171875003,-0.0133117612304688,-0.0271023627929718,0.0306676205584054,0.0675790000000234,
-0.00900219824218745,-0.0276769711914063,-0.0294965644531278,0.0414379249246279,0.0713570000000345,
-0.0185790048828124,-0.0324653745117188,-0.0318907661132837,0.0491548667775012,0.075093000000038,
-0.0377326181640625,-0.0228885678710938,-0.0534385810546905,0.0693059806787504,0.0788120000000276,
-0.00660799658203121,0.00823605371093744,-0.0151313544921905,0.0184514522010035,0.0826420000000212,
-0.0760398447265624,0.0154186586914062,-0.0606211860351582,0.0984617754166106,0.0864050000000134,
-0.0497036264648437,-0.0228885678710938,0.0112048637695281,0.0558559396576592,0.0901080000000434,
-0.0449152231445312,0.0010534487304687,-0.0510443793945328,0.0680001153831651,0.0938380000000052,
-0.052097828125,-0.0492247861328126,-0.0462559760742209,0.0853046223117017,0.0975290000000086,
-0.0449152231445312,-0.0396479794921876,-0.0151313544921905,0.0617923736128035,0.101227000000051,
-0.03294421484375,-0.0300711728515626,-0.00316034619140915,0.044716714060732,0.105026000000009,
-0.0305500131835937,-0.0204943662109376,-0.0558327827148464,0.0668627099180778,0.108992000000001,
-0.0664630380859375,-0.0228885678710938,-0.0654095893554718,0.0960189374574302,0.112780000000043,
-0.0688572397460937,-0.0157059628906251,-0.0127371528320328,0.0717651154673305,0.116572000000019,
-0.061674634765625,-0.0252827695312501,-0.0725921943359396,0.0985525529205122,0.120338000000004,
-0.0281558115234375,-0.0109175595703126,-0.0199197578125023,0.036176505923367,0.12420400000002,
-0.0449152231445312,-0.0157059628906251,-0.0534385810546905,0.0715523338933361,0.128123000000016,
-0.052097828125,-0.0204943662109376,-0.0103429511718769,0.05693135674366,0.131942000000038,
0.0340934316406251,-0.00852335791015631,-0.0366791694335955,0.0507973540790955,0.135711000000015,
-0.0353384165039062,-0.0324653745117188,-0.0797747993164091,0.0930957723484963,0.139504000000045,
-0.00421379492187496,-0.0324653745117188,-0.0342849677734396,0.0474048059278336,0.143290000000036,
-0.00421379492187496,0.0585142885742187,-0.0462559760742209,0.0747080541680043,0.147071000000039,
-0.0353384165039062,0.00584185205078119,-0.0318907661132837,0.0479578135414755,0.150813000000028,
-0.00181959326171871,-0.0995030209960938,-0.0390733710937532,0.106915342377123,0.154671000000008,
-0.0305500131835937,0.0393606752929687,0.0088106621093722,0.05059835799551,0.158421000000033,
-0.03294421484375,0.0154186586914062,-0.0271023627929718,0.0453607142412363,0.162148999999999,
-0.0113963999023437,-0.0803494077148438,-0.0342849677734396,0.0880986053583491,0.165831000000026,
-0.0449152231445312,0.0202070620117187,0.0351468803710908,0.060506246165898,0.169556999999998,
-0.0449152231445312,-0.0635899960937501,0.0088106621093722,0.0783498094454078,0.173257000000035,
-0.0497036264648437,-0.0348595761718751,-0.0558327827148464,0.0824799379262783,0.177176000000031,
-0.00421379492187496,0.0273896669921875,-0.0342849677734396,0.0440841121132357,0.181095000000028,
-0.121529676269531,-0.0564073911132813,-0.0486501777343769,0.142541558080337,0.184836000000018,
-0.0592804331054687,-0.0204943662109376,-0.0223139594726582,0.0665740308446725,0.188584000000048,
0.0604296499023438,0.0178128603515624,0.030358477050779,0.0699333805136487,0.192399000000023,
-0.10955866796875,-0.0276769711914063,-0.0247081611328142,0.115670262764385,0.19616400000001,
0.04367023828125,-0.0923204160156251,-0.0127371528320328,0.102919308135577,0.200056000000018,
0.00775721337890628,0.0321780703124999,-0.0294965644531278,0.0443356502487512,0.203833000000031,
-0.0473094248046875,0.00823605371093744,-0.0582269843750023,0.0754744722769665,0.207586000000049,
-0.0305500131835937,-0.0468305844726563,-0.0797747993164091,0.0974188151926603,0.211340000000007,
0.0245166250000001,-0.0348595761718751,-0.000766144531251456,0.0426244287904971,0.215091000000029,
-0.0832224497070312,-0.0204943662109376,-0.0510443793945328,0.0997573247907158,0.218804000000034,
-0.0951934580078125,-0.0324653745117188,-0.0845632026367209,0.131402930826715,0.222517000000039,
0.0556412465820313,-0.00134075292968756,-0.122870429199221,0.134888429122818,0.226350000000025,
-0.00900219824218745,-0.0109175595703126,-0.0414675727539091,0.0438154341558281,0.230057000000045,
-0.135894886230469,0.0130244570312499,-0.0462559760742209,0.144141152718888,0.23376300000001,
-0.0137906015624999,0.0130244570312499,-0.0175255561523464,0.0258256130781739,0.237485000000049,
0.0197282216796875,-0.0707726010742188,-0.0893516059570327,0.115679182572122,0.241203000000041,
-0.102376062988281,0.0130244570312499,-0.0271023627929718,0.106700669271103,0.244916000000046,
-0.0880108530273437,-0.0420421811523438,-0.0342849677734396,0.103387205503742,0.248882000000037,
0.0700064565429688,-0.0181001645507813,-0.0390733710937532,0.0821903172101074,0.252730000000042,
-0.0664630380859375,-0.0516189877929688,-0.043861774414065,0.0948984224691526,0.256466000000046,
-0.0401268198242187,-0.00852335791015631,-0.0462559760742209,0.0618257601801129,0.260206000000039,
0.0580354482421875,-0.0276769711914063,-0.0510443793945328,0.0820954118984402,0.26394700000003,
-0.0161848032226562,-0.0420421811523438,-0.0773805976562532,0.0895390961817324,0.267768000000046,
-0.0377326181640625,0.0273896669921875,0.0207816704101536,0.0510472541523451,0.271568000000002,
0.0340934316406251,-0.00852335791015631,-0.0342849677734396,0.0490965245849886,0.275473000000034,
-0.0688572397460937,-0.0851378110351563,-0.000766144531251456,0.109500471737576,0.279243000000008,
-0.0544920297851562,0.00584185205078119,0.066271501953123,0.0859966308445416,0.283079000000043,
0.00536301171875003,0.0249954653320312,-0.0701979926757836,0.0747080541680052,0.286854000000005,
-0.0832224497070312,-0.29343335546875,0.35596990283203,0.468768260400738,0.290622000000042,
0.239994774414063,-0.0611957944335938,0.250625029785153,0.352356811424477,0.294378000000052,
-0.475871521972656,1.66981200585938,-1.17392495800781,2.09590687946061,0.298215000000027,
-0.961894458984375,-3.08507249121094,-2.10048100048828,3.8542098619125,0.301629000000048,
0.994168297363281,-1.27266183447266,0.557082842285155,1.70832667882171,0.304583000000036,
0.800237962890625,2.59397384667969,2.14443854296875,3.4594360492831,0.307522000000006,
-0.878097400878906,1.09520360742188,-1.74853335644531,2.24229678805953,0.310531000000026,
-1.17737260839844,-1.25590242285156,-0.247368915527346,1.73916317092461,0.313458000000026,
1.48976804101563,-1.3851893125,0.375123516113279,2.0685443915558,0.316501000000017,
0.520116368652344,-0.1593580625,0.353575701171872,0.648792575083158,0.319465000000037,
-1.32581311132813,1.74163805566406,-0.501154291503909,2.2454930743602,0.322393000000034,
-0.344190430664062,0.848600836425781,-0.118082025878909,0.923327567539774,0.325417000000016,
0.991774095703125,-1.86402964453125,0.377517717773435,2.14493403158044,0.328417000000002,
0.271119395996094,-1.29660385107422,-0.32158916699219,1.36312393634347,0.331536000000028,
-0.825424964355469,1.90204956689453,-0.201879083984377,2.08323644631503,0.334582000000012,
-0.190961524414062,1.20054848046875,0.327239482910153,1.2589156591836,0.337619000000018,
0.419559898925781,-1.72516594824219,-0.0893516059570327,1.77769844665739,0.340663000000006,
0.0747948598632813,-0.990146038574219,-0.467635468261721,1.09757294971339,0.343619000000047,
-0.162231104492187,1.26279772363281,0.219500408203123,1.29195876531657,0.346663000000035,
-0.202932532714844,0.776774786621094,0.197952593261716,0.826889297997831,0.349613000000033,
-0.119135474609375,-0.865647552246094,-0.233003705566409,0.90433935711531,0.352553,
0.0939484731445313,-0.698053436035156,-0.242580512207034,0.744949810436451,0.35556600000001,
0.153803514648438,0.400885125976562,0.178798979980467,0.465116631168476,0.358514000000014,
-0.284335389160156,0.611574872070312,0.0950019218749976,0.681098966991303,0.361544000000038,
-0.267575977539062,-0.329346380371094,-0.230609503906253,0.482956193988041,0.364459000000011,
0.31182082421875,-0.642986797851563,-0.0199197578125023,0.714885337224912,0.367511000000036,
0.122678893066406,0.257233026367187,0.145280156738279,0.319883204623062,0.370507000000032,
-0.380103455566406,0.417644537597656,-0.177937067382814,0.592087152932302,0.373477000000037,
-0.107164466308594,-0.247943523925781,-0.0606211860351582,0.276830529552377,0.376483000000007,
0.244783177734375,-0.25512612890625,0.0471178886718722,0.35669067998102,0.379434000000003,
-0.0401268198242187,0.228502606445312,-0.000766144531251456,0.232000409049099,0.382438000000036,
-0.190961524414062,-0.0420421811523438,-0.118082025878909,0.22842332113481,0.385377000000005,
0.0939484731445313,-0.238366717285156,-0.0414675727539091,0.259546849538944,0.388295000000028,
0.0556412465820313,0.104004120117187,-0.0486501777343769,0.127591712568408,0.391345000000001,
-0.200538331054688,0.12794613671875,-0.0342849677734396,0.240335796623554,0.394285000000025,
-0.0353384165039062,-0.171329070800781,-0.0366791694335955,0.178739519001258,0.39730000000003,
0.239994774414063,-0.1593580625,-0.082169000976565,0.29957341095514,0.400278000000014,
-0.0927992563476562,0.197377984863281,0.0112048637695281,0.218392581969858,0.403253000000007,
-0.387286060546875,0.120763531738281,-0.0103429511718769,0.405809437951811,0.40627900000004,
-0.0760398447265624,-0.212030499023438,-0.0965342109375023,0.245067020187323,0.409204000000045,
0.436319310546875,-0.195271087402344,0.0231758720703095,0.478583806012712,0.41222700000003,
0.2926672109375,0.0800621035156249,0.0638773002929671,0.31007151799222,0.41519500000004,
-0.480659925292969,0.2620214296875,-0.0510443793945328,0.549813352025846,0.418142000000046,
-0.368132447265625,-0.104291424316406,-0.16836026074219,0.418023177961344,0.421154000000001,
0.407588890625,-0.288644952148438,-0.0247081611328142,0.500055102351988,0.42409600000002,
0.232812169433594,0.0345722719726562,-0.00794874951172098,0.235499322386558,0.42715400000003,
-0.475871521972656,0.230896808105469,-0.0941400092773463,0.537242387349141,0.430111000000011,
-0.26278757421875,-0.00134075292968756,0.00162805712890446,0.262796037550433,0.433025000000043,
0.362099059082031,-0.204847894042969,0.00162805712890446,0.416030093685477,0.436041000000046,
0.144226708007813,-0.0492247861328126,-0.0534385810546905,0.161493358432261,0.438962000000004,
-0.332219422363281,0.0800621035156249,-0.0534385810546905,0.345883458638712,0.441976000000011,
-0.195749927734375,0.125551935058594,-0.043861774414065,0.236654131296541,0.444901000000016,
0.204081749511719,-0.128233440917969,-0.118082025878909,0.268396238217106,0.447853000000009,
0.0388818349609376,-0.14020444921875,0.0112048637695281,0.145926809198161,0.450894000000005,
-0.246028162597656,0.0633026918945312,-0.0390733710937532,0.257028823132548,0.453830000000039,
-0.126318079589844,0.0609084902343749,-0.0725921943359396,0.157910506592829,0.456849000000034,
0.122678893066406,-0.128233440917969,-0.0582269843750023,0.186773413212555,0.459809000000007,
0.0245166250000001,-0.0276769711914063,-0.0294965644531278,0.0472982763983856,0.46281300000004,
-0.193355726074219,0.0872447084960937,-0.00316034619140915,0.21215103995575,0.465746000000024,
-0.0544920297851562,-0.00852335791015631,-0.0486501777343769,0.0735450116170868,0.46873400000004,
0.0101514150390625,-0.161752264160156,-0.0582269843750023,0.17221274023033,0.471863000000042,
-0.0185790048828124,0.00344765039062495,-0.0725921943359396,0.0750112817791988,0.474912000000018,
0.00536301171875003,0.0800621035156249,-0.101322614257814,0.129247725218202,0.477978000000007,
-0.0927992563476562,-0.0611957944335938,-0.0558327827148464,0.124394239660524,0.48088800000005,
-0.042521021484375,-0.168934869140625,-0.0630153876953141,0.185251090053542,0.483803000000023,
0.0915542714843751,0.05133168359375,-0.0534385810546905,0.117782886332193,0.486861000000033,
0.0293050283203126,0.0202070620117187,-0.103716815917972,0.109655314254085,0.489822000000004,
-0.0736456430664062,0.149493951660156,0.0423294853515603,0.171941582102066,0.492857000000015,
-0.0688572397460937,-0.0827436093750001,-0.0749863959960955,0.131189877438531,0.495768999999996,
-0.042521021484375,-0.283856548828125,-0.0175255561523464,0.287558207497434,0.498686000000021,
0.053247044921875,0.16625336328125,-0.177937067382814,0.249273000030159,0.501726000000019,
-0.0281558115234375,0.154282354980469,0.111761333496091,0.192578270959335,0.504710000000046,
-0.150260096191406,-0.214424700683594,-0.106111017578128,0.282516542563732,0.507694000000015,
0.0364876333007813,-0.212030499023438,-0.0342849677734396,0.217861742660904,0.510681000000034,
0.0221224233398438,0.202166388183594,-0.0462559760742209,0.208567172508537,0.513640000000009,
-0.0880108530273437,0.0561200869140625,0.0566946953124976,0.118784101976736,0.516671000000031,
-0.116741272949219,-0.14020444921875,-0.0941400092773463,0.205300155229547,0.51961,
0.108313683105469,-0.0420421811523438,-0.113293622558595,0.1622801400553,0.522624000000008,
-0.0281558115234375,0.0609084902343749,-0.0175255561523464,0.0693522820361618,0.525556000000051,
-0.178990516113281,0.0154186586914062,0.0207816704101536,0.180851369138796,0.528485000000046,
-0.0784340463867187,-0.0228885678710938,-0.0390733710937532,0.0905677343230676,0.531452999999999,
0.0891600698242188,-0.0971088193359376,-0.00555454785156506,0.13194883040677,0.534395000000018,
0.00536301171875003,-0.0420421811523438,0.00641646044921629,0.0428658121985143,0.537402000000043,
-0.140683289550781,0.0944273134765624,-0.0534385810546905,0.177662566215758,0.540356000000031,
-0.0880108530273437,0.0154186586914062,-0.101322614257814,0.135092255316434,0.543269000000009,
0.0221224233398438,-0.109079827636719,-0.0342849677734396,0.116461450389858,0.546262000000013,
-0.00421379492187496,-0.0157059628906251,-0.0199197578125023,0.0257143945927968,0.549165000000016,
-0.104770264648437,0.0776679018554687,-0.0486501777343769,0.139197525576861,0.552175000000034,
-0.0281558115234375,-0.0396479794921876,-0.0127371528320328,0.0502687483693679,0.555083000000025,
0.0412760366210938,-0.149781255859375,-0.043861774414065,0.16143726664159,0.558104000000014,
-0.0592804331054687,0.0130244570312499,-0.0630153876953141,0.0874914013862024,0.561029000000019,
-0.121529676269531,0.0944273134765624,0.00641646044921629,0.154036199347018,0.563976000000025,
0.00536301171875003,-0.0564073911132813,-0.106111017578128,0.120291744182084,0.566974000000016,
0.0245166250000001,-0.1593580625,-0.0797747993164091,0.17988906467909,0.569935000000044,
-0.052097828125,0.0369664736328124,-0.0414675727539091,0.0761594607273988,0.572937000000024,
-0.102376062988281,0.12794613671875,0.00641646044921629,0.163988545755275,0.575886000000025,
-0.0113963999023437,-0.0516189877929688,-0.0486501777343769,0.0718417540507695,0.57877400000001,
0.132255699707031,-0.142598650878906,-0.0223139594726582,0.195764803079686,0.581817000000001,
-0.10955866796875,0.05133168359375,-0.0486501777343769,0.13040277321147,0.584761000000015,
-0.12871228125,0.142311346679687,-0.0582269843750023,0.200523695477048,0.587773000000027,
-0.0209732065429687,-0.106685625976563,-0.0271023627929718,0.112054612808518,0.590686000000005,
0.0484586416015626,-0.1210508359375,-0.115687824218753,0.174313560859462,0.593659000000002,
-0.0353384165039062,0.00823605371093744,-0.0701979926757836,0.0790214808608544,0.596682000000044,
-0.0880108530273437,0.05133168359375,-0.0342849677734396,0.107500283750302,0.599615000000028,
-0.0760398447265624,-0.0492247861328126,-0.101322614257814,0.135909564475421,0.602595000000008,
0.04367023828125,-0.0995030209960938,-0.0342849677734396,0.113944723063931,0.605568000000005,
0.0101514150390625,0.0178128603515624,-0.0318907661132837,0.0379126652253799,0.60861600000004,
-0.0473094248046875,0.0561200869140625,-0.0510443793945328,0.0894045552439321,0.611732000000018,
-0.0568862314453125,-0.0157059628906251,-0.082169000976565,0.101165534248864,0.614738000000045,
-0.00900219824218745,-0.125839239257813,-0.0606211860351582,0.139969574931432,0.617781000000036,
-0.0233674082031249,-0.0300711728515626,-0.0534385810546905,0.0656200666560066,0.620694000000015,
-0.0760398447265624,0.0489374819335937,-0.0199197578125023,0.0925944484045846,0.623621000000014,
-0.061674634765625,-0.0372537778320313,-0.0534385810546905,0.0897066691019698,0.626591000000019,
-0.00181959326171871,-0.0875320126953126,-0.0797747993164091,0.118444851184439,0.629553000000044,
-0.0137906015624999,-0.0396479794921876,0.00402225878906037,0.0421701498104373,0.632552000000032,
-0.099981861328125,0.0345722719726562,-0.0199197578125023,0.107649483674082,0.635483000000022,
-0.0497036264648437,-0.0181001645507813,-0.0294965644531278,0.0605649548423805,0.638386000000025,
-0.00421379492187496,-0.0300711728515626,-0.0510443793945328,0.0593932670602079,0.64135600000003,
0.0173340200195313,-0.0707726010742188,0.00402225878906037,0.0729753922813314,0.644321000000048,
-0.0784340463867187,0.0297838686523437,-0.0701979926757836,0.109392580370898,0.64735300000001,
-0.0568862314453125,-0.0707726010742188,0.00641646044921629,0.0910273330135324,0.650299000000018,
0.0173340200195313,-0.0564073911132813,-0.0414675727539091,0.0721236550123809,0.653301999999996,
-0.0257616098632812,-0.0300711728515626,-0.0247081611328142,0.0466736457326998,0.656215000000032,
-0.0473094248046875,0.0154186586914062,0.0279642753906231,0.0570781692883983,0.659150000000011,
-0.042521021484375,-0.0348595761718751,-0.0414675727539091,0.0688678946175806,0.662123000000008,
-0.0353384165039062,-0.0252827695312501,0.0566946953124976,0.0714304598385786,0.665046000000018,
-0.0377326181640625,-0.0468305844726563,0.030358477050779,0.0673683252308398,0.668023000000005,
-0.0281558115234375,0.00344765039062495,-0.0462559760742209,0.054260955929086,0.670955000000049,
-0.0712514414062499,0.00823605371093744,-0.0247081611328142,0.0758623339330054,0.673868000000027,
-0.042521021484375,-0.0827436093750001,-0.0318907661132837,0.0983441056890012,0.676859000000036,
-0.0185790048828124,-0.0707726010742188,-0.0271023627929718,0.0780287033995052,0.679770000000019,
0.00536301171875003,0.00344765039062495,-0.0654095893554718,0.0657195752235426,0.68280100000004,
-0.0832224497070312,-0.0109175595703126,0.0327526787109349,0.0900994295484294,0.685734000000025,
-0.0233674082031249,-0.0276769711914063,-0.0247081611328142,0.0438468211735641,0.688629000000049,
-0.0161848032226562,-0.0444363828125001,-0.0893516059570327,0.101095249442869,0.691608000000031,
0.0269108266601563,-0.0372537778320313,-0.0678037910156277,0.0819108700380007,0.694540000000018,
-0.102376062988281,0.0010534487304687,-0.0199197578125023,0.104301317242483,0.697538000000009,
-0.0377326181640625,-0.00852335791015631,0.0327526787109349,0.0506866458381425,0.700468999999998,
-0.00660799658203121,0.0010534487304687,-0.0223139594726582,0.0232956682755249,0.703401000000042,
-0.0449152231445312,-0.0444363828125001,-0.0725921943359396,0.0962371865033933,0.706389999999999,
-0.0497036264648437,-0.0109175595703126,-0.082169000976565,0.0966508577934763,0.709294,
-0.0688572397460937,-0.0157059628906251,-0.0294965644531278,0.0765378602412573,0.712283000000014,
0.00536301171875003,-0.0492247861328126,-0.0462559760742209,0.0677602891603591,0.715203000000031,
-0.0377326181640625,-0.0492247861328126,-0.0199197578125023,0.0651431254595972,0.718097,
-0.00900219824218745,-0.00373495458984381,-0.0199197578125023,0.0221762532969072,0.721073000000047,
-0.0377326181640625,-0.0204943662109376,-0.0701979926757836,0.0822892927154702,0.723974999999996,
-0.0449152231445312,-0.0181001645507813,-0.0630153876953141,0.0794728400982319,0.72695600000003,
0.000574608398437537,0.0010534487304687,-0.0845632026367209,0.0845717161302666,0.729911000000016,
-0.0568862314453125,0.00344765039062495,-0.00316034619140915,0.0570781692883995,0.732825000000048,
-0.0927992563476562,-0.0181001645507813,-0.0151313544921905,0.0957511139580721,0.735798000000045,
-0.0592804331054687,-0.0133117612304688,-0.0318907661132837,0.0686177360419383,0.738709000000028,
0.0125456166992188,-0.0635899960937501,-0.0630153876953141,0.090399221168977,0.741721000000041,
-0.0664630380859375,0.0010534487304687,-0.118082025878909,0.135505756414655,0.744742000000031,
-0.061674634765625,-0.0372537778320313,-0.082169000976565,0.109285631524544,0.747818000000052,
-0.0281558115234375,-0.0228885678710938,-0.0486501777343769,0.0606916473274491,0.750831000000005,
-0.00660799658203121,-0.0755610043945313,-0.0294965644531278,0.0813829117104816,0.753798000000018,
-0.0568862314453125,-0.0300711728515626,-0.0318907661132837,0.0718146205727662,0.756782000000044,
-0.0209732065429687,-0.0300711728515626,-0.0534385810546905,0.0648061167985037,0.759703000000002,
-0.0449152231445312,0.00823605371093744,-0.0582269843750023,0.0739972402205599,0.762715000000014,
-0.0137906015624999,-0.0444363828125001,-0.0606211860351582,0.0764179364104,0.765655000000038,
-0.0497036264648437,-0.00852335791015631,-0.043861774414065,0.0668352703934956,0.768552999999997,
-0.0377326181640625,0.0010534487304687,-0.0294965644531278,0.0479051932704606,0.771574000000044,
-0.00660799658203121,-0.0276769711914063,-0.0630153876953141,0.0691420236871095,0.774478000000045,
-0.03294421484375,-0.0157059628906251,0.0255700737304672,0.0445626214733197,0.777479000000028,
0.0269108266601563,-0.00134075292968756,0.0279642753906231,0.0388328586132164,0.780440999999996,
-0.061674634765625,0.0178128603515624,-0.0103429511718769,0.0650233435492311,0.783362000000011,
-0.03294421484375,0.00344765039062495,-0.0127371528320328,0.0354886270113919,0.786405000000002,
-0.0305500131835937,-0.0372537778320313,0.00162805712890446,0.0482057863569414,0.789348000000018,
-0.0137906015624999,-0.00134075292968756,-0.0247081611328142,0.0283279285589187,0.792325000000005,
-0.0401268198242187,-0.00612915625000006,-0.0318907661132837,0.0516212087114821,0.795249000000013,
-0.0377326181640625,-0.0228885678710938,-0.0151313544921905,0.0466539912705541,0.798136,
-0.0401268198242187,-0.00134075292968756,-0.0342849677734396,0.0527960065047497,0.801122000000021,
-0.0473094248046875,-0.00612915625000006,-0.0247081611328142,0.0537237513419568,0.804018000000042,
-0.0473094248046875,-0.00852335791015631,0.0207816704101536,0.0523708614637114,0.807027000000005,
-0.0592804331054687,-0.0540131894531251,-0.043861774414065,0.0914081486456293,0.809934999999996,
-0.03294421484375,-0.0252827695312501,-0.043861774414065,0.0604019451805303,0.812827000000027,
-0.0305500131835937,0.0154186586914062,-0.0294965644531278,0.0451783759767585,0.815850000000012,
0.00536301171875003,-0.0276769711914063,-0.0366791694335955,0.0462616266398383,0.818785000000048,
-0.061674634765625,0.00344765039062495,-0.0414675727539091,0.0743989681164326,0.821793000000014,
-0.0137906015624999,-0.0659841977539063,-0.0414675727539091,0.079143253880435,0.824712000000034,
-0.0401268198242187,0.00823605371093744,-0.0366791694335955,0.0549850499706344,0.827633000000048,
-0.0281558115234375,0.0369664736328124,-0.0366791694335955,0.0591999270753534,0.830641000000014,
-0.0233674082031249,0.00823605371093744,-0.118082025878909,0.120653359599011,0.83358000000004,
-0.0281558115234375,-0.0276769711914063,-0.0701979926757836,0.0805389510273299,0.836566000000005,
-0.0257616098632812,-0.00612915625000006,-0.0582269843750023,0.0639656846167661,0.83947500000005,
-0.0257616098632812,-0.0109175595703126,-0.0725921943359396,0.0777976884504035,0.842450000000042,
-0.0449152231445312,-0.0109175595703126,-0.0486501777343769,0.0671074524228183,0.845361000000025,
-0.0377326181640625,-0.0157059628906251,-0.0151313544921905,0.0435819415882882,0.848259000000041,
-0.0257616098632812,-0.0252827695312501,-0.0845632026367209,0.0919446258249895,0.851235000000031,
-0.0161848032226562,-0.0492247861328126,-0.0127371528320328,0.0533597459462074,0.854140000000029,
-0.03294421484375,0.022601263671875,-0.0390733710937532,0.0558826157214112,0.85713800000002,
-0.0137906015624999,-0.0252827695312501,0.0351468803710908,0.0454389956584177,0.860058000000038,
-0.0185790048828124,-0.0396479794921876,-0.101322614257814,0.110378502709025,0.862942000000032,
-0.0449152231445312,-0.0204943662109376,-0.0941400092773463,0.106300224191908,0.865934000000038,
-0.00181959326171871,-0.00134075292968756,-0.0654095893554718,0.0654486280811753,0.868836000000044,
-0.00421379492187496,-0.0348595761718751,-0.0534385810546905,0.0639423808101098,0.871822000000009,
-0.00900219824218745,-0.0348595761718751,-0.0318907661132837,0.0480962637568301,0.87472600000001,
-0.0185790048828124,-0.0540131894531251,0.00162805712890446,0.0571424065589622,0.877638000000047,
-0.03294421484375,-0.0396479794921876,-0.0749863959960955,0.0909958414102937,0.880642000000023,
-0.0257616098632812,0.0273896669921875,0.00402225878906037,0.0378157766872109,0.883713999999998,
0.000574608398437537,-0.0300711728515626,-0.113293622558595,0.117217961609685,0.886815000000013,
-0.061674634765625,-0.0157059628906251,-0.0366791694335955,0.0734561046757404,0.88982900000002,
-0.0137906015624999,-0.0300711728515626,-0.0271023627929718,0.0427667417169703,0.892754000000025,
-0.0137906015624999,-0.0181001645507813,-0.0247081611328142,0.0335900264183596,0.895747000000028,
-0.0137906015624999,0.0154186586914062,0.00402225878906037,0.021073544862312,0.898702000000014,
-0.0281558115234375,0.00344765039062495,-0.0414675727539091,0.0502413734471905,0.901734000000033,
-0.0377326181640625,-0.0204943662109376,-0.0294965644531278,0.0520943071212247,0.904664000000025,
-0.0353384165039062,0.0130244570312499,-0.0414675727539091,0.0560178520836275,0.907594000000017,
-0.0449152231445312,0.00584185205078119,-0.000766144531251456,0.0453000163680877,0.910593000000006,
-0.0161848032226562,-0.00612915625000006,-0.0294965644531278,0.0341988556274993,0.91352500000005,
-0.042521021484375,-0.0133117612304688,-0.0749863959960955,0.0872249954979359,0.916496000000052,
-0.0137906015624999,-0.0133117612304688,-0.0606211860351582,0.0635791779973751,0.919435000000021,
-0.0592804331054687,0.00823605371093744,-0.0582269843750023,0.0835008026267302,0.922383000000025,
-0.0305500131835937,-0.0420421811523438,-0.0175255561523464,0.054845176816319,0.92539400000004,
-0.0688572397460937,-0.00852335791015631,0.0159932670898417,0.071202188784634,0.928326000000027,
-0.0664630380859375,-0.00373495458984381,-0.0630153876953141,0.0916636482134096,0.931322000000023,
-0.061674634765625,-0.0420421811523438,-0.0486501777343769,0.0890962701975015,0.934240000000045,
-0.00181959326171871,-0.0181001645507813,-0.0558327827148464,0.0587216016648618,0.93721000000005,
-0.0401268198242187,0.00823605371093744,-0.0869574042968768,0.0961227569932597,0.940138000000047,
-0.0473094248046875,-0.00612915625000006,-0.11089942089844,0.120724603073676,0.943026000000032,
-0.0281558115234375,-0.0204943662109376,0.00402225878906037,0.0350563451417504,0.94602500000002,
-0.042521021484375,-0.0468305844726563,-0.0342849677734396,0.0719485922402313,0.948934000000008,
-0.0449152231445312,0.0345722719726562,-0.0271023627929718,0.0628264062989139,0.951934000000051,
-0.0497036264648437,-0.0181001645507813,-0.00555454785156506,0.0531875872958851,0.954844000000037,
-0.042521021484375,-0.0300711728515626,-0.0462559760742209,0.0696557824399535,0.957738000000006,
-0.0353384165039062,-0.0228885678710938,-0.113293622558595,0.120864118466329,0.960729000000015,
-0.0568862314453125,-0.00373495458984381,-0.0725921943359396,0.0923017870484893,0.963637000000006,
-0.0401268198242187,-0.0348595761718751,-0.11089942089844,0.122979808406491,0.966620000000034,
0.00775721337890628,-0.00852335791015631,-0.0414675727539091,0.0430393027310068,0.969545000000039,
-0.00660799658203121,-0.0348595761718751,-0.0869574042968768,0.0939172286205326,0.972432000000026,
-0.0473094248046875,-0.0372537778320313,-0.0654095893554718,0.0889069177160033,0.975410000000011,
0.0221224233398438,-0.0133117612304688,0.0279642753906231,0.038060547810126,0.978380000000016,
-0.00660799658203121,-0.0300711728515626,-0.0390733710937532,0.0497460489298079,0.981352000000015,
-0.042521021484375,-0.0181001645507813,-0.0486501777343769,0.0671006186143354,0.984263999999996,
-0.0233674082031249,-0.0468305844726563,-0.0271023627929718,0.0589379120528029,0.987153000000035,
-0.0281558115234375,-0.0181001645507813,-0.00555454785156506,0.0339296136309275,0.990138000000002,
-0.03294421484375,0.00584185205078119,-0.0103429511718769,0.0350203535961333,0.993055000000027,
-0.0353384165039062,-0.00612915625000006,-0.00555454785156506,0.036293570218095,0.996042000000045,
-0.0592804331054687,0.0130244570312499,0.00402225878906037,0.060827500325897,0.998974000000032,
-0.0377326181640625,-0.0396479794921876,-0.0103429511718769,0.0557017898300557,1.00186500000001,
-0.0233674082031249,-0.0348595761718751,-0.0582269843750023,0.0717746997654535,1.00484700000004,
-0.0401268198242187,-0.0372537778320313,-0.0414675727539091,0.0686845340820217,1.00776100000002,
