X,Y,Z,Magnitude,Seconds,
-0.03294421484375,0.707342938476562,-0.0366791694335955,0.709059035183015,0.0,
-0.0353384165039062,0.652276300292969,-0.0941400092773463,0.659981451975452,0.00378699999998844,
-0.0353384165039062,0.709737140136719,-0.0558327827148464,0.712806363184375,0.00752299999999195,
-0.061674634765625,0.688189325195312,-0.0534385810546905,0.693010815089773,0.0112459999999146,
-0.0353384165039062,0.676218316894531,-0.0390733710937532,0.678267457654653,0.0150119999999561,
-0.0784340463867187,0.7217081484375,-0.0869574042968768,0.731147140673975,0.0187499999999545,
-0.0353384165039062,0.728890753417969,-0.11089942089844,0.738125474194481,0.0225459999999202,
-0.0473094248046875,0.690583526855469,-0.0606211860351582,0.694851579429591,0.0262839999999187,
-0.0449152231445312,0.697766131835937,-0.101322614257814,0.706513428157914,0.0300169999999298,
-0.0161848032226562,0.681006720214844,-0.0342849677734396,0.682061258134752,0.0337339999999813,
-0.00660799658203121,0.676218316894531,-0.0534385810546905,0.67835872491451,0.0374539999999115,
-0.0233674082031249,0.676218316894531,-0.0797747993164091,0.681308495819462,0.0411419999999225,
-0.00660799658203121,0.695371930175781,-0.103716815917972,0.703095274340101,0.0449209999999312,
-0.0209732065429687,0.669035711914063,-0.115687824218753,0.679288106683401,0.0486579999999321,
-0.052097828125,0.657064703613281,-0.043861774414065,0.66058463779027,0.0526099999999587,
-0.0161848032226562,0.731284955078125,-0.0175255561523464,0.731673956415985,0.0564190000000053,
-0.03294421484375,0.659458905273438,-0.108505219238284,0.669137318969776,0.0601799999999457,
-0.0401268198242187,0.695371930175781,-0.0175255561523464,0.69674918590842,0.0639589999999544,
-0.0544920297851562,0.652276300292969,-0.0294965644531278,0.655212790281544,0.0677309999999807,
-0.0305500131835937,0.728890753417969,-0.0606211860351582,0.732045054569759,0.0716599999999517,
-0.00660799658203121,0.704948736816406,-0.118082025878909,0.71480049803672,0.0754539999999224,
-0.0664630380859375,0.685795123535156,-0.0151313544921905,0.689174321042928,0.0792000000000144,
-0.00660799658203121,0.700160333496094,-0.0630153876953141,0.703021406008793,0.0829850000000079,
-0.052097828125,0.688189325195312,-0.0390733710937532,0.691263668462875,0.0867680000000064,
-0.0449152231445312,0.659458905273438,-0.0223139594726582,0.661363241949469,0.0905319999999392,
-0.0592804331054687,0.704948736816406,-0.0558327827148464,0.709636661196349,0.0943439999999782,
-0.0377326181640625,0.70255453515625,-0.0725921943359396,0.707302093889617,0.0981140000000096,
-0.0137906015624999,0.671429913574219,-0.0342849677734396,0.672446108285983,0.101851000000011,
-0.0185790048828124,0.676218316894531,-0.0749863959960955,0.680616890115571,0.105585000000019,
-0.116741272949219,0.688189325195312,-0.0223139594726582,0.69837739432912,0.109299999999962,
-0.0592804331054687,0.690583526855469,-0.0797747993164091,0.697698929280591,0.112998999999945,
-0.00181959326171871,0.683400921875,-0.0103429511718769,0.683481607344471,0.116692999999941,
-0.0401268198242187,0.659458905273438,-0.0678037910156277,0.664148751026257,0.120609999999942,
0.000574608398437537,0.673824115234375,-0.0294965644531278,0.674469655181564,0.124600999999984,
-0.03294421484375,0.630728485351562,-0.0606211860351582,0.634490875995752,0.128397999999947,
-0.0544920297851562,0.733679156738281,-0.0414675727539091,0.736867726211701,0.132204000000002,
-0.0856166513671875,0.685795123535156,-0.0534385810546905,0.693181682101503,0.13602800000001,
-0.0473094248046875,0.671429913574219,-0.0366791694335955,0.674093222030879,0.139855000000011,
-0.0377326181640625,0.695371930175781,-0.0486501777343769,0.6980921941574,0.143766999999912,
-0.0592804331054687,0.669035711914063,-0.0582269843750023,0.674176041753884,0.147581999999943,
0.00536301171875003,0.666641510253906,-0.0414675727539091,0.667951513718178,0.151389999999992,
-0.114347071289062,0.7217081484375,-0.0630153876953141,0.733422690758788,0.155185999999958,
0.0364876333007813,0.673824115234375,-0.118082025878909,0.685064705331509,0.159011999999962,
-0.042521021484375,0.704948736816406,-0.0223139594726582,0.706582388398175,0.162779,
-0.042521021484375,0.673824115234375,-0.0845632026367209,0.680439498250684,0.166602000000012,
-0.0688572397460937,0.630728485351562,-0.0965342109375023,0.641777683922286,0.170377999999914,
-0.052097828125,0.692977728515625,-0.101322614257814,0.702280989401005,0.174113999999918,
-0.0233674082031249,0.74086176171875,-0.0127371528320328,0.741339612327176,0.177864,
-0.0377326181640625,0.647487896972656,-0.0582269843750023,0.651194831758511,0.181606999999985,
-0.0592804331054687,0.74086176171875,-0.0342849677734396,0.744020012325883,0.185336000000007,
-0.0113963999023437,0.697766131835937,-0.082169000976565,0.702680010665956,0.18909199999996,
-0.0832224497070312,0.657064703613281,-0.0965342109375023,0.669312225161751,0.193133999999986,
-0.0544920297851562,0.704948736816406,-0.0965342109375023,0.713611208383444,0.197045000000003,
-0.0497036264648437,0.688189325195312,-0.122870429199221,0.700836742878209,0.200764999999933,
-0.0904050546875,0.630728485351562,-0.0678037910156277,0.640772073535526,0.204518000000007,
-0.0712514414062499,0.700160333496094,-0.0151313544921905,0.703939072926484,0.20824099999993,
-0.0305500131835937,0.728890753417969,-0.0630153876953141,0.7322472074444,0.212038000000007,
-0.0401268198242187,0.635516888671875,0.00162805712890446,0.636784522445702,0.215914999999995,
-0.0497036264648437,0.724102350097656,-0.0366791694335955,0.726732430383455,0.219699999999989,
-0.0497036264648437,0.724102350097656,-0.0342849677734396,0.726615526200708,0.223464999999919,
-0.0544920297851562,0.688189325195312,-0.0725921943359396,0.694149519413068,0.227260999999999,
-0.052097828125,0.728890753417969,-0.0582269843750023,0.733066365224161,0.231044999999995,
-0.00900219824218745,0.700160333496094,-0.0749863959960955,0.704221905196818,0.234819000000016,
-0.0401268198242187,0.683400921875,-0.0510443793945328,0.686478339320753,0.238590999999928,
-0.114347071289062,0.683400921875,-0.0606211860351582,0.695547986071626,0.242453999999952,
-0.0544920297851562,0.716919745117187,-0.0175255561523464,0.719201256511311,0.246201999999926,
-0.0473094248046875,0.716919745117187,-0.0534385810546905,0.720463590030324,0.24994700000002,
-0.0449152231445312,0.709737140136719,-0.101322614257814,0.718338678841401,0.253687000000014,
-0.0353384165039062,0.669035711914063,-0.0701979926757836,0.673635914773752,0.257392999999979,
-0.0305500131835937,0.692977728515625,-0.13005303417969,0.705737364196864,0.261148999999932,
-0.0209732065429687,0.66424730859375,-0.0342849677734396,0.665462111154317,0.265192999999954,
-0.0137906015624999,0.695371930175781,-0.0917458076171904,0.701533744864192,0.269040000000018,
-0.052097828125,0.692977728515625,-0.082169000976565,0.699774292636922,0.272844999999961,
-0.03294421484375,0.652276300292969,-0.0989284125976582,0.660557737093925,0.276634999999942,
-0.0353384165039062,0.704948736816406,-0.0797747993164091,0.710327772106669,0.280484999999999,
-0.0473094248046875,0.669035711914063,-0.0678037910156277,0.674124854583925,0.284331999999949,
-0.03294421484375,0.681006720214844,-0.108505219238284,0.690383123252153,0.288207999999941,
-0.0640688364257812,0.66424730859375,-0.082169000976565,0.672369725297385,0.292032999999947,
-0.042521021484375,0.676218316894531,-0.0342849677734396,0.678420745840642,0.29585499999996,
-0.0784340463867187,0.669035711914063,0.727071160156248,0.991157482633261,0.299684999999954,
-0.126318079589844,-0.513699908203125,-1.12843512646485,1.24627833470654,0.303473999999937,
-0.511784546875,3.84614131494141,4.46681415332031,5.91668446997319,0.306438999999955,
0.740382921386719,2.15583494287109,-3.10604569775391,3.85270178546442,0.309374999999932,
-0.0233674082031249,-3.35801148046875,-1.5522088203125,3.69947825518437,0.312367999999992,
-0.878097400878906,-0.954233013671875,0.715100151855466,1.48087268763905,0.315300999999977,
-0.107164466308594,4.23400198388672,2.08458350146484,4.7205662157177,0.318294999999921,
0.48420334375,2.1007683046875,-1.8371188178711,2.83243462396829,0.321252999999956,
0.862487206054688,-1.35645889257813,-0.302435553710939,1.63564426817408,0.324168999999983,
-0.679378663085938,-0.264702935546875,0.300903264648435,0.788774864343214,0.327144999999973,
-1.34736092626953,1.24603831201172,0.528352422363279,1.9097510892407,0.33007299999997,
0.740382921386719,0.812687811523437,-0.453270258300783,1.18915191474426,0.333107999999925,
0.718835106445313,1.89726116357422,-0.295252948730472,2.05024343354619,0.336060999999972,
-0.0712514414062499,0.278780841308594,0.382306121093748,0.478490852168506,0.339022,
-0.873308997558594,-0.997328643554688,-0.113293622558595,1.33047678423334,0.342012999999952,
-0.404045472167969,1.19815427880859,-0.189908075683595,1.27862875637013,0.344976999999972,
0.639826451660156,2.25878561425781,-0.0893516059570327,2.34935609240259,0.347990999999979,
0.699681493164063,0.39609672265625,0.166827971679686,0.821144553480124,0.350971999999956,
-0.710503284667969,-0.841705535644531,-0.0941400092773463,1.10550688265852,0.353860999999938,
-0.940346644042969,1.12393402734375,-0.278493537109377,1.49165617988721,0.356973999999923,
0.532087376953125,1.90444376855469,-0.00316034619140915,1.97738034583327,0.36003699999992,
0.797843761230469,0.266809833007812,0.111761333496091,0.848665275588004,0.363183999999933,
-0.2819411875,-0.192876885742188,-0.106111017578128,0.357703612385982,0.366140999999971,
-0.997807483886719,1.10717461572266,-0.113293622558595,1.49475444455382,0.369163999999955,
0.137044103027344,1.15984705224609,-0.0558327827148464,1.16924914813063,0.372117000000003,
0.7523539296875,0.499047394042969,-0.0701979926757836,0.905545413103623,0.375095999999985,
0.0508528432617188,0.386519916015625,-0.0366791694335955,0.391572494711854,0.378153999999995,
-0.693743873046875,0.831841424804687,-0.216244293945314,1.10453714834544,0.381100999999944,
-0.423199085449219,1.03056016259766,-0.0223139594726582,1.11429333097067,0.384121999999934,
0.42674250390625,0.458345965820313,-0.0247081611328142,0.626738128926664,0.387106000000017,
0.520116368652344,0.443980755859375,0.0183874687499976,0.684089210206238,0.390067999999928,
-0.284335389160156,0.927609491210938,-0.149206647460939,0.981615304159427,0.393101999999999,
-0.882885804199219,0.891696466308594,-0.0941400092773463,1.2583609468791,0.396058999999923,
0.0484586416015626,0.391308319335937,-0.0390733710937532,0.396228682778033,0.399123999999915,
0.860093004394531,0.487076385742188,-0.0462559760742209,0.989516547147476,0.402107999999998,
0.0460644399414063,0.992252936035156,-0.0366791694335955,0.993998583081406,0.405068999999912,
-0.91401042578125,0.783957391601563,-0.0893516059570327,1.20747172214121,0.408083999999917,
-0.332219422363281,0.364972101074219,-0.151600849121095,0.516291774689622,0.411032999999975,
0.711652501464844,0.6450936953125,-0.0151313544921905,0.960637349087508,0.414072999999917,
0.491385948730469,0.91324428125,-0.0127371528320328,1.03712945330264,0.417041999999924,
-0.624312024902344,0.676218316894531,-0.0941400092773463,0.925148127538545,0.419961999999941,
-0.753598914550781,0.501441595703125,-0.156389252441409,0.91859272596325,0.422965999999974,
0.386041075683594,0.771986383300781,-0.00316034619140915,0.863134216622662,0.425944999999956,
0.737988719726563,0.815082013183594,-0.0318907661132837,1.10000139073656,0.428990999999996,
-0.269970179199219,0.601998065429687,-0.0294965644531278,0.660420786887029,0.431936999999948,
-0.734445301269531,0.594815460449219,-0.156389252441409,0.957952467936427,0.434848999999986,
0.0652180532226563,0.752832770019531,-0.0103429511718769,0.755723197156457,0.437884999999937,
0.558423595214844,0.793534198242187,0.0112048637695281,0.970391150229966,0.440864999999917,
-0.0281558115234375,0.676218316894531,-0.0510443793945328,0.678726373801688,0.443861999999967,
-0.514178748535156,0.582844452148437,-0.0701979926757836,0.780394258705881,0.446831999999972,
-0.123923877929687,0.649882098632813,-0.0773805976562532,0.666101813943004,0.449750999999992,
0.354916454101563,0.848600836425781,0.0135990654296858,0.919931521122699,0.452784999999949,
0.122678893066406,0.726496551757812,-0.0366791694335955,0.737694185953996,0.455736000000002,
-0.313065809082031,0.534960418945312,-0.137235639160158,0.634843658950791,0.458740999999918,
-0.286729590820312,0.669035711914063,-0.0582269843750023,0.730214368372567,0.461683999999991,
0.244783177734375,0.81747621484375,-0.0247081611328142,0.853695882128741,0.464707999999973,
0.220841161132813,0.733679156738281,-0.0989284125976582,0.772555987810448,0.467669000000001,
-0.0975876596679687,0.590027057128906,-0.0701979926757836,0.602148683997049,0.470600999999988,
-0.303489002441406,0.5684792421875,-0.00794874951172098,0.644466760989079,0.473601999999914,
-0.00660799658203121,0.755226971679688,-0.101322614257814,0.762022123387069,0.476545999999985,
0.225629564453125,0.836629828125,-0.0869574042968768,0.870872987194932,0.479561999999987,
-0.0760398447265624,0.690583526855469,-0.0103429511718769,0.694834255192648,0.482517999999914,
-0.315460010742187,0.575661847167969,-0.108505219238284,0.665338232227975,0.485441999999921,
-0.0113963999023437,0.621151678710937,-0.0845632026367209,0.626985024650772,0.488462999999911,
0.220841161132813,0.678612518554687,-0.000766144531251456,0.713643017037978,0.491436000000022,
-0.107164466308594,0.901273272949219,0.0327526787109349,0.908212790778981,0.494513999999981,
-0.2819411875,0.613969073730469,-0.108505219238284,0.684267666420318,0.497572999999988,
-0.0712514414062499,0.506229999023437,0.0830309135742162,0.517918634944435,0.500646999999958,
0.12028469140625,0.688189325195312,-0.120476227539065,0.708934041855461,0.503774000000021,
-0.0377326181640625,1.11196301904297,0.0495120903320281,1.11370415877903,0.506765999999971,
-0.219691944335937,0.62594008203125,-0.177937067382814,0.686823948802157,0.509781999999973,
-0.274758582519531,0.099215716796875,0.0088106621093722,0.292256163141969,0.51275499999997,
0.223235362792969,0.829447223144531,-0.132447235839846,0.869113912824492,0.515709000000015,
0.141832506347656,1.38729620996094,-0.0510443793945328,1.395461487357,0.51878499999998,
-0.284335389160156,0.24286781640625,-0.0486501777343769,0.377091805225709,0.521738999999911,
-0.303489002441406,0.206954791503906,-0.156389252441409,0.399241103355464,0.524765000000002,
0.0963426748046876,1.20054848046875,-0.0797747993164091,1.20704705109218,0.527741999999989,
0.23520637109375,1.27716293359375,0.0806367119140603,1.30114160461389,0.530708000000004,
-0.0592804331054687,0.238079413085937,-0.0869574042968768,0.260302836800844,0.533746999999948,
-0.274758582519531,0.539748822265625,-0.115687824218753,0.616607446012242,0.536738000000014,
-0.159836902832031,1.00422394433594,0.00162805712890446,1.01686587928526,0.53979199999992,
0.218446959472656,0.719313946777344,-0.0462559760742209,0.753174112309914,0.542765999999915,
0.170562926269531,0.534960418945312,-0.0175255561523464,0.561766416559604,0.54571199999998,
-0.143077491210937,0.5684792421875,-0.0366791694335955,0.58735438941037,0.548733999999968,
-0.351373035644531,0.757621173339844,-0.0989284125976582,0.840975435604386,0.55168500000002,
-0.00900219824218745,0.776774786621094,-0.118082025878909,0.785750261558407,0.554709000000003,
0.259148387695313,0.611574872070312,-0.0199197578125023,0.664513737814507,0.557677000000012,
-0.10955866796875,0.604392267089844,-0.137235639160158,0.629385998335509,0.560687999999914,
-0.296306397460937,0.688189325195312,-0.103716815917972,0.756412061242562,0.563629999999989,
-0.135894886230469,0.774380584960937,-0.0486501777343769,0.787717938263197,0.566572999999948,
0.189716539550781,0.640305291992187,-0.113293622558595,0.6773615557771,0.569623999999976,
0.0747948598632813,0.51101840234375,-0.0678037910156277,0.520894838400245,0.572604999999953,
-0.210115137695312,0.733679156738281,-0.082169000976565,0.767584015494332,0.575614999999971,
-0.207720936035156,0.870148651367188,-0.0678037910156277,0.897164431316549,0.578569000000016,
0.0963426748046876,0.666641510253906,-0.0103429511718769,0.673646636465346,0.581518999999957,
0.0819774648437501,0.482287982421875,-0.0199197578125023,0.489610865363586,0.584573999999975,
-0.174202112792969,0.700160333496094,-0.0654095893554718,0.724464825290053,0.587530000000015,
-0.205326734375,0.901273272949219,-0.0845632026367209,0.928226004603339,0.590558999999985,
0.0269108266601563,0.657064703613281,-0.0342849677734396,0.658508675980179,0.593542999999954,
0.149015111328125,0.463134369140625,-0.0534385810546905,0.489443182840007,0.596508999999969,
-0.0856166513671875,0.692977728515625,-0.0247081611328142,0.698683645462359,0.599532999999951,
-0.183778919433594,0.891696466308594,-0.043861774414065,0.911493902618203,0.602490999999986,
0.00296881005859378,0.659458905273438,-0.0366791694335955,0.660484839377819,0.605524999999943,
0.113102086425781,0.482287982421875,-0.0175255561523464,0.495682282375391,0.60850999999991,
-0.0640688364257812,0.762409576660156,-0.0558327827148464,0.767131330353386,0.611446000000001,
-0.200538331054688,0.85578344140625,-0.113293622558595,0.886237194953909,0.614464999999996,
-0.0113963999023437,0.582844452148437,-0.00555454785156506,0.582982320772064,0.617416999999932,
0.0604296499023438,0.542143023925781,-0.0414675727539091,0.547074364752006,0.620469999999955,
-0.0784340463867187,0.781563189941406,-0.0989284125976582,0.791694227794464,0.623418000000015,
-0.0664630380859375,0.757621173339844,-0.122870429199221,0.770392315704184,0.626357999999982,
-0.00660799658203121,0.635516888671875,-0.0414675727539091,0.636902615001783,0.629369999999994,
-0.0568862314453125,0.628334283691406,-0.0582269843750023,0.633585351077066,0.632323999999926,
-0.0975876596679687,0.783957391601563,-0.0414675727539091,0.791095507986424,0.635417999999959,
-0.0592804331054687,0.700160333496094,-0.106111017578128,0.71063226101972,0.638476999999966,
-0.00900219824218745,0.604392267089844,-0.043861774414065,0.606048601471815,0.641510999999923,
0.0101514150390625,0.683400921875,-0.0845632026367209,0.688687742367377,0.644607999999948,
-0.0401268198242187,0.748044366699219,-0.0582269843750023,0.75137934356026,0.647557000000006,
-0.0880108530273437,0.733679156738281,-0.11089942089844,0.747214625685556,0.650580999999988,
-0.0353384165039062,0.62594008203125,-0.043861774414065,0.628469287419076,0.653527999999937,
0.0316992299804688,0.690583526855469,-0.0582269843750023,0.693758481357093,0.656599999999912,
-0.00181959326171871,0.762409576660156,-0.0127371528320328,0.762518136548255,0.659549999999967,
-0.0736456430664062,0.7217081484375,-0.132447235839846,0.73744735577895,0.662495999999919,
-0.0832224497070312,0.657064703613281,-0.142024042480472,0.677370526013749,0.665524000000005,
0.04367023828125,0.681006720214844,-0.0773805976562532,0.686778712237762,0.668503999999984,
0.00536301171875003,0.719313946777344,-0.0462559760742209,0.720819624625796,0.671554000000015,
-0.102376062988281,0.714525543457031,-0.0342849677734396,0.722636194458022,0.674525000000017,
-0.0377326181640625,0.649882098632813,-0.0725921943359396,0.65501154132993,0.677493999999911,
-0.0281558115234375,0.657064703613281,-0.0773805976562532,0.662204297290943,0.680538999999953,
-0.0377326181640625,0.724102350097656,-0.0797747993164091,0.729460062303919,0.683486000000016,
-0.0449152231445312,0.750438568359375,-0.0845632026367209,0.756522542553473,0.686520999999971,
-0.116741272949219,0.635516888671875,-0.0510443793945328,0.648163381613585,0.689468999999917,
-0.0497036264648437,0.659458905273438,-0.0390733710937532,0.662482623588595,0.692418999999973,
-0.03294421484375,0.733679156738281,-0.103716815917972,0.741705874473183,0.695426999999995,
-0.0544920297851562,0.70255453515625,-0.0797747993164091,0.709165900748685,0.698381999999924,
-0.0856166513671875,0.654670501953125,-0.0247081611328142,0.660707325784611,0.701402999999914,
-0.0305500131835937,0.652276300292969,-0.0342849677734396,0.653890766294055,0.704360999999949,
-0.0568862314453125,0.70255453515625,0.0112048637695281,0.70494288220306,0.707325999999966,
-0.0257616098632812,0.697766131835937,-0.0271023627929718,0.698767324185237,0.710345999999959,
-0.0353384165039062,0.666641510253906,-0.0845632026367209,0.672912061204725,0.713296000000014,
-0.052097828125,0.671429913574219,0.0471178886718722,0.675094369677692,0.716324999999983,
-0.0760398447265624,0.736073358398437,-0.0366791694335955,0.740899054122984,0.71926499999995,
-0.0880108530273437,0.716919745117187,-0.0462559760742209,0.72378135269712,0.722212000000013,
-0.0353384165039062,0.66424730859375,-0.0294965644531278,0.66584032467971,0.72523000000001,
-0.0401268198242187,0.657064703613281,0.0279642753906231,0.658882529060937,0.728197000000023,
-0.0544920297851562,0.690583526855469,-0.118082025878909,0.702722102761761,0.731225999999992,
-0.0640688364257812,0.733679156738281,0.0088106621093722,0.736523963357578,0.734196999999995,
-0.0497036264648437,0.688189325195312,-0.0486501777343769,0.691694902099273,0.737120000000004,
-0.0305500131835937,0.654670501953125,-0.0223139594726582,0.655762672176773,0.740141999999992,
-0.0377326181640625,0.716919745117187,-0.0797747993164091,0.722330734510433,0.743094999999926,
-0.0401268198242187,0.719313946777344,-0.0773805976562532,0.724576064047967,0.746122000000014,
-0.00181959326171871,0.7217081484375,-0.0247081611328142,0.722133267248704,0.749073999999951,
-0.0257616098632812,0.642699493652344,-0.115687824218753,0.653536511876877,0.752088999999955,
-0.0497036264648437,0.704948736816406,-0.0965342109375023,0.713261541024139,0.755032999999912,
-0.0568862314453125,0.690583526855469,-0.0917458076171904,0.698969916453862,0.75798599999996,
-0.0233674082031249,0.659458905273438,-0.0869574042968768,0.665577699200193,0.76100699999995,
-0.042521021484375,0.690583526855469,-0.125264630859377,0.70313929813128,0.76397099999997,
-0.052097828125,0.671429913574219,-0.113293622558595,0.68291123687495,0.766971000000012,
-0.104770264648437,0.712131341796875,-0.0390733710937532,0.720856840608835,0.769935999999916,
-0.0640688364257812,0.695371930175781,-0.13005303417969,0.71032438278345,0.772897999999941,
-0.0377326181640625,0.690583526855469,-0.0582269843750023,0.694060328607722,0.776032999999984,
-0.0473094248046875,0.697766131835937,-0.082169000976565,0.704178600309697,0.779073999999923,
-0.052097828125,0.697766131835937,-0.0893516059570327,0.705390294744498,0.782196999999996,
-0.116741272949219,0.707342938476562,-0.0486501777343769,0.718560642685117,0.785165000000006,
-0.03294421484375,0.716919745117187,-0.0366791694335955,0.718612972121226,0.788108999999963,
-0.0592804331054687,0.669035711914063,-0.0558327827148464,0.673973481074153,0.791123999999968,
-0.0185790048828124,0.652276300292969,-0.0749863959960955,0.656835223576509,0.794099999999958,
-0.0760398447265624,0.714525543457031,-0.0606211860351582,0.721112847226365,0.797136000000023,
-0.0257616098632812,0.673824115234375,-0.0294965644531278,0.674961218240481,0.800097999999934,
-0.0592804331054687,0.683400921875,-0.0486501777343769,0.687690213368169,0.803032999999914,
-0.0497036264648437,0.7217081484375,-0.0749863959960955,0.7272936556779,0.806072999999969,
-0.042521021484375,0.716919745117187,-0.043861774414065,0.719517764521292,0.809036999999989,
-0.0449152231445312,0.673824115234375,-0.0749863959960955,0.679469848577547,0.812079999999924,
-0.061674634765625,0.6450936953125,-0.0366791694335955,0.649072413352893,0.815050999999926,
-0.0401268198242187,0.712131341796875,-0.0773805976562532,0.717446141903531,0.818024999999921,
-0.00421379492187496,0.716919745117187,-0.0725921943359396,0.720597879323166,0.821044999999913,
-0.0784340463867187,0.66424730859375,-0.0606211860351582,0.671603539897568,0.82401399999992,
-0.0449152231445312,0.673824115234375,-0.043861774414065,0.676742322303151,0.827041000000008,
-0.0473094248046875,0.70255453515625,-0.0773805976562532,0.708384650763696,0.830016000000001,
-0.0377326181640625,0.661853106933594,-0.0414675727539091,0.664223490416642,0.832943999999998,
-0.052097828125,0.707342938476562,0.00402225878906037,0.709270325668406,0.835977999999955,
-0.0473094248046875,0.692977728515625,-0.0917458076171904,0.70062372719553,0.838930000000005,
-0.0281558115234375,0.745650165039062,-0.082169000976565,0.750692122688663,0.841959999999972,
-0.0568862314453125,0.736073358398437,-0.0390733710937532,0.739301535640657,0.844920999999999,
-0.0257616098632812,0.712131341796875,-0.0558327827148464,0.714781091060647,0.847956999999951,
-0.0473094248046875,0.676218316894531,-0.0869574042968768,0.683425916936923,0.850909999999999,
-0.00900219824218745,0.676218316894531,-0.0749863959960955,0.68042281800462,0.853856999999948,
-0.0449152231445312,0.709737140136719,-0.106111017578128,0.719029716639749,0.856867999999963,
-0.0305500131835937,0.654670501953125,-0.0797747993164091,0.66022025721652,0.859827999999993,
-0.0497036264648437,0.704948736816406,-0.106111017578128,0.714620682652181,0.862839000000008,
-0.0592804331054687,0.683400921875,-0.0271023627929718,0.686502387350353,0.865808000000015,
-0.03294421484375,0.692977728515625,-0.0941400092773463,0.700118414882144,0.868734000000018,
-0.0497036264648437,0.666641510253906,-0.0965342109375023,0.67542594528097,0.871775999999954,
-0.0305500131835937,0.681006720214844,-0.0342849677734396,0.682553232574956,0.874721000000022,
-0.0305500131835937,0.673824115234375,-0.115687824218753,0.6843653368263,0.877746000000002,
-0.0281558115234375,0.704948736816406,-0.106111017578128,0.713445876933251,0.880692999999951,
-0.0281558115234375,0.657064703613281,-0.0247081611328142,0.658131649203651,0.883642000000009,
-0.0113963999023437,0.707342938476562,-0.0725921943359396,0.711149447881315,0.88665299999991,
-0.0377326181640625,0.692977728515625,-0.103716815917972,0.701711522348289,0.889621999999918,
-0.042521021484375,0.697766131835937,-0.108505219238284,0.707431264934841,0.892639999999915,
-0.03294421484375,0.676218316894531,-0.115687824218753,0.686833463124659,0.89560599999993,
-0.0664630380859375,0.688189325195312,-0.0869574042968768,0.696838197077659,0.898534999999924,
-0.0377326181640625,0.688189325195312,-0.0725921943359396,0.693035298137693,0.901560000000018,
-0.0568862314453125,0.726496551757812,-0.0893516059570327,0.734177766301284,0.904504999999972,
-0.052097828125,0.709737140136719,-0.0318907661132837,0.712360872555535,0.907529999999952,
-0.061674634765625,0.676218316894531,-0.0366791694335955,0.680014951414662,0.910472999999911,
-0.0592804331054687,0.681006720214844,-0.0630153876953141,0.686480343355395,0.913498000000004,
-0.0377326181640625,0.700160333496094,-0.0582269843750023,0.703589812876994,0.916614999999979,
-0.0473094248046875,0.714525543457031,-0.0199197578125023,0.716367036287422,0.919672999999989,
-0.0209732065429687,0.690583526855469,-0.0534385810546905,0.6929654860828,0.922745999999961,
-0.061674634765625,0.637911090332031,-0.00555454785156506,0.640909644758065,0.925701000000004,
-0.0233674082031249,0.695371930175781,-0.0773805976562532,0.700054222140087,0.928632999999991,
-0.0664630380859375,0.685795123535156,-0.0462559760742209,0.690559122898823,0.931650999999988,
-0.0113963999023437,0.697766131835937,-0.0773805976562532,0.702136175938585,0.934639999999945,
-0.0640688364257812,0.671429913574219,-0.0654095893554718,0.677643976600462,0.937665999999922,
-0.0377326181640625,0.683400921875,-0.0390733710937532,0.68555619669123,0.940623999999957,
-0.0305500131835937,0.671429913574219,-0.0151313544921905,0.67229486836995,0.943653999999924,
-0.080828248046875,0.681006720214844,-0.120476227539065,0.696288647086932,0.946600999999987,
-0.00900219824218745,0.676218316894531,-0.0678037910156277,0.679668747076806,0.949570999999992,
-0.0736456430664062,0.697766131835937,-0.0534385810546905,0.703673885706362,0.952591999999981,
-0.0209732065429687,0.654670501953125,-0.0294965644531278,0.655670182969142,0.955594000000019,
-0.0401268198242187,0.673824115234375,-0.0414675727539091,0.676290366285588,0.958612000000016,
-0.0688572397460937,0.647487896972656,-0.0678037910156277,0.65465964459986,0.961578999999915,
-0.0568862314453125,0.697766131835937,-0.0630153876953141,0.702911486000711,0.964520999999991,
-0.0784340463867187,0.716919745117187,-0.0486501777343769,0.722836537790581,0.96755799999994,
-0.0736456430664062,0.695371930175781,-0.0223139594726582,0.699616834278881,0.970520999999962,
-0.0473094248046875,0.700160333496094,-0.0318907661132837,0.702481099560695,0.973553999999922,
-0.0856166513671875,0.669035711914063,-0.082169000976565,0.679478284810614,0.97650299999998,
-0.042521021484375,0.688189325195312,-0.0390733710937532,0.690607929949754,0.979462000000012,
-0.042521021484375,0.673824115234375,-0.0486501777343769,0.676914924737998,0.982479000000012,
-0.0257616098632812,0.688189325195312,-0.0414675727539091,0.689918667268562,0.985454000000004,
-0.0664630380859375,0.683400921875,-0.0294965644531278,0.687258468675178,0.988469000000009,
-0.0688572397460937,0.671429913574219,-0.00316034619140915,0.674958840297528,0.991438000000016,
-0.042521021484375,0.661853106933594,-0.139629840820314,0.677756641334655,0.994370000000004,
0.00775721337890628,0.661853106933594,-0.0127371528320328,0.662021105841289,0.997412999999938,
-0.0640688364257812,0.683400921875,-0.0869574042968768,0.691883824050399,1.00036599999999,
-0.042521021484375,0.673824115234375,-0.0390733710937532,0.676294095692172,1.00339299999996,
-0.0233674082031249,0.661853106933594,-0.142024042480472,0.677322965479746,1.00633799999991,
-0.03294421484375,0.673824115234375,-0.0917458076171904,0.680838859627144,1.009276,
-0.0257616098632812,0.695371930175781,-0.113293622558595,0.705011508226347,1.01229999999998,
-0.042521021484375,0.669035711914063,-0.0606211860351582,0.673120902424476,1.01525700000002,
