X,Y,Z,Magnitude,Seconds,
0.044053310546875,-0.00134075292968738,0.0547793339843761,0.0703083723345214,0.0,
0.00574608398437504,-0.0300711728515624,-0.0553539423828102,0.0632562396538358,0.00401300000021365,
0.00814028564453129,0.0154186586914062,-0.00268150585937299,0.0176405714162124,0.0078880000000936,
0.00814028564453129,-0.0204943662109374,0.0763271489257829,0.0794488323381861,0.0118959999999788,
-0.0158017309570313,-0.0109175595703124,-0.040988732421873,0.045265483469876,0.0157950000002529,
0.0296881005859375,-0.0109175595703124,0.00928950244140836,0.0329677308740076,0.0198480000003656,
0.0129286889648438,-0.0468305844726562,-0.0122583124999984,0.0501050982011599,0.0237700000002405,
0.0296881005859375,0.0154186586914062,0.0236547124023456,0.0409714994975837,0.027824000000237,
-0.0445321508789063,0.00105344873046875,-0.0170467158203103,0.0476949969743978,0.0317300000001524,
0.0584185205078125,-0.0276769711914062,-0.0362003291015611,0.0740891496760016,0.0356340000003001,
-0.0134075292968751,-0.0396479794921876,0.00210689746093884,0.0419066001552309,0.0397280000001956,
-0.0205901342773438,-0.0396479794921876,0.0140779057617202,0.0468412567936413,0.04367400000001,
0.0105344873046875,-0.0228885678710937,0.00210689746093884,0.0252844018887771,0.0477359999999862,
0.00335188232421879,-0.00373495458984374,0.0906923588867201,0.0908311012888275,0.0518220000003566,
0.0129286889648438,0.0178128603515626,-0.00268150585937299,0.02217294445778,0.0557010000002265,
-0.0229843359375,-0.0396479794921876,-0.0314119257812475,0.0555603370902966,0.0595000000002983,
0.0320823022460938,-0.0228885678710937,0.0188663090820338,0.0436932291662931,0.0633190000003196,
-0.0014365209960937,-0.0157059628906249,-0.0194409174804662,0.0250337798859101,0.0670930000001135,
-0.0134075292968751,-0.0252827695312499,-0.0122583124999984,0.0311327239791907,0.0708790000003319,
0.0320823022460938,-0.0324653745117187,-0.0050757075195289,0.0459242579299837,0.074692000000141,
0.0129286889648438,-0.0157059628906249,-0.0074699091796866,0.0216708978084464,0.0785570000002735,
-0.0014365209960937,-0.0276769711914062,0.035625720703127,0.0451361307880877,0.0824219999999514,
0.000957680664062543,-0.0157059628906249,0.114634375488283,0.115709266984821,0.0864289999999528,
-0.00383072265624995,-0.0683783994140624,0.0643561406250015,0.093978682575588,0.0902580000001763,
-0.00622492431640631,-0.0133117612304687,0.0212605107421897,0.025844960569147,0.0942480000003343,
0.0296881005859375,-0.0109175595703124,0.0595677373046897,0.067445472427529,0.0981860000001689,
0.0464475122070312,-0.00852335791015624,-0.00268150585937299,0.0472991489771306,0.102157000000261,
-0.0181959326171875,-0.0420421811523437,-0.0122583124999984,0.0474226020501125,0.106051000000207,
0.03447650390625,-0.0228885678710937,0.0260489140625015,0.0488984844818623,0.110008999999991,
0.0201112939453125,-0.0396479794921876,0.0236547124023456,0.0503584336611592,0.114004000000023,
0.00574608398437504,0.0226012636718751,0.0260489140625015,0.0349625588960062,0.117905000000064,
0.03447650390625,-0.0372537778320312,-0.0074699091796866,0.0513056802655298,0.121860000000197,
0.015322890625,-0.0372537778320312,0.00210689746093884,0.0403370048066904,0.125778999999966,
-0.0110133276367188,-0.0492247861328126,0.0499909306640642,0.0710173648068846,0.129751000000397,
0.0225054956054688,-0.0157059628906249,-0.000287304199217076,0.0274455305372723,0.133640000000014,
-0.0134075292968751,-0.0324653745117187,-0.0122583124999984,0.0372025349859433,0.137434000000212,
0.0368707055664063,-0.0468305844726562,0.00689530078125244,0.0600008145267975,0.141238000000158,
0.00574608398437504,0.0369664736328126,0.0236547124023456,0.0442615303942216,0.145162000000255,
0.0751779321289062,-0.0372537778320312,0.0164721074218761,0.0855037763192632,0.149048000000221,
-0.0158017309570313,-0.0204943662109374,0.0140779057617202,0.0294601625634056,0.15293900000006,
0.024899697265625,-0.0372537778320312,0.0547793339843761,0.07077156433519,0.156897000000299,
0.0105344873046875,-0.00134075292968738,-0.0314119257812475,0.0331584396870192,0.160902000000078,
0.0105344873046875,-0.0372537778320312,-0.00268150585937299,0.038807342851641,0.164813000000322,
-0.0158017309570313,0.00105344873046875,0.035625720703127,0.0389871316088185,0.168736000000081,
-0.0158017309570313,-0.00852335791015624,-0.0840843623046865,0.0859797785266327,0.172597000000223,
0.00814028564453129,-0.0588015927734374,-0.0673249506835916,0.0897582338708587,0.176468999999997,
0.0201112939453125,-0.0372537778320312,0.0691445439453133,0.0810757427614356,0.18032200000016,
0.0177170922851563,-0.00852335791015624,-0.0170467158203103,0.0260217891268795,0.18420500000002,
0.0225054956054688,-0.0228885678710937,0.0667503422851574,0.0740674831948751,0.188085000000228,
0.015322890625,-0.0300711728515624,0.0188663090820338,0.0386652820001754,0.191934000000401,
0.0225054956054688,-0.00373495458984374,0.0236547124023456,0.0328632414267621,0.195860000000266,
-0.032561142578125,-0.0276769711914062,-0.0481713374023425,0.0643950346490569,0.19973200000004,
0.0105344873046875,-0.0300711728515624,0.0428083256835947,0.0533648161926365,0.203713000000334,
0.00814028564453129,0.00105344873046875,0.071538745605471,0.0720080976516293,0.207571000000371,
0.0201112939453125,0.00344765039062511,0.0811155522460947,0.0836425923412208,0.211424999999963,
-0.0397437475585938,-0.0204943662109374,0.0308373173828134,0.0543187321258293,0.215242000000217,
0.0201112939453125,-0.0204943662109374,0.0140779057617202,0.0319792217100205,0.219144000000142,
-0.0373495458984375,-0.00852335791015624,0.0116837041015643,0.0400517808644887,0.222955000000184,
-0.051714755859375,0.0130244570312501,0.0547793339843761,0.0764514740624761,0.22690700000021,
0.0679953271484375,-0.106685625976563,0.0116837041015643,0.127049975385936,0.230948000000353,
-0.0253785375976563,0.0297838686523437,0.0428083256835947,0.0579974288251508,0.234819000000243,
0.0272938989257813,-0.10189722265625,0.0308373173828134,0.109904235800976,0.238785000000007,
-0.0134075292968751,-0.00612915624999988,0.0188663090820338,0.0239429742630757,0.242629000000306,
-0.00861912597656256,-0.0109175595703124,-0.00268150585937299,0.0141659067215984,0.246487000000343,
0.063206923828125,-0.0468305844726562,-0.0122583124999984,0.0796146034795916,0.250365000000329,
-0.0445321508789063,0.0130244570312501,0.0428083256835947,0.0631292459221023,0.254417000000103,
0.07278373046875,-0.0157059628906249,0.0308373173828134,0.0805921139730042,0.258399000000281,
-0.00383072265624995,0.0154186586914062,0.00928950244140836,0.0184039215255911,0.262294999999995,
-0.0014365209960937,-0.0372537778320312,-0.0601423457031238,0.0707602240104185,0.266214000000218,
0.0488417138671875,-0.00612915624999988,-0.0433829340820289,0.0656137069474572,0.270162000000255,
-0.04213794921875,-0.00373495458984374,-0.0577481440429679,0.0715849480726048,0.274022000000059,
0.0272938989257813,0.00584185205078125,0.00450109912109475,0.0282726731536284,0.278055000000222,
0.00814028564453129,-0.0109175595703124,0.0188663090820338,0.0232678958164401,0.281960000000254,
0.0225054956054688,-0.0468305844726562,-0.000287304199217076,0.0519584787902923,0.2858140000003,
0.00335188232421879,-0.0444363828125001,-0.0194409174804662,0.0486186847318678,0.289723000000322,
-0.0134075292968751,0.0249954653320312,0.0404141240234388,0.0493744523979075,0.293675000000349,
0.0201112939453125,-0.0516189877929687,0.0260489140625015,0.0612170725268777,0.297609000000193,
-0.0014365209960937,-0.0372537778320312,-0.0266235224609357,0.0458117834575178,0.301621000000068,
0.0464475122070312,-0.0588015927734374,0.16730681201172,0.183320942743704,0.305689000000257,
0.290656081542969,0.467922772460938,-0.495887047851561,0.741172478544893,0.309767000000193,
-1.89525003417969,-2.42906123632812,-0.902901330078123,3.21053609133224,0.313477000000148,
3.0032865625,-2.89832476171875,-0.119997387207029,4.17545398415809,0.316456000000017,
1.56676556640625,9.25464286523438,0.483341431152345,9.39876522965534,0.319482000000335,
-9.85357635253906,-3.34364627050781,-1.36737645214844,10.494887120855,0.322505999999976,
7.54029870849609,-8.62764933447266,0.701213782226564,11.4797272798773,0.325442000000294,
7.54748131347656,7.78220884423828,1.10822806445313,10.897495956203,0.328495000000203,
-15.6978226049805,3.76952686181641,-2.01859930371094,16.2697790534578,0.331480000000283,
0.95384994140625,-6.31245632910156,0.476158826171877,6.40184831476633,0.334431000000222,
12.778811940918,-0.535247723144531,1.40750327197266,12.8672293135349,0.337576000000354,
-7.21516612304688,3.3265995546875,-0.816710070312498,7.98698329279336,0.340548000000126,
-7.55753696044922,-0.307798565429688,-0.869382506835937,7.61360169752982,0.343626000000313,
10.434888515625,-0.932685198730469,1.35483083544922,10.5637288211189,0.346589000000222,
0.678516750488281,-1.73234855322266,-0.119997387207029,1.86435400701753,0.349560999999994,
-6.30058108886719,0.465528570800781,-0.883747716796874,6.37926711578739,0.352602000000388,
2.85484605957031,4.19330055566406,0.667694958984377,5.11661334597699,0.355608000000302,
1.52606413818359,-4.57905432714844,0.0954807622070337,4.82760052829338,0.358654999999999,
-1.32064163574219,-0.537641924804688,-0.495887047851561,1.5096546405024,0.361627000000226,
-0.485065256347656,4.6290452578125,0.35884294482422,4.66820271205548,0.364567000000079,
-0.15705962890625,-3.19041736425781,-0.0697191523437475,3.19504169697259,0.367613000000347,
1.78703211914063,-0.513699908203125,0.124211182128908,1.86354495741154,0.370566000000053,
-1.13149970458984,1.72966704736328,-0.0266235224609357,2.06706276831874,0.373629000000165,
-1.12910550292969,-0.726783855957031,-0.105632177246092,1.34694178303876,0.376639000000068,
2.19644060302734,-0.10189722265625,0.210402441894534,2.20884665700618,0.379715000000033,
-0.688572397460938,-0.240760918945313,-0.127179992187498,0.740454263982123,0.382634000000053,
-1.12431709960938,0.386519916015625,-0.0338061274414052,1.18938195723802,0.385596999999962,
1.30819178710938,0.163859161621094,0.0523851323242202,1.31945434888677,0.388668000000052,
-0.200155258789062,-0.731572259277344,-0.175064025390624,0.77840061096523,0.391597000000274,
-0.614352145996094,0.499047394042969,-0.0170467158203103,0.791686460229896,0.394603000000188,
0.431913979492188,0.199772186523438,0.102663367187501,0.486824793073862,0.397621999999956,
0.0679953271484375,-0.743543267578125,-0.0481713374023425,0.748198124176951,0.400604000000385,
-0.142694418945313,0.470316974121094,-0.0338061274414052,0.492648563985674,0.403671000000031,
-0.104387192382812,0.111186725097656,0.0116837041015643,0.152956473262955,0.406638000000385,
0.158974990234375,-0.48496948828125,-0.0649307490234357,0.514474930635635,0.409683000000314,
0.0871489404296875,0.324270672851563,0.0882981572265642,0.34719298906981,0.412653000000319,
-0.27198130859375,0.0393606752929687,-0.0122583124999984,0.275087915418389,0.415625000000091,
0.106302553710938,-0.231184112304688,0.00689530078125244,0.254546404178957,0.418716000000131,
0.113485158691406,0.106398321777344,-0.0362003291015611,0.159718339420713,0.421739000000343,
-0.192972653808594,-0.0228885678710937,-0.000287304199217076,0.194325536666759,0.424805000000106,
0.0392649072265625,-0.1210508359375,-0.0242293208007798,0.12954573635263,0.427817000000232,
0.108696755371094,0.0393606752929687,-0.0122583124999984,0.116251940255075,0.430831000000126,
-0.11875240234375,0.00823605371093761,0.035625720703127,0.124254406838384,0.433915999999954,
0.00574608398437504,-0.0899262143554688,0.0212605107421897,0.0925837503370865,0.436999000000014,
0.0296881005859375,-0.0300711728515624,-0.0218351191406239,0.0475650205608546,0.440065000000232,
-0.051714755859375,0.0297838686523437,-0.0170467158203103,0.0620651699889176,0.443025000000034,
0.0512359155273437,-0.0827436093749999,-0.0146525141601543,0.0984191043626246,0.445996000000378,
-0.0110133276367188,-0.0348595761718749,0.0739329472656269,0.0824776583560568,0.449090999999953,
-0.0469263525390625,0.0178128603515626,0.0595677373046897,0.0778954163229466,0.452097000000322,
-0.0158017309570313,-0.0947146176757813,0.0428083256835947,0.105133754097057,0.455123000000185,
0.0392649072265625,0.0465432802734376,0.0236547124023456,0.0653265282787935,0.458102000000054,
-0.0181959326171875,-0.0228885678710937,0.035625720703127,0.0460887239855488,0.461042000000361,
0.0272938989257813,-0.0396479794921876,0.00450109912109475,0.0483443801251149,0.464084000000184,
0.0679953271484375,0.00344765039062511,-0.0050757075195289,0.0682716164600108,0.46712000000025,
-0.00622492431640631,-0.0276769711914062,0.00689530078125244,0.029194341745257,0.470236000000114,
0.015322890625,-0.0300711728515624,0.00450109912109475,0.0340488811427362,0.473234000000048,
0.0105344873046875,0.0249954653320312,0.0332315190429711,0.0428961836046139,0.476315000000341,
-0.0181959326171875,-0.0444363828125001,0.00928950244140836,0.0489078617082899,0.479293000000325,
0.0512359155273437,-0.0324653745117187,0.0475967290039083,0.0771010258944895,0.482297000000017,
-0.00383072265624995,0.0154186586914062,0.0380199223632829,0.0412058729845788,0.485347000000274,
0.00335188232421879,-0.0444363828125001,0.0260489140625015,0.0516175663549731,0.488364000000274,
-0.0349553442382813,-0.0444363828125001,0.0236547124023456,0.0612863249600878,0.491395000000011,
0.00574608398437504,-0.00612915624999988,0.0308373173828134,0.0319612919147641,0.494390000000294,
-0.00861912597656256,-0.0420421811523437,0.00928950244140836,0.0439104678209567,0.497339000000011,
0.00335188232421879,-0.0516189877929687,-0.0218351191406239,0.0561473725455724,0.50043100000039,
0.03447650390625,0.00344765039062511,0.0212605107421897,0.0406512599046132,0.503386000000319,
0.0201112939453125,-0.00373495458984374,-0.0505655390624984,0.0545461984983739,0.506463000000167,
0.0488417138671875,-0.0228885678710937,0.0164721074218761,0.0563979598530985,0.509461000000101,
0.0201112939453125,-0.0228885678710937,0.0188663090820338,0.0358369683668033,0.512422000000242,
0.0225054956054688,-0.0252827695312499,-0.0266235224609357,0.0430642277980927,0.515463000000182,
-0.0014365209960937,-0.0444363828125001,0.00928950244140836,0.0454197156050123,0.518432000000303,
0.0177170922851563,-0.0228885678710937,-0.0074699091796866,0.029892832608891,0.521500000000287,
0.0296881005859375,-0.0755610043945312,0.00450109912109475,0.0813087239772524,0.5244560000001,
-0.0158017309570313,0.00105344873046875,-0.0242293208007798,0.0289458881697077,0.527430000000095,
-0.0229843359375,0.0944273134765625,-0.0122583124999984,0.097954394767343,0.530511000000388,
-0.00861912597656256,-0.0995030209960938,0.200825635253908,0.224290160941323,0.533490000000256,
0.127850368652344,-0.674111419433594,-0.117603185546873,0.696133918025898,0.536553000000367,
0.199676418457031,1.02337755761719,0.119422778808595,1.04949230469819,0.539561000000049,
-0.82743609375,0.226108404785156,-0.25407268017578,0.894610768304547,0.542485000000397,
0.503740029296875,-1.95500930761719,0.157730005371095,2.02501707760212,0.545594000000165,
1.03046439453125,1.602774359375,0.20561403857422,1.91651236581594,0.548596999999972,
-1.85215440429688,0.455951764160156,-0.261255285156249,1.92525901442355,0.551723000000038,
0.556412465820312,-1.75868477148438,0.035625720703127,1.84494882030557,0.554744000000028,
1.44944968505859,1.18618327050781,0.253498071777345,1.89002550595062,0.557768000000124,
-1.82821238769531,-0.0947146176757813,-0.251678478515624,1.8478835054927,0.56078400000024,
0.288261879882812,-0.477786883300781,0.035625720703127,0.559146142992567,0.563787000000048,
1.13580926757813,0.585238653808594,0.198431433593752,1.29303596549598,0.566958000000341,
-1.18417214111328,-0.693265032714844,-0.275620495117186,1.39958805464414,0.569977999999992,
0.343328518066406,0.487076385742188,0.133787988769534,0.61075126099284,0.573041999999987,
0.314598098144531,0.0369664736328126,0.0499909306640642,0.320682984702433,0.576064000000315,
-0.446758029785156,-0.650169402832031,-0.0888727656249984,0.793858525195964,0.579046000000289,
0.34093431640625,0.716919745117188,0.0428083256835947,0.795011120544941,0.582184000000325,
-0.202549460449219,-0.403566631835938,0.0523851323242202,0.45457289002788,0.585116000000198,
0.0703895288085937,-0.1210508359375,0.0739329472656269,0.158347943903435,0.588138999999956,
0.163763393554688,0.436798150878906,0.00928950244140836,0.466580505953033,0.591165000000274,
-0.300711728515625,-0.461027471679687,-0.0314119257812475,0.551326203251312,0.594077000000198,
0.24516625,0.163859161621094,0.0954807622070337,0.30995627262223,0.597176000000218,
-0.0588973608398438,0.0848505068359375,-0.0242293208007798,0.106092259899963,0.600206999999955,
-0.090021982421875,-0.314981170410156,0.0212605107421897,0.328282049995328,0.603272000000288,
0.197282216796875,0.190195379882813,0.0188663090820338,0.274682531682369,0.606322000000091,
-0.104387192382812,-0.0372537778320312,-0.0194409174804662,0.112527681789002,0.609241999999995,
0.000957680664062543,-0.0995030209960938,0.0523851323242202,0.112454303733692,0.612336000000141,
0.0775721337890625,0.0656968935546876,0.0260489140625015,0.104938380429468,0.615341000000171,
-0.032561142578125,-0.0899262143554688,0.0787213505859388,0.123870912939128,0.61841800000002,
0.0799663354492187,0.0537258852539062,0.00689530078125244,0.0965848369277332,0.621437000000242,
0.0177170922851563,-0.0611957944335937,-0.0697191523437475,0.0944435324356839,0.624384000000191,
-0.051714755859375,-0.0252827695312499,-0.0481713374023425,0.0750607231239839,0.627415000000383,
0.0703895288085937,0.0680910952148439,-0.0170467158203103,0.0994066070928447,0.630425000000287,
0.00335188232421879,-0.0707726010742187,-0.0457771357421866,0.0843536741030554,0.633458000000246,
-0.0277727392578125,-0.0109175595703124,0.00210689746093884,0.0299158347663018,0.636451000000307,
-0.0277727392578125,-0.00134075292968738,-0.0314119257812475,0.0419503485752802,0.639400000000023,
0.015322890625,-0.0109175595703124,0.0428083256835947,0.0467604195010026,0.642505000000256,
0.0105344873046875,-0.00134075292968738,0.00450109912109475,0.0115339903974734,0.645448000000215,
-0.0445321508789063,-0.0899262143554688,0.0332315190429711,0.105707948367711,0.648505000000114,
0.044053310546875,0.08963891015625,-0.0314119257812475,0.104702136871347,0.651491999999962,
-0.00861912597656256,-0.0947146176757813,-0.0457771357421866,0.105549487402014,0.654417000000194,
0.0105344873046875,-0.00852335791015624,-0.0266235224609357,0.0298736506149683,0.657446000000164,
0.0584185205078125,0.0609084902343751,0.0140779057617202,0.0855614115801542,0.660468000000037,
0.000957680664062543,-0.123445037597656,0.00450109912109475,0.123530783017995,0.663589000000229,
0.0320823022460938,0.0130244570312501,-0.0266235224609357,0.043677483290553,0.666576999999961,
-0.04213794921875,0.0321780703125001,0.0236547124023456,0.0580566998048962,0.669634000000315,
0.0201112939453125,-0.104291424316406,-0.0050757075195289,0.106334040348908,0.672610999999961,
0.0320823022460938,0.00344765039062511,0.0571735356445338,0.0656503890980279,0.675595000000158,
-0.0588973608398438,-0.0324653745117187,-0.0601423457031238,0.0902219563230535,0.678647000000183,
0.015322890625,-0.0611957944335937,-0.0457771357421866,0.0779439695564894,0.681641000000127,
0.0775721337890625,-0.0157059628906249,0.0380199223632829,0.0878044856907661,0.684719000000314,
-0.0588973608398438,-0.00612915624999988,-0.0074699091796866,0.0596847150733623,0.687725000000228,
0.0225054956054688,-0.0396479794921876,0.0164721074218761,0.0484746318519133,0.690750000000207,
0.0129286889648438,-0.0133117612304687,-0.0457771357421866,0.0493953453491851,0.693858999999975,
-0.0134075292968751,-0.0252827695312499,0.0667503422851574,0.0726263621022183,0.696820000000116,
0.0560243188476562,-0.00134075292968738,-0.000287304199217076,0.0560410962104169,0.699994000000061,
0.0225054956054688,-0.0228885678710937,0.0380199223632829,0.0497583999757578,0.702985000000353,
-0.00861912597656256,0.0178128603515626,0.0260489140625015,0.0327128911950582,0.705944000000272,
-0.0277727392578125,0.00584185205078125,-0.00268150585937299,0.028506889604787,0.709032000000207,
0.00335188232421879,-0.0348595761718749,-0.0170467158203103,0.0389488855585955,0.712044000000333,
0.00814028564453129,0.0226012636718751,0.0164721074218761,0.0291275074947722,0.715130000000045,
0.015322890625,-0.0228885678710937,-0.0577481440429679,0.0639806662727323,0.718074000000342,
0.024899697265625,-0.0252827695312499,0.0452025273437524,0.0574672240268551,0.721026000000165,
0.0272938989257813,-0.0348595761718749,0.0212605107421897,0.0491137077247511,0.724118999999973,
-0.0229843359375,-0.0204943662109374,0.00689530078125244,0.0315569947513987,0.727058000000397,
-0.0158017309570313,-0.0276769711914062,0.0188663090820338,0.0370357537245722,0.730203999999958,
-0.0181959326171875,-0.00373495458984374,0.0260489140625015,0.031993558311526,0.733168000000205,
0.0129286889648438,-0.00134075292968738,-0.00268150585937299,0.0132717402943996,0.736200000000281,
0.00574608398437504,0.00105344873046875,0.0212605107421897,0.022048504538902,0.739301000000069,
-0.032561142578125,-0.0468305844726562,0.0308373173828134,0.0648403561943636,0.742279000000053,
0.0129286889648438,-0.00373495458984374,-0.0601423457031238,0.061629559716194,0.745339000000058,
0.0656011254882812,-0.0157059628906249,0.0404141240234388,0.0786351470796157,0.748347000000194,
0.0368707055664063,0.0130244570312501,0.0188663090820338,0.0434168518930419,0.75139100000024,
0.000957680664062543,0.0154186586914062,0.0452025273437524,0.0477694532767445,0.75446600000032,
0.0201112939453125,-0.0420421811523437,-0.0242293208007798,0.0525268419635937,0.7574010000003,
-0.00622492431640631,-0.0109175595703124,0.0116837041015643,0.0171595958941117,0.760474000000158,
0.0105344873046875,-0.0492247861328126,-0.0074699091796866,0.0508906134345669,0.763451000000259,
0.0177170922851563,-0.0276769711914062,0.0116837041015643,0.0348771993557909,0.766473000000133,
0.015322890625,-0.0204943662109374,-0.040988732421873,0.0483206602712093,0.769502000000102,
0.015322890625,-0.0181001645507812,0.0236547124023456,0.0334955572085128,0.772474000000329,
-0.00383072265624995,-0.0133117612304687,0.00689530078125244,0.015473286528403,0.775522000000365,
-0.0134075292968751,-0.0181001645507812,0.0140779057617202,0.0265624778446551,0.778459999999995,
-0.00861912597656256,-0.0181001645507812,-0.0314119257812475,0.037264116394352,0.781455000000278,
-0.00861912597656256,-0.00852335791015624,-0.0050757075195289,0.0131415284304483,0.784429000000273,
0.00814028564453129,-0.0181001645507812,-0.00268150585937299,0.0200267491324421,0.787369000000126,
0.00335188232421879,-0.0204943662109374,0.0284431157226575,0.0352173961773994,0.790464000000156,
-0.0110133276367188,-0.0372537778320312,-0.0146525141601543,0.0415190741660454,0.793422000000191,
0.00335188232421879,-0.0492247861328126,-0.00268150585937299,0.0494115893147589,0.796498000000156,
0.0272938989257813,-0.0492247861328126,0.0260489140625015,0.0620208224085064,0.799488999999994,
0.00814028564453129,-0.0181001645507812,-0.0146525141601543,0.0246693408577011,0.802458999999999,
0.0177170922851563,-0.0157059628906249,0.00450109912109475,0.0241004672705811,0.805500000000393,
0.0177170922851563,-0.0540131894531251,-0.0314119257812475,0.0649463553652284,0.80852300000015,
-0.0110133276367188,0.00584185205078125,-0.0505655390624984,0.0520796924117067,0.811609000000317,
-0.0397437475585938,0.00344765039062511,0.0499909306640642,0.0639573679248645,0.814666000000216,
0.0392649072265625,-0.0492247861328126,-0.0074699091796866,0.0634082964010583,0.81767200000013,
-0.0397437475585938,-0.00373495458984374,0.0523851323242202,0.0658613501563358,0.820758000000296,
0.0392649072265625,-0.0252827695312499,0.0236547124023456,0.0523497544742909,0.823748000000251,
0.07278373046875,-0.0204943662109374,0.0547793339843761,0.0933716546876378,0.826837999999952,
-0.0469263525390625,0.0441490786132812,0.0523851323242202,0.0830387005777916,0.82987200000025,
-0.0205901342773438,-0.0516189877929687,0.00928950244140836,0.0563450830679895,0.832877000000281,
0.0201112939453125,-0.0707726010742187,0.00928950244140836,0.0741587490629002,0.835976000000301,
-0.0205901342773438,-0.0157059628906249,0.0571735356445338,0.0627649908625621,0.838946000000306,
0.0129286889648438,-0.0157059628906249,0.0284431157226575,0.0349691163840873,0.842046000000209,
0.00335188232421879,-0.0157059628906249,-0.0146525141601543,0.0217395620160715,0.845029999999952,
0.00814028564453129,0.0106302553710937,-0.00268150585937299,0.0136549278029245,0.847999000000073,
-0.00622492431640631,-0.0276769711914062,0.00928950244140836,0.0298506159514984,0.851021000000401,
0.0225054956054688,-0.0348595761718749,0.0475967290039083,0.0631437724182045,0.854023000000325,
0.0201112939453125,-0.0516189877929687,0.0452025273437524,0.0715000176446698,0.857070000000022,
-0.0301669409179688,0.00105344873046875,-0.0146525141601543,0.0335536920440876,0.860075000000052,
-0.00383072265624995,-0.00612915624999988,-0.0170467158203103,0.0185157098882121,0.863155000000006,
0.00335188232421879,-0.0157059628906249,-0.0170467158203103,0.023420138891465,0.866159000000152,
0.00574608398437504,-0.0516189877929687,-0.0050757075195289,0.0521852487658145,0.869153000000097,
0.00335188232421879,-0.0348595761718749,0.0236547124023456,0.0422607451997222,0.87223800000038,
0.0296881005859375,-0.0324653745117187,-0.00268150585937299,0.0440746450043645,0.875208000000384,
-0.0014365209960937,-0.0372537778320312,0.0475967290039083,0.0604595415728737,0.878236000000015,
0.0129286889648438,-0.0133117612304687,-0.0146525141601543,0.0236442415107824,0.881254000000354,
0.044053310546875,-0.0444363828125001,-0.0122583124999984,0.0637616853050959,0.884242999999969,
0.0272938989257813,-0.00612915624999988,0.0260489140625015,0.0382239375096714,0.887320000000273,
-0.0110133276367188,-0.0372537778320312,0.0404141240234388,0.0560574595301459,0.890283000000181,
0.0225054956054688,-0.0516189877929687,0.035625720703127,0.066634894828728,0.893387999999959,
0.0296881005859375,-0.0540131894531251,-0.0170467158203103,0.0639484047616384,0.896325000000161,
-0.0181959326171875,-0.0588015927734374,-0.00986411083984251,0.0623379495906233,0.899294000000282,
0.0320823022460938,-0.0516189877929687,0.00450109912109475,0.0609430382527675,0.902385000000322,
-0.0181959326171875,-0.0492247861328126,0.0308373173828134,0.0608696285268666,0.905355000000327,
-0.00383072265624995,-0.00134075292968738,0.0499909306640642,0.050155410507211,0.908374999999978,
0.0320823022460938,-0.00612915624999988,-0.00986411083984251,0.034119515770411,0.911347000000205,
0.0225054956054688,-0.0324653745117187,-0.0266235224609357,0.0476372734616695,0.914310000000114,
-0.0134075292968751,0.00584185205078125,0.0212605107421897,0.025805007154592,0.917371000000003,
-0.00861912597656256,0.0321780703125001,0.0284431157226575,0.0438032918129282,0.920338000000356,
-0.00383072265624995,-0.0635899960937499,-0.000287304199217076,0.0637059226679524,0.923412000000098,
-0.00622492431640631,-0.00852335791015624,0.0236547124023456,0.0259025622602725,0.926409000000149,
0.00335188232421879,-0.0372537778320312,0.0140779057617202,0.0399658167501882,0.929368999999951,
-0.0134075292968751,-0.0420421811523437,0.0523851323242202,0.068494590490922,0.932431000000179,
0.0105344873046875,-0.0444363828125001,-0.00986411083984251,0.0467211753158284,0.935386000000108,
-0.00383072265624995,-0.00852335791015624,-0.0314119257812475,0.032772414427691,0.938440000000355,
0.024899697265625,-0.0276769711914062,-0.0577481440429679,0.0687084987367434,0.941424000000097,
0.0320823022460938,-0.0181001645507812,-0.00268150585937299,0.0369334610867831,0.944420000000264,
0.0225054956054688,0.00823605371093761,0.0571735356445338,0.061993089060588,0.94753800000035,
0.024899697265625,-0.0157059628906249,0.0140779057617202,0.0326321869459792,0.950591000000259,
0.0129286889648438,-0.0444363828125001,0.0547793339843761,0.0717113557784298,0.953691000000163,
0.00574608398437504,-0.0516189877929687,0.0691445439453133,0.0864783518536952,0.956685000000107,
0.015322890625,-0.0181001645507812,0.0260489140625015,0.0352271607954241,0.959775000000263,
0.0296881005859375,-0.0324653745117187,0.0164721074218761,0.0469756764879946,0.96287700000039,
0.0177170922851563,-0.0420421811523437,0.0332315190429711,0.0564426630572174,0.965847000000394,
0.00814028564453129,0.00105344873046875,-0.0553539423828102,0.0559592078385833,0.96893399999999,
0.015322890625,-0.0492247861328126,0.0811155522460947,0.0961124516549014,0.971940000000359,
0.015322890625,-0.0228885678710937,0.00689530078125244,0.02839406080784,0.975032000000283,
0.0416591088867188,-0.0492247861328126,-0.040988732421873,0.0764109750533817,0.978026000000227,
0.0296881005859375,-0.0204943662109374,-0.00986411083984251,0.0373992385677764,0.980965000000197,
-0.0110133276367188,-0.0252827695312499,-0.0050757075195289,0.0280405889315437,0.983981000000313,
-0.0181959326171875,-0.0300711728515624,-0.0242293208007798,0.042689897949572,0.986919000000398,
0.015322890625,-0.0181001645507812,-0.0074699091796866,0.0248637583044848,0.989973000000191,
0.024899697265625,-0.00373495458984374,0.0116837041015643,0.0277570486767033,0.9930260000001,
0.0177170922851563,-0.0276769711914062,0.0212605107421897,0.039139742083839,0.995996000000105,
-0.0229843359375,-0.00852335791015624,-0.0146525141601543,0.0285591228815943,0.999099999999999,
0.000957680664062543,-0.00612915624999988,-0.0242293208007798,0.0250108715373601,1.00205000000005,
0.015322890625,-0.0516189877929687,-0.0122583124999984,0.0552229762256978,1.00513000000001,
0.0368707055664063,-0.0133117612304687,0.00928950244140836,0.0402858135282206,1.00810700000011,
0.0177170922851563,0.00584185205078125,-0.0050757075195289,0.0193335304910346,1.01109900000029,
-0.032561142578125,-0.0468305844726562,0.0787213505859388,0.09721307878119,1.01419699999997,
0.015322890625,-0.0204943662109374,0.0260489140625015,0.036515146820591,1.01718400000027,
-0.0181959326171875,-0.0300711728515624,-0.0481713374023425,0.0596309076537335,1.02019400000017,
0.00574608398437504,-0.0204943662109374,-0.0194409174804662,0.0288268243139233,1.02318500000001,
0.00814028564453129,0.00344765039062511,-0.00268150585937299,0.00923802020264035,1.02615900000001,
0.0105344873046875,-0.0516189877929687,0.0882981572265642,0.10282052272358,1.02923400000009,
0.00574608398437504,-0.0540131894531251,-0.0601423457031238,0.0810403841472184,1.03226800000039,
