X,Y,Z,Magnitude,Seconds,
0.0051714755859375,-0.0427125576171875,-0.0244208569335882,0.0494720627355308,0.0,
-0.0115879360351562,0.0219308872070312,0.0162805712890677,0.0296698681618374,0.00391799999943032,
0.0243250888671875,-0.00440533105468754,-0.0435744702148391,0.0500984165877711,0.00792300000011892,
-0.018770541015625,0.0315076938476562,-0.00766144531249502,0.0374668617032871,0.0118379999994431,
-0.00679953271484374,0.0027772739257812,-0.0483628735351509,0.0489174246273866,0.0157399999998233,
-0.0331357509765625,-0.0020111293945313,-0.0411802685546832,0.0528945852848676,0.0196619999996983,
0.00756567724609375,0.0195366855468749,0.0330399829101609,0.0391223979972247,0.0235089999996489,
0.019536685546875,-0.0403183559570313,0.028251579589849,0.0529660613842197,0.0273809999998775,
-0.0546835659179687,0.0267192905273437,0.0114921679687541,0.0619377331875448,0.0313479999995252,
-0.0427125576171875,-0.0139821376953125,-0.0268150585937459,0.0523345977353248,0.035237999999481,
0.0171424838867188,-0.0211647426757813,0.00909796630859816,0.0287155720348879,0.0391929999996137,
-0.0139821376953125,0.0602381137695312,-0.00287304199218319,0.0619062589350262,0.0431459999999788,
-0.018770541015625,-0.0115879360351563,-0.0363918652343695,0.0425556262650504,0.0470909999994547,
-0.0618661708984375,0.00995987890624994,-0.0938527050781204,0.11284924696223,0.0509869999996226,
-0.00201112939453124,-0.018770541015625,-0.0100556469726509,0.0213891067485155,0.0548399999997855,
-0.00440533105468749,0.0147482822265624,-0.0483628735351509,0.0507531901156246,0.0586889999995037,
-0.0139821376953125,0.0458729038085937,-0.0172382519531205,0.050960580930386,0.0625460000001112,
-0.00679953271484374,0.0267192905273437,0.0162805712890677,0.0320189183596705,0.0665609999996377,
0.0123540805664062,-0.0020111293945313,-0.0220266552734323,0.0253345907923816,0.0704399999995076,
-0.0115879360351562,-0.0139821376953125,-0.0100556469726509,0.020758045961124,0.074282999999923,
-0.00201112939453124,-0.00919373437500004,0.0378283862304727,0.0389814853231816,0.0783139999994091,
0.019536685546875,0.0362960971679687,0.00191536132813042,0.0412644806195522,0.0822189999998955,
-0.0139821376953125,0.0147482822265624,-0.0411802685546832,0.0459219612103059,0.0862209999995684,
-0.00440533105468749,-0.018770541015625,0.0210689746093795,0.0285594440213974,0.0901669999993828,
-0.0115879360351562,-0.00440533105468754,-0.0890643017578086,0.0899229506347642,0.0940639999998893,
-0.0259531459960937,0.0458729038085937,-0.045968671874995,0.0699357411119522,0.097896999999648,
-0.0139821376953125,-0.0355299526367188,-0.0268150585937459,0.0466575296847592,0.101780999999391,
-0.0355299526367187,-0.00919373437500004,-0.00766144531249502,0.0374913327370725,0.105724999999438,
0.0410845004882813,0.00756567724609369,0.0426167895507863,0.059677184955221,0.109671000000162,
-0.0427125576171875,0.0530555087890624,-0.0316034619140577,0.0750868057385659,0.113663999999517,
0.0171424838867188,-0.0211647426757813,-0.0148440502929645,0.0310186543137918,0.117607000000135,
0.00277727392578125,0.0386902988281249,-0.0268150585937459,0.0471561219912585,0.121481000000131,
0.0147482822265625,-0.00440533105468754,0.0186747729492236,0.0242005354288038,0.125407999999879,
0.00277727392578125,-0.00919373437500004,0.0354341845703168,0.0367126604644795,0.129248999999618,
-0.0235589443359375,0.0027772739257812,0.0114921679687541,0.0263591925768731,0.133127000000059,
-0.0355299526367187,-0.0115879360351563,-0.0627280834960899,0.0730169175945875,0.136947999999393,
-0.037924154296875,0.0219308872070312,0.028251579589849,0.0521282748817019,0.140956000000187,
-0.018770541015625,-0.0235589443359375,-0.0196324536132764,0.0359553932410773,0.1448019999998,
-0.00679953271484374,0.00995987890624994,0.00430956298828633,0.0128064501762745,0.148795999999493,
-0.00440533105468749,-0.0235589443359375,-0.0268150585937459,0.0359649574907468,0.152847999999722,
-0.0115879360351562,-0.0211647426757813,-0.0148440502929645,0.0283297091970068,0.156699999999546,
-0.0211647426757812,0.0482671054687499,0.0186747729492236,0.0559142821430135,0.160643000000164,
-0.00201112939453124,-0.018770541015625,-0.00287304199218319,0.0190953455519835,0.164568999999574,
-0.00201112939453124,0.0410845004882812,-0.0507570751953086,0.065331933265405,0.168407999999545,
0.0147482822265625,0.0243250888671874,-0.00287304199218319,0.0285915397857435,0.172217999999702,
0.0147482822265625,-0.0139821376953125,0.0186747729492236,0.0275999845628593,0.176156999999876,
-0.02834734765625,-0.037924154296875,0.00430956298828633,0.0475435161870417,0.180046999999831,
-0.0115879360351562,-0.0020111293945313,-0.0627280834960899,0.0638211357003998,0.18383300000005,
-0.0355299526367187,-0.0163763393554688,0.0258573779296913,0.046895266482363,0.187780000000203,
-0.0115879360351562,0.0339018955078124,-0.0100556469726509,0.037212025161446,0.191800999999941,
-0.0211647426757812,-0.0355299526367188,-0.0100556469726509,0.0425610138852224,0.195697999999538,
-0.0786255825195312,-0.00919373437500004,-0.0316034619140577,0.0852366457766082,0.199528999999529,
-0.00440533105468749,0.00756567724609369,-0.00287304199218319,0.00921416215302844,0.203338999999687,
0.00277727392578125,-0.0403183559570313,-0.0196324536132764,0.0449301270019811,0.20716099999936,
-0.037924154296875,0.0458729038085937,-0.0148440502929645,0.0613425677002987,0.211026999999376,
0.0243250888671875,-0.0139821376953125,0.00670376464844225,0.0288470203554709,0.214987999999721,
-0.0235589443359375,0.0147482822265624,-0.0268150585937459,0.0386210182963133,0.218855999999505,
0.0147482822265625,-0.0427125576171875,-0.00766144531249502,0.0458319992048378,0.222772000000077,
-0.0522893642578125,0.0554497104492186,-0.0148440502929645,0.0776478836317414,0.226822999999968,
0.0123540805664062,-0.0020111293945313,0.0330399829101609,0.0353314083895127,0.230842999999368,
-0.0139821376953125,0.0219308872070312,-0.00287304199218319,0.026167123619287,0.234698000000208,
-0.00679953271484374,0.0243250888671874,0.0114921679687541,0.0277491174302689,0.238674000000174,
0.019536685546875,0.0123540805664062,-0.0052672436523391,0.0237075777862657,0.242529999999533,
-0.0307415493164062,0.00995987890624994,0.0426167895507863,0.0534830140681713,0.246390999999676,
-0.0211647426757812,0.0315076938476562,-0.0651222851562459,0.0753763432921833,0.250334999999723,
0.0339018955078125,-0.0139821376953125,-0.0579396801757763,0.0685700024239796,0.254206999999951,
-0.02834734765625,0.0506613071289062,-0.0555454785156204,0.0803457549761212,0.25812599999972,
0.0746033237304688,-0.018770541015625,-0.0435744702148391,0.088412236574788,0.262042999999721,
-0.0498951625976562,0.0602381137695312,0.0426167895507863,0.0890749591791854,0.26606399999946,
0.038690298828125,-0.0259531459960938,0.0426167895507863,0.0631402863639387,0.269919999999729,
-0.0498951625976562,0.0386902988281249,-0.0124498486328086,0.0643542166841925,0.273726999999781,
0.0362960971679688,0.0339018955078124,-0.0220266552734323,0.0543315629370616,0.277556999999433,
-0.0403183559570312,-0.0020111293945313,-0.0244208569335882,0.0471804273178,0.281363999999485,
0.0506613071289063,0.0626323154296875,-0.0052672436523391,0.0807286741609594,0.285233999999946,
0.00995987890625,-0.0211647426757813,-0.0435744702148391,0.0494558386326943,0.289058999999725,
0.0051714755859375,-0.00679953271484379,-0.0148440502929645,0.0171266936089906,0.292965999999979,
-0.0451067592773437,0.0362960971679687,0.00191536132813042,0.0579283610259099,0.296967999999652,
0.0698149204101563,-0.0403183559570313,0.0114921679687541,0.081435636324501,0.300836999999774,
-0.0786255825195312,0.0841801303710937,-0.00766144531249502,0.115442515219075,0.304809999999634,
0.172765591796875,-0.490428268066406,-0.0986411083984322,0.529242764800437,0.308692999999948,
-0.224671883789062,0.859901468261719,0.102471831054693,0.894655501656189,0.312468000000081,
0.280504666503906,-0.416208016601563,-0.0100556469726509,0.502009060724916,0.315416999999798,
0.235014834960938,-1.12489170800781,0.0378283862304727,1.14980185867012,0.318382999999812,
-0.320439950195313,0.970034744628906,-0.127371528320309,1.02950117712176,0.321471000000201,
0.0362960971679688,0.129669961914062,0.0450109912109422,0.141977797638266,0.32444200000009,
0.282898868164063,-0.988422213378906,-0.0292092602539018,1.02852487689601,0.327553999999509,
-0.241431295410156,0.522319034179688,0.0641646044921913,0.57898474966053,0.330605000000105,
-0.14326902734375,0.574991470703125,0.0426167895507863,0.594102176674167,0.33358700000008,
0.275716263183594,-0.562254317871094,-0.0411802685546832,0.627570864737083,0.336667999999918,
0.213467020019531,-0.246219698730469,0.0330399829101609,0.327542286048146,0.339680999999473,
-0.243825497070313,0.785681216796875,0.00430956298828633,0.822656927146519,0.34277800000018,
-0.248613900390625,0.160794583496094,-0.0531512768554645,0.300813609699575,0.34574799999973,
0.476829202636719,-0.85195271875,-0.0435744702148391,0.977286169925263,0.348761999999624,
-0.0235589443359375,0.340359708007812,0.0857124194335981,0.351776027521132,0.351877000000059,
-0.540706502929688,0.733008780273438,-0.0531512768554645,0.912409147531836,0.354836999999861,
0.333177103027344,-0.6987238125,-0.00287304199218319,0.774099607612946,0.357890000000225,
0.191919205078125,0.0195366855468749,-0.0866701000976509,0.211486097914056,0.360907999999654,
0.0410845004882813,0.591750882324219,-0.21595698974609,0.631264179509701,0.363910999999462,
-0.409025411621094,-0.528735494628906,-0.0914585034179645,0.674705616161399,0.36696799999936,
0.230226431640625,0.268533658203125,-0.0244208569335882,0.354557348911708,0.369974999999613,
0.701884158691406,0.249380044921875,-0.0770932934570272,0.748849220419726,0.373104000000239,
-0.880683138671875,-0.744213644042969,-0.0268150585937459,1.1533324698837,0.376072999999451,
-0.195941463867187,0.35472491796875,-0.0172382519531205,0.405610628584548,0.379098999999769,
0.850324661621094,0.402608951171875,0.0210689746093795,0.941057861885142,0.382128000000193,
-0.286921126953125,-0.607744149414063,0.0474051928710981,0.673738774711846,0.385113999999703,
-0.54549490625,0.1057279453125,-0.045968671874995,0.557544805337338,0.388133999999809,
0.416974161132813,0.421762564453125,-0.0531512768554645,0.595462987983179,0.391133999999511,
0.242197439941406,-0.456909444824219,-0.0699106884765577,0.521836511799446,0.394212999999581,
-0.318045748535156,0.120093155273437,-0.0531512768554645,0.344093769685218,0.397299000000203,
-0.179182052246094,0.246985843261719,-0.0363918652343695,0.307298848800416,0.400267999999414,
0.215861221679688,-0.387477596679688,0.00909796630859816,0.44364144074316,0.403366999999889,
0.165582986816406,0.151217776855469,-0.0100556469726509,0.224467497861475,0.406375999999909,
-0.37311238671875,0.170371390136719,-0.0387860668945272,0.411999542093467,0.409427999999934,
0.0171424838867188,-0.306074740234375,0.0258573779296913,0.307642999850062,0.41245600000002,
0.314023489746094,0.103333743652344,0.00670376464844225,0.330656249222641,0.415450999999848,
-0.205518270507813,0.206284415039062,-0.0579396801757763,0.296897332321127,0.418533000000025,
-0.0786255825195312,-0.217489278808594,-0.00766144531249502,0.231392018806817,0.421526999999514,
0.132064163574219,0.16318878515625,0.0114921679687541,0.210246504907817,0.424688999999489,
-0.0115879360351562,0.132064163574219,-0.0507570751953086,0.141955994042151,0.427724000000126,
-0.037924154296875,-0.215095077148438,-0.0435744702148391,0.222717013600509,0.430682000000161,
-0.0475009609375,0.132064163574219,-0.0100556469726509,0.14070678955396,0.4337859999996,
0.223043826660156,0.0937569370117187,0.0569819995117236,0.248567616791446,0.43690499999957,
0.223043826660156,-0.169605245605469,0.171903679199223,0.328732965901394,0.439980999999534,
-0.385083395019531,0.20149601171875,0.138384855957035,0.456114275392232,0.442976999999701,
0.0937569370117188,0.0267192905273437,0.0737414111328167,0.122237798736574,0.445980999999847,
0.199101810058594,-0.0834139858398438,-0.0794874951171831,0.230038443922537,0.449063000000024,
0.0530555087890625,0.0841801303710937,-0.0890643017578086,0.133542619450745,0.452091000000109,
-0.193547262207031,0.144035171875,-0.0483628735351509,0.246060238521942,0.45513899999969,
-0.0738371791992187,-0.0786255825195313,0.0258573779296913,0.110916704116342,0.458090999999513,
0.232620633300781,-0.380294991699219,-2.68198469970703,2.71878255276353,0.461056999999528,
-3.29164421044922,13.3959413608398,1.50786820556641,13.8765929923956,0.464132000000063,
11.7415480136719,-20.3216006191406,3.5333628100586,23.7342801497902,0.467091999999866,
-11.6928978359375,7.32903435400391,-9.67305354736328,16.8524944531662,0.470225999999457,
-2.98039799462891,16.7885251132812,3.65067869140626,17.4374540169588,0.473205000000235,
6.61556225927735,-5.09926646386719,-0.666066901855464,8.37924982284468,0.476305000000139,
1.31001138037109,-5.01307520410156,-0.694797321777338,5.22779075107532,0.479291999999987,
-4.29481470605469,-1.24699599267578,-0.958159504394526,4.57367489016815,0.482267999999749,
-2.77210245019531,8.33459905126953,2.21176349365235,9.05770341155279,0.485359999999673,
5.70815983007813,-2.920542953125,-1.348414375,6.5521661390316,0.488350999999966,
-0.456909444824219,-4.07454815332031,-0.0890643017578086,4.10105368708374,0.491420999999718,
-2.21185926171875,1.55900835302734,0.521457121582037,2.75585666682951,0.494413999999779,
-0.856741122070313,3.64435799902344,0.162326872558598,3.74722571896157,0.497363999999834,
1.81518793066406,-2.2693201015625,-0.555933625488276,2.95867929031395,0.500419999999394,
2.01869507177734,-2.60450833398438,0.732146867675786,3.37559365007989,0.503434000000198,
-3.13841530419922,3.59886816748047,-0.326090266113276,4.78621328089231,0.506472000000031,
-0.286921126953125,0.00756567724609369,-0.117794721679683,0.310252427903211,0.509497999999439,
2.08094431494141,-2.56620110742188,0.0809240161132863,3.30488518136472,0.51247499999954,
0.273322061523438,1.22621432226562,0.00430956298828633,1.25631408723214,0.515580999999656,
-2.08496657373047,1.32677079199219,-0.0555454785156204,2.47194086665528,0.518536999999924,
0.457675589355469,-1.60852044335938,-0.0579396801757763,1.67336844966546,0.521561999999903,
1.30043457373047,-0.0139821376953125,0.088106621093754,1.30349083518398,0.524580999999671,
-0.739425240722656,1.13284045751953,-0.122583124999995,1.35834598366748,0.527554999999666,
-0.739425240722656,-0.418602218261719,0.0785298144531303,0.853313796624333,0.530579999999645,
0.66118273046875,-0.713089022460938,-0.0052672436523391,0.972464035777211,0.533591999999771,
0.275716263183594,0.689913150390625,-0.0579396801757763,0.745222530124199,0.536685999999463,
-0.555071712890625,0.270927859863281,-0.0986411083984322,0.625489072620379,0.539678000000094,
0.00995987890625,-0.751396249023438,0.0306457812500049,0.752086887362585,0.542685999999776,
0.225438028320313,0.43133937109375,-0.0387860668945272,0.488242067681236,0.545750000000226,
-0.0786255825195312,0.158400381835937,0.0138863696289118,0.177385158493537,0.548735999999735,
-0.212700875488281,-0.588590536132813,0.00430956298828633,0.625858653364914,0.551808000000165,
0.172765591796875,0.158400381835937,-0.146525141601558,0.276420418558492,0.55484400000023,
0.294869876464844,0.385849539550781,-0.165678754882808,0.513105799068243,0.557883999999831,
-0.341987765136719,-0.634080367675781,0.00191536132813042,0.720428492484909,0.561015999999654,
-0.205518270507813,-0.133692220703125,0.00670376464844225,0.24526783288788,0.563997999999629,
0.364301724609375,0.625269705566406,-0.045968671874995,0.725114522021464,0.567119999999704,
0.057843912109375,-0.174393648925781,-0.0100556469726509,0.184011355600149,0.570088999999825,
-0.318045748535156,-0.476063058105469,-0.0627280834960899,0.575954812388187,0.573163000000022,
-0.06665457421875,0.390637942871094,0.0186747729492236,0.396723558437797,0.576160999999956,
0.285293069824219,0.227832229980469,-0.0507570751953086,0.368613539347081,0.57919099999981,
0.108122146972656,-0.452121041503906,-0.117794721679683,0.479561707491484,0.582222000000002,
-0.409025411621094,0.117698953613281,-0.0316034619140577,0.426794575690015,0.585215000000062,
0.0889685336914063,0.287687271484375,0.0258573779296913,0.302238267191172,0.588283999999476,
0.309235086425781,-0.255796505371094,-0.0220266552734323,0.401924575485699,0.591322000000218,
-0.217489278808594,-0.0594719692382814,-0.0603338818359322,0.233406681179339,0.594254999999976,
-0.138480624023438,0.237409036621094,-0.0411802685546832,0.277913203028414,0.597294999999576,
0.144035171875,-0.102567599121094,0.0306457812500049,0.1794586499307,0.600268000000142,
0.0434787021484375,-0.114538607421875,0.0737414111328167,0.142994006330734,0.603355000000192,
-0.148057430664063,0.218255423339844,0.00670376464844225,0.263820721423772,0.606327999999849,
0.00756567724609375,-0.00679953271484379,0.0210689746093795,0.0233960425803803,0.60935900000004,
0.100939541992188,-0.1241154140625,-0.0148440502929645,0.160666651719013,0.612473000000136,
-0.0618661708984375,0.103333743652344,0.00670376464844225,0.120624318192082,0.615477999999712,
-0.0427125576171875,0.0817859287109375,-0.0220266552734323,0.0948602880864629,0.618558000000121,
0.00995987890625,-0.0810197841796876,0.109654436035161,0.136702230993278,0.621549999999843,
0.038690298828125,0.16318878515625,0.0114921679687541,0.168105885526963,0.624557999999524,
-0.0427125576171875,-0.0355299526367188,-0.0363918652343695,0.0664161724868691,0.627580999999736,
-0.0522893642578125,-0.0929907924804688,-0.0220266552734323,0.108934102296601,0.630564000000049,
0.0339018955078125,0.213467020019531,0.0426167895507863,0.220303649326691,0.633694000000105,
-0.00201112939453124,-0.0546835659179689,0.0569819995117236,0.0790018056205075,0.636666999999761,
-0.0355299526367187,-0.0738371791992188,0.00430956298828633,0.0820541217710301,0.639616999999816,
-0.0403183559570312,0.12488155859375,-0.0052672436523391,0.131334372346219,0.642697999999655,
0.0458729038085938,0.0458729038085937,-0.0196324536132764,0.0677796418000452,0.645714999999655,
-0.00440533105468749,-0.0738371791992188,-0.0244208569335882,0.0778955340643463,0.648739999999634,
-0.0834139858398437,0.0722091220703125,0.0210689746093795,0.112320755138779,0.651761999999508,
-0.00201112939453124,0.103333743652344,-0.0363918652343695,0.109573149420313,0.654757000000245,
0.0506613071289063,-0.0738371791992188,0.0210689746093795,0.0919912972144518,0.657826999999997,
-0.0355299526367187,0.0219308872070312,-0.0052672436523391,0.0420842631365705,0.66077899999982,
-0.02834734765625,0.0458729038085937,-0.0148440502929645,0.0559306825640171,0.663843999999699,
0.0410845004882813,-0.0403183559570313,-0.0339976635742136,0.0668531759601208,0.666811999999481,
-0.0331357509765625,0.0339018955078124,-0.108217915039058,0.118145815191246,0.669824999999946,
-0.0834139858398437,0.0506613071289062,-0.227927998046871,0.247942802612525,0.672781999999643,
-0.018770541015625,0.352330716308594,-0.304542451171871,0.466085154698492,0.675763999999617,
-0.109750204101563,0.495982815917969,0.959596025390629,1.0857571519137,0.678879000000052,
0.536684244140625,-3.23657757226563,-0.457771357421871,3.31255475047244,0.681883000000198,
-0.516764486328125,3.14157565039063,0.650744011230474,3.24961703429952,0.684980999999425,
0.347542312988281,0.177553995117187,-0.10103531005859,0.403136719213165,0.688013999999384,
0.388243741210938,-2.47522144433594,0.0905008227539117,2.50711882446945,0.690951999999925,
-0.710694820800781,0.618087100585937,-0.158496149902339,0.955112465502178,0.694069000000127,
0.038690298828125,1.77209230078125,0.0234631762695354,1.7726699022526,0.697091999999429,
0.711460965332031,-1.24220758935547,0.0833182177734422,1.43394502183886,0.700213000000076,
-0.590984737792969,-0.782520870605469,-0.127371528320309,0.988850534440881,0.703222000000096,
-0.121721212402344,1.216637515625,0.0689530078125049,1.22465399818123,0.706317999999555,
0.292475674804687,0.103333743652344,-0.0268150585937459,0.311350173112288,0.709460999999465,
0.0267192905273438,-1.04109464990234,-0.0579396801757763,1.04304793613738,0.712499000000207,
-0.260584908691406,0.491194412597656,0.00430956298828633,0.556053071152399,0.715619999999944,
0.0267192905273438,0.594145083984375,-0.122583124999995,0.607247003980957,0.718737999999576,
0.227832229980469,-0.693935409179688,-0.0172382519531205,0.730582667780761,0.721751999999469,
-0.116932809082031,-0.0235589443359375,-0.0435744702148391,0.126992283830721,0.724816999999348,
-0.095384994140625,0.570203067382812,-0.00287304199218319,0.578133280074988,0.727824999999939,
0.0650265170898438,-0.315651546875,0.0809240161132863,0.332284581877221,0.730950000000121,
0.0913627353515625,-0.260584908691406,-0.0148440502929645,0.276535693677558,0.733964999999444,
-0.179182052246094,0.481617605957031,0.0234631762695354,0.514404750032073,0.736961999999949,
0.0793917270507813,-0.243825497070313,-0.0363918652343695,0.258994762883204,0.74002500000006,
0.151217776855469,-0.150451632324219,0.0138863696289118,0.213764685969416,0.743026999999529,
-0.174393648925781,0.306840884765625,-0.0675164868164018,0.359336818794609,0.746087999999872,
-0.0882023891601562,-0.00919373437500004,-0.0603338818359322,0.107258395954396,0.749071999999614,
0.194313406738281,-0.231854488769531,-0.0363918652343695,0.30469422681773,0.752139999999599,
-0.0475009609375,0.153611978515625,0.0234631762695354,0.162491544008068,0.755232999999862,
-0.0738371791992187,0.0985453403320312,0.0258573779296913,0.125824151603149,0.758315999999468,
0.0506613071289063,-0.207912472167969,0.0402225878906304,0.217743015271731,0.761411999999837,
0.00995987890625,0.0386902988281249,0.0378283862304727,0.055019316753651,0.764449000000241,
-0.0642603725585937,0.187130801757812,-0.0627280834960899,0.207562387987283,0.767507999999907,
-0.0163763393554687,-0.114538607421875,-0.0914585034179645,0.147485371912884,0.770486999999775,
0.00277727392578125,-0.0762313808593751,0.00909796630859816,0.0768225856707408,0.773524999999609,
-0.0642603725585937,0.177553995117187,-0.000478840332027275,0.188825437776554,0.77661900000021,
0.038690298828125,0.0147482822265624,0.0210689746093795,0.046458075112241,0.779601000000184,
0.019536685546875,-0.18157625390625,0.0402225878906304,0.187001269090357,0.782642999999553,
0.0219308872070313,-0.0475009609375001,0.00191536132813042,0.0523543093994252,0.785686000000169,
-0.095384994140625,0.23980323828125,0.00670376464844225,0.258164348154122,0.788641999999527,
0.00995987890625,-0.0211647426757813,-0.0483628735351509,0.0537225563142355,0.791725000000042,
0.170371390136719,-0.138480624023438,-0.045968671874995,0.224313202021169,0.794726000000082,
-0.0475009609375,0.134458365234375,-0.0268150585937459,0.145101483930636,0.797813000000133,
-0.0498951625976562,0.12488155859375,-0.0196324536132764,0.135905717916239,0.800765999999385,
0.108122146972656,-0.145663229003906,0.0258573779296913,0.183239676225483,0.803734999999506,
-0.057077767578125,0.0243250888671874,0.0162805712890677,0.0641454480193056,0.806807999999364,
-0.02834734765625,0.076997525390625,0.0234631762695354,0.0853388052182565,0.809804999999869,
0.0243250888671875,-0.02834734765625,-0.0100556469726509,0.0386833052308028,0.812836000000061,
0.0051714755859375,-0.0139821376953125,-0.0339976635742136,0.0371225734933886,0.815818000000036,
-0.0139821376953125,0.0650265170898438,0.00909796630859816,0.0671321166828427,0.818817999999737,
-0.0115879360351562,0.00756567724609369,-0.0387860668945272,0.0411810480548234,0.821920999999747,
0.00756567724609375,-0.0235589443359375,-0.00287304199218319,0.0249101927070971,0.824897999999848,
-0.00679953271484374,0.0482671054687499,-0.0196324536132764,0.0525488377640182,0.827964000000065,
0.0315076938476563,0.0171424838867187,-0.0292092602539018,0.0462577605379272,0.83094600000004,
-0.00201112939453124,-0.00440533105468754,0.00670376464844225,0.00826994822260974,0.833926000000247,
0.038690298828125,0.0147482822265624,-0.0363918652343695,0.0551254832838721,0.837048999999752,
-0.0115879360351562,0.0506613071289062,-0.00766144531249502,0.0525313815337135,0.840070999999625,
-0.02834734765625,-0.018770541015625,-0.0172382519531205,0.0381190590067859,0.84319400000004,
-0.0331357509765625,-0.0451067592773439,0.0569819995117236,0.0798720601564719,0.846180999999888,
0.0291134921875,0.0147482822265624,-0.00766144531249502,0.0335232009250655,0.849207000000206,
0.00756567724609375,0.0506613071289062,-0.0196324536132764,0.0548565469846477,0.852302999999665,
0.00277727392578125,0.0243250888671874,0.00430956298828633,0.0248595159245991,0.855328999999983,
-0.0498951625976562,-0.0235589443359375,0.0641646044921913,0.0846265181755086,0.85841900000014,
0.0434787021484375,0.0243250888671874,-0.0292092602539018,0.057751955581515,0.861487000000125,
0.0123540805664062,0.0410845004882812,0.0306457812500049,0.0527230821883166,0.864544000000024,
-0.0403183559570312,0.00517147558593745,-0.000478840332027275,0.040651485518704,0.867521999999553,
-0.0115879360351562,0.00756567724609369,-0.0531512768554645,0.0549233826809053,0.870527000000038,
0.0410845004882813,-0.02834734765625,-0.0124498486328086,0.0514442127988731,0.873642999999902,
-0.0163763393554687,-0.0331357509765625,0.00191536132813042,0.0370112292754987,0.876615999999558,
-0.0259531459960937,0.0339018955078124,-0.0052672436523391,0.0430191604033632,0.879643000000215,
0.0219308872070313,0.00756567724609369,-0.0220266552734323,0.0319902614621108,0.882641000000149,
-0.0115879360351562,-0.0211647426757813,-0.0052672436523391,0.0246975798364944,0.885613999999805,
-0.0259531459960937,0.0195366855468749,0.00909796630859816,0.0337345647697494,0.888683000000128,
-0.00919373437499998,0.0219308872070312,0.0138863696289118,0.0275376075016757,0.891697999999451,
0.0219308872070313,0.0123540805664062,-0.0339976635742136,0.0423016341154121,0.894875999999385,
0.019536685546875,0.0291134921874999,-0.0555454785156204,0.065685445062345,0.897879999999532,
-0.0355299526367187,-0.0163763393554688,-0.0603338818359322,0.0719078529956582,0.900872999999592,
-0.00201112939453124,0.00995987890624994,-0.0435744702148391,0.0447434719682392,0.903946999999789,
-0.02834734765625,0.0291134921874999,0.0521935961914117,0.0661463455520263,0.906968999999663,
-0.02834734765625,-0.018770541015625,0.0306457812500049,0.0457719263040864,0.910037999999986,
0.0506613071289063,0.0362960971679687,0.00670376464844225,0.0626810591015954,0.913056999999753,
0.0123540805664062,0.0195366855468749,0.0306457812500049,0.0383857955137298,0.916102000000137,
-0.02834734765625,-0.0403183559570313,-0.00287304199218319,0.0493699940906521,0.919157999999697,
-0.0139821376953125,0.0219308872070312,-0.0387860668945272,0.0466992823645604,0.922115999999733,
0.019536685546875,-0.0139821376953125,0.00191536132813042,0.0241008478212998,0.925191999999697,
-0.0211647426757812,0.0195366855468749,0.0593762011718795,0.0659936487875387,0.928186999999525,
-0.037924154296875,-0.0259531459960938,0.028251579589849,0.0539440359590318,0.931117000000086,
0.0458729038085938,0.0219308872070312,-0.0387860668945272,0.063950340911263,0.934231999999611,
-0.00919373437499998,-0.018770541015625,-0.0387860668945272,0.0440592436036306,0.937198999999964,
-0.0594719692382812,0.00756567724609369,0.00191536132813042,0.0599818573094267,0.940287999999782,
-0.0139821376953125,0.00517147558593745,-0.00287304199218319,0.0151821837874356,0.943242999999711,
0.019536685546875,0.0171424838867187,-0.0531512768554645,0.059165911362288,0.946240000000216,
0.0219308872070313,-0.0307415493164063,-0.0196324536132764,0.0425610138852215,0.949297999999544,
-0.00919373437499998,0.00756567724609369,0.00191536132813042,0.0120595535973523,0.952292999999372,
-0.018770541015625,0.0386902988281249,-0.0507570751953086,0.0665248308213638,0.955361999999695,
0.0506613071289063,0.0339018955078124,0.00430956298828633,0.0611103828508872,0.958388000000014,
-0.00919373437499998,0.0027772739257812,-0.0052672436523391,0.0109536230494749,0.961491000000024,
0.0051714755859375,0.0171424838867187,-0.0339976635742136,0.0384246020415016,0.964517999999771,
-0.00201112939453124,0.0339018955078124,-0.0483628735351509,0.0590961140604116,0.967506999999387,
-0.0331357509765625,0.0219308872070312,0.00909796630859816,0.0407641361667419,0.970604999999523,
0.00756567724609375,-0.00679953271484379,0.0402225878906304,0.0414889104936702,0.973570000000109,
-0.0331357509765625,0.0219308872070312,0.0426167895507863,0.0582677660296351,0.976662999999462,
0.0267192905273438,0.0243250888671874,-0.0555454785156204,0.0662640975054397,0.979687999999442,
0.00756567724609375,0.0123540805664062,-0.000478840332027275,0.0144945530078334,0.982715000000098,
0.019536685546875,-0.00679953271484379,0.0474051928710981,0.051722026627383,0.985840999999709,
-0.0139821376953125,0.0243250888671874,-0.0172382519531205,0.032929735093476,0.988867000000027,
-0.0163763393554687,-0.0163763393554688,-0.00287304199218319,0.0233371667444829,0.991957000000184,
0.000383072265625006,0.0291134921874999,-0.0172382519531205,0.0338363636065043,0.994974000000184,
0.0123540805664062,-0.0020111293945313,-0.0172382519531205,0.0213031753145409,0.99795499999982,
-0.0115879360351562,0.0171424838867187,-0.0316034619140577,0.0377746452043507,1.00109799999973,
-0.0259531459960937,0.00995987890624994,-0.0435744702148391,0.0516865497922391,1.00410399999964,
-0.00440533105468749,-0.0235589443359375,0.00909796630859816,0.0256359862474137,1.00716999999986,
-0.0475009609375,0.0339018955078124,0.00191536132813042,0.0583896259452467,1.01016100000015,
0.00995987890625,0.00995987890624994,-0.0052672436523391,0.0150380261785725,1.01318099999935,
0.00756567724609375,0.0027772739257812,0.0474051928710981,0.0480853931438321,1.01630699999987,
-0.0235589443359375,0.00995987890624994,-0.0244208569335882,0.0353638416948971,1.01925099999971,
0.0051714755859375,-0.0020111293945313,-0.0292092602539018,0.0297316277011142,1.02229499999976,
0.0051714755859375,0.0123540805664062,0.0234631762695354,0.027016441420596,1.02528499999971,
-0.0307415493164062,0.0123540805664062,-0.000478840332027275,0.0331345054147164,1.02823999999964,
-0.0475009609375,0.0195366855468749,-0.0435744702148391,0.0673554587739351,1.03130099999998,
0.0051714755859375,0.00995987890624994,0.0186747729492236,0.0217873929663042,1.03439699999944,
