X,Y,Z,Magnitude,Seconds,
-0.0161848032226562,-0.0228885678710938,-0.0390733710937532,0.048089112314285,0.0,
-0.0497036264648437,-0.00852335791015631,-0.0773805976562532,0.0923626277639407,0.00378699999998844,
-0.0568862314453125,-0.00852335791015631,-0.0294965644531278,0.0646431610663634,0.00761599999998452,
-0.0497036264648437,0.0202070620117187,-0.0390733710937532,0.0663739720638467,0.0113949999999932,
-0.00181959326171871,0.00823605371093744,-0.106111017578128,0.10644572115324,0.0151339999999891,
-0.00181959326171871,-0.00852335791015631,0.00162805712890446,0.00886617841675278,0.018846999999937,
-0.03294421484375,-0.0157059628906251,-0.00794874951172098,0.0373521241804657,0.0226030000000037,
-0.0736456430664062,-0.0252827695312501,0.0255700737304672,0.0819556456164939,0.0263410000000022,
-0.0688572397460937,-0.0396479794921876,0.0423294853515603,0.0900281460066346,0.0301849999999604,
-0.0281558115234375,-0.00852335791015631,-0.0223139594726582,0.0369230299400712,0.0338849999999411,
0.00536301171875003,-0.0204943662109376,-0.0414675727539091,0.0465654435304144,0.0376079999999774,
-0.0401268198242187,-0.0444363828125001,-0.0390733710937532,0.0714946299752262,0.0412860000000137,
-0.00900219824218745,-0.0420421811523438,-0.0223139594726582,0.0484406580940595,0.0449709999999186,
-0.0161848032226562,-0.0540131894531251,0.0112048637695281,0.0574884463379292,0.0486869999999726,
-0.0688572397460937,-0.0228885678710938,-0.0486501777343769,0.0873615807905692,0.0524489999999105,
-0.0353384165039062,-0.0204943662109376,-0.0749863959960955,0.0853919335293142,0.0562009999999873,
-0.0544920297851562,-0.0157059628906251,-0.0630153876953141,0.084776162137825,0.0601439999999229,
-0.0185790048828124,-0.00852335791015631,-0.00555454785156506,0.0211820691703034,0.0639199999999391,
-0.00660799658203121,-0.00134075292968756,-0.0678037910156277,0.0681382221175276,0.0677129999999124,
-0.0233674082031249,-0.00134075292968756,-0.0701979926757836,0.0739972402205603,0.071454000000017,
-0.00660799658203121,0.00344765039062495,-0.00316034619140915,0.0080956593365622,0.0752549999999701,
-0.0305500131835937,-0.0181001645507813,-0.0510443793945328,0.0621807681687523,0.0791779999999562,
-0.0353384165039062,-0.0396479794921876,-0.0103429511718769,0.0541086185164647,0.0829519999999775,
-0.0281558115234375,0.00344765039062495,-0.0797747993164091,0.0846679078620268,0.086734999999976,
-0.00660799658203121,-0.00373495458984381,-0.0390733710937532,0.0398038168175676,0.0905149999999821,
-0.0137906015624999,-0.0133117612304688,-0.043861774414065,0.047866887649637,0.0942430000000058,
0.000574608398437537,-0.00612915625000006,-0.0510443793945328,0.0514142528772078,0.0979719999999134,
-0.0233674082031249,-0.0252827695312501,-0.0630153876953141,0.0718066381868175,0.101733999999965,
-0.0257616098632812,-0.0204943662109376,-0.0318907661132837,0.0458333999658337,0.105440999999928,
-0.0137906015624999,-0.0133117612304688,-0.0701979926757836,0.0727677253610556,0.109105999999997,
-0.0760398447265624,0.00584185205078119,-0.0199197578125023,0.0788224712422269,0.112818999999945,
-0.0592804331054687,0.0010534487304687,-0.0893516059570327,0.107233338987931,0.116502999999966,
-0.00421379492187496,0.0010534487304687,-0.0845632026367209,0.0846746778089558,0.120184999999992,
-0.00421379492187496,-0.0109175595703126,-0.0630153876953141,0.064092809744976,0.123923999999988,
-0.00660799658203121,-0.0564073911132813,0.0351468803710908,0.0667889406328218,0.127765999999951,
-0.0473094248046875,-0.0300711728515626,-0.0486501777343769,0.0742246381305115,0.131645999999932,
-0.0161848032226562,-0.00612915625000006,-0.0773805976562532,0.0792923155503227,0.135377999999946,
-0.00660799658203121,-0.0300711728515626,-0.0582269843750023,0.0658659454111413,0.13909799999999,
-0.0377326181640625,0.00344765039062495,-0.0342849677734396,0.0510988823943998,0.142828000000009,
-0.03294421484375,-0.00612915625000006,-0.00794874951172098,0.0344393737865275,0.146553999999924,
-0.0137906015624999,-0.0396479794921876,-0.00555454785156506,0.0423437831458631,0.150442999999996,
-0.0568862314453125,-0.0157059628906251,-0.0151313544921905,0.0609235462455993,0.154138999999986,
-0.0185790048828124,-0.0157059628906251,0.00402225878906037,0.0246583709624832,0.157855999999924,
-0.0113963999023437,-0.0540131894531251,0.0231758720703095,0.0598700560535287,0.161578999999961,
-0.0137906015624999,-0.0109175595703126,0.0183874687499976,0.0254454869369617,0.165283999999929,
0.000574608398437537,-0.0324653745117188,-0.0749863959960955,0.0817146884071705,0.168968999999947,
-0.0185790048828124,-0.00852335791015631,-0.0175255561523464,0.0269253072582142,0.17272099999991,
-0.0137906015624999,-0.0133117612304688,-0.0414675727539091,0.0456830742027437,0.176403999999934,
-0.03294421484375,-0.0157059628906251,-0.0941400092773463,0.100967023867854,0.18008599999996,
-0.0353384165039062,-0.0348595761718751,-0.0678037910156277,0.084031826161147,0.183741999999938,
0.014939818359375,-0.0204943662109376,-0.0318907661132837,0.040746020447294,0.187434999999937,
-0.0664630380859375,-0.0252827695312501,-0.0294965644531278,0.076984421679458,0.191105999999991,
0.000574608398437537,-0.0300711728515626,-0.0725921943359396,0.0785762832538351,0.194811999999956,
0.00296881005859378,-0.0348595761718751,-0.0845632026367209,0.0915146934881273,0.198844000000008,
-0.0544920297851562,-0.0348595761718751,-0.0869574042968768,0.108379709923212,0.202681999999982,
-0.042521021484375,-0.0300711728515626,-0.115687824218753,0.126869954588202,0.206426999999962,
0.0245166250000001,-0.0133117612304688,-0.0654095893554718,0.0711103527490835,0.210219999999936,
-0.042521021484375,0.00823605371093744,-0.0318907661132837,0.0537856004158761,0.213968000000023,
-0.042521021484375,-0.0420421811523438,-0.0510443793945328,0.0786200415409085,0.217759999999998,
-0.00181959326171871,-0.0181001645507813,-0.0247081611328142,0.0306825700189629,0.221575999999914,
-0.052097828125,-0.0228885678710938,-0.00794874951172098,0.0574565301191413,0.225334999999973,
-0.0449152231445312,-0.0157059628906251,-0.11089942089844,0.120676162087025,0.229067999999984,
-0.0281558115234375,-0.0133117612304688,-0.0606211860351582,0.068153363129853,0.232827999999927,
-0.0281558115234375,-0.0276769711914063,-0.043861774414065,0.0590137247733407,0.23655599999995,
-0.03294421484375,-0.0252827695312501,-0.0486501777343769,0.0639638923176812,0.240245999999956,
-0.00660799658203121,-0.00852335791015631,-0.0462559760742209,0.0474966164212953,0.24404699999991,
-0.0185790048828124,0.00584185205078119,-0.106111017578128,0.107883523808247,0.247802999999976,
-0.0449152231445312,-0.0300711728515626,-0.0271023627929718,0.0604664433860092,0.251509999999939,
-0.0377326181640625,-0.0468305844726563,-0.0462559760742209,0.0758714006602253,0.255162999999925,
-0.0473094248046875,0.0417548769531249,0.0231758720703095,0.0672218154391886,0.258868000000007,
-0.061674634765625,-0.0157059628906251,-0.106111017578128,0.12373352777344,0.262538999999947,
0.0197282216796875,-0.0133117612304688,-0.00794874951172098,0.0250915989227468,0.266303999999991,
-0.052097828125,-0.0683783994140626,-0.0893516059570327,0.123989913657813,0.270367999999962,
-0.0640688364257812,-0.152175457519531,0.0566946953124976,0.174575124656433,0.274181999999996,
0.00536301171875003,0.0776679018554687,-0.158783454101565,0.176842444480249,0.277984999999944,
-0.0736456430664062,0.206954791503906,0.128520745117186,0.254502550860628,0.281745999999998,
0.00536301171875003,-0.118656634277344,-0.223426898925783,0.253037028745429,0.285550999999941,
-0.0760398447265624,-0.262308733886719,-0.0342849677734396,0.275251501130364,0.289332999999942,
0.00775721337890628,0.0154186586914062,-0.082169000976565,0.0839622183885984,0.293182999999999,
0.014939818359375,0.542143023925781,0.0806367119140603,0.5483106198792,0.296983999999952,
0.0101514150390625,-0.0396479794921876,0.185981584960935,0.190431519055249,0.30058699999995,
-0.195749927734375,-0.836917132324219,-0.458058661621097,0.973943560003308,0.303520999999932,
0.0580354482421875,-0.353288396972656,-0.132447235839846,0.381736918531332,0.30643699999996,
0.101131078125,0.982676129394531,0.31766267626953,1.03768465640543,0.309482000000003,
-0.212509339355469,0.539748822265625,0.00402225878906037,0.580090673098778,0.312398999999914,
-0.255604969238281,-0.937473602050781,-0.328771771972658,1.02580774655264,0.315400999999952,
0.328580235839844,-0.67650562109375,0.0088106621093722,0.752131939570986,0.31834600000002,
0.228023766113281,0.683400921875,0.0495120903320281,0.722137871199905,0.321262999999931,
-0.432775892089844,0.436798150878906,-0.0989284125976582,0.622795655254984,0.324291000000017,
-0.210115137695312,-0.379624615234375,0.030358477050779,0.434953855839226,0.327234999999973,
0.249571581054688,-0.164146465820313,0.0207816704101536,0.299435993388356,0.33027299999992,
0.0484586416015626,0.0345722719726562,-0.312012360351565,0.317640039899529,0.333211000000006,
-0.157442701171875,-0.204847894042969,-0.0678037910156277,0.267110871965607,0.33611499999995,
0.0819774648437501,0.0585142885742187,0.0566946953124976,0.115579043023085,0.33916499999998,
-0.171807911132812,0.422432940917969,-0.0582269843750023,0.459736804715297,0.342089999999985,
-0.246028162597656,-0.0803494077148438,-0.165966059082034,0.307458317302568,0.345098000000007,
0.38843527734375,-0.530459319824219,0.0375410820312485,0.658542623915541,0.348044999999956,
0.206475951171875,0.0273896669921875,0.00641646044921629,0.208383500390434,0.350986999999918,
-0.631494629882813,0.51101840234375,-0.13005303417969,0.822702295368217,0.353977999999984,
-0.504601941894531,0.16625336328125,-0.0893516059570327,0.538745774974765,0.356928999999923,
0.390829479003906,-0.453844866699219,-0.00794874951172098,0.598987501794901,0.359952000000021,
0.35012805078125,-0.180905877441406,-0.0678037910156277,0.399892413672495,0.362908999999945,
-0.411228077148438,0.199772186523437,-0.0582269843750023,0.46087725009265,0.365928999999937,
-0.41601648046875,0.403279327636719,0.0830309135742162,0.585318768475519,0.368965000000003,
0.424348302246094,-0.377230413574219,-0.144418244140628,0.585859109159515,0.37199499999997,
0.261542589355469,-0.710024444335938,-0.0271023627929718,0.757148450219825,0.375120999999922,
-0.545303370117188,0.427221344238281,0.0159932670898417,0.692913866960486,0.378145000000018,
-0.198144129394531,0.85578344140625,-0.0725921943359396,0.881417052976143,0.381143999999949,
0.556029393554688,-0.587920159667969,0.0088106621093722,0.809256713538794,0.38409200000001,
0.0460644399414063,-0.954233013671875,-0.165966059082034,0.969653190463294,0.387031999999977,
-0.578822193359375,0.506229999023437,-0.0223139594726582,0.769286589135658,0.390089999999987,
0.0867658681640626,0.805505206542969,0.0590888969726535,0.812316718645837,0.393058999999994,
0.438713512207031,-0.499334698242188,-0.118082025878909,0.675091143103887,0.396085999999968,
-0.267575977539062,-0.683688226074219,-0.0630153876953141,0.736883595498562,0.399024999999938,
-0.518967151855469,0.0968215151367187,-0.0797747993164091,0.5339150954078,0.40196299999991,
0.0604296499023438,0.62594008203125,0.00402225878906037,0.628863186588604,0.405021999999917,
0.407588890625,-0.207242095703125,-0.0366791694335955,0.458719251244898,0.407945999999924,
-0.430381690429688,-0.295827557128906,-0.11089942089844,0.533892334248752,0.411000999999942,
-0.459112110351563,0.230896808105469,-0.0582269843750023,0.517192079960788,0.413971999999944,
0.184928136230469,0.317088067871094,0.0543004936523417,0.371068459946121,0.416917000000012,
0.414771495605469,-0.353288396972656,-0.0294965644531278,0.545635530658373,0.419933000000015,
-0.255604969238281,-0.259914532226563,-0.0414675727539091,0.366891024627145,0.422854999999913,
-0.392074463867188,0.293146051269531,-0.043861774414065,0.491508746459726,0.425898999999959,
0.218446959472656,0.0848505068359374,-0.0534385810546905,0.2403629850004,0.428852000000006,
0.287878807617188,-0.283856548828125,-0.0941400092773463,0.415103709372063,0.43177199999991,
-0.236451355957031,-0.00134075292968756,-0.108505219238284,0.260162303099979,0.43476899999996,
-0.353767237304687,0.187801178222656,0.0495120903320281,0.403574017772522,0.437712999999917,
0.184928136230469,-0.0372537778320313,-0.0175255561523464,0.189455547954876,0.440741000000003,
0.237600572753906,-0.243155120605469,-0.132447235839846,0.364857116048543,0.443671999999992,
-0.174202112792969,0.0130244570312499,-0.0366791694335955,0.178497546349611,0.446594000000005,
-0.315460010742187,0.218925799804687,-0.000766144531251456,0.383984519447107,0.449591999999939,
0.115496288085938,-0.0181001645507813,-0.0534385810546905,0.128540617952202,0.452514999999948,
0.218446959472656,-0.279068145507813,-0.0199197578125023,0.354957604075933,0.455527999999958,
-0.119135474609375,-0.0181001645507813,-0.0606211860351582,0.134891828749838,0.458438999999998,
-0.207720936035156,0.192589581542969,-0.0247081611328142,0.28433998560312,0.461420999999973,
0.0676122548828125,-0.0492247861328126,-0.0558327827148464,0.100557427402668,0.464357999999947,
0.149015111328125,-0.0995030209960938,-0.0318907661132837,0.181998284483054,0.467281999999955,
-0.0856166513671875,0.0273896669921875,-0.0630153876953141,0.109778613289038,0.47029299999997,
-0.171807911132812,-0.0276769711914063,-0.00316034619140915,0.174051603986289,0.473195999999916,
-0.0305500131835937,-0.0204943662109376,-0.115687824218753,0.121396025570753,0.476166999999919,
0.04367023828125,0.0178128603515624,-0.0486501777343769,0.0677585972333539,0.479125999999951,
-0.0161848032226562,0.0010534487304687,-0.0606211860351582,0.0627533728646763,0.482054999999946,
-0.111952869628906,-0.0851378110351563,-0.0127371528320328,0.141223677010165,0.485042000000021,
-0.0401268198242187,-0.0468305844726563,-0.0390733710937532,0.0730068054354254,0.48795599999994,
0.0197282216796875,0.022601263671875,-0.0678037910156277,0.0741442777717838,0.490987000000018,
-0.0760398447265624,0.0369664736328124,-0.0486501777343769,0.0975470038108378,0.493918000000008,
-0.0592804331054687,-0.104291424316406,-0.0725921943359396,0.140215896436971,0.496808999999985,
0.053247044921875,-0.0204943662109376,-0.0558327827148464,0.0798283562713366,0.49981200000002,
0.0269108266601563,0.0369664736328124,-0.0965342109375023,0.106815573048618,0.502756999999974,
-0.0975876596679687,-0.106685625976563,-0.0845632026367209,0.167499580147717,0.505770999999982,
-0.052097828125,-0.0635899960937501,-0.0271023627929718,0.086558704747166,0.508779000000004,
0.072400658203125,0.0752737001953125,-0.115687824218753,0.155857813156122,0.511822999999936,
-0.0257616098632812,0.0130244570312499,-0.043861774414065,0.0525085924250223,0.514931999999931,
-0.10955866796875,-0.144992852539063,-0.00794874951172098,0.181904402457173,0.517902999999933,
0.0125456166992188,-0.0252827695312501,-0.0271023627929718,0.0391298990861961,0.52091699999994,
0.0628238515625,0.0609084902343749,0.0112048637695281,0.088216945536964,0.523875999999973,
-0.061674634765625,-0.0204943662109376,-0.0486501777343769,0.0811826299983421,0.526752999999985,
-0.116741272949219,-0.0875320126953126,-0.0654095893554718,0.15990244662277,0.529784999999947,
-0.0161848032226562,0.0106302553710937,-0.0773805976562532,0.0797665787046787,0.532717999999932,
0.04367023828125,0.0441490786132812,-0.0797747993164091,0.10109524944287,0.535747000000015,
-0.0473094248046875,-0.0731668027343751,-0.00794874951172098,0.0874914013862015,0.538666999999919,
-0.0760398447265624,-0.0731668027343751,-0.043861774414065,0.114277269232166,0.541550999999913,
-0.0353384165039062,0.00344765039062495,-0.0127371528320328,0.0377216786011186,0.544575000000009,
0.0125456166992188,0.0106302553710937,-0.00316034619140915,0.016744629457469,0.547543000000019,
0.00296881005859378,-0.0109175595703126,0.0351468803710908,0.0369230299400672,0.55059899999992,
-0.0401268198242187,-0.0779552060546876,-0.0678037910156277,0.11083559850664,0.55350599999997,
-0.080828248046875,-0.0540131894531251,-0.0558327827148464,0.112106779201392,0.556483999999955,
0.0101514150390625,0.0848505068359374,-0.0199197578125023,0.087746546877467,0.559440999999993,
0.0364876333007813,0.0345722719726562,-0.000766144531251456,0.0502710289400004,0.562381999999957,
-0.0401268198242187,-0.0803494077148438,-0.0630153876953141,0.109713846326351,0.565354999999954,
-0.0664630380859375,-0.0468305844726563,-0.0606211860351582,0.101416799742314,0.568260000000009,
-0.0161848032226562,0.0441490786132812,-0.0773805976562532,0.0905474786584183,0.571248999999966,
0.0700064565429688,0.022601263671875,-0.11089942089844,0.13308043670231,0.574202000000014,
-0.0592804331054687,-0.0803494077148438,-0.118082025878909,0.154640104452129,0.577091999999993,
-0.0880108530273437,-0.0803494077148438,-0.0558327827148464,0.131602572909538,0.580094999999915,
0.0269108266601563,0.0154186586914062,-0.0582269843750023,0.065972034505401,0.58304499999997,
0.0508528432617188,0.0154186586914062,-0.000766144531251456,0.0531444604929411,0.586090000000013,
-0.0927992563476562,-0.0923204160156251,-0.0318907661132837,0.13472854988928,0.588994999999954,
-0.0951934580078125,-0.0923204160156251,-0.0175255561523464,0.133760976294405,0.591895000000022,
0.0197282216796875,0.0297838686523437,-0.0654095893554718,0.0745298325651843,0.594926999999984,
0.014939818359375,0.0010534487304687,-0.0247081611328142,0.0288929256636283,0.597880999999916,
-0.0257616098632812,-0.0923204160156251,-0.108505219238284,0.144776042071863,0.600870999999984,
-0.114347071289062,-0.0611957944335938,-0.0749863959960955,0.149810338605945,0.603790000000004,
-0.0257616098632812,-0.0109175595703126,-0.0366791694335955,0.0461325819790919,0.606677999999988,
0.0316992299804688,-0.00852335791015631,-0.0510443793945328,0.0606878692919127,0.609692999999993,
-0.0281558115234375,-0.00373495458984381,-0.0678037910156277,0.0735122689380654,0.612597999999934,
-0.0640688364257812,-0.0468305844726563,-0.0366791694335955,0.0874258595230411,0.615584000000013,
-0.00900219824218745,-0.0181001645507813,-0.0294965644531278,0.0357589547455532,0.618483999999967,
-0.00421379492187496,0.0106302553710937,-0.0701979926757836,0.0711232491707716,0.621400999999992,
-0.0401268198242187,-0.0779552060546876,-0.0654095893554718,0.109387340217621,0.624382999999966,
-0.0856166513671875,-0.0492247861328126,-0.0486501777343769,0.110091463587047,0.627285999999913,
0.0245166250000001,-0.00852335791015631,-0.0654095893554718,0.0703713500730709,0.630292999999938,
0.0125456166992188,0.0130244570312499,-0.082169000976565,0.0841354485387065,0.633245999999986,
-0.0449152231445312,0.0106302553710937,-0.115687824218753,0.124555418476463,0.636159000000021,
-0.0568862314453125,-0.0707726010742188,-0.0678037910156277,0.113323247689744,0.639139999999998,
0.014939818359375,-0.0109175595703126,-0.0630153876953141,0.0656759496769799,0.64206200000001,
-0.0568862314453125,-0.0109175595703126,-0.0342849677734396,0.067310440870988,0.645126000000005,
-0.052097828125,-0.0133117612304688,0.0112048637695281,0.0549266388421204,0.64814100000001,
-0.0497036264648437,-0.0396479794921876,-0.106111017578128,0.123701094631516,0.651217999999972,
-0.042521021484375,-0.00373495458984381,-0.0318907661132837,0.0532823433902361,0.654196999999954,
-0.00900219824218745,-0.00373495458984381,-0.0773805976562532,0.0779919633848179,0.657090999999923,
-0.0927992563476562,-0.0420421811523438,-0.0534385810546905,0.115043161117309,0.660079999999994,
-0.0113963999023437,-0.00373495458984381,-0.0606211860351582,0.061796084122148,0.663005999999996,
-0.0257616098632812,-0.0468305844726563,0.0279642753906231,0.0603221757144179,0.66600799999992,
-0.0161848032226562,-0.0492247861328126,-0.0247081611328142,0.0574066255038767,0.668929999999932,
-0.0497036264648437,0.0010534487304687,-0.0271023627929718,0.0566224187663005,0.671846999999957,
-0.0305500131835937,0.00823605371093744,-0.00794874951172098,0.0326238946946449,0.674859999999967,
-0.0568862314453125,-0.0109175595703126,-0.0534385810546905,0.0788093800264899,0.677760999999919,
-0.0449152231445312,-0.0300711728515626,-0.0462559760742209,0.0711425894199142,0.680753999999979,
-0.0185790048828124,-0.0181001645507813,-0.0630153876953141,0.068144951871666,0.68366299999991,
0.0197282216796875,-0.0228885678710938,-0.00794874951172098,0.0312453498721433,0.686624999999935,
0.0101514150390625,-0.0564073911132813,-0.0558327827148464,0.0800134027846913,0.68964799999992,
-0.0544920297851562,-0.0324653745117188,-0.00794874951172098,0.0639262424290103,0.692557999999963,
-0.0281558115234375,-0.0109175595703126,-0.0749863959960955,0.0808387432732468,0.695543999999927,
-0.0185790048828124,-0.0181001645507813,-0.0318907661132837,0.0411073757675322,0.698455999999965,
-0.0209732065429687,-0.0133117612304688,-0.0582269843750023,0.0633045029137564,0.701331999999979,
-0.0281558115234375,-0.0109175595703126,-0.0941400092773463,0.0988649795238613,0.704325999999924,
-0.0449152231445312,-0.0300711728515626,-0.0654095893554718,0.0848532090521215,0.707221000000004,
-0.00181959326171871,0.0010534487304687,-0.00316034619140915,0.00379584798370174,0.710240999999996,
-0.0353384165039062,-0.0181001645507813,-0.137235639160158,0.142863712304651,0.713135999999963,
-0.0640688364257812,-0.0300711728515626,-0.0725921943359396,0.101384012132727,0.716062999999963,
-0.0401268198242187,-0.00134075292968756,-0.0271023627929718,0.0484406580940602,0.719049999999925,
0.000574608398437537,-0.00134075292968756,-0.0294965644531278,0.0295326109202614,0.721991000000003,
-0.0209732065429687,-0.0157059628906251,-0.0294965644531278,0.0394537701310437,0.724990999999932,
-0.03294421484375,-0.0252827695312501,-0.0989284125976582,0.107291055293225,0.727900999999974,
-0.042521021484375,-0.0252827695312501,-0.0701979926757836,0.0858779009929467,0.730794999999944,
-0.0473094248046875,-0.0133117612304688,-0.0845632026367209,0.0978075656715088,0.733774999999923,
-0.042521021484375,-0.0324653745117188,0.0088106621093722,0.0542186829152679,0.736690999999951,
-0.0233674082031249,0.00584185205078119,-0.0893516059570327,0.0925411934687225,0.739709999999945,
-0.0353384165039062,-0.0252827695312501,-0.0558327827148464,0.0707482985085656,0.74262299999998,
0.00296881005859378,-0.00852335791015631,-0.0606211860351582,0.0612893927163412,0.74560699999995,
-0.0209732065429687,0.0154186586914062,-0.0654095893554718,0.0703990398243296,0.748542999999927,
-0.0736456430664062,-0.0276769711914063,0.0183874687499976,0.0807947676772858,0.751453999999967,
0.00296881005859378,-0.0444363828125001,-0.0462559760742209,0.0642107566783164,0.754458,
-0.00900219824218745,-0.0324653745117188,-0.0558327827148464,0.0652099665776716,0.757376000000022,
-0.0281558115234375,-0.0228885678710938,-0.0151313544921905,0.0393140452065332,0.760332999999946,
-0.0281558115234375,-0.0181001645507813,-0.122870429199221,0.127347980160305,0.763256999999953,
-0.0640688364257812,-0.0276769711914063,-0.0701979926757836,0.0989878210235624,0.766150999999923,
-0.0640688364257812,-0.00134075292968756,-0.0534385810546905,0.0834403701124983,0.769139999999993,
-0.0401268198242187,-0.00612915625000006,0.0447236870117163,0.060398149023494,0.772058000000015,
-0.00421379492187496,0.0154186586914062,-0.082169000976565,0.0837092338094934,0.775074000000018,
-0.042521021484375,0.0010534487304687,-0.0223139594726582,0.0480318624420274,0.778003000000012,
-0.0281558115234375,-0.0755610043945313,-0.0486501777343769,0.0941756598131395,0.780920999999921,
-0.0281558115234375,-0.0157059628906251,-0.00794874951172098,0.0332055659741723,0.784021999999936,
-0.0233674082031249,-0.0324653745117188,-0.000766144531251456,0.0400077903133927,0.787031999999954,
-0.061674634765625,-0.0635899960937501,-0.0486501777343769,0.101065760622789,0.790125999999987,
-0.0401268198242187,0.0106302553710937,-0.0845632026367209,0.0942024375408572,0.793101999999976,
-0.0497036264648437,-0.0420421811523438,-0.0414675727539091,0.0771851998112588,0.795996999999943,
-0.0281558115234375,0.0130244570312499,0.00162805712890446,0.031065041019081,0.799020999999925,
-0.00181959326171871,-0.0420421811523438,-0.0414675727539091,0.0590797385385661,0.801917000000003,
-0.0137906015624999,-0.0133117612304688,-0.0941400092773463,0.096071457911554,0.804953999999952,
-0.0592804331054687,-0.0252827695312501,-0.0630153876953141,0.0901350501787901,0.807847999999922,
-0.00421379492187496,-0.00373495458984381,-0.0462559760742209,0.0465974385134067,0.810755999999969,
-0.0353384165039062,-0.00373495458984381,-0.0534385810546905,0.0641750380750216,0.813741999999934,
-0.03294421484375,-0.0348595761718751,-0.0151313544921905,0.0502938289586531,0.816645999999992,
-0.0113963999023437,-0.0157059628906251,0.00641646044921629,0.0204383503676835,0.819666999999981,
-0.0473094248046875,-0.0133117612304688,-0.043861774414065,0.0658729073076156,0.822587999999996,
-0.00900219824218745,-0.0228885678710938,-0.0486501777343769,0.0545139056201972,0.825510000000008,
-0.0544920297851562,-0.0133117612304688,-0.043861774414065,0.071207018979267,0.828491999999983,
-0.0161848032226562,-0.0420421811523438,-0.0606211860351582,0.0755276177812584,0.831400999999914,
-0.00421379492187496,-0.0157059628906251,-0.11089942089844,0.112085301862352,0.83439599999997,
-0.03294421484375,-0.0300711728515626,-0.00794874951172098,0.0453076080491985,0.837297999999919,
-0.0401268198242187,-0.0157059628906251,-0.0941400092773463,0.103533474230636,0.840269999999919,
-0.0137906015624999,-0.0324653745117188,-0.0510443793945328,0.0620460305048985,0.843170999999984,
-0.0544920297851562,-0.0157059628906251,-0.125264630859377,0.137503768402048,0.84607399999993,
-0.042521021484375,-0.0181001645507813,-0.0342849677734396,0.057542264815228,0.849058000000014,
-0.0568862314453125,-0.0324653745117188,-0.0223139594726582,0.0691950623786355,0.85197299999993,
0.0197282216796875,-0.00134075292968756,0.00162805712890446,0.0198406380713004,0.854980999999952,
-0.042521021484375,-0.0204943662109376,-0.0294965644531278,0.0556606111087564,0.857891999999993,
-0.0401268198242187,-0.0228885678710938,-0.0510443793945328,0.0688445849444093,0.860782999999969,
-0.0568862314453125,-0.0444363828125001,-0.0965342109375023,0.120538331359095,0.863767999999936,
-0.0281558115234375,-0.0372537778320313,-0.0797747993164091,0.092437072061349,0.866673999999989,
-0.0161848032226562,-0.0109175595703126,-0.043861774414065,0.0480103761397237,0.869666999999936,
-0.042521021484375,0.00584185205078119,-0.0606211860351582,0.0742771344342736,0.872584999999958,
-0.0209732065429687,-0.00373495458984381,-0.0247081611328142,0.0326238946946456,0.875479999999925,
-0.00660799658203121,-0.0516189877929688,-0.0701979926757836,0.0873838869317918,0.878475999999978,
-0.0305500131835937,0.0130244570312499,-0.0630153876953141,0.0712311650393799,0.881400999999983,
0.00775721337890628,-0.0228885678710938,-0.0223139594726582,0.0328933684189228,0.884395999999924,
-0.0233674082031249,-0.0324653745117188,-0.00555454785156506,0.0403842705784438,0.887305999999967,
-0.0353384165039062,-0.0157059628906251,-0.0103429511718769,0.0400307080910277,0.890192999999954,
-0.03294421484375,0.00344765039062495,-0.00794874951172098,0.0340645006375731,0.893199999999979,
-0.0377326181640625,0.0010534487304687,-0.0318907661132837,0.0494153942717735,0.896132999999963,
-0.0233674082031249,-0.0324653745117188,-0.0941400092773463,0.102285764674545,0.89912199999992,
-0.052097828125,-0.00373495458984381,-0.0247081611328142,0.0577808515660278,0.902023999999983,
-0.0161848032226562,-0.0348595761718751,-0.0965342109375023,0.103903762143462,0.90492299999994,
-0.0137906015624999,-0.0228885678710938,-0.0127371528320328,0.0296024034989028,0.907901999999922,
-0.0281558115234375,0.00584185205078119,-0.106111017578128,0.109938278180951,0.910837000000015,
-0.0281558115234375,-0.0252827695312501,-0.0678037910156277,0.0776487104452132,0.913816999999995,
-0.0257616098632812,-0.0300711728515626,-0.0773805976562532,0.0869234886153069,0.916725999999926,
-0.0233674082031249,-0.0300711728515626,-0.0462559760742209,0.0599159955719583,0.919674999999984,
-0.0544920297851562,-0.0324653745117188,0.0135990654296858,0.0648715379257605,0.922778999999991,
0.0197282216796875,-0.0157059628906251,0.00402225878906037,0.025535437468952,0.925810999999953,
0.000574608398437537,-0.0109175595703126,-0.108505219238284,0.109054600470273,0.928900999999996,
-0.0401268198242187,-0.0157059628906251,-0.0534385810546905,0.0686478032034946,0.93180499999994,
-0.0449152231445312,-0.00852335791015631,-0.0558327827148464,0.0721617940871131,0.934769999999958,
-0.0401268198242187,-0.0109175595703126,-0.00794874951172098,0.0423383678827694,0.937680999999998,
-0.00181959326171871,-0.0204943662109376,-0.0558327827148464,0.0595031897607965,0.940596999999912,
-0.0185790048828124,-0.00134075292968756,-0.0271023627929718,0.0328863970330576,0.943598999999949,
-0.0233674082031249,-0.0588015927734376,-0.0390733710937532,0.0743666014246638,0.946506999999997,
-0.042521021484375,-0.0181001645507813,-0.0223139594726582,0.0513182814617508,0.949459999999931,
-0.0281558115234375,-0.0324653745117188,-0.0678037910156277,0.0802751788588504,0.952377999999953,
-0.0209732065429687,-0.0276769711914063,-0.0701979926757836,0.0783176117021793,0.955281000000014,
-0.052097828125,-0.0252827695312501,-0.0654095893554718,0.0873602684872465,0.958268999999973,
0.00775721337890628,-0.0899262143554688,-0.0797747993164091,0.120461267607829,0.961231999999995,
-0.0497036264648437,-0.00612915625000006,-0.0582269843750023,0.076801033518439,0.964260999999965,
-0.0305500131835937,-0.0468305844726563,-0.0127371528320328,0.0573466826401921,0.967158999999924,
-0.0473094248046875,-0.0300711728515626,-0.11089942089844,0.124262378327586,0.970069999999964,
-0.0736456430664062,-0.0348595761718751,-0.0151313544921905,0.0828723638031135,0.973053999999934,
-0.00900219824218745,-0.0228885678710938,-0.043861774414065,0.0502869900384944,0.975967999999966,
-0.042521021484375,-0.00134075292968756,-0.0223139594726582,0.0480390224072116,0.978944999999953,
-0.0185790048828124,-0.0181001645507813,-0.0486501777343769,0.0551328864906182,0.981859999999983,
-0.0401268198242187,-0.00373495458984381,0.00641646044921629,0.0408078732561483,0.984761999999932,
-0.0305500131835937,-0.0228885678710938,-0.0797747993164091,0.0884375963642203,0.987741999999912,
-0.0353384165039062,0.0202070620117187,-0.000766144531251456,0.0407150588061931,0.990687999999977,
-0.0305500131835937,-0.0420421811523438,-0.0318907661132837,0.060974332836501,0.993681999999922,
-0.0592804331054687,-0.0348595761718751,-0.0199197578125023,0.0715971825658207,0.996578999999997,
-0.0449152231445312,-0.00373495458984381,-0.0390733710937532,0.0596494382583891,0.999475999999959,
-0.0449152231445312,0.00823605371093744,-0.0558327827148464,0.0721284234995867,1.002476,
-0.0113963999023437,-0.0228885678710938,-0.0582269843750023,0.0635936017169225,1.00538299999994,
