X,Y,Z,Magnitude,Seconds,
-0.626323154296875,-0.0779552060546874,-0.0505655390624984,0.633178159367564,0.0,
-0.659841977539063,-0.0899262143554688,0.0404141240234388,0.667166741355973,0.00373400000080437,
-0.643082565917969,-0.0420421811523437,0.0499909306640642,0.646391386647706,0.0074560000002748,
-0.676601389160156,-0.0851378110351562,0.00450109912109475,0.681951718653608,0.0112340000005133,
-0.700543405761719,-0.0588015927734374,-0.0314119257812475,0.703708320080279,0.0149350000001505,
-0.652659372558594,-0.0109175595703124,0.0212605107421897,0.653096822081204,0.018647000000783,
-0.659841977539063,-0.10189722265625,0.0260489140625015,0.668171404080984,0.0224400000006426,
-0.678995590820313,-0.0324653745117187,-0.000287304199217076,0.679771355265367,0.0263770000001387,
-0.676601389160156,-0.0851378110351562,-0.0170467158203103,0.68214989349964,0.0301120000003721,
-0.69336080078125,-0.0731668027343749,0.0739329472656269,0.701119577371627,0.0338620000002265,
-0.698149204101563,-0.0540131894531251,0.0499909306640642,0.702017684229681,0.0376980000000913,
-0.671812985839844,-0.0300711728515624,0.0404141240234388,0.673698942258556,0.0414800000007745,
-0.671812985839844,-0.0611957944335937,-0.000287304199217076,0.674594467619701,0.0452470000000176,
-0.698149204101563,-0.0444363828125001,-0.00268150585937299,0.699567075968258,0.0489730000008421,
-0.6358999609375,-0.0396479794921876,-0.038594530761717,0.638302640134634,0.0526690000006056,
-0.681389792480469,-0.0420421811523437,-0.0840843623046865,0.687844295081967,0.0564110000004803,
-0.647870969238281,-0.0803494077148437,-0.0290177241210916,0.653479034411238,0.060207000000446,
-0.7125144140625,-0.104291424316406,0.0116837041015643,0.720201360991706,0.0639820000005784,
-0.710120212402344,-0.0540131894531251,-0.000287304199217076,0.712171484434017,0.0676720000001296,
-0.631111557617188,-0.0588015927734374,-0.0864785639648424,0.639717099580828,0.0713770000002114,
-0.597592734375,-0.0611957944335937,0.0571735356445338,0.603432526975672,0.0750740000003134,
-0.657447775878906,-0.0181001645507812,-0.040988732421873,0.658972890300077,0.0787730000001829,
-0.683783994140625,-0.0611957944335937,0.035625720703127,0.687440664984901,0.0824680000005173,
-0.643082565917969,-0.10189722265625,0.0475967290039083,0.652842767582339,0.0862700000006953,
-0.688572397460938,-0.0444363828125001,0.0404141240234388,0.691187268461409,0.0899620000000141,
-0.65505357421875,-0.0588015927734374,0.0308373173828134,0.6584100185696,0.0938750000004802,
-0.6742071875,-0.0875320126953125,0.0332315190429711,0.680677250083368,0.0977060000004712,
-0.719697019042969,-0.0588015927734374,-0.0074699091796866,0.722133800673519,0.101438000000599,
-0.7125144140625,-0.0755610043945312,-0.038594530761717,0.717548460688653,0.105174000000261,
-0.690966599121094,-0.0779552060546874,-0.0290177241210916,0.695955374693785,0.108969000000798,
-0.6358999609375,-0.0324653745117187,-0.0697191523437475,0.640533778239704,0.112766000000192,
-0.631111557617188,-0.104291424316406,0.0978749638671896,0.647115142687869,0.116511000000173,
-0.6742071875,-0.0899262143554688,-0.0194409174804662,0.680455733297507,0.120224000000235,
-0.690966599121094,-0.109079827636719,0.0428083256835947,0.700832221466778,0.123985000000175,
-0.643082565917969,-0.0468305844726562,-0.0146525141601543,0.644951925650977,0.127729000000727,
-0.65505357421875,-0.0731668027343749,0.0116837041015643,0.659230669083791,0.13154300000042,
-0.664630380859375,-0.0540131894531251,0.0691445439453133,0.670396849450818,0.135274000000209,
-0.678995590820313,-0.0971088193359375,0.0308373173828134,0.68659746233846,0.139001000000462,
-0.710120212402344,-0.0396479794921876,-0.00986411083984251,0.711294579638298,0.14269400000012,
-0.717302817382813,-0.0635899960937499,0.0308373173828134,0.720775942697793,0.146423000000141,
-0.647870969238281,-0.106685625976563,0.0188663090820338,0.656867226454586,0.150110000000495,
-0.690966599121094,-0.130627642578125,-0.0194409174804662,0.703474499451807,0.153842000000623,
-0.681389792480469,0.0178128603515626,0.0643561406250015,0.684653971088042,0.157567000000199,
-0.583227524414063,-0.135416045898437,-0.0146525141601543,0.598921152483478,0.161300000000665,
-0.705331809082031,0.00584185205078125,0.0404141240234388,0.706512837504667,0.16528500000004,
-0.671812985839844,-0.00134075292968738,0.0188663090820338,0.672079179248876,0.169068000000152,
-0.645476767578125,-0.188088482421875,-0.0529597407226543,0.674405122193092,0.172818000000007,
-0.741244833984375,0.0154186586914062,-0.0840843623046865,0.746158038842008,0.176633000000038,
-0.597592734375,-0.00612915624999988,0.0188663090820338,0.597921884824853,0.180468000000474,
-0.664630380859375,-0.204847894042969,-0.0074699091796866,0.695522826655078,0.184257000000798,
-0.762792648925781,-0.0204943662109374,-0.0074699091796866,0.763104477673111,0.188030000000253,
-0.590410129394531,-0.0851378110351562,-0.0218351191406239,0.596916526984645,0.191752000000633,
-0.681389792480469,-0.133021844238281,0.0188663090820338,0.694509033749388,0.195531000000301,
-0.755610043945313,-0.0181001645507812,-0.0242293208007798,0.756215058336099,0.199253000000681,
-0.592804331054688,-0.0947146176757813,0.0691445439453133,0.604291983792662,0.203115000000253,
-0.717302817382813,-0.0468305844726562,0.0619619389648456,0.721495472853194,0.206815000000461,
-0.683783994140625,-0.092320416015625,-0.0290177241210916,0.690598029369743,0.210524000000078,
-0.643082565917969,-0.0707726010742187,-0.040988732421873,0.648262310979129,0.214206000000559,
-0.702937607421875,-0.0516189877929687,-0.0529597407226543,0.706817185675456,0.217897000000448,
-0.662236179199219,-0.111474029296875,-0.0266235224609357,0.672080373315788,0.221558000000186,
-0.676601389160156,-0.0683783994140624,-0.0481713374023425,0.681751804593881,0.225318000000698,
-0.7125144140625,-0.0468305844726562,-0.000287304199217076,0.714051802345307,0.229022000000441,
-0.647870969238281,-0.123445037597656,-0.0218351191406239,0.659888053018936,0.232880000000478,
-0.669418784179688,-0.0348595761718749,0.0428083256835947,0.671691336412289,0.236767000000327,
-0.702937607421875,0.00344765039062511,0.0116837041015643,0.703043153129834,0.240535000000818,
-0.626323154296875,-0.118656634277344,0.00450109912109475,0.637479686232991,0.244281000000228,
-0.690966599121094,-0.0204943662109374,0.0284431157226575,0.691855382995154,0.248121000000538,
-0.652659372558594,-0.0276769711914062,-0.0074699091796866,0.653288658148953,0.251885000000584,
-0.6358999609375,-0.171329070800781,-0.0266235224609357,0.659113967967605,0.255667000000358,
-0.748427438964844,0.0106302553710937,-0.0218351191406239,0.748821344616067,0.259389000000738,
-0.628717355957031,-0.0564073911132812,0.0332315190429711,0.632116794043403,0.263122000000294,
-0.614352145996094,-0.154569659179687,0.0212605107421897,0.633855147605468,0.266876000000593,
-0.714908615722656,-0.0324653745117187,-0.038594530761717,0.716685333449337,0.27060100000017,
-0.633505759277344,-0.00373495458984374,0.0619619389648456,0.63653969145972,0.274432000000161,
-0.664630380859375,-0.111474029296875,0.0619619389648456,0.676756443818041,0.278155000000879,
-0.746033237304688,0.0130244570312501,0.0547793339843761,0.74815506619687,0.28189200000088,
-0.621534750976562,-0.0731668027343749,0.00210689746093884,0.625830062166064,0.285618000000795,
-0.640688364257813,-0.0564073911132812,0.00210689746093884,0.643170127481422,0.289302000000134,
-0.717302817382813,-0.0683783994140624,0.0212605107421897,0.720868189510932,0.29301200000009,
-0.966299790039063,0.1854069765625,-0.625173937499998,1.16574160229308,0.296817000000374,
0.0536301171875,0.704948736816406,0.706002185546877,0.999133623198398,0.300621000000319,
-0.971088193359375,-4.06190676855469,1.1920251225586,4.34315815605686,0.303781000000527,
-5.17770051025391,3.03929535546875,-3.37371744335937,6.88678939849948,0.306809000000612,
1.68168724609375,6.93466145654297,0.727550000488282,7.17265156784766,0.309868000000279,
6.33362107177734,-7.06662985205078,3.12175166064453,9.98986220012539,0.312824000000546,
-6.17129419921875,-7.58138320898438,-2.30111509960937,10.0427772133226,0.315829000000122,
-6.77942142089844,7.75826682763672,-0.392936376464842,10.3104635185279,0.318812000000435,
4.03997588134766,7.97853338037109,0.974152771484377,8.99596429771469,0.321771000000808,
5.72788805175781,-7.4161832944336,-0.443214611328123,9.38109350671874,0.324798000000555,
-3.81300556396484,-7.897417828125,0.246315466796876,8.77319161377414,0.327737000000525,
-7.86399477294922,6.01049961572266,-0.117603185546873,9.89860343325389,0.330769000000146,
-2.75476843017578,8.90987782617188,-0.232524865234373,9.32891954055531,0.333703000000241,
6.72387594238281,-1.03803007177734,0.540802270996096,6.82498946627634,0.336673000000701,
1.85646396728516,-7.15282111181641,-0.644327550781249,7.41784782212269,0.339742000000115,
-7.08348503173828,0.0968215151367189,0.0308373173828134,7.08421382658634,0.342721000000893,
-3.6238636328125,5.85008810449219,0.339689331542971,6.88994247447002,0.345736000000215,
4.77020738769531,-0.437085455078125,0.114634375488283,4.79156167201335,0.348686000000271,
2.27784345947266,-4.83762810644531,-0.562924694335935,5.3766254038779,0.351616000000831,
-5.06996143554688,0.819870416503906,0.114634375488283,5.13710399912581,0.354666000000179,
-3.53288396972656,3.57320232568359,0.253498071777345,5.03123297773184,0.35760400000072,
3.09666042724609,-1.60306166357422,-0.0050757075195289,3.48699559244059,0.360651000000871,
1.51169892822266,-2.31413955664063,-0.218159655273436,2.7727367657943,0.363589000000502,
-3.72442010253906,1.55728452783203,0.0404141240234388,4.03708725472248,0.366619000000355,
-2.32860053466797,1.18378906884766,0.248709668457034,2.62404144570225,0.369556000000557,
1.83731035400391,-1.57193704199219,-0.129574193847654,2.4214633742075,0.372512000000825,
0.39839515625,-0.568766546386719,-0.0673249506835916,0.697672368520271,0.375531000000592,
-2.63984675048828,1.15266444726563,0.0691445439453133,2.88135509127409,0.378488000000289,
-1.22008516601563,-0.00612915624999988,0.0308373173828134,1.22049019620441,0.381491000000096,
0.850899270019531,-0.992540240234375,-0.076901757324217,1.30961046746116,0.384441000000152,
-0.449152231445313,0.12794613671875,0.0212605107421897,0.467503957449106,0.387401000000864,
-1.7851167578125,0.692977728515625,0.0978749638671896,1.91740436001217,0.390417000000525,
-0.609563742675781,-0.482575286621094,-0.0170467158203103,0.777648670134911,0.393329000000449,
0.0991199487304688,-0.645380999511719,-0.0649307490234357,0.656168729013979,0.396372000000156,
-0.817859287109375,0.513412604003906,0.0882981572265642,0.969681844746376,0.399332000000868,
-1.13628810791016,0.288357647949219,0.0260489140625015,1.1725951318476,0.402288000000226,
-0.489853659667969,-0.736360662597656,-0.0338061274414052,0.885057335749468,0.405285000000731,
-0.396479794921875,-0.1593580625,-0.00268150585937299,0.427315352332115,0.40820900000017,
-0.882502731933594,0.537354620605469,-0.00268150585937299,1.03323194425549,0.411250000000109,
-0.820253488769531,-0.214424700683594,-0.0122583124999984,0.847905657680844,0.414170000000013,
-0.432392819824219,-0.568766546386719,-0.0529597407226543,0.716424224228652,0.417094000000361,
-0.619140549316406,0.115975128417969,0.0188663090820338,0.630191389847374,0.420144000000619,
-0.762792648925781,0.312299664550781,0.0763271489257829,0.827773845562228,0.423098000000209,
-0.621534750976562,-0.353288396972656,-0.0505655390624984,0.716711247189332,0.426103000000694,
-0.566468112792969,-0.324557977050781,-0.108026378906247,0.661735371442482,0.429038000000219,
-0.753215842285156,0.20456058984375,0.0978749638671896,0.786612133480386,0.431982000000062,
-0.702937607421875,0.0728794985351564,0.0571735356445338,0.709014466998257,0.43503100000089,
-0.595198532714844,-0.286250750488281,0.0116837041015643,0.660558320243217,0.438076000000365,
-0.650265170898438,-0.118656634277344,-0.0194409174804662,0.661288241702576,0.441177000000607,
-0.750821640625,0.154282354980469,-0.00268150585937299,0.766513777803641,0.444234000000506,
-0.643082565917969,-0.109079827636719,0.0164721074218761,0.652475996269451,0.447206000000733,
-0.7125144140625,-0.228789910644531,0.0212605107421897,0.748647863001411,0.450211000000309,
-0.698149204101563,0.0728794985351564,0.00210689746093884,0.701945989027142,0.453175000000556,
-0.667024582519531,0.0226012636718751,0.0212605107421897,0.667745924826157,0.456218000000263,
-0.659841977539063,-0.171329070800781,0.0475967290039083,0.683381690152722,0.459170000000086,
-0.746033237304688,-0.0635899960937499,-0.0266235224609357,0.749211646141959,0.462150000000292,
-0.690966599121094,0.0489374819335937,-0.040988732421873,0.693909067835637,0.465109000000666,
-0.662236179199219,-0.130627642578125,0.0140779057617202,0.675143336985957,0.468054000000848,
-0.743639035644531,-0.164146465820312,-0.0649307490234357,0.764303002574484,0.471068000000741,
-0.698149204101563,-0.0276769711914062,-0.038594530761717,0.699762719589071,0.474020000000564,
-0.576044919433594,-0.0803494077148437,0.0284431157226575,0.582316741436646,0.477034000000458,
-0.6742071875,-0.0851378110351562,-0.0122583124999984,0.679672012642764,0.480003000000579,
-0.695755002441406,-0.0372537778320312,-0.0697191523437475,0.70023112440717,0.482931000000463,
-0.631111557617188,-0.0779552060546874,-0.0074699091796866,0.635951737046275,0.485935000000609,
-0.544920297851563,-0.212030499023438,0.152941602050783,0.604389110726379,0.488892000000305,
-0.817859287109375,-0.209636297363281,-0.038594530761717,0.845180885070148,0.491895000000113,
-1.00221281494141,0.661853106933594,-0.258861083496091,1.22861268190557,0.494864000000234,
0.0320823022460938,-0.149781255859375,0.284622693359378,0.323224034222964,0.497812000000522,
-0.621534750976562,-1.28702704443359,0.0236547124023456,1.42944171101651,0.500856000000567,
-1.75399213623047,0.618757477050781,-0.0122583124999984,1.85997298248924,0.503805000000284,
-0.307894333496094,1.15745285058594,-0.0625365473632797,1.19933600032878,0.506843000000117,
0.362482131347656,-1.11225032324219,0.00689530078125244,1.16984683709944,0.509833000000071,
-1.03333743652344,-1.13858654150391,0.172095215332034,1.54718529380124,0.512758000000758,
-1.89285583251953,1.24364411035156,-0.0816901606445288,2.26632459243187,0.515792000000147,
0.0296881005859375,0.580450250488281,0.00210689746093884,0.581212797196707,0.518748000000414,
0.525287844238281,-1.30378645605469,0.0452025273437524,1.40635333781181,0.521797000000333,
-1.62709944824219,-0.358076800292969,-0.0457771357421866,1.66666347999074,0.52469900000051,
-1.58400381835938,1.01380075097656,0.0547793339843761,1.88145178909519,0.527633000000606,
0.419942971191406,-0.0995030209960938,0.0859039555664083,0.440036861890422,0.530666999999994,
-0.0301669409179688,-0.939867803710938,-0.0601423457031238,0.94227312098109,0.533600000000661,
-1.76117474121094,0.197377984863281,0.0954807622070337,1.77477072151299,0.536627000000408,
-0.971088193359375,0.508624200683594,0.0475967290039083,1.09725854082567,0.539586000000781,
0.281079274902344,-0.444268060058594,0.00210689746093884,0.52572246193668,0.54251000000022,
-0.619140549316406,-0.269491338867187,0.0116837041015643,0.675349620917776,0.545523000000685,
-1.44992852539063,0.293146051269531,0.0188663090820338,1.4793861138103,0.548468000000867,
-0.556891306152344,-0.109079827636719,-0.0050757075195289,0.567496342254418,0.551464000000124,
-0.0924161840820312,-0.358076800292969,-0.000287304199217076,0.369810530585647,0.554386000000704,
-0.868137521972656,0.099215716796875,0.0212605107421897,0.874047209728033,0.557393000000047,
-1.06206785644531,-0.0300711728515624,0.0164721074218761,1.06262116365802,0.560357000000295,
-0.458729038085938,-0.303010162109375,-0.0218351191406239,0.550203836003244,0.563268000000789,
-0.465911643066406,0.00584185205078125,-0.0338061274414052,0.467173030720745,0.56630000000041,
-0.844195505371094,0.137522943359375,0.0236547124023456,0.855650721181149,0.56926200000089,
-0.786734665527344,-0.180905877441406,0.00689530078125244,0.80729543266894,0.572255000000041,
-0.458729038085938,-0.238366717285156,0.00689530078125244,0.517009252785107,0.575252000000546,
-0.643082565917969,0.0848505068359375,0.0260489140625015,0.649178974568485,0.578303000000233,
-0.80828248046875,-0.0300711728515624,0.0212605107421897,0.809121037290715,0.581415000000561,
-0.69336080078125,-0.204847894042969,-0.0433829340820289,0.724288574204662,0.584436000000096,
-0.564073911132813,-0.123445037597656,0.0188663090820338,0.577731764875823,0.587464000000182,
-0.669418784179688,0.0585142885742187,-0.040988732421873,0.673220251303769,0.590406000000257,
-0.729273825683594,-0.0157059628906249,0.00689530078125244,0.729475520679324,0.593335000000479,
-0.669418784179688,-0.238366717285156,-0.0122583124999984,0.710697169508406,0.596369000000777,
-0.623928952636719,-0.0348595761718749,0.0260489140625015,0.625444700923328,0.599334000000454,
-0.657447775878906,0.0489374819335937,0.0260489140625015,0.659781025090868,0.602379000000838,
-0.6742071875,-0.1593580625,-0.0314119257812475,0.693496238520225,0.605297000000064,
-0.664630380859375,-0.144992852539062,-0.0146525141601543,0.680419845845127,0.608218000000306,
-0.638294162597656,0.0130244570312501,0.0691445439453133,0.642160449143832,0.611266000000796,
-0.628717355957031,-0.0444363828125001,0.0499909306640642,0.632265133427203,0.614209000000301,
-0.686178195800781,-0.14020444921875,0.0212605107421897,0.700678109612515,0.61727300000075,
-0.707726010742188,-0.0899262143554688,0.035625720703127,0.714305272474573,0.620233000000553,
-0.647870969238281,0.00584185205078125,0.0859039555664083,0.653567448393116,0.623194000000694,
-0.614352145996094,-0.0564073911132812,-0.0457771357421866,0.618632281099985,0.626203000000714,
-0.686178195800781,-0.109079827636719,-0.0218351191406239,0.695137178992432,0.629140000000007,
-0.662236179199219,-0.0827436093749999,-0.0697191523437475,0.671017154874831,0.632139000000279,
-0.6742071875,-0.0420421811523437,-0.0362003291015611,0.676486023876154,0.635072000000036,
-0.650265170898438,-0.0516189877929687,0.0260489140625015,0.652830650558152,0.637994000000617,
-0.657447775878906,-0.106685625976563,0.0116837041015643,0.666150065480493,0.641006000000743,
-0.729273825683594,-0.0300711728515624,0.0428083256835947,0.73114782432261,0.643948000000819,
-0.650265170898438,-0.0157059628906249,0.102663367187501,0.6585068235912,0.646984000000884,
-0.650265170898438,-0.0396479794921876,-0.0290177241210916,0.652118687874037,0.649906000000556,
-0.683783994140625,-0.0827436093749999,0.0236547124023456,0.689178206964024,0.652910000000702,
-0.6358999609375,-0.0564073911132812,-0.0290177241210916,0.63905600881745,0.655843000000459,
-0.626323154296875,-0.0683783994140624,-0.0242293208007798,0.630510395712302,0.658757000000151,
-0.671812985839844,-0.0157059628906249,-0.0242293208007798,0.672433212445545,0.661763000000064,
-0.678995590820313,-0.0851378110351562,0.0140779057617202,0.684457191248597,0.664706000000479,
-0.647870969238281,-0.0875320126953125,-0.0218351191406239,0.654121868198983,0.667681000000812,
-0.7125144140625,-0.092320416015625,-0.0481713374023425,0.720083555712291,0.670622000000549,
-0.643082565917969,-0.0611957944335937,0.0691445439453133,0.649677673774775,0.673559000000751,
-0.659841977539063,-0.0947146176757813,0.0571735356445338,0.669052395035118,0.676577000000179,
-0.638294162597656,-0.0803494077148437,-0.0122583124999984,0.643448313038209,0.679503000000295,
-0.69336080078125,-0.0181001645507812,-0.0074699091796866,0.693637236284165,0.682507000000442,
-0.6742071875,-0.0971088193359375,-0.0074699091796866,0.68120573545195,0.685424000000239,
-0.6742071875,-0.0588015927734374,-0.040988732421873,0.678006663075596,0.688327000000754,
-0.678995590820313,-0.0707726010742187,-0.00268150585937299,0.682679254035092,0.691330999999991,
-0.690966599121094,-0.0492247861328126,-0.038594530761717,0.693792085912998,0.694254000000001,
-0.7125144140625,-0.10189722265625,0.0428083256835947,0.721035635027644,0.697268000000804,
-0.690966599121094,-0.0324653745117187,0.035625720703127,0.692645676820966,0.700212000000647,
-0.647870969238281,-0.0468305844726562,0.0140779057617202,0.649713847670216,0.703131000000212,
-0.669418784179688,-0.0875320126953125,-0.0122583124999984,0.675228574694859,0.70613400000002,
-0.650265170898438,-0.0611957944335937,-0.00268150585937299,0.653143864867157,0.709063000000242,
-0.681389792480469,-0.0851378110351562,-0.040988732421873,0.687910293824701,0.712063000000853,
-0.638294162597656,-0.0827436093749999,-0.0314119257812475,0.64440100246658,0.715089000000262,
-0.623928952636719,-0.0755610043945312,-0.0146525141601543,0.628658491945092,0.718095000000176,
-0.662236179199219,-0.0444363828125001,-0.00268150585937299,0.663730773455256,0.721211000000039,
-0.667024582519531,-0.0803494077148437,0.0140779057617202,0.671994053869614,0.724203000000671,
-0.683783994140625,-0.0324653745117187,0.0428083256835947,0.685891466584127,0.727214000000458,
-0.645476767578125,-0.0659841977539062,0.0164721074218761,0.649049691594757,0.730148000000554,
-0.671812985839844,-0.0683783994140624,-0.0074699091796866,0.675325175743233,0.733071999999993,
-0.662236179199219,-0.0348595761718749,-0.00268150585937299,0.663158455849683,0.73609900000065,
-0.643082565917969,-0.0492247861328126,-0.0457771357421866,0.646586276002065,0.739018000000215,
-0.695755002441406,-0.0683783994140624,-0.00986411083984251,0.699176608312471,0.742038000000321,
-0.6742071875,-0.0803494077148437,0.00928950244140836,0.679041717313742,0.744986000000608,
-0.626323154296875,-0.0396479794921876,-0.0170467158203103,0.627808287940243,0.747982000000775,
-0.652659372558594,-0.0564073911132812,-0.0074699091796866,0.655134986017337,0.750946000000113,
-0.647870969238281,-0.0731668027343749,0.0452025273437524,0.653554467724293,0.753876000000673,
-0.662236179199219,-0.0588015927734374,-0.0218351191406239,0.665200087778826,0.756917000000612,
-0.671812985839844,-0.0731668027343749,0.0859039555664083,0.681223574568124,0.759870000000774,
-0.652659372558594,-0.0683783994140624,0.0236547124023456,0.656657755237722,0.762864000000263,
-0.700543405761719,-0.0492247861328126,0.0739329472656269,0.706151700144828,0.765819000000192,
-0.664630380859375,-0.0324653745117187,0.0499909306640642,0.667298012024705,0.768743000000541,
-0.640688364257813,-0.0707726010742187,0.00450109912109475,0.644601117786387,0.771751000000222,
-0.662236179199219,-0.0588015927734374,-0.0170467158203103,0.665060128765311,0.77466800000002,
-0.664630380859375,-0.092320416015625,0.0452025273437524,0.672532431078858,0.777688000000126,
-0.681389792480469,-0.0564073911132812,0.0380199223632829,0.684776866990477,0.780632000000878,
-0.631111557617188,-0.0588015927734374,-0.0194409174804662,0.634143023885912,0.78353800000059,
-0.659841977539063,-0.0899262143554688,-0.00986411083984251,0.666014609474617,0.786561000000802,
-0.688572397460938,-0.0564073911132812,0.00689530078125244,0.690913370467075,0.789499000000433,
-0.678995590820313,-0.092320416015625,-0.00986411083984251,0.685314068328809,0.792507000000114,
-0.667024582519531,-0.0755610043945312,0.0116837041015643,0.671392409855815,0.795445000000655,
-0.686178195800781,-0.0971088193359375,-0.0601423457031238,0.695620400025696,0.798358000000007,
-0.678995590820313,-0.0683783994140624,-0.00268150585937299,0.682435204494557,0.80136500000026,
-0.652659372558594,-0.0731668027343749,0.00450109912109475,0.656763197434392,0.804291000000376,
-0.647870969238281,-0.10189722265625,0.0787213505859388,0.660542873555443,0.807308000000376,
-0.686178195800781,-0.092320416015625,0.0284431157226575,0.692944865366449,0.810258000000431,
-0.611957944335938,-0.0971088193359375,0.00450109912109475,0.619631268031225,0.813183000000208,
-0.667024582519531,-0.0492247861328126,0.0116837041015643,0.668940492268714,0.81620600000042,
-0.650265170898438,-0.0252827695312499,-0.0577481440429679,0.653313752387895,0.819134000000304,
-0.702937607421875,-0.0851378110351562,0.00689530078125244,0.708108234642637,0.822155000000748,
-0.678995590820313,-0.0875320126953125,0.0332315190429711,0.685420454507904,0.825098000000253,
-0.7125144140625,-0.0635899960937499,-0.0266235224609357,0.715841665313119,0.828018000000156,
-0.664630380859375,-0.0540131894531251,-0.0314119257812475,0.667560991129248,0.831031000000621,
-0.69336080078125,-0.0755610043945312,0.00928950244140836,0.697527748767557,0.833967000000484,
-0.657447775878906,-0.0779552060546874,-0.0170467158203103,0.662272740401874,0.836977000000843,
-0.659841977539063,-0.0444363828125001,-0.00986411083984251,0.661410105851718,0.839906000000155,
-0.669418784179688,-0.0875320126953125,-0.0074699091796866,0.675158619438615,0.842889000000469,
-0.662236179199219,-0.104291424316406,-0.0601423457031238,0.673090305956785,0.84582600000067,
-0.690966599121094,-0.0683783994140624,0.0164721074218761,0.694537095431423,0.848747000000003,
-0.647870969238281,-0.0731668027343749,0.00450109912109475,0.652004933798372,0.851802000000134,
-0.69336080078125,-0.0779552060546874,0.00210689746093884,0.697732508364026,0.854858000000604,
-0.671812985839844,-0.0659841977539062,0.0499909306640642,0.676894153797277,0.857950000000528,
-0.669418784179688,-0.0611957944335937,0.0116837041015643,0.672311641138619,0.861002000000553,
-0.659841977539063,-0.111474029296875,0.0116837041015643,0.669293958938727,0.863946000000396,
-0.6742071875,-0.0755610043945312,-0.038594530761717,0.679525080380767,0.866955000000416,
-0.667024582519531,-0.0252827695312499,-0.000287304199217076,0.667503628952104,0.869879000000765,
-0.647870969238281,-0.0372537778320312,0.0212605107421897,0.649289339248326,0.872906000000512,
-0.6742071875,-0.0779552060546874,-0.0529597407226543,0.680762131706149,0.875859000000673,
-0.662236179199219,-0.0659841977539062,-0.0194409174804662,0.665799234503982,0.878768000000491,
-0.678995590820313,-0.0707726010742187,0.0475967290039083,0.684331222455988,0.881775000000744,
-0.611957944335938,-0.0468305844726562,0.0739329472656269,0.618184203914415,0.884722000000693,
-0.664630380859375,-0.0683783994140624,0.0691445439453133,0.671706868079456,0.887747000000672,
-0.698149204101563,-0.0516189877929687,0.0236547124023456,0.700454407158134,0.890706000000137,
-0.690966599121094,-0.0468305844726562,-0.0290177241210916,0.693159413884129,0.893655000000763,
-0.667024582519531,-0.0348595761718749,-0.000287304199217076,0.667934926680691,0.896689000000151,
-0.681389792480469,-0.0731668027343749,0.00928950244140836,0.685369772585979,0.899626000000353,
-0.664630380859375,-0.10189722265625,0.0236547124023456,0.672812107921055,0.902648000000227,
-0.662236179199219,-0.0683783994140624,0.0188663090820338,0.666024248931815,0.905578000000787,
-0.698149204101563,-0.0588015927734374,-0.0577481440429679,0.702997003294286,0.90849100000014,
-0.643082565917969,-0.0899262143554688,0.0547793339843761,0.651646135604069,0.911519000000226,
-0.633505759277344,-0.0659841977539062,-0.0266235224609357,0.637489037818705,0.914437000000362,
-0.6742071875,-0.0899262143554688,0.0763271489257829,0.684447141398154,0.917460000000574,
-0.645476767578125,-0.0516189877929687,0.0140779057617202,0.64769048535123,0.920396000000437,
-0.631111557617188,-0.0779552060546874,0.0308373173828134,0.636655128348457,0.923315000000002,
-0.6742071875,-0.0588015927734374,0.00689530078125244,0.676801672694607,0.926322000000255,
-0.650265170898438,-0.0803494077148437,0.0380199223632829,0.656312680282966,0.929251000000477,
-0.65505357421875,-0.1210508359375,0.0475967290039083,0.667842749896859,0.932268000000477,
-0.662236179199219,-0.092320416015625,-0.040988732421873,0.669895433959084,0.935186000000613,
-0.676601389160156,-0.0611957944335937,0.00450109912109475,0.679378116341048,0.938188000000082,
-0.638294162597656,-0.0683783994140624,-0.00268150585937299,0.641951893825656,0.941126000000622,
-0.700543405761719,-0.0851378110351562,0.0188663090820338,0.705950032114501,0.944058000000041,
-0.683783994140625,-0.0875320126953125,-0.0122583124999984,0.689472747913031,0.947067000000061,
-0.633505759277344,-0.0588015927734374,-0.0122583124999984,0.636346949843876,0.950011000000814,
-0.621534750976562,-0.104291424316406,-0.000287304199217076,0.630223952576499,0.952999000000091,
-0.690966599121094,-0.0611957944335937,0.0188663090820338,0.693927736854284,0.955962,
-0.643082565917969,-0.0348595761718749,0.0499909306640642,0.645963984899453,0.958888000000115,
-0.657447775878906,-0.0635899960937499,-0.038594530761717,0.661642504239292,0.961889000000156,
-0.659841977539063,-0.0707726010742187,0.0188663090820338,0.66389467086568,0.964831000000231,
-0.676601389160156,-0.0803494077148437,0.00450109912109475,0.681370477073139,0.967864000000191,
-0.6742071875,-0.0731668027343749,0.00450109912109475,0.678180634191459,0.970797000000857,
-0.6358999609375,-0.0635899960937499,-0.000287304199217076,0.639071616070703,0.973703000000569,
-0.681389792480469,-0.0564073911132812,-0.0529597407226543,0.685768603251996,0.976706000000377,
-0.683783994140625,-0.0420421811523437,0.0308373173828134,0.685768937603856,0.979646000000685,
-0.662236179199219,-0.0611957944335937,-0.0122583124999984,0.665170616099423,0.982655000000705,
-0.659841977539063,-0.0564073911132812,0.0428083256835947,0.663630757155438,0.985594000000674,
-0.69336080078125,-0.0635899960937499,0.0116837041015643,0.69636872173063,0.988519000000451,
-0.633505759277344,-0.0516189877929687,0.0236547124023456,0.63604529112098,0.991619000000355,
-0.717302817382813,-0.0755610043945312,-0.0074699091796866,0.72131033318093,0.994650000000547,
-0.662236179199219,-0.0611957944335937,0.0188663090820338,0.665325198617276,0.997784000000138,
-0.683783994140625,-0.0516189877929687,0.00210689746093884,0.685732826661075,1.0007770000002,
-0.6742071875,-0.0827436093749999,-0.0146525141601543,0.679423676905858,1.00368200000048,
-0.662236179199219,-0.0444363828125001,-0.0242293208007798,0.664167455649783,1.00668200000018,
-0.676601389160156,-0.0683783994140624,0.0236547124023456,0.680459102914143,1.00961400000051,
