X,Y,Z,Magnitude,Seconds,
-0.671812985839844,-0.0611957944335937,0.0619619389648456,0.677434052199687,0.0,
-0.671812985839844,-0.10189722265625,0.0188663090820338,0.679758537678257,0.00390800000059244,
-0.664630380859375,-0.0611957944335937,0.0308373173828134,0.668153731233318,0.00762699999995675,
-0.657447775878906,-0.0204943662109374,0.0308373173828134,0.658489587767246,0.011384000000362,
-0.719697019042969,-0.0540131894531251,0.0236547124023456,0.722108557817363,0.0151240000004691,
-0.669418784179688,-0.0516189877929687,0.00450109912109475,0.671421096188286,0.0188960000004954,
-0.707726010742188,-0.0300711728515624,-0.0266235224609357,0.708864721696564,0.0227860000004512,
-0.667024582519531,-0.0635899960937499,0.00450109912109475,0.670063982901526,0.0265250000002197,
-0.707726010742188,-0.0564073911132812,0.0188663090820338,0.710220978056574,0.030257000000347,
-0.676601389160156,-0.0516189877929687,0.0499909306640642,0.680406534994251,0.0339970000004541,
-0.686178195800781,-0.0300711728515624,-0.00986411083984251,0.6869076302617,0.0377280000002429,
-0.6742071875,-0.0755610043945312,-0.0290177241210916,0.679048470563728,0.0414550000004965,
-0.676601389160156,-0.0611957944335937,0.0332315190429711,0.680175491272448,0.0452860000004875,
-0.69336080078125,-0.0588015927734374,-0.0050757075195289,0.69586822759739,0.0490350000000035,
-0.633505759277344,-0.0755610043945312,-0.000287304199217076,0.637996155918182,0.0527799999999843,
-0.69336080078125,-0.0564073911132812,0.00210689746093884,0.695654679312325,0.0565150000002177,
-0.6742071875,-0.0516189877929687,-0.0050757075195289,0.676199389517807,0.0602280000002793,
-0.690966599121094,-0.0659841977539062,0.00210689746093884,0.694113243261579,0.0639689999998154,
-0.683783994140625,-0.0635899960937499,0.0619619389648456,0.68952412584796,0.0677960000002713,
-0.686178195800781,-0.0731668027343749,0.00928950244140836,0.690130561756538,0.0717740000000049,
-0.6742071875,-0.0707726010742187,-0.0577481440429679,0.680366769382425,0.0755920000001424,
-0.707726010742188,-0.0516189877929687,0.0212605107421897,0.709924387170099,0.0793730000004871,
-0.645476767578125,-0.0683783994140624,-0.0194409174804662,0.649379559473515,0.0831560000005993,
-0.662236179199219,-0.0611957944335937,0.0236547124023456,0.66547819477093,0.0869430000002467,
-0.686178195800781,-0.0588015927734374,-0.0505655390624984,0.690546897354401,0.0907630000001518,
-0.695755002441406,-0.0707726010742187,-0.0122583124999984,0.699452679393252,0.094665000000532,
-0.690966599121094,-0.0588015927734374,-0.0170467158203103,0.69367359682629,0.0984189999999217,
-0.681389792480469,-0.0707726010742187,0.0116837041015643,0.685154960064451,0.102222000000438,
-0.702937607421875,-0.0779552060546874,0.00210689746093884,0.707250120605101,0.106034999999792,
-0.65505357421875,-0.0659841977539062,-0.0816901606445288,0.663417200407191,0.109785999999986,
-0.695755002441406,-0.0707726010742187,-0.0433829340820289,0.700689562826946,0.113495000000512,
-0.702937607421875,-0.0947146176757813,-0.0122583124999984,0.709395802746822,0.117314000000079,
-0.700543405761719,-0.0588015927734374,0.0212605107421897,0.703328301709764,0.12105800000063,
-0.678995590820313,-0.0611957944335937,-0.0362003291015611,0.68270813781355,0.124756000000161,
-0.647870969238281,-0.0851378110351562,-0.0649307490234357,0.656659151933751,0.128456000000369,
-0.7125144140625,-0.0444363828125001,-0.0433829340820289,0.715215674698096,0.132129999999961,
-0.664630380859375,-0.0707726010742187,0.00928950244140836,0.668452391034468,0.135847000000467,
-0.686178195800781,-0.1210508359375,0.0332315190429711,0.697565878703572,0.139656000000286,
-0.686178195800781,-0.0564073911132812,0.0116837041015643,0.688591910427471,0.143743000000541,
-0.714908615722656,-0.0659841977539062,0.071538745605471,0.721502623218042,0.147482999999738,
-0.702937607421875,-0.0468305844726562,-0.040988732421873,0.705687225161114,0.151225999999951,
-0.722091220703125,-0.0851378110351562,0.0428083256835947,0.728352065029145,0.155029999999897,
-0.669418784179688,-0.0875320126953125,0.0284431157226575,0.675716192414475,0.158835000000181,
-0.664630380859375,-0.0755610043945312,0.0212605107421897,0.669249593099172,0.162645000000339,
-0.688572397460938,-0.0492247861328126,0.00210689746093884,0.690332865458277,0.166482999999971,
-0.669418784179688,-0.10189722265625,-0.0122583124999984,0.677240591535251,0.170230000000629,
-0.686178195800781,-0.0707726010742187,0.0332315190429711,0.690618281913482,0.174019000000044,
-0.681389792480469,-0.0611957944335937,0.0954807622070337,0.690763020510342,0.177779000000555,
-0.695755002441406,-0.0564073911132812,-0.0194409174804662,0.698308503791075,0.181510000000344,
-0.667024582519531,-0.0635899960937499,-0.0074699091796866,0.670090501970973,0.185210000000552,
-0.633505759277344,-0.0971088193359375,0.00450109912109475,0.640921157182131,0.189017000000604,
-0.702937607421875,-0.0683783994140624,0.0523851323242202,0.708195656244124,0.192735999999968,
-0.690966599121094,-0.0516189877929687,-0.0529597407226543,0.694913012641979,0.19643300000007,
-0.702937607421875,-0.0492247861328126,0.0260489140625015,0.705140344485867,0.200150000000576,
-0.705331809082031,-0.0564073911132812,0.00450109912109475,0.707598060037219,0.20387699999992,
-0.659841977539063,-0.104291424316406,-0.0050757075195289,0.668052317798112,0.207565000000614,
-0.695755002441406,-0.0492247861328126,-0.0218351191406239,0.697835851343242,0.211471999999958,
-0.671812985839844,-0.0420421811523437,0.035625720703127,0.674069302753589,0.21546699999999,
-0.700543405761719,-0.0468305844726562,-0.0314119257812475,0.702809274326659,0.219197000000349,
-0.695755002441406,-0.0803494077148437,-0.0529597407226543,0.702378662033364,0.222948999999971,
-0.659841977539063,-0.0803494077148437,-0.0266235224609357,0.665249032010581,0.22667199999978,
-0.640688364257813,-0.0396479794921876,-0.0721133540039052,0.645951916321066,0.230454999999893,
-0.633505759277344,-0.0564073911132812,0.00928950244140836,0.636079897234129,0.234196999999767,
-0.683783994140625,-0.0396479794921876,0.0164721074218761,0.685130530077034,0.23800300000039,
-0.69336080078125,-0.0779552060546874,-0.0529597407226543,0.69973634202352,0.241727999999966,
-0.690966599121094,-0.0779552060546874,0.0284431157226575,0.695931653313751,0.245483000000604,
-0.671812985839844,-0.10189722265625,-0.0170467158203103,0.679710469573893,0.249198999999862,
-0.647870969238281,-0.0875320126953125,-0.040988732421873,0.655041008039798,0.252919000000475,
-0.657447775878906,-0.0803494077148437,-0.0529597407226543,0.664453414067275,0.25664500000039,
-0.6742071875,-0.0468305844726562,-0.0122583124999984,0.675942824167887,0.260345000000598,
-0.676601389160156,-0.0564073911132812,0.0332315190429711,0.679761404791095,0.264170999999806,
-0.643082565917969,-0.0779552060546874,0.0284431157226575,0.648414382606278,0.267872000000352,
-0.664630380859375,-0.0707726010742187,-0.0050757075195289,0.668407111744715,0.271590000000288,
-0.662236179199219,-0.0707726010742187,0.00450109912109475,0.666022355478019,0.275311999999758,
-0.683783994140625,-0.0707726010742187,0.0523851323242202,0.689429846898394,0.279078000000482,
-0.676601389160156,-0.0803494077148437,0.0260489140625015,0.68185336624337,0.283056000000215,
-0.667024582519531,-0.00373495458984374,-0.0146525141601543,0.667195953032058,0.286951000000045,
-0.700543405761719,-0.109079827636719,0.00450109912109475,0.708999105815221,0.290729000000283,
-0.580833322753906,-0.322163775390625,-0.0122583124999984,0.664309501076593,0.294491999999991,
-0.829830295410156,0.240473614746094,-0.0074699091796866,0.864003285938608,0.298316000000341,
-0.564073911132813,0.187801178222656,0.0954807622070337,0.602133901814308,0.302021999999852,
-0.588015927734375,-0.379624615234375,-0.0529597407226543,0.701913323636598,0.304965000000266,
-0.841801303710938,-0.489757891601562,-0.146333605468749,0.984837931542508,0.307880000000296,
-0.628717355957031,0.159070758300781,0.0619619389648456,0.651481620391757,0.310907000000043,
-0.700543405761719,0.350606891113281,0.172095215332034,0.802061729913931,0.313858999999866,
-0.525766684570313,-0.245549322265625,-0.00268150585937299,0.580286366152816,0.316854000000603,
-0.722091220703125,-0.401172430175781,-0.136756798828124,0.837291748302458,0.319779000000381,
-0.755610043945313,0.132734540039062,0.0380199223632829,0.768121416917227,0.322699000000284,
-0.580833322753906,0.125551935058594,0.169701013671876,0.618004102947192,0.325738999999885,
-0.705331809082031,-0.219213104003906,-0.10084377392578,0.745464159171688,0.3286420000004,
-0.662236179199219,-0.0803494077148437,-0.110420580566405,0.676169719059592,0.331637000000228,
-0.542526096191406,0.113580926757813,0.208008240234376,0.592032617325475,0.334579000000303,
-0.700543405761719,-0.247943523925781,0.00210689746093884,0.743129526684194,0.337488000000121,
-0.810676682128906,-0.0899262143554688,-0.0888727656249984,0.820476553867125,0.340479999999843,
-0.566468112792969,0.202166388183594,0.035625720703127,0.602516857272927,0.34344400000009,
-0.518584079589844,-0.0803494077148437,0.0859039555664083,0.531756489858024,0.346440000000257,
-0.8657433203125,-0.429902850097656,-0.0577481440429679,0.968329905212169,0.349366000000373,
-0.913627353515625,-0.1593580625,-0.115208983886717,0.934549647233323,0.35229100000015,
-0.5592855078125,0.254838824707031,0.0643561406250015,0.61796829907633,0.355311000000256,
-0.468305844726563,0.0249954653320312,0.0523851323242202,0.47188911788772,0.358250000000226,
-0.817859287109375,-0.465815875,-0.0218351191406239,0.941464293184269,0.361243000000286,
-0.872925925292969,-0.0875320126953125,-0.076901757324217,0.880667590282867,0.364198000000215,
-0.427604416503906,0.254838824707031,0.0308373173828134,0.49873771035994,0.367216999999982,
-0.497036264648438,-0.0779552060546874,0.0475967290039083,0.505358794460502,0.370147000000543,
-0.911233151855469,-0.417931841796875,-0.0553539423828102,1.00403034832892,0.373058000000128,
-0.813070883789063,0.0154186586914062,-0.0122583124999984,0.813309451148034,0.376068999999916,
-0.441969626464844,0.202166388183594,0.102663367187501,0.496737522431061,0.379023999999845,
-0.588015927734375,-0.17851167578125,-0.0362003291015611,0.615580712406269,0.381991000000198,
-0.932780966796875,-0.29343335546875,-0.0266235224609357,0.978208708849186,0.384943000000021,
-0.707726010742188,0.0537258852539062,0.0284431157226575,0.7103320264914,0.387872000000243,
-0.437181223144531,0.0776679018554689,0.121816980468752,0.460433601705288,0.39090699999997,
-0.736456430664063,-0.171329070800781,0.00689530078125244,0.756154263322488,0.393928999999844,
-0.916021555175781,-0.250337725585937,-0.0314119257812475,0.950132188424055,0.397050999999919,
-0.5592855078125,0.0178128603515626,0.0308373173828134,0.560418162969723,0.400098000000071,
-0.516189877929688,0.0489374819335937,0.0284431157226575,0.519284005190877,0.403092999999899,
-0.848983908691406,-0.0971088193359375,-0.0433829340820289,0.855620172143764,0.406087000000298,
-0.80828248046875,-0.142598650878906,-0.0242293208007798,0.82112240467038,0.409008999999969,
-0.506613071289063,-0.0204943662109374,0.0547793339843761,0.5099780372517,0.412025999999969,
-0.592804331054688,0.0297838686523437,0.0284431157226575,0.594233173578443,0.415017000000262,
-0.825041892089844,-0.135416045898437,-0.0338061274414052,0.8367642938382,0.417919999999867,
-0.69336080078125,-0.21681890234375,-0.0050757075195289,0.726488402715686,0.420938000000206,
-0.5592855078125,-0.00373495458984374,0.0236547124023456,0.559797976553785,0.423875999999836,
-0.717302817382813,0.0226012636718751,-0.0553539423828102,0.719790391629539,0.426911000000473,
-0.774763657226563,-0.116262432617187,-0.0936611689453102,0.789017168612538,0.429847999999765,
-0.621534750976562,-0.142598650878906,-0.076901757324217,0.64230343466584,0.432768000000578,
-0.631111557617188,0.0130244570312501,-0.0242293208007798,0.63171076817276,0.435830000000351,
-0.683783994140625,-0.0300711728515624,-0.0146525141601543,0.684601725275936,0.438755000000128,
-0.7125144140625,-0.137810247558594,-0.0338061274414052,0.726506234544187,0.441749000000527,
-0.631111557617188,-0.116262432617187,-0.0146525141601543,0.641898315597784,0.444679000000178,
-0.710120212402344,-0.00612915624999988,0.0140779057617202,0.7102861888347,0.447603000000527,
-0.686178195800781,-0.0707726010742187,0.0284431157226575,0.69040443820071,0.450603000000228,
-0.729273825683594,-0.137810247558594,-0.0601423457031238,0.744613375454685,0.453518000000258,
-0.678995590820313,-0.0611957944335937,-0.0649307490234357,0.684832782348018,0.456517000000531,
-0.628717355957031,-0.0396479794921876,-0.0840843623046865,0.635553031574549,0.45943299999999,
-0.676601389160156,-0.0779552060546874,-0.0338061274414052,0.681915909931031,0.462422999999944,
-0.695755002441406,-0.0875320126953125,-0.0218351191406239,0.701579396146023,0.465353000000505,
-0.707726010742188,-0.0516189877929687,0.0140779057617202,0.709745597811256,0.468283000000156,
-0.659841977539063,-0.0635899960937499,0.00928950244140836,0.66296411500282,0.471287000000302,
-0.638294162597656,-0.0683783994140624,-0.0218351191406239,0.642317535133953,0.474202000000332,
-0.717302817382813,-0.0396479794921876,0.0164721074218761,0.71858654623229,0.477198000000499,
-0.671812985839844,0.00344765039062511,0.0212605107421897,0.672158153676113,0.480155000000195,
-0.638294162597656,-0.0564073911132812,0.0164721074218761,0.640993418142002,0.483065000000352,
-0.69336080078125,-0.130627642578125,-0.0218351191406239,0.705896276724435,0.48606000000018,
-0.671812985839844,-0.0851378110351562,0.0140779057617202,0.677332504935014,0.488999000000149,
-0.676601389160156,-0.0300711728515624,-0.0146525141601543,0.677427790558769,0.492001000000528,
-0.662236179199219,-0.0516189877929687,0.0404141240234388,0.665473198830526,0.494931000000179,
-0.729273825683594,-0.0875320126953125,0.00450109912109475,0.734521902986545,0.497862000000168,
-0.695755002441406,-0.113868230957031,0.0284431157226575,0.705584869647541,0.500871000000188,
-0.662236179199219,-0.0588015927734374,0.0140779057617202,0.664990655410818,0.503806000000623,
-0.6358999609375,-0.0611957944335937,0.0188663090820338,0.639116282999465,0.506809999999859,
-0.681389792480469,-0.0420421811523437,0.0140779057617202,0.682830712346229,0.509745000000294,
-0.659841977539063,-0.0707726010742187,0.0260489140625015,0.664137592904744,0.512644999999793,
-0.647870969238281,-0.0731668027343749,0.093086560546876,0.6586010033082,0.515656999999919,
-0.688572397460938,-0.0707726010742187,0.0595677373046897,0.694758247835543,0.518573000000288,
-0.669418784179688,-0.0204943662109374,-0.0074699091796866,0.669774086690544,0.521566000000348,
-0.686178195800781,-0.0875320126953125,0.0475967290039083,0.693374226699247,0.52449500000057,
-0.690966599121094,-0.0755610043945312,-0.0146525141601543,0.695240248156919,0.527401000000282,
-0.695755002441406,-0.0420421811523437,-0.0050757075195289,0.697042560555029,0.530437999999776,
-0.650265170898438,-0.0516189877929687,-0.038594530761717,0.653451490310537,0.533462999999756,
-0.700543405761719,-0.104291424316406,-0.0050757075195289,0.708282095883411,0.536557000000357,
-0.686178195800781,-0.0779552060546874,-0.000287304199217076,0.690592219104116,0.539574000000357,
-0.705331809082031,-0.0611957944335937,-0.0338061274414052,0.708788219718608,0.542484000000513,
-0.65505357421875,-0.0133117612304687,0.0523851323242202,0.657279689456812,0.545485000000554,
-0.650265170898438,-0.0995030209960938,-0.0266235224609357,0.658372581156864,0.548393000000033,
-0.695755002441406,-0.0875320126953125,-0.0362003291015611,0.702173298050983,0.551397000000179,
-0.664630380859375,-0.0348595761718749,-0.00986411083984251,0.665617032455466,0.554326000000401,
-0.676601389160156,-0.104291424316406,-0.00986411083984251,0.684663013227718,0.557299000000057,
-0.702937607421875,-0.106685625976563,-0.0314119257812475,0.711680976139792,0.560207000000446,
-0.695755002441406,-0.0635899960937499,0.00450109912109475,0.698669428928118,0.563141999999971,
-0.621534750976562,-0.0635899960937499,0.0428083256835947,0.626244111367551,0.566163999999844,
-0.659841977539063,-0.0707726010742187,0.0332315190429711,0.664458072600051,0.56910599999992,
-0.743639035644531,-0.0827436093749999,0.0212605107421897,0.7485302462451,0.57212299999992,
-0.686178195800781,-0.0540131894531251,-0.0050757075195289,0.688319478029017,0.575079000000187,
-0.599986936035156,-0.104291424316406,0.0332315190429711,0.609889628094054,0.578005000000303,
-0.678995590820313,-0.104291424316406,-0.00986411083984251,0.687029121815102,0.581012999999984,
-0.678995590820313,-0.0444363828125001,0.00689530078125244,0.680483026712458,0.583953000000292,
-0.647870969238281,-0.0468305844726562,0.0116837041015643,0.649666380048509,0.586968000000525,
-0.662236179199219,-0.0516189877929687,-0.000287304199217076,0.664244954429353,0.589875000000575,
-0.676601389160156,-0.0683783994140624,-0.0266235224609357,0.680568774825962,0.592782000000625,
-0.6742071875,-0.0396479794921876,0.0260489140625015,0.675874130203479,0.595780999999988,
-0.669418784179688,-0.118656634277344,-0.0074699091796866,0.679894627875372,0.598696000000018,
-0.686178195800781,-0.0707726010742187,0.0452025273437524,0.691297725971588,0.601717999999892,
-0.705331809082031,-0.0564073911132812,-0.0290177241210916,0.708178496558816,0.604632999999922,
-0.700543405761719,-0.0803494077148437,0.00689530078125244,0.705169934022444,0.607552000000396,
-0.710120212402344,-0.0659841977539062,0.0212605107421897,0.713496068477322,0.610572999999931,
-0.681389792480469,-0.0659841977539062,0.035625720703127,0.685503578127365,0.613492000000406,
-0.714908615722656,-0.0803494077148437,-0.0242293208007798,0.71981762700081,0.616495000000214,
-0.681389792480469,-0.0755610043945312,0.0188663090820338,0.68582610937472,0.619432999999844,
-0.662236179199219,-0.0875320126953125,0.0140779057617202,0.668144294084375,0.622346000000107,
-0.686178195800781,-0.0683783994140624,-0.0050757075195289,0.689595450032603,0.625336000000061,
-0.681389792480469,-0.0516189877929687,0.0236547124023456,0.683751500631761,0.628286000000116,
-0.657447775878906,-0.0827436093749999,0.0332315190429711,0.663466967345343,0.631277999999838,
-0.678995590820313,-0.0588015927734374,0.00210689746093884,0.681540225286101,0.634202000000187,
-0.652659372558594,-0.0468305844726562,0.0571735356445338,0.656830399272693,0.637110000000575,
-0.676601389160156,-0.0348595761718749,0.0643561406250015,0.680548560134015,0.640113999999812,
-0.631111557617188,-0.0516189877929687,0.0763271489257829,0.637802596201914,0.643035000000054,
-0.669418784179688,-0.0683783994140624,-0.0218351191406239,0.67325618195968,0.646034999999756,
-0.650265170898438,-0.0875320126953125,0.00928950244140836,0.656195809637394,0.648963000000549,
-0.652659372558594,-0.0588015927734374,-0.0649307490234357,0.658511872383494,0.65194800000063,
-0.671812985839844,-0.0540131894531251,-0.0266235224609357,0.674506430307505,0.654867000000195,
-0.678995590820313,-0.0827436093749999,0.0140779057617202,0.684163507267425,0.657779000000119,
-0.652659372558594,-0.0659841977539062,0.0619619389648456,0.658906254957477,0.660781999999926,
-0.640688364257813,-0.0516189877929687,0.00450109912109475,0.64278018006891,0.663707000000613,
-0.700543405761719,-0.0492247861328126,0.0667503422851574,0.70543585897035,0.666690000000017,
-0.700543405761719,-0.128233440917969,-0.0074699091796866,0.712222351705591,0.669702000000143,
-0.690966599121094,-0.0659841977539062,0.0452025273437524,0.695580350450226,0.67272099999991,
-0.664630380859375,-0.0659841977539062,0.0308373173828134,0.668609301205026,0.675846000000092,
-0.659841977539063,-0.0803494077148437,0.0667503422851574,0.668059182137311,0.67884099999992,
-0.664630380859375,-0.0635899960937499,-0.00268150585937299,0.66767089290919,0.681840000000193,
-0.681389792480469,-0.0540131894531251,0.0595677373046897,0.686117912066925,0.684768000000076,
-0.6742071875,-0.0827436093749999,0.00450109912109475,0.679280572710836,0.687678000000233,
-0.645476767578125,-0.0611957944335937,-0.0074699091796866,0.648414205799515,0.690717999999833,
-0.659841977539063,-0.0755610043945312,0.0188663090820338,0.664422183800443,0.693648999999823,
-0.652659372558594,-0.0588015927734374,0.0212605107421897,0.655647689859645,0.696646000000328,
-0.700543405761719,-0.0731668027343749,-0.040988732421873,0.705545548185339,0.699572999999873,
-0.69336080078125,-0.0516189877929687,-0.0242293208007798,0.695701645784494,0.702471999999943,
-0.647870969238281,-0.0540131894531251,0.0260489140625015,0.65064027184035,0.705520999999862,
-0.645476767578125,-0.125839239257812,-0.0338061274414052,0.658497248189143,0.708429000000251,
-0.659841977539063,-0.0683783994140624,-0.0194409174804662,0.66366029721656,0.711468000000423,
-0.702937607421875,-0.0492247861328126,-0.0505655390624984,0.706470971263853,0.714391000000433,
-0.621534750976562,-0.0803494077148437,0.0332315190429711,0.627587291019765,0.71732400000019,
-0.671812985839844,-0.0444363828125001,0.0308373173828134,0.673986810111202,0.720345000000634,
-0.676601389160156,-0.0779552060546874,0.0260489140625015,0.681575380928858,0.723283000000265,
-0.710120212402344,-0.0468305844726562,-0.0146525141601543,0.711813540104158,0.726274999999987,
-0.640688364257813,-0.0492247861328126,-0.038594530761717,0.643734570665495,0.729190000000017,
-0.700543405761719,-0.0899262143554688,-0.0122583124999984,0.706397942812606,0.732092000000193,
-0.690966599121094,-0.0875320126953125,-0.0074699091796866,0.696528889487447,0.735079000000042,
-0.662236179199219,-0.0755610043945312,-0.0553539423828102,0.668827542317756,0.73798700000043,
-0.700543405761719,-0.0564073911132812,-0.0290177241210916,0.703409472101139,0.741006000000198,
-0.683783994140625,-0.0875320126953125,-0.0362003291015611,0.690313600993389,0.743916000000354,
-0.700543405761719,-0.0420421811523437,-0.000287304199217076,0.701803883500211,0.74690499999997,
-0.640688364257813,-0.0875320126953125,0.0547793339843761,0.648956245654217,0.749847000000045,
-0.652659372558594,-0.10189722265625,0.0140779057617202,0.660715890534101,0.752765000000181,
-0.669418784179688,-0.0635899960937499,-0.0314119257812475,0.673165585348138,0.755756000000474,
-0.705331809082031,-0.0827436093749999,0.0523851323242202,0.712098074624528,0.758692000000337,
-0.664630380859375,-0.0851378110351562,0.0140779057617202,0.670209055041613,0.761666000000332,
-0.681389792480469,-0.0803494077148437,-0.0218351191406239,0.686458191767414,0.764595000000554,
-0.695755002441406,-0.0803494077148437,-0.0290177241210916,0.700980084635459,0.767493000000286,
-0.659841977539063,-0.0683783994140624,0.0547793339843761,0.665633394790903,0.770505999999841,
-0.662236179199219,-0.0444363828125001,0.0475967290039083,0.665429784252035,0.773425000000316,
-0.717302817382813,-0.0683783994140624,-0.0457771357421866,0.722007259997092,0.776418999999805,
-0.662236179199219,-0.0516189877929687,-0.0266235224609357,0.664778225342391,0.779330999999729,
-0.664630380859375,-0.0779552060546874,0.0164721074218761,0.66938918995994,0.782251999999971,
-0.671812985839844,-0.0396479794921876,0.0284431157226575,0.673582705428867,0.785249999999905,
-0.700543405761719,-0.0827436093749999,0.0212605107421897,0.70573336152236,0.78817700000036,
-0.700543405761719,-0.0588015927734374,0.00210689746093884,0.703010049491351,0.79118600000038,
-0.664630380859375,-0.0803494077148437,-0.00268150585937299,0.669474989043712,0.794103000000177,
-0.681389792480469,-0.0181001645507812,-0.0457771357421866,0.683165581253989,0.797000999999909,
-0.659841977539063,-0.0444363828125001,0.00450109912109475,0.661351863483742,0.8000090000005,
-0.647870969238281,-0.0731668027343749,0.0188663090820338,0.652262302622572,0.802926999999727,
-0.678995590820313,-0.0899262143554688,-0.0721133540039052,0.688710441482793,0.80595700000049,
-0.681389792480469,-0.0779552060546874,-0.000287304199217076,0.685834634581331,0.808977000000596,
-0.650265170898438,-0.0755610043945312,-0.00986411083984251,0.654714868130658,0.811979000000065,
-0.681389792480469,-0.0827436093749999,-0.0457771357421866,0.687920126428743,0.815075999999863,
-0.710120212402344,-0.0707726010742187,-0.076901757324217,0.717769710565104,0.818017000000509,
-0.659841977539063,-0.0540131894531251,-0.0553539423828102,0.66435902860944,0.821012000000337,
-0.664630380859375,-0.111474029296875,-0.0553539423828102,0.676183452404951,0.823933000000579,
-0.671812985839844,-0.0995030209960938,0.0380199223632829,0.680205155542727,0.826866000000336,
-0.657447775878906,-0.0444363828125001,-0.0050757075195289,0.658967323114283,0.829875999999786,
-0.686178195800781,-0.0659841977539062,0.0164721074218761,0.689540253406978,0.832796000000599,
-0.681389792480469,-0.0707726010742187,0.0140779057617202,0.68519996919879,0.835807999999815,
-0.722091220703125,-0.0588015927734374,-0.0266235224609357,0.724970461658577,0.83873500000027,
-0.678995590820313,-0.0755610043945312,-0.0266235224609357,0.683705557741608,0.841715999999906,
-0.695755002441406,-0.0659841977539062,-0.0050757075195289,0.698895343082419,0.844654000000446,
-0.6742071875,-0.0971088193359375,0.00450109912109475,0.681179649110848,0.847598000000289,
-0.698149204101563,-0.0611957944335937,0.00928950244140836,0.700887673810585,0.850618999999824,
-0.647870969238281,-0.0707726010742187,0.0116837041015643,0.651829780530234,0.853560000000471,
-0.6742071875,-0.0635899960937499,-0.0242293208007798,0.677632702329463,0.856544000000213,
-0.6742071875,-0.0348595761718749,-0.0194409174804662,0.675387644986215,0.859472000000096,
-0.686178195800781,-0.0875320126953125,-0.040988732421873,0.692951979450567,0.862364000000525,
-0.702937607421875,-0.0779552060546874,0.00210689746093884,0.707250120605101,0.86537700000008,
-0.690966599121094,-0.0827436093749999,-0.0050757075195289,0.695921769166763,0.868280000000595,
-0.65505357421875,-0.0851378110351562,-0.000287304199217076,0.660563179800631,0.871278999999959,
-0.657447775878906,-0.106685625976563,0.0619619389648456,0.66892352528403,0.874186000000009,
-0.6358999609375,-0.0516189877929687,-0.0218351191406239,0.638365140533982,0.877097999999933,
-0.702937607421875,-0.0659841977539062,0.0236547124023456,0.706423909349092,0.880114000000503,
-0.650265170898438,-0.0492247861328126,-0.0074699091796866,0.652168438056111,0.883026999999856,
-0.647870969238281,-0.0755610043945312,0.0499909306640642,0.654175321542719,0.886034000000109,
-0.676601389160156,-0.0971088193359375,-0.000287304199217076,0.683534670042402,0.888958999999886,
-0.700543405761719,-0.0827436093749999,0.0188663090820338,0.705665293086609,0.891880000000128,
-0.671812985839844,-0.0803494077148437,0.035625720703127,0.677538122350905,0.894890999999916,
-0.7125144140625,-0.0731668027343749,0.0140779057617202,0.716399580331978,0.897813000000497,
-0.643082565917969,-0.0827436093749999,0.0643561406250015,0.651569953509358,0.900830000000497,
-0.683783994140625,-0.0635899960937499,0.0475967290039083,0.688381933855023,0.903779000000213,
-0.681389792480469,-0.0899262143554688,-0.0338061274414052,0.688129077700882,0.906681999999819,
-0.681389792480469,-0.0707726010742187,0.0164721074218761,0.685253340511598,0.909685000000536,
-0.707726010742188,-0.0420421811523437,0.0212605107421897,0.709292366090399,0.912619000000632,
-0.700543405761719,-0.092320416015625,-0.00268150585937299,0.706605486140039,0.915608000000248,
-0.676601389160156,-0.0516189877929687,0.0164721074218761,0.678767478623675,0.918552000000091,
-0.631111557617188,-0.0683783994140624,-0.0601423457031238,0.637647634208029,0.921449000000393,
-0.690966599121094,-0.1210508359375,-0.040988732421873,0.702686432320768,0.924441000000115,
-0.6742071875,-0.0611957944335937,-0.0481713374023425,0.678690455716116,0.927345000000059,
-0.6742071875,-0.0659841977539062,0.0164721074218761,0.677628641921816,0.930357000000186,
-0.69336080078125,-0.0420421811523437,-0.0170467158203103,0.694843389244167,0.933266000000003,
-0.714908615722656,-0.0803494077148437,-0.0314119257812475,0.720095177900739,0.936244999999872,
-0.7125144140625,-0.0803494077148437,-0.038594530761717,0.718068489332091,0.939147000000048,
-0.678995590820313,-0.0683783994140624,0.0212605107421897,0.682761032263026,0.942073000000164,
-0.662236179199219,-0.0827436093749999,-0.0074699091796866,0.667427195637049,0.945142999999916,
-0.6742071875,-0.0516189877929687,0.0164721074218761,0.676380944365192,0.948183999999856,
-0.707726010742188,-0.0396479794921876,-0.000287304199217076,0.708835771601975,0.951262000000497,
-0.681389792480469,-0.0995030209960938,-0.0266235224609357,0.689131128619331,0.954265999999734,
-0.683783994140625,-0.0611957944335937,-0.0146525141601543,0.686673264420917,0.957164000000375,
-0.722091220703125,-0.0755610043945312,0.00450109912109475,0.726047833338092,0.960173000000395,
-0.683783994140625,-0.0516189877929687,-0.0194409174804662,0.686005116465001,0.963085000000319,
-0.702937607421875,-0.0995030209960938,0.00689530078125244,0.709978644952229,0.966131000000132,
-0.6742071875,-0.0971088193359375,0.0308373173828134,0.681862445521711,0.969044000000395,
-0.662236179199219,-0.0851378110351562,-0.038594530761717,0.668800973169862,0.971964000000298,
-0.690966599121094,-0.0540131894531251,-0.040988732421873,0.694285490213804,0.974976000000424,
-0.690966599121094,-0.0635899960937499,-0.0146525141601543,0.694041227071841,0.977904000000308,
-0.726879624023438,-0.0995030209960938,0.00450109912109475,0.733672337560236,0.980947000000015,
-0.681389792480469,-0.0564073911132812,-0.0218351191406239,0.684069159878348,0.983878000000004,
-0.669418784179688,-0.0564073911132812,-0.0553539423828102,0.674067772054218,0.986829000000398,
-0.676601389160156,-0.0588015927734374,0.0308373173828134,0.679851459709777,0.98986000000059,
-0.690966599121094,-0.0588015927734374,-0.0218351191406239,0.693807783785645,0.992777999999817,
-0.669418784179688,-0.0611957944335937,0.0116837041015643,0.672311641138619,0.995810000000347,
-0.667024582519531,-0.0444363828125001,-0.0721133540039052,0.672381381084059,0.998727000000144,
-0.667024582519531,-0.0995030209960938,0.0667503422851574,0.677700710541084,1.00164800000039,
-0.705331809082031,-0.0659841977539062,0.0164721074218761,0.708602995745203,1.00464900000043,
-0.69336080078125,-0.0588015927734374,0.0308373173828134,0.69653267512449,1.00756900000033,
