X,Y,Z,Magnitude,Seconds,
-0.0401268198242187,0.683400921875,-0.132447235839846,0.697272724240968,0.0,
-0.0353384165039062,0.7217081484375,-0.0678037910156277,0.725747069768924,0.00384700000017801,
-0.0904050546875,0.692977728515625,-0.0773805976562532,0.703120873694818,0.00766199999998207,
-0.0113963999023437,0.74086176171875,-0.0678037910156277,0.744045282213277,0.0114200000000437,
-0.0592804331054687,0.657064703613281,-0.043861774414065,0.661189874195251,0.0151789999999892,
-0.0473094248046875,0.70255453515625,-0.0582269843750023,0.706548963804613,0.018936000000167,
-0.0377326181640625,0.647487896972656,-0.0558327827148464,0.650985120279466,0.0226480000001175,
-0.0688572397460937,0.673824115234375,-0.0965342109375023,0.684177690090934,0.0263549999999668,
-0.0544920297851562,0.685795123535156,-0.0893516059570327,0.693734850113361,0.0300830000001042,
-0.0353384165039062,0.666641510253906,-0.0151313544921905,0.667748953397443,0.0339089999999942,
-0.0473094248046875,0.676218316894531,-0.0869574042968768,0.683425916936923,0.0376270000001568,
-0.0161848032226562,0.685795123535156,-0.0654095893554718,0.689097463135374,0.0413330000001224,
-0.0377326181640625,0.654670501953125,-0.0630153876953141,0.658777774129837,0.0450270000001183,
-0.00900219824218745,0.7217081484375,-0.0845632026367209,0.726701194669759,0.0487420000001748,
-0.0281558115234375,0.676218316894531,-0.0678037910156277,0.680192116906913,0.0526529999999639,
-0.0233674082031249,0.681006720214844,-0.0486501777343769,0.683142026622207,0.0565950000000157,
-0.0209732065429687,0.623545880371094,-0.0534385810546905,0.626182898413551,0.0603660000001582,
-0.0880108530273437,0.7217081484375,-0.043861774414065,0.728376562655908,0.0641560000001391,
-0.061674634765625,0.652276300292969,-0.0773805976562532,0.659739258640105,0.0678920000000289,
-0.0209732065429687,0.671429913574219,-0.101322614257814,0.679355780423641,0.0716879999999946,
-0.0473094248046875,0.695371930175781,-0.0869574042968768,0.702383010268466,0.0754710000001069,
-0.0137906015624999,0.695371930175781,-0.0582269843750023,0.697941748054416,0.0792280000000574,
-0.0377326181640625,0.666641510253906,-0.0797747993164091,0.672457189918509,0.0830860000000939,
-0.0712514414062499,0.697766131835937,-0.0175255561523464,0.701613488865632,0.0868790000001809,
-0.0401268198242187,0.673824115234375,-0.0366791694335955,0.676013654751834,0.090598,
-0.0449152231445312,0.678612518554687,-0.0366791694335955,0.681085669412885,0.0943210000000363,
-0.0281558115234375,0.695371930175781,-0.00555454785156506,0.695963881247274,0.0980360000000928,
-0.0568862314453125,0.700160333496094,-0.0630153876953141,0.705288221237106,0.101757000000134,
-0.080828248046875,0.685795123535156,-0.0989284125976582,0.697592279176038,0.10553300000015,
-0.0473094248046875,0.659458905273438,-0.0893516059570327,0.66716410193212,0.109268000000156,
-0.052097828125,0.716919745117187,-0.115687824218753,0.728060284115748,0.112964000000147,
-0.0185790048828124,0.692977728515625,-0.0869574042968768,0.69865936034892,0.116666000000123,
-0.0544920297851562,0.700160333496094,-0.0342849677734396,0.703114025551115,0.120431000000053,
-0.0209732065429687,0.700160333496094,-0.0701979926757836,0.703983043950467,0.124430000000075,
-0.0281558115234375,0.692977728515625,-0.0678037910156277,0.696855965043932,0.128318000000036,
-0.00181959326171871,0.707342938476562,-0.0414675727539091,0.708559738570007,0.132134000000178,
-0.0664630380859375,0.652276300292969,-0.103716815917972,0.663806361267846,0.135890000000018,
-0.0353384165039062,0.714525543457031,-0.00794874951172098,0.715443036553134,0.139707000000044,
-0.0161848032226562,0.683400921875,-0.0989284125976582,0.690713832707908,0.143516999999974,
-0.0257616098632812,0.676218316894531,-0.106111017578128,0.684977678977853,0.147294999999986,
-0.0185790048828124,0.714525543457031,-0.118082025878909,0.7244551721885,0.151048000000173,
-0.0281558115234375,0.673824115234375,-0.101322614257814,0.681980908936584,0.154929000000038,
-0.0544920297851562,0.669035711914063,-0.0606211860351582,0.67398300670178,0.15869100000009,
-0.00660799658203121,0.690583526855469,-0.000766144531251456,0.690615566115048,0.162410000000136,
-0.03294421484375,0.709737140136719,-0.0797747993164091,0.714965836937048,0.166129000000183,
-0.00181959326171871,0.712131341796875,-0.103716815917972,0.719646813925566,0.169861000000083,
-0.0401268198242187,0.709737140136719,-0.0701979926757836,0.714328165435441,0.173563000000058,
-0.0640688364257812,0.716919745117187,-0.0582269843750023,0.722128186992623,0.177349000000049,
-0.0401268198242187,0.661853106933594,-0.101322614257814,0.670765211521061,0.181074999999964,
-0.0137906015624999,0.649882098632813,-0.0678037910156277,0.653555106238896,0.184791000000132,
-0.0880108530273437,0.714525543457031,-0.0103429511718769,0.7199997494042,0.188486000000012,
-0.0592804331054687,0.671429913574219,-0.0773805976562532,0.678468905319244,0.192357000000129,
-0.0281558115234375,0.704948736816406,-0.11089942089844,0.714173755340533,0.19625700000006,
-0.042521021484375,0.709737140136719,-0.139629840820314,0.724590462126731,0.199980000000096,
-0.0449152231445312,0.681006720214844,-0.0941400092773463,0.688948380936221,0.203830000000153,
-0.0305500131835937,0.688189325195312,-0.0701979926757836,0.692434551993188,0.207589000000098,
-0.0185790048828124,0.673824115234375,-0.0414675727539091,0.675354482685889,0.211357000000135,
-0.0449152231445312,0.669035711914063,-0.0606211860351582,0.673276384022779,0.215151999999989,
-0.0209732065429687,0.671429913574219,-0.0271023627929718,0.672303906209044,0.218882000000121,
-0.042521021484375,0.673824115234375,-0.0678037910156277,0.678560483387851,0.222615000000133,
-0.0856166513671875,0.714525543457031,-0.0510443793945328,0.721444725472208,0.226430000000164,
-0.0736456430664062,0.673824115234375,-0.043861774414065,0.679254351674543,0.23018500000012,
-0.0497036264648437,0.678612518554687,-0.0342849677734396,0.681293519592047,0.233908000000156,
-0.0712514414062499,0.690583526855469,-0.0797747993164091,0.698817854717937,0.237635000000182,
-0.0209732065429687,0.657064703613281,-0.0318907661132837,0.658172409852005,0.241337000000158,
-0.0473094248046875,0.683400921875,-0.0510443793945328,0.686935608600052,0.245051000000103,
-0.0257616098632812,0.676218316894531,-0.0654095893554718,0.679862697186772,0.248833999999988,
-0.0712514414062499,0.659458905273438,-0.0725921943359396,0.667257403350023,0.252566999999999,
-0.0305500131835937,0.678612518554687,-0.0941400092773463,0.685791947307194,0.256270000000086,
-0.00421379492187496,0.676218316894531,-0.0103429511718769,0.676310538739609,0.259985000000142,
-0.0137906015624999,0.697766131835937,-0.082169000976565,0.702722918475148,0.263930999999957,
-0.0497036264648437,0.654670501953125,-0.0797747993164091,0.661383349667413,0.267753999999968,
-0.0449152231445312,0.70255453515625,-0.113293622558595,0.713046770591654,0.271501000000171,
-0.0353384165039062,0.707342938476562,-0.0342849677734396,0.709054507995604,0.27540799999997,
-0.0161848032226562,0.712131341796875,-0.177937067382814,0.734203374940193,0.279172000000017,
-0.0664630380859375,0.834235626464844,0.0279642753906231,0.837346055459107,0.283024000000069,
-0.061674634765625,0.671429913574219,-0.256945722167972,0.721555953170769,0.286812000000054,
-0.0927992563476562,0.661853106933594,0.152462761718748,0.685496995505624,0.290623000000096,
0.00775721337890628,0.35778949609375,-0.180331269042972,0.400740395354741,0.294417000000067,
-0.00660799658203121,1.23646150537109,-0.16836026074219,1.24788857566714,0.298305000000028,
-0.099981861328125,0.841418231445313,0.0471178886718722,0.848646633314531,0.301961000000119,
-0.0760398447265624,0.441586554199219,0.178798979980467,0.482441517779756,0.304906000000074,
-0.138289087890625,0.0369664736328124,-0.225821100585939,0.267367839263273,0.307829999999967,
0.00296881005859378,0.561296637207031,-0.20666748730469,0.598142273277788,0.310850000000073,
0.0676122548828125,1.45433385644531,0.152462761718748,1.46386586705352,0.313826000000063,
0.0676122548828125,1.54531351953125,0.212317803222653,1.56129566073236,0.316865000000007,
-0.277152784179687,-0.449056463378906,-0.587345551269534,0.789582275432419,0.319787000000133,
-0.253210767578125,-0.439479656738281,-0.0486501777343769,0.509534004064388,0.322695000000067,
0.115496288085938,2.15822914453125,0.439766960937497,2.205603639097,0.325723000000153,
0.266330992675781,1.40166141992188,-0.312012360351565,1.46045836872169,0.328665000000001,
-0.140683289550781,-0.726783855957031,-0.194696479003909,0.765449724132891,0.331656000000066,
-0.272364380859375,0.484682184082031,0.121338140136716,0.569053705531627,0.334612000000106,
-0.10955866796875,1.72009024072266,-0.118082025878909,1.72761595928959,0.337527000000136,
0.00536301171875003,0.628334283691406,0.0519062919921858,0.630497420379391,0.340560000000096,
0.172957127929688,-0.0540131894531251,-0.151600849121095,0.236250735852447,0.343485000000101,
0.17774553125,0.872542853027344,-0.0917458076171904,0.895176964328156,0.346510999999964,
-0.432775892089844,1.19576007714844,-0.00794874951172098,1.2716919113901,0.34946600000012,
-0.487842530273437,0.451163360839844,0.0183874687499976,0.664738152594633,0.352405999999974,
0.378858470703125,0.379337311035156,-0.132447235839846,0.552243430606929,0.35542200000009,
0.421954100585938,1.02577175927734,-0.142024042480472,1.11822349902634,0.35847600000011,
-0.375315052246094,0.803111004882813,0.121338140136716,0.894746678595795,0.361606000000165,
-0.325036817382812,0.302722857910156,-0.103716815917972,0.456121956564034,0.364624000000049,
0.163380321289063,0.731284955078125,-0.194696479003909,0.774194764800597,0.367681000000175,
0.0915542714843751,1.18618327050781,-0.0678037910156277,1.1916418463346,0.370646999999963,
-0.0281558115234375,0.530172015625,0.00402225878906037,0.530934359822553,0.373590000000149,
-0.0736456430664062,0.175830169921875,-0.0462559760742209,0.196162036898068,0.376590000000078,
-0.188567322753906,1.09759780908203,-0.230609503906253,1.13730353424411,0.379556999999977,
-0.00181959326171871,1.22449049707031,-0.115687824218753,1.22994469835339,0.382551000000149,
0.0700064565429688,-0.0635899960937501,0.106972930175779,0.142785851369447,0.385521000000153,
-0.140683289550781,0.317088067871094,-0.211455890625002,0.406263737521656,0.388457000000017,
-0.0832224497070312,1.71530183740234,-0.151600849121095,1.72399802406654,0.391470000000027,
0.0604296499023438,0.688189325195312,0.0255700737304672,0.691310435745535,0.394444000000021,
-0.0951934580078125,-0.355682598632813,-0.125264630859377,0.388925613918666,0.397420000000011,
-0.102376062988281,1.09759780908203,-0.158783454101565,1.11373874587853,0.400397999999996,
0.0700064565429688,1.36574839501953,0.0327526787109349,1.36793359503262,0.403350000000046,
-0.0137906015624999,0.159070758300781,-0.0462559760742209,0.166232674767688,0.406345000000101,
-0.140683289550781,0.417644537597656,-0.139629840820314,0.4622934567907,0.40930800000001,
-0.0904050546875,1.19336587548828,-0.0294965644531278,1.19714879359564,0.41232500000001,
-0.0951934580078125,0.944368902832031,0.00402225878906037,0.949163103818003,0.41528900000003,
0.00536301171875003,0.360183697753906,-0.0342849677734396,0.361851512415795,0.418235999999979,
0.0867658681640626,0.712131341796875,-0.108505219238284,0.725556852665337,0.421280000000024,
-0.0832224497070312,0.994647137695312,-0.0989284125976582,1.00301332766809,0.424220000000105,
-0.217297742675781,0.47271117578125,-0.0294965644531278,0.521099042404627,0.427241000000095,
-0.061674634765625,0.376943109375,-0.0845632026367209,0.391204298952537,0.43019100000015,
0.105919481445313,0.97070512109375,-0.082169000976565,0.97991791155625,0.433140999999978,
0.0125456166992188,0.915638482910156,-0.0534385810546905,0.917282347933021,0.436169000000064,
-0.1670195078125,0.353001092773437,-0.106111017578128,0.404678681846025,0.439120000000003,
-0.102376062988281,0.525383612304687,-0.0701979926757836,0.539848642238741,0.442132000000129,
0.053247044921875,0.9515515078125,-0.0223139594726582,0.953301333577428,0.445107000000007,
0.00296881005859378,0.786351593261719,0.00162805712890446,0.786358882844483,0.448049999999967,
-0.123923877929687,0.551719830566406,-0.0989284125976582,0.574054640065254,0.451041000000032,
-0.061674634765625,0.692977728515625,-0.0366791694335955,0.696683037157133,0.453976000000011,
0.0245166250000001,0.757621173339844,-0.00316034619140915,0.758024336668871,0.457004000000097,
-0.099981861328125,0.647487896972656,-0.0294965644531278,0.655825431525225,0.459941000000072,
-0.0975876596679687,0.683400921875,-0.0606211860351582,0.692989970732175,0.462941000000001,
-0.0377326181640625,0.719313946777344,-0.0223139594726582,0.720648469983293,0.465879000000086,
0.0173340200195313,0.54932562890625,0.0255700737304672,0.550193550938091,0.468834000000015,
0.0604296499023438,0.683400921875,-0.0869574042968768,0.691556326533834,0.471850000000131,
-0.126318079589844,0.886908062988281,-0.0223139594726582,0.896136196240414,0.474791999999979,
-0.169413709472656,0.633122687011719,0.00162805712890446,0.655399109197014,0.47779700000001,
-0.00181959326171871,0.4535575625,-0.0749863959960955,0.459718101672169,0.480741999999964,
0.0987368764648438,0.781563189941406,-0.0294965644531278,0.788327367252944,0.483681000000161,
-0.126318079589844,0.834235626464844,-0.0247081611328142,0.844106528182919,0.486692000000176,
-0.155048499511719,0.630728485351562,-0.0582269843750023,0.652111065037328,0.489628000000039,
-0.00900219824218745,0.599603863769531,-0.043861774414065,0.601273388963201,0.492631999999958,
0.00296881005859378,0.745650165039062,0.00162805712890446,0.745657852520819,0.495632000000114,
-0.0568862314453125,0.671429913574219,-0.103716815917972,0.681770745980271,0.498640000000023,
-0.0640688364257812,0.633122687011719,-0.122870429199221,0.648109786210248,0.50173400000017,
-0.080828248046875,0.736073358398437,-0.00316034619140915,0.740504680886172,0.504765000000134,
-0.061674634765625,0.678612518554687,-0.113293622558595,0.690763458663716,0.507772000000159,
-0.0281558115234375,0.681006720214844,-0.0797747993164091,0.686241153900213,0.510717999999997,
0.0173340200195313,0.685795123535156,-0.000766144531251456,0.686014581982104,0.513658000000078,
-0.0975876596679687,0.709737140136719,-0.0390733710937532,0.717479538201299,0.516685000000052,
-0.080828248046875,0.654670501953125,-0.0797747993164091,0.664447658146115,0.519639999999981,
-0.0209732065429687,0.731284955078125,-0.0199197578125023,0.731856787676126,0.522652000000107,
0.014939818359375,0.726496551757812,-0.0630153876953141,0.729377389953235,0.525606000000153,
-0.10955866796875,0.58763285546875,-0.0582269843750023,0.600587925505375,0.528547000000117,
-0.0784340463867187,0.642699493652344,-0.0462559760742209,0.649117981645981,0.53156899999999,
-0.00660799658203121,0.822264618164063,-0.113293622558595,0.830059162238312,0.534521000000041,
-0.0113963999023437,0.755226971679688,0.0135990654296858,0.755435365377983,0.53755799999999,
-0.0353384165039062,0.5684792421875,0.00641646044921629,0.569612695999461,0.540535999999975,
-0.0592804331054687,0.716919745117187,-0.082169000976565,0.724044083885472,0.543456999999989,
-0.0568862314453125,0.757621173339844,-0.0869574042968768,0.764713982991642,0.546465000000126,
-0.0161848032226562,0.709737140136719,-0.0366791694335955,0.710868565499378,0.54939800000011,
-0.0185790048828124,0.585238653808594,-0.0223139594726582,0.58595850887369,0.552410000000009,
-0.0497036264648437,0.719313946777344,-0.0103429511718769,0.721103308237523,0.555337000000009,
-0.107164466308594,0.74086176171875,-0.0701979926757836,0.751856456374436,0.558345000000145,
-0.03294421484375,0.673824115234375,-0.0175255561523464,0.674856580824036,0.561284000000114,
-0.0185790048828124,0.640305291992187,-0.0366791694335955,0.641624039329867,0.564217999999983,
-0.042521021484375,0.74086176171875,-0.101322614257814,0.748966260525214,0.567227000000003,
-0.0353384165039062,0.745650165039062,-0.0917458076171904,0.752103892769553,0.570190000000139,
-0.0209732065429687,0.661853106933594,-0.0390733710937532,0.663337123097279,0.573176000000103,
-0.0904050546875,0.62594008203125,-0.101322614257814,0.640500064298494,0.576126000000158,
-0.0832224497070312,0.736073358398437,-0.144418244140628,0.754709609266939,0.579038999999966,
0.0556412465820313,0.762409576660156,-0.0271023627929718,0.764917543904755,0.582071000000042,
-0.00900219824218745,0.611574872070312,-0.0103429511718769,0.611728567552599,0.585010000000011,
-0.169413709472656,0.616363275390625,-0.0103429511718769,0.63930561459015,0.588011000000051,
-0.0832224497070312,0.776774786621094,-0.0630153876953141,0.783757605610227,0.590956000000006,
0.0795832631835938,0.757621173339844,-0.0462559760742209,0.763192605699485,0.593925000000127,
0.0388818349609376,0.585238653808594,0.00641646044921629,0.586563935105391,0.596956000000091,
-0.174202112792969,0.635516888671875,-0.0534385810546905,0.661123115488978,0.599889999999959,
-0.102376062988281,0.755226971679688,-0.0486501777343769,0.763685456728776,0.602898000000096,
0.0316992299804688,0.7217081484375,-0.0582269843750023,0.72474676571327,0.605858000000126,
0.0388818349609376,0.652276300292969,-0.0366791694335955,0.65446278006022,0.608797000000095,
-0.0904050546875,0.690583526855469,-0.00316034619140915,0.696483071772199,0.611810000000105,
-0.131106482910156,0.709737140136719,-0.0893516059570327,0.727254719776792,0.614745999999968,
-0.0113963999023437,0.676218316894531,-0.0797747993164091,0.681003016616212,0.617756999999983,
0.0340934316406251,0.678612518554687,-0.0749863959960955,0.683593645380538,0.620715000000018,
-0.0784340463867187,0.671429913574219,-0.0271023627929718,0.676538665963623,0.623636000000033,
-0.121529676269531,0.685795123535156,-0.103716815917972,0.704160203066702,0.626635000000078,
-0.00421379492187496,0.709737140136719,-0.0342849677734396,0.710577246449897,0.629573000000164,
0.0101514150390625,0.712131341796875,-0.161177655761721,0.730213897370871,0.632602000000134,
-0.0473094248046875,0.657064703613281,-0.106111017578128,0.667256887908417,0.635631999999987,
-0.138289087890625,0.654670501953125,-0.0582269843750023,0.671645531263764,0.638636000000133,
-0.0377326181640625,0.673824115234375,-0.0989284125976582,0.682092016933196,0.641730000000052,
0.0604296499023438,0.661853106933594,-0.101322614257814,0.672285318823049,0.644737999999961,
-0.0449152231445312,0.673824115234375,-0.0654095893554718,0.678479719609336,0.647746000000097,
-0.123923877929687,0.673824115234375,-0.0917458076171904,0.691240449487623,0.650681000000077,
-0.0784340463867187,0.731284955078125,-0.13005303417969,0.746889132907658,0.653675000000021,
0.0269108266601563,0.728890753417969,-0.082169000976565,0.73400113605582,0.656664999999975,
-0.00421379492187496,0.62594008203125,-0.0199197578125023,0.626271138655008,0.659587999999985,
-0.0784340463867187,0.676218316894531,-0.0630153876953141,0.683662234456941,0.662598000000116,
-0.0951934580078125,0.681006720214844,-0.120476227539065,0.698102047574213,0.665543000000071,
-0.0544920297851562,0.673824115234375,-0.0725921943359396,0.679910248679928,0.66852300000005,
0.00775721337890628,0.637911090332031,-0.0749863959960955,0.642350132803357,0.67150700000002,
-0.0712514414062499,0.685795123535156,-0.101322614257814,0.69689166412514,0.674425000000156,
-0.0951934580078125,0.700160333496094,-0.0151313544921905,0.706763924473805,0.677470000000085,
-0.0544920297851562,0.704948736816406,-0.0366791694335955,0.708002446549086,0.680414000000155,
-0.00660799658203121,0.669035711914063,-0.000766144531251456,0.669068783020571,0.68342100000018,
-0.0904050546875,0.640305291992187,-0.0701979926757836,0.650454993863495,0.686369000000013,
-0.0856166513671875,0.731284955078125,-0.0630153876953141,0.738971471439417,0.689300000000003,
-0.00900219824218745,0.728890753417969,-0.0294965644531278,0.729542882431145,0.692312000000129,
-0.0185790048828124,0.652276300292969,-0.0342849677734396,0.653440900435184,0.695255000000088,
-0.052097828125,0.671429913574219,-0.0582269843750023,0.675960571518067,0.698272000000088,
-0.0401268198242187,0.709737140136719,-0.082169000976565,0.715603741242414,0.701221000000032,
-0.0904050546875,0.681006720214844,-0.0223139594726582,0.68734353832576,0.704149000000143,
-0.0185790048828124,0.640305291992187,-0.0318907661132837,0.641368121548716,0.707168000000138,
-0.0449152231445312,0.669035711914063,-0.0558327827148464,0.672862140941339,0.710119000000077,
-0.0544920297851562,0.678612518554687,-0.00794874951172098,0.680843237660508,0.713126999999986,
-0.0209732065429687,0.669035711914063,-0.0701979926757836,0.673035227447093,0.716070000000173,
-0.0377326181640625,0.697766131835937,-0.0414675727539091,0.700014917555978,0.718993000000182,
-0.0233674082031249,0.762409576660156,-0.0941400092773463,0.768554968558521,0.722001000000091,
-0.03294421484375,0.700160333496094,-0.0534385810546905,0.702969057525416,0.724941000000172,
-0.0473094248046875,0.66424730859375,-0.043861774414065,0.667372852237894,0.727943000000096,
-0.0401268198242187,0.692977728515625,-0.0701979926757836,0.697679046599215,0.730887000000166,
-0.0185790048828124,0.728890753417969,-0.0725921943359396,0.732732240671281,0.733812000000171,
-0.0736456430664062,0.690583526855469,-0.0989284125976582,0.701509885265985,0.736806000000115,
-0.061674634765625,0.673824115234375,0.0255700737304672,0.677123716550708,0.739766000000145,
-0.0233674082031249,0.70255453515625,-0.0462559760742209,0.704463289290027,0.74277300000017,
-0.0305500131835937,0.719313946777344,-0.0271023627929718,0.720472341872246,0.745714000000135,
-0.03294421484375,0.652276300292969,-0.0582269843750023,0.655698158396805,0.748710000000074,
-0.0544920297851562,0.690583526855469,-0.0534385810546905,0.694788220121342,0.751649000000043,
-0.0281558115234375,0.683400921875,-0.0175255561523464,0.68420517015044,0.754564000000073,
-0.0161848032226562,0.66424730859375,-0.113293622558595,0.674034034557489,0.757573000000093,
-0.0209732065429687,0.649882098632813,-0.0534385810546905,0.652412675736164,0.760513000000174,
-0.0209732065429687,0.669035711914063,-0.0175255561523464,0.669593760669482,0.763506000000007,
-0.0137906015624999,0.726496551757812,-0.0654095893554718,0.729565510963271,0.766444000000092,
-0.0401268198242187,0.688189325195312,-0.0247081611328142,0.689800842423775,0.769365000000107,
-0.0233674082031249,0.700160333496094,-0.0678037910156277,0.70382375808407,0.772402000000056,
-0.0353384165039062,0.697766131835937,-0.0606211860351582,0.701285467277485,0.775426000000152,
-0.0760398447265624,0.671429913574219,-0.0893516059570327,0.681603914539393,0.778524000000061,
-0.052097828125,0.683400921875,-0.0414675727539091,0.686637140930377,0.781556000000137,
-0.0353384165039062,0.673824115234375,-0.0151313544921905,0.674919772892423,0.78449599999999,
-0.00181959326171871,0.66424730859375,-0.0558327827148464,0.666592152308563,0.787503000000015,
-0.0449152231445312,0.688189325195312,-0.0390733710937532,0.690759475441005,0.790443999999979,
-0.061674634765625,0.724102350097656,-0.0606211860351582,0.729248175991364,0.79347000000007,
-0.0233674082031249,0.637911090332031,-0.0630153876953141,0.641441761987106,0.796424000000115,
-0.03294421484375,0.714525543457031,-0.0654095893554718,0.718269091583293,0.799351999999999,
-0.0568862314453125,0.709737140136719,-0.0845632026367209,0.717017284769117,0.802368999999999,
-0.0401268198242187,0.685795123535156,-0.0654095893554718,0.690075015859477,0.805329000000029,
-0.0305500131835937,0.681006720214844,-0.0725921943359396,0.685545828491286,0.808353000000125,
-0.0257616098632812,0.719313946777344,-0.101322614257814,0.726871712705334,0.811309000000165,
-0.0137906015624999,0.736073358398437,-0.0342849677734396,0.737000426492845,0.814255000000003,
-0.0257616098632812,0.70255453515625,-0.106111017578128,0.710989510093382,0.817298000000164,
-0.0449152231445312,0.6450936953125,-0.0558327827148464,0.64906128572558,0.820247999999992,
-0.0353384165039062,0.678612518554687,-0.0462559760742209,0.681104521599085,0.823262999999997,
-0.0473094248046875,0.690583526855469,-0.0701979926757836,0.695752504426105,0.826214000000164,
-0.0377326181640625,0.692977728515625,-0.0558327827148464,0.696246495372058,0.829137000000173,
-0.042521021484375,0.700160333496094,-0.0869574042968768,0.706819722440939,0.832133000000113,
-0.0497036264648437,0.685795123535156,-0.0342849677734396,0.688448154158018,0.835074999999961,
-0.0377326181640625,0.695371930175781,-0.0342849677734396,0.697238360078626,0.838083000000097,
-0.061674634765625,0.661853106933594,0.0088106621093722,0.664778853076668,0.841028000000051,
-0.0712514414062499,0.66424730859375,-0.0917458076171904,0.674328219854278,0.844025000000101,
-0.0137906015624999,0.66424730859375,-0.0127371528320328,0.664512530151059,0.846976000000041,
-0.00421379492187496,0.681006720214844,-0.0606211860351582,0.683712539918445,0.84989500000006,
-0.03294421484375,0.676218316894531,-0.0630153876953141,0.67994666885112,0.852906999999959,
-0.0281558115234375,0.690583526855469,-0.0462559760742209,0.692703379960904,0.855844000000161,
-0.080828248046875,0.716919745117187,-0.0271023627929718,0.721970681323128,0.858844999999974,
0.000574608398437537,0.671429913574219,-0.0654095893554718,0.67460868167905,0.861810000000105,
-0.0401268198242187,0.690583526855469,-0.0630153876953141,0.694612631845789,0.864722000000029,
-0.0353384165039062,0.681006720214844,-0.00316034619140915,0.681930307617158,0.867734000000155,
-0.0233674082031249,0.659458905273438,-0.0175255561523464,0.660105467807245,0.870689999999968,
-0.0209732065429687,0.695371930175781,-0.0725921943359396,0.699465240985992,0.873692000000119,
0.00775721337890628,0.661853106933594,-0.0869574042968768,0.6675861739724,0.876648000000159,
-0.0497036264648437,0.697766131835937,-0.0534385810546905,0.701572310717992,0.879568000000063,
-0.0544920297851562,0.678612518554687,-0.0989284125976582,0.687947063710817,0.882569000000103,
-0.0568862314453125,0.692977728515625,-0.0725921943359396,0.699087835844132,0.885512000000062,
-0.0473094248046875,0.659458905273438,-0.125264630859377,0.672915638965336,0.888519999999971,
-0.0473094248046875,0.683400921875,-0.082169000976565,0.689946915651079,0.891460000000052,
-0.0544920297851562,0.685795123535156,-0.0654095893554718,0.691059148810258,0.894383000000062,
-0.0401268198242187,0.681006720214844,-0.0486501777343769,0.683920429904364,0.897390999999971,
-0.0497036264648437,0.688189325195312,-0.0725921943359396,0.693790043511035,0.900329000000056,
-0.0544920297851562,0.681006720214844,-0.0462559760742209,0.684747507925705,0.903345000000172,
-0.0497036264648437,0.7217081484375,-0.082169000976565,0.728069259566923,0.906286000000136,
-0.0592804331054687,0.659458905273438,-0.103716815917972,0.670192058590502,0.909220000000005,
-0.0281558115234375,0.704948736816406,-0.0678037910156277,0.708761472808505,0.912304000000177,
-0.0497036264648437,0.716919745117187,-0.0247081611328142,0.719065271480423,0.915333000000146,
-0.0544920297851562,0.673824115234375,-0.0893516059570327,0.681903240253773,0.918426000000181,
-0.0209732065429687,0.661853106933594,-0.0390733710937532,0.663337123097279,0.921422000000121,
-0.0305500131835937,0.697766131835937,-0.082169000976565,0.703251464814892,0.924337000000151,
-0.0712514414062499,0.704948736816406,-0.0390733710937532,0.709616951439398,0.927347000000054,
-0.0233674082031249,0.673824115234375,-0.120476227539065,0.684908384705257,0.930303999999978,
-0.052097828125,0.704948736816406,0.0255700737304672,0.707333537947248,0.933356000000003,
-0.0377326181640625,0.690583526855469,-0.0558327827148464,0.693863572803282,0.936296999999968,
0.0293050283203126,0.630728485351562,-0.0510443793945328,0.633468811849884,0.939329000000043,
-0.0449152231445312,0.676218316894531,0.0375410820312485,0.678747318384296,0.942312000000129,
-0.0305500131835937,0.678612518554687,-0.0917458076171904,0.685467392995454,0.945244000000002,
-0.0377326181640625,0.692977728515625,-0.0917458076171904,0.700042267229287,0.948281000000179,
-0.0377326181640625,0.7217081484375,-0.103716815917972,0.730098335773176,0.951228000000128,
-0.0664630380859375,0.661853106933594,-0.0582269843750023,0.6677254318196,0.954259000000093,
-0.0473094248046875,0.678612518554687,0.00162805712890446,0.680261554539503,0.957235000000082,
-0.00660799658203121,0.685795123535156,-0.0845632026367209,0.691020659838479,0.960152000000107,
-0.042521021484375,0.683400921875,-0.0294965644531278,0.685357501310237,0.963175000000092,
-0.0544920297851562,0.678612518554687,-0.0318907661132837,0.681543360772104,0.966125000000147,
-0.0664630380859375,0.666641510253906,0.00162805712890446,0.669948422787334,0.969149000000016,
-0.042521021484375,0.671429913574219,-0.0845632026367209,0.678068655337007,0.972087000000101,
-0.0592804331054687,0.673824115234375,-0.0773805976562532,0.680838354467637,0.975008000000116,
-0.0377326181640625,0.695371930175781,-0.0845632026367209,0.701510375539867,0.97801800000002,
-0.0185790048828124,0.671429913574219,-0.0462559760742209,0.673277746243924,0.980960999999979,
-0.052097828125,0.669035711914063,-0.0654095893554718,0.674241338017293,0.983975999999984,
-0.0233674082031249,0.683400921875,-0.0175255561523464,0.684024854010569,0.986921000000166,
-0.03294421484375,0.654670501953125,-0.0366791694335955,0.65652429421124,0.989837999999963,
-0.0401268198242187,0.709737140136719,-0.0606211860351582,0.713450697634365,0.992854000000079,
-0.0664630380859375,0.700160333496094,-0.0582269843750023,0.705713971621918,0.99579400000016,
-0.0209732065429687,0.695371930175781,-0.0414675727539091,0.696922919883674,0.998805000000175,
-0.0257616098632812,0.688189325195312,-0.082169000976565,0.693556019782839,1.00173800000016,
-0.0281558115234375,0.676218316894531,-0.0654095893554718,0.679957628243016,1.00465700000018,
-0.0449152231445312,0.66424730859375,-0.0247081611328142,0.666222453442338,1.0076610000001,
-0.0568862314453125,0.70255453515625,-0.0342849677734396,0.705687166676488,1.01060800000005,
