X,Y,Z,Magnitude,Seconds,
0.00814028564453129,-0.0348595761718749,-0.0362003291015611,0.0509108841832338,0.0,
0.0177170922851563,-0.0252827695312499,0.0978749638671896,0.102628564962269,0.00402900000017326,
0.00814028564453129,0.0154186586914062,-0.00268150585937299,0.0176405714162124,0.00797800000009374,
0.0105344873046875,-0.0588015927734374,-0.0362003291015611,0.0698503154074992,0.0119869999998627,
-0.00861912597656256,0.0106302553710937,-0.0266235224609357,0.0299349897291192,0.0159709999998086,
-0.00861912597656256,-0.0228885678710937,-0.0625365473632797,0.0671490553016887,0.0198110000001179,
0.0392649072265625,-0.0564073911132812,0.00689530078125244,0.069072946111927,0.0237139999999272,
-0.0014365209960937,-0.0204943662109374,0.0547793339843761,0.0585051969549035,0.0275259999998525,
0.00574608398437504,-0.0133117612304687,0.0667503422851574,0.0683068712751373,0.031329999999798,
0.00574608398437504,-0.0372537778320312,0.0667503422851574,0.0766581348527311,0.0352349999998296,
-0.00622492431640631,-0.0133117612304687,-0.0266235224609357,0.0304099427495341,0.0391660000000229,
0.000957680664062543,-0.0181001645507812,-0.000287304199217076,0.0181277591754349,0.0430390000001353,
0.0536301171875,0.0106302553710937,0.0116837041015643,0.0559079666982494,0.0470159999999851,
0.0105344873046875,-0.0204943662109374,-0.0170467158203103,0.0286633038817763,0.0508409999997639,
0.0105344873046875,-0.0181001645507812,-0.0074699091796866,0.0222349032534605,0.0547649999998612,
-0.0349553442382813,-0.0611957944335937,0.0212605107421897,0.0736125713733338,0.0586520000001656,
0.0177170922851563,-0.00852335791015624,0.00689530078125244,0.0208347825035278,0.0625930000001063,
-0.0253785375976563,-0.0157059628906249,-0.0146525141601543,0.0332482121644287,0.0664170000000013,
-0.0253785375976563,-0.0228885678710937,-0.0194409174804662,0.0393180109144348,0.0703600000001643,
-0.0110133276367188,0.00105344873046875,0.0404141240234388,0.0419011283910509,0.0743320000001404,
-0.032561142578125,-0.0228885678710937,0.0571735356445338,0.0696629580428467,0.0781940000001669,
0.0177170922851563,-0.0252827695312499,-0.000287304199217076,0.0308738779215363,0.082206000000042,
-0.0134075292968751,-0.0109175595703124,-0.0553539423828102,0.0579914983953455,0.0861479999998664,
0.00335188232421879,-0.0324653745117187,-0.00986411083984251,0.0340959871533626,0.0901880000001256,
0.000957680664062543,-0.0588015927734374,-0.0122583124999984,0.0600733775502519,0.0940399999999499,
0.0464475122070312,-0.0181001645507812,0.0571735356445338,0.07585381022127,0.0979059999999663,
-0.0301669409179688,-0.0157059628906249,0.00450109912109475,0.0343071637995306,0.101784999999836,
0.0320823022460938,0.00584185205078125,-0.0122583124999984,0.0348377321038633,0.105682999999772,
0.0536301171875,-0.0324653745117187,0.00450109912109475,0.0628526046001998,0.109572999999727,
0.015322890625,-0.0635899960937499,0.0380199223632829,0.0756570755238326,0.113605000000007,
-0.0014365209960937,-0.0372537778320312,-0.108026378906247,0.114278633588815,0.117585999999847,
-0.0134075292968751,-0.00612915624999988,0.035625720703127,0.0385554195127052,0.121623,
0.03447650390625,-0.0372537778320312,-0.0290177241210916,0.0584679535944588,0.125508999999965,
0.015322890625,-0.00852335791015624,-0.0577481440429679,0.0603513607765202,0.129414999999881,
0.0225054956054688,-0.00612915624999988,-0.000287304199217076,0.0233269464887193,0.133299000000079,
0.0177170922851563,-0.0157059628906249,-0.038594530761717,0.0452781452146568,0.137303999999858,
0.015322890625,-0.0444363828125001,-0.0074699091796866,0.0475939348837384,0.141332000000148,
0.0201112939453125,-0.0133117612304687,0.00210689746093884,0.0242096292438089,0.145218999999997,
0.0368707055664063,-0.00373495458984374,0.0212605107421897,0.0427247952806281,0.149238999999852,
-0.00861912597656256,-0.0252827695312499,-0.0290177241210916,0.0394402850007189,0.153142000000116,
0.00814028564453129,-0.0492247861328126,-0.000287304199217076,0.0498941516001483,0.157040999999936,
0.0201112939453125,-0.0540131894531251,0.0212605107421897,0.061432060815772,0.160922000000028,
-0.00861912597656256,-0.0133117612304687,0.0140779057617202,0.0212056537341517,0.164882000000034,
0.0296881005859375,-0.0588015927734374,-0.0362003291015611,0.0751629859449134,0.168745999999828,
-0.0110133276367188,0.00823605371093761,0.0475967290039083,0.0495436633509741,0.172637000000122,
0.0201112939453125,-0.0204943662109374,0.0308373173828134,0.0421357726155714,0.17650599999979,
0.0177170922851563,-0.0683783994140624,0.0380199223632829,0.0802185474935807,0.180434999999761,
-0.051714755859375,0.0297838686523437,0.00689530078125244,0.0600752859199086,0.184577999999874,
0.0871489404296875,-0.0540131894531251,0.0164721074218761,0.103844560646354,0.188572999999906,
-0.0612915625,0.080062103515625,0.00689530078125244,0.101065034635635,0.192586000000119,
0.07278373046875,-0.0204943662109374,-0.0457771357421866,0.0883913832004808,0.196477999999843,
0.0225054956054688,-0.0396479794921876,0.035625720703127,0.0578588937491714,0.200319000000036,
0.00335188232421879,0.0321780703125001,0.0260489140625015,0.0415356382879474,0.204175999999734,
0.0464475122070312,-0.0516189877929687,0.0332315190429711,0.07698197937762,0.208130999999867,
-0.032561142578125,0.0728794985351564,-0.00268150585937299,0.0798676391688317,0.212007000000085,
0.125456166992188,-0.109079827636719,0.0380199223632829,0.170537893531432,0.216062999999849,
-0.0780509741210937,0.0273896669921876,-0.0146525141601543,0.0840050271734263,0.220002999999906,
0.0512359155273437,-0.0588015927734374,-0.0122583124999984,0.0789494305107129,0.223880000000008,
-0.00622492431640631,0.0154186586914062,-0.0122583124999984,0.0206579511068906,0.227792000000136,
-0.0588973608398438,0.0154186586914062,0.0188663090820338,0.0637383069128736,0.231645999999728,
0.0368707055664063,-0.116262432617187,-0.040988732421873,0.128671979671499,0.235462000000098,
-0.0565031591796875,0.0680910952148439,0.0116837041015643,0.0892497237327654,0.239469999999983,
0.0320823022460938,-0.0540131894531251,-0.00268150585937299,0.0628799588579918,0.243384999999762,
-0.0110133276367188,-0.0588015927734374,0.0452025273437524,0.0749812588357222,0.247254999999768,
0.024899697265625,-0.00373495458984374,0.00450109912109475,0.025577425652436,0.251299000000017,
0.0392649072265625,-0.0228885678710937,-0.0673249506835916,0.0812297264752767,0.255180000000109,
-0.0445321508789063,0.0369664736328126,0.0595677373046897,0.0830538858955294,0.259220999999798,
0.0488417138671875,-0.0564073911132812,-0.0122583124999984,0.0756146348998559,0.263223999999809,
-0.0205901342773438,0.0537258852539062,-0.0266235224609357,0.063397447299579,0.267174000000068,
0.0799663354492187,-0.0683783994140624,-0.0553539423828102,0.118887674924382,0.271037999999862,
-0.0469263525390625,0.0202070620117187,-0.0577481440429679,0.0771054865633646,0.275067000000035,
0.00814028564453129,-0.0707726010742187,-0.000287304199217076,0.0712397912468021,0.279038000000128,
0.0320823022460938,-0.0468305844726562,0.00450109912109475,0.0569441625872066,0.282956999999897,
-0.0277727392578125,-0.00612915624999988,0.035625720703127,0.0455860019944343,0.28697000000011,
0.0225054956054688,-0.0492247861328126,0.035625720703127,0.0647979079746107,0.291091999999935,
-0.051714755859375,-0.0372537778320312,0.0188663090820338,0.0664695235031208,0.295015000000149,
-0.00861912597656256,0.00105344873046875,0.0739329472656269,0.0744411161805729,0.298894000000018,
0.0392649072265625,-0.133021844238281,-0.0936611689453102,0.167358771960917,0.302753999999823,
-0.0301669409179688,0.228502606445313,0.188854626953127,0.297975763441013,0.306645000000117,
-0.293529123535156,-0.880012762207031,0.363631348144533,0.996398296548111,0.310501999999815,
0.795832631835938,1.24843251367188,0.20561403857422,1.49472755107638,0.314250999999786,
-1.13628810791016,0.673824115234375,-0.0649307490234357,1.32265097611508,0.317277999999988,
-0.135511813964844,-1.25829662451172,0.035625720703127,1.2660738678913,0.320286000000124,
1.65774522949219,-0.5041231015625,-0.0625365473632797,1.73383106650827,0.323398999999881,
-1.37570827392578,0.750438568359375,0.279834290039064,1.59186636678799,0.326493999999911,
-0.4060566015625,0.965916717773438,-0.122391588867186,1.05492026730561,0.329607000000124,
1.50212212158203,-0.978175030273438,-0.124785790527342,1.79687750041957,0.332605000000058,
-0.702937607421875,-0.640592596191406,-0.158304613769529,0.964126809586766,0.335578000000169,
0.063206923828125,0.776774786621094,0.265469080078127,0.823315259683426,0.338799999999992,
1.60746699462891,0.0202070620117187,-0.000287304199217076,1.60759402422382,0.34179099999983,
-1.36852566894531,-0.319769573730469,-0.115208983886717,1.41010219374845,0.344834999999875,
-0.334230551757813,0.113580926757813,-0.117603185546873,0.372076870958499,0.347850999999991,
1.38480624023438,-0.559189739746094,0.196037231933596,1.50625764208304,0.350871000000097,
-0.544920297851563,0.527777813964844,-0.0505655390624984,0.760292329084561,0.35394499999984,
-0.6742071875,0.460740167480469,-0.13915100048828,0.828371797288802,0.356901000000107,
0.611479104003906,-1.01408805517578,-0.0050757075195289,1.18419045811493,0.359945000000153,
0.355299526367188,-0.0252827695312499,0.0906923588867201,0.36756234278331,0.362943000000087,
-0.817859287109375,0.922821087890625,0.00689530078125244,1.23310182829301,0.365924000000177,
0.0847547387695312,-0.343711590332031,0.00450109912109475,0.354035708602626,0.36906799999997,
0.817380446777344,-0.793821502441406,0.0284431157226575,1.13976856569405,0.372093999999834,
-0.623928952636719,0.463134369140625,-0.0362003291015611,0.777876112015724,0.375238000000081,
-0.178607443847656,0.652276300292969,0.00210689746093884,0.676290935869015,0.378240999999889,
0.649786330566406,-0.846493938964844,0.0619619389648456,1.06893102956901,0.381291000000147,
-0.226491477050781,-0.212030499023438,0.00689530078125244,0.31032703212198,0.384297000000061,
-0.21452046875,0.831841424804688,-0.0242293208007798,0.859398770955765,0.387271999999939,
0.209253225097656,-0.475392681640625,0.0308373173828134,0.520323028622224,0.390394000000015,
0.0943315454101562,-0.250337725585937,0.0428083256835947,0.270924288425459,0.393399999999929,
-0.27198130859375,0.343424286132813,0.00928950244140836,0.438178465223714,0.396428000000014,
0.0895431420898437,-0.240760918945313,0.00928950244140836,0.257041026379686,0.399449999999888,
0.156580788574219,-0.0755610043945312,-0.000287304199217076,0.173859400894336,0.402427999999873,
-0.317471140136719,0.202166388183594,0.00689530078125244,0.376439528349205,0.40549800000008,
0.127850368652344,-0.202453692382813,0.0523851323242202,0.245106948927607,0.408531999999923,
0.14939818359375,-0.154569659179687,0.0667503422851574,0.225093769338963,0.41161800000009,
-0.257616098632813,0.259627228027344,0.0116837041015643,0.365935596450368,0.414597999999842,
0.0296881005859375,-0.0899262143554688,-0.000287304199217076,0.0947005273924562,0.417543999999907,
0.209253225097656,-0.221607305664063,0.0739329472656269,0.313628427966659,0.420615999999882,
-0.1762132421875,0.190195379882813,0.00928950244140836,0.25944495390469,0.423616999999922,
-0.04213794921875,0.0633026918945312,0.0116837041015643,0.0769372894439933,0.426673999999821,
0.175734401855469,-0.240760918945313,0.0452025273437524,0.301482451504484,0.429689999999937,
-0.0469263525390625,0.0393606752929687,0.0595677373046897,0.0854380515329055,0.432702000000063,
-0.106781394042969,0.0824563051757814,-0.0170467158203103,0.135984921580518,0.435767999999825,
0.0775721337890625,-0.137810247558594,0.0691445439453133,0.1725979960201,0.438767000000098,
0.044053310546875,-0.0181001645507812,0.035625720703127,0.0594769039419671,0.44185299999981,
-0.0493205541992188,0.0154186586914062,-0.0218351191406239,0.0560983469475295,0.444801999999981,
0.0368707055664063,-0.0683783994140624,0.0691445439453133,0.104000107657632,0.447822999999971,
-0.0134075292968751,-0.0204943662109374,-0.0457771357421866,0.0519165392239616,0.45089199999984,
-0.0397437475585938,0.00344765039062511,0.0499909306640642,0.0639573679248645,0.453962999999931,
0.0871489404296875,-0.0420421811523437,0.0954807622070337,0.135937701781735,0.457066999999824,
-0.0134075292968751,-0.0157059628906249,0.0739329472656269,0.0767627501041372,0.460087999999814,
-0.032561142578125,-0.0540131894531251,0.0475967290039083,0.0790132979489127,0.463081999999758,
0.0129286889648438,-0.0779552060546874,0.0308373173828134,0.084823966499727,0.466159999999945,
-0.00861912597656256,-0.0133117612304687,-0.0266235224609357,0.0309887764825398,0.469172999999955,
-0.0110133276367188,0.0513316835937501,-0.0146525141601543,0.0545062500766298,0.472303000000011,
-0.00383072265624995,-0.0516189877929687,-0.0122583124999984,0.0531926739522218,0.475269999999909,
0.015322890625,-0.092320416015625,-0.0242293208007798,0.0966690755974778,0.478309000000081,
-0.0134075292968751,0.0226012636718751,-0.0338061274414052,0.0428186082678631,0.481349000000137,
-0.0158017309570313,0.0154186586914062,-0.0314119257812475,0.0383945154724875,0.484372999999778,
0.00335188232421879,-0.0635899960937499,-0.038594530761717,0.07446113431204,0.487423000000035,
0.0129286889648438,0.0130244570312501,0.00928950244140836,0.0205689653341505,0.490416000000096,
-0.0014365209960937,-0.0204943662109374,0.0619619389648456,0.0652791277457311,0.493461999999909,
0.0105344873046875,-0.0300711728515624,0.00210689746093884,0.0319325833022021,0.496450000000095,
0.03447650390625,-0.0204943662109374,0.0140779057617202,0.0425068911898007,0.499488999999812,
0.00814028564453129,0.00823605371093761,0.00928950244140836,0.0148455948588443,0.502660999999989,
-0.0229843359375,-0.0516189877929687,0.0332315190429711,0.0655525244148679,0.505627999999888,
0.0225054956054688,-0.10189722265625,0.0452025273437524,0.113722512264581,0.508737999999994,
0.0225054956054688,-0.0133117612304687,-0.0146525141601543,0.0299732629307906,0.511717999999746,
0.0201112939453125,0.1087925234375,-0.0625365473632797,0.127086966507874,0.514742999999726,
-0.0684741674804688,-0.147387054199219,-0.0194409174804662,0.163675302444043,0.517777999999907,
0.139821376953125,-0.156963860839844,0.0236547124023456,0.211535378794317,0.520811999999751,
-0.0445321508789063,0.113580926757813,0.0164721074218761,0.123105928809229,0.523905999999897,
-0.0828393774414062,0.113580926757813,0.0260489140625015,0.142973897274569,0.526875000000018,
0.0967257470703125,-0.188088482421875,0.00928950244140836,0.211706027835022,0.52986299999975,
-0.101992990722656,-0.0228885678710937,0.0643561406250015,0.122752472610072,0.532945999999811,
-0.00861912597656256,0.156676556640625,0.0691445439453133,0.171472448780462,0.535914999999932,
0.0296881005859375,-0.0516189877929687,-0.0074699091796866,0.0600141879918754,0.53900399999975,
-0.164242233886719,-0.0516189877929687,0.0571735356445338,0.181407950407271,0.541990000000169,
0.024899697265625,-0.00373495458984374,-0.000287304199217076,0.0251798997895317,0.544958999999835,
0.0225054956054688,-0.0109175595703124,0.0308373173828134,0.0397068077637508,0.548017999999956,
-0.109175595703125,0.111186725097656,-0.0697191523437475,0.17071191738893,0.550988999999845,
0.0799663354492187,-0.173723272460937,0.0452025273437524,0.196513762057462,0.554066000000148,
0.142215578613281,-0.0516189877929687,0.00928950244140836,0.151578644791046,0.557040000000143,
-0.1762132421875,0.139917145019531,-0.0266235224609357,0.226576093489307,0.560003999999935,
-0.00622492431640631,-0.0133117612304687,0.0404141240234388,0.043002954437851,0.563096999999743,
0.237983645019531,-0.192876885742188,0.0284431157226575,0.307647069191955,0.566115000000082,
-0.125935007324219,0.0393606752929687,-0.0218351191406239,0.133737284469047,0.56919199999993,
-0.0588973608398438,0.132734540039062,-0.0146525141601543,0.145952229871605,0.572184000000107,
0.144609780273437,-0.128233440917969,0.00450109912109475,0.193328900616778,0.575217000000066,
-0.0253785375976563,-0.0252827695312499,-0.0146525141601543,0.0387038083007276,0.578207999999904,
-0.070868369140625,0.0656968935546876,0.0188663090820338,0.0984598658630341,0.581194999999752,
0.0967257470703125,-0.0540131894531251,0.0116837041015643,0.111399298573834,0.584311000000071,
0.0129286889648438,-0.0755610043945312,-0.00986411083984251,0.0772911189343299,0.587331000000177,
-0.0349553442382813,0.0489374819335937,-0.0266235224609357,0.0657690290109676,0.590459999999894,
-0.0205901342773438,-0.0492247861328126,-0.0314119257812475,0.0619172211962616,0.593488999999863,
0.00814028564453129,-0.0516189877929687,-0.000287304199217076,0.0522576950778362,0.596500999999989,
-0.0469263525390625,-0.0252827695312499,0.0284431157226575,0.060417810534669,0.599624999999833,
0.03447650390625,-0.0492247861328126,-0.0266235224609357,0.0657306689426386,0.602700999999797,
0.0416591088867188,-0.0683783994140624,-0.0146525141601543,0.0813989129588231,0.605776999999762,
0.0177170922851563,0.0441490786132812,-0.122391588867186,0.131311604692338,0.6087950000001,
0.015322890625,-0.0324653745117187,0.00928950244140836,0.037082157096113,0.61182000000008,
0.0560243188476562,-0.0348595761718749,0.0380199223632829,0.0761539811811349,0.614958999999999,
-0.0205901342773438,-0.0133117612304687,-0.0481713374023425,0.0540521448579645,0.61792800000012,
-0.0301669409179688,0.00105344873046875,-0.0529597407226543,0.0609580857309899,0.620985999999903,
-0.0205901342773438,-0.0564073911132812,0.0643561406250015,0.0880196582469546,0.623943999999938,
-0.0301669409179688,-0.0396479794921876,0.00450109912109475,0.0500226598199163,0.626925000000028,
0.000957680664062543,0.0202070620117187,-0.0362003291015611,0.0414693421030657,0.630032000000028,
0.0512359155273437,-0.0372537778320312,0.0284431157226575,0.0694404337162141,0.633127000000059,
0.0368707055664063,0.0393606752929687,-0.0194409174804662,0.0573294074709083,0.636200999999801,
0.00814028564453129,-0.0133117612304687,0.0332315190429711,0.0367124106445616,0.639276999999765,
0.0225054956054688,-0.0779552060546874,-0.0266235224609357,0.0853951019186961,0.6422349999998,
-0.0181959326171875,0.00344765039062511,0.0188663090820338,0.0264370171427118,0.645347000000129,
-0.0373495458984375,-0.0492247861328126,-0.00268150585937299,0.0618486751864135,0.648329000000103,
0.00574608398437504,-0.0324653745117187,0.00450109912109475,0.0332757857403783,0.651430999999775,
-0.0373495458984375,-0.0181001645507812,-0.038594530761717,0.0566757650173509,0.654434999999921,
0.015322890625,0.0178128603515626,0.035625720703127,0.0426764683007766,0.657452999999805,
0.0296881005859375,-0.0468305844726562,-0.0194409174804662,0.0587574355374163,0.660507000000052,
0.0225054956054688,-0.0252827695312499,0.0332315190429711,0.0474346879985672,0.66352999999981,
0.00335188232421879,-0.00373495458984374,0.00450109912109475,0.00674128283055422,0.666611999999986,
0.0201112939453125,-0.0324653745117187,-0.000287304199217076,0.0381909312539483,0.669621000000006,
0.0296881005859375,-0.0276769711914062,-0.0242293208007798,0.0472700543388494,0.672705999999835,
-0.0277727392578125,-0.0252827695312499,0.0284431157226575,0.0471121461309631,0.675721999999951,
0.0105344873046875,-0.0300711728515624,0.0116837041015643,0.0339375868466524,0.678704999999809,
-0.0110133276367188,-0.0348595761718749,-0.0050757075195289,0.0369086201765964,0.681770000000142,
-0.00383072265624995,-0.0444363828125001,0.0188663090820338,0.0484273081216269,0.684766999999738,
-0.00622492431640631,-0.00134075292968738,0.0404141240234388,0.0409126963392215,0.687804000000142,
-0.0014365209960937,-0.0564073911132812,-0.0170467158203103,0.0589444474487403,0.690763999999945,
-0.0134075292968751,-0.0348595761718749,-0.0074699091796866,0.0380887310878437,0.693745999999919,
-0.00622492431640631,-0.0396479794921876,-0.00268150585937299,0.0402231579345999,0.696861999999783,
0.0177170922851563,-0.0396479794921876,0.0236547124023456,0.0494510167306129,0.699870999999803,
0.015322890625,-0.0276769711914062,0.0332315190429711,0.0458817999792836,0.702985999999783,
-0.0181959326171875,0.0154186586914062,-0.0266235224609357,0.0357440757032442,0.705969999999979,
0.000957680664062543,0.00823605371093761,0.0475967290039083,0.0483135420441853,0.70895900000005,
0.0416591088867188,-0.0348595761718749,-0.0338061274414052,0.0639806662727325,0.712075999999797,
-0.0110133276367188,-0.00134075292968738,0.0188663090820338,0.021886722514598,0.715111999999863,
-0.00622492431640631,-0.0204943662109374,0.0236547124023456,0.0319110348934453,0.718238999999812,
-0.032561142578125,0.00823605371093761,-0.0290177241210916,0.0443856835014424,0.72127300000011,
0.00814028564453129,-0.00373495458984374,-0.076901757324217,0.0774215371567597,0.724259999999958,
0.0105344873046875,-0.0324653745117187,0.0308373173828134,0.0459990881249524,0.72738500000014,
0.000957680664062543,-0.0181001645507812,0.0212605107421897,0.0279381893836813,0.730408999999781,
0.00574608398437504,-0.0228885678710937,-0.0242293208007798,0.0338225369659382,0.733576000000085,
-0.0301669409179688,-0.0540131894531251,0.0212605107421897,0.0654177214236797,0.736579999999776,
-0.0014365209960937,-0.00852335791015624,-0.000287304199217076,0.00864833893529438,0.739536000000044,
0.0536301171875,-0.00852335791015624,0.0475967290039083,0.072210011158295,0.742643999999927,
-0.00383072265624995,-0.0372537778320312,-0.038594530761717,0.0537778411945345,0.745669999999791,
-0.0469263525390625,-0.0324653745117187,0.0284431157226575,0.063758089187326,0.748759000000064,
-0.0541089575195313,-0.0468305844726562,0.0475967290039083,0.0859437696274286,0.751717000000099,
-0.0110133276367188,-0.0348595761718749,-0.0362003291015611,0.0514484913634772,0.754637999999886,
0.015322890625,-0.0348595761718749,0.0164721074218761,0.0414886894334623,0.75774599999977,
0.0201112939453125,-0.0276769711914062,-0.0314119257812475,0.0464455375657479,0.760710999999901,
0.0177170922851563,-0.00373495458984374,0.00689530078125244,0.0193749946501381,0.763864999999896,
-0.00383072265624995,-0.00612915624999988,0.00689530078125244,0.00998930254171731,0.766905999999835,
0.0296881005859375,-0.0468305844726562,-0.000287304199217076,0.0554488007278266,0.769979000000149,
-0.0134075292968751,-0.0109175595703124,-0.040988732421873,0.0444863027725364,0.772977999999966,
0.0105344873046875,-0.0204943662109374,-0.0170467158203103,0.0286633038817763,0.775982999999997,
0.0368707055664063,-0.0181001645507812,0.00928950244140836,0.0421112780777182,0.779113999999936,
-0.0181959326171875,-0.00612915624999988,-0.0050757075195289,0.0198600434785512,0.782067999999981,
-0.0014365209960937,-0.0204943662109374,0.0236547124023456,0.0313309440936259,0.785164999999779,
0.00335188232421879,0.00584185205078125,0.0619619389648456,0.062326914176637,0.788215000000037,
0.00335188232421879,-0.0181001645507812,0.0452025273437524,0.0488069621073003,0.791171999999733,
0.0368707055664063,0.00344765039062511,0.0116837041015643,0.0388309691317833,0.794278999999733,
0.015322890625,-0.0252827695312499,0.0499909306640642,0.0580784173418602,0.797305999999935,
-0.0229843359375,-0.0611957944335937,0.0308373173828134,0.0722782477527982,0.800342000000001,
-0.0158017309570313,-0.0252827695312499,0.0404141240234388,0.0502216542637794,0.80337499999996,
0.024899697265625,-0.0204943662109374,-0.000287304199217076,0.0322505273446912,0.80637200000001,
0.0296881005859375,-0.0396479794921876,-0.0122583124999984,0.0510255996492083,0.809448999999859,
-0.0014365209960937,-0.0276769711914062,-0.0146525141601543,0.0313492344103595,0.812417000000096,
0.0296881005859375,-0.0228885678710937,0.00928950244140836,0.0386207808206843,0.81550900000002,
0.0105344873046875,-0.0181001645507812,0.00689530078125244,0.0220485045389006,0.818521000000146,
-0.00861912597656256,-0.0276769711914062,0.0404141240234388,0.0497353545027245,0.821453999999903,
0.0129286889648438,-0.0588015927734374,-0.0242293208007798,0.0648986771630204,0.824538999999731,
0.0129286889648438,0.0249954653320312,0.0116837041015643,0.0304702022810378,0.827596000000085,
0.00574608398437504,-0.0396479794921876,0.0236547124023456,0.0465244578453753,0.830699000000095,
0.0272938989257813,-0.0157059628906249,0.0212605107421897,0.0379953089987595,0.833705999999893,
0.00814028564453129,-0.0133117612304687,-0.0314119257812475,0.035073869457449,0.836710000000039,
-0.00383072265624995,-0.0133117612304687,-0.0146525141601543,0.0201636701604554,0.839715999999953,
-0.00861912597656256,-0.0181001645507812,0.0212605107421897,0.0292218173011874,0.842741999999816,
0.0105344873046875,-0.0181001645507812,-0.0170467158203103,0.0270033683046467,0.845844999999827,
-0.0397437475585938,0.0130244570312501,0.0452025273437524,0.0615830368626198,0.848923999999897,
-0.0253785375976563,-0.00852335791015624,0.00210689746093884,0.0268543631012018,0.851924999999937,
-0.0181959326171875,-0.0276769711914062,0.0428083256835947,0.054126328583896,0.855027999999947,
0.00574608398437504,-0.0611957944335937,-0.0170467158203103,0.0637850551287099,0.858063000000129,
0.00814028564453129,-0.0204943662109374,-0.0146525141601543,0.0264760168449882,0.86115800000016,
0.0129286889648438,-0.0372537778320312,-0.0362003291015611,0.0535299802743224,0.864204999999856,
-0.0014365209960937,-0.0444363828125001,-0.0649307490234357,0.0786934424127936,0.867323999999826,
0.0105344873046875,-0.0348595761718749,-0.040988732421873,0.0548292044371179,0.870323999999982,
-0.0181959326171875,-0.0755610043945312,-0.0050757075195289,0.0778865852104417,0.873278999999911,
0.0129286889648438,-0.0204943662109374,-0.0481713374023425,0.0539226092828231,0.876409999999851,
0.0320823022460938,-0.0133117612304687,0.0523851323242202,0.0628544285877517,0.879468000000088,
0.0392649072265625,-0.0228885678710937,0.00928950244140836,0.0463887306822374,0.882521999999881,
0.0272938989257813,-0.0468305844726562,0.0212605107421897,0.0582243065878858,0.885499999999865,
0.03447650390625,-0.0300711728515624,0.0428083256835947,0.0626534716204851,0.888503000000128,
0.0105344873046875,-0.0204943662109374,-0.0553539423828102,0.0599587642174195,0.891556999999921,
0.0296881005859375,-0.0133117612304687,-0.0433829340820289,0.0542279012411823,0.89457399999992,
0.00814028564453129,-0.0133117612304687,-0.0218351191406239,0.026837281257922,0.897754999999961,
-0.0158017309570313,-0.0109175595703124,-0.0553539423828102,0.0585913538461879,0.900737999999819,
0.00814028564453129,-0.00852335791015624,0.035625720703127,0.0375247099396704,0.903778999999759,
0.0320823022460938,-0.0372537778320312,-0.0290177241210916,0.0570889340707622,0.906836999999996,
-0.00861912597656256,0.00105344873046875,0.0332315190429711,0.0343472407149531,0.909886999999799,
-0.0445321508789063,0.00584185205078125,0.0428083256835947,0.0620466956825068,0.912962999999763,
0.0177170922851563,-0.0635899960937499,0.00689530078125244,0.066371139323563,0.916005999999925,
0.000957680664062543,-0.0444363828125001,0.0452025273437524,0.0633938305198231,0.919029000000137,
-0.0110133276367188,0.00823605371093761,0.0164721074218761,0.021458245251674,0.922130999999808,
0.0105344873046875,-0.0276769711914062,-0.0146525141601543,0.0330406768743632,0.925106000000142,
0.024899697265625,0.00344765039062511,-0.0697191523437475,0.0741123567339915,0.928249000000051,
-0.0397437475585938,-0.0109175595703124,-0.0074699091796866,0.0418874458534453,0.931185999999798,
-0.0134075292968751,-0.0420421811523437,0.0499909306640642,0.0666813316195195,0.934190999999828,
0.0201112939453125,-0.0396479794921876,0.0978749638671896,0.107498534752672,0.93732,
-0.0110133276367188,-0.0252827695312499,0.0787213505859388,0.0834120066829608,0.940306999999848,
0.015322890625,-0.0252827695312499,0.0236547124023456,0.0378623141278197,0.943392000000131,
-0.0014365209960937,-0.0252827695312499,0.0308373173828134,0.0399026586972708,0.946379999999863,
-0.00622492431640631,0.00344765039062511,-0.0649307490234357,0.0653195081480667,0.949364999999943,
-0.0205901342773438,-0.0276769711914062,-0.00986411083984251,0.0358785318338094,0.952412999999979,
-0.0134075292968751,-0.0181001645507812,0.00689530078125244,0.0235568030826736,0.955367000000024,
-0.032561142578125,0.00105344873046875,0.0595677373046897,0.067894426043831,0.958501999999953,
-0.00861912597656256,-0.0372537778320312,-0.0218351191406239,0.0440330072019097,0.961535999999796,
0.03447650390625,-0.0157059628906249,-0.0050757075195289,0.03822393750967,0.964583999999832,
-0.0229843359375,-0.0157059628906249,-0.0840843623046865,0.0885727777197674,0.967587000000094,
-0.0181959326171875,-0.00373495458984374,0.0116837041015643,0.0219442655637033,0.970557000000099,
0.00814028564453129,-0.0300711728515624,-0.00268150585937299,0.0312686769901919,0.973641000000043,
0.0225054956054688,-0.0635899960937499,-0.0146525141601543,0.0690281182335462,0.976663999999801,
0.00335188232421879,-0.0276769711914062,-0.0194409174804662,0.033988220340695,0.979755999999725,
-0.00383072265624995,-0.0420421811523437,0.00689530078125244,0.0427757478599677,0.982801999999992,
0.00335188232421879,-0.0851378110351562,0.0284431157226575,0.0898259028064057,0.985842999999932,
-0.00622492431640631,-0.0109175595703124,-0.0314119257812475,0.0338327041633226,0.988961999999901,
0.0225054956054688,-0.0204943662109374,0.0332315190429711,0.0450649557498854,0.991989999999987,
-0.00861912597656256,-0.0300711728515624,0.00689530078125244,0.0320329508808092,0.995077999999921,
0.00574608398437504,0.00823605371093761,-0.0338061274414052,0.035266192230938,0.998207999999977,
-0.0014365209960937,-0.0252827695312499,-0.0290177241210916,0.0385137681993115,1.0011599999998,
-0.0277727392578125,-0.0420421811523437,0.0428083256835947,0.0661167360791626,1.00423499999988,
-0.0134075292968751,-0.0324653745117187,-0.0146525141601543,0.0380586199860983,1.00725199999988,
0.0320823022460938,0.0106302553710937,-0.000287304199217076,0.0337988016114073,1.01038000000017,
0.0392649072265625,-0.0157059628906249,0.0164721074218761,0.0453843644083518,1.01339999999982,
0.00335188232421879,-0.0228885678710937,-0.0362003291015611,0.042960277947965,1.01637100000016,
0.312203896484375,0.601998065429688,0.100269165527346,0.685512107345059,1.59647700000005,
-0.537737692871094,-0.391595623535156,-0.0481713374023425,0.666955348170584,1.60006399999975,
0.364876333007813,-0.0659841977539062,0.124211182128908,0.391046123249311,1.60311700000011,
0.233195241699219,-0.0875320126953125,0.0140779057617202,0.249479581185085,1.60607500000015,
-0.0588973608398438,-0.192876885742188,0.0236547124023456,0.203051563860861,1.60898399999996,
0.324174904785156,-0.0492247861328126,0.0811155522460947,0.337775341430477,1.61201200000005,
0.135032973632812,-0.0204943662109374,0.0188663090820338,0.137876251156197,1.61496200000011,
