X,Y,Z,Magnitude,Seconds,
0.0198239897460938,0.00699106884765632,0.127227876220704,0.128952697144018,0.0,
-0.00890643017578124,-0.0408929643554687,-0.0283952316894514,0.0505751738993681,0.00375299999996059,
-0.0017238251953125,0.0141736738281251,0.00991199487304861,0.0173813763969777,0.00753799999984039,
-0.0304542451171875,-0.0241335527343749,-0.00924161840820226,0.0399411682859104,0.0114009999997506,
-0.0280600434570312,-0.0193451494140624,-0.0427604416503886,0.0546814064815378,0.0151120000000446,
-0.0328484467773437,0.0357214887695313,-0.0212126267089836,0.0529624465776499,0.018872999999985,
-0.0113006318359375,0.0285388837890626,-0.00684741674804457,0.0314493129326925,0.0226060000004509,
-0.0615788666992187,-0.00258573779296867,-0.033183635009765,0.0699985463874461,0.0263119999999617,
-0.00890643017578124,0.0165678754882813,-0.0834618698730463,0.0855552612021994,0.0300219999999172,
-0.0136948334960937,-0.0241335527343749,0.0242772048339859,0.0368694928988709,0.0337970000000496,
0.0150355864257813,-0.00976834277343741,-0.00924161840820226,0.0201716853661098,0.0375220000005356,
-0.0304542451171875,0.0572693037109375,-0.00924161840820226,0.0655182547386311,0.0413319999997839,
-0.0328484467773437,-0.00258573779296867,-0.01642422338867,0.0368165942142793,0.0452980000000025,
-0.0113006318359375,-0.0145567460937499,0.0147003981933604,0.0235733927081501,0.0490429999999833,
-0.00411802685546875,-0.00258573779296867,0.0410366164550791,0.0413236987114853,0.0527970000002824,
0.000670376464843747,-0.00737414111328116,-0.01642422338867,0.0180161726147408,0.0566730000000462,
-0.0520020600585938,-0.00258573779296867,0.0123061965332045,0.0535008669405033,0.060500000000502,
0.000670376464843747,-0.0408929643554687,-0.0355778366699209,0.0542076230847085,0.0643170000003011,
0.00785298144531249,-0.0241335527343749,0.00272938989257909,0.0255254236859839,0.0681009999998423,
-0.00411802685546875,0.0165678754882813,0.00991199487304861,0.0197408278889437,0.0718729999998686,
0.02221819140625,0.00459686718750008,-0.00684741674804457,0.0236995006999236,0.0756860000001325,
0.000670376464843747,0.00220266552734383,0.000335188232423178,0.00232669103688484,0.079490000000078,
-0.006512228515625,-0.0193451494140624,-0.0283952316894514,0.0349704605172672,0.0833080000002155,
-0.0136948334960937,0.00220266552734383,0.00272938989257909,0.0141368231614034,0.0870560000003024,
-0.0376368500976562,-0.00976834277343741,-0.00684741674804457,0.0394821494087418,0.090769000000364,
0.0294007963867188,0.0189620771484376,0.0601902297363299,0.0696191852413454,0.0945209999999861,
-0.0496078583984375,0.00938527050781257,-0.033183635009765,0.0604166909872226,0.0982420000000275,
-0.063973068359375,0.00699106884765632,0.0338540114746113,0.0727153533434931,0.101977000000261,
-0.0424252534179688,-0.00258573779296867,0.0147003981933604,0.0449743246147867,0.105749999999716,
-0.0208774384765625,0.0141736738281251,0.0386424147949231,0.0461518871587243,0.1094920000005,
0.0198239897460938,-0.0121625444335937,0.0123061965332045,0.0263127446243494,0.113409000000502,
0.00545877978515624,0.0285388837890626,0.0290656081542977,0.0410983666591219,0.117315000000417,
-0.01608903515625,0.0117794721679688,0.00272938989257909,0.0201261666991187,0.121041000000332,
-0.0017238251953125,0.0261446821289063,0.0314598098144554,0.0409418564611725,0.12483500000053,
-0.006512228515625,-0.0265277543945311,-0.00684741674804457,0.0281605750931633,0.128525000000081,
0.0389776030273438,0.0309330854492188,0.0242772048339859,0.0553668852990411,0.13245999999981,
0.012641384765625,0.00220266552734383,-0.0403662399902327,0.0423566957536466,0.136258999999882,
-0.0136948334960937,-0.00019153613281242,-0.0499430466308581,0.0517869969910206,0.139995999999883,
-0.00890643017578124,-0.0169509477539062,-0.0355778366699209,0.0404034848786994,0.143718000000263,
0.000670376464843747,0.00220266552734383,0.0865264479980485,0.0865570756390774,0.147508000000016,
-0.0232716401367187,-0.00976834277343741,-0.033183635009765,0.0416910468524551,0.151221000000078,
-0.0304542451171875,0.0189620771484376,0.0170945998535164,0.0397397377896845,0.155050000000301,
-0.0304542451171875,-0.00258573779296867,0.0338540114746113,0.045609661021705,0.158793000000514,
-0.0376368500976562,0.0213562788085938,-0.0643082565917954,0.0775124183321617,0.162522000000536,
0.0102471831054687,0.033327287109375,-0.0451546433105463,0.0570495805433343,0.16625699999986,
-0.0304542451171875,0.04290409375,0.0386424147949231,0.0652798477889572,0.170012999999926,
0.0174297880859375,-0.0456813676757812,-0.0643082565917954,0.0807845079908691,0.173725000000559,
-0.025665841796875,-0.0337103593749999,-0.0499430466308581,0.0654937529166403,0.177496000000247,
-0.00411802685546875,0.0907881269531251,0.057796028076174,0.107702474447995,0.181241000000227,
-0.0520020600585938,0.0309330854492188,-0.033183635009765,0.0690088665187856,0.184970999999678,
-0.0472136567382813,-0.0408929643554687,-0.033183635009765,0.0707284776369405,0.188678999999865,
-0.0017238251953125,-0.0504697709960937,-0.0595198532714836,0.0780562764366907,0.192415999999866,
-0.00411802685546875,0.0405098920898438,-0.01642422338867,0.0439063163591992,0.196226000000024,
-0.0496078583984375,0.0596635053710938,0.00991199487304861,0.078223533098482,0.199958000000152,
-0.006512228515625,-0.0193451494140624,-0.0188184250488259,0.0277628717428582,0.203749999999673,
0.0270065947265625,-0.0504697709960937,-0.0571256516113259,0.0808696111969232,0.207486999999674,
0.0198239897460938,0.0309330854492188,-0.033183635009765,0.0495075749489227,0.211240999999973,
-0.0472136567382813,0.0189620771484376,0.0075177932128927,0.0514315755851925,0.214971000000332,
0.00785298144531249,-0.0408929643554687,-0.0307894333496073,0.0517869969910205,0.21867199999997,
-0.0017238251953125,-0.0576523759765625,0.0673728347167977,0.0886897225546672,0.222402000000329,
0.00306457812499999,0.0213562788085938,0.0482192214355486,0.0528258989463037,0.226204999999936,
-0.00890643017578124,0.0189620771484376,0.0266714064941418,0.0339153179645292,0.229930000000422,
-0.0017238251953125,-0.0720175859375,0.0242772048339859,0.0760189906018259,0.233632000000398,
0.0294007963867188,0.0213562788085938,-0.00684741674804457,0.0369781636759465,0.237379000000146,
-0.00890643017578124,0.0261446821289063,-0.0355778366699209,0.0450405524412078,0.241095000000314,
-0.00411802685546875,-0.00497993945312492,0.0170945998535164,0.0182752096100426,0.245022000000063,
0.00785298144531249,-0.0193451494140624,0.00512359155273501,0.02149779788332,0.248899000000165,
-0.01608903515625,0.0189620771484376,0.00991199487304861,0.0267706007479415,0.252790000000459,
0.0150355864257813,0.00459686718750008,0.00991199487304861,0.0185862231093355,0.256602000000385,
0.00545877978515624,-0.0241335527343749,-0.0499430466308581,0.0557362947377896,0.260347000000365,
-0.025665841796875,-0.0217393510742186,-0.0188184250488259,0.0385417687916451,0.264154000000417,
0.000670376464843747,0.00699106884765632,0.0314598098144554,0.0322342067034229,0.267974999999751,
-0.025665841796875,-0.0121625444335937,-0.05473144995117,0.0616619374979312,0.271727000000283,
0.000670376464843747,-0.00737414111328116,0.00272938989257909,0.00789157341402289,0.27556900000036,
-0.00411802685546875,0.0285388837890626,0.0242772048339859,0.0376936162719801,0.279381999999714,
-0.01608903515625,-0.0145567460937499,0.0530076247558604,0.0572762096454982,0.283132999999907,
0.012641384765625,-0.127084224121094,-0.0212126267089836,0.129461114475149,0.286863000000267,
0.089255837890625,0.00938527050781257,0.019488801513674,0.0918395409641279,0.29064500000004,
-0.0711556733398437,0.275141654785156,0.0601902297363299,0.290497717378421,0.294382000000041,
0.0533428129882813,-0.230034895507812,0.02188300317383,0.237150531681248,0.298209999999926,
-0.0807324799804687,-0.0887769975585937,-0.128951701416014,0.17614661483378,0.301763999999821,
-0.0352426484375,0.282324259765625,0.0601902297363299,0.290812475105195,0.304713000000447,
-0.00411802685546875,0.117124345214844,0.057796028076174,0.13067307009698,0.307647999999972,
0.101226846191406,-0.335379768554687,-0.01642422338867,0.35070816736936,0.310672000000523,
0.139534072753906,-0.210881282226562,-0.0595198532714836,0.259775452239565,0.313611000000492,
-0.178894748046875,0.282324259765625,-0.0116358200683582,0.334433417647857,0.316641000000345,
-0.0615788666992187,0.165008378417969,0.0841322463378926,0.195186978679285,0.319628000000193,
0.050948611328125,-0.134266829101562,0.00991199487304861,0.143949956705849,0.322670000000471,
0.070102224609375,-0.160603047363281,-0.0427604416503886,0.180377703965019,0.325788000000102,
0.070102224609375,0.0357214887695313,-0.0355778366699209,0.0863488802313416,0.328867000000173,
-0.123828109863281,0.155431571777344,-0.0499430466308581,0.204906520648467,0.331930000000284,
-0.073549875,-0.00258573779296867,-0.00924161840820226,0.074173294811896,0.334853000000294,
0.0724964262695313,-0.0839885942382812,-0.00445321508788865,0.111038943207306,0.337792000000263,
0.0461602080078125,-0.00737414111328116,0.02188300317383,0.0516140348005167,0.340834000000541,
-0.0136948334960937,0.0476924970703125,0.0386424147949231,0.062891644615723,0.343812000000071,
-0.0807324799804687,0.0500866987304688,0.0075177932128927,0.0953043961646332,0.346843000000263,
-0.00890643017578124,-0.0672291826171875,-0.0307894333496073,0.0744786996384947,0.34975200000008,
0.0724964262695313,-0.0983538041992187,0.0075177932128927,0.122416174736444,0.352708999999777,
-0.0208774384765625,0.0285388837890626,0.0123061965332045,0.0374403231607598,0.355733999999757,
0.00545877978515624,0.0500866987304688,0.019488801513674,0.0540211907578772,0.358713999999964,
-0.159741134765625,-0.00737414111328116,-0.0260010300292954,0.162011301013085,0.361740000000282,
0.0916500395507813,0.0117794721679688,-0.00924161840820226,0.0928649192376677,0.364730999999665,
0.0653138212890625,-0.0241335527343749,0.0458250197753927,0.0833561998676618,0.367761000000428,
-0.0998860932617188,-0.00737414111328116,0.019488801513674,0.10203638061342,0.370692999999847,
-0.09270348828125,-0.0145567460937499,-0.00445321508788865,0.0939450196709158,0.37361299999975,
-0.0304542451171875,0.0692403120117189,-0.01642422338867,0.0774043730486776,0.376635999999962,
0.089255837890625,-0.00976834277343741,0.0410366164550791,0.0987219783441264,0.379595000000336,
0.0174297880859375,0.0261446821289063,0.0673728347167977,0.074340034800363,0.382620000000315,
-0.0879150849609375,0.0836055219726564,-0.0212126267089836,0.123162173575753,0.385565000000497,
-0.0759440766601562,-0.043287166015625,-0.0283952316894514,0.0919106669768291,0.388455999999678,
0.0557370146484375,-0.127084224121094,-0.033183635009765,0.142682053723802,0.391483000000335,
0.000670376464843747,0.0213562788085938,-0.05473144995117,0.0587543331415857,0.394467000000077,
-0.0208774384765625,0.0692403120117189,0.0290656081542977,0.0779416308669636,0.397517000000335,
-0.0496078583984375,0.0500866987304688,0.00272938989257909,0.070548327930447,0.400470999999925,
-0.01608903515625,-0.0648349809570312,-0.00684741674804457,0.0671514625609826,0.403387000000293,
0.0461602080078125,-0.0911711992187499,-0.0116358200683582,0.102851080106009,0.406407000000399,
-0.0113006318359375,-0.0217393510742186,-0.0762792648925767,0.0801176005480158,0.409338999999818,
-0.0280600434570312,0.0405098920898438,-0.0499430466308581,0.0701621358192105,0.412368999999671,
-0.0424252534179688,0.0405098920898438,0.000335188232423178,0.0586605986660622,0.415340999999898,
-0.0352426484375,-0.0839885942382812,-0.033183635009765,0.096939578416007,0.418255999999928,
0.0198239897460938,-0.0576523759765625,0.02188300317383,0.0647738593346267,0.421304999999847,
0.031794998046875,0.0357214887695313,0.0123061965332045,0.0493800479326053,0.424272000000201,
-0.0304542451171875,0.033327287109375,-0.00445321508788865,0.0453651874937981,0.427303000000393,
-0.0136948334960937,-0.00497993945312492,0.00272938989257909,0.0148255802796462,0.43023600000015,
0.0150355864257813,-0.0169509477539062,-0.0260010300292954,0.0344885060782156,0.433179000000564,
0.0174297880859375,-0.00019153613281242,0.0458250197753927,0.0490282228540459,0.436225000000377,
-0.00890643017578124,0.00938527050781257,-0.0355778366699209,0.03785749943,0.439183000000412,
-0.0376368500976562,0.0285388837890626,-0.0212126267089836,0.051778141190021,0.442211000000498,
-0.025665841796875,-0.0217393510742186,0.00991199487304861,0.0350654026446822,0.445154000000002,
0.012641384765625,-0.0217393510742186,-0.05473144995117,0.060232346855142,0.448075999999674,
-0.0280600434570312,0.0213562788085938,0.00991199487304861,0.0366292823533879,0.451119999999719,
-0.0232716401367187,0.0213562788085938,-0.0188184250488259,0.0367667376921262,0.454055000000153,
-0.0328484467773437,-0.00019153613281242,-0.0595198532714836,0.0679828660416218,0.457059999999728,
-0.0208774384765625,-0.00258573779296867,-0.00684741674804457,0.0221233043055968,0.4600360000004,
-0.025665841796875,0.0213562788085938,0.0075177932128927,0.0342248929068364,0.463160000000244,
0.02221819140625,0.033327287109375,0.0266714064941418,0.0481219286792542,0.466253999999935,
-0.0352426484375,0.00459686718750008,0.0147003981933604,0.0384613723607477,0.469285000000127,
-0.044819455078125,0.00220266552734383,-0.0188184250488259,0.0486597206141146,0.47233099999994,
0.012641384765625,-0.0384987626953125,0.000335188232423178,0.0405224837468499,0.4753010000004,
0.012641384765625,-0.0480755693359375,0.019488801513674,0.0533936172234706,0.478345999999874,
0.00545877978515624,0.0213562788085938,0.00512359155273501,0.0226305128464311,0.481365000000551,
-0.01608903515625,-0.00019153613281242,-0.00445321508788865,0.0166950550453786,0.484279000000242,
-0.0208774384765625,-0.00497993945312492,-0.0236068283691395,0.0319053221257748,0.487310999999863,
-0.0136948334960937,-0.0265277543945311,0.0362482131347672,0.0469595908539013,0.490259000000151,
0.00306457812499999,0.00459686718750008,-0.052337248291014,0.052628038018712,0.493339999999989,
0.00306457812499999,-0.0217393510742186,0.000335188232423178,0.0219568525832715,0.496329000000514,
0.012641384765625,-0.0193451494140624,-0.01642422338867,0.0283512703166174,0.499287999999979,
-0.0113006318359375,0.0117794721679688,-0.00924161840820226,0.018758138373788,0.502371999999923,
0.00306457812499999,-0.0552581743164062,-0.0188184250488259,0.0584550304865616,0.505355000000236,
-0.0113006318359375,-0.00019153613281242,0.0601902297363299,0.0612421809024936,0.508389999999963,
-0.006512228515625,-0.0169509477539062,-0.052337248291014,0.0553979359603824,0.511333999999806,
-0.01608903515625,0.0117794721679688,-0.00924161840820226,0.0219777279903502,0.5142850000002,
0.000670376464843747,0.0213562788085938,0.019488801513674,0.0289197758219941,0.517354000000523,
-0.0136948334960937,-0.0289219560546874,-0.0140300217285141,0.0349409432645654,0.52027999999973,
0.00785298144531249,-0.0289219560546874,-0.0451546433105463,0.0541949321626326,0.523320999999669,
-0.01608903515625,0.0189620771484376,-0.05473144995117,0.0601161295810015,0.526286000000255,
-0.0184832368164062,0.0357214887695313,-0.0260010300292954,0.0478926754912213,0.529228999999759,
-0.0113006318359375,-0.0576523759765625,0.0075177932128927,0.059228523115355,0.532277999999678,
-0.0113006318359375,-0.043287166015625,-0.0188184250488259,0.0485346900976401,0.535205000000133,
0.00306457812499999,-0.00258573779296867,-0.00684741674804457,0.00793503592554036,0.538225999999668,
-0.006512228515625,0.0117794721679688,-0.00924161840820226,0.0163270510380318,0.541186999999809,
-0.0232716401367187,0.0117794721679688,-0.00445321508788865,0.0264604671883905,0.544120999999905,
-0.0328484467773437,0.0309330854492188,0.0170945998535164,0.0482504049231143,0.547166000000288,
-0.0184832368164062,-0.0241335527343749,0.00991199487304861,0.031973521125418,0.550105000000258,
0.0150355864257813,-0.0289219560546874,-0.0188184250488259,0.0376388299833388,0.553136999999879,
0.00306457812499999,-0.0217393510742186,-0.00924161840820226,0.0238201287783081,0.556094999999914,
-0.0376368500976562,0.00938527050781257,-0.0619140549316395,0.0730613850529562,0.559124999999767,
-0.0328484467773437,0.00459686718750008,-0.0403662399902327,0.0522454301788449,0.562084000000141,
-0.00890643017578124,0.0357214887695313,-0.0403662399902327,0.0546331638232391,0.565034000000196,
-0.025665841796875,-0.00976834277343741,-0.0283952316894514,0.0395024700288375,0.568052000000534,
-0.0328484467773437,-0.0145567460937499,0.0314598098144554,0.047756035703182,0.571004999999786,
-0.0136948334960937,-0.00976834277343741,-0.0236068283691395,0.0289870890341736,0.574000999999953,
-0.006512228515625,-0.0121625444335937,0.00991199487304861,0.0169877676491704,0.576960999999756,
-0.0017238251953125,0.0117794721679688,-0.00684741674804457,0.0137337050347438,0.579902000000402,
0.0294007963867188,-0.00019153613281242,0.000335188232423178,0.0294033308557827,0.582962999999836,
-0.0113006318359375,0.00699106884765632,-0.0283952316894514,0.0313507337429556,0.585919000000104,
-0.0280600434570312,-0.00497993945312492,0.043430818115235,0.0519461432439974,0.588950999999724,
-0.0113006318359375,0.00699106884765632,0.0338540114746113,0.0363685773222873,0.591922000000523,
-0.00890643017578124,-0.00019153613281242,0.0386424147949231,0.039655988270993,0.594850000000406,
-0.0208774384765625,-0.00976834277343741,-0.00924161840820226,0.0248333539556146,0.597883000000365,
-0.0017238251953125,-0.00497993945312492,0.0266714064941418,0.02718704277108,0.600938000000497,
-0.00411802685546875,-0.00976834277343741,-0.01642422338867,0.0195482423670944,0.604057999999895,
0.0174297880859375,0.00938527050781257,-0.0690966599121072,0.0718764859062748,0.607138999999734,
0.00545877978515624,-0.00976834277343741,-0.00684741674804457,0.0131189143378406,0.610128999999688,
-0.01608903515625,-0.00019153613281242,0.0075177932128927,0.0177598128689757,0.613170000000537,
0.00785298144531249,0.0309330854492188,0.0170945998535164,0.0362042875519038,0.616152000000511,
-0.0208774384765625,0.0165678754882813,-0.0188184250488259,0.0326266004489607,0.619196999999986,
0.0174297880859375,-0.00019153613281242,-0.0116358200683582,0.020957731448658,0.622196000000258,
-0.0400310517578125,-0.00976834277343741,-0.0260010300292954,0.0487232920476476,0.62512500000048,
-0.0017238251953125,0.0261446821289063,0.00272938989257909,0.0263432258106569,0.628177000000505,
-0.01608903515625,0.0285388837890626,-0.0307894333496073,0.0449590274157991,0.631158000000141,
-0.0496078583984375,-0.00497993945312492,0.0242772048339859,0.0554537833370053,0.634184999999889,
0.00545877978515624,0.0141736738281251,-0.0355778366699209,0.0386842832251093,0.637193999999909,
-0.044819455078125,-0.00258573779296867,-0.0116358200683582,0.0463773856755344,0.640137999999752,
0.012641384765625,0.0309330854492188,-0.0427604416503886,0.0542689207036361,0.643221999999696,
0.000670376464843747,-0.0313161577148436,0.0314598098144554,0.0443944903359334,0.646198000000368,
-0.044819455078125,0.0381156904296875,-0.0116358200683582,0.0599748423849121,0.649237000000539,
-0.01608903515625,-0.0121625444335937,-0.0188184250488259,0.0275847360088232,0.652180000000044,
0.0102471831054687,0.0117794721679688,-0.0283952316894514,0.0324044735931719,0.655214999999771,
0.00785298144531249,-0.0241335527343749,0.0410366164550791,0.0482504049231148,0.658186000000569,
-0.0136948334960937,-0.0241335527343749,-0.0714908615722649,0.0766871574672926,0.66110099999969,
0.0413718046875,0.0381156904296875,-0.0427604416503886,0.0706603668980618,0.664136999999755,
-0.044819455078125,0.0476924970703125,-0.00924161840820226,0.0660966363826833,0.667083999999704,
-0.01608903515625,0.0141736738281251,-0.0283952316894514,0.0355814455122715,0.670087999999851,
0.000670376464843747,-0.0265277543945311,-0.00684741674804457,0.0274054424146479,0.673056999999972,
0.00306457812499999,0.00938527050781257,0.00272938989257909,0.0102432666066425,0.676024000000325,
-0.0184832368164062,-0.043287166015625,-0.0379720383300768,0.0604754866025603,0.679017999999814,
-0.0328484467773437,-0.0145567460937499,0.0075177932128927,0.0367074451210337,0.681953000000249,
-0.0208774384765625,-0.0456813676757812,0.0123061965332045,0.0517116743413556,0.684981999999764,
0.02221819140625,-0.00976834277343741,-0.0403662399902327,0.0471009753705079,0.687926999999945,
-0.00890643017578124,-0.00019153613281242,0.02188300317383,0.0236268282355481,0.6908540000004,
0.0102471831054687,0.00459686718750008,-0.05473144995117,0.0558718852670459,0.693903000000319,
0.0198239897460938,-0.00258573779296867,-0.0427604416503886,0.0472030929020918,0.696852000000035,
0.0174297880859375,-0.00976834277343741,0.0290656081542977,0.0352707755888531,0.699894999999742,
0.0294007963867188,-0.0145567460937499,-0.0595198532714836,0.0679626266301571,0.70283500000005,
-0.0376368500976562,-0.00497993945312492,-0.0307894333496073,0.0488806862494804,0.705748999999741,
-0.0113006318359375,-0.0289219560546874,-0.0451546433105463,0.0548007813304093,0.708748000000014,
-0.0280600434570312,0.00459686718750008,0.0649786330566418,0.0709275685517253,0.711709000000155,
-0.0232716401367187,-0.0193451494140624,0.0170945998535164,0.034756717115648,0.714723000000049,
0.000670376464843747,-0.0121625444335937,-0.0236068283691395,0.0265642473515394,0.717668000000231,
-0.0017238251953125,-0.00019153613281242,0.0266714064941418,0.0267277418382084,0.72058399999969,
-0.00890643017578124,0.0309330854492188,-0.00205901342773274,0.0322555392170139,0.723603999999796,
-0.006512228515625,-0.0241335527343749,-0.0738850632324208,0.0779989747155781,0.726529999999912,
-0.0520020600585938,0.00459686718750008,-0.033183635009765,0.0618587024656871,0.729554999999891,
-0.006512228515625,0.00699106884765632,0.0314598098144554,0.0328786221948867,0.732504000000517,
0.00306457812499999,0.0165678754882813,0.0170945998535164,0.0240023224174508,0.735456999999769,
0.0461602080078125,0.0476924970703125,-0.0212126267089836,0.0696800876292573,0.738554999999906,
0.000670376464843747,-0.0313161577148436,-0.0140300217285141,0.0343218975047732,0.741584999999759,
0.0365834013671875,-0.0145567460937499,0.00272938989257909,0.0394676282745284,0.744735000000219,
0.0198239897460938,0.00938527050781257,0.057796028076174,0.0618179159575923,0.747789000000012,
-0.0208774384765625,-0.0145567460937499,0.02188300317383,0.0335653410840171,0.75077599999986,
0.00306457812499999,-0.0169509477539062,-0.0667024582519513,0.0688908136524253,0.75373800000034,
-0.0400310517578125,0.0309330854492188,-0.0307894333496073,0.0592227159646976,0.756685000000289,
-0.0184832368164062,-0.0361045610351562,-0.00205901342773274,0.0406129155201675,0.759712000000036,
-0.00890643017578124,0.0213562788085938,0.0075177932128927,0.0243296600432122,0.762701000000561,
-0.0328484467773437,0.0141736738281251,0.00272938989257909,0.0358798418984222,0.765730000000076,
-0.0113006318359375,-0.00737414111328116,0.0075177932128927,0.015446664748152,0.768675999999687,
0.0102471831054687,-0.0361045610351562,0.0075177932128927,0.0382761192381117,0.771633000000293,
0.0270065947265625,0.0117794721679688,-0.00205901342773274,0.0295355998682324,0.774704999999813,
-0.006512228515625,0.0117794721679688,0.0601902297363299,0.0616768095843798,0.777691000000232,
-0.01608903515625,-0.0265277543945311,-0.0260010300292954,0.0404800243090334,0.780738999999812,
0.00545877978515624,-0.00497993945312492,-0.0283952316894514,0.0293408802934957,0.783715000000484,
-0.0400310517578125,-0.00258573779296867,0.0266714064941418,0.0481719323792019,0.786645000000135,
-0.0400310517578125,-0.00019153613281242,0.0458250197753927,0.0608477955914753,0.789663999999902,
0.000670376464843747,-0.0313161577148436,0.0290656081542977,0.0427312615775003,0.792610999999852,
-0.0113006318359375,0.0117794721679688,-0.0116358200683582,0.020046260327317,0.795638999999937,
-0.0232716401367187,-0.0313161577148436,-0.0188184250488259,0.0433174801897823,0.798563000000286,
-0.0400310517578125,-0.0265277543945311,-0.00924161840820226,0.0489041344760957,0.801464000000124,
0.0174297880859375,0.00699106884765632,-0.0858560715332022,0.0878859350264176,0.804521000000022,
-0.0232716401367187,-0.0241335527343749,-0.0307894333496073,0.0455190818034119,0.807442000000265,
0.07967903125,-0.00737414111328116,0.0482192214355486,0.0934249393574731,0.810492999999951,
-0.0759440766601562,0.0165678754882813,-0.033183635009765,0.0845171634073232,0.813438000000133,
-0.0136948334960937,0.0165678754882813,-0.0212126267089836,0.0301996439478284,0.816378000000441,
0.0270065947265625,-0.0313161577148436,-0.0451546433105463,0.061229075652409,0.819410000000062,
-0.0400310517578125,0.0189620771484376,-0.0738850632324208,0.0861455050683365,0.822374000000309,
-0.01608903515625,0.0261446821289063,-0.0116358200683582,0.0328297694866078,0.825410000000375,
-0.0520020600585938,0.0141736738281251,0.0338540114746113,0.0636490484850071,0.828398000000561,
-0.044819455078125,0.0165678754882813,0.00512359155273501,0.0480575617576934,0.831350000000384,
0.0174297880859375,0.00938527050781257,0.00512359155273501,0.0204482763485034,0.834418000000369,
-0.0280600434570312,0.00220266552734383,0.019488801513674,0.0342349406115333,0.83739500000047,
-0.006512228515625,-0.00019153613281242,0.0386424147949231,0.0391877790581807,0.840430000000197,
-0.0136948334960937,0.0165678754882813,-0.0427604416503886,0.0478591509830379,0.843391000000338,
0.000670376464843747,-0.0241335527343749,-0.00205901342773274,0.0242305036778655,0.846411000000444,
0.00545877978515624,-0.0121625444335937,0.0147003981933604,0.0198450868197981,0.849393999999847,
-0.0017238251953125,0.0405098920898438,0.0889206496582045,0.0977287310163798,0.852353000000221,
-0.0304542451171875,-0.0480755693359375,-0.0140300217285141,0.0586136752160692,0.855367000000115,
-0.0352426484375,-0.0265277543945311,-0.01642422338867,0.0470693226637767,0.858307000000423,
-0.0208774384765625,0.0261446821289063,0.00272938989257909,0.0335687564581996,0.861343000000488,
0.0294007963867188,-0.0193451494140624,0.019488801513674,0.0402300263294107,0.86432700000023,
-0.0017238251953125,0.0141736738281251,-0.0236068283691395,0.0275888917635356,0.86727400000018,
-0.006512228515625,-0.043287166015625,-0.0571256516113259,0.0719689372849327,0.870300999999927,
0.012641384765625,0.0141736738281251,-0.0403662399902327,0.0446108839805682,0.873271999999815,
-0.0184832368164062,0.0213562788085938,0.00272938989257909,0.0283755221440498,0.876349000000118,
-0.0232716401367187,0.0285388837890626,0.0314598098144554,0.0484330130813711,0.879413999999997,
-0.01608903515625,-0.0193451494140624,-0.00445321508788865,0.0255523576745952,0.882437000000209,
0.0150355864257813,0.00459686718750008,0.000335188232423178,0.0157261692175116,0.885605999999825,
0.0270065947265625,-0.00497993945312492,-0.0188184250488259,0.0332909759093942,0.888597000000118,
0.00306457812499999,0.0141736738281251,0.0482192214355486,0.0503525370236771,0.891663999999764,
-0.01608903515625,-0.0169509477539062,0.0170945998535164,0.0289554317212945,0.894589000000451,
-0.00411802685546875,0.00699106884765632,0.0242772048339859,0.0255971846765682,0.897551000000021,
-0.0184832368164062,0.00459686718750008,0.0601902297363299,0.0631318064596844,0.900611000000026,
0.012641384765625,-0.00497993945312492,0.00272938989257909,0.0138583539763956,0.903573000000506,
-0.0017238251953125,0.00938527050781257,-0.00684741674804457,0.0117448708775453,0.90661799999998,
-0.0472136567382813,-0.0145567460937499,0.00272938989257909,0.0494820958390393,0.90958000000046,
0.000670376464843747,-0.043287166015625,-0.0283952316894514,0.0517737127214817,0.912522999999965,
-0.006512228515625,0.052480900390625,0.00512359155273501,0.0531310193432206,0.915600999999697,
-0.0113006318359375,0.00220266552734383,-0.0260010300292954,0.0284360612234022,0.918574000000262,
-0.0304542451171875,-0.0145567460937499,0.0242772048339859,0.0415781502359947,0.921642000000247,
-0.0136948334960937,-0.0384987626953125,0.019488801513674,0.0452715868729505,0.924590000000535,
-0.0232716401367187,-0.00976834277343741,-0.0499430466308581,0.0559579990882838,0.927498000000014,
-0.0520020600585938,0.0285388837890626,0.043430818115235,0.0735181481025048,0.930540999999721,
-0.0184832368164062,0.0117794721679688,-0.00684741674804457,0.0229624285276777,0.933479000000261,
-0.025665841796875,0.0405098920898438,-0.0786734665527327,0.0921374035432785,0.936513999999988,
-0.0208774384765625,-0.00019153613281242,0.0266714064941418,0.0338713455269875,0.93944300000021,
0.0198239897460938,0.0213562788085938,-0.033183635009765,0.0441614633641699,0.94247600000017,
0.0174297880859375,0.0165678754882813,0.0530076247558604,0.0582073903656055,0.945456999999806,
0.0102471831054687,-0.00497993945312492,-0.0451546433105463,0.0465698010630973,0.948382999999922,
0.00785298144531249,-0.00497993945312492,0.0362482131347672,0.0374219463684176,0.951450000000477,
-0.0184832368164062,-0.0217393510742186,0.0170945998535164,0.0332634149252798,0.954386000000341,
0.0294007963867188,-0.0241335527343749,0.00991199487304861,0.0393075417460758,0.957422000000406,
-0.0400310517578125,-0.00737414111328116,0.02188300317383,0.046213946919746,0.960377000000335,
-0.025665841796875,0.0213562788085938,0.0410366164550791,0.0529039693196444,0.963342000000011,
-0.0280600434570312,-0.00019153613281242,0.0147003981933604,0.0316781380757141,0.966374000000542,
0.00785298144531249,0.0117794721679688,0.0242772048339859,0.0281035221402528,0.96936100000039,
0.000670376464843747,-0.00019153613281242,0.043430818115235,0.0434364139041589,0.972418000000289,
-0.0113006318359375,-0.0361045610351562,0.0338540114746113,0.0507674866460399,0.9753639999999,
-0.0424252534179688,0.0165678754882813,-0.0403662399902327,0.0608590992105792,0.978317000000061,
0.02221819140625,-0.00497993945312492,0.0147003981933604,0.0271025742940575,0.981372000000192,
0.0341891997070313,0.00459686718750008,0.0290656081542977,0.0451092245768641,0.984362000000147,
-0.025665841796875,0.0141736738281251,0.0601902297363299,0.0669514168680579,0.987403000000086,
-0.0136948334960937,-0.0265277543945311,-0.0260010300292954,0.0395894402623556,0.990342000000055,
-0.0136948334960937,-0.00737414111328116,0.0458250197753927,0.0483927562664026,0.993287000000237,
0.00306457812499999,0.0165678754882813,-0.0451546433105463,0.0481957254306031,0.996342000000368,
-0.0400310517578125,0.0117794721679688,0.0338540114746113,0.0537339293399964,0.99931000000015,
-0.0017238251953125,-0.0169509477539062,-0.00684741674804457,0.0183628243791921,1.00231799999983,
0.0198239897460938,-0.00258573779296867,-0.0403662399902327,0.0450456428562883,1.00526700000046,
-0.0328484467773437,0.0261446821289063,-0.00205901342773274,0.0420333724033787,1.00820399999975,
0.0246123930664063,0.00938527050781257,0.00272938989257909,0.0264821215944987,1.01125700000011,
0.000670376464843747,-0.00019153613281242,-0.0236068283691395,0.0236171216778167,1.0142249999999,
