X,Y,Z,Magnitude,Seconds,
0.0200634099121093,-0.0234631762695313,0.0110612116699187,0.0327934667512169,0.0,
-0.0182438166503907,0.0220266552734375,-0.0200634099121118,0.0349363822656174,0.00377299999945535,
-0.0757046564941407,0.00526724365234373,-0.0128808049316422,0.0769730732547169,0.00752699999975448,
0.0272460148925781,-0.0186747729492188,0.0134554133300764,0.0356670803418875,0.0112559999997757,
-0.0326090266113282,-0.021068974609375,0.0421858332519509,0.0573314471716021,0.0149609999998574,
-0.020638018310547,0.017238251953125,-0.00569819995117449,0.0274873536898235,0.0188579999994545,
0.00330399829101552,-0.04979939453125,-0.0416112248535185,0.0649799210079253,0.0227839999997741,
-0.0230322199707032,0.00047884033203123,0.0421858332519509,0.0480661728453998,0.0267129999992903,
-0.00866701000976572,0.00287304199218748,-0.0751300480957049,0.0756828617301248,0.0306759999994028,
0.0296402165527343,-0.00670376464843752,0.0254264216308577,0.039623046509636,0.0345319999996718,
0.00809240161132801,0.0220266552734375,0.0230322199707,0.0328807491269981,0.0384869999998045,
-0.00627280834960947,-0.01149216796875,0.0206380183105441,0.0244406597496722,0.0423999999993612,
0.0152750065917968,-0.040222587890625,0.0517626398925763,0.0673093848705144,0.046303999999509,
-0.00148440502929698,0.0411802685546875,-0.0487938298339863,0.0638659205397933,0.0502019999994445,
0.0224576115722656,-0.0330399829101563,0.0350032282714814,0.0531150710971906,0.0542069999992236,
-0.0182438166503907,-0.0258573779296875,-0.0104866032714863,0.0333378116790126,0.0580819999995583,
-0.0421858332519532,-0.01149216796875,0.0110612116699187,0.0451006081487857,0.0619669999996404,
0.0272460148925781,-0.0689530078125,-0.0440054265136745,0.0862168207287167,0.0659040000000459,
0.0224576115722656,-0.00909796630859377,0.00387860668945095,0.0245389669369865,0.0697769999997035,
-0.104435076416016,0.0196324536132812,0.0541568415527323,0.119268947793902,0.0737759999992704,
0.0511880314941405,-0.0665588061523438,-0.0751300480957049,0.112671262403211,0.0779499999998734,
0.00330399829101552,-0.0354341845703125,-0.034428619873049,0.049515933872168,0.0818979999994554,
-0.0541568415527345,0.0244208569335937,0.0182438166503882,0.0621464285885522,0.0859109999992143,
0.0224576115722656,-0.021068974609375,0.0493684382324187,0.0581849525404067,0.0898449999995137,
-0.0134554133300782,-0.040222587890625,0.0230322199707,0.0482637325668148,0.0937389999999141,
-0.0254264216308595,0.0220266552734375,0.0182438166503882,0.0382689600780851,0.09762099999989,
-0.00627280834960947,-0.00909796630859377,-0.0392170231933626,0.040744275962299,0.101646999999502,
0.0320344182128905,-0.01149216796875,0.0565510432128882,0.066002229987526,0.105744999999843,
-0.0661278498535157,0.0220266552734375,-0.0104866032714863,0.0704842884404568,0.109652000000096,
-0.030214824951172,-0.0330399829101563,0.00387860668945095,0.0449401792095318,0.113649999999325,
0.0871010563964843,0.0196324536132812,0.0350032282714814,0.0959023109715642,0.117631999999503,
-0.0565510432128907,0.0148440502929687,0.0733104548339814,0.0937698731231499,0.121588999999403,
-0.0134554133300782,-0.0426167895507813,-0.034428619873049,0.056414260305899,0.12546999999995,
0.0128808049316406,-0.00670376464843752,0.0326090266113255,0.0356959971521563,0.129435999999259,
-0.0158496149902345,0.0507570751953125,-0.0224576115722677,0.0577220520706958,0.133293999999296,
0.0416112248535155,-0.0450109912109375,-0.0104866032714863,0.0621888431454909,0.13718499999959,
0.0535822331542968,0.00287304199218748,0.00627280834960686,0.0540246073996026,0.141117999999551,
-0.0278206232910157,0.00526724365234373,0.0254264216308577,0.0380556678162913,0.1449819999998,
-0.0158496149902345,-0.0354341845703125,0.039791631591795,0.0555892586408452,0.148905999999442,
-0.0373974299316407,0.00766144531249998,0.0350032282714814,0.0517927745848187,0.153047999999217,
-0.0350032282714844,0.0387860668945312,-0.0272460148925813,0.0589230880224336,0.157042999999248,
0.0104866032714843,-0.0521935961914063,0.0541568415527323,0.0759414499369931,0.160924999999224,
-0.0373974299316407,-0.0162805712890625,-0.0152750065917999,0.043553996296204,0.164804999999433,
-0.030214824951172,0.0244208569335937,-0.0416112248535185,0.056928094417529,0.168625999999676,
0.0200634099121093,0.00287304199218748,-0.00330399829101857,0.0205356079115582,0.172520999999506,
-0.020638018310547,-0.0258573779296875,-0.0224576115722677,0.0399859489160382,0.176440999999613,
-0.011061211669922,-0.00909796630859377,0.0302148249511696,0.0334373898710552,0.180466999999226,
-0.0541568415527345,-0.00670376464843752,0.0924640681152322,0.10736623230722,0.184408999999505,
-0.039791631591797,-0.00670376464843752,-0.0128808049316422,0.0423583467676201,0.188350999999784,
0.0224576115722656,-0.0330399829101563,-0.0368228215332049,0.0543314363320209,0.192258999999467,
-0.0373974299316407,-0.00909796630859377,-0.0320344182128931,0.0500753902299605,0.196140999999443,
-0.0230322199707032,0.00526724365234373,-0.0368228215332049,0.043750967968015,0.1999909999995,
-0.0230322199707032,-0.00430956298828127,0.0350032282714814,0.0421222207315124,0.203907999999501,
0.0535822331542968,0.0124498486328125,-0.0080924016113304,0.0556016313125831,0.207806999999775,
-0.0661278498535157,0.0292092602539062,0.0134554133300764,0.073533132387467,0.211712999999691,
0.000909796630859272,-0.040222587890625,0.0110612116699187,0.0417257080243742,0.215535999999702,
0.0128808049316406,-0.0162805712890625,0.0110612116699187,0.0235228089477419,0.219456999999238,
-0.0158496149902345,0.00287304199218748,0.0110612116699187,0.0195400887724259,0.223485999999866,
-0.0254264216308595,0.0148440502929687,0.0230322199707,0.0373809029161835,0.227337999999691,
0.0392170231933593,-0.0234631762695313,0.0876756647949186,0.0988712179859968,0.231393999999455,
-0.0134554133300782,0.00287304199218748,0.0206380183105441,0.0248038367588257,0.235251000000062,
-0.00866701000976572,-0.0426167895507813,0.0326090266113255,0.0543567514726836,0.23911599999974,
0.0176692082519531,-0.0450109912109375,-0.0320344182128931,0.0580033981787319,0.242965999999797,
-0.00387860668945322,0.02681505859375,0.0637336481933577,0.0692536559993218,0.246906999999737,
0.0104866032714843,0.0148440502929687,0.0158496149902323,0.0241148288945264,0.250876000000062,
-0.020638018310547,-0.0641646044921875,0.00627280834960686,0.0676932226594082,0.25485099999969,
0.0296402165527343,0.02681505859375,-0.0200634099121118,0.0447228154523019,0.258843999999954,
-0.0158496149902345,-0.0258573779296875,-0.0104866032714863,0.0320902342919291,0.262756000000081,
-0.0541568415527345,-0.00191536132812502,-0.0200634099121118,0.057785573574091,0.266631999999845,
-0.039791631591797,-0.0258573779296875,0.0230322199707,0.0527490388056001,0.270510999999715,
-0.00148440502929698,-0.01149216796875,0.0541568415527323,0.055382640510188,0.274319000000105,
-0.0230322199707032,-0.021068974609375,0.0565510432128882,0.0645941586858695,0.278204999999616,
-0.0373974299316407,-0.0234631762695313,0.0350032282714814,0.0563410542639424,0.282099999999446,
0.0296402165527343,-0.0474051928710938,0.00627280834960686,0.0562596024961915,0.286021999999321,
0.000909796630859272,-0.00430956298828127,0.0828872614746068,0.0830042057839199,0.28986999999961,
-0.0565510432128907,-0.0162805712890625,-0.0559764348144558,0.0812184630764551,0.29381099999955,
0.055976434814453,-0.0450109912109375,0.0110612116699187,0.0726753120938228,0.297867999999653,
0.0248518132324218,-0.0186747729492188,0.0158496149902323,0.0348936965795062,0.301746000000094,
-0.0421858332519532,-0.0641646044921875,-0.27624298754883,0.286717507604094,0.305839999999989,
0.0152750065917968,0.0507570751953125,0.784388347900387,0.786177261710526,0.309873999999581,
0.0296402165527343,0.0244208569335937,-0.688045673095706,0.689116658452244,0.313843999999335,
0.00809240161132801,0.417069929199219,0.2528755793457,0.487810282215846,0.316877999999633,
-0.097252471435547,-0.468784685058594,0.111617681396481,0.491605157566653,0.319816999999603,
0.228358954345703,-0.909317790527344,-0.218782147705081,0.962742065328944,0.322883999999249,
-0.202597344482422,1.47051865966797,0.104435076416014,1.48807845814965,0.325957000000017,
-0.178655327880859,0.812113203125,0.262452385986325,0.8719672217349,0.329009000000042,
0.513268951904297,-2.10402441894531,-0.522845758544925,2.22794332507259,0.332026000000042,
-0.049368438232422,-0.334709392089844,0.331884234130857,0.473935401411719,0.33498999999938,
-0.738898516357422,2.12892411621094,0.106829278076169,2.25603665854835,0.338038999999299,
0.460596515380859,-0.262883342285156,-0.163715509521486,0.55503114299099,0.340992999999798,
0.149350299560547,-0.938048210449219,0.0206380183105441,0.950087303833492,0.344070000000102,
-0.707773894775391,0.814507404785156,-0.0535822331542999,1.08038754819055,0.347084999999424,
-0.0757046564941407,0.362003291015625,0.171472722900388,0.407652391652389,0.350082999999358,
0.541999371826172,-0.27964275390625,-0.0655532414550812,0.613400861050508,0.353130999999848,
0.123014081298828,-0.291613762207031,0.0158496149902323,0.316894715641761,0.356106999999611,
-0.506660955322266,-0.0426167895507813,0.0110612116699187,0.508570412827264,0.359189999999217,
-0.133165496337891,0.345243879394531,0.0302148249511696,0.371267183199825,0.362142999999378,
0.374405255615234,-0.0234631762695313,0.0158496149902323,0.375474401748378,0.365175999999337,
0.113437274658203,-0.325132585449219,-0.118225677978518,0.364083128332328,0.368249000000105,
-0.212174151123047,0.0316034619140625,0.0685220515136695,0.225193074390358,0.371247000000039,
-0.102040874755859,0.110612116699219,0.0110612116699187,0.150896424361975,0.374296999999387,
0.127802484619141,-0.0330399829101563,0.0469742365722627,0.140113148730146,0.377257999999529,
0.103860468017578,-0.0545877978515625,0.0110612116699187,0.117852343611488,0.380306000000019,
-0.078098858154297,-0.0617704028320313,-0.00569819995117449,0.0997370733163951,0.383277999999336,
-0.0828872614746095,0.055545478515625,-0.0248518132324236,0.102826119829688,0.386216999999306,
-0.020638018310547,0.0603338818359375,0.0182438166503882,0.0663245199240245,0.389290999999503,
0.0703416447753905,-0.100077629394531,0.0469742365722627,0.131034567181654,0.392259999999624,
0.0392170231933593,-0.0521935961914063,-0.0535822331542999,0.0844582861615236,0.395325999999841,
-0.118800286376953,0.0770932934570312,0.0230322199707,0.14348298538878,0.398324999999204,
-0.0852814631347657,0.00287304199218748,-0.0248518132324236,0.0888751649541903,0.40128199999981,
0.0392170231933593,-0.143173259277344,-0.0104866032714863,0.14881708883196,0.404325999999855,
0.055976434814453,-0.01149216796875,-0.0583706364746117,0.0816857538473505,0.407303999999385,
-0.0924640681152345,0.146525141601562,-0.0224576115722677,0.174709946286145,0.410401999999522,
-0.0948582697753907,-0.0809240161132813,0.0278206232910136,0.12775278787167,0.413443999999799,
0.0607648381347655,-0.155144267578125,0.0134554133300764,0.167162069452912,0.416433999999754,
0.0152750065917968,0.0507570751953125,0.0804930598144509,0.0963781053302814,0.4196179999999,
-0.049368438232422,0.101035310058594,0.0757046564941373,0.135560213879442,0.422632999999223,
-0.0254264216308595,-0.0928950244140625,0.0182438166503882,0.0980246159074979,0.425701999999546,
0.0320344182128905,-0.121625444335938,-0.00569819995117449,0.125902431044187,0.42870799999946,
0.00330399829101552,0.0220266552734375,0.0254264216308577,0.0338022612289775,0.431719999999586,
-0.00387860668945322,0.0699106884765625,0.0134554133300764,0.0712993415187099,0.434838999999556,
-0.00866701000976572,-0.0761356127929688,-0.0368228215332049,0.0850156972772471,0.43776699999944,
-0.0350032282714844,-0.0665588061523438,0.0613394465332,0.0970454963759279,0.440850999999384,
-0.020638018310547,0.045968671875,0.0541568415527323,0.0739730361733628,0.443891999999323,
0.0200634099121093,-0.0162805712890625,-0.0224576115722677,0.0342336345766911,0.44688799999949,
0.00330399829101552,-0.0138863696289063,-0.0128808049316422,0.0192266170156027,0.449950999999601,
-0.058945244873047,0.00526724365234373,0.00148440502929503,0.059198726397851,0.452922999999828,
-0.0182438166503907,0.017238251953125,-0.0224576115722677,0.0336799420115793,0.455967999999302,
-0.011061211669922,-0.0282515795898438,-0.0487938298339863,0.0574572883348675,0.4589390000001,
-0.0134554133300782,-0.01149216796875,0.0709162531738254,0.0730905810396888,0.461894000000029,
0.0104866032714843,-0.03064578125,0.0733104548339814,0.080147086937465,0.465018999999302,
0.00330399829101552,-0.0234631762695313,0.0158496149902323,0.0285069700371808,0.46804499999962,
-0.0230322199707032,0.0100556469726562,0.0326090266113255,0.0411697438582715,0.471152000000075,
-0.0134554133300782,-0.0354341845703125,0.0733104548339814,0.0825291001526822,0.474131999999372,
0.0128808049316406,0.00287304199218748,0.0158496149902323,0.0206247376059538,0.477197999999589,
0.000909796630859272,-0.0234631762695313,0.0134554133300764,0.0270628253966177,0.480224999999336,
0.0104866032714843,-0.00909796630859377,0.0493684382324187,0.0512833748171271,0.483208999999988,
-0.020638018310547,0.0292092602539062,0.0134554133300764,0.0382119985377642,0.486296000000038,
-0.0134554133300782,0.00047884033203123,0.0110612116699187,0.0174249200730899,0.48931999999968,
-0.039791631591797,-0.0258573779296875,0.0110612116699187,0.0487270801684519,0.492338000000018,
-0.0373974299316407,-0.021068974609375,0.0230322199707,0.0487129614513548,0.495319999999992,
-0.00148440502929698,0.0387860668945312,-0.0320344182128931,0.0503265972789398,0.498309999999947,
0.00569819995117177,0.00526724365234373,-0.0200634099121118,0.0215117120582745,0.501416999999492,
0.00569819995117177,-0.01149216796875,-0.00330399829101857,0.013245973426387,0.504372999999759,
-0.011061211669922,-0.0426167895507813,0.00866701000976278,0.0448738032456769,0.507499999999709,
0.00330399829101552,0.00287304199218748,-0.034428619873049,0.0347059165180638,0.510499999999411,
0.000909796630859272,0.0124498486328125,0.0182438166503882,0.0221057301816169,0.513502999999218,
-0.0230322199707032,0.00287304199218748,0.0565510432128882,0.061129027601735,0.516560999999456,
0.0224576115722656,-0.0450109912109375,0.0757046564941373,0.0908929516641262,0.519582999999329,
-0.011061211669922,-0.059376201171875,0.0230322199707,0.0646402879479083,0.522646999999779,
-0.0350032282714844,-0.03064578125,0.0900698664550763,0.101375395146376,0.525582999999642,
0.0104866032714843,0.00047884033203123,0.0685220515136695,0.0693214950782156,0.528572999999597,
0.0200634099121093,-0.0713472094726563,-0.00569819995117449,0.0743332644212534,0.531645999999455,
-0.0421858332519532,0.00526724365234373,0.0254264216308577,0.0495367671513282,0.534717999999884,
0.0104866032714843,-0.0474051928710938,-0.0200634099121118,0.0525334329415138,0.537795999999616,
0.0224576115722656,0.00287304199218748,0.039791631591795,0.0457817936799856,0.540833000000021,
-0.0350032282714844,-0.021068974609375,0.0541568415527323,0.0678387143708066,0.543783000000076,
-0.00866701000976572,-0.00191536132812502,-0.0152750065917999,0.0176666776136937,0.546785999999884,
0.00330399829101552,-0.00191536132812502,0.0517626398925763,0.0519033322858258,0.549831999999697,
0.0248518132324218,0.00766144531249998,-0.0104866032714863,0.0280406707014856,0.552937999999813,
-0.0158496149902345,0.0124498486328125,0.0230322199707,0.0306054273470788,0.555967999999666,
0.00809240161132801,-0.00909796630859377,0.0493684382324187,0.05084783818708,0.55895799999962,
0.0152750065917968,-0.00430956298828127,-0.0104866032714863,0.0190228023094114,0.562073999999484,
0.0344286198730468,-0.0545877978515625,0.00866701000976278,0.0651173909424751,0.565125999999509,
-0.00387860668945322,-0.0330399829101563,-0.0152750065917999,0.0366061454804302,0.568191999999726,
-0.030214824951172,-0.0426167895507813,0.00387860668945095,0.0523848259355416,0.571202000000085,
0.00330399829101552,-0.00670376464843752,0.00148440502929503,0.00761973250578198,0.574375999999575,
-0.00387860668945322,-0.0354341845703125,0.114011883056639,0.11945431973828,0.577374999999847,
0.000909796630859272,-0.021068974609375,-0.000909796630862658,0.0211082247218837,0.580355999999483,
-0.030214824951172,-0.00909796630859377,-0.0679474431152371,0.0749170452145615,0.583418999999594,
-0.0158496149902345,0.00047884033203123,0.0110612116699187,0.0193336490867345,0.586459000000104,
-0.0254264216308595,0.0124498486328125,0.00866701000976278,0.0296077474732461,0.589536999999837,
0.0320344182128905,-0.0617704028320313,-0.0296402165527372,0.0756328569707832,0.592533999999432,
-0.0230322199707032,-0.0162805712890625,0.0517626398925763,0.0589483761178002,0.595485999999255,
-0.0469742365722657,-0.00430956298828127,0.104435076416014,0.114594225075768,0.598551000000043,
-0.039791631591797,-0.00670376464843752,0.0421858332519509,0.0583777263377081,0.601506999999401,
0.000909796630859272,0.0100556469726562,0.0254264216308577,0.0273577536157186,0.604620000000068,
0.00569819995117177,-0.021068974609375,0.0254264216308577,0.0335093134922841,0.60765899999933,
-0.0421858332519532,-0.0545877978515625,0.0278206232910136,0.0743872252590803,0.610627000000022,
-0.00387860668945322,0.0220266552734375,0.0326090266113255,0.0395419492302094,0.613755999999739,
-0.0182438166503907,-0.0426167895507813,0.0613394465332,0.0768866392722946,0.616744999999355,
-0.039791631591797,-0.00909796630859377,-0.0176692082519558,0.0444786224600154,0.619786999999633,
0.00330399829101552,-0.01149216796875,0.0445800349121068,0.0461558863211797,0.622773999999481,
-0.00148440502929698,0.0196324536132812,0.0373974299316373,0.0422635121429865,0.625745999999708,
0.0224576115722656,-0.00430956298828127,-0.0224576115722677,0.0320509121276068,0.628846999999951,
-0.0158496149902345,-0.04979939453125,-0.0080924016113304,0.0528836170742587,0.631826999999248,
-0.0182438166503907,-0.0521935961914063,0.0373974299316373,0.0667501018340525,0.634876000000077,
0.00569819995117177,-0.03064578125,-0.0296402165527372,0.0430136702502767,0.637844999999288,
-0.0182438166503907,0.0244208569335937,0.0230322199707,0.0382059976459566,0.640851000000112,
-0.0134554133300782,-0.021068974609375,0.0302148249511696,0.0392158830807564,0.643857999999454,
-0.0445800349121095,-0.040222587890625,-0.0583706364746117,0.083739878742659,0.646852999999282,
-0.0613394465332032,-0.00430956298828127,0.0350032282714814,0.0707553957205745,0.649926999999479,
-0.0230322199707032,-0.0330399829101563,0.00627280834960686,0.040761154940374,0.652897999999368,
0.0152750065917968,0.0100556469726562,0.0254264216308577,0.0313200379847834,0.65588200000002,
-0.011061211669922,0.00526724365234373,0.0541568415527323,0.0555252892497439,0.658904999999322,
-0.104435076416016,-0.021068974609375,0.0445800349121068,0.115490113818778,0.661873999999443,
-0.049368438232422,-0.01149216796875,-0.0080924016113304,0.0513302988688892,0.664905999999974,
0.00330399829101552,-0.0162805712890625,-0.00330399829101857,0.0169378219057922,0.667859999999564,
0.0320344182128905,-0.0162805712890625,-0.0152750065917999,0.0390459572570087,0.670927999999549,
-0.049368438232422,-0.04979939453125,0.0134554133300764,0.0714021745962317,0.673947999999655,
-0.0134554133300782,0.00526724365234373,-0.0152750065917999,0.0210265981546215,0.676934000000074,
0.00569819995117177,-0.0258573779296875,0.039791631591795,0.0477958933468071,0.679994000000079,
0.0128808049316406,-0.0330399829101563,0.078098858154295,0.0857728817948603,0.682979999999588,
-0.0134554133300782,0.0124498486328125,0.0350032282714814,0.0395129455784889,0.686017999999422,
-0.0158496149902345,0.0100556469726562,-0.0080924016113304,0.0204404817755458,0.68902799999978,
0.0152750065917968,-0.08810662109375,-0.0128808049316422,0.0903438854744697,0.692001999999775,
-0.0254264216308595,-0.0282515795898438,-0.0080924016113304,0.038860540785102,0.695082999999613,
-0.0278206232910157,0.0411802685546875,0.0517626398925763,0.0717577346854353,0.698114999999234,
-0.011061211669922,0.0387860668945312,0.0637336481933577,0.0754233869617943,0.701274000000012,
0.0152750065917968,-0.0617704028320313,0.0637336481933577,0.0900604597170453,0.704272999999375,
-0.0230322199707032,-0.01149216796875,-0.0463996281738304,0.0530610834422982,0.707233999999517,
0.0152750065917968,0.0339976635742187,0.00387860668945095,0.0374727973967337,0.710336999999527,
-0.00627280834960947,0.0196324536132812,-0.0200634099121118,0.028763201782312,0.713385999999446,
-0.0326090266113282,-0.059376201171875,-0.00330399829101857,0.0678218127658671,0.71650099999988,
-0.0278206232910157,-0.0450109912109375,-0.034428619873049,0.0631292822425109,0.71948699999939,
-0.0278206232910157,-0.00909796630859377,0.0206380183105441,0.0358146320801885,0.72244899999987,
-0.0134554133300782,0.00047884033203123,0.0757046564941373,0.0768926033558635,0.725586999999905,
-0.00148440502929698,-0.0330399829101563,0.00387860668945095,0.0332999627454127,0.72860799999944,
-0.00387860668945322,-0.0521935961914063,0.0206380183105441,0.0562596024961909,0.731656999999359,
-0.020638018310547,0.0100556469726562,-0.0080924016113304,0.0243419555431404,0.734615999999733,
-0.00627280834960947,0.0244208569335937,0.0589452448730441,0.0641113739605159,0.737584999999854,
-0.0254264216308595,0.0100556469726562,-0.000909796630862658,0.0273577536157203,0.740648999999394,
0.0272460148925781,-0.0521935961914063,0.0302148249511696,0.0661774316345685,0.743654999999308,
-0.0254264216308595,0.00526724365234373,-0.0224576115722677,0.0343306144741722,0.746781999999257,
-0.0254264216308595,0.0148440502929687,-0.0320344182128931,0.0435092254158697,0.749857999999222,
0.00569819995117177,-0.0474051928710938,0.0565510432128882,0.0740117712414389,0.752873999999792,
-0.0158496149902345,-0.0186747729492188,-0.0128808049316422,0.027674402897453,0.75592400000005,
-0.0182438166503907,-0.0569819995117188,-0.0128808049316422,0.0612021261886678,0.75892500000009,
-0.0278206232910157,0.0100556469726562,0.0541568415527323,0.0617095341362017,0.762021999999888,
0.0200634099121093,-0.00191536132812502,0.0493684382324187,0.0533240257278718,0.765032999999676,
0.000909796630859272,-0.0138863696289063,0.00866701000976278,0.0163943909276759,0.768119999999726,
0.00809240161132801,0.0220266552734375,-0.00330399829101857,0.0236976140377239,0.771156999999221,
-0.0469742365722657,-0.0474051928710938,-0.000909796630862658,0.0667432314366207,0.77412699999968,
0.0176692082519531,-0.0450109912109375,-0.0224576115722677,0.0533154252310983,0.777211999999963,
0.0128808049316406,-0.0282515795898438,0.0852814631347627,0.0907578913341101,0.780227999999624,
-0.0254264216308595,0.0483628735351562,0.0541568415527323,0.076931358628946,0.783278999999311,
-0.011061211669922,-0.0186747729492188,-0.0152750065917999,0.0265409753907279,0.78623399999924,
0.00330399829101552,-0.0833182177734375,0.0445800349121068,0.0945527436429724,0.789246999999705,
0.0440054265136718,-0.0474051928710938,-0.0152750065917999,0.0664609336390582,0.792354999999588,
0.00330399829101552,0.0148440502929687,0.039791631591795,0.0425985466717394,0.795345999999881,
-0.020638018310547,0.0411802685546875,-0.0463996281738304,0.0653809438039278,0.798391999999694,
-0.00387860668945322,-0.0474051928710938,0.0493684382324187,0.0685531807759874,0.801402999999482,
0.00569819995117177,-0.0641646044921875,0.00866701000976278,0.064997561606815,0.804407999999967,
0.00809240161132801,-0.00670376464843752,0.0254264216308577,0.0275123670601207,0.807459999999992,
-0.039791631591797,0.00047884033203123,0.102040874755858,0.109525993963723,0.810431999999309,
-0.020638018310547,-0.04979939453125,-0.00569819995117449,0.054206798265062,0.813517999999931,
0.00569819995117177,-0.0617704028320313,0.0445800349121068,0.0763899971297264,0.816593999999895,
0.0176692082519531,-0.0569819995117188,-0.0080924016113304,0.0602049512286445,0.819570999999996,
-0.030214824951172,0.0124498486328125,0.0326090266113255,0.0461658206289896,0.822707999999693,
0.00809240161132801,-0.0330399829101563,-0.0607648381347676,0.0696383011573872,0.825684999999794,
-0.00387860668945322,-0.0378283862304688,-0.0631590397949235,0.0737230947700225,0.828760999999758,
-0.0182438166503907,0.02681505859375,0.0158496149902323,0.036098400362037,0.831852999999683,
-0.0350032282714844,0.0148440502929687,0.0350032282714814,0.0516797620732842,0.834855000000061,
-0.011061211669922,-0.0569819995117188,-0.0128808049316422,0.0594576639942014,0.837962999999945,
0.0128808049316406,-0.00909796630859377,0.0469742365722627,0.0495506511378629,0.840940000000046,
0.0200634099121093,0.0339976635742187,0.0924640681152322,0.100538477401567,0.844079999999849,
-0.00627280834960947,-0.059376201171875,0.0421858332519509,0.0731062645561604,0.847101999999722,
-0.030214824951172,-0.040222587890625,0.0158496149902323,0.0527446918541346,0.850093999999444,
-0.0445800349121095,-0.01149216796875,0.00866701000976278,0.0468462004851641,0.853177999999389,
0.0104866032714843,0.0483628735351562,0.0469742365722627,0.0682313365419286,0.856272999999419,
-0.0326090266113282,-0.0234631762695313,-0.0296402165527372,0.0499240592749284,0.859303999999611,
-0.020638018310547,-0.0450109912109375,0.0302148249511696,0.0580073510549084,0.862298999999439,
-0.030214824951172,-0.0258573779296875,0.0206380183105441,0.0448047702819132,0.865327999999863,
0.0200634099121093,0.00287304199218748,0.00627280834960686,0.0212165716406091,0.868390999999974,
0.0224576115722656,0.02681505859375,0.0685220515136695,0.0769328488264862,0.871399999999994,
-0.049368438232422,-0.0282515795898438,-0.0080924016113304,0.0574532976135296,0.874418999999762,
-0.0373974299316407,-0.059376201171875,0.0469742365722627,0.0844433533952901,0.877377999999226,
-0.0158496149902345,-0.021068974609375,0.0110612116699187,0.0285912992016085,0.880407999999989,
0.0176692082519531,0.00526724365234373,0.0445800349121068,0.0482423495355347,0.88340799999969,
-0.0421858332519532,-0.00430956298828127,0.0637336481933577,0.0765519090052381,0.886344999999892,
-0.0373974299316407,-0.107260234375,-0.00569819995117449,0.113735637011253,0.889473999999609,
-0.011061211669922,-0.0330399829101563,0.0493684382324187,0.0604254380854485,0.892430999999306,
0.00330399829101552,-0.0162805712890625,-0.0224576115722677,0.0279341676757359,0.895532999999887,
-0.0350032282714844,-0.0258573779296875,0.0326090266113255,0.0543799466656825,0.898490999999922,
-0.00627280834960947,-0.0330399829101563,-0.0320344182128931,0.0464455869328065,0.901436000000103,
0.0176692082519531,-0.0641646044921875,-0.0128808049316422,0.0677879969137366,0.904499999999643,
-0.0134554133300782,0.02681505859375,0.00627280834960686,0.0306503448571201,0.907513000000108,
-0.030214824951172,0.02681505859375,-0.0104866032714863,0.0417366968313229,0.9106069999998,
-0.0326090266113282,-0.040222587890625,-0.0272460148925813,0.0585111145055717,0.913580999999795,
0.0200634099121093,-0.059376201171875,0.0445800349121068,0.0769119834334609,0.916537999999491,
0.000909796630859272,0.0339976635742187,-0.0200634099121118,0.0394868240773642,0.919589000000087,
-0.0565510432128907,0.02681505859375,0.0278206232910136,0.0684912763507366,0.92261199999939,
-0.0182438166503907,-0.0138863696289063,0.00387860668945095,0.0232532083226194,0.925610999999662,
0.0248518132324218,-0.0545877978515625,-0.00569819995117449,0.0602487325833979,0.928619999999682,
0.0200634099121093,-0.00430956298828127,0.0517626398925763,0.0556819866662445,0.931595000000016,
-0.0326090266113282,0.0292092602539062,0.00387860668945095,0.0439496654250085,0.934666999999536,
-0.0326090266113282,-0.0186747729492188,-0.0631590397949235,0.0734925851297933,0.937590999999884,
0.00809240161132801,-0.0378283862304688,-0.0200634099121118,0.0435776799054512,0.940661999999975,
0.00330399829101552,-0.03064578125,0.0206380183105441,0.0370945833366038,0.943663000000015,
-0.020638018310547,0.0148440502929687,0.0110612116699187,0.0277240695514458,0.946639999999206,
-0.0134554133300782,0.00047884033203123,-0.00569819995117449,0.0146200861362165,0.94964600000003,
-0.0350032282714844,-0.00670376464843752,-0.0392170231933626,0.0529918989849961,0.9526079999996,
-0.011061211669922,-0.0234631762695313,0.0134554133300764,0.0292218957657629,0.955645999999433,
-0.011061211669922,0.00766144531249998,0.0206380183105441,0.0246368818576865,0.958656999999221,
-0.030214824951172,-0.040222587890625,-0.0296402165527372,0.0583895081392383,0.961683999999877,
-0.0541568415527345,-0.0521935961914063,0.0709162531738254,0.103374319512022,0.964656000000105,
0.0487938298339843,-0.0138863696289063,0.0685220515136695,0.0852580825199606,0.967611999999463,
0.00569819995117177,-0.00670376464843752,0.0637336481933577,0.0643380746928276,0.970668999999361,
-0.0134554133300782,0.0339976635742187,-0.0176692082519558,0.0406089915737881,0.973653000000013,
0.00330399829101552,-0.0378283862304688,0.00148440502929503,0.0380014034977598,0.976791000000048,
0.036822821533203,0.0220266552734375,0.0493684382324187,0.0654089934314014,0.979844999999841,
-0.00627280834960947,-0.00909796630859377,0.0302148249511696,0.0321722980586258,0.982852999999523,
-0.0254264216308595,0.00526724365234373,-0.0463996281738304,0.0531711601087761,0.985916999999972,
-0.039791631591797,-0.00430956298828127,0.00387860668945095,0.0402118125398335,0.988905999999588,
0.00330399829101552,-0.00191536132812502,-0.000909796630862658,0.00392590672760311,0.991958999999952,
0.0392170231933593,-0.00191536132812502,0.0637336481933577,0.0748573405164814,0.994967999999972,
-0.0326090266113282,-0.0330399829101563,-0.0799184514160185,0.0924226593643368,0.99795499999982,
0.00569819995117177,-0.021068974609375,0.00866701000976278,0.023483786668324,1.00099499999942,
0.0104866032714843,0.0124498486328125,-0.000909796630862658,0.0163032300193237,1.00396999999975,
0.00330399829101552,0.00526724365234373,0.00148440502929503,0.00639247359722238,1.00708099999974,
-0.0182438166503907,-0.0186747729492188,-0.0463996281738304,0.0532401116203531,1.01007699999991,
-0.00627280834960947,-0.0426167895507813,-0.0416112248535185,0.0598918434347833,1.01301599999988,
-0.0254264216308595,-0.0186747729492188,0.0206380183105441,0.0376985127218762,1.01602599999933,
-0.030214824951172,0.0124498486328125,-0.034428619873049,0.0474685605866958,1.01896399999987,
-0.030214824951172,-0.00191536132812502,0.0110612116699187,0.0322328196013626,1.02203199999985,
-0.049368438232422,-0.0378283862304688,0.0373974299316373,0.0725727032967748,1.02500799999962,
0.0152750065917968,-0.0330399829101563,0.0110612116699187,0.038043615767821,1.02805600000011,
-0.039791631591797,0.0220266552734375,0.0302148249511696,0.0546029590233164,1.03115099999923,
-0.00627280834960947,-0.0426167895507813,-0.000909796630862658,0.0430855730624073,1.03412899999967,
