X,Y,Z,Magnitude,Seconds,
-1.08845195874023,0.321301862792969,-0.0847068547363303,1.13804121399842,0.0,
-1.05493313549805,0.328484467773438,-0.103860468017581,1.10976257044332,0.00378899999941495,
-1.09802876538086,0.340455476074219,-0.0607648381347676,1.15120348607285,0.00756300000011834,
-1.06929834545898,0.326090266113281,-0.0248518132324236,1.11819114013486,0.011356999999407,
-1.06690414379883,0.342849677734375,-0.0655532414550812,1.122554043707,0.0151280000000042,
-1.10760557202148,0.302148249511719,-0.0751300480957049,1.15053387259259,0.0188920000000508,
-1.04535632885742,0.33327287109375,0.00387860668945095,1.09720358388003,0.0226679999996122,
-1.09802876538086,0.357214887695313,-0.0416112248535185,1.15542249399464,0.0265540000000328,
-1.09802876538086,0.290177241210937,-0.0224576115722677,1.13594645350832,0.0302999999994427,
-1.0573273371582,0.326090266113281,0.00387860668945095,1.10647684257093,0.0340439999999944,
-1.01662590893555,0.316513459472656,-0.0224576115722677,1.06499453194085,0.0377909999997428,
-1.08845195874023,0.345243879394531,-0.0200634099121118,1.14206985038663,0.0415179999999964,
-1.07648095043945,0.335667072753906,-0.0200634099121118,1.12777930500941,0.0452799999993658,
-1.07887515209961,0.280600434570312,0.039791631591795,1.11547818071164,0.0493569999998726,
-1.05972153881836,0.318907661132813,-0.0871010563964862,1.11008937937003,0.0532259999999951,
-1.08845195874023,0.321301862792969,0.00387860668945095,1.13489100670925,0.0570250000000669,
-1.07169254711914,0.330878669433594,-0.00569819995117449,1.12162296647293,0.0608599999995931,
-1.08845195874023,0.359609089355469,-0.0679474431152371,1.14833062253796,0.0646630000001096,
-1.08366355541992,0.304542451171875,0.0134554133300764,1.12572370236173,0.0685239999993428,
-1.10042296704102,0.328484467773438,0.00387860668945095,1.14841098721216,0.0724359999994704,
-1.05014473217773,0.316513459472656,-0.0631590397949235,1.09862359015989,0.0762619999995877,
-1.10042296704102,0.292571442871094,-0.0272460148925813,1.13897809500559,0.0800650000001042,
-1.10521137036133,0.340455476074219,-0.108648871337893,1.16155356381352,0.0838809999995647,
-1.07887515209961,0.326090266113281,-0.0440054265136745,1.12793746858345,0.0876650000000154,
-1.07648095043945,0.347638081054688,-0.139773492919925,1.13982459237439,0.0914240000001882,
-1.06450994213867,0.280600434570312,-0.0463996281738304,1.10184887633822,0.0952099999994971,
-1.07648095043945,0.347638081054688,-0.0583706364746117,1.1327270647693,0.0990759999995134,
-1.09084616040039,0.287783039550781,-0.034428619873049,1.12869382623443,0.102820999999494,
-1.10760557202148,0.335667072753906,-0.0440054265136745,1.15818779326449,0.106573000000026,
-1.07648095043945,0.366791694335938,-0.0296402165527372,1.13764050830223,0.110319999999774,
-1.12915338696289,0.350032282714844,-0.0990720646972676,1.18630739871068,0.114063999999416,
-1.10999977368164,0.316513459472656,-0.0320344182128931,1.15468890682767,0.117930999999771,
-1.1123939753418,0.3141192578125,-0.00569819995117449,1.15590818579509,0.122003999999833,
-1.05493313549805,0.342849677734375,-0.034428619873049,1.10978157840211,0.125786999999946,
-1.08366355541992,0.362003291015625,0.00148440502929503,1.14253021295272,0.129586000000018,
-1.08126935375977,0.292571442871094,-0.0823126530761744,1.12317266589789,0.133386999999857,
-1.03338532055664,0.304542451171875,-0.0918894597167998,1.08123771582144,0.137216999999509,
-1.06929834545898,0.354820686035156,-0.0128808049316422,1.12670430281217,0.14105599999948,
-1.08126935375977,0.318907661132813,-0.034428619873049,1.12784344728141,0.144839999999931,
-1.04535632885742,0.335667072753906,-0.0775242497558626,1.10065991446661,0.14873499999976,
-1.07887515209961,0.316513459472656,-0.0487938298339863,1.12540357280185,0.152532999999494,
-1.07169254711914,0.297359846191406,-0.00569819995117449,1.11219614419417,0.156307999999626,
-1.0956345637207,0.321301862792969,-0.0104866032714863,1.14182308310082,0.160046999999395,
-1.1123939753418,0.328484467773438,-0.00330399829101857,1.15988504531692,0.16379599999982,
-1.06211574047852,0.350032282714844,-0.0775242497558626,1.12099172807608,0.167567999999847,
-1.08845195874023,0.33327287109375,-0.0128808049316422,1.13840431667673,0.171370999999453,
-1.08126935375977,0.304542451171875,-0.0655532414550812,1.12524963781869,0.175119999999879,
-1.0956345637207,0.352426484375,-0.0128808049316422,1.15099324031206,0.178855999999541,
-1.09084616040039,0.335667072753906,-0.000909796630862658,1.14132316068735,0.182581999999456,
-1.0357795222168,0.328484467773438,-0.000909796630862658,1.08661957093638,0.186307999999372,
-1.09802876538086,0.309330854492188,-0.0871010563964862,1.14408886943719,0.190233999999691,
-1.06929834545898,0.373974299316406,-0.0847068547363303,1.13597138141321,0.194190000000162,
-1.10999977368164,0.326090266113281,-0.0224576115722677,1.15712518922745,0.197986999999557,
-1.10281716870117,0.342849677734375,-0.051188031494144,1.15601549456436,0.201794999999947,
-1.01662590893555,0.290177241210937,0.0230322199707,1.05747886654656,0.205581000000166,
-1.10281716870117,0.352426484375,-0.0392170231933626,1.15842483976266,0.20940999999948,
-1.04775053051758,0.259052619628906,0.0110612116699187,1.07935711622246,0.213228999999956,
-1.0573273371582,0.3141192578125,-0.0320344182128931,1.10346645167897,0.217004000000088,
-1.04056792553711,0.316513459472656,-0.0487938298339863,1.08873468554732,0.220886000000064,
-1.07169254711914,0.340455476074219,-0.0320344182128931,1.12492713128001,0.224685999999565,
-1.07648095043945,0.340455476074219,0.00627280834960686,1.12905292877373,0.228455999999824,
-1.05972153881836,0.299754047851563,-0.0751300480957049,1.10385993367176,0.232207000000017,
-1.06211574047852,0.29496564453125,-0.00569819995117449,1.10232801248478,0.235958999999639,
-1.05493313549805,0.37158009765625,-0.051188031494144,1.11963203951754,0.239698999999746,
-1.07648095043945,0.342849677734375,0.0110612116699187,1.12981391768078,0.243527999999969,
-1.06690414379883,0.330878669433594,-0.0416112248535185,1.11780885663653,0.247273999999379,
-1.06690414379883,0.311725056152344,-0.0703416447753931,1.11373466753891,0.251017999999931,
-1.11718237866211,0.345243879394531,-0.0224576115722677,1.16952731809481,0.254746999999952,
-1.05014473217773,0.335667072753906,-0.0631590397949235,1.10429407612268,0.258539999999812,
-1.06450994213867,0.354820686035156,-0.0368228215332049,1.12269098880155,0.262552999999571,
-1.07169254711914,0.326090266113281,-0.0080924016113304,1.12023446838971,0.266383000000133,
-1.0956345637207,0.350032282714844,0.0230322199707,1.150420870516,0.270306999999775,
-0.999866497314453,0.335667072753906,-0.0200634099121118,1.05489712133475,0.274107000000186,
-1.09324036206055,0.347638081054688,-0.0176692082519558,1.14731814487435,0.277914999999666,
-1.03338532055664,0.306936652832031,-0.0176692082519558,1.07815005009226,0.281777999999576,
-1.10281716870117,0.364397492675781,-0.0847068547363303,1.1645456158905,0.285574999999881,
-1.0357795222168,0.330878669433594,-0.034428619873049,1.08789027130321,0.289361000000099,
-1.08366355541992,0.350032282714844,-0.0607648381347676,1.14041293654599,0.293229999999312,
-1.08845195874023,0.338061274414063,0.0110612116699187,1.13979622834414,0.297043999999914,
-1.4787068293457,-0.0450109912109375,2.47230051831055,2.88112299795097,0.300798999999643,
-2.09401665600586,-11.3791616503906,7.08113871411133,13.5651299702523,0.304554999999709,
3.78374841967773,14.2723149365234,-6.77171209155274,16.2441315680958,0.307525999999598,
-0.116406084716797,18.6010315380859,-6.92733519946289,19.8494306624433,0.310470999999779,
-3.6789781550293,-8.14459520751953,9.38136795910644,12.9568273949946,0.313489000000118,
-1.78037623852539,-16.3447358935547,-6.88423956958008,17.8245023894675,0.316417000000001,
-3.51138403881836,-4.12473062011719,-3.21153422290039,6.2973941135569,0.319424999999683,
0.120619879638672,5.32757753417969,5.91995090893554,7.96513969132161,0.322387999999592,
1.83965667163086,6.98197088134766,-3.15167918139649,7.87815560394123,0.325336999999308,
0.798178949462891,4.03470863769531,0.85382019604492,4.20059190515254,0.32839199999944,
-4.40920966137695,-1.19901619140625,0.341461040771481,4.58206998065274,0.331307999999808,
-3.7555926081543,-4.49343767578125,-1.64572633715821,6.08308089387029,0.334310000000187,
-0.286394402587891,-4.00741473876953,0.681437676513669,4.07501557657309,0.337241999999605,
1.29377869311523,1.24785790527344,-0.462990717041018,1.85617161452774,0.340212999999494,
-0.21696255444336,4.77212274902344,0.492295745361325,4.8023518595245,0.343261999999413,
-1.62714733227539,0.912669672851563,0.425258098876951,1.91348342645928,0.346212999999807,
-2.65665404614258,-1.43364795410156,-0.671286261474611,3.09253656761402,0.349264999999832,
-1.53856187084961,-1.21098719970703,-0.190051727783205,1.96717622177575,0.352296000000024,
0.355251642333984,1.12814782226563,0.20259734448242,1.1999862175271,0.355344999999943,
-0.482718938720703,2.09540529296875,0.219356756103513,2.16144819555069,0.358456999999362,
-1.83544287670898,0.0794874951171875,-0.316944415771486,1.86430216923933,0.361390999999458,
-2.09641085766602,-0.981143840332031,-0.185263324462893,2.32204741961754,0.364394000000175,
-1.33505472973633,-0.377805021972656,-0.034428619873049,1.38790961373047,0.367306000000099,
-0.178655327880859,0.898304462890625,0.0948582697753881,0.920796788425227,0.370351999999912,
-0.480324737060547,0.886333454589844,0.0182438166503882,1.00828154927253,0.373332999999548,
-1.62954153393555,0.192014973144531,-0.151744501220705,1.64781726971877,0.37625399999979,
-1.62954153393555,-0.0952892260742188,-0.00330399829101857,1.63232857103941,0.379249999999956,
-0.882550615966797,0.206380183105469,-0.0272460148925813,0.906769383608394,0.382187000000158,
-0.686226079833984,0.512837995605469,-0.0775242497558626,0.860185475162864,0.385228999999526,
-0.930434649169922,0.505655390625,0.0182438166503882,1.05911701303022,0.388178999999582,
-1.25125767163086,0.306936652832031,-0.0679474431152371,1.29014445884665,0.391141000000061,
-1.25844027661133,0.172861359863281,-0.115831476318363,1.27552730681764,0.39420599999994,
-1.02380851391602,0.230322199707031,-0.0607648381347676,1.05115391565572,0.397141999999803,
-0.870579607666016,0.347638081054688,0.0206380183105441,0.937649730167447,0.400189999999384,
-0.973530279052735,0.452982954101563,0.0565510432128882,1.07524545171209,0.403145999999651,
-1.19140263012695,0.373974299316406,-0.0894952580566439,1.25192108570678,0.406065000000126,
-1.21295044506836,0.108217915039063,0.0278206232910136,1.21808615721846,0.409098999999514,
-0.990289690673828,0.247081611328125,-0.0631590397949235,1.02260063486152,0.412049999999908,
-0.954376665771484,0.567904633789063,0.0469742365722627,1.11155614889655,0.415070000000014,
-1.01662590893555,0.263841022949219,0.0326090266113255,1.05081095955764,0.418002999999771,
-1.16506641186523,0.203985981445312,-0.0775242497558626,1.18532697344781,0.420946000000185,
-1.05014473217773,0.352426484375,-0.0894952580566439,1.11131354109639,0.423979000000145,
-1.00465490063477,0.373974299316406,-0.0296402165527372,1.07241166925577,0.426934999999503,
-1.08126935375977,0.3907337109375,-0.0847068547363303,1.1528189361224,0.429975000000013,
-1.10521137036133,0.215956989746094,-0.0535822331542999,1.12738664632235,0.432926999999836,
-1.07169254711914,0.290177241210937,-0.0679474431152371,1.11235992461676,0.43587799999932,
-1.07887515209961,0.366791694335938,-0.0487938298339863,1.14056502606456,0.438919000000169,
-1.03099111889648,0.311725056152344,-0.0416112248535185,1.07788992569298,0.441874000000098,
-1.05253893383789,0.266235224609375,-0.0368228215332049,1.08631271844395,0.44491299999936,
-1.03817372387695,0.33327287109375,-0.103860468017581,1.09529105007411,0.4478909999998,
-1.26322867993164,0.282994636230469,-0.051188031494144,1.29555118637022,0.450829999999769,
-1.06929834545898,0.441011945800781,0.0134554133300764,1.15675042082906,0.453875999999582,
-0.815512969482422,0.326090266113281,0.0182438166503882,0.878481133487704,0.456818999999996,
-1.13873019360352,0.297359846191406,-0.0392170231933626,1.17756838733868,0.459855000000061,
-1.34702573803711,0.381156904296875,-0.0152750065917999,1.39999723230226,0.462808999999652,
-0.892127422607422,0.244687409667969,-0.0296402165527372,0.92554946332191,0.465823999999884,
-1.00704910229492,0.330878669433594,-0.0296402165527372,1.0604278055372,0.468786999999793,
-1.09084616040039,0.280600434570312,0.00148440502929503,1.12635880295739,0.47172799999953,
-1.1123939753418,0.352426484375,-0.0320344182128931,1.16732642701855,0.47475200000008,
-1.14591279858398,0.338061274414063,-0.0775242497558626,1.19725167634765,0.477707999999438,
-0.971136077392578,0.292571442871094,-0.051188031494144,1.01554101077473,0.480719999999565,
-1.00226069897461,0.378762702636719,0.00627280834960686,1.07146023805941,0.483682000000044,
-1.09084616040039,0.338061274414063,-0.0440054265136745,1.14287674247111,0.48662400000012,
-1.14351859692383,0.2375048046875,-0.0559764348144558,1.16926330439932,0.489763999999923,
-1.15548960522461,-0.176692082519531,-0.233147357666018,1.19194547282745,0.49280699999963,
-0.971136077392578,-0.0234631762695313,0.257663982666013,1.00501071109586,0.495934999999918,
-0.92564624584961,2.10498209960938,-0.0368228215332049,2.29981010788218,0.498939000000064,
-0.987895489013672,0.929429084472656,-0.379193658935549,1.40839048252044,0.501897999999528,
-0.990289690673828,-1.21577560302734,0.221750957763669,1.58365320561052,0.504910999999993,
-1.4188517878418,-0.650744011230469,-0.520451556884769,1.64544157814186,0.50784399999975,
-1.19619103344727,1.07547538574219,0.125982891357419,1.61350301603428,0.510890999999901,
-0.655101458251953,1.21433908203125,0.0110612116699187,1.37981871169945,0.51385399999981,
-0.971136077392578,0.364397492675781,0.0182438166503882,1.03741199642563,0.516778000000158,
-1.27998809155273,-0.322738383789063,-0.166109711181644,1.33045932483351,0.519803999999567,
-1.25604607495117,-0.00909796630859377,-0.0392170231933626,1.25669108785705,0.522718999999597,
-1.02859691723633,0.752258161621094,0.0421858332519509,1.27502298191083,0.525779999999941,
-0.784388347900391,0.745075556640625,0.0373974299316373,1.0824976827646,0.528731999999764,
-1.05014473217773,0.206380183105469,-0.000909796630862658,1.07023248232765,0.531691999999566,
-1.3039301081543,0.0196324536132812,-0.0703416447753931,1.30597362422672,0.534748999999465,
-1.10999977368164,0.321301862792969,0.0302148249511696,1.15596164307228,0.537695999999414,
-0.949588262451172,0.577481440429688,-0.0272460148925813,1.11173064523441,0.540731000000051,
-1.00704910229492,0.431435139160156,-0.0224576115722677,1.09580496350979,0.543693999999959,
-1.08605775708008,0.18004396484375,-0.0487938298339863,1.10196103325859,0.546623000000181,
-1.17943162182617,0.2375048046875,-0.120619879638674,1.20913880021163,0.54964899999959,
-1.10042296704102,0.354820686035156,-0.0224576115722677,1.15643104850542,0.552592999999433,
-0.997472295654297,0.4673481640625,-0.0080924016113304,1.10155833890642,0.555641999999352,
-1.03099111889648,0.318907661132813,-0.0248518132324236,1.07947320309194,0.558575999999448,
-1.08605775708008,0.263841022949219,0.0254264216308577,1.11793561532928,0.561603000000105,
-1.12675918530273,0.309330854492188,-0.120619879638674,1.1746578202051,0.564555999999357,
-1.08366355541992,0.338061274414063,-0.051188031494144,1.13632404760792,0.567503999999644,
-1.04775053051758,0.342849677734375,-0.0607648381347676,1.1040921344145,0.570537999999942,
-1.03099111889648,0.364397492675781,-0.0583706364746117,1.09505038747734,0.573489999999765,
-1.07648095043945,0.290177241210937,-0.0296402165527372,1.1152993366864,0.576508000000103,
-1.09802876538086,0.357214887695313,-0.0368228215332049,1.15525995593228,0.579474999999547,
-1.01662590893555,0.354820686035156,0.00387860668945095,1.07677342163862,0.582413000000088,
-1.06450994213867,0.323696064453125,-0.0128808049316422,1.11271131664516,0.585452999999688,
-1.15548960522461,0.306936652832031,-0.111043072998049,1.20070683378363,0.588409999999385,
-0.98310708569336,0.316513459472656,0.0350032282714814,1.03339515092595,0.591451999999663,
-1.04056792553711,0.29496564453125,-0.0894952580566439,1.08526298210386,0.594383999999991,
-1.12436498364258,0.366791694335938,-0.0224576115722677,1.18289353189242,0.597327999999834,
-1.10999977368164,0.357214887695313,0.00627280834960686,1.16607946628395,0.600359999999455,
-1.05014473217773,0.29496564453125,-0.0152750065917999,1.09089046920429,0.603312000000187,
-1.0573273371582,0.335667072753906,-0.0583706364746117,1.11086480403138,0.606348999999682,
-1.09802876538086,0.364397492675781,-0.0583706364746117,1.15838673743904,0.609303999999611,
-1.08605775708008,0.342849677734375,-0.0463996281738304,1.13983344341664,0.612245999999686,
-1.02859691723633,0.359609089355469,-0.0631590397949235,1.09147578058469,0.615286000000197,
-1.07169254711914,0.33327287109375,-0.0392170231933626,1.12300209130078,0.618238000000019,
-1.1123939753418,0.357214887695313,-0.0392170231933626,1.16899991756888,0.621266000000105,
-1.0357795222168,0.364397492675781,-0.0918894597167998,1.10184773182101,0.624218999999357,
-1.07887515209961,0.345243879394531,-0.0272460148925813,1.13309632220958,0.627210999999988,
-1.06690414379883,0.321301862792969,-0.051188031494144,1.11541003835253,0.630344999999579,
-1.06929834545898,0.304542451171875,-0.0918894597167998,1.11561137004521,0.633401000000049,
-1.06690414379883,0.359609089355469,-0.000909796630862658,1.1258792017495,0.636539999999513,
-1.04056792553711,0.304542451171875,-0.00569819995117449,1.08423253119663,0.639499999999316,
-1.04535632885742,0.33327287109375,-0.0296402165527372,1.09759701317316,0.642439999999624,
-1.0956345637207,0.33327287109375,-0.051188031494144,1.14634467696011,0.645464999999604,
-1.05493313549805,0.330878669433594,-0.0535822331542999,1.10690364077804,0.648435999999492,
-1.0573273371582,0.3907337109375,-0.051188031494144,1.12837677454532,0.651495999999497,
-1.07887515209961,0.321301862792969,-0.0416112248535185,1.12647147095965,0.6544559999993,
-1.07648095043945,0.302148249511719,-0.0080924016113304,1.11811014140194,0.657460999999785,
-1.06450994213867,0.335667072753906,-0.0559764348144558,1.11758094198935,0.660441999999421,
-1.03817372387695,0.362003291015625,-0.111043072998049,1.10507086999682,0.663391999999476,
-1.06450994213867,0.311725056152344,-0.0751300480957049,1.11175467243098,0.666435999999521,
-1.08845195874023,0.323696064453125,-0.0200634099121118,1.13574176160129,0.669428000000153,
-1.03099111889648,0.345243879394531,-0.0296402165527372,1.08766473048458,0.672466999999415,
-1.08845195874023,0.330878669433594,-0.0463996281738304,1.13857862524565,0.67543299999943,
-1.0740867487793,0.335667072753906,-0.0823126530761744,1.12832180715029,0.67837899999995,
-1.05014473217773,0.359609089355469,0.00627280834960686,1.1100279292848,0.681413999999677,
-1.09802876538086,0.316513459472656,-0.0751300480957049,1.1452041144521,0.684360000000197,
-1.04056792553711,0.311725056152344,0.0230322199707,1.08650108211937,0.687395999999353,
-1.06929834545898,0.350032282714844,-0.0176692082519558,1.12527052368048,0.690332000000126,
-1.02620271557617,0.328484467773438,-0.0823126530761744,1.08063381026171,0.693283999999949,
-1.05014473217773,0.3141192578125,-0.034428619873049,1.09665865086438,0.69631599999957,
-1.08845195874023,0.364397492675781,-0.0440054265136745,1.14867300687206,0.699281999999585,
-1.06450994213867,0.330878669433594,-0.0487938298339863,1.11581492579553,0.702311000000009,
-1.04296212719727,0.287783039550781,-0.0440054265136745,1.08283219114671,0.705269999999473,
-1.09324036206055,0.342849677734375,0.0421858332519509,1.14651647841974,0.708209999999781,
-1.06450994213867,0.362003291015625,-0.0583706364746117,1.1258929482063,0.711225000000013,
-1.07887515209961,0.29496564453125,-0.0463996281738304,1.119432557489,0.714179999999942,
-1.0740867487793,0.350032282714844,-0.0583706364746117,1.1311905560286,0.717212999999902,
-1.07887515209961,0.287783039550781,-0.0607648381347676,1.11824998869867,0.72016799999983,
-1.03099111889648,0.306936652832031,-0.0440054265136745,1.07661008431921,0.723108999999567,
-1.08126935375977,0.328484467773438,-0.0440054265136745,1.13092083653592,0.72615499999938,
-1.05014473217773,0.323696064453125,-0.0823126530761744,1.10197934350855,0.729107000000113,
-1.09084616040039,0.357214887695313,-0.0583706364746117,1.14932804405613,0.732148999999481,
-1.09084616040039,0.362003291015625,-0.072735846435549,1.15164327450957,0.735098999999536,
-1.06211574047852,0.338061274414063,-0.0871010563964862,1.11801693433332,0.738045000000056,
-1.07887515209961,0.335667072753906,-0.0583706364746117,1.13139343676353,0.741065000000162,
-1.05493313549805,0.309330854492188,0.0110612116699187,1.0994052247994,0.744029999999839,
-1.05972153881836,0.352426484375,-0.0080924016113304,1.11681675027209,0.747056999999586,
-1.07887515209961,0.347638081054688,-0.0392170231933626,1.13417891186774,0.750011999999515,
-1.06450994213867,0.362003291015625,-0.0128808049316422,1.1244526289506,0.753025999999409,
-1.06450994213867,0.342849677734375,-0.0440054265136745,1.11922464054241,0.755986000000121,
-1.06450994213867,0.364397492675781,-0.0416112248535185,1.12592115337367,0.758930999999393,
-1.08845195874023,0.330878669433594,-0.0392170231933626,1.13830854133655,0.761962999999923,
-1.05493313549805,0.338061274414063,-0.0583706364746117,1.1093135160236,0.764922999999726,
-1.05014473217773,0.362003291015625,-0.0440054265136745,1.11165948868772,0.768035999999483,
-1.05972153881836,0.321301862792969,0.0230322199707,1.1075988037311,0.771090999999615,
-1.10042296704102,0.29496564453125,-0.0751300480957049,1.14174426294681,0.774133999999322,
-1.0573273371582,0.299754047851563,-0.0583706364746117,1.10054564571757,0.777224999999817,
-1.06690414379883,0.357214887695313,0.00866701000976278,1.1251497878544,0.78016899999966,
-1.09084616040039,0.156101948242188,-0.0703416447753931,1.10420157167747,0.783193999999639,
-1.01662590893555,0.838449421386719,-0.0559764348144558,1.318961345983,0.786133999999947,
-1.02620271557617,0.0962469067382812,0.0469742365722627,1.03177616730284,0.789095000000088,
-1.24646926831055,-0.0426167895507813,-0.144561896240237,1.2555476770871,0.792105999999876,
-1.06450994213867,0.373974299316406,0.0757046564941373,1.13082686052117,0.79506499999934,
-0.923252044189453,0.881545051269531,-0.0942836613769558,1.2800021184828,0.79808999999932,
-1.10042296704102,0.369185895996094,-0.0679474431152371,1.16268903289731,0.801053999999567,
-1.20816204174805,-0.248518132324219,-0.0368228215332049,1.23400676716151,0.803996999999981,
-1.10521137036133,0.235110603027344,-0.0655532414550812,1.13184203681305,0.807033000000047,
-0.947194060791016,0.879150849609375,0.0469742365722627,1.29317028425038,0.810011999999915,
-1.01183750561523,0.498472785644531,-0.0703416447753931,1.13014963734347,0.813047999999981,
-1.17703742016602,-0.116837041015625,-0.0296402165527372,1.1831933591183,0.815983999999844,
-1.1507012019043,0.199197578125,-0.0224576115722677,1.16803136752075,0.818926999999348,
-0.951982464111328,0.711556733398437,-0.0272460148925813,1.18883385809274,0.821958999999879,
-0.999866497314453,0.594240852050781,-0.0296402165527372,1.16350064251603,0.824923999999555,
-1.11957658032227,0.0220266552734375,-0.0607648381347676,1.12144070654769,0.827942999999323,
-1.13154758862305,0.0866701000976562,-0.0966778630371117,1.13897245830222,0.830896999999823,
-1.0573273371582,0.496078583984375,-0.0320344182128931,1.16835836254988,0.833847999999307,
-1.00226069897461,0.484107575683594,-0.0224576115722677,1.11327938894998,0.836870999999519,
-1.05972153881836,0.2375048046875,-0.0440054265136745,1.08690144431216,0.83984799999962,
-1.12197078198242,0.268629426269531,-0.0583706364746117,1.15515684453783,0.842881999999918,
-1.00465490063477,0.385945307617187,-0.0559764348144558,1.07769133386871,0.845843000000059,
-1.08845195874023,0.395522114257812,0.0278206232910136,1.15842107906958,0.848864999999932,
-1.10042296704102,0.3141192578125,-0.0368228215332049,1.14497053879377,0.8518210000002,
-1.04056792553711,0.287783039550781,-0.0799184514160185,1.08258378169379,0.854773999999452,
-1.05972153881836,0.263841022949219,-0.0487938298339863,1.0931617735067,0.857794999999896,
-1.11718237866211,0.357214887695313,-0.0583706364746117,1.17435347080287,0.860757999999805,
-1.04535632885742,0.503261188964844,0.0254264216308577,1.16046894896741,0.863785999999891,
-1.04775053051758,0.309330854492188,-0.0799184514160185,1.09537834131293,0.866750999999567,
-1.0956345637207,0.287783039550781,-0.0128808049316422,1.13287249512389,0.86969499999941,
-1.00944330395508,0.326090266113281,-0.0942836613769558,1.06498828836575,0.872738000000027,
-1.15788380688477,0.187226569824219,-0.0176692082519558,1.17305622184717,0.875693999999385,
-1.06450994213867,0.531991608886719,-0.125408282958986,1.19663015433871,0.878724000000147,
-0.896915825927735,0.412281525878906,0.0373974299316373,0.987842408052095,0.881682000000183,
-1.16746061352539,0.251870014648437,-0.0631590397949235,1.19598990494063,0.884611999999834,
-1.13873019360352,0.239899006347656,-0.034428619873049,1.16423507803933,0.887639999999919,
-0.999866497314453,0.469742365722656,-0.0559764348144558,1.10613031052455,0.890605999999934,
-1.01423170727539,0.345243879394531,-0.0296402165527372,1.07179188032912,0.893623999999363,
-1.08126935375977,0.208774384765625,-0.0440054265136745,1.10211915720442,0.896582999999737,
-1.14351859692383,0.282994636230469,0.00148440502929503,1.17801653176182,0.89953499999956,
-1.0573273371582,0.4673481640625,-0.0104866032714863,1.15605595591339,0.902570999999625,
-1.01423170727539,0.362003291015625,-0.0104866032714863,1.07695046664044,0.905578999999307,
-1.09802876538086,0.227927998046875,-0.0942836613769558,1.12539226525693,0.908727999999428,
-1.0740867487793,0.278206232910156,-0.0104866032714863,1.10958146198534,0.911792999999307,
-1.03817372387695,0.366791694335938,-0.051188031494144,1.10225271265287,0.914842999999564,
-1.0740867487793,0.335667072753906,-0.0655532414550812,1.12722311682281,0.917899000000034,
-1.06690414379883,0.292571442871094,-0.0392170231933626,1.10698711652256,0.920854999999392,
-1.0573273371582,0.304542451171875,-0.051188031494144,1.10150234545192,0.92389699999967,
-1.07169254711914,0.364397492675781,-0.0080924016113304,1.13197876975805,0.926864999999452,
-1.07648095043945,0.316513459472656,0.0110612116699187,1.12210264997904,0.929838000000018,
-1.0956345637207,0.328484467773438,-0.185263324462893,1.1587232811068,0.932867999999871,
-1.0740867487793,0.10342951171875,0.078098858154295,1.08187773775167,0.935824999999568,
-0.997472295654297,0.728316145019531,-0.235541559326174,1.25732860218153,0.938874999999825,
-1.08126935375977,0.220745393066406,0.190626336181639,1.11991532893614,0.941834999999628,
-1.1339417902832,0.0699106884765625,-0.16132130786133,1.1474911993057,0.944856999999502,
-1.08845195874023,0.362003291015625,-0.000909796630862658,1.14707230675381,0.947855999999774,
-1.07887515209961,0.503261188964844,-0.0416112248535185,1.19120733382987,0.950842999999622,
-1.0573273371582,0.354820686035156,-0.101466266357424,1.11988134208452,0.953893999999309,
-1.12675918530273,0.266235224609375,-0.0296402165527372,1.1581649273416,0.956863999999769,
-1.08366355541992,0.268629426269531,-0.0463996281738304,1.11742623716195,0.959898999999496,
-1.00704910229492,0.37158009765625,-0.0607648381347676,1.07513349355361,0.962881999999809,
-1.06690414379883,0.362003291015625,-0.106254669677737,1.13164521365558,0.965838000000076,
-1.11478817700195,0.254264216308594,-0.0751300480957049,1.14588284541013,0.968886999999995,
-1.06211574047852,0.309330854492188,-0.0487938298339863,1.10731940357918,0.971848000000136,
-1.08366355541992,0.345243879394531,-0.0320344182128931,1.13778128019183,0.974892999999611,
-1.09084616040039,0.385945307617187,-0.034428619873049,1.15762016913941,0.977863999999499,
-1.04056792553711,0.318907661132813,-0.106254669677737,1.09351440722751,0.980813999999555,
-1.15309540356445,0.299754047851563,0.0302148249511696,1.19180301835987,0.983863999999812,
-0.892127422607422,0.44819455078125,-0.111043072998049,1.00453982378949,0.986808999999994,
-1.17943162182617,0.158496149902344,-0.0368228215332049,1.19060316658534,0.989850999999362,
-1.22252725170898,0.266235224609375,-0.139773492919925,1.2589641398058,0.992804999999862,
-0.911281035888672,0.575087238769531,0.0158496149902323,1.07768718506867,0.995756999999685,
-0.911281035888672,0.529597407226563,-0.051188031494144,1.05523777163238,0.998779999999897,
-1.16506641186523,0.00526724365234373,0.0230322199707,1.16530595599139,1.00174100000004,
-1.27041128491211,0.247081611328125,-0.187657526123049,1.30774978592969,1.00477799999953,
-0.999866497314453,0.579875642089844,0.0206380183105441,1.15603403952512,1.00775199999953,
-0.884944817626953,0.364397492675781,-0.0799184514160185,0.960364421347403,1.01066899999933,
-1.11957658032227,0.117794721679687,-0.0607648381347676,1.12739508656692,1.01370399999996,
-1.19379683178711,0.309330854492188,-0.0703416447753931,1.2352264570173,1.01665700000012,
