X,Y,Z,Magnitude,Seconds,
-0.015322890625,0.0169988317871097,-0.0328484467773453,0.0400346314447411,0.0,
0.032561142578125,0.0193930334472658,-0.078338278320313,0.0870241552815687,0.00381000000015774,
-0.0320823022460938,-0.00215478149414028,-0.0376368500976572,0.0495020169889139,0.00753200000144716,
0.013407529296875,-0.0284909997558591,-0.0256658417968758,0.0406230764969516,0.0113560000008874,
0.0110133276367188,-0.0308852014160154,-0.00172382519531311,0.0328353563319411,0.0151410000016767,
-0.00814028564453125,-0.0117315881347655,0.00545877978515463,0.0152870104101863,0.0188770000004297,
0.0158017309570313,-0.00215478149414028,0.0294007963867173,0.0334476398673972,0.0226700000002893,
-0.0201112939453125,0.00502782348632835,-0.00651222851562672,0.0217290651755703,0.0264350000015838,
-0.005746083984375,0.00502782348632835,0.017429788085936,0.0190287677710829,0.0302130000000034,
-0.0320823022460938,-0.0380678063964841,-0.0113006318359385,0.0510503308622122,0.0339480000002368,
-0.005746083984375,-0.0189141931152341,-0.0472136567382826,0.0511848958673967,0.0377800000005664,
-0.00814028564453125,0.00263362182617222,0.0365834013671869,0.0375705399201361,0.0415420000008453,
-0.0272938989257813,-0.0117315881347655,0.0413718046874987,0.0509334202840833,0.0452890000015032,
-0.024899697265625,0.0146046301269533,0.0222181914062478,0.036427162590978,0.0492940000003728,
-0.0105344873046875,-0.0284909997558591,-0.0376368500976572,0.0483657417511042,0.0531230000015057,
-0.0416591088867188,-0.0452504113769528,-0.0160890351562522,0.0635762387632209,0.056934000000183,
-0.0129286889648438,-0.0308852014160154,0.0198239897460919,0.0389106313789775,0.0608260000008158,
-0.0177170922851563,0.00742202514648471,-0.0232716401367199,0.0301753384565739,0.0646910000014032,
0.013407529296875,-0.0189141931152341,-0.00890643017578263,0.0248361237217691,0.0685690000009345,
-0.0225054956054688,-0.0213083947753905,0.00545877978515463,0.0314697203211988,0.0723780000007537,
-0.0225054956054688,0.0433350500488283,-0.0328484467773453,0.0588510352573879,0.0761820000006992,
-0.0392649072265625,-0.0572214196777341,-0.00890643017578263,0.0699667657386135,0.0800080000008165,
-0.0368707055664063,0.00981622680664085,0.0102471831054682,0.0395071132744602,0.0838570000014442,
0.0110133276367188,0.0146046301269533,0.000670376464842803,0.0183040435801339,0.0877830000008544,
-0.0129286889648438,-0.0332794030761716,0.00545877978515463,0.0361174188474036,0.0915270000004966,
-0.0201112939453125,0.0648828649902347,-0.00172382519531311,0.0679501426547419,0.0952930000003107,
0.0086191259765625,-0.0476446130371091,-0.0328484467773453,0.0585091355237779,0.0990350000010949,
0.0205901342773438,-0.00454898315429664,-0.0232716401367199,0.0314040779509623,0.102786000001288,
0.0229843359375,0.00263362182617222,0.0772848295898427,0.0806731711732108,0.106550000000425,
0.00622492431640626,-0.0213083947753905,-0.0113006318359385,0.0249098705444308,0.110342000001765,
0.00622492431640626,0.00502782348632835,0.0150355864257801,0.0170322503187853,0.114111000000776,
0.0205901342773438,-0.00454898315429664,0.0724964262695291,0.0755008523074435,0.117930000000342,
-0.024899697265625,0.00981622680664085,-0.0280600434570317,0.0387778193230318,0.12191200000052,
-0.0560243188476563,0.0193930334472658,-0.056790463378908,0.0820973250442529,0.125706000000719,
-0.015322890625,-0.0237025964355466,-0.0160890351562522,0.032487860919907,0.129488000000492,
-0.0560243188476563,0.0265756384277347,0.0557370146484359,0.0833762775740528,0.133380000001125,
0.00622492431640626,0.0169988317871097,-0.0472136567382826,0.0505651989758946,0.137252000000444,
0.0229843359375,0.0505176550292972,0.0389776030273428,0.0678201054695733,0.141129999999976,
0.0229843359375,0.0361524450683597,-0.0256658417968758,0.0499401083103639,0.144931000000724,
-0.063206923828125,-0.0524330163574216,-0.0280600434570317,0.0867853816201931,0.148701000000074,
-0.0703895288085937,-0.0524330163574216,-0.0184832368164081,0.0896969175247673,0.15247200000158,
-0.0464475122070312,0.0146046301269533,-0.0974918916015639,0.10897401313808,0.15626599999996,
0.0924161840820313,0.00263362182617222,0.017429788085936,0.0940823286113169,0.16014400000131,
-0.0416591088867188,-0.00215478149414028,-0.056790463378908,0.0704647512399928,0.163871000000654,
-0.0512359155273438,0.0265756384277347,-0.0520020600585944,0.0776891102285543,0.167613999999958,
-0.024899697265625,0.0146046301269533,-0.0735498750000012,0.0790118614992755,0.171349000000191,
0.0541089575195313,0.0241814367675783,-0.0424252534179708,0.0728863724956447,0.175119000001359,
-0.0201112939453125,0.00742202514648471,-0.0639730683593758,0.0674692824679734,0.178852000000916,
-0.015322890625,-0.102711251220703,0.0150355864257801,0.104930743653112,0.182666000000609,
-0.0584185205078125,0.0912190832519533,0.0461602080078105,0.117747227105239,0.186407000001054,
0.0612915625,-0.105105452880859,-0.0687614716796894,0.139756759573692,0.190324000001056,
0.0181959326171875,-0.0117315881347655,-0.0663672700195335,0.069809287733214,0.194205000001602,
-0.0656011254882813,-0.0332794030761716,-0.0280600434570317,0.0787298696381877,0.197949000001245,
0.00383072265625,-0.0380678063964841,-0.0472136567382826,0.0607697433144956,0.201721000001271,
0.0229843359375,0.0433350500488283,0.0581312163085919,0.0760621099545536,0.205512000000454,
-0.005746083984375,-0.00215478149414028,-0.0711556733398453,0.0714198180681647,0.209410000001299,
-0.0464475122070312,-0.100317049560547,0.0557370146484359,0.12380426739283,0.213229000000865,
-0.00814028564453125,0.0792480749511721,0.0150355864257801,0.0810715146830763,0.217024000001402,
0.0876277807617187,-0.0428562097167966,0.0557370146484359,0.11234721836536,0.220829000001686,
-0.0392649072265625,-0.0213083947753905,-0.0136948334960945,0.0467261071768257,0.224637000001167,
-0.0464475122070312,-0.0356736047363279,0.0796790312499986,0.0988874384643688,0.228424000000814,
0.0229843359375,-0.0596156213378904,0.0557370146484359,0.0847874802545196,0.232263000001694,
0.0373495458984375,-0.0237025964355466,0.000670376464842803,0.0442408302500133,0.236058000000412,
-0.0105344873046875,-0.0237025964355466,0.0341891997070292,0.0429149143907585,0.239803000000393,
0.0086191259765625,0.0122104284667972,0.0270065947265614,0.0308664875660863,0.243597000000591,
-0.00814028564453125,0.0241814367675783,0.0246123930664055,0.0354510370366538,0.247321000000738,
0.00383072265625,-0.00933738647460913,0.0270065947265614,0.0288308407954061,0.251066000000719,
-0.0368707055664063,0.00742202514648471,-0.0113006318359385,0.039271359361895,0.25488900000164,
0.0086191259765625,-0.0883460412597654,-0.0184832368164081,0.0906694126047117,0.258710000000065,
0.00383072265625,0.0146046301269533,0.0437660063476546,0.0462972242022906,0.262739000001602,
0.04213794921875,0.105584293212891,0.0126413847656242,0.114382928562003,0.266574000001128,
-0.0464475122070312,-0.121864864501953,-0.0160890351562522,0.131404998544807,0.270370000000185,
-0.0368707055664063,0.0624886633300783,0.0198239897460919,0.0752148425724448,0.274188000001232,
0.0828393774414063,0.0433350500488283,-0.0136948334960945,0.0944872344928138,0.278025999999954,
-0.000957680664062498,-0.0835576379394529,0.0485544096679682,0.0966453656854787,0.282014000000345,
-0.0991199487304688,0.0888248815917971,0.0437660063476546,0.140107412857959,0.285848000001351,
-0.0272938989257813,-0.0907402429199217,0.0246123930664055,0.0979005541158598,0.289631999999983,
0.0373495458984375,0.0696712683105472,-0.0615788666992199,0.100204945141345,0.293464000000313,
-0.00814028564453125,0.0816422766113283,-0.114251303222657,0.140659467753617,0.297285000000556,
-5.10300141845703,17.5712854040527,-29.7712272675781,34.9444797821521,0.301058000000921,
19.583013348999,-20.6425672937012,9.45477418200684,29.9833745788362,0.304458000000523,
-19.6429881005859,-20.6425672937012,-29.7712272675781,41.2102965169207,0.307352000001629,
-6.63050207763672,18.5834341558838,-3.81808127148438,20.0968984528278,0.310283000000709,
9.57584895996094,18.5834341558838,2.49542850634766,21.0539324535904,0.313334000000395,
13.5286759008789,-4.57986835571289,9.45477418200684,17.1287191762672,0.316282000001593,
0.619140549316406,-20.6425672937012,-5.09897915966797,21.2720123158463,0.31930900000043,
-6.24024720703125,3.85729829467773,-10.9480138154297,13.1787116912779,0.322255000000951,
-9.515515078125,18.5834341558838,5.42353713671875,21.5709018657417,0.325164000001678,
0.255221896972656,4.37444585327149,0.108409451171873,4.38322567853879,0.328190000000177,
8.97251014160156,-15.9403552331543,1.02299448535156,18.3206817809096,0.331137000001036,
0.518584079589844,-3.71556155639648,0.256849954101561,3.76035889588979,0.334140000000843,
-0.518105239257813,6.62978381713867,-0.0735498750000012,6.65040420463694,0.337073000000601,
0.0995987890625,4.44148349975586,-0.69364810498047,4.49642561274278,0.34001200000057,
-2.28263186279297,-0.612676204833984,0.802727932617186,2.49602734095829,0.343029000001479,
-1.82773354736328,-6.62451657348633,-0.588303231933596,6.89716829178872,0.345952000001489,
1.84257759765625,-0.909557210693359,-0.150164328125001,2.06032420952388,0.348959000000832,
1.70131969970703,4.46542551635742,0.402896255371093,4.79550197115372,0.351986000001489,
-0.671334145507813,3.58435930541992,0.189812307617187,3.65162291007684,0.354998000000705,
0.887291135253906,-4.60859877563477,0.0270065947265614,4.69331413711475,0.358086000000185,
-0.510922634277344,-2.79139971557617,0.117986257812499,2.8402244748203,0.361069000000498,
-1.75830169921875,2.82539737915039,-0.195654159667971,3.33358302218211,0.364091000001281,
0.623928952636719,1.55647049926758,-0.17650054638672,1.68613172554917,0.367057000001296,
0.626323154296875,-1.6350003137207,0.235302139160154,1.7665995064441,0.370082000001275,
-0.101514150390625,-1.05560351196289,-0.147770126464845,1.07071934113163,0.373014000000694,
0.487459458007813,1.16860983032227,-0.133404916503908,1.27320953910757,0.375978000000032,
0.00622492431640626,0.950737479248047,0.12995726611328,0.959598559370174,0.379015000000436,
-0.68569935546875,-0.545638558349609,0.0605254179687496,0.878389645128169,0.381962000001295,
-0.396000954589844,-1.36206132446289,-0.0735498750000012,1.42036523181405,0.384966000001441,
0.339018955078125,0.249236392822266,-0.0424252534179708,0.422909604450996,0.387951000000612,
0.164242233886719,1.26198369506836,0.12995726611328,1.27924479636469,0.39090700000088,
0.101992990722656,-0.222421334228515,-0.0160890351562522,0.245219650780283,0.393950000001496,
0.226491477050781,-0.957441243896484,-0.0280600434570317,0.984265965443031,0.396912000000157,
-0.147003981933594,0.311485635986329,-0.0376368500976572,0.346482329441796,0.399935000001278,
-0.321780703125,0.598789835205078,0.017429788085936,0.679996974376552,0.402899000000616,
-0.22601263671875,-0.241574947509765,0.0461602080078105,0.334022352581727,0.405812000000878,
0.0469263525390625,-0.636618221435547,-0.0543962617187521,0.640658876248003,0.408817000001363,
0.133117612304688,0.316274039306641,-0.0304542451171894,0.344495323176814,0.411799000001338,
0.178607443847656,0.426407315673828,-0.0041180268554708,0.46232107458252,0.414839000000939,
0.0277727392578125,-0.243969149169922,-0.0113006318359385,0.245804749898104,0.41780000000108,
-0.168551796875,-0.287064779052734,-0.0735498750000012,0.34091858223761,0.420698000001721,
-0.103908352050781,0.143891519775391,-0.0304542451171894,0.180081026582032,0.42371600000115,
0.00383072265625,0.0313640417480472,-0.0400310517578131,0.0509986534692737,0.426699999999983,
-0.024899697265625,-0.184114107666015,-0.0520020600585944,0.192930593260661,0.429703000001609,
0.145088620605469,-0.0308852014160154,-0.0041180268554708,0.148396636218237,0.432670000000144,
0.111569797363281,0.158256729736328,-0.00651222851562672,0.193740603154735,0.435632000000624,
-0.0943315454101563,-0.0356736047363279,0.0294007963867173,0.105049766123135,0.438647000000856,
-0.139821376953125,-0.167354696044922,-0.0615788666992199,0.226604431918964,0.441564000000653,
-0.005746083984375,0.0624886633300783,-0.0160890351562522,0.0647820004182835,0.444593000000168,
-0.000957680664062498,0.103190091552735,-0.020877438476564,0.105285229658575,0.447544000000562,
-0.0129286889648438,-0.0189141931152341,-0.0520020600585944,0.0568252756252682,0.450456000000486,
0.0756567724609375,-0.210450325927734,-0.0256658417968758,0.225104469829983,0.453455000000758,
-0.044053310546875,0.0457292517089847,-0.0304542451171894,0.0704224373169585,0.456422000001112,
-0.132638771972656,0.105584293212891,-0.020877438476564,0.170812629044292,0.45943200000147,
-0.0105344873046875,-0.133835872802734,-0.0232716401367199,0.136251919275639,0.462370000001101,
-0.0272938989257813,0.0193930334472658,0.0437660063476546,0.0551045368048809,0.465385000001334,
-0.0129286889648438,0.0792480749511721,-0.0113006318359385,0.0810870684000088,0.46833400000105,
0.0205901342773438,0.00502782348632835,0.000670376464842803,0.0212057077970375,0.471287000000302,
-0.00814028564453125,-0.0332794030761716,-0.0352426484375012,0.0491510649769684,0.474265000000742,
-0.063206923828125,0.0529118566894533,0.0509486113281241,0.0969048027416799,0.477210000000923,
-0.0105344873046875,0.00263362182617222,0.0341891997070292,0.0358721725478544,0.480213000000731,
-0.0656011254882813,0.0553060583496097,-0.277057016113282,0.290039407551966,0.483149000001504,
-0.14939818359375,0.910036051025391,-1.01447112744141,1.37099857762116,0.486073000000033,
0.171424838867188,1.92038915161133,-0.679282895019533,2.04418840141344,0.489115000000311,
2.40042658447266,-4.5463495324707,6.66612779833984,8.41834910672151,0.492158000000927,
-1.58831338134766,-4.06272079711914,-3.77737984326172,5.77035858097158,0.495244000001549,
-4.15489756103516,7.44860078491211,-3.61696833203125,9.26430177134824,0.498289000001023,
4.045243125,1.30029092163086,3.01975866992187,5.21283903893106,0.501291000000492,
-0.063206923828125,-3.1672893762207,0.242484744140624,3.17718679952585,0.504265000001396,
-1.88280018554688,-1.2686874597168,-1.09347978222656,2.51996080193249,0.50720100000035,
1.27515180419922,1.23085907348633,0.491481716796875,1.83917928992302,0.510233000000881,
-0.125456166992188,1.70730520385742,-0.549996005371096,1.79808951803829,0.513194000001022,
-1.56676556640625,0.512598575439454,0.0844674345703105,1.65065029219449,0.516131000000314,
0.27198130859375,-3.06673290649414,0.273609365722654,3.09090385437812,0.519131000000925,
1.593580625,-0.141018477783203,-0.119039706542971,1.60423061658401,0.522075000000768,
-0.786255825195313,3.25635367797852,0.0724964262695291,3.35071533117327,0.525095000000874,
-0.0608127221679688,-0.299035787353515,0.0365834013671869,0.307341722763455,0.528022000000419,
0.717302817382813,-2.83210114379883,-0.0543962617187521,2.9220333971091,0.530963000001066,
-0.862870278320313,0.811873782958985,-0.0184832368164081,1.1849159407772,0.534018000000287,
-0.826957253417969,1.95390797485352,-0.0184832368164081,2.12178139854698,0.536982999999964,
0.719697019042969,-0.102711251220703,0.0461602080078105,0.728453269022785,0.540001000001212,
0.334230551757813,-1.14418897338867,-0.0496078583984385,1.19303789049947,0.542965000000549,
-0.345722719726563,0.404859500732422,0.0940442412109359,0.540629016584735,0.545901000001322,
0.355778366699219,0.598789835205078,0.0126413847656242,0.696625665307331,0.548921000001428,
0.032561142578125,-0.152989486083984,-0.0328484467773453,0.15982813054628,0.551852000000508,
-0.621055910644531,-0.334948812255859,-0.0113006318359385,0.705711594957891,0.554857000000993,
0.0852335791015625,-0.152989486083984,-0.00172382519531311,0.175138566375336,0.557792000001427,
0.305500131835938,0.354581265869141,-0.0232716401367199,0.468614739302757,0.560832000001028,
-0.135032973632813,0.313879837646485,-0.0136948334960945,0.341967841929017,0.56378500000028,
0.08044517578125,-0.382832845458984,-0.0472136567382826,0.394032413960196,0.566727000001265,
0.173819040527344,0.00981622680664085,0.00785298144531055,0.174273022800852,0.569782000000487,
-0.281079274902344,0.388100089111328,0.0748906279296868,0.48501117935523,0.572736000000077,
-0.0272938989257813,-0.629435616455078,0.20657171923828,0.663027923521938,0.575715000000855,
-0.0967257470703125,-0.514513936767578,-0.0113006318359385,0.52364889530512,0.578660000001037,
-0.285867678222656,0.823844791259766,-0.312970041015626,0.926493829505401,0.581582000000708,
0.336624753417969,0.143891519775391,-0.0041180268554708,0.366111939469559,0.584627000000182,
0.245645090332031,-0.509725533447265,0.017429788085936,0.566096659030109,0.58760600000096,
-0.154186586914063,0.117555301513672,-0.0232716401367199,0.195280110950478,0.590628000001743,
-0.0129286889648438,0.34261025756836,-0.0113006318359385,0.343040294818697,0.593580000000657,
-0.0991199487304688,-0.203267720947265,0.00785298144531055,0.226283450417848,0.596507000000202,
-0.235589443359375,-0.220027132568359,0.00306457812499872,0.32237201573294,0.599502000000939,
0.0684741674804688,0.0768538732910158,0.0365834013671869,0.109240902172984,0.602475000001505,
0.169030637207031,0.220505972900391,-0.0041180268554708,0.277869031280107,0.605505000001358,
-0.0847547387695313,-0.00454898315429664,-0.020877438476564,0.0874066726799063,0.608428000001368,
-0.0368707055664063,-0.23199814086914,-0.0232716401367199,0.236059644010481,0.611353000000236,
-0.0464475122070312,0.0529118566894533,0.0317949980468732,0.0772525589825233,0.61439000000064,
-0.118273562011719,0.167833536376953,-0.00172382519531311,0.205328280996647,0.617337000001498,
0.0445321508789063,-0.179325704345703,0.00306457812499872,0.18479776064679,0.620366000001013,
0.130723410644531,-0.141018477783203,0.0701022246093732,0.204668373379996,0.623326000000816,
-0.0392649072265625,0.194169754638672,-0.0280600434570317,0.200077466484267,0.626283000001422,
-0.0464475122070312,0.00981622680664085,-0.0113006318359385,0.0487999383076778,0.629337000000305,
-0.00335188232421875,-0.200873519287109,0.00306457812499872,0.200924855368837,0.632387999999992,
-0.0751779321289062,0.0289698400878908,0.0294007963867173,0.0857635117172193,0.635481000001164,
0.0158017309570313,0.143891519775391,-0.0591846650390639,0.156388262795826,0.638542000000598,
0.106781394042969,-0.0620098229980467,-0.0400310517578131,0.129807431862916,0.641470000000481,
0.0086191259765625,-0.0715866296386717,-0.0424252534179708,0.0836590521294811,0.644475000000966,
-0.0656011254882813,0.117555301513672,0.000670376464842803,0.134622457204971,0.647421000001486,
-0.0512359155273438,0.00742202514648471,-0.0352426484375012,0.0626278673282866,0.650431000000026,
-0.0368707055664063,-0.0620098229980467,-0.0448194550781267,0.0849320353618934,0.653410000000804,
-0.0320823022460938,-0.00933738647460913,0.0150355864257801,0.036640548068404,0.656424000000698,
0.0301669409179688,0.0529118566894533,0.0437660063476546,0.075001148086522,0.659410000000207,
-0.000957680664062498,-0.0476446130371091,0.0605254179687496,0.0770340997481116,0.662342999999964,
-0.03447650390625,-0.0332794030761716,-0.00651222851562672,0.0483586301599178,0.665345000001253,
-0.0512359155273438,-0.00694318481445277,0.0437660063476546,0.0677406094371441,0.668315000000803,
-0.0320823022460938,0.0409408483886722,-0.020877438476564,0.0560472534700557,0.671363000001293,
-0.0416591088867188,0.00981622680664085,0.0341891997070292,0.0547790200584314,0.674371000000974,
0.032561142578125,-0.0237025964355466,-0.00651222851562672,0.0407976740025594,0.677287000000433,
-0.0225054956054688,0.0361524450683597,-0.0256658417968758,0.0497215451490679,0.680316000001767,
-0.00335188232421875,-0.00933738647460913,-0.0639730683593758,0.064737743060791,0.683238000001438,
-0.0464475122070312,-0.0667982263183592,-0.0496078583984385,0.0952906818339578,0.686231000001499,
-0.0225054956054688,-0.026096798095703,-0.0113006318359385,0.0362662995518855,0.689154000001508,
-0.0608127221679688,0.0337582434082033,-0.0543962617187521,0.088299260837569,0.692080000000715,
0.0181959326171875,0.0241814367675783,-0.0256658417968758,0.0396808427719961,0.695111000000907,
0.032561142578125,-0.0452504113769528,-0.0615788666992199,0.0830649418210639,0.698065000000497,
-0.0368707055664063,-0.00933738647460913,-0.0113006318359385,0.0396779535136612,0.701075000000856,
-0.00335188232421875,0.0217872351074222,-0.0687614716796894,0.0722084393703272,0.704050000000279,
-0.03447650390625,-0.00454898315429664,0.0294007963867173,0.045538219085829,0.706983000000037,
-0.0177170922851563,-0.016519991455078,-0.0041180268554708,0.0245716019400236,0.709987000000183,
0.0493205541992188,0.0313640417480472,-0.020877438476564,0.062065188460473,0.712948000000324,
0.0086191259765625,0.0122104284667972,-0.0184832368164081,0.0237700218585101,0.71599100000094,
-0.005746083984375,-0.0596156213378904,-0.00890643017578263,0.0605505102136582,0.718915000001289,
-0.005746083984375,-0.0476446130371091,-0.00890643017578263,0.0488093344667539,0.721825000000536,
0.00143652099609375,0.0409408483886722,0.000670376464842803,0.0409715274789832,0.724865000000136,
-0.024899697265625,0.00263362182617222,0.0413718046874987,0.0483586301599167,0.727842000000237,
0.0158017309570313,-0.016519991455078,0.0341891997070292,0.0411279247655577,0.730873000000429,
-0.015322890625,0.0241814367675783,-0.0041180268554708,0.0289221542495105,0.733816000001752,
-0.024899697265625,-0.016519991455078,-0.0184832368164081,0.0351359514572616,0.736738000001424,
-0.03447650390625,-0.0237025964355466,0.0294007963867173,0.0511355964818762,0.739764000001742,
-0.00335188232421875,-0.0284909997558591,-0.00890643017578263,0.0300382536223374,0.74269600000116,
-0.000957680664062498,0.0122104284667972,-0.0232716401367199,0.0262979267291185,0.745722000001479,
-0.024899697265625,-0.00694318481445277,0.0270065947265614,0.037383939038204,0.748672000001534,
-0.0320823022460938,0.0122104284667972,0.000670376464842803,0.0343339203318977,0.751710000000458,
-0.0129286889648438,0.0169988317871097,-0.0400310517578131,0.0453717575735482,0.754654000000301,
-0.0105344873046875,0.0337582434082033,0.00306457812499872,0.0354962823386386,0.757604000000356,
-0.00814028564453125,-0.00933738647460913,-0.0136948334960945,0.0184661718024209,0.760584999999992,
0.0181959326171875,0.00263362182617222,0.017429788085936,0.0253342740265664,0.763562000000093,
0.00383072265625,0.0313640417480472,-0.0256658417968758,0.0407076526710226,0.766570000001593,
-0.0201112939453125,-0.0213083947753905,-0.0041180268554708,0.0295883419143593,0.769588000001022,
-0.0201112939453125,-0.00933738647460913,0.0270065947265614,0.0349429118571379,0.772593000001507,
-0.00335188232421875,-0.0213083947753905,-0.00172382519531311,0.0216391861289489,0.775684000000183,
-0.0296881005859375,0.0409408483886722,-0.0352426484375012,0.0616407385750227,0.778741000000082,
-0.024899697265625,-0.0667982263183592,0.017429788085936,0.0733879790968462,0.781777000000147,
-0.044053310546875,-0.00933738647460913,-0.00651222851562672,0.045500440399576,0.784735000001092,
-0.00814028564453125,0.00742202514648471,0.00545877978515463,0.0122942663218439,0.787725000000137,
0.00143652099609375,-0.00215478149414028,-0.0615788666992199,0.06163329862842,0.790768000000753,
0.00622492431640626,0.00742202514648471,-0.0591846650390639,0.0599721661757038,0.793742000001657,
-0.024899697265625,-0.026096798095703,-0.0160890351562522,0.039495504136886,0.796764000000621,
-0.0177170922851563,-0.0476446130371091,0.00306457812499872,0.0509244160455555,0.799732000001313,
0.0086191259765625,0.00742202514648471,-0.0256658417968758,0.028073318738923,0.80269700000099,
-0.0488417138671875,0.00981622680664085,0.0437660063476546,0.0663124018101182,0.805747000000338,
-0.0296881005859375,0.000239420166015858,-0.0232716401367199,0.0377228030913615,0.808734000000186,
0.0181959326171875,-0.0284909997558591,0.0341891997070292,0.0480804576465815,0.811828000001697,
-0.00335188232421875,-0.0141257897949216,0.00545877978515463,0.0155103619941165,0.814782000001287,
-0.0201112939453125,0.00742202514648471,-0.0352426484375012,0.0412503923656385,0.8177340000002,
-0.0320823022460938,-0.0213083947753905,-0.0831266816406266,0.0916153208033225,0.820752000001448,
-0.03447650390625,-0.00933738647460913,0.0198239897460919,0.0408510303080233,0.823730000000069,
-0.0105344873046875,0.000239420166015858,-0.0400310517578131,0.0413946596751951,0.826756000000387,
-0.00814028564453125,0.0146046301269533,0.0294007963867173,0.0338225708616729,0.829736000001503,
-0.0272938989257813,-0.0404620080566404,-0.0280600434570317,0.0562982864158129,0.832652000000962,
0.013407529296875,-0.00454898315429664,-0.0136948334960945,0.0196978058186791,0.835664000000179,
0.0541089575195313,0.00742202514648471,-0.0304542451171894,0.0625326057891669,0.83864000000176,
-0.0177170922851563,-0.0284909997558591,0.0270065947265614,0.043069578415093,0.841685000001235,
0.0229843359375,-0.0380678063964841,0.0557370146484359,0.0713025412187253,0.844647000001714,
0.00383072265625,0.00742202514648471,0.0150355864257801,0.0171997021053058,0.847686000000976,
-0.0177170922851563,0.0289698400878908,0.0317949980468732,0.046519553894673,0.850636000001032,
-0.0225054956054688,-0.0356736047363279,0.0605254179687496,0.0737728244519847,0.853565000001254,
-0.0296881005859375,-0.0141257897949216,-0.0136948334960945,0.0356155825196894,0.856614000000263,
-0.0416591088867188,-0.016519991455078,-0.0520020600585944,0.0686484211125719,0.85958600000049,
0.00143652099609375,-0.00694318481445277,-0.00890643017578263,0.0113840197828341,0.862607000000935,
0.0086191259765625,-0.0237025964355466,-0.0376368500976572,0.0453060139016859,0.865580000001501,
0.0158017309570313,-0.0117315881347655,-0.0041180268554708,0.0201067900616819,0.86851900000147,
-0.0201112939453125,0.00742202514648471,-0.0280600434570317,0.0353117068440528,0.871542000000773,
-0.000957680664062498,-0.0332794030761716,-0.0280600434570317,0.0435408068387706,0.874470000000656,
-0.015322890625,-0.0141257897949216,0.0150355864257801,0.0256982056494831,0.877485000000888,
-0.03447650390625,0.0337582434082033,0.0317949980468732,0.0577855537345265,0.880447000001368,
0.0086191259765625,-0.0117315881347655,-0.0160890351562522,0.0216973856725354,0.883388000000195,
-0.0201112939453125,-0.0117315881347655,0.0461602080078105,0.0516997012335939,0.886402000000089,
-0.0272938989257813,-0.016519991455078,0.0102471831054682,0.0335092792796802,0.889347000000271,
-0.0296881005859375,-0.0548272180175778,-0.0400310517578131,0.0740938071419229,0.89238000000114,
-0.015322890625,0.00263362182617222,-0.0232716401367199,0.0279874288865911,0.895361000000776,
-0.005746083984375,-0.00933738647460913,0.0246123930664055,0.0269439076562207,0.898278000000573,
-0.00335188232421875,-0.026096798095703,0.017429788085936,0.0315606637871248,0.901286000000255,
-0.044053310546875,0.000239420166015858,-0.0639730683593758,0.0776743520569607,0.90425200000027,
0.00143652099609375,-0.00933738647460913,0.0102471831054682,0.0139375442724113,0.907335000001694,
-0.03447650390625,0.00263362182617222,0.0150355864257801,0.0377045639768989,0.910404000000199,
-0.015322890625,-0.0476446130371091,0.0413718046874987,0.0649340153668485,0.913415000000896,
-0.000957680664062498,-0.0213083947753905,0.0198239897460919,0.0291196739269409,0.916514000000461,
-0.005746083984375,0.000239420166015858,0.00306457812499872,0.00651662813543987,0.919479000000138,
-0.000957680664062498,-0.00933738647460913,-0.0160890351562522,0.0186268889160174,0.922474000000875,
-0.0225054956054688,-0.0237025964355466,-0.0711556733398453,0.0783035137058417,0.925409000001309,
0.013407529296875,-0.0332794030761716,-0.0280600434570317,0.0455482881101296,0.928354000001491,
0.0229843359375,-0.00454898315429664,-0.0136948334960945,0.0271389279580399,0.931396000001769,
0.0181959326171875,-0.0237025964355466,0.0389776030273428,0.049113731067317,0.934358000000429,
0.0181959326171875,-0.0237025964355466,0.0246123930664055,0.0387127231546795,0.937392000001637,
-0.0201112939453125,-0.00454898315429664,-0.0232716401367199,0.0310922277514145,0.940348000000085,
0.00143652099609375,0.00502782348632835,-0.0328484467773453,0.0332620362766019,0.943381000000954,
-0.0201112939453125,-0.0284909997558591,-0.0184832368164081,0.0394693710927163,0.946336000000883,
-0.00335188232421875,-0.0332794030761716,-0.0160890351562522,0.0371161802517558,0.949274000000514,
0.0086191259765625,-0.0117315881347655,-0.0328484467773453,0.0359296527738262,0.952316000000792,
0.00143652099609375,0.00742202514648471,0.00306457812499872,0.00815730892705984,0.955297000000428,
-0.0105344873046875,-0.0141257897949216,-0.0280600434570317,0.0331342632166983,0.958274000000529,
0.013407529296875,0.0265756384277347,-0.0759440766601571,0.0815691680688976,0.961256000000503,
0.00143652099609375,0.0146046301269533,-0.0376368500976572,0.0403966743555809,0.964209000001574,
-0.0177170922851563,-0.0237025964355466,-0.0472136567382826,0.0557210715925987,0.967208000000028,
-0.015322890625,-0.0356736047363279,0.0509486113281241,0.0640558978412896,0.970146999999997,
-0.0105344873046875,-0.0189141931152341,0.00306457812499872,0.0218658126548549,0.973154000001159,
-0.000957680664062498,-0.0117315881347655,-0.00172382519531311,0.0118961710529937,0.976080000000366,
-0.0296881005859375,0.00263362182617222,-0.0304542451171894,0.0426119739742468,0.979075000001103,
-0.0129286889648438,0.00502782348632835,0.0413718046874987,0.0436354927835115,0.982139000001553,
-0.0296881005859375,-0.016519991455078,-0.0232716401367199,0.0411808531811761,0.985108000000764,
0.013407529296875,-0.0380678063964841,0.0246123930664055,0.0472725038277221,0.988157000001593,
-0.000957680664062498,0.0122104284667972,0.00785298144531055,0.014549262289803,0.991115000000718,
-0.0177170922851563,-0.0428562097167966,-0.0232716401367199,0.0518856367888435,0.994016000000556,
0.0277727392578125,-0.00215478149414028,-0.0352426484375012,0.0449222928851504,0.997038000001339,
-0.0105344873046875,0.00742202514648471,-0.0328484467773453,0.0352857242483665,0.99998400000004,
-0.00814028564453125,0.00981622680664085,-0.0160890351562522,0.0205299686154922,1.00300200000129,
-0.005746083984375,-0.0548272180175778,0.00306457812499872,0.0552126159114629,1.0059680000013,
-0.0320823022460938,-0.00215478149414028,-0.0735498750000012,0.0802714227680873,1.00889300000017,
-0.0201112939453125,0.0193930334472658,0.0222181914062478,0.0356959650353678,1.01193200000125,
0.013407529296875,0.00263362182617222,0.00785298144531055,0.0157596676154748,1.01491300000089,
