X,Y,Z,Magnitude,Seconds,
0.0104866032714843,-0.0186747729492188,0.00148440502929503,0.0214690347051136,0.0,
0.00330399829101552,0.0148440502929687,0.0373974299316373,0.0403711530588233,0.0039600000000064,
-0.00387860668945322,-0.01149216796875,-0.0128808049316422,0.0176926156958335,0.00778700000046229,
0.0583706364746093,-0.0138863696289063,-0.0248518132324236,0.0649428601530673,0.0118400000001202,
-0.00866701000976572,-0.00191536132812502,0.0445800349121068,0.0454550897512184,0.0159089999997377,
-0.00387860668945322,-0.0617704028320313,0.0350032282714814,0.0711045163495845,0.0198179999997592,
-0.0517626398925782,-0.01149216796875,-0.00569819995117449,0.0533283254561238,0.0238129999997909,
-0.00387860668945322,-0.0186747729492188,0.039791631591795,0.0441266889681685,0.027737999999772,
-0.020638018310547,-0.00430956298828127,0.0613394465332,0.064861605237118,0.0316050000001269,
-0.039791631591797,-0.03064578125,0.0493684382324187,0.0704257094154421,0.0354269999997996,
-0.0326090266113282,-0.021068974609375,0.0350032282714814,0.0522730934329913,0.0394999999998618,
0.0152750065917968,0.00047884033203123,0.0493684382324187,0.0516797620732831,0.0434880000002522,
-0.0278206232910157,-0.0186747729492188,0.039791631591795,0.0520202669134119,0.0473069999998188,
-0.011061211669922,0.00287304199218748,-0.0248518132324236,0.0273535627448227,0.0512770000004821,
-0.0158496149902345,-0.0162805712890625,0.0230322199707,0.0323535230479715,0.0551690000002054,
0.0320344182128905,-0.0617704028320313,0.0757046564941373,0.102825004892609,0.0590840000004391,
0.00809240161132801,-0.01149216796875,0.00866701000976278,0.0165128420016155,0.0629840000001423,
-0.0158496149902345,-0.0162805712890625,-0.051188031494144,0.0560043022015487,0.0668009999999413,
0.0320344182128905,-0.00909796630859377,-0.0128808049316422,0.0357056308847456,0.0705779999998413,
-0.0373974299316407,-0.0138863696289063,0.0278206232910136,0.0486352352442453,0.0744199999999182,
-0.0182438166503907,-0.0450109912109375,0.0565510432128882,0.0745442597671351,0.0782650000001013,
-0.011061211669922,0.0292092602539062,-0.0320344182128931,0.0447407558991327,0.0820700000003853,
-0.0230322199707032,-0.040222587890625,0.0158496149902323,0.0489852021404068,0.0860030000003462,
-0.00627280834960947,-0.0162805712890625,-0.0080924016113304,0.0192325788683744,0.0900730000003023,
-0.0350032282714844,-0.021068974609375,0.0326090266113255,0.0522730934329916,0.0940150000005815,
-0.0230322199707032,0.00047884033203123,-0.00569819995117449,0.0237314543912927,0.0978890000005777,
-0.00148440502929698,-0.0426167895507813,0.039791631591795,0.0583246787787444,0.101783000000069,
-0.011061211669922,-0.0234631762695313,0.0541568415527323,0.0600486014094388,0.105559999999969,
0.00569819995117177,-0.0162805712890625,0.00627280834960686,0.0183541441852427,0.109390000000531,
0.00330399829101552,0.00287304199218748,0.0948582697753881,0.0949592655814914,0.113425000000461,
-0.0445800349121095,-0.00909796630859377,0.0110612116699187,0.0468241701189028,0.117296000000351,
-0.00148440502929698,0.00526724365234373,0.0230322199707,0.0236734127400946,0.121173999999883,
-0.00387860668945322,-0.0354341845703125,-0.051188031494144,0.0623765949235763,0.125023999999939,
-0.0278206232910157,-0.0138863696289063,-0.0368228215332049,0.0481947977217197,0.12887099999989,
-0.030214824951172,-0.01149216796875,-0.0200634099121118,0.0380466291378533,0.132682999999815,
-0.00866701000976572,-0.0330399829101563,0.0852814631347627,0.0918677608719113,0.136551000000509,
-0.030214824951172,0.0124498486328125,0.0110612116699187,0.0345005040748197,0.140368000000308,
-0.0278206232910157,0.00526724365234373,0.0589452448730441,0.0653932169963896,0.144153000000188,
0.0224576115722656,-0.0234631762695313,0.00866701000976278,0.0336152052008489,0.148003000000244,
0.0224576115722656,-0.0521935961914063,0.0637336481933577,0.0853843879931046,0.151808000000528,
-0.00387860668945322,0.0196324536132812,0.0469742365722627,0.0510593353489449,0.155646000000161,
-0.0158496149902345,-0.00909796630859377,0.0158496149902323,0.0241907747215663,0.15959600000042,
-0.030214824951172,-0.01149216796875,0.0230322199707,0.0396924265853152,0.163524000000507,
-0.058945244873047,-0.0282515795898438,0.0565510432128882,0.0864332929543396,0.16747099999975,
0.000909796630859272,-0.0138863696289063,-0.0392170231933626,0.0416129054444517,0.171339999999873,
-0.011061211669922,0.0220266552734375,-0.0559764348144558,0.0611627762669313,0.175243000000592,
0.0176692082519531,-0.00191536132812502,0.0373974299316373,0.0414057640282109,0.179095000000416,
-0.0182438166503907,0.00766144531249998,-0.0272460148925813,0.0336731334713041,0.183023000000503,
-0.0278206232910157,0.00047884033203123,0.0517626398925763,0.0587672294481603,0.187081000000035,
-0.0278206232910157,-0.0354341845703125,-0.0176692082519558,0.0483918323347501,0.190974000000097,
-0.00387860668945322,-0.0186747729492188,0.0158496149902323,0.0247992142999519,0.19489700000031,
0.000909796630859272,-0.0138863696289063,0.0134554133300764,0.0193573536224178,0.198851000000104,
-0.0326090266113282,-0.03064578125,0.0110612116699187,0.0460962355140624,0.202702999999929,
-0.0421858332519532,-0.0282515795898438,-0.0152750065917999,0.0530200160586774,0.206557999999859,
-0.00387860668945322,0.0292092602539062,0.0421858332519509,0.0514574484559165,0.210388000000421,
-0.020638018310547,0.00047884033203123,0.0302148249511696,0.0365936160372253,0.214329999999791,
-0.011061211669922,-0.01149216796875,-0.00330399829101857,0.0162891599825109,0.218209999999999,
0.0392170231933593,-0.03064578125,0.0469742365722627,0.0684376922325573,0.222085000000334,
-0.0182438166503907,-0.00670376464843752,-0.0320344182128931,0.0374697378783633,0.225887000000512,
-0.011061211669922,-0.021068974609375,0.00627280834960686,0.0246089459198927,0.229828999999881,
-0.0134554133300782,-0.0162805712890625,-0.000909796630862658,0.0211407871019748,0.23385000000053,
0.0272460148925781,0.0244208569335937,-0.0128808049316422,0.0387896728084249,0.237809000000198,
-0.039791631591797,-0.0354341845703125,-0.0080924016113304,0.0538928784232141,0.24177200000031,
-0.0278206232910157,-0.04979939453125,-0.00330399829101857,0.0571391562825945,0.245633000000453,
0.00569819995117177,-0.00430956298828127,-0.0703416447753931,0.0707035275325148,0.249483000000509,
-0.049368438232422,-0.00909796630859377,0.0182438166503882,0.0534121009737845,0.253308000000288,
-0.0134554133300782,-0.0450109912109375,0.00387860668945095,0.0471389548836819,0.257271000000401,
-0.0158496149902345,-0.040222587890625,-0.0248518132324236,0.049866617018773,0.261261999999988,
-0.0254264216308595,0.0100556469726562,-0.034428619873049,0.0439653138206909,0.265177000000222,
-0.020638018310547,-0.0378283862304688,0.0230322199707,0.0488610045063208,0.269266000000243,
0.00809240161132801,-0.03064578125,0.0517626398925763,0.0606961428833037,0.273290000000088,
-0.0278206232910157,-0.00430956298828127,-0.000909796630862658,0.0281671287738047,0.277221000000281,
-0.00627280834960947,-0.0569819995117188,0.0110612116699187,0.0583836175356683,0.281149999999798,
-0.00627280834960947,0.00287304199218748,0.0110612116699187,0.0130365984246869,0.285061999999925,
-0.0445800349121095,-0.040222587890625,0.0373974299316373,0.0707375703206979,0.289104999999836,
-0.0158496149902345,-0.0234631762695313,0.0302148249511696,0.0414085327296631,0.293078000000605,
0.00569819995117177,-0.021068974609375,0.0254264216308577,0.0335093134922841,0.297019999999975,
-0.0134554133300782,0.017238251953125,0.0206380183105441,0.0300688090563796,0.300897000000077,
-0.0230322199707032,-0.00430956298828127,0.135559697998044,0.137569935709986,0.304904000000533,
-0.0254264216308595,-0.04979939453125,-0.491721136962893,0.49489004753451,0.308807999999772,
0.0535822331542968,-0.174297880859375,0.832272381103513,0.852014156765943,0.312837999999829,
0.00809240161132801,-0.131202250976563,-0.987320880615236,0.996033151518563,0.315779999999904,
-0.109223479736328,0.548751020507813,0.463565325439451,0.72660185933141,0.318774999999732,
-0.0469742365722657,-0.351468803710938,0.133165496337888,0.378774270903477,0.321867000000566,
0.405529877197266,-1.2947842578125,-0.31455021411133,1.39278950052626,0.324862999999823,
-0.353432049072266,1.23109849365234,0.0206380183105441,1.28099322487837,0.327956000000086,
-0.44680591381836,1.37714479492188,0.473142132080076,1.5231634147237,0.330918000000565,
0.738323907958984,-2.10641862060547,-0.613825421630862,2.31493050576849,0.33386900000005,
0.285819794189453,-0.981143840332031,0.245692974365232,1.05104768104231,0.336946000000353,
-0.995078093994141,2.35397907226563,0.284000200927732,2.57139145210109,0.339888000000428,
0.216387946044922,0.242293208007812,-0.331309625732425,0.463999795197387,0.34299800000008,
0.762265924560547,-1.946007109375,0.305548015869139,2.11219142112777,0.346062999999958,
-0.482718938720703,0.268629426269531,-0.192445929443362,0.584991263367975,0.34905500000059,
-0.267240789306641,1.04913916748047,0.140348101318358,1.09169969394267,0.352171999999882,
0.240329962646484,-0.231758720703125,-0.0248518132324236,0.334795770864193,0.355150000000322,
0.161321307861328,-0.4520252734375,-0.111043072998049,0.492627624334229,0.358240000000478,
-0.140348101318359,-0.174297880859375,0.0733104548339814,0.235481981484152,0.361219000000347,
-0.262452385986328,0.163284553222656,-0.0416112248535185,0.31188875302718,0.364185000000361,
0.225964752685547,0.335667072753906,0.0685220515136695,0.410399469701239,0.367296000000351,
0.194840131103516,-0.224576115722656,0.0685220515136695,0.305110438997346,0.370278000000326,
-0.252875579345703,-0.305978972167969,-0.0847068547363303,0.405887227290677,0.373303999999735,
-0.157107512939453,0.14173673828125,-0.00569819995117449,0.211670836638663,0.376279000000068,
0.240329962646484,0.194409174804687,0.0804930598144509,0.319425344755536,0.379345999999714,
0.0775242497558593,-0.100077629394531,-0.0104866032714863,0.127025627546616,0.382301000000552,
-0.195414739501953,-0.193451494140625,-0.0176692082519558,0.275540563112053,0.385299000000487,
-0.011061211669922,0.0124498486328125,0.0254264216308577,0.0303949346361678,0.388396000000284,
0.0871010563964843,0.18004396484375,0.0373974299316373,0.203472334894778,0.391389999999774,
-0.00866701000976572,0.0100556469726562,0.0182438166503882,0.0225625784103026,0.394395000000259,
0.0152750065917968,-0.171903679199219,-0.0296402165527372,0.175107804468849,0.397407999999814,
-0.00387860668945322,-0.00909796630859377,0.0541568415527323,0.0550525209937885,0.400360999999975,
-0.142742302978516,0.10342951171875,0.0421858332519509,0.181253064749678,0.403438000000278,
0.0392170231933593,0.017238251953125,0.0493684382324187,0.0653634066741937,0.406409000000167,
0.106254669677734,-0.147961662597656,-0.034428619873049,0.185386186900076,0.409486999999899,
-0.0637336481933595,0.0531512768554687,0.0421858332519509,0.0930950088380844,0.412546000000475,
-0.135559697998047,0.101035310058594,-0.0128808049316422,0.169559667184283,0.415522000000237,
0.0416112248535155,-0.0689530078125,0.0134554133300764,0.0816520634649469,0.418617000000268,
0.075130048095703,-0.0617704028320313,0.0828872614746068,0.127790472679515,0.42160800000056,
-0.0852814631347657,0.093852705078125,0.0373974299316373,0.132211292900341,0.424646999999823,
-0.0613394465332032,-0.00670376464843752,0.0110612116699187,0.0626882649709504,0.427641000000222,
-0.00148440502929698,-0.04979939453125,0.0350032282714814,0.0608884976280047,0.430645999999797,
-0.0278206232910157,-0.0426167895507813,-0.0392170231933626,0.0642507022534768,0.433775999999853,
-0.0661278498535157,0.0603338818359375,0.0230322199707,0.0924313419810656,0.436781000000337,
0.0176692082519531,-0.00909796630859377,0.039791631591795,0.0444786224600125,0.439916000000267,
0.00809240161132801,-0.078529814453125,-0.0248518132324236,0.0827649161349212,0.442909000000327,
-0.058945244873047,0.036391865234375,0.0948582697753881,0.117460636356018,0.445921999999882,
0.000909796630859272,0.02681505859375,0.0158496149902323,0.0311622430616662,0.449056999999812,
-0.00866701000976572,-0.04979939453125,-0.0272460148925813,0.0574233583632587,0.452068999999938,
-0.0278206232910157,-0.0186747729492188,-0.0296402165527372,0.0447356307913349,0.455120999999963,
-0.078098858154297,0.00766144531249998,-0.051188031494144,0.0936928170007013,0.458096999999725,
-0.00148440502929698,-0.0234631762695313,-0.0368228215332049,0.0436880336546789,0.461075000000164,
0.0224576115722656,-0.00909796630859377,0.0589452448730441,0.0637311478135001,0.464208000000326,
-0.0517626398925782,0.00287304199218748,-0.0128808049316422,0.0534185398024377,0.467163000000255,
0.00330399829101552,0.0124498486328125,0.0661278498535136,0.0673706736045872,0.47023900000022,
-0.00627280834960947,-0.03064578125,-0.000909796630862658,0.031294404658394,0.47320099999979,
0.00330399829101552,-0.00670376464843752,0.0541568415527323,0.0546701047386634,0.476223000000573,
-0.0350032282714844,-0.0162805712890625,-0.0248518132324236,0.0459118243142566,0.479272000000492,
-0.0134554133300782,-0.0234631762695313,0.0254264216308577,0.0371223881975351,0.482326999999714,
-0.0278206232910157,0.00526724365234373,-0.0320344182128931,0.0427543551726874,0.485419000000547,
-0.0373974299316407,-0.0330399829101563,-0.051188031494144,0.0714872212667472,0.488398999999845,
-0.020638018310547,-0.00670376464843752,-0.0248518132324236,0.0329921336258717,0.491402000000562,
0.00809240161132801,-0.0545877978515625,0.0206380183105441,0.0589172507667189,0.494453000000249,
-0.0158496149902345,0.00287304199218748,0.0445800349121068,0.0474008879494066,0.497419000000264,
0.00809240161132801,-0.00430956298828127,-0.0368228215332049,0.0379470615813036,0.500524000000041,
-0.0230322199707032,-0.0545877978515625,0.0110612116699187,0.0602715624044098,0.50352600000042,
0.0200634099121093,-0.021068974609375,0.0182438166503882,0.0343406312458696,0.506589000000531,
-0.011061211669922,0.045968671875,0.0110612116699187,0.0485573846203127,0.509587000000465,
-0.0278206232910157,0.0220266552734375,-0.0559764348144558,0.0662761033659378,0.512587000000167,
-0.0230322199707032,-0.0761356127929688,0.0326090266113255,0.085967803907497,0.515599000000293,
0.0679474431152343,0.017238251953125,-0.0392170231933626,0.0803242632362486,0.518654000000424,
-0.0350032282714844,0.0675164868164062,0.0230322199707,0.0794618470602988,0.52174500000001,
-0.0733104548339845,-0.01149216796875,0.0182438166503882,0.076415506008667,0.524728000000323,
0.0104866032714843,-0.100077629394531,-0.0583706364746117,0.116329841209614,0.5276530000001,
0.0871010563964843,0.0100556469726562,0.0757046564941373,0.11583999773963,0.530762000000323,
-0.0804930598144532,0.0770932934570312,0.0469742365722627,0.120950764676756,0.533741000000191,
-0.0517626398925782,-0.0234631762695313,0.00148440502929503,0.0568515170210507,0.536775999999918,
0.0679474431152343,-0.059376201171875,0.0517626398925763,0.104027684681288,0.539778000000297,
0.00569819995117177,-0.0330399829101563,0.0350032282714814,0.0484699488633152,0.542790999999852,
-0.0182438166503907,0.0842758984375,-0.0200634099121118,0.0885313747816124,0.545874000000367,
-0.0254264216308595,-0.00909796630859377,-0.0392170231933626,0.0476156572573695,0.548853000000236,
0.0152750065917968,-0.0474051928710938,0.0158496149902323,0.0522665134944319,0.55193700000018,
-0.00627280834960947,-0.021068974609375,0.0421858332519509,0.0475698890354269,0.554874999999811,
-0.049368438232422,-0.00670376464843752,0.0182438166503882,0.053056762056717,0.55785300000025,
0.0152750065917968,-0.0138863696289063,-0.0463996281738304,0.0507846687743433,0.560919000000467,
0.0200634099121093,-0.040222587890625,0.0421858332519509,0.0616444768092145,0.563938000000235,
-0.0445800349121095,-0.0186747729492188,-0.0463996281738304,0.0670003891939404,0.567003000000113,
-0.00627280834960947,-0.00191536132812502,0.00387860668945095,0.00761973250578134,0.570072000000437,
0.0200634099121093,0.0196324536132812,0.00387860668945095,0.0283375588579966,0.573199000000386,
-0.0373974299316407,-0.0330399829101563,-0.0176692082519558,0.0529377857153695,0.576191000000108,
-0.00627280834960947,-0.0450109912109375,-0.0607648381347676,0.0758795295710677,0.579217000000426,
-0.049368438232422,0.0316034619140625,0.0373974299316373,0.0695312107183083,0.582357000000229,
-0.020638018310547,-0.00191536132812502,0.0134554133300764,0.0247112232940206,0.585332000000562,
0.0128808049316406,-0.0474051928710938,0.0110612116699187,0.0503539258691844,0.588404000000082,
0.0200634099121093,-0.00430956298828127,0.00627280834960686,0.0214583521045347,0.59143800000038,
-0.0517626398925782,0.0124498486328125,0.0517626398925763,0.0742545655719378,0.594471999999769,
0.0248518132324218,0.02681505859375,0.0206380183105441,0.0419831845875438,0.597553999999946,
-0.00148440502929698,-0.01149216796875,-0.0296402165527372,0.0318247674022313,0.600487000000612,
-0.00387860668945322,-0.021068974609375,0.0469742365722627,0.0516287147088601,0.603522000000339,
-0.0350032282714844,0.0124498486328125,0.0230322199707,0.0437116446405795,0.606512999999723,
-0.0134554133300782,-0.0282515795898438,-0.0176692082519558,0.0359360656924977,0.609454000000369,
-0.00148440502929698,-0.0450109912109375,0.0637336481933577,0.0780395457451976,0.61261100000047,
-0.0134554133300782,-0.0282515795898438,-0.0296402165527372,0.0431015351756487,0.615555000000313,
-0.011061211669922,-0.01149216796875,0.0182438166503882,0.0242333896556335,0.618653999999879,
-0.0350032282714844,0.0148440502929687,-0.0200634099121118,0.042989675921403,0.621616999999787,
-0.0254264216308595,-0.0617704028320313,0.0373974299316373,0.0765549041438455,0.62462400000004,
-0.011061211669922,-0.0234631762695313,-0.0272460148925813,0.0376193616611004,0.627660000000105,
-0.0278206232910157,-0.0138863696289063,-0.0200634099121118,0.0370048477779958,0.63065700000061,
0.0224576115722656,0.0148440502929687,0.00387860668945095,0.0271980465563686,0.633770000000368,
-0.00866701000976572,-0.03064578125,0.0350032282714814,0.0473234292962552,0.63674600000013,
-0.0158496149902345,-0.03064578125,0.0685220515136695,0.0767179623517433,0.639683000000332,
-0.0637336481933595,-0.00191536132812502,0.0110612116699187,0.0647147349887098,0.642741000000569,
-0.020638018310547,-0.03064578125,0.0254264216308577,0.0448508040636896,0.645707000000584,
-0.0350032282714844,-0.0258573779296875,0.0661278498535136,0.0791626332878915,0.648775000000569,
0.0224576115722656,-0.03064578125,0.0182438166503882,0.0421467089097902,0.651813999999831,
-0.0158496149902345,0.0148440502929687,0.0493684382324187,0.0539332811717124,0.654801000000589,
-0.00148440502929698,-0.0186747729492188,0.0134554133300764,0.0230650981111955,0.657826000000568,
-0.0158496149902345,0.00766144531249998,0.0445800349121068,0.0479300276692989,0.660845000000336,
-0.030214824951172,-0.0258573779296875,-0.0152750065917999,0.0426012378530036,0.663889000000381,
-0.0158496149902345,0.0196324536132812,0.0972524714355441,0.100472318230135,0.666882999999871,
-0.0350032282714844,-0.00909796630859377,-0.034428619873049,0.0499332439036446,0.66986900000029,
0.00330399829101552,-0.059376201171875,-0.0080924016113304,0.0600161364480343,0.672895000000608,
-0.0445800349121095,-0.0258573779296875,0.0110612116699187,0.0527099033367577,0.675927000000229,
-0.0182438166503907,-0.0282515795898438,0.039791631591795,0.0520995445280617,0.678981000000022,
-0.020638018310547,0.00766144531249998,0.0110612116699187,0.0246368818576874,0.681986000000506,
0.0296402165527343,-0.040222587890625,0.0230322199707,0.0550171079818883,0.685050000000047,
0.00569819995117177,-0.00191536132812502,0.0876756647949186,0.087881512782449,0.688049999999748,
-0.030214824951172,-0.00909796630859377,-0.0104866032714863,0.0332517290671601,0.691039000000274,
0.000909796630859272,-0.0162805712890625,0.0637336481933577,0.0657864928647398,0.694166000000223,
0.0320344182128905,-0.0905008227539063,0.0158496149902323,0.0973026883735024,0.697205999999824,
-0.00627280834960947,0.0387860668945312,0.0326090266113255,0.0510593353489459,0.700334000000112,
-0.00866701000976572,-0.03064578125,0.0541568415527323,0.0628270997094405,0.703325999999834,
-0.00627280834960947,-0.0138863696289063,0.00387860668945095,0.0157233258540614,0.706310999999914,
-0.039791631591797,-0.0426167895507813,0.0326090266113255,0.0668050395770484,0.709381000000576,
0.0200634099121093,0.00287304199218748,-0.0128808049316422,0.0240147855138708,0.712461000000076,
-0.011061211669922,-0.00430956298828127,-0.000909796630862658,0.0119059004979174,0.715519000000313,
0.0272460148925781,0.0148440502929687,-0.000909796630862658,0.0310406006149414,0.718530000000101,
0.000909796630859272,-0.0138863696289063,-0.0416112248535185,0.043876565786194,0.721497000000454,
0.00809240161132801,0.0220266552734375,-0.0080924016113304,0.0248223179862989,0.724629000000277,
-0.00148440502929698,-0.00191536132812502,0.0302148249511696,0.0303118411538807,0.727625000000444,
-0.0158496149902345,0.00047884033203123,0.0565510432128882,0.0587321042690298,0.730688000000555,
-0.0254264216308595,-0.0162805712890625,0.0158496149902323,0.0340994166194538,0.733621000000312,
-0.0182438166503907,0.0292092602539062,0.0541568415527323,0.0641792896308556,0.736628999999994,
0.0128808049316406,-0.0234631762695313,0.00627280834960686,0.0274915241653308,0.739690000000337,
-0.020638018310547,0.017238251953125,-0.0559764348144558,0.0621002929519894,0.742737999999918,
-0.00387860668945322,-0.0545877978515625,-0.0128808049316422,0.0562208715676086,0.745848999999907,
-0.0445800349121095,-0.00191536132812502,-0.0272460148925813,0.0522818653962245,0.748827999999776,
-0.0350032282714844,-0.03064578125,-0.0104866032714863,0.0476902374288706,0.751782999999705,
0.000909796630859272,-0.021068974609375,-0.0320344182128931,0.0383527492005273,0.75485000000026,
-0.00148440502929698,-0.0354341845703125,-0.0176692082519558,0.0396230465096383,0.757834000000003,
-0.00148440502929698,-0.00191536132812502,-0.0152750065917999,0.0154660238486758,0.76084499999979,
-0.030214824951172,-0.0258573779296875,0.00627280834960686,0.0402602504316547,0.763855000000149,
-0.00387860668945322,-0.0282515795898438,0.00627280834960686,0.0291983469354627,0.766900000000533,
-0.011061211669922,-0.00909796630859377,-0.0104866032714863,0.0177508378036833,0.769855000000462,
0.000909796630859272,-0.0426167895507813,0.0350032282714814,0.0551565451324731,0.772856999999931,
-0.049368438232422,-0.040222587890625,-0.0487938298339863,0.0802242924555619,0.775927000000593,
0.00809240161132801,-0.021068974609375,0.0230322199707,0.0322470434568539,0.778866000000562,
0.0176692082519531,-0.0282515795898438,-0.0128808049316422,0.035724890556294,0.78193999999985,
-0.0661278498535157,0.0220266552734375,-0.0152750065917999,0.0713539900437495,0.784918999999718,
-0.020638018310547,-0.00909796630859377,-0.0224576115722677,0.0318283695509153,0.787859000000026,
-0.049368438232422,-0.00670376464843752,0.0158496149902323,0.0522818653962223,0.790906000000177,
-0.030214824951172,-0.0354341845703125,0.0685220515136695,0.082847985048732,0.793873000000531,
-0.0421858332519532,0.00526724365234373,0.00387860668945095,0.0426899516596847,0.796964000000116,
-0.020638018310547,0.00047884033203123,0.0158496149902323,0.0260262825464692,0.79991500000051,
0.000909796630859272,-0.040222587890625,-0.0392170231933626,0.0561841544803988,0.802913000000444,
-0.020638018310547,-0.0258573779296875,-0.00569819995117449,0.033570839665828,0.805978999999752,
0.0104866032714843,0.017238251953125,-0.00330399829101857,0.0204460896818921,0.808993999999984,
-0.0134554133300782,-0.0426167895507813,0.0373974299316373,0.0582735503036373,0.812122000000272,
-0.00627280834960947,0.0148440502929687,-0.0080924016113304,0.018032773428682,0.81510900000012,
-0.00866701000976572,0.0124498486328125,0.039791631591795,0.0425850882143792,0.818060000000514,
-0.0254264216308595,-0.00909796630859377,0.0326090266113255,0.0423393968360519,0.82115900000008,
-0.0230322199707032,-0.0378283862304688,0.00866701000976278,0.0451285610682382,0.82419900000059,
-0.0158496149902345,-0.0234631762695313,-0.0200634099121118,0.0347026130614855,0.827368000000206,
-0.00387860668945322,-0.00191536132812502,0.0565510432128882,0.0567162471196279,0.830361000000266,
-0.030214824951172,-0.0138863696289063,-0.0320344182128931,0.0461732699571853,0.833356000000094,
0.0296402165527343,-0.0282515795898438,0.0469742365722627,0.0623159136028765,0.836462000000211,
-0.0254264216308595,-0.03064578125,-0.000909796630862658,0.0398308241853294,0.839433000000099,
-0.0421858332519532,0.017238251953125,0.0110612116699187,0.0468951198011879,0.842588000000433,
0.0176692082519531,-0.0282515795898438,0.00866701000976278,0.0344306510551499,0.84562300000016,
-0.030214824951172,0.0100556469726562,-0.0104866032714863,0.0335264154219058,0.848592000000281,
-0.0373974299316407,-0.0162805712890625,0.00866701000976278,0.0416982233374463,0.8516410000002,
0.000909796630859272,-0.01149216796875,0.0206380183105441,0.0236394892990065,0.854674000000159,
-0.00866701000976572,0.00526724365234373,-0.0104866032714863,0.0145886862457208,0.85778399999981,
-0.00866701000976572,-0.0186747729492188,-0.0272460148925813,0.034149810171376,0.860720000000583,
-0.020638018310547,0.00047884033203123,-0.0200634099121118,0.0287871065783186,0.863741000000118,
0.00330399829101552,-0.0138863696289063,0.00148440502929503,0.0143509973335877,0.866751999999906,
-0.00627280834960947,0.00526724365234373,0.0493684382324187,0.0500433279647969,0.869719000000259,
0.0248518132324218,0.0387860668945312,0.0206380183105441,0.05047672142555,0.872812000000522,
0.0104866032714843,-0.00909796630859377,-0.0224576115722677,0.0264023892225053,0.875884000000042,
-0.030214824951172,0.0483628735351562,0.0110612116699187,0.0580883257377438,0.878947000000153,
-0.0134554133300782,-0.00909796630859377,0.0373974299316373,0.0407724037104421,0.881978999999774,
-0.0158496149902345,0.00526724365234373,-0.0296402165527372,0.0340220015331987,0.884939999999915,
-0.011061211669922,0.02681505859375,0.0541568415527323,0.0614358304083278,0.888066000000435,
-0.0278206232910157,0.017238251953125,0.0278206232910136,0.0429549937841983,0.891039000000092,
0.00569819995117177,-0.0282515795898438,0.0206380183105441,0.0354478353611496,0.894153000000188,
-0.011061211669922,-0.00670376464843752,0.0206380183105441,0.0243560806341007,0.897144999999909,
0.036822821533203,0.00766144531249998,0.0445800349121068,0.0583266443635086,0.900134000000435,
0.0296402165527343,-0.0282515795898438,0.0326090266113255,0.0523454181677097,0.903210000000399,
-0.0134554133300782,0.017238251953125,0.0206380183105441,0.0300688090563796,0.906213000000207,
-0.00627280834960947,-0.0282515795898438,-0.0152750065917999,0.0327234732308742,0.909228999999868,
-0.0134554133300782,0.0531512768554687,0.0493684382324187,0.0737790557865718,0.912253000000419,
0.00809240161132801,0.00287304199218748,-0.0440054265136745,0.0448354647213375,0.915257000000565,
-0.020638018310547,0.0124498486328125,0.0278206232910136,0.0368091511864496,0.918376000000535,
0.000909796630859272,-0.059376201171875,0.116406084716795,0.130677991852516,0.92133400000057,
-0.0613394465332032,0.055545478515625,0.0852814631347627,0.118830786578796,0.924426999999923,
-0.0350032282714844,-0.0186747729492188,-0.0176692082519558,0.043430105392245,0.92737600000055,
-0.039791631591797,-0.04979939453125,0.0182438166503882,0.0663037742997288,0.93033000000014,
0.036822821533203,-0.00430956298828127,0.00627280834960686,0.0376010723704389,0.933377000000291,
0.0248518132324218,-0.0354341845703125,0.0134554133300764,0.0453237487966888,0.936388000000079,
0.0152750065917968,-0.0521935961914063,-0.0416112248535185,0.0684762100556178,0.939534000000094,
-0.0134554133300782,-0.00430956298828127,0.0158496149902323,0.021232775993068,0.942493999999897,
-0.0230322199707032,0.0387860668945312,-0.0176692082519558,0.0484462904893336,0.945464000000356,
-0.030214824951172,-0.0569819995117188,-0.0104866032714863,0.0653441103953297,0.948513999999705,
-0.0230322199707032,-0.00670376464843752,0.0206380183105441,0.0316441371667305,0.951488000000609,
0.0248518132324218,-0.0186747729492188,-0.0296402165527372,0.0429523247675513,0.9545820000003,
-0.0182438166503907,-0.00909796630859377,-0.0320344182128931,0.0379712231454811,0.957570000000487,
-0.0469742365722657,-0.00909796630859377,0.00627280834960686,0.0482566059425069,0.960635000000366,
-0.0278206232910157,-0.03064578125,0.0158496149902323,0.0443211155552526,0.963694000000032,
-0.030214824951172,0.0148440502929687,-0.0080924016113304,0.0346232355473779,0.966722000000118,
0.0320344182128905,-0.00430956298828127,0.0302148249511696,0.0442460385822071,0.969834999999875,
-0.00387860668945322,-0.0138863696289063,0.039791631591795,0.042323147284426,0.97281699999985,
-0.0230322199707032,-0.0426167895507813,-0.0487938298339863,0.0687569032044234,0.975954000000456,
-0.0326090266113282,-0.0282515795898438,0.0110612116699187,0.0445404397089469,0.978947000000517,
-0.0278206232910157,-0.00191536132812502,-0.0176692082519558,0.0330129763815513,0.981889000000592,
0.00569819995117177,0.02681505859375,0.0637336481933577,0.0693793540046639,0.985026999999718,
-0.00627280834960947,0.02681505859375,-0.00330399829101857,0.0277364723186679,0.988025999999991,
0.00569819995117177,0.0220266552734375,-0.0368228215332049,0.0432846763980585,0.991122999999789,
-0.058945244873047,-0.0186747729492188,-0.0152750065917999,0.0636915603846214,0.994055000000117,
0.0200634099121093,0.017238251953125,-0.0487938298339863,0.0555025727112604,0.997043000000303,
-0.0373974299316407,0.00287304199218748,0.0709162531738254,0.0802242924555583,1.00016400000004,
-0.0445800349121095,-0.0545877978515625,0.0110612116699187,0.0713411353333734,1.00313900000037,
0.0128808049316406,0.0196324536132812,0.0589452448730441,0.0634499035752439,1.00633400000061,
-0.020638018310547,0.00526724365234373,0.0158496149902323,0.026549613006939,1.00931600000058,
-0.0230322199707032,-0.0378283862304688,-0.0416112248535185,0.0607697621798083,1.01237600000059,
0.0224576115722656,0.0148440502929687,0.0230322199707,0.0354284250766197,1.01548900000034,
-0.039791631591797,-0.0186747729492188,-0.0104866032714863,0.04518948923827,1.01844400000027,
-0.00148440502929698,0.0675164868164062,0.0637336481933577,0.0928582649113995,1.02154599999994,
-0.00148440502929698,-0.03064578125,0.078098858154295,0.0839094691421566,1.02453200000036,
0.0176692082519531,-0.0426167895507813,0.0182438166503882,0.0496107701798657,1.02755900000011,
0.000909796630859272,-0.0138863696289063,0.0182438166503882,0.022945497104075,1.03063500000007,
-0.020638018310547,0.0196324536132812,0.00627280834960686,0.0291669189194712,1.03358900000057,
