X,Y,Z,Magnitude,Seconds,
0.234392342529297,0.144130939941406,-0.00699106884765577,0.275249656000506,0.0,
0.241574947509765,0.153707746582031,0.0241335527343765,0.287344662367782,0.00391700000000128,
0.224815535888672,0.122583125,0.00976834277343741,0.256250011184811,0.00789199999962875,
0.255940157470703,0.165678754882813,-0.0333272871093744,0.306701030470584,0.0119700000004741,
0.241574947509765,0.172861359863281,-0.021356278808593,0.297818057952635,0.0159160000002885,
0.210450325927734,0.127371528320313,-0.00459686718749985,0.246036536103241,0.0199579999998605,
0.229603939208984,0.129765729980469,0.014556746093751,0.264138244929591,0.0238909999998214,
0.208056124267578,0.110612116699219,0.000191536132813752,0.235631975529676,0.0277980000000753,
0.210450325927734,0.151313544921875,0.0504697709960951,0.264068790932045,0.0317020000002231,
0.212844527587891,0.124977326660156,0.000191536132813752,0.246824151551913,0.0355110000000423,
0.227209737548828,0.14173673828125,0.0480755693359374,0.272075041454723,0.0394120000000839,
0.231998140869141,0.139342536621094,0.0289219560546883,0.272168990556911,0.0433179999999993,
0.236786544189453,0.170467158203125,0.0073741411132815,0.291858351760219,0.0471859999997832,
0.188902510986328,0.132159931640625,-0.0500866987304676,0.235921774276795,0.0510000000003856,
0.25115175415039,0.136948334960938,-0.0381156904296862,0.288591157034173,0.0549369999998817,
0.196085115966797,0.129765729980469,0.0361045610351578,0.237890850409631,0.0589230000005045,
0.220027132568359,0.158496149902344,-0.0189620771484371,0.271831802719814,0.0629129999997531,
0.239180745849609,0.153707746582031,0.0073741411132815,0.284407943808994,0.0668269999996483,
0.246363350830078,0.1608903515625,-0.021356278808593,0.295019823914732,0.0707449999999881,
0.224815535888672,0.148919343261719,0.0169509477539069,0.270196836776762,0.0746030000000246,
0.200873519287109,0.132159931640625,0.0552581743164069,0.246718228168949,0.0784359999997832,
0.222421334228516,0.120188923339844,-0.0309330854492185,0.254702734553425,0.0823989999998958,
0.191296712646484,0.136948334960938,-0.0141736738281235,0.235690839337703,0.0863589999999022,
0.217632930908203,0.153707746582031,0.00497993945312558,0.266486329427942,0.0902560000004087,
0.191296712646484,0.124977326660156,0.014556746093751,0.228966511318378,0.0942150000000765,
0.220027132568359,0.146525141601563,0.0121625444335951,0.264630844148432,0.0981920000003811,
0.222421334228516,0.127371528320313,0.0480755693359374,0.260779632091196,0.102085999999872,
0.220027132568359,0.122583125,-0.00220266552734216,0.251879759679982,0.105972999999722,
0.236786544189453,0.129765729980469,-0.00459686718749985,0.270052112331097,0.109902000000147,
0.212844527587891,0.170467158203125,0.0193451494140628,0.273379003867916,0.113836999999876,
0.172143099365234,0.132159931640625,0.0073741411132815,0.217149423548584,0.117721000000529,
0.227209737548828,0.170467158203125,-0.0405098920898439,0.286922233749822,0.121595000000525,
0.220027132568359,0.10342951171875,0.000191536132813752,0.243124740918574,0.125485000000481,
0.255940157470703,0.153707746582031,-0.0261446821289049,0.299691474635292,0.129574999999932,
0.200873519287109,0.158496149902344,-0.0261446821289049,0.257205646688163,0.133460000000014,
0.215238729248047,0.146525141601563,-0.0189620771484371,0.261068742019138,0.137622000000192,
0.222421334228516,0.14173673828125,0.0384987626953137,0.266538379277114,0.141518999999789,
0.198479317626953,0.136948334960938,-0.0309330854492185,0.243116724537089,0.145414000000528,
0.203267720947266,0.151313544921875,0.0241335527343765,0.254550552196421,0.149293999999827,
0.231998140869141,0.165678754882813,-0.0572693037109371,0.290778885639574,0.153196999999636,
0.227209737548828,0.139342536621094,-0.0141736738281235,0.266911034576681,0.157177000000047,
0.236786544189453,0.146525141601563,-0.0357214887695303,0.280737438526559,0.161149999999907,
0.212844527587891,0.0914585034179687,0.0456813676757815,0.236123353619029,0.165140000000065,
0.224815535888672,0.110612116699219,-0.0429040937499998,0.254200367423222,0.169053000000531,
0.217632930908203,0.129765729980469,-0.0165678754882812,0.253924657706285,0.172915000000103,
0.205661922607422,0.172861359863281,-0.0309330854492185,0.270434339387166,0.176838999999745,
0.205661922607422,0.139342536621094,0.014556746093751,0.248847478949295,0.180695000000014,
0.186508309326172,0.14173673828125,0.014556746093751,0.234705243407881,0.184637000000293,
0.231998140869141,0.148919343261719,-0.0357214887695303,0.277985850222904,0.188541000000441,
0.212844527587891,0.163284553222656,-0.059663505371093,0.274816979312417,0.192463000000316,
0.19369091430664,0.148919343261719,0.0073741411132815,0.244433056356137,0.196345000000292,
0.239180745849609,0.158496149902344,0.0624407792968764,0.293644869933467,0.200324999999793,
0.203267720947266,0.163284553222656,-0.0117794721679676,0.260994957163493,0.204434999999648,
0.227209737548828,0.165678754882813,-0.0261446821289049,0.282413277060672,0.208356000000094,
0.212844527587891,0.136948334960938,-0.00699106884765577,0.253192642895322,0.212456999999631,
0.188902510986328,0.156101948242188,-0.00938527050781168,0.245234704323126,0.216363000000456,
0.212844527587891,0.146525141601563,-0.0452982954101557,0.262343945256101,0.220221999999922,
0.234392342529297,0.170467158203125,0.0241335527343765,0.290828558827711,0.801105999999891,
0.227209737548828,0.163284553222656,-0.0237504804687489,0.2808027697168,0.805293000000347,
0.191296712646484,0.151313544921875,-0.0452982954101557,0.248076916929491,0.809030000000348,
0.212844527587891,0.134554133300781,0.00976834277343741,0.251998071883449,0.812864999999874,
0.215238729248047,0.170467158203125,-0.0357214887695303,0.276880456793315,0.816624000000047,
0.236786544189453,0.175255561523438,0.0073741411132815,0.294680771872272,0.820351000000301,
0.212844527587891,0.146525141601563,-0.0548751020507812,0.264166021415613,0.824053999999705,
0.205661922607422,0.144130939941406,-0.0309330854492185,0.253036380851416,0.827734000000419,
0.176931502685547,0.110612116699219,0.0193451494140628,0.209556750807746,0.831436000000394,
0.188902510986328,0.136948334960938,-0.0237504804687489,0.234527376713273,0.835105000000112,
0.220027132568359,0.117794721679687,-0.00459686718749985,0.249617040103012,0.838934000000336,
0.212844527587891,0.18004396484375,-0.0117794721679676,0.279029350006994,0.842650999999933,
0.227209737548828,0.163284553222656,-0.0309330854492185,0.281501271637516,0.846537999999782,
0.210450325927734,0.146525141601563,-0.0452982954101557,0.260405246436229,0.850422999999864,
0.234392342529297,0.136948334960938,-0.0548751020507812,0.276958288393808,0.854143999999906,
0.188902510986328,0.165678754882813,0.0241335527343765,0.252420357427926,0.857907000000523,
0.222421334228516,0.129765729980469,-0.0357214887695303,0.259973882067543,0.861695999999938,
0.210450325927734,0.134554133300781,-0.0237504804687489,0.250914805848341,0.865496999999777,
0.25115175415039,0.144130939941406,-0.059663505371093,0.295652947447472,0.869252000000415,
0.260728560791015,0.127371528320313,0.0121625444335951,0.290432119652606,0.872994999999719,
0.152989486083984,0.227927998046875,-0.176979386718749,0.326616990478515,0.876766999999745,
0.133835872802734,0.366791694335938,-0.0333272871093744,0.391865915778303,0.880489000000125,
0.473812508544922,-0.334709392089844,0.36650439013672,0.686188121724847,0.884286000000429,
0.0117315881347655,0.192014973144531,-0.509773417480469,0.544863576725014,0.887854999999945,
0.0763750329589842,0.60142345703125,-0.100364933593749,0.614505036775276,0.890782000000399,
0.327766207275391,0.342849677734375,0.649020186035157,0.803868017796062,0.893713000000389,
0.287064779052734,0.0962469067382813,0.0624407792968764,0.309141561988167,0.896725000000515,
0.356496627197266,-0.176692082519531,-0.440341569335937,0.593473364956971,0.899664000000485,
0.114682259521484,-0.00430956298828126,0.0744117875976578,0.136776120414281,0.902712000000065,
0.0237025964355467,0.235110603027344,0.261159517089844,0.352197532785606,0.905695999999807,
0.239180745849609,0.311725056152344,-0.119518546875,0.410687987242711,0.908720000000358,
0.303824190673828,0.29496564453125,-0.00699106884765577,0.42351239100642,0.911852000000181,
0.306218392333984,0.0842758984375,0.105536409179688,0.334679047034021,0.914880000000267,
0.196085115966797,-0.00909796630859376,-0.172190983398437,0.261116603184066,0.917911000000458,
0.138624276123047,0.0914585034179687,-0.095576530273437,0.19161477217898,0.92086399999971,
0.164960494384765,0.170467158203125,0.0648349809570323,0.245915821957869,0.923805000000357,
0.205661922607422,0.266235224609375,-0.0309330854492185,0.337838536891211,0.926809000000503,
0.311006795654297,0.18004396484375,-0.0620577070312489,0.364680977323725,0.929815999999846,
0.265516964111328,0.105823713378906,0.0792001909179696,0.296598359377863,0.93284500000027,
0.131441671142578,0.115400520019531,0.0432871660156255,0.180188711286796,0.935803000000305,
0.172143099365234,0.093852705078125,-0.0285388837890626,0.198131382666846,0.938748000000487,
0.186508309326172,0.153707746582031,0.0121625444335951,0.241990388846607,0.941786999999749,
0.263122762451172,0.187226569824219,0.00497993945312558,0.322973956171447,0.944766999999956,
0.279882174072265,0.199197578125,-0.021356278808593,0.344194417646239,0.947818999999981,
0.205661922607422,0.0986411083984375,-0.00938527050781168,0.228287051711564,0.950789000000441,
0.186508309326172,0.0579396801757812,0.00976834277343741,0.195544819688782,0.953822999999829,
0.186508309326172,0.129765729980469,0.0313161577148442,0.22935822605499,0.956769000000349,
0.176931502685547,0.153707746582031,0.0073741411132815,0.234489244868608,0.9597389999999,
0.215238729248047,0.175255561523438,-0.0189620771484371,0.27821175888699,0.962781000000177,
0.231998140869141,0.148919343261719,-0.00220266552734216,0.275689970618564,0.965744000000086,
0.203267720947266,0.122583125,-0.00938527050781168,0.237555198251619,0.968762999999853,
0.167354696044922,0.105823713378906,0.0217393510742188,0.199195511964294,0.971725000000333,
0.186508309326172,0.146525141601563,-0.0381156904296862,0.240224420960894,0.974637000000257,
0.184114107666015,0.110612116699219,0.0313161577148442,0.217057012640356,0.977689999999711,
0.25115175415039,0.21835119140625,-0.0261446821289049,0.333823292783725,0.980626999999913,
0.227209737548828,0.170467158203125,0.0289219560546883,0.285516718258119,0.983643000000484,
0.253545955810547,0.153707746582031,-0.021356278808593,0.297267074718611,0.986550999999963,
0.176931502685547,0.14173673828125,0.00258573779296967,0.226717325454203,0.989467999999761,
0.198479317626953,0.132159931640625,-0.0285388837890626,0.240155688970387,0.992475000000013,
0.203267720947266,0.151313544921875,-0.0333272871093744,0.25558611723251,0.995418999999856,
0.227209737548828,0.165678754882813,-0.0261446821289049,0.282413277060672,0.998453000000154,
0.248757552490234,0.132159931640625,-0.00699106884765577,0.281771968967495,1.00140499999998,
0.220027132568359,0.144130939941406,-0.0429040937499998,0.266507838862493,1.00435600000037,
0.234392342529297,0.148919343261719,0.0241335527343765,0.278745707413506,1.00741300000027,
0.203267720947266,0.14173673828125,-0.0165678754882812,0.248357733634164,1.01034499999969,
0.198479317626953,0.153707746582031,-0.0357214887695303,0.253566826783194,1.01339999999982,
0.212844527587891,0.182438166503906,0.0408929643554696,0.283299685942638,1.0163620000003,
0.205661922607422,0.1608903515625,-0.0644519086914048,0.268954606152137,1.01928700000008,
0.224815535888672,0.151313544921875,0.014556746093751,0.271384805968523,1.0223189999997,
0.17453730102539,0.177649763183594,-0.0189620771484371,0.249764425365579,1.0252559999999,
0.210450325927734,0.134554133300781,0.00258573779296967,0.249801602299401,1.02826199999981,
0.217632930908203,0.139342536621094,-0.0117794721679676,0.258687438992023,1.03120200000012,
0.217632930908203,0.168072956542969,0.0073741411132815,0.275076333576606,1.03414299999986,
0.217632930908203,0.122583125,0.0384987626953137,0.252730824949254,1.03715300000022,
0.212844527587891,0.124977326660156,-0.0548751020507812,0.252850552556872,1.04008299999987,
0.220027132568359,0.153707746582031,0.0313161577148442,0.270219747908256,1.04311299999972,
0.200873519287109,0.1608903515625,0.0384987626953137,0.260226883134244,1.04611600000044,
0.227209737548828,0.153707746582031,-0.0117794721679676,0.274570741632988,1.04919400000017,
0.208056124267578,0.165678754882813,-0.0644519086914048,0.273661925007353,1.05224300000009,
0.205661922607422,0.158496149902344,-0.0261446821289049,0.260962450072935,1.05524500000047,
0.215238729248047,0.0603338818359375,0.0408929643554696,0.227244631178571,1.05827399999998,
0.231998140869141,0.0244208569335937,-0.0500866987304676,0.238596297141899,1.06122400000004,
0.210450325927734,0.175255561523438,-0.193738798339844,0.335467693690692,1.0642340000004,
0.205661922607422,0.330878669433594,-0.0931823286132811,0.400575169802773,1.06721199999993,
0.255940157470703,0.235110603027344,0.179756660644532,0.391273327621604,1.07015000000047,
0.217632930908203,0.0579396801757812,-0.0357214887695303,0.228028778697949,1.07316199999968,
0.248757552490234,0.017238251953125,-0.0859997236328116,0.263767757158169,1.07609299999967,
0.181719906005859,0.0986411083984375,0.0313161577148442,0.209124112045626,1.07913199999984,
0.215238729248047,0.220745393066406,0.0768059892578137,0.317734793678986,1.08207399999992,
0.208056124267578,0.225533796386719,-0.059663505371093,0.312590111857394,1.0849930000004,
0.208056124267578,0.153707746582031,0.00497993945312558,0.258724219974722,1.08805000000029,
0.222421334228516,0.06512228515625,0.014556746093751,0.23221554814612,1.09098300000005,
0.203267720947266,0.0603338818359375,-0.00699106884765577,0.212148105624634,1.09400600000026,
0.186508309326172,0.139342536621094,-0.0644519086914048,0.241569328544981,1.09693299999981,
0.200873519287109,0.21835119140625,0.00258573779296967,0.296705408746203,1.09987799999999,
0.260728560791015,0.165678754882813,0.0265277543945324,0.310052501981342,1.10289300000022,
0.279882174072265,0.115400520019531,-0.0309330854492185,0.304315900274049,1.10581400000046,
0.203267720947266,0.1608903515625,-0.0237504804687489,0.260322025436759,1.10883300000023,
0.210450325927734,0.105823713378906,-0.102759135253905,0.256996960827401,1.11177700000007,
0.212844527587891,0.117794721679687,-0.0237504804687489,0.244422737694765,1.11469899999975,
0.176931502685547,0.134554133300781,0.00976834277343741,0.2224971729066,1.11772000000019,
0.246363350830078,0.156101948242188,-0.0285388837890626,0.293048096334299,1.12065900000016,
0.246363350830078,0.132159931640625,-0.0357214887695303,0.281846009238006,1.12365899999986,
0.215238729248047,0.093852705078125,-0.0429040937499998,0.238698140083462,1.12661099999968,
0.181719906005859,0.189620771484375,-0.0333272871093744,0.264743024994387,1.12953500000003,
0.167354696044922,0.124977326660156,-0.0141736738281235,0.209350948164066,1.13256000000001,
0.229603939208984,0.151313544921875,-0.00459686718749985,0.275017979348709,1.13548999999966,
0.234392342529297,0.108217915039063,-0.0165678754882812,0.258699404463884,1.13850900000034,
0.239180745849609,0.1608903515625,-0.0357214887695303,0.290463696821121,1.14144599999963,
0.210450325927734,0.117794721679687,0.0672291826171882,0.250369125760466,1.14446500000031,
0.19369091430664,0.177649763183594,0.0193451494140628,0.263533382041027,1.14739800000007,
0.200873519287109,0.122583125,0.0384987626953137,0.238451143873592,1.15033200000016,
0.188902510986328,0.158496149902344,-0.00220266552734216,0.246596917917137,1.15333699999974,
0.241574947509765,0.163284553222656,-0.0189620771484371,0.292198324696176,1.15628100000049,
0.224815535888672,0.132159931640625,-0.0261446821289049,0.26209123814387,1.15927999999985,
0.205661922607422,0.146525141601563,0.0193451494140628,0.253260100169355,1.16225000000031,
0.198479317626953,0.134554133300781,0.0313161577148442,0.24182546608661,1.16515700000036,
0.169748897705078,0.182438166503906,-0.0764229169921862,0.260650791502713,1.16818200000034,
0.224815535888672,0.113006318359375,0.0408929643554696,0.25492094401957,1.17112499999985,
0.205661922607422,0.144130939941406,-0.0692403120117184,0.260508685203497,1.17412500000046,
0.19369091430664,0.146525141601563,0.0265277543945324,0.244314365438295,1.17708099999982,
0.212844527587891,0.146525141601563,-0.00220266552734216,0.25841296751691,1.17999200000031,
0.184114107666015,0.151313544921875,0.0408929643554696,0.241797493891593,1.18302899999981,
0.215238729248047,0.14173673828125,-0.021356278808593,0.258598345299176,1.18604200000027,
0.241574947509765,0.146525141601563,-0.00699106884765577,0.282625100494164,1.18915900000047,
0.220027132568359,0.144130939941406,-0.0189620771484371,0.263714291012889,1.19219299999986,
0.217632930908203,0.120188923339844,-0.0405098920898439,0.251893869052854,1.19516199999998,
0.210450325927734,0.151313544921875,-0.0141736738281235,0.259588176906615,1.19818699999996,
0.248757552490234,0.175255561523438,-0.00699106884765577,0.304374287365835,1.20112100000006,
0.260728560791015,0.101035310058594,0.0337103593750001,0.281644997505694,1.20414299999993,
0.215238729248047,0.146525141601563,0.00976834277343741,0.260562369136856,1.20711800000026,
0.198479317626953,0.122583125,0.0121625444335951,0.233599207078118,1.2100360000004,
0.191296712646484,0.144130939941406,-0.0357214887695303,0.242165614565025,1.21304500000042,
0.205661922607422,0.132159931640625,-0.0476924970703116,0.249073579928979,1.21599200000037,
0.231998140869141,0.146525141601563,-0.0309330854492185,0.276133319727091,1.21901499999967,
0.224815535888672,0.165678754882813,-0.00459686718749985,0.279307368653907,1.22198200000003,
0.220027132568359,0.122583125,0.00258573779296967,0.251883400884127,1.22493000000031,
0.203267720947266,0.146525141601563,0.0073741411132815,0.250682591054129,1.22796199999993,
0.200873519287109,0.127371528320313,-0.0429040937499998,0.241690790552618,1.23088499999994,
0.205661922607422,0.127371528320313,-0.0381156904296862,0.244894137320935,1.23390600000039,
0.231998140869141,0.189620771484375,-0.00220266552734216,0.29963982726015,1.2368720000004,
0.198479317626953,0.136948334960938,-0.0572693037109371,0.247848056522075,1.23986299999979,
0.231998140869141,0.132159931640625,-0.0740287153320303,0.277073339734632,1.24280999999974,
0.191296712646484,0.151313544921875,-0.0500866987304676,0.248995780156798,1.24574800000028,
0.220027132568359,0.163284553222656,-0.0165678754882812,0.274496409604155,1.24876899999981,
0.222421334228516,0.124977326660156,0.0672291826171882,0.263837724926682,1.2517170000001,
0.220027132568359,0.18004396484375,-0.0309330854492185,0.285980111403434,1.25470399999995,
0.234392342529297,0.151313544921875,0.0720175859375001,0.288135544141053,1.25767400000041,
0.203267720947266,0.134554133300781,-0.0452982954101557,0.247940550807014,1.26057899999978,
0.220027132568359,0.184832368164063,-0.00459686718749985,0.287395328033233,1.26361100000031,
0.208056124267578,0.1608903515625,-0.0381156904296862,0.265755266980887,1.26654000000053,
0.220027132568359,0.158496149902344,0.0217393510742188,0.27203964414263,1.26957500000026,
0.212844527587891,0.151313544921875,0.00258573779296967,0.261161382751874,1.27250600000025,
0.224815535888672,0.136948334960938,-0.00220266552734216,0.263252204854792,1.27540399999998,
0.243969149169922,0.136948334960938,-0.0117794721679676,0.280025977651761,1.27842800000053,
0.210450325927734,0.120188923339844,0.0432871660156255,0.246187927645416,1.2813900000001,
0.255940157470703,0.158496149902344,-0.0548751020507812,0.306002729669325,1.28439700000035,
0.205661922607422,0.132159931640625,-0.059663505371093,0.251640234889022,1.28733300000022,
0.212844527587891,0.151313544921875,0.0073741411132815,0.261252674164486,1.29028699999981,
0.246363350830078,0.156101948242188,0.0552581743164069,0.296843704171089,1.29330699999991,
0.234392342529297,0.187226569824219,0.000191536132813752,0.299989325427763,1.29624599999988,
0.200873519287109,0.144130939941406,-0.0668461103515625,0.256109939417265,1.29925400000047,
0.243969149169922,0.158496149902344,-0.0357214887695303,0.293117723859328,1.30221200000051,
0.229603939208984,0.153707746582031,-0.00699106884765577,0.276392683157933,1.3051430000005,
0.212844527587891,0.139342536621094,0.00497993945312558,0.254448295795177,1.30815799999982,
0.241574947509765,0.139342536621094,0.0504697709960951,0.283411353972887,1.3110999999999,
0.222421334228516,0.14173673828125,0.0121625444335951,0.264023636036056,1.31411399999979,
0.220027132568359,0.148919343261719,-0.0333272871093744,0.267767843345363,1.31705500000044,
0.184114107666015,0.124977326660156,-0.0524809003906235,0.228629791861391,1.31997500000034,
0.205661922607422,0.163284553222656,0.0480755693359374,0.26696428993159,1.32305400000041,
0.224815535888672,0.122583125,-0.0189620771484371,0.256764888724022,1.32606599999963,
0.220027132568359,0.163284553222656,0.00976834277343741,0.274170029193412,1.32918500000051,
0.222421334228516,0.139342536621094,0.0169509477539069,0.26301126793685,1.33219000000008,
0.210450325927734,0.163284553222656,0.014556746093751,0.266764097773763,1.33520299999964,
0.205661922607422,0.124977326660156,0.0121625444335951,0.240964906317911,1.33814499999971,
0.196085115966797,0.144130939941406,0.014556746093751,0.243792943722626,1.3410530000001,
0.236786544189453,0.148919343261719,-0.00220266552734216,0.279731460586954,1.34409400000004,
0.217632930908203,0.165678754882813,-0.00459686718749985,0.273559268940303,1.3470440000001,
0.231998140869141,0.148919343261719,-0.0165678754882812,0.27617857024475,1.35004899999967,
0.246363350830078,0.156101948242188,-0.0500866987304676,0.2959246462648,1.35300000000007,
0.234392342529297,0.146525141601563,0.0935654008789069,0.291828496893911,1.35592999999972,
0.229603939208984,0.14173673828125,-0.00459686718749985,0.269867380516486,1.3589320000001,
0.205661922607422,0.14173673828125,0.0193451494140628,0.250520187200635,1.36189600000034,
0.227209737548828,0.156101948242188,-0.0357214887695303,0.277971415512325,1.36495399999967,
0.200873519287109,0.136948334960938,0.0073741411132815,0.243227044459534,1.36791199999971,
0.229603939208984,0.158496149902344,0.00976834277343741,0.27916736728115,1.37085399999978,
0.212844527587891,0.110612116699219,0.0121625444335951,0.24017860181934,1.37386400000014,
0.205661922607422,0.151313544921875,0.000191536132813752,0.255328517744289,1.37680400000045,
0.243969149169922,0.144130939941406,0.00976834277343741,0.283531469356804,1.37980200000038,
0.210450325927734,0.172861359863281,-0.0261446821289049,0.273594469645302,1.38274000000001,
0.203267720947266,0.153707746582031,0.0073741411132815,0.254947476346756,1.38566600000013,
0.243969149169922,0.144130939941406,0.0193451494140628,0.284022725148783,1.38867699999992,
0.186508309326172,0.127371528320313,0.00976834277343741,0.226062549297531,1.3916049999998,
0.229603939208984,0.108217915039063,0.014556746093751,0.254245914210086,1.39464099999987,
0.215238729248047,0.139342536621094,-0.00459686718749985,0.256447234861783,1.39754799999992,
0.198479317626953,0.158496149902344,-0.0692403120117184,0.263266575673797,1.40048699999988,
0.25115175415039,0.136948334960938,0.0073741411132815,0.286158047272045,1.40350300000046,
0.236786544189453,0.151313544921875,0.0504697709960951,0.285501058089819,1.4064470000003,
0.222421334228516,0.165678754882813,-0.00699106884765577,0.277433910658277,1.40945499999998,
0.224815535888672,0.151313544921875,0.100748005859376,0.289115850029665,1.4124010000005,
0.222421334228516,0.14173673828125,0.0121625444335951,0.264023636036056,1.41530599999987,
0.229603939208984,0.117794721679687,-0.00459686718749985,0.258098230415897,1.41833399999996,
0.217632930908203,0.139342536621094,0.0289219560546883,0.260032526176486,1.42128800000046,
0.220027132568359,0.153707746582031,-0.0429040937499998,0.271806496769465,1.42431699999997,
0.220027132568359,0.124977326660156,0.00976834277343741,0.253232485605447,1.42726500000026,
0.227209737548828,0.163284553222656,-0.0165678754882812,0.280286647302944,1.43026199999986,
0.215238729248047,0.134554133300781,-0.0548751020507812,0.259699445863333,1.43320200000016,
0.200873519287109,0.115400520019531,0.0384987626953137,0.234839531383958,1.43615299999965,
0.200873519287109,0.151313544921875,0.0648349809570323,0.259710481851064,1.43916600000011,
0.191296712646484,0.105823713378906,0.0265277543945324,0.220219918117933,1.44210099999964,
0.212844527587891,0.146525141601563,-0.021356278808593,0.259284594008245,1.4450939999997,
0.220027132568359,0.127371528320313,-0.0261446821289049,0.255575800295192,1.44803000000047,
0.212844527587891,0.199197578125,-0.0548751020507812,0.296637396293963,1.45096000000012,
0.217632930908203,0.146525141601563,-0.0668461103515625,0.270743628191294,1.45398300000033,
0.224815535888672,0.1608903515625,0.0408929643554696,0.279463709516268,1.45692400000007,
0.188902510986328,0.144130939941406,-0.00938527050781168,0.237793965036621,1.45992800000022,
0.222421334228516,0.132159931640625,-0.0357214887695303,0.261177185472161,1.46295999999984,
0.222421334228516,0.163284553222656,0.0217393510742188,0.276777337631251,1.46599100000003,
0.25115175415039,0.187226569824219,-0.0644519086914048,0.319820325487494,1.46908900000017,
0.205661922607422,0.213562788085938,0.0313161577148442,0.29813854598096,1.47207400000025,
0.181719906005859,0.189620771484375,-0.0381156904296862,0.265388332588378,1.47508600000037,
0.200873519287109,0.158496149902344,-0.0476924970703116,0.260280184726876,1.4780209999999,
0.203267720947266,0.144130939941406,0.0169509477539069,0.249757540140922,1.48093400000016,
0.217632930908203,0.146525141601563,-0.0524809003906235,0.267559254451912,1.48398400000042,
0.210450325927734,0.172861359863281,-0.0309330854492185,0.274093497172554,1.48691400000007,
0.231998140869141,0.139342536621094,0.00976834277343741,0.270804173526328,1.4899260000002,
0.184114107666015,0.18004396484375,0.014556746093751,0.257925828049749,1.49287800000002,
0.186508309326172,0.172861359863281,0.000191536132813752,0.254295961170405,1.49579499999982,
0.248757552490234,0.184832368164063,-0.0285388837890626,0.31121984533444,1.49883399999999,
0.198479317626953,0.1608903515625,-0.00699106884765577,0.25559463960576,1.50178899999992,
0.196085115966797,0.136948334960938,0.00258573779296967,0.239188012225152,1.50482800000009,
0.236786544189453,0.139342536621094,-0.0452982954101557,0.278453129966697,1.50776899999983,
0.234392342529297,0.14173673828125,-0.0165678754882812,0.274414955338032,1.5106880000003,
0.243969149169922,0.158496149902344,0.0217393510742188,0.291744022502073,1.51372900000024,
0.215238729248047,0.144130939941406,0.014556746093751,0.2594481398537,1.51665099999991,
0.200873519287109,0.120188923339844,-0.0429040937499998,0.237983842529043,1.51967100000002,
0.241574947509765,0.113006318359375,0.0217393510742188,0.267584533631177,1.52261100000032,
0.215238729248047,0.136948334960938,-0.0381156904296862,0.25794449572305,1.52558899999985,
0.222421334228516,0.14173673828125,-0.0141736738281235,0.264123921537574,1.5285300000005,
0.205661922607422,0.139342536621094,0.0361045610351578,0.251031289384657,1.53146100000049,
0.246363350830078,0.129765729980469,0.0576523759765628,0.284355133179148,1.53449400000045,
0.227209737548828,0.0986411083984375,-0.0572693037109371,0.254232386313418,1.53743399999985,
0.208056124267578,0.156101948242188,-0.00220266552734216,0.260115399055261,1.54043999999976,
0.212844527587891,0.1608903515625,0.00258573779296967,0.266824257124331,1.54339900000014,
0.19369091430664,0.156101948242188,0.0456813676757815,0.252924446985021,1.54632399999991,
0.217632930908203,0.148919343261719,-0.0524809003906235,0.268877868778758,1.54933700000038,
0.212844527587891,0.127371528320313,0.00258573779296967,0.248058431001041,1.55227999999988,
0.19369091430664,0.158496149902344,-0.0429040937499998,0.253925109194261,1.55531200000041,
0.222421334228516,0.184832368164063,-0.0189620771484371,0.289816863917392,1.55825199999981,
0.224815535888672,0.158496149902344,0.0121625444335951,0.27533794180584,1.56119599999965,
0.222421334228516,0.163284553222656,0.0073741411132815,0.276020783996919,1.56421299999965,
0.239180745849609,0.156101948242188,-0.021356278808593,0.286411134690557,1.56714800000009,
0.229603939208984,0.148919343261719,-0.00699106884765577,0.273758679755396,1.57016699999986,
0.217632930908203,0.187226569824219,0.0432871660156255,0.290330259886051,1.57312600000023,
0.203267720947266,0.151313544921875,0.0432871660156255,0.25707456894369,1.57605100000001,
0.255940157470703,0.158496149902344,-0.0405098920898439,0.303755568010078,1.57906600000024,
0.236786544189453,0.132159931640625,0.0193451494140628,0.271860901650625,1.58199700000023,
0.231998140869141,0.146525141601563,0.0241335527343765,0.275454502333286,1.58502500000031,
0.239180745849609,0.153707746582031,0.0361045610351578,0.286595603371794,1.58795900000041,
0.224815535888672,0.165678754882813,-0.0333272871093744,0.281251103220059,1.59087400000044,
0.212844527587891,0.105823713378906,-0.0500866987304676,0.242920004584081,1.59389399999964,
0.198479317626953,0.1608903515625,0.0289219560546883,0.257130753301885,1.59683899999982,
