X,Y,Z,Magnitude,Seconds,
0.222421334228516,0.139342536621094,0.0241335527343765,0.263571661601882,0.0,
0.210450325927734,0.139342536621094,-0.021356278808593,0.253301742669964,0.00386299999991024,
0.200873519287109,0.146525141601563,-0.0165678754882812,0.249187243594735,0.00777500000003783,
0.239180745849609,0.14173673828125,0.0361045610351578,0.280357399565848,0.0115660000001299,
0.234392342529297,0.139342536621094,-0.0476924970703116,0.27682248287517,0.0153359999994791,
0.215238729248047,0.168072956542969,0.0169509477539069,0.273612068299562,0.019163999999364,
0.217632930908203,0.165678754882813,-0.0333272871093744,0.275543554635713,0.0229330000001937,
0.215238729248047,0.153707746582031,0.0337103593750001,0.266627399673836,0.0267079999994166,
0.222421334228516,0.132159931640625,-0.0357214887695303,0.261177185472161,0.0305259999995542,
0.215238729248047,0.153707746582031,-0.0452982954101557,0.268338811010829,0.0342890000001717,
0.227209737548828,0.14173673828125,-0.00938527050781168,0.267958301080821,0.0380329999998139,
0.231998140869141,0.148919343261719,0.014556746093751,0.276065222404194,0.0417820000002393,
0.184114107666015,0.168072956542969,-0.0141736738281235,0.249694646303307,0.0454849999996441,
0.224815535888672,0.158496149902344,-0.0357214887695303,0.277378945615359,0.0492159999994328,
0.258334359130859,0.115400520019531,0.0193451494140628,0.283598582390996,0.0530429999998887,
0.19369091430664,0.110612116699219,0.014556746093751,0.223524292868721,0.0571469999995315,
0.215238729248047,0.156101948242188,0.0313161577148442,0.267724168777011,0.0609429999994973,
0.217632930908203,0.139342536621094,-0.021356278808593,0.259300068978483,0.0647079999998823,
0.229603939208984,0.1608903515625,-0.0333272871093744,0.282337355290189,0.068515999999363,
0.241574947509765,0.14173673828125,-0.00699106884765577,0.28017250630029,0.0723280000001978,
0.241574947509765,0.172861359863281,-0.0644519086914048,0.303963079225247,0.0761579999998503,
0.181719906005859,0.175255561523438,-0.0117794721679676,0.252735814731964,0.0800460000000385,
0.222421334228516,0.144130939941406,0.000191536132813752,0.26503776043137,0.0838629999998375,
0.227209737548828,0.124977326660156,-0.00938527050781168,0.259483487564491,0.087666999999783,
0.217632930908203,0.127371528320313,0.0337103593750001,0.254409094121139,0.0914649999995163,
0.19369091430664,0.158496149902344,0.0408929643554696,0.253593048707149,0.0952280000001338,
0.236786544189453,0.134554133300781,-0.0548751020507812,0.277820012098826,0.0989380000000892,
0.208056124267578,0.175255561523438,-0.021356278808593,0.272869846877026,0.102710000000116,
0.208056124267578,0.151313544921875,-0.0261446821289049,0.25858593180158,0.106552999999622,
0.205661922607422,0.120188923339844,-0.0285388837890626,0.239909715501681,0.110297000000173,
0.212844527587891,0.148919343261719,-0.0357214887695303,0.262213250011371,0.114026999999624,
0.255940157470703,0.134554133300781,0.00976834277343741,0.289319200045541,0.11774400000013,
0.227209737548828,0.158496149902344,-0.00699106884765577,0.277117609354776,0.121466999999939,
0.208056124267578,0.134554133300781,-0.0117794721679676,0.248054271477284,0.125371000000086,
0.200873519287109,0.158496149902344,-0.0141736738281235,0.256265669402753,0.129350999999588,
0.196085115966797,0.124977326660156,0.0073741411132815,0.232643682140715,0.133138000000145,
0.222421334228516,0.151313544921875,-0.0381156904296862,0.271698076279073,0.136931999999433,
0.227209737548828,0.134554133300781,0.0313161577148442,0.265913108664001,0.140664999999899,
0.248757552490234,0.132159931640625,-0.00220266552734216,0.281693839456264,0.144437999999354,
0.248757552490234,0.134554133300781,0.000191536132813752,0.282816497742522,0.148223000000144,
0.220027132568359,0.124977326660156,-0.0309330854492185,0.254927689788266,0.152030000000195,
0.227209737548828,0.187226569824219,-0.00459686718749985,0.294447252446155,0.155816999999843,
0.220027132568359,0.14173673828125,0.0408929643554696,0.264902768159639,0.159593999999743,
0.200873519287109,0.144130939941406,0.0624407792968764,0.254995587252766,0.163332000000082,
0.215238729248047,0.163284553222656,-0.0500866987304676,0.27476941838413,0.167061000000103,
0.224815535888672,0.177649763183594,-0.0165678754882812,0.287012121754975,0.170836000000236,
0.246363350830078,0.132159931640625,0.0408929643554696,0.282548018392019,0.174629000000095,
0.215238729248047,0.182438166503906,-0.0429040937499998,0.285398241806304,0.178359999999884,
0.212844527587891,0.175255561523438,-0.0452982954101557,0.279408733464209,0.182090000000244,
0.212844527587891,0.144130939941406,-0.0668461103515625,0.265602942833167,0.185817999999927,
0.196085115966797,0.134554133300781,0.0193451494140628,0.238596777635175,0.189558000000034,
0.229603939208984,0.156101948242188,-0.0309330854492185,0.279361133518423,0.193350999999893,
0.217632930908203,0.203985981445313,-0.0405098920898439,0.301023960174324,0.197446000000127,
0.176931502685547,0.117794721679687,0.0121625444335951,0.212904393062379,0.201325999999426,
0.239180745849609,0.175255561523438,0.0337103593750001,0.298426422019335,0.205124000000069,
0.220027132568359,0.151313544921875,0.0815943925781255,0.279222801438693,0.208947999999509,
0.215238729248047,0.170467158203125,0.0289219560546883,0.276085570315061,0.212787999999819,
0.205661922607422,0.163284553222656,0.0193451494140628,0.263311425003846,0.216631000000234,
0.227209737548828,0.14173673828125,0.0696233842773442,0.276696554828291,0.220425999999861,
0.246363350830078,0.132159931640625,0.0169509477539069,0.280086563035849,0.224315999999817,
0.227209737548828,0.153707746582031,-0.00699106884765577,0.274407017475803,0.228151000000253,
0.19369091430664,0.136948334960938,-0.0141736738281235,0.237638190877017,0.231947000000218,
0.220027132568359,0.129765729980469,0.0169509477539069,0.256004723341922,0.235735999999633,
0.198479317626953,0.14173673828125,0.0121625444335951,0.244195147354258,0.239496000000145,
0.17453730102539,0.132159931640625,-0.00220266552734216,0.218939189538803,0.243250999999873,
0.246363350830078,0.151313544921875,-0.021356278808593,0.289908227122996,0.24708499999997,
0.198479317626953,0.151313544921875,-0.00699106884765577,0.249677198490607,0.250847999999678,
0.231998140869141,0.134554133300781,-0.0261446821289049,0.269465204727222,0.254567999999381,
0.210450325927734,0.184832368164063,-0.0189620771484371,0.280734579939858,0.258315999999468,
0.198479317626953,0.187226569824219,0.0193451494140628,0.273536218405637,0.262049999999363,
0.255940157470703,0.1608903515625,0.000191536132813752,0.302309619625515,0.265899999999419,
0.253545955810547,0.170467158203125,0.0217393510742188,0.306295940421778,0.269913000000088,
0.205661922607422,0.170467158203125,0.014556746093751,0.26752154547488,0.273677999999563,
0.200873519287109,0.165678754882813,0.00497993945312558,0.260431220031824,0.277439999999842,
0.241574947509765,0.153707746582031,0.052863972656251,0.291168552952878,0.281214999999975,
0.215238729248047,0.136948334960938,-0.00938527050781168,0.255285409530964,0.284974000000147,
0.227209737548828,0.139342536621094,-0.00699106884765577,0.266626109735414,0.288784999999734,
0.220027132568359,0.110612116699219,0.0217393510742188,0.247223742411735,0.292547999999442,
0.141018477783203,0.376368500976563,-0.133883756835937,0.423632293325404,0.296374999999898,
0.265516964111328,0.148919343261719,0.579588337890625,0.654674629451314,0.30018199999995,
0.409169063720703,-0.322738383789063,-0.483437199218749,0.71083817614512,0.303987999999663,
-0.366552274169922,0.785776984863281,-0.22725762158203,0.89635487738233,0.306904000000031,
0.0739808312988279,0.512837995605469,0.318620356933595,0.608272064941989,0.309824999999364,
0.624647213134766,-0.274854350585938,0.431147834960939,0.807228288964498,0.312858999999662,
0.533667550048828,-0.0641646044921875,-0.564840055664062,0.779719461683071,0.315824000000248,
0.119470662841797,0.113006318359375,-0.275141654785156,0.320541101057122,0.318847999999889,
-0.213323367919922,0.438617744140625,0.670568000976564,0.829188656886606,0.32180100000005,
0.19369091430664,0.244687409667969,-0.145854765136718,0.344473092197417,0.324719000000186,
0.524090743408203,0.0986411083984375,-0.330208292968749,0.627246914968555,0.327730999999403,
0.313400997314453,0.0986411083984375,0.433542036621095,0.54397513812796,0.330678999999691,
0.27030536743164,0.0124498486328125,0.0720175859375001,0.280011648110573,0.333686999999372,
0.0213083947753905,0.239899006347656,-0.392457536132811,0.460465523792969,0.336639000000105,
0.119470662841797,0.182438166503906,0.222852290527344,0.31180132660149,0.339562999999544,
0.231998140869141,0.127371528320313,0.1486320390625,0.303542627367667,0.342548999999963,
0.267911165771484,0.163284553222656,-0.215286613281249,0.380508296787689,0.345497999999679,
0.351708223876953,0.0866701000976562,0.0648349809570323,0.367986352667212,0.348519000000124,
0.160172091064453,0.249475812988281,0.134266829101563,0.325454853119617,0.351451999999881,
0.17453730102539,0.146525141601563,-0.121912748535156,0.25844845680712,0.354365000000143,
0.150595284423828,0.0866701000976562,-0.0764229169921862,0.189818619169,0.357364999999845,
0.181719906005859,0.187226569824219,0.0696233842773442,0.27004319714659,0.360351999999693,
0.322977803955078,0.129765729980469,-0.0524809003906235,0.35200575482628,0.363448000000062,
0.253545955810547,0.177649763183594,-0.0189620771484371,0.310168583897296,0.366503000000193,
0.186508309326172,0.172861359863281,0.0720175859375001,0.264297052321351,0.369611999999506,
0.19369091430664,0.122583125,-0.0476924970703116,0.234131089555637,0.372553000000153,
0.145806881103515,0.192014973144531,-0.059663505371093,0.248372966246321,0.375479999999698,
0.253545955810547,0.120188923339844,-0.0141736738281235,0.280948077109028,0.378483999999844,
0.263122762451172,0.139342536621094,0.0289219560546883,0.299142792281489,0.381427999999687,
0.279882174072265,0.134554133300781,0.0720175859375001,0.318787356769379,0.384435999999369,
0.215238729248047,0.122583125,0.0169509477539069,0.248277400769452,0.387378999999783,
0.164960494384765,0.187226569824219,-0.00220266552734216,0.249540788031205,0.390280999999959,
0.186508309326172,0.175255561523438,0.0552581743164069,0.261826902974818,0.393304000000171,
0.200873519287109,0.136948334960938,-0.0429040937499998,0.246871988001617,0.396232000000055,
0.255940157470703,0.151313544921875,-0.0117794721679676,0.297556564450372,0.399265999999443,
0.248757552490234,0.129765729980469,-0.0261446821289049,0.281785395295635,0.402218999999604,
0.172143099365234,0.136948334960938,-0.0381156904296862,0.223250753558804,0.40517600000021,
0.17453730102539,0.1608903515625,0.00258573779296967,0.237393472351425,0.408198000000084,
0.253545955810547,0.124977326660156,0.0265277543945324,0.283916546964455,0.411140999999589,
0.267911165771484,0.156101948242188,-0.0333272871093744,0.311857209402176,0.414134999999987,
0.258334359130859,0.0986411083984375,0.0073741411132815,0.276624451794816,0.417085999999472,
0.239180745849609,0.146525141601563,0.00258573779296967,0.280506207322525,0.419996999999967,
0.196085115966797,0.158496149902344,-0.0189620771484371,0.252843751371003,0.422993999999562,
0.205661922607422,0.184832368164063,-0.0524809003906235,0.281449952278424,0.425943000000188,
0.217632930908203,0.165678754882813,-0.00699106884765577,0.273609973281031,0.428946999999425,
0.246363350830078,0.110612116699219,0.0265277543945324,0.271355233496836,0.431901999999354,
0.212844527587891,0.113006318359375,-0.00220266552734216,0.240993926580481,0.434823999999935,
0.200873519287109,0.151313544921875,0.0241335527343765,0.252642807131325,0.437836000000061,
0.239180745849609,0.208774384765625,-0.0165678754882812,0.317912987179882,0.440770000000157,
0.203267720947266,0.170467158203125,-0.0644519086914048,0.27300341928062,0.4437769999995,
0.260728560791015,0.146525141601563,-0.0333272871093744,0.300931400155555,0.446719999999914,
0.260728560791015,0.1608903515625,0.0241335527343765,0.307323145899625,0.44964600000003,
0.272699569091797,0.146525141601563,0.0265277543945324,0.310706282294752,0.452639999999519,
0.196085115966797,0.170467158203125,0.014556746093751,0.260231288638394,0.455575999999382,
0.224815535888672,0.163284553222656,0.0265277543945324,0.279119315439204,0.458596999999827,
0.260728560791015,0.151313544921875,-0.0189620771484371,0.302050875944371,0.461521000000175,
0.217632930908203,0.139342536621094,0.00258573779296967,0.258432043616169,0.464511999999559,
0.217632930908203,0.136948334960938,-0.0812113203124998,0.269655739065882,0.467435999999907,
0.222421334228516,0.175255561523438,-0.0644519086914048,0.290413171703443,0.470376999999644,
0.222421334228516,0.192014973144531,-0.0261446821289049,0.294999227516462,0.47338099999979,
0.220027132568359,0.146525141601563,-0.00938527050781168,0.26451774891322,0.476329000000078,
0.200873519287109,0.153707746582031,0.0193451494140628,0.253673957898652,0.479323999999906,
0.236786544189453,0.146525141601563,-0.0141736738281235,0.278816028341858,0.482254999999896,
0.198479317626953,0.144130939941406,-0.0333272871093744,0.247544895807053,0.485155999999733,
0.167354696044922,0.168072956542969,-0.0524809003906235,0.242920476525124,0.488180999999713,
0.217632930908203,0.101035310058594,-0.0141736738281235,0.240360395082295,0.491108999999597,
0.210450325927734,0.14173673828125,0.0361045610351578,0.256285352662298,0.494110999999975,
0.227209737548828,0.1608903515625,-0.0668461103515625,0.286318655578091,0.497043999999732,
0.188902510986328,0.105823713378906,-0.00938527050781168,0.216727709979009,0.500055999999859,
0.186508309326172,0.211168586425781,-0.0237504804687489,0.282739467820229,0.503155999999763,
0.239180745849609,0.170467158203125,-0.0357214887695303,0.295875828635825,0.506210999999894,
0.224815535888672,0.187226569824219,0.0169509477539069,0.293058267678647,0.509282999999414,
0.188902510986328,0.177649763183594,0.00976834277343741,0.25949762530063,0.512214999999742,
0.224815535888672,0.129765729980469,-0.0357214887695303,0.262025179351501,0.515096000000085,
0.231998140869141,0.14173673828125,-0.0285388837890626,0.273362228980653,0.518106999999873,
0.212844527587891,0.146525141601563,0.0313161577148442,0.260294279190864,0.521090999999615,
0.203267720947266,0.144130939941406,0.0217393510742188,0.250128154378144,0.524088999999549,
0.239180745849609,0.136948334960938,-0.0189620771484371,0.276264069331377,0.527014000000236,
0.215238729248047,0.148919343261719,-0.0117794721679676,0.261998926200799,0.529969000000165,
0.246363350830078,0.146525141601563,-0.00459686718749985,0.286680395111911,0.532976999999846,
0.208056124267578,0.192014973144531,-0.00220266552734216,0.283128861991084,0.535946999999396,
0.220027132568359,0.110612116699219,-0.0740287153320303,0.257152153637971,0.53895300000022,
0.191296712646484,0.132159931640625,0.0073741411132815,0.232626433918772,0.541932999999517,
0.212844527587891,0.127371528320313,0.0121625444335951,0.248342961724031,0.544864999999845,
0.263122762451172,0.122583125,-0.021356278808593,0.291060648833283,0.547872000000098,
0.222421334228516,0.184832368164063,-0.0165678754882812,0.289670068766733,0.550815999999941,
0.220027132568359,0.14173673828125,0.0121625444335951,0.262009865333275,0.553823999999622,
0.263122762451172,0.182438166503906,-0.00459686718749985,0.320216183078217,0.55676399999993,
0.224815535888672,0.168072956542969,-0.0285388837890626,0.282143601355641,0.559760000000097,
0.212844527587891,0.144130939941406,0.000191536132813752,0.257053608141562,0.562694999999621,
0.220027132568359,0.175255561523438,-0.0285388837890626,0.282738251390001,0.56561899999997,
0.248757552490234,0.148919343261719,-0.0429040937499998,0.293083694495177,0.568612999999459,
0.188902510986328,0.144130939941406,0.0289219560546883,0.239362415695034,0.571563999999853,
0.210450325927734,0.134554133300781,0.0193451494140628,0.25053620352609,0.574547999999595,
0.236786544189453,0.158496149902344,0.0504697709960951,0.289371897093426,0.577502000000095,
0.260728560791015,0.14173673828125,0.0265277543945324,0.297946987136938,0.580401000000165,
0.200873519287109,0.113006318359375,0.0384987626953137,0.233672320716424,0.583426000000145,
0.184114107666015,0.148919343261719,0.014556746093751,0.237248549618312,0.586357000000135,
0.186508309326172,0.170467158203125,0.0337103593750001,0.254913298599245,0.589359999999942,
0.191296712646484,0.129765729980469,-0.0452982954101557,0.235553629803875,0.592266999999993,
0.19369091430664,0.134554133300781,0.0217393510742188,0.236840842040377,0.595210999999836,
0.203267720947266,0.139342536621094,-0.0405098920898439,0.24975019569207,0.598210999999537,
0.241574947509765,0.158496149902344,0.0720175859375001,0.297768395707935,0.601163999999699,
0.215238729248047,0.192014973144531,-0.0189620771484371,0.289062313091472,0.604158999999527,
0.191296712646484,0.182438166503906,0.0432871660156255,0.267865443102172,0.607108000000153,
0.196085115966797,0.136948334960938,-0.0189620771484371,0.239924528804515,0.609997999999905,
0.210450325927734,0.129765729980469,0.0384987626953137,0.250221180337564,0.613014999999905,
0.227209737548828,0.134554133300781,0.0289219560546883,0.265641787313971,0.615944999999556,
0.200873519287109,0.146525141601563,-0.00699106884765577,0.248734120931928,0.61895899999945,
0.253545955810547,0.153707746582031,0.0121625444335951,0.296748294947602,0.621911999999611,
0.222421334228516,0.156101948242188,-0.0357214887695303,0.274071328170079,0.62482799999998,
0.200873519287109,0.194409174804688,-0.0548751020507812,0.284879579514067,0.627837999999429,
0.267911165771484,0.0675164868164063,0.141449434082032,0.310391383803083,0.630784999999378,
0.258334359130859,0.00287304199218749,-0.00699106884765577,0.258444908097399,0.633783000000221,
0.102711251220703,0.287783039550781,-0.0883939252929675,0.318091441269814,0.63677000000007,
0.186508309326172,0.29496564453125,-0.00459686718749985,0.349014630193896,0.639799999999923,
0.301429989013672,0.0387860668945312,0.179756660644532,0.353096097837406,0.642903999999362,
0.258334359130859,0.0148440502929687,-0.105153336914062,0.279310241847331,0.64594599999964,
0.172143099365234,0.170467158203125,-0.105153336914062,0.264101349767623,0.648983999999473,
0.107499654541016,0.220745393066406,0.244400105468751,0.346433421943692,0.651923999999781,
0.217632930908203,0.201591779785156,-0.00699106884765577,0.296735931993876,0.654916999999841,
0.301429989013672,0.127371528320313,-0.0931823286132811,0.340244751420544,0.657865999999558,
0.275093770751953,0.0842758984375,0.0911711992187509,0.301813182831634,0.660832999999911,
0.222421334228516,0.093852705078125,0.0337103593750001,0.243753909711549,0.663827999999739,
0.188902510986328,0.182438166503906,-0.109941740234374,0.284701649977673,0.666772999999921,
0.220027132568359,0.213562788085938,0.0911711992187509,0.319895594043242,0.669777999999496,
0.267911165771484,0.144130939941406,0.0313161577148442,0.305828092770187,0.672703000000183,
0.267911165771484,0.129765729980469,-0.0405098920898439,0.30042734359497,0.675631000000067,
0.246363350830078,0.134554133300781,-0.0476924970703116,0.284735473198108,0.678667999999561,
0.229603939208984,0.124977326660156,0.0289219560546883,0.263009088476865,0.681646000000001,
0.13623007446289,0.184832368164063,0.0241335527343765,0.230876733078245,0.684658999999556,
0.220027132568359,0.177649763183594,-0.0189620771484371,0.283427129603404,0.687584000000243,
0.212844527587891,0.151313544921875,-0.00699106884765577,0.261242142168084,0.690517,
0.239180745849609,0.122583125,-0.00938527050781168,0.268927750562202,0.693514999999934,
0.243969149169922,0.170467158203125,0.014556746093751,0.297979691639183,0.696468000000095,
0.176931502685547,0.170467158203125,0.0624407792968764,0.253500807863833,0.699464000000262,
0.224815535888672,0.175255561523438,0.0361045610351578,0.287332692795908,0.702400000000125,
0.241574947509765,0.192014973144531,0.0169509477539069,0.309055884599851,0.705309999999372,
0.243969149169922,0.182438166503906,0.0504697709960951,0.308790913286646,0.708316000000195,
0.241574947509765,0.139342536621094,0.0073741411132815,0.27897880875347,0.711236000000099,
0.27030536743164,0.165678754882813,0.0121625444335951,0.317273334790323,0.714253000000099,
0.203267720947266,0.134554133300781,0.00497993945312558,0.24381833598886,0.717176999999538,
0.186508309326172,0.139342536621094,0.0792001909179696,0.245915355765252,0.720091999999568,
0.181719906005859,0.1608903515625,-0.00220266552734216,0.242719346571526,0.723097999999482,
0.248757552490234,0.156101948242188,0.014556746093751,0.294040876448796,0.726051999999981,
0.231998140869141,0.144130939941406,0.0337103593750001,0.275196754240166,0.729029999999511,
0.205661922607422,0.144130939941406,-0.0548751020507812,0.257063865768914,0.731971000000158,
0.222421334228516,0.129765729980469,-0.00699106884765577,0.257602930187119,0.734907000000021,
0.212844527587891,0.136948334960938,0.0169509477539069,0.253663111237013,0.737912999999935,
0.210450325927734,0.139342536621094,-0.0333272871093744,0.254590632705057,0.74083999999948,
0.208056124267578,0.132159931640625,0.0552581743164069,0.252600602147507,0.743864000000031,
0.212844527587891,0.124977326660156,-0.0141736738281235,0.247230698201129,0.746809000000212,
0.179325704345703,0.144130939941406,-0.0237504804687489,0.231290988605203,0.749801999999363,
0.208056124267578,0.124977326660156,0.0289219560546883,0.244424144810603,0.752757999999631,
0.19369091430664,0.151313544921875,0.000191536132813752,0.245788518543598,0.755678999999873,
0.205661922607422,0.1608903515625,0.000191536132813752,0.261117920339789,0.758678999999574,
0.239180745849609,0.146525141601563,0.0480755693359374,0.284584445593057,0.761617000000115,
0.27030536743164,0.132159931640625,-0.0117794721679676,0.301114588085939,0.764580000000024,
0.229603939208984,0.146525141601563,0.0432871660156255,0.275792249280695,0.767539999999826,
0.181719906005859,0.177649763183594,0.0361045610351578,0.256680934090374,0.770448000000215,
0.239180745849609,0.153707746582031,-0.0117794721679676,0.284556244895552,0.773443000000043,
0.220027132568359,0.134554133300781,0.014556746093751,0.25831889731767,0.776452000000063,
0.239180745849609,0.120188923339844,0.00497993945312558,0.26772673806649,0.779569999999694,
0.258334359130859,0.14173673828125,0.0073741411132815,0.294754681121976,0.782588000000032,
0.220027132568359,0.14173673828125,0.000191536132813752,0.26172748944456,0.785576000000219,
0.229603939208984,0.156101948242188,-0.0165678754882812,0.278137163362764,0.788575999999921,
0.215238729248047,0.172861359863281,0.014556746093751,0.276442867802616,0.791524000000209,
0.258334359130859,0.144130939941406,-0.00699106884765577,0.295904112846675,0.794503000000077,
0.176931502685547,0.132159931640625,-0.0620577070312489,0.229395211754292,0.797493000000031,
0.248757552490234,0.0890643017578125,-0.00459686718749985,0.264261046990429,0.800422000000253,
0.227209737548828,0.168072956542969,0.0384987626953137,0.285227870810642,0.803444999999556,
0.227209737548828,0.146525141601563,-0.0261446821289049,0.271620003611639,0.806376999999884,
0.203267720947266,0.172861359863281,0.0576523759765628,0.272988301157066,0.809392999999545,
0.215238729248047,0.0986411083984375,0.014556746093751,0.237212305100777,0.812342999999601,
0.205661922607422,0.144130939941406,-0.00220266552734216,0.251148175375414,0.815251999999418,
0.234392342529297,0.187226569824219,0.000191536132813752,0.299989325427763,0.818311999999423,
0.191296712646484,0.122583125,0.0169509477539069,0.227834127017602,0.821267000000262,
0.277487972412109,0.14173673828125,0.0361045610351578,0.313675655956168,0.824254999999539,
0.236786544189453,0.148919343261719,0.0073741411132815,0.279819971166899,0.827210999999807,
0.200873519287109,0.124977326660156,-0.0333272871093744,0.238914652116564,0.830111999999644,
0.188902510986328,0.1608903515625,0.0169509477539069,0.248711074366624,0.833118999999897,
0.260728560791015,0.194409174804688,0.0073741411132815,0.325313214637144,0.836048000000119,
0.229603939208984,0.110612116699219,0.0361045610351578,0.257403474313199,0.839062000000013,
0.198479317626953,0.158496149902344,-0.0189620771484371,0.254704985089241,0.841981999999916,
0.200873519287109,0.170467158203125,0.0432871660156255,0.266988766651899,0.844981000000189,
0.217632930908203,0.175255561523438,0.0408929643554696,0.282401910394331,0.847928999999567,
0.217632930908203,0.184832368164063,-0.0285388837890626,0.286952199546816,0.850846999999703,
0.208056124267578,0.115400520019531,-0.00459686718749985,0.237961681902704,0.853846999999405,
0.227209737548828,0.115400520019531,0.0768059892578137,0.266159172007385,0.85680499999944,
0.236786544189453,0.127371528320313,-0.0117794721679676,0.269128463192565,0.859789000000092,
0.220027132568359,0.199197578125,-0.0381156904296862,0.29923973675642,0.862747000000127,
0.236786544189453,0.146525141601563,0.0648349809570323,0.285903933841842,0.865670999999566,
0.220027132568359,0.196803376464844,-0.0381156904296862,0.2976513294295,0.868666999999732,
0.25115175415039,0.144130939941406,-0.0572693037109371,0.295179105982702,0.871594000000186,
0.212844527587891,0.136948334960938,0.0432871660156255,0.256771139566638,0.874612999999954,
0.220027132568359,0.117794721679687,0.00258573779296967,0.249588103806619,0.877551999999923,
0.186508309326172,0.113006318359375,-0.00699106884765577,0.218184904336849,0.880471999999827,
0.200873519287109,0.172861359863281,0.0193451494140628,0.265716870541605,0.883474999999635,
0.224815535888672,0.158496149902344,-0.0405098920898439,0.278036159640986,0.886405999999624,
0.241574947509765,0.113006318359375,0.0289219560546883,0.268263606915876,0.889414999999644,
0.186508309326172,0.108217915039063,0.00976834277343741,0.21585153949798,0.892351999999846,
0.222421334228516,0.153707746582031,-0.0572693037109371,0.276364061387972,0.895254999999452,
0.191296712646484,0.139342536621094,0.0744117875976578,0.248088469935286,0.898261999999704,
0.236786544189453,0.146525141601563,0.0169509477539069,0.278971000751507,0.901202999999441,
0.241574947509765,0.175255561523438,0.0456813676757815,0.301926736911409,0.904203000000052,
0.255940157470703,0.134554133300781,0.0839885942382814,0.301105069629482,0.90711199999987,
0.210450325927734,0.129765729980469,-0.00938527050781168,0.247419820675221,0.910022000000026,
0.205661922607422,0.136948334960938,-0.0357214887695303,0.249655157405302,0.91305199999988,
0.241574947509765,0.139342536621094,0.0121625444335951,0.279146422623407,0.916103999999905,
0.205661922607422,0.144130939941406,-0.0165678754882812,0.25168442295297,0.919199999999364,
0.215238729248047,0.134554133300781,-0.0189620771484371,0.254542895651051,0.922246999999516,
0.224815535888672,0.158496149902344,-0.00220266552734216,0.275078000658363,0.925202999999783,
0.227209737548828,0.139342536621094,0.00497993945312558,0.2665809579583,0.928194000000076,
0.229603939208984,0.113006318359375,0.000191536132813752,0.255907079963634,0.931125999999495,
0.215238729248047,0.170467158203125,-0.00459686718749985,0.274604977708167,0.934130999999979,
0.212844527587891,0.156101948242188,-0.0716345136718743,0.273499752683846,0.937093999999888,
0.255940157470703,0.177649763183594,-0.0165678754882812,0.311992463151773,0.940090999999484,
0.243969149169922,0.144130939941406,0.00976834277343741,0.283531469356804,0.943038999999771,
0.217632930908203,0.113006318359375,0.0289219560546883,0.246923065238678,0.945980999999847,
0.215238729248047,0.158496149902344,0.0241335527343765,0.268386230030088,0.948988999999528,
0.236786544189453,0.134554133300781,0.0480755693359374,0.276557304485856,0.951932999999372,
0.224815535888672,0.172861359863281,0.0217393510742188,0.284421648781913,0.954963000000134,
0.241574947509765,0.14173673828125,0.014556746093751,0.28046329011083,0.957923999999366,
0.239180745849609,0.110612116699219,0.00258573779296967,0.263532076957988,0.960857000000033,
0.246363350830078,0.144130939941406,0.0384987626953137,0.288011776164947,0.963853999999628,
0.241574947509765,0.177649763183594,-0.0261446821289049,0.301000727618978,0.966800999999577,
0.208056124267578,0.14173673828125,0.0408929643554696,0.255046835615797,0.969814000000042,
0.215238729248047,0.148919343261719,0.00497993945312558,0.2617813613739,0.972757999999885,
0.205661922607422,0.146525141601563,0.0193451494140628,0.253260100169355,0.975679000000127,
0.224815535888672,0.168072956542969,-0.00459686718749985,0.280734171567953,0.978670999999849,
0.220027132568359,0.1608903515625,-0.0117794721679676,0.272830350688326,0.981614999999692,
0.212844527587891,0.165678754882813,-0.0644519086914048,0.277319835708873,0.98462599999948,
0.196085115966797,0.168072956542969,-0.0883939252929675,0.272967722365677,0.987567999999555,
0.203267720947266,0.14173673828125,0.0073741411132815,0.24791419345181,0.990485999999692,
0.200873519287109,0.117794721679687,0.0241335527343765,0.234111502438403,0.993501999999353,
0.179325704345703,0.134554133300781,0.0169509477539069,0.224832955006962,0.996422000000166,
0.241574947509765,0.139342536621094,-0.0429040937499998,0.282162292018008,0.999421999999868,
0.203267720947266,0.1608903515625,0.0768059892578137,0.270374983293336,1.00238499999978,
0.224815535888672,0.165678754882813,0.014556746093751,0.279648661454454,1.00529399999959,
0.234392342529297,0.148919343261719,-0.00938527050781168,0.277857561236648,1.00828899999942,
0.227209737548828,0.168072956542969,-0.0357214887695303,0.284866299021161,1.01124999999956,
