X,Y,Z,Magnitude,Seconds,
0.0859518395996092,0.608606062011719,0.0193451494140628,0.614949829054226,0.0,
0.107499654541016,0.606211860351563,-0.0165678754882812,0.615892433672906,0.00396899999986999,
0.0524330163574217,0.572693037109375,0.0361045610351578,0.576220509254434,0.00785300000006828,
0.112288057861328,0.577481440429688,0.0815943925781255,0.593928503171223,0.0116830000001755,
0.100317049560547,0.558327827148438,-0.0788171186523439,0.572717741294511,0.0154680000000553,
0.0811634362792967,0.603817658691406,0.0073741411132815,0.609292742688926,0.0192529999999351,
0.0739808312988279,0.577481440429688,-0.0429040937499998,0.583779700487197,0.0230820000001586,
0.0907402429199217,0.594240852050781,0.0217393510742188,0.601521887645274,0.026882999999998,
0.109893856201172,0.589452448730469,0.0073741411132815,0.599654256136208,0.0306359999999586,
0.0763750329589842,0.558327827148438,-0.0237504804687489,0.564027653178705,0.0344740000000456,
0.0955286462402342,0.58226984375,-0.0452982954101557,0.591790358792881,0.0383090000000266,
0.148201082763672,0.553539423828125,-0.0476924970703116,0.575016546667223,0.0420850000000428,
0.0691924279785154,0.584664045410156,0.014556746093751,0.58892405023209,0.0458549999998468,
-0.0361524450683596,0.663672700195313,-0.0476924970703116,0.666365535232548,0.0495850000002065,
0.191296712646484,0.551145222167969,0.0265277543945324,0.584002748230818,0.0533650000002126,
0.121864864501953,0.56311623046875,-0.0500866987304676,0.578324832258766,0.0571150000000671,
0.121864864501953,0.496078583984375,0.0169509477539069,0.511108932927001,0.0609840000001896,
0.0596156213378904,0.625365473632813,-0.0620577070312489,0.63125839156519,0.0647189999999682,
0.107499654541016,0.572693037109375,-0.0668461103515625,0.586516745668128,0.0684599999999591,
0.124259066162109,0.599029255371094,0.0265277543945324,0.612356175821836,0.0722970000001624,
0.184114107666015,0.508049592285156,-0.00459686718749985,0.540401262073569,0.0762770000001183,
0.0476446130371092,0.594240852050781,-0.0907881269531234,0.603021295969845,0.0800810000000638,
0.105105452880859,0.589452448730469,0.0648349809570323,0.602249881938831,0.0839829999999893,
0.0404620080566405,0.625365473632813,-0.0141736738281235,0.626833345266311,0.0877940000000308,
0.102711251220703,0.560722028808594,0.0169509477539069,0.570303541413082,0.0916130000000521,
0.102711251220703,0.488895979003906,-0.0333272871093744,0.500679126267094,0.0954059999999117,
0.141018477783203,0.553539423828125,0.0073741411132815,0.571267435414818,0.0991979999998875,
0.162566292724609,0.560722028808594,-0.0309330854492185,0.584631378645431,0.102937000000111,
0.107499654541016,0.618182868652344,-0.00220266552734216,0.62746401216094,0.106768999999986,
0.0739808312988279,0.575087238769531,-0.0285388837890626,0.580528176304264,0.110565999999835,
0.0428562097167967,0.599029255371094,0.014556746093751,0.600736716339675,0.114305999999942,
0.126653267822265,0.584664045410156,0.00976834277343741,0.598304702276329,0.118022999999994,
0.131441671142578,0.618182868652344,-0.0668461103515625,0.635527634707672,0.121743000000151,
0.121864864501953,0.555933625488281,-0.0405098920898439,0.570573652130691,0.125476000000162,
0.0548272180175779,0.572693037109375,-0.109941740234374,0.585722224979443,0.129222000000027,
0.119470662841797,0.560722028808594,-0.0117794721679676,0.573429323313379,0.13307900000018,
0.102711251220703,0.613394465332031,0.0121625444335951,0.622053292503456,0.13683600000013,
0.102711251220703,0.560722028808594,0.0456813676757815,0.571878992507399,0.140554999999949,
0.0763750329589842,0.567904633789063,-0.0141736738281235,0.57319256081038,0.144459000000097,
0.15538368774414,0.608606062011719,0.0480755693359374,0.629965625650603,0.148401999999805,
0.0691924279785154,0.56311623046875,-0.0572693037109371,0.570234385366607,0.152176999999938,
0.13623007446289,0.596635053710938,0.00976834277343741,0.612068166975997,0.156085000000076,
0.119470662841797,0.603817658691406,-0.0405098920898439,0.616854971273281,0.159873000000061,
0.0835576379394529,0.591846650390625,-0.0429040937499998,0.599253784049072,0.16370599999982,
0.0859518395996092,0.570298835449219,-0.0524809003906235,0.579122375108321,0.167539000000033,
0.107499654541016,0.56311623046875,0.0265277543945324,0.573898759797396,0.17131500000005,
0.119470662841797,0.627759675292969,0.000191536132813752,0.63902698369465,0.175079000000096,
0.0979228479003904,0.632548078613281,-0.0883939252929675,0.64615744360564,0.178875999999946,
0.102711251220703,0.567904633789063,0.0504697709960951,0.579320698741906,0.18277100000023,
0.112288057861328,0.567904633789063,0.00976834277343741,0.578981607253544,0.186538999999811,
0.100317049560547,0.589452448730469,0.0169509477539069,0.598168065326656,0.190304000000197,
0.0715866296386717,0.615788666992188,-0.0668461103515625,0.623529253851151,0.194070000000011,
0.0931344445800779,0.555933625488281,-0.0237504804687489,0.564181093300973,0.197829000000183,
0.121864864501953,0.608606062011719,0.0313161577148442,0.621476536686231,0.201579000000038,
0.112288057861328,0.596635053710938,0.00258573779296967,0.607115047824427,0.205394999999953,
0.0428562097167967,0.58226984375,0.0217393510742188,0.584249454460223,0.20915500000001,
0.109893856201172,0.575087238769531,-0.0309330854492185,0.586309515189491,0.212916999999834,
0.126653267822265,0.611000263671875,-0.00459686718749985,0.62400601250717,0.216919999999845,
0.133835872802734,0.589452448730469,0.0073741411132815,0.604500296211982,0.220773000000008,
0.045250411376953,0.56311623046875,-0.0141736738281235,0.565109176864881,0.224560999999994,
0.102711251220703,0.536780012207031,0.0504697709960951,0.548843857956615,0.228488000000198,
0.102711251220703,0.606211860351563,-0.0141736738281235,0.615014889078314,0.232328000000052,
0.131441671142578,0.589452448730469,0.00976834277343741,0.604008710820994,0.236177000000225,
0.026096798095703,0.632548078613281,-0.0189620771484371,0.633370093229847,0.239975999999842,
0.0404620080566405,0.634942280273438,0.0217393510742188,0.636601502323028,0.243780000000243,
0.131441671142578,0.6205770703125,-0.0333272871093744,0.635219270155172,0.247576000000208,
0.19369091430664,0.558327827148438,-0.0381156904296862,0.592198394721034,0.251370999999835,
0.0907402429199217,0.579875642089844,0.0337103593750001,0.587899600530113,0.255243000000064,
0.0524330163574217,0.591846650390625,0.014556746093751,0.59434297980188,0.258984000000055,
0.107499654541016,0.611000263671875,-0.0381156904296862,0.621554747218996,0.262720000000172,
0.100317049560547,0.558327827148438,0.0289219560546883,0.568005239890318,0.266459999999825,
0.0907402429199217,0.575087238769531,-0.00699106884765577,0.582243934210021,0.27015399999982,
0.0835576379394529,0.599029255371094,-0.0692403120117184,0.608779228009586,0.273878999999852,
0.0979228479003904,0.575087238769531,-0.0357214887695303,0.584457219218309,0.277668000000176,
0.0859518395996092,0.58226984375,0.00258573779296967,0.588585232325056,0.281432000000223,
0.133835872802734,0.599029255371094,-0.021356278808593,0.614169504521241,0.285283000000163,
0.0739808312988279,0.596635053710938,-0.0572693037109371,0.603925760225423,0.289247000000159,
0.0763750329589842,0.570298835449219,-0.0764229169921862,0.580443252709355,0.293029999999817,
0.112288057861328,0.627759675292969,-0.059663505371093,0.6405080418975,0.296817999999803,
-0.507810172119141,1.75782285888672,-1.88883357373047,2.62973470969673,0.300587000000178,
0.797029732666016,-0.461602080078125,-3.97897162304688,4.08418266634811,0.304122000000007,
0.17453730102539,-1.31154366943359,9.39204609851075,9.48478465663989,0.30714399999988,
0.531273348388672,0.560722028808594,-0.763558793457031,1.08613194196879,0.31006699999989,
-0.0241814367675783,0.838449421386719,-7.91743335400391,7.96174183763838,0.313052999999854,
-0.677798489990235,1.271799921875,-6.15290673046875,6.31942616605036,0.31599499999993,
-0.59160723022461,1.25025210693359,-2.11628273144531,2.52819739046609,0.31898799999999,
-0.213323367919922,1.15448404052734,3.64416646289063,3.82861456252648,0.32192299999997,
-0.258813199462891,1.10660000732422,3.65613747119141,3.82869286528393,0.32483000000002,
-0.103190091552735,0.994072529296875,-0.89763408642578,1.34334483347009,0.327816999999868,
0.411563265380859,0.749863959960938,-1.3070425703125,1.56206291821692,0.330742999999984,
0.550426961669922,0.531991608886719,0.354533381835939,0.843610591976588,0.33375500000011,
0.543244356689453,0.168072956542969,0.593953547851564,0.822279615946724,0.336687999999867,
0.533667550048828,0.225533796386719,-0.394851737792967,0.701123699589345,0.339598999999907,
0.143412679443359,0.18004396484375,-0.162614176757812,0.281826890811367,0.342607000000044,
0.026096798095703,0.302148249511719,0.373686995117188,0.481265600135265,0.345544000000245,
0.0117315881347655,0.60142345703125,-0.346967704589844,0.694430984948057,0.348547000000053,
-0.143891519775391,0.881545051269531,0.0193451494140628,0.89342077527161,0.351490999999896,
-0.0361524450683596,0.83126681640625,0.172574055664063,0.849760745169454,0.35440699999981,
0.112288057861328,0.795353791503906,-0.097970731933593,0.809193750540322,0.35741199999984,
0.121864864501953,0.622971271972656,-0.0333272871093744,0.635653175064342,0.360367000000224,
0.181719906005859,0.37158009765625,-0.0237504804687489,0.414316278385852,0.363380000000234,
0.224815535888672,0.364397492675781,0.0480755693359374,0.430858234471945,0.366331000000173,
0.19369091430664,0.52480900390625,-0.0237504804687489,0.559914945494857,0.369322000000011,
0.0979228479003904,0.627759675292969,0.000191536132813752,0.63535118694384,0.372265999999854,
0.0667982263183592,0.752258161621094,-0.0309330854492185,0.755851308486157,0.375174000000243,
0.0859518395996092,0.713950935058594,0.00976834277343741,0.719172494553384,0.378182999999808,
0.0596156213378904,0.603817658691406,-0.0381156904296862,0.607949498817135,0.381111000000146,
0.0237025964355467,0.505655390625,0.0217393510742188,0.506677201511017,0.384100000000217,
0.152989486083984,0.469742365722656,-0.0572693037109371,0.497336351129188,0.387044999999944,
0.265516964111328,0.512837995605469,-0.0429040937499998,0.579087928753518,0.38995100000011,
0.131441671142578,0.627759675292969,-0.0261446821289049,0.641905497125791,0.392968999999994,
0.0715866296386717,0.60142345703125,0.0313161577148442,0.606477964929036,0.395911999999953,
0.0404620080566405,0.603817658691406,0.0217393510742188,0.605562167269947,0.398916000000099,
0.0237025964355467,0.622971271972656,-0.0381156904296862,0.624586122674806,0.401926000000003,
0.0787692346191404,0.606211860351563,-0.0165678754882812,0.611532424693559,0.404950999999983,
0.15538368774414,0.575087238769531,0.0241335527343765,0.596197828728112,0.408064000000195,
0.255940157470703,0.510443793945313,0.0073741411132815,0.571062701409024,0.411067000000003,
0.105105452880859,0.572693037109375,-0.109941740234374,0.592546755306797,0.414072000000033,
0.0524330163574217,0.587058247070313,-0.0357214887695303,0.59047661377697,0.417015999999876,
0.133835872802734,0.560722028808594,0.0073741411132815,0.576520261913884,0.419932000000244,
0.0548272180175779,0.618182868652344,0.014556746093751,0.620780139653022,0.422958000000108,
0.0548272180175779,0.649307490234375,-0.0500866987304676,0.653540295697003,0.425888000000214,
0.148201082763672,0.575087238769531,-0.00699106884765577,0.59391730751976,0.428902999999991,
0.13623007446289,0.531991608886719,0.0169509477539069,0.549418819975982,0.431858999999804,
0.105105452880859,0.522414802246094,-0.0381156904296862,0.53424450178551,0.434780000000046,
0.0787692346191404,0.663672700195313,0.0289219560546883,0.668956295171106,0.43780199999992,
0.0308852014160155,0.670855305175781,-0.0572693037109371,0.674003345167169,0.440743000000111,
0.121864864501953,0.546356818847656,-0.021356278808593,0.560190065375994,0.443791000000147,
0.167354696044922,0.548751020507813,-0.00699106884765577,0.573745720542024,0.446746999999959,
0.0859518395996092,0.567904633789063,0.000191536132813752,0.57437220379797,0.449657000000116,
0.0284909997558592,0.632548078613281,0.131872627441407,0.646776003491736,0.452663999999913,
0.0739808312988279,0.630153876953125,0.00976834277343741,0.634556926177045,0.455594999999903,
0.107499654541016,0.553539423828125,0.0408929643554696,0.565362099890139,0.458599999999933,
0.112288057861328,0.500866987304688,0.0408929643554696,0.514925801881903,0.461517000000185,
0.0572214196777342,0.548751020507813,-0.0692403120117184,0.556054128827204,0.464519000000109,
0.119470662841797,0.606211860351563,0.0241335527343765,0.618343340934746,0.467467999999826,
0.0979228479003904,0.630153876953125,-0.00699106884765577,0.637755178594114,0.470377999999982,
0.0955286462402342,0.661278498535156,-0.0500866987304676,0.670017650713113,0.473406999999952,
0.0931344445800779,0.627759675292969,0.00258573779296967,0.634636053759245,0.476360999999997,
0.0955286462402342,0.589452448730469,0.00497993945312558,0.597163889869267,0.479353000000174,
0.0931344445800779,0.515232197265625,0.000191536132813752,0.523582160269517,0.482286999999815,
0.133835872802734,0.496078583984375,-0.00699106884765577,0.513862702850134,0.485201999999845,
0.0715866296386717,0.536780012207031,0.0337103593750001,0.542580699414563,0.488221999999951,
0.117076461181641,0.63973068359375,-0.021356278808593,0.650706028816925,0.49114899999995,
0.0883460412597654,0.591846650390625,-0.021356278808593,0.598785079330994,0.494146999999884,
0.114682259521484,0.591846650390625,-0.0189620771484371,0.603153412157586,0.49709699999994,
0.114682259521484,0.522414802246094,-0.021356278808593,0.53528061509766,0.500037000000248,
0.107499654541016,0.575087238769531,0.0265277543945324,0.585649408498991,0.503054000000247,
0.0572214196777342,0.687614716796875,0.00497993945312558,0.690009485023604,0.505991999999878,
0.109893856201172,0.615788666992188,-0.00220266552734216,0.625521537408749,0.508987000000161,
0.0955286462402342,0.555933625488281,-0.0309330854492185,0.564928999057798,0.511927000000014,
0.119470662841797,0.596635053710938,-0.059663505371093,0.611397056314207,0.514850999999908,
0.0907402429199217,0.565510432128906,-0.00220266552734216,0.572748367319553,0.517855000000054,
0.17453730102539,0.572693037109375,0.000191536132813752,0.598699107138868,0.520798000000013,
0.143412679443359,0.579875642089844,-0.0117794721679676,0.597462729280068,0.523799000000054,
0.0763750329589842,0.579875642089844,-0.0764229169921862,0.589855379046584,0.526730000000043,
0.13623007446289,0.651701691894531,-0.0429040937499998,0.667169011320871,0.529650999999831,
0.121864864501953,0.567904633789063,-0.0644519086914048,0.584397781321194,0.532650999999987,
0.107499654541016,0.551145222167969,-0.0333272871093744,0.562519279412793,0.53559499999983,
0.0907402429199217,0.548751020507813,-0.0620577070312489,0.559654029910898,0.538626999999906,
0.0979228479003904,0.553539423828125,-0.0309330854492185,0.562984576741055,0.541683999999805,
0.0907402429199217,0.8504204296875,-0.100364933593749,0.861116611621397,0.544702000000143,
0.186508309326172,0.711556733398438,-0.397245939453125,0.836003989646197,0.547818000000007,
0.255940157470703,0.491290180664063,-0.763558793457031,0.943341633178889,0.550786000000244,
-0.0122104284667971,0.37158009765625,0.756759260742188,0.843152087263403,0.553797999999915,
-0.136708914794922,0.27581203125,3.08392327441406,3.09924900039339,0.556719000000157,
-0.0122104284667971,0.675643708496094,-1.57279895458984,1.71182360859774,0.559701000000132,
-0.0337582434082033,0.883939252929687,-2.12825373974609,2.30476727732132,0.562652000000071,
0.210450325927734,0.627759675292969,0.974631611816408,1.17825223460805,0.565576999999848,
0.437899483642578,0.484107575683594,0.40481161669922,0.768107119888443,0.568577000000005,
0.253545955810547,0.618182868652344,-0.385274931152344,0.771279705021186,0.571522000000186,
0.17453730102539,0.505655390625,-0.0381156904296862,0.536286723100881,0.574509000000035,
0.0667982263183592,0.515232197265625,0.0600465776367187,0.523002687970459,0.577471999999943,
-0.141497318115235,0.692403120117188,-0.0117794721679676,0.706811380600494,0.580402999999933,
0.026096798095703,0.599029255371094,-0.095576530273437,0.607167163802856,0.583446000000095,
0.0883460412597654,0.630153876953125,-0.0141736738281235,0.636474527907529,0.58640400000013,
0.164960494384765,0.613394465332031,0.0456813676757815,0.636829272380255,0.589428000000225,
0.253545955810547,0.536780012207031,0.014556746093751,0.593826769411503,0.592367000000195,
0.227209737548828,0.493684382324219,-0.059663505371093,0.54672503880929,0.595283000000109,
0.0763750329589842,0.531991608886719,-0.0165678754882812,0.537701322374755,0.598289000000022,
0.0332794030761717,0.512837995605469,0.0121625444335951,0.514060556639819,0.601232999999866,
0.0237025964355467,0.651701691894531,-0.0500866987304676,0.654053197901897,0.604237000000012,
0.117076461181641,0.67803791015625,-0.00459686718749985,0.688086794350691,0.607184999999845,
0.172143099365234,0.627759675292969,-0.0261446821289049,0.651459132245933,0.610099999999875,
0.179325704345703,0.594240852050781,-0.00459686718749985,0.620726211524099,0.613119000000097,
0.152989486083984,0.531991608886719,-0.0859997236328116,0.560193544449631,0.616051999999854,
0.0596156213378904,0.541568415527344,-0.095576530273437,0.553159329798757,0.61906799999997,
0.0500388146972655,0.570298835449219,-0.059663505371093,0.575590460800219,0.621998000000076,
0.0620098229980467,0.575087238769531,0.0169509477539069,0.57866906343226,0.624930999999833,
0.129047469482422,0.622971271972656,0.0672291826171882,0.639739179727505,0.627931999999873,
0.138624276123047,0.661278498535156,-0.021356278808593,0.675989669447766,0.630862999999863,
0.0907402429199217,0.589452448730469,0.0384987626953137,0.597637127133667,0.633867000000009,
0.0524330163574217,0.560722028808594,-0.0117794721679676,0.563291372879187,0.636810999999852,
0.0811634362792967,0.541568415527344,0.00976834277343741,0.547703635742908,0.639728999999988,
0.119470662841797,0.567904633789063,-0.00699106884765577,0.580377280226044,0.642722000000049,
0.133835872802734,0.567904633789063,-0.0381156904296862,0.584705498336462,0.645649000000049,
0.119470662841797,0.666066901855469,-0.0309330854492185,0.677403286678334,0.648658999999952,
0.0787692346191404,0.627759675292969,0.000191536132813752,0.632682257481992,0.651594999999816,
0.0667982263183592,0.599029255371094,-0.0907881269531234,0.60954125030664,0.654583999999886,
0.102711251220703,0.570298835449219,-0.0500866987304676,0.581634799708351,0.657517999999982,
0.0715866296386717,0.541568415527344,0.0265277543945324,0.546922952519858,0.660452999999961,
0.117076461181641,0.534385810546875,0.0672291826171882,0.551175884153173,0.663460000000214,
0.100317049560547,0.500866987304688,0.0935654008789069,0.519312751283692,0.666391000000203,
0.172143099365234,0.441011945800781,0.151026240722658,0.496924248135345,0.669390000000021,
0.208056124267578,0.58226984375,-0.0357214887695303,0.619355751201042,0.672317999999905,
0.0739808312988279,0.788171186523438,-0.155431571777344,0.806750243985464,0.675247000000127,
0.0284909997558592,0.759440766601563,-0.0285388837890626,0.760510672463827,0.678328999999849,
0.0835576379394529,0.529597407226563,-0.0548751020507812,0.538949505449446,0.681374000000233,
0.0572214196777342,0.548751020507813,-0.0405098920898439,0.553211555135494,0.684495999999854,
0.164960494384765,0.4673481640625,-0.00938527050781168,0.495695828571071,0.687514000000192,
0.157777889404297,0.515232197265625,-0.114730143554686,0.550927477372583,0.690433000000212,
0.172143099365234,0.56311623046875,-0.0716345136718743,0.593181792729184,0.693451999999979,
0.129047469482422,0.570298835449219,0.0456813676757815,0.586498762528346,0.696420000000217,
0.045250411376953,0.644519086914063,0.0241335527343765,0.646556170408962,0.69944200000009,
0.0332794030761717,0.6205770703125,0.00497993945312558,0.621488711614064,0.702381999999943,
0.105105452880859,0.622971271972656,-0.0141736738281235,0.631934533759871,0.705297999999857,
0.117076461181641,0.567904633789063,0.0169509477539069,0.580094738358883,0.708314999999857,
0.102711251220703,0.587058247070313,0.0289219560546883,0.596677019938442,0.711256999999932,
0.114682259521484,0.584664045410156,0.0265277543945324,0.596395664301426,0.714269000000058,
0.0883460412597654,0.570298835449219,0.000191536132813752,0.577101222843183,0.717204000000038,
0.0979228479003904,0.570298835449219,0.0361045610351578,0.579769941600286,0.720166999999947,
0.107499654541016,0.579875642089844,0.00497993945312558,0.589776852557391,0.723182000000179,
0.0979228479003904,0.608606062011719,-0.0524809003906235,0.618663452746439,0.726114999999936,
0.107499654541016,0.587058247070313,0.0384987626953137,0.598059960128394,0.729135999999926,
0.148201082763672,0.565510432128906,0.00976834277343741,0.584688832029043,0.732078000000001,
0.121864864501953,0.560722028808594,-0.0429040937499998,0.575413764218248,0.734977000000072,
0.0979228479003904,0.58226984375,-0.0812113203124998,0.59600531342302,0.73797999999988,
0.0907402429199217,0.649307490234375,-0.0740287153320303,0.659783494226205,0.740909000000102,
0.105105452880859,0.587058247070313,0.0432871660156255,0.597961805151653,0.743929000000207,
0.126653267822265,0.560722028808594,-0.0237504804687489,0.575338447493109,0.746853000000101,
0.0835576379394529,0.5439626171875,0.0241335527343765,0.55087170568389,0.749870999999985,
0.112288057861328,0.567904633789063,-0.021356278808593,0.579292992933549,0.752790999999888,
0.100317049560547,0.58226984375,-0.0452982954101557,0.592582160497807,0.755717999999888,
0.114682259521484,0.567904633789063,-0.0117794721679676,0.579488092796218,0.758719999999812,
0.0428562097167967,0.546356818847656,0.00497993945312558,0.548057686753482,0.761663000000226,
0.105105452880859,0.618182868652344,-0.00699106884765577,0.62709336654454,0.764650000000074,
0.0955286462402342,0.608606062011719,-0.00938527050781168,0.616129162004534,0.76759200000015,
0.124259066162109,0.567904633789063,-0.0237504804687489,0.581824779401037,0.770500999999967,
0.0859518395996092,0.591846650390625,0.0504697709960951,0.600181117741601,0.773532000000159,
0.0979228479003904,0.584664045410156,-0.059663505371093,0.595802537766884,0.77646199999981,
0.0715866296386717,0.622971271972656,-0.0381156904296862,0.628228188720616,0.779472000000169,
0.0548272180175779,0.606211860351563,-0.0285388837890626,0.609354832059593,0.782418000000234,
0.167354696044922,0.622971271972656,-0.0405098920898439,0.646329522262946,0.785354000000098,
0.186508309326172,0.594240852050781,0.0289219560546883,0.623493399512597,0.788363000000118,
0.141018477783203,0.534385810546875,-0.0907881269531234,0.56008650187787,0.791301000000203,
0.0955286462402342,0.551145222167969,-0.0836055219726557,0.565576397558625,0.794303000000127,
0.045250411376953,0.553539423828125,0.0217393510742188,0.55581120252014,0.797261000000162,
0.102711251220703,0.570298835449219,0.00497993945312558,0.579495610543354,0.800173000000086,
0.109893856201172,0.587058247070313,-0.00699106884765577,0.597296341967423,0.803169000000253,
0.124259066162109,0.608606062011719,0.00497993945312558,0.621181498467113,0.806106999999884,
0.0955286462402342,0.565510432128906,0.0408929643554696,0.574978265356954,0.809107999999924,
0.0596156213378904,0.575087238769531,0.00258573779296967,0.578174749139912,0.812046999999893,
0.105105452880859,0.570298835449219,-0.0285388837890626,0.580605189287825,0.814984000000095,
0.0955286462402342,0.627759675292969,-0.0165678754882812,0.635202665827703,0.818087000000105,
0.107499654541016,0.654095893554688,0.0504697709960951,0.664789298557025,0.82113500000014,
0.0883460412597654,0.594240852050781,0.0241335527343765,0.601256718565284,0.824236999999812,
0.0691924279785154,0.5439626171875,-0.0405098920898439,0.549839951571516,0.827215000000251,
0.0979228479003904,0.534385810546875,0.0648349809570323,0.547138605300761,0.830131000000165,
0.114682259521484,0.567904633789063,-0.00459686718749985,0.579386593662627,0.833114999999907,
0.112288057861328,0.575087238769531,0.0839885942382814,0.591935827684011,0.836056000000099,
0.0931344445800779,0.608606062011719,-0.0309330854492185,0.616467533013751,0.839097000000038,
0.119470662841797,0.596635053710938,-0.0237504804687489,0.608942289481531,0.842036000000007,
0.0907402429199217,0.58226984375,-0.0237504804687489,0.589776269400789,0.845042999999805,
0.0715866296386717,0.589452448730469,0.014556746093751,0.593961895843671,0.848003999999946,
0.102711251220703,0.584664045410156,0.00497993945312558,0.593638313217441,0.85091599999987,
0.0979228479003904,0.584664045410156,-0.0452982954101557,0.59453584055409,0.853939999999966,
0.133835872802734,0.60142345703125,0.0361045610351578,0.617191829858295,0.856908000000203,
0.150595284423828,0.567904633789063,0.0217393510742188,0.587934700587498,0.859929000000193,
0.0620098229980467,0.553539423828125,0.0265277543945324,0.557633242941486,0.862874999999804,
0.112288057861328,0.60142345703125,-0.0429040937499998,0.61331846855137,0.86578099999997,
0.121864864501953,0.560722028808594,0.000191536132813752,0.573812055883627,0.86879799999997,
0.102711251220703,0.56311623046875,0.0121625444335951,0.57253595313461,0.871728999999959,
0.0931344445800779,0.591846650390625,0.000191536132813752,0.599129801488736,0.874733000000106,
0.107499654541016,0.599029255371094,0.0361045610351578,0.609668568850672,0.877653999999893,
0.121864864501953,0.555933625488281,-0.0692403120117184,0.573330150921879,0.880569999999807,
0.0955286462402342,0.570298835449219,-0.0165678754882812,0.578481614630424,0.883570999999847,
0.107499654541016,0.606211860351563,-0.0740287153320303,0.620104221926485,0.886516999999913,
0.119470662841797,0.558327827148438,-0.0117794721679676,0.571088397546921,0.889529000000039,
0.0835576379394529,0.608606062011719,0.00258573779296967,0.614320684671586,0.892475999999988,
0.117076461181641,0.587058247070313,-0.0381156904296862,0.599830883727252,0.895386000000144,
0.0883460412597654,0.539174213867188,-0.0429040937499998,0.548046181599763,0.898403000000144,
0.105105452880859,0.584664045410156,-0.0357214887695303,0.595109424375527,0.901345000000219,
0.0620098229980467,0.606211860351563,-0.00699106884765577,0.609415222014337,0.904367999999977,
0.0763750329589842,0.599029255371094,-0.0261446821289049,0.604444156935572,0.907301000000189,
0.102711251220703,0.570298835449219,0.00497993945312558,0.579495610543354,0.910236000000168,
0.0859518395996092,0.594240852050781,-0.0117794721679676,0.600540310837792,0.913253000000168,
0.126653267822265,0.534385810546875,0.014556746093751,0.549382511207571,0.916205999999875,
0.0787692346191404,0.560722028808594,-0.0285388837890626,0.566946429393145,0.919194000000061,
0.0979228479003904,0.587058247070313,-0.0357214887695303,0.596240131452172,0.922143000000233,
0.102711251220703,0.546356818847656,0.0193451494140628,0.556263974597048,0.925063000000137,
0.102711251220703,0.584664045410156,0.00258573779296967,0.593623056461443,0.928066999999828,
0.124259066162109,0.594240852050781,-0.0429040937499998,0.608607646213903,0.93099200000006,
0.109893856201172,0.6205770703125,-0.0237504804687489,0.630679510647766,0.934004000000186,
0.107499654541016,0.579875642089844,0.0121625444335951,0.589881228301635,0.936945999999807,
0.131441671142578,0.594240852050781,0.0217393510742188,0.608992366572784,0.939942999999857,
0.126653267822265,0.613394465332031,-0.0165678754882812,0.62655272311931,0.942863000000216,
0.0811634362792967,0.594240852050781,-0.0429040937499998,0.601290657581848,0.945790000000216,
0.124259066162109,0.627759675292969,0.00976834277343741,0.640014020133897,0.948793999999907,
0.100317049560547,0.548751020507813,0.0480755693359374,0.559912897965276,0.951730000000225,
0.107499654541016,0.558327827148438,-0.00938527050781168,0.568660022858332,0.954772999999932,
0.0548272180175779,0.584664045410156,0.0265277543945324,0.587828028920137,0.957821999999851,
0.100317049560547,0.570298835449219,-0.0165678754882812,0.579291607608347,0.960829000000103,
0.133835872802734,0.570298835449219,-0.0500866987304676,0.587929825704838,0.963925999999901,
0.121864864501953,0.599029255371094,0.0408929643554696,0.612665755958585,0.966867000000093,
0.0883460412597654,0.5439626171875,-0.00459686718749985,0.551109320454378,0.969868000000133,
0.0979228479003904,0.579875642089844,-0.0357214887695303,0.589169474081901,0.972802000000229,
0.0883460412597654,0.613394465332031,-0.107547538574218,0.62898669791945,0.975746999999956,
0.0787692346191404,0.608606062011719,0.0384987626953137,0.614888677541689,0.978771000000052,
0.0811634362792967,0.551145222167969,0.0672291826171882,0.561131287937697,0.981717000000117,
0.0931344445800779,0.572693037109375,-0.0333272871093744,0.581172992823024,0.984699000000091,
0.102711251220703,0.591846650390625,0.000191536132813752,0.600693012604621,0.987649000000147,
0.133835872802734,0.589452448730469,-0.0381156904296862,0.605655872604359,0.990570999999818,
0.100317049560547,0.572693037109375,-0.0117794721679676,0.581532098125846,0.993583999999828,
0.117076461181641,0.618182868652344,0.00497993945312558,0.629191351382879,0.996565999999802,
0.0859518395996092,0.60142345703125,0.0289219560546883,0.608222305526529,0.9996000000001,
0.102711251220703,0.56311623046875,0.00497993945312558,0.572428414687473,1.00253199999997,
0.0763750329589842,0.548751020507813,-0.0285388837890626,0.554774995881914,1.00545999999986,
0.143412679443359,0.594240852050781,0.00258573779296967,0.611306856587668,1.00847699999986,
0.0931344445800779,0.599029255371094,0.000191536132813752,0.606226121380279,1.01141599999983,
