X,Y,Z,Magnitude,Seconds,
0.215238729248047,0.168072956542969,-0.0117794721679676,0.273340420088147,0.0,
0.181719906005859,0.189620771484375,0.0480755693359374,0.267000789482133,0.00385700000060751,
0.227209737548828,0.177649763183594,0.014556746093751,0.28878296704105,0.00757900000007794,
0.217632930908203,0.1608903515625,-0.095576530273437,0.287027300061699,0.0113000000001193,
0.234392342529297,0.165678754882813,-0.0620577070312489,0.293667122875317,0.0150260000000344,
0.222421334228516,0.120188923339844,-0.0452982954101557,0.256843459680502,0.0187500000001819,
0.19369091430664,0.184832368164063,-0.0907881269531234,0.282704189218579,0.0225749999999607,
0.217632930908203,0.18004396484375,-0.0117794721679676,0.28269891732532,0.0266490000003614,
0.229603939208984,0.151313544921875,0.0361045610351578,0.277339678201026,0.0304800000003524,
0.217632930908203,0.148919343261719,0.0241335527343765,0.264808405797058,0.0342570000002524,
0.236786544189453,0.134554133300781,-0.00938527050781168,0.272508285378652,0.038035000000491,
0.231998140869141,0.144130939941406,-0.0883939252929675,0.287072031455225,0.041866000000482,
0.212844527587891,0.165678754882813,-0.0333272871093744,0.271777392013578,0.0457010000000082,
0.246363350830078,0.153707746582031,-0.136277958496093,0.320768848181074,0.0495620000001509,
0.227209737548828,0.1608903515625,0.0432871660156255,0.28175121792918,0.0533540000005814,
0.258334359130859,0.146525141601563,-0.0261446821289049,0.298143929390707,0.0571230000005016,
0.200873519287109,0.163284553222656,0.00258573779296967,0.25887970587098,0.0608799999999974,
0.205661922607422,0.148919343261719,-0.0524809003906235,0.259283709696335,0.0645840000006501,
0.212844527587891,0.146525141601563,-0.0165678754882812,0.258934170289797,0.0683060000001205,
0.224815535888672,0.146525141601563,-0.0237504804687489,0.269398826316606,0.0720540000002075,
0.260728560791015,0.146525141601563,0.00258573779296967,0.299091433467169,0.0758789999999863,
0.208056124267578,0.175255561523438,0.0193451494140628,0.272719815004326,0.0795870000001742,
0.217632930908203,0.146525141601563,-0.00220266552734216,0.262371037792813,0.0832770000006349,
0.167354696044922,0.144130939941406,0.0432871660156255,0.225066880900646,0.0869819999998072,
0.215238729248047,0.148919343261719,-0.0668461103515625,0.270135306531651,0.0906979999999749,
0.220027132568359,0.139342536621094,0.0121625444335951,0.260722475182625,0.0946000000003551,
0.198479317626953,0.170467158203125,0.0241335527343765,0.262746113042787,0.0985500000006141,
0.196085115966797,0.148919343261719,-0.0644519086914048,0.254519924632982,0.102289999999812,
0.19369091430664,0.120188923339844,0.0073741411132815,0.228070001393633,0.106053000000429,
0.205661922607422,0.0914585034179687,-0.00220266552734216,0.225091839020123,0.109773000000132,
0.241574947509765,0.172861359863281,0.00497993945312558,0.297093091126478,0.113578999999845,
0.260728560791015,0.146525141601563,0.000191536132813752,0.299080317339009,0.117377000000488,
0.229603939208984,0.148919343261719,0.00497993945312558,0.273714704564335,0.121124000000236,
0.198479317626953,0.148919343261719,-0.00459686718749985,0.24817764103783,0.124985999999808,
0.203267720947266,0.182438166503906,-0.0333272871093744,0.275158425352511,0.128768000000491,
0.191296712646484,0.136948334960938,0.014556746093751,0.235714186197527,0.132527000000664,
0.231998140869141,0.182438166503906,-0.0644519086914048,0.302094141780356,0.136269000000539,
0.234392342529297,0.14173673828125,-0.0117794721679676,0.274167520285563,0.140003999999863,
0.227209737548828,0.134554133300781,-0.0500866987304676,0.268770826197801,0.143747000000076,
0.265516964111328,0.163284553222656,0.0169509477539069,0.31216732401354,0.147579000000405,
0.239180745849609,0.184832368164063,-0.0261446821289049,0.303403984663901,0.151318000000174,
0.222421334228516,0.156101948242188,-0.0189620771484371,0.27239425202229,0.155044000000089,
0.224815535888672,0.129765729980469,-0.0189620771484371,0.260270494340134,0.158742999999959,
0.210450325927734,0.151313544921875,0.0600465776367187,0.266065255239756,0.162535000000389,
0.162566292724609,0.14173673828125,-0.0764229169921862,0.228817754447564,0.166482999999971,
0.198479317626953,0.18004396484375,-0.021356278808593,0.268823286652903,0.17041700000027,
0.191296712646484,0.165678754882813,-0.0165678754882812,0.253610679166051,0.17424100000062,
0.229603939208984,0.151313544921875,-0.0644519086914048,0.282431949876554,0.178058999999848,
0.255940157470703,0.158496149902344,-0.0141736738281235,0.301375657228285,0.181916000000456,
0.198479317626953,0.14173673828125,0.0265277543945324,0.245330520436176,0.185790999999881,
0.224815535888672,0.177649763183594,0.0720175859375001,0.295445420036194,0.189583000000312,
0.220027132568359,0.122583125,-0.0476924970703116,0.256345735049019,0.193380000000616,
0.210450325927734,0.1608903515625,0.0504697709960951,0.269670618891626,0.197323000000324,
0.210450325927734,0.136948334960938,0.0265277543945324,0.252483480419768,0.201133999999911,
0.200873519287109,0.151313544921875,-0.0285388837890626,0.253101614999862,0.204889999999978,
0.243969149169922,0.177649763183594,0.0313161577148442,0.303415698077577,0.208661000000575,
0.236786544189453,0.146525141601563,-0.0165678754882812,0.278947986421729,0.212406999999985,
0.210450325927734,0.132159931640625,-0.0452982954101557,0.252601509855761,0.216134000000238,
0.236786544189453,0.156101948242188,-0.0165678754882812,0.284095371754602,0.219939000000522,
0.229603939208984,0.148919343261719,0.0121625444335951,0.273939531986319,0.223686000000271,
0.196085115966797,0.148919343261719,0.00497993945312558,0.246274528317832,0.227404000000206,
0.19369091430664,0.1608903515625,-0.0309330854492185,0.25369022702157,0.231118000000606,
0.231998140869141,0.158496149902344,0.0408929643554696,0.28393027565651,0.235011000000668,
0.222421334228516,0.139342536621094,-0.00938527050781168,0.262632206201941,0.238940000000184,
0.224815535888672,0.101035310058594,0.0361045610351578,0.249105797570206,0.242715000000317,
0.263122762451172,0.151313544921875,0.0169509477539069,0.304001170436095,0.246610000000146,
0.229603939208984,0.146525141601563,0.0408929643554696,0.275426615553796,0.25037599999996,
0.210450325927734,0.194409174804688,-0.00220266552734216,0.286511986951252,0.254170000000158,
0.236786544189453,0.168072956542969,0.0313161577148442,0.292056651977488,0.25799300000017,
0.222421334228516,0.14173673828125,-0.0309330854492185,0.265551141353241,0.261736999999812,
0.234392342529297,0.172861359863281,0.0121625444335951,0.29149399214607,0.265511999999944,
0.196085115966797,0.165678754882813,0.00497993945312558,0.256755958684873,0.269355999999789,
0.246363350830078,0.14173673828125,-0.0452982954101557,0.287812680710731,0.273110000000088,
0.224815535888672,0.1608903515625,0.0121625444335951,0.276723070758321,0.276848999999856,
0.227209737548828,0.146525141601563,-0.0165678754882812,0.270865975080962,0.280572000000575,
0.205661922607422,0.134554133300781,-0.0357214887695303,0.248349886166306,0.284313000000111,
0.196085115966797,0.151313544921875,0.00976834277343741,0.247872108356458,0.288065000000643,
0.222421334228516,0.0866701000976562,-0.0548751020507812,0.244937202147845,0.291849000000184,
0.131441671142578,0.376368500976563,0.134266829101563,0.420663455552163,0.295600000000377,
0.413957467041016,-0.174297880859375,0.364110188476563,0.578201318870443,0.299292000000605,
0.15538368774414,0.074699091796875,-0.452312577636718,0.484056518002411,0.302826000000096,
-0.203746561279297,0.745075556640625,-0.1578257734375,0.78839027207191,0.305932000000212,
0.311006795654297,0.14173673828125,0.428753633300783,0.548310320886251,0.308947999999873,
0.550426961669922,-0.181480485839844,0.186939265625,0.60897561191419,0.312039999999797,
0.337343013916016,-0.01149216796875,-0.567234257324218,0.660065967646204,0.315000000000509,
-0.0505176550292971,0.220745393066406,0.0408929643554696,0.230114746514601,0.318022999999812,
-0.167833536376953,0.378762702636719,0.48142606982422,0.635138049204943,0.32095500000014,
0.387621248779297,0.117794721679687,-0.320631486328125,0.516653054753187,0.323911000000408,
0.442687886962891,0.151313544921875,-0.100364933593749,0.478478290035996,0.326928999999836,
0.263122762451172,0.0627280834960938,0.309043550292969,0.410702223705584,0.329859999999826,
0.164960494384765,0.0842758984375,-0.215286613281249,0.284011826555205,0.332890000000589,
0.0500388146972655,0.271023627929688,-0.155431571777344,0.316412173245045,0.335829000000558,
0.203267720947266,0.170467158203125,0.215669685546876,0.341892134552454,0.338784000000487,
0.243969149169922,0.168072956542969,-0.0716345136718743,0.30479660105847,0.341793999999936,
0.296641585693359,0.139342536621094,-0.174585185058593,0.371338874502273,0.344762000000628,
0.27030536743164,0.134554133300781,0.179756660644532,0.351400431839166,0.347792999999911,
0.126653267822265,0.172861359863281,0.0361045610351578,0.217314609061109,0.350742999999966,
0.17453730102539,0.074699091796875,-0.059663505371093,0.199004918626832,0.35364699999991,
0.126653267822265,0.168072956542969,0.0504697709960951,0.216418037038394,0.356679999999869,
0.287064779052734,0.177649763183594,0.0959596025390628,0.350961352646181,0.359621999999945,
0.284670577392578,0.132159931640625,-0.0476924970703116,0.317455759817144,0.36261900000045,
0.236786544189453,0.184832368164063,0.0815943925781255,0.311269202990775,0.365588000000571,
0.236786544189453,0.136948334960938,0.014556746093751,0.273924465527625,0.368573000000652,
0.152989486083984,0.168072956542969,-0.0117794721679676,0.227580881310123,0.371531000000687,
0.200873519287109,0.136948334960938,-0.0285388837890626,0.244784568727866,0.374467999999979,
0.227209737548828,0.165678754882813,0.0289219560546883,0.282683912167912,0.377502000000277,
0.255940157470703,0.184832368164063,0.0361045610351578,0.317760771422158,0.380458000000544,
0.265516964111328,0.124977326660156,0.0217393510742188,0.294263809863095,0.383456999999908,
0.186508309326172,0.146525141601563,-0.0285388837890626,0.238892097937522,0.386410000000069,
0.184114107666015,0.175255561523438,0.0169509477539069,0.254754491847159,0.389345000000503,
0.234392342529297,0.144130939941406,-0.0189620771484371,0.275813448646993,0.392338999999993,
0.248757552490234,0.146525141601563,0.0504697709960951,0.293082129831704,0.395308000000114,
0.229603939208984,0.134554133300781,-0.0285388837890626,0.267651361992673,0.398325000000114,
0.198479317626953,0.129765729980469,-0.0189620771484371,0.237892296161116,0.401276000000507,
0.162566292724609,0.14173673828125,0.0337103593750001,0.218296795299479,0.404217000000244,
0.191296712646484,0.175255561523438,0.0289219560546883,0.261046784420487,0.40723700000035,
0.184114107666015,0.144130939941406,-0.00699106884765577,0.23392436284765,0.410166000000572,
0.253545955810547,0.117794721679687,0.0289219560546883,0.281065166296907,0.413196000000426,
0.200873519287109,0.120188923339844,0.0217393510742188,0.235091785117021,0.41614699999991,
0.191296712646484,0.184832368164063,-0.0429040937499998,0.269440527484259,0.419061000000511,
0.203267720947266,0.148919343261719,0.088776997558595,0.267163044735075,0.422086999999919,
0.229603939208984,0.144130939941406,0.014556746093751,0.271484061420766,0.425021000000015,
0.220027132568359,0.163284553222656,0.0432871660156255,0.277394237735828,0.42804200000046,
0.205661922607422,0.120188923339844,0.00497993945312558,0.238258270582846,0.430984000000535,
0.196085115966797,0.132159931640625,-0.0117794721679676,0.236758054138656,0.43389500000012,
0.172143099365234,0.14173673828125,-0.00938527050781168,0.223182958444818,0.436902000000373,
0.212844527587891,0.163284553222656,-0.0189620771484371,0.268931587239242,0.439910000000054,
0.217632930908203,0.139342536621094,-0.00938527050781168,0.258589478575986,0.442988000000696,
0.210450325927734,0.14173673828125,-0.0452982954101557,0.257741300975926,0.446030000000064,
0.179325704345703,0.127371528320313,-0.0285388837890626,0.221800997188156,0.44905000000017,
0.203267720947266,0.156101948242188,-0.0524809003906235,0.261610071537608,0.452084000000468,
0.229603939208984,0.168072956542969,0.0241335527343765,0.28556770823915,0.455034000000524,
0.208056124267578,0.153707746582031,0.0193451494140628,0.259398644966438,0.458048000000417,
0.215238729248047,0.158496149902344,-0.0285388837890626,0.268818169010403,0.460989000000154,
0.258334359130859,0.187226569824219,0.0361045610351578,0.321082495448189,0.464018000000578,
0.186508309326172,0.18004396484375,-0.0572693037109371,0.265482488823463,0.466960000000654,
0.198479317626953,0.156101948242188,-0.0285388837890626,0.254118723549826,0.46990199999982,
0.229603939208984,0.146525141601563,0.00976834277343741,0.272549090151078,0.472920000000158,
0.215238729248047,0.168072956542969,-0.0189620771484371,0.273744022143301,0.475876000000426,
0.231998140869141,0.139342536621094,-0.00220266552734216,0.270636899949293,0.478868000000148,
0.220027132568359,0.168072956542969,-0.00938527050781168,0.277035270479868,0.481865000000653,
0.236786544189453,0.14173673828125,0.052863972656251,0.280983576197599,0.484809000000496,
0.208056124267578,0.156101948242188,-0.00459686718749985,0.260146689923574,0.487831000000369,
0.220027132568359,0.163284553222656,0.0600465776367187,0.280498441837489,0.490791000000172,
0.210450325927734,0.101035310058594,-0.0189620771484371,0.234215784975114,0.493806000000404,
0.255940157470703,0.148919343261719,0.0121625444335951,0.296361708880768,0.496750000000247,
0.220027132568359,0.165678754882813,-0.0476924970703116,0.279528108000922,0.499667000000045,
0.227209737548828,0.199197578125,-0.0237504804687489,0.303097385819095,0.502679000000171,
0.234392342529297,0.134554133300781,-0.0189620771484371,0.270931994039978,0.505623000000014,
0.205661922607422,0.0962469067382813,0.0241335527343765,0.228347808911869,0.508644000000459,
0.198479317626953,0.168072956542969,-0.0548751020507812,0.265807891289629,0.511594999999943,
0.217632930908203,0.156101948242188,-0.021356278808593,0.268678249036374,0.514529000000039,
0.205661922607422,0.187226569824219,-0.00220266552734216,0.278128507338154,0.517553000000589,
0.19369091430664,0.14173673828125,0.052863972656251,0.245764262797809,0.5204990000002,
0.196085115966797,0.175255561523438,-0.0429040937499998,0.266466969452344,0.523517999999967,
0.200873519287109,0.14173673828125,-0.0357214887695303,0.248426042292888,0.526463000000149,
0.217632930908203,0.165678754882813,0.0361045610351578,0.275893243416281,0.529422000000523,
0.229603939208984,0.110612116699219,-0.0117794721679676,0.25513087862021,0.532423999999992,
0.203267720947266,0.170467158203125,-0.0357214887695303,0.267680487082746,0.535397999999986,
0.224815535888672,0.127371528320313,0.00976834277343741,0.258574847818001,0.538422999999966,
0.243969149169922,0.134554133300781,-0.00220266552734216,0.278622705949184,0.541372000000592,
0.229603939208984,0.144130939941406,0.0241335527343765,0.272165620746374,0.54430500000035,
0.222421334228516,0.136948334960938,-0.0285388837890626,0.26275571212914,0.547312000000602,
0.176931502685547,0.120188923339844,-0.0309330854492185,0.216117999508521,0.550272000000405,
0.191296712646484,0.115400520019531,-0.0261446821289049,0.224933894052789,0.553303000000597,
0.222421334228516,0.124977326660156,0.0265277543945324,0.256504003579533,0.556261000000632,
0.220027132568359,0.156101948242188,0.0169509477539069,0.270309252414742,0.559261000000333,
0.215238729248047,0.127371528320313,-0.0141736738281235,0.250503712197548,0.562182000000575,
0.188902510986328,0.146525141601563,-0.0285388837890626,0.240765952049336,0.565134999999827,
0.234392342529297,0.163284553222656,-0.0117794721679676,0.285902730875467,0.568143000000418,
0.227209737548828,0.136948334960938,-0.0476924970703116,0.269543476200746,0.571087000000261,
0.25115175415039,0.139342536621094,-0.0333272871093744,0.289144002515857,0.574086999999963,
0.210450325927734,0.151313544921875,0.00258573779296967,0.259213839522214,0.577062000000296,
0.220027132568359,0.136948334960938,0.000191536132813752,0.259165626966459,0.580056000000695,
0.212844527587891,0.124977326660156,-0.0357214887695303,0.249395569052747,0.583158999999796,
0.222421334228516,0.144130939941406,0.0432871660156255,0.268549355817605,0.586192000000665,
0.246363350830078,0.158496149902344,0.00497993945312558,0.292985886969061,0.589277000000038,
0.255940157470703,0.120188923339844,-0.0572693037109371,0.288496992440571,0.592208000000028,
0.215238729248047,0.177649763183594,-0.0117794721679676,0.27933117422167,0.595142000000124,
0.239180745849609,0.148919343261719,0.0337103593750001,0.283761851403371,0.598149999999805,
0.210450325927734,0.165678754882813,-0.00699106884765577,0.267932201398491,0.601140000000669,
0.241574947509765,0.177649763183594,-0.0692403120117184,0.307753333744759,0.604146000000583,
0.191296712646484,0.194409174804688,0.0600465776367187,0.279275761575318,0.607114999999794,
0.282276375732422,0.0675164868164063,0.0624407792968764,0.296879233372532,0.610045000000355,
0.248757552490234,0.0292092602539062,0.0169509477539069,0.251039509709663,0.613081999999849,
0.13623007446289,0.266235224609375,-0.153037370117186,0.33594681820692,0.616041000000223,
0.198479317626953,0.29496564453125,0.0624407792968764,0.360967618905904,0.619082000000162,
0.322977803955078,0.0339976635742187,0.167785652343751,0.365544153432343,0.622075000000223,
0.25115175415039,0.02681505859375,-0.176979386718749,0.308411987937481,0.625031999999919,
0.160172091064453,0.1608903515625,-0.0883939252929675,0.24362735891226,0.628047000000151,
0.100317049560547,0.189620771484375,0.1103248125,0.241228339263908,0.631008000000293,
0.217632930908203,0.170467158203125,-0.0572693037109371,0.282317051892158,0.634018000000651,
0.279882174072265,0.136948334960938,-0.0931823286132811,0.325225804907582,0.63695800000005,
0.241574947509765,0.055545478515625,0.0720175859375001,0.258128433405041,0.639901999999893,
0.169748897705078,0.127371528320313,-0.0381156904296862,0.215617718093094,0.642886000000544,
0.188902510986328,0.175255561523438,-0.0500866987304676,0.262502091213674,0.645849999999882,
0.200873519287109,0.203985981445313,0.00258573779296967,0.286299034956337,0.648873000000094,
0.25115175415039,0.194409174804688,0.0624407792968764,0.323683459231792,0.651829000000362,
0.224815535888672,0.127371528320313,-0.0381156904296862,0.261186403284119,0.65481600000021,
0.258334359130859,0.124977326660156,-0.0237504804687489,0.287958432085549,0.657772999999906,
0.220027132568359,0.187226569824219,-0.0165678754882812,0.289379028287457,0.660703000000467,
0.198479317626953,0.175255561523438,0.0408929643554696,0.267919364556454,0.663720999999896,
0.248757552490234,0.168072956542969,0.00258573779296967,0.300225789501769,0.666670000000522,
0.191296712646484,0.175255561523438,-0.0572693037109371,0.265685372690674,0.669652000000497,
0.275093770751953,0.132159931640625,0.0217393510742188,0.305966386426534,0.672590000000127,
0.184114107666015,0.127371528320313,-0.0261446821289049,0.225399767683835,0.675527000000329,
0.148201082763672,0.110612116699219,0.0265277543945324,0.186821634309902,0.678566000000501,
0.188902510986328,0.165678754882813,0.0169509477539069,0.251835150656564,0.681505999999899,
0.215238729248047,0.158496149902344,-0.0333272871093744,0.269368610213311,0.684518000000025,
0.248757552490234,0.139342536621094,0.0289219560546883,0.286588802947641,0.687466000000313,
0.222421334228516,0.129765729980469,-0.0141736738281235,0.25789782400622,0.690395999999964,
0.217632930908203,0.14173673828125,0.0241335527343765,0.260836776475031,0.69342400000005,
0.205661922607422,0.1608903515625,-0.0285388837890626,0.262672799361509,0.69638600000053,
0.236786544189453,0.187226569824219,0.00258573779296967,0.301874712417686,0.699410000000171,
0.220027132568359,0.177649763183594,-0.059663505371093,0.289017493066783,0.702358000000459,
0.229603939208984,0.153707746582031,-0.0237504804687489,0.277323142889491,0.705292999999983,
0.210450325927734,0.124977326660156,0.0313161577148442,0.246757722465235,0.708317999999963,
0.248757552490234,0.165678754882813,-0.059663505371093,0.304777793832847,0.711256999999932,
0.176931502685547,0.134554133300781,0.014556746093751,0.222758771516921,0.714273000000503,
0.208056124267578,0.129765729980469,-0.0572693037109371,0.25180601396739,0.717241000000286,
0.243969149169922,0.172861359863281,-0.0524809003906235,0.303572463155486,0.720280000000457,
0.243969149169922,0.156101948242188,-0.00699106884765577,0.289719932064286,0.723391999999876,
0.19369091430664,0.148919343261719,0.0361045610351578,0.246975060299589,0.726449000000684,
0.222421334228516,0.139342536621094,-0.0524809003906235,0.267659928524619,0.729463000000578,
0.205661922607422,0.117794721679687,-0.00938527050781168,0.237192972426843,0.73243199999979,
0.215238729248047,0.139342536621094,0.0600465776367187,0.263343206797133,0.735367000000224,
0.208056124267578,0.165678754882813,-0.0117794721679676,0.266224635654405,0.738412000000608,
0.205661922607422,0.139342536621094,0.0193451494140628,0.249173441057498,0.741377000000284,
0.212844527587891,0.146525141601563,0.014556746093751,0.258813270336566,0.744408000000476,
0.220027132568359,0.153707746582031,0.0073741411132815,0.268500257695852,0.747350000000552,
0.203267720947266,0.158496149902344,0.0073741411132815,0.257862703526742,0.750362000000678,
0.220027132568359,0.170467158203125,-0.00699106884765577,0.278423896488316,0.753298000000541,
0.224815535888672,0.1608903515625,-0.0429040937499998,0.279765065123085,0.756257000000005,
0.184114107666015,0.156101948242188,-0.0141736738281235,0.24179891628468,0.759297000000515,
0.19369091430664,0.170467158203125,0.00976834277343741,0.258206589442119,0.762290000000576,
0.191296712646484,0.139342536621094,0.00497993945312558,0.236718344405982,0.765277999999853,
0.210450325927734,0.158496149902344,0.0169509477539069,0.264003226962686,0.768243999999868,
0.231998140869141,0.129765729980469,-0.0452982954101557,0.269655739065882,0.771155999999792,
0.227209737548828,0.129765729980469,-0.0357214887695303,0.264082249070783,0.774178000000575,
0.231998140869141,0.136948334960938,0.0121625444335951,0.269677420824232,0.777130999999827,
0.169748897705078,0.148919343261719,-0.00699106884765577,0.225921522023076,0.780150999999933,
0.188902510986328,0.151313544921875,-0.0237504804687489,0.243195462244386,0.783100000000559,
0.19369091430664,0.206380183105469,-0.0165678754882812,0.28351974316048,0.78603800000019,
0.169748897705078,0.177649763183594,0.014556746093751,0.246142287078255,0.789061999999831,
0.231998140869141,0.136948334960938,-0.0285388837890626,0.270910412688838,0.792011000000457,
0.236786544189453,0.10342951171875,0.0121625444335951,0.258676359357909,0.795043000000078,
0.217632930908203,0.144130939941406,-0.0500866987304676,0.265794089200277,0.797985000000153,
0.227209737548828,0.1608903515625,-0.095576530273437,0.294354961232219,0.800922000000355,
0.203267720947266,0.199197578125,0.0624407792968764,0.291369683442122,0.803945999999996,
0.248757552490234,0.175255561523438,-0.0381156904296862,0.306671872891465,0.806889999999839,
0.239180745849609,0.127371528320313,-0.0764229169921862,0.281551767270998,0.809893999999986,
0.208056124267578,0.165678754882813,0.0073741411132815,0.266066117012151,0.812859000000572,
0.188902510986328,0.158496149902344,-0.0476924970703116,0.251156848339056,0.815797000000202,
0.188902510986328,0.163284553222656,0.0073741411132815,0.249800684417038,0.818812999999864,
0.246363350830078,0.194409174804688,0.0384987626953137,0.316183463529536,0.821762999999919,
0.200873519287109,0.170467158203125,0.00976834277343741,0.263637332897253,0.824776000000384,
0.236786544189453,0.127371528320313,-0.00938527050781168,0.269034304575347,0.827698000000055,
0.212844527587891,0.151313544921875,-0.0788171186523439,0.272783283933591,0.830641999999898,
0.241574947509765,0.1608903515625,-0.00220266552734216,0.290256803926585,0.833660000000236,
0.215238729248047,0.105823713378906,-0.0285388837890626,0.241538478859043,0.836608000000524,
0.169748897705078,0.151313544921875,-0.0141736738281235,0.22784066840382,0.839635000000271,
0.196085115966797,0.148919343261719,0.014556746093751,0.246654094549536,0.842596000000412,
0.198479317626953,0.14173673828125,-0.0165678754882812,0.244454161352315,0.845586000000367,
0.208056124267578,0.148919343261719,-0.0165678754882812,0.256395819273526,0.848542000000634,
0.212844527587891,0.139342536621094,-0.021356278808593,0.255294391009014,0.851474000000053,
0.227209737548828,0.1608903515625,-0.0165678754882812,0.278898663605811,0.854499000000033,
0.246363350830078,0.14173673828125,0.0241335527343765,0.285248368932085,0.857531000000563,
0.19369091430664,0.146525141601563,0.0624407792968764,0.250768096705904,0.860617000000275,
0.231998140869141,0.1608903515625,-0.00938527050781168,0.2824834966775,0.863654000000679,
0.205661922607422,0.1608903515625,0.0073741411132815,0.261221954654743,0.866649999999936,
0.229603939208984,0.199197578125,0.0169509477539069,0.304442077678011,0.869666000000507,
0.220027132568359,0.172861359863281,-0.0165678754882812,0.280298917761436,0.872596000000158,
0.229603939208984,0.129765729980469,-0.0261446821289049,0.265029541714256,0.875618000000031,
0.239180745849609,0.1608903515625,0.0504697709960951,0.292643694952545,0.878600000000006,
0.217632930908203,0.163284553222656,-0.0405098920898439,0.275076333576606,0.881516000000374,
0.222421334228516,0.1608903515625,0.0265277543945324,0.275791002208401,0.884546000000228,
0.210450325927734,0.136948334960938,0.0313161577148442,0.253031396995874,0.887504000000263,
0.208056124267578,0.120188923339844,0.00258573779296967,0.240290270670226,0.890526000000136,
0.239180745849609,0.113006318359375,0.00258573779296967,0.264545918914373,0.893506000000343,
0.212844527587891,0.132159931640625,0.0217393510742188,0.251478905358869,0.896423000000141,
0.188902510986328,0.165678754882813,0.0121625444335951,0.251558215853822,0.899483000000146,
0.217632930908203,0.153707746582031,-0.0261446821289049,0.267719458348926,0.902441000000181,
0.215238729248047,0.134554133300781,0.00258573779296967,0.253848796326814,0.905464000000393,
0.229603939208984,0.120188923339844,-0.0189620771484371,0.259851701098255,0.908410000000003,
0.19369091430664,0.134554133300781,0.0456813676757815,0.240224420960894,0.911340999999993,
0.191296712646484,0.158496149902344,0.0217393510742188,0.249375341981411,0.914357999999993,
0.191296712646484,0.117794721679687,-0.0692403120117184,0.23508349481073,0.917303000000175,
0.220027132568359,0.105823713378906,0.00258573779296967,0.244166507571143,0.920321000000513,
0.243969149169922,0.120188923339844,-0.0285388837890626,0.273460766707424,0.923265000000356,
0.19369091430664,0.139342536621094,-0.0285388837890626,0.240306014666443,0.926178000000618,
0.203267720947266,0.151313544921875,0.0217393510742188,0.254334729522037,0.929223000000093,
0.212844527587891,0.129765729980469,-0.021356278808593,0.250195979675986,0.932142000000567,
0.222421334228516,0.136948334960938,-0.0285388837890626,0.26275571212914,0.935162000000673,
0.227209737548828,0.151313544921875,-0.00938527050781168,0.273144901135526,0.938119999999799,
0.220027132568359,0.148919343261719,-0.0500866987304676,0.270365654722401,0.941134000000602,
0.224815535888672,0.134554133300781,0.0241335527343765,0.263114553631718,0.944086000000425,
0.224815535888672,0.120188923339844,-0.0165678754882812,0.255464081562745,0.947014000000308,
0.222421334228516,0.151313544921875,0.014556746093751,0.269404784021471,0.950033000000076,
0.198479317626953,0.18004396484375,0.0073741411132815,0.268075076721945,0.952990000000682,
0.224815535888672,0.14173673828125,-0.0429040937499998,0.269206406714304,0.955968000000212,
0.19369091430664,0.1608903515625,0.00258573779296967,0.251810566797307,0.9589390000001,
0.229603939208984,0.1608903515625,-0.0836055219726557,0.292563766434786,0.961857000000236,
0.224815535888672,0.132159931640625,-0.0285388837890626,0.262340886245532,0.964867000000595,
0.243969149169922,0.144130939941406,-0.0405098920898439,0.286244170162852,0.9678100000001,
0.227209737548828,0.177649763183594,-0.0405098920898439,0.291246896212346,0.970844999999827,
0.246363350830078,0.168072956542969,-0.0285388837890626,0.299596206987412,0.973790000000008,
0.241574947509765,0.146525141601563,0.0384987626953137,0.285149482052439,0.976731000000655,
0.215238729248047,0.10342951171875,0.00497993945312558,0.238851783036363,0.979742000000442,
0.186508309326172,0.1608903515625,0.0863827958984373,0.261023068139279,0.982689000000391,
0.186508309326172,0.148919343261719,0.0313161577148442,0.240713568332218,0.985698000000411,
0.212844527587891,0.158496149902344,0.000191536132813752,0.265374940685945,0.98864599999979,
0.198479317626953,0.132159931640625,0.0169509477539069,0.239055687417537,0.991557000000284,
0.234392342529297,0.134554133300781,-0.0165678754882812,0.270774961033864,0.994592000000011,
0.186508309326172,0.158496149902344,0.0313161577148442,0.246753076405532,0.997637000000395,
0.203267720947266,0.134554133300781,-0.021356278808593,0.244701188824186,1.00073000000066,
0.196085115966797,0.148919343261719,0.0169509477539069,0.246806965321016,1.00379000000066,
0.217632930908203,0.156101948242188,-0.0261446821289049,0.269101198927695,1.00673300000017,
0.198479317626953,0.129765729980469,0.0552581743164069,0.243488500820485,1.00973800000065,
0.236786544189453,0.165678754882813,-0.0357214887695303,0.291192963666045,1.01268900000014,
