X,Y,Z,Magnitude,Seconds,
-0.146285721435547,0.622971271972656,0.0073741411132815,0.639958667381188,0.0,
-0.165439334716797,0.584664045410156,0.0480755693359374,0.6095190561696,0.00389999999970314,
-0.167833536376953,0.58226984375,0.00258573779296967,0.605980983953604,0.00773399999980029,
-0.186987149658203,0.603817658691406,-0.0500866987304676,0.634088823805141,0.0115429999996195,
-0.143891519775391,0.60142345703125,0.0408929643554696,0.619747673383668,0.015346999999565,
-0.146285721435547,0.570298835449219,0.0193451494140628,0.589079373952701,0.019123000000036,
-0.175016141357422,0.587058247070313,-0.0309330854492185,0.61337173961988,0.0228779999997641,
-0.129526309814453,0.60142345703125,0.000191536132813752,0.615213195800984,0.0267449999992095,
-0.15107412475586,0.606211860351563,0.0169509477539069,0.624982836109446,0.0305109999999331,
-0.139103116455078,0.587058247070313,0.0241335527343765,0.603795901632635,0.0342479999999341,
-0.107978494873047,0.584664045410156,-0.00699106884765577,0.594592529715982,0.0379519999996774,
-0.11276689819336,0.572693037109375,0.00497993945312558,0.583710962616489,0.0416979999999967,
-0.158256729736328,0.572693037109375,0.0432871660156255,0.595731723179202,0.0454259999996793,
-0.139103116455078,0.594240852050781,0.0217393510742188,0.610691793492169,0.0491489999994883,
-0.158256729736328,0.625365473632813,-0.0452982954101557,0.646667691852543,0.0529569999998785,
-0.184592947998047,0.599029255371094,-0.0692403120117184,0.630638427348459,0.0566859999998996,
-0.160650931396485,0.584664045410156,-0.0405098920898439,0.607685625229903,0.0605769999992845,
-0.107978494873047,0.60142345703125,0.014556746093751,0.611213079767855,0.0645109999995839,
-0.153468326416016,0.611000263671875,0.0361045610351578,0.631012986195669,0.0682950000000346,
-0.148679923095703,0.589452448730469,0.0648349809570323,0.611361990642033,0.0720999999994092,
-0.13192051147461,0.570298835449219,0.0241335527343765,0.585855111294628,0.0759189999998853,
-0.117555301513672,0.611000263671875,0.0265277543945324,0.622771461191253,0.0797619999993913,
-0.139103116455078,0.615788666992188,0.00258573779296967,0.631309785638924,0.0835709999992105,
-0.163045133056641,0.613394465332031,0.00976834277343741,0.634769175396825,0.0873519999995551,
-0.153468326416016,0.565510432128906,0.014556746093751,0.586145438365252,0.0911009999999806,
-0.177410343017578,0.608606062011719,0.0624407792968764,0.63700441085304,0.0948949999992692,
-0.210929166259766,0.625365473632813,0.0408929643554696,0.661245282270361,0.0986479999992298,
-0.163045133056641,0.575087238769531,-0.021356278808593,0.598134715807043,0.102473999999347,
-0.148679923095703,0.644519086914063,-0.00699106884765577,0.661482764682432,0.106221000000005,
-0.11276689819336,0.611000263671875,-0.0117794721679676,0.621430970824442,0.109955999999329,
-0.134314713134766,0.618182868652344,-0.0285388837890626,0.633249531502109,0.113683999999921,
-0.134314713134766,0.575087238769531,-0.021356278808593,0.590949968275309,0.117410999999265,
-0.148679923095703,0.587058247070313,0.0672291826171882,0.609313439848809,0.121146999999837,
-0.0984016882324221,0.60142345703125,0.0073741411132815,0.609464884034814,0.124943999999232,
-0.158256729736328,0.608606062011719,0.0863827958984373,0.634750753171259,0.128730999999789,
-0.117555301513672,0.570298835449219,0.0384987626953137,0.58355990725698,0.132732999999462,
-0.172621939697266,0.579875642089844,0.000191536132813752,0.605024074760703,0.136564999999791,
-0.148679923095703,0.603817658691406,0.00976834277343741,0.621929984001298,0.140371999999843,
-0.11276689819336,0.577481440429688,0.000191536132813752,0.588388667510676,0.144174000000021,
-0.15107412475586,0.589452448730469,0.0624407792968764,0.611699625146441,0.1480619999993,
-0.139103116455078,0.618182868652344,0.00497993945312558,0.633659637265711,0.15192499999921,
-0.119949503173828,0.589452448730469,-0.059663505371093,0.604484744637249,0.155713999999534,
-0.117555301513672,0.591846650390625,-0.0309330854492185,0.60420076321367,0.159494999999879,
-0.127132108154297,0.596635053710938,0.0480755693359374,0.611920926760463,0.163310999999339,
-0.124737906494141,0.560722028808594,-0.00938527050781168,0.574505719910839,0.16709499999979,
-0.127132108154297,0.567904633789063,-0.0309330854492185,0.582782207842907,0.170858999999837,
-0.115161099853516,0.577481440429688,-0.0237504804687489,0.589330958191333,0.174702999999681,
-0.141497318115235,0.622971271972656,0.00497993945312558,0.638857962722537,0.178484999999455,
-0.136708914794922,0.584664045410156,0.0576523759765628,0.60319579726281,0.182215999999244,
-0.153468326416016,0.56311623046875,-0.00459686718749985,0.583672465872947,0.185923999999432,
-0.122343704833985,0.625365473632813,0.0193451494140628,0.637514072417503,0.189660999999433,
-0.15107412475586,0.611000263671875,0.0624407792968764,0.632489971696826,0.193379999999706,
-0.127132108154297,0.603817658691406,0.0408929643554696,0.618409712411687,0.197165999999925,
-0.160650931396485,0.603817658691406,0.0361045610351578,0.625865821109981,0.201043999999456,
-0.0936132849121096,0.603817658691406,0.0361045610351578,0.612097011418246,0.205003000000033,
-0.160650931396485,0.591846650390625,0.0193451494140628,0.613567774694054,0.208760999999868,
-0.158256729736328,0.599029255371094,-0.00938527050781168,0.619652583791748,0.212490999999318,
-0.172621939697266,0.565510432128906,-0.0309330854492185,0.592078743653982,0.216266999999789,
-0.139103116455078,0.60142345703125,0.0265277543945324,0.617870191406052,0.220069999999396,
-0.160650931396485,0.596635053710938,0.0384987626953137,0.619083406177456,0.223988999999165,
-0.153468326416016,0.618182868652344,-0.00459686718749985,0.636964455441678,0.227747999999337,
-0.136708914794922,0.584664045410156,0.0241335527343765,0.600919130788293,0.23150699999951,
-0.146285721435547,0.603817658691406,0.0408929643554696,0.622629514058937,0.235277999999198,
-0.124737906494141,0.606211860351563,-0.00699106884765577,0.61895172670498,0.239014999999199,
-0.148679923095703,0.603817658691406,-0.0381156904296862,0.623020296889473,0.242733000000044,
-0.117555301513672,0.572693037109375,0.00976834277343741,0.584715301824802,0.246536999999989,
-0.163045133056641,0.584664045410156,-0.00699106884765577,0.60701287997246,0.250274999999419,
-0.148679923095703,0.60142345703125,-0.00220266552734216,0.619532683507972,0.253977999999734,
-0.117555301513672,0.584664045410156,0.0839885942382814,0.602250262657861,0.25771899999927,
-0.184592947998047,0.589452448730469,0.0337103593750001,0.618599332439138,0.261451999999736,
-0.148679923095703,0.584664045410156,0.0624407792968764,0.606495355667556,0.265165999999226,
-0.127132108154297,0.613394465332031,0.00258573779296967,0.626435973634703,0.268965999999637,
-0.136708914794922,0.591846650390625,0.0432871660156255,0.608970905466486,0.272926999999981,
-0.129526309814453,0.615788666992188,0.0217393510742188,0.629639060665151,0.276797999999872,
-0.17022773803711,0.599029255371094,-0.00699106884765577,0.622786003882,0.280538999999408,
-0.175016141357422,0.577481440429688,0.0193451494140628,0.603729822505266,0.284347999999227,
-0.119949503173828,0.625365473632813,0.00497993945312558,0.636784625066118,0.288102999999865,
-0.153468326416016,0.608606062011719,0.0648349809570323,0.630997179618137,0.291927999999643,
-0.134314713134766,0.48650177734375,-0.373303922851562,0.62775810655018,0.295830999999453,
-0.0146046301269533,0.931823286132813,0.94111278857422,1.32446261276732,0.299636999999166,
-0.388100089111328,0.474530769042969,-0.409216947753906,0.737061490152454,0.303423999999723,
-0.354581265869141,-0.0474051928710938,-1.01016156445312,1.07163497176739,0.306404999999359,
0.19369091430664,0.893516059570313,0.000191536132813752,0.914268645246621,0.309339999999793,
-0.15107412475586,1.05632177246094,1.76950656298828,2.06634763643593,0.31232799999998,
-0.218111771240235,0.318907661132813,-1.04607458935547,1.11514433486341,0.315243000000009,
-0.0385466467285158,0.493684382324219,-0.615118290527343,0.789671213015987,0.318227999999181,
-0.316274039306641,0.783382783203125,1.08955329150391,1.37871107487588,0.321161999999276,
-0.256418997802735,0.591846650390625,0.143843635742188,0.660851081225031,0.324063000000024,
0.045250411376953,0.438617744140625,-0.454706779296874,0.63339670060976,0.327060999999958,
-0.196563956298828,0.740287153320313,0.507762288085939,0.918958649499099,0.330018999999993,
-0.258813199462891,0.63973068359375,-0.229651823242186,0.727309823710642,0.333004999999503,
-0.0217872351074221,0.479319172363281,0.0576523759765628,0.483265298841527,0.335943999999472,
-0.163045133056641,0.687614716796875,0.220458088867188,0.740269871814379,0.338862999999947,
-0.218111771240235,0.661278498535156,-0.263170646484374,0.744392897970868,0.341851999999562,
-0.0744596716308595,0.522414802246094,0.127084224121095,0.542781602788508,0.344787999999426,
-0.232476981201172,0.608606062011719,0.00258573779296967,0.651501014232331,0.347799999999552,
-0.165439334716797,0.654095893554688,-0.160219975097656,0.693456596952495,0.350722999999562,
-0.0457292517089846,0.611000263671875,0.0792001909179696,0.617806731033587,0.353640999999698,
-0.210929166259766,0.656490095214844,0.00976834277343741,0.689612774544363,0.356637999999293,
-0.13192051147461,0.570298835449219,-0.0381156904296862,0.586597467535779,0.359548999999788,
-0.0888248815917971,0.52480900390625,0.0504697709960951,0.534660217292502,0.362546999999722,
-0.20853496459961,0.632548078613281,-0.0165678754882812,0.666241996361765,0.365458999999646,
-0.148679923095703,0.60142345703125,0.0911711992187509,0.626201310894627,0.368459999999686,
-0.175016141357422,0.579875642089844,0.0361045610351578,0.606786576443721,0.371414999999615,
-0.165439334716797,0.622971271972656,-0.0452982954101557,0.646154249960357,0.374420999999529,
-0.0960074865722658,0.548751020507813,0.0648349809570323,0.560846409226259,0.37753099999918,
-0.117555301513672,0.599029255371094,0.0073741411132815,0.610499529616179,0.380567999999585,
-0.182198746337891,0.618182868652344,0.0408929643554696,0.645769832677339,0.383584999999584,
-0.122343704833985,0.587058247070313,-0.00220266552734216,0.599675094781498,0.386500999999953,
-0.124737906494141,0.572693037109375,0.00976834277343741,0.586201569931914,0.38941899999918,
-0.119949503173828,0.613394465332031,0.00258573779296967,0.625017871305734,0.392410999999811,
-0.129526309814453,0.589452448730469,-0.0261446821289049,0.604081781427082,0.395352999999886,
-0.175016141357422,0.608606062011719,0.0265277543945324,0.633826246069276,0.398355999999694,
-0.117555301513672,0.599029255371094,-0.0548751020507812,0.612916449876736,0.4012589999993,
-0.110372696533203,0.577481440429688,-0.0620577070312489,0.591200562569703,0.40417399999933,
-0.160650931396485,0.584664045410156,-0.0644519086914048,0.60974979810402,0.407148999999663,
-0.160650931396485,0.60142345703125,0.0384987626953137,0.623699487858574,0.410100999999486,
-0.124737906494141,0.599029255371094,0.0217393510742188,0.612264806674462,0.41311499999938,
-0.11276689819336,0.613394465332031,-0.0309330854492185,0.624440548974463,0.416053999999349,
-0.13192051147461,0.60142345703125,0.0552581743164069,0.618196297177462,0.418988999999783,
-0.15107412475586,0.565510432128906,0.052863972656251,0.587724458928138,0.42198499999995,
-0.11276689819336,0.575087238769531,-0.0261446821289049,0.586621896904076,0.424909999999727,
-0.124737906494141,0.567904633789063,0.000191536132813752,0.581442391885663,0.427914999999302,
-0.160650931396485,0.637336481933594,0.0217393510742188,0.657631441118181,0.43084699999963,
-0.148679923095703,0.618182868652344,0.0480755693359374,0.637626096544017,0.433766999999534,
-0.167833536376953,0.577481440429688,-0.0333272871093744,0.602298612018666,0.436760999999933,
-0.163045133056641,0.606211860351563,0.0289219560546883,0.628421048809148,0.439687999999478,
-0.179804544677735,0.584664045410156,0.0624407792968764,0.614866303517552,0.442692999999963,
-0.127132108154297,0.613394465332031,0.0696233842773442,0.630287837945454,0.445629999999255,
-0.119949503173828,0.567904633789063,0.0289219560546883,0.581154055249352,0.448534999999538,
-0.13192051147461,0.608606062011719,0.0480755693359374,0.624592363411617,0.451521999999386,
-0.146285721435547,0.603817658691406,0.00258573779296967,0.621290562686594,0.454455000000053,
-0.158256729736328,0.560722028808594,-0.00459686718749985,0.582645275691825,0.457449999999881,
-0.110372696533203,0.6205770703125,0.105536409179688,0.639089951415447,0.460383999999976,
-0.0840364782714846,0.594240852050781,-0.0261446821289049,0.60072278492657,0.463360999999168,
-0.0984016882324221,0.599029255371094,0.0361045610351578,0.608130315281996,0.466297999999369,
-0.122343704833985,0.618182868652344,0.0504697709960951,0.632190824824391,0.469225999999253,
-0.15107412475586,0.577481440429688,0.00976834277343741,0.596995498921085,0.472223999999187,
-0.177410343017578,0.565510432128906,0.0384987626953137,0.593934873016653,0.475152999999409,
-0.155862528076172,0.613394465332031,0.0265277543945324,0.633442672632244,0.47813799999949,
-0.122343704833985,0.611000263671875,0.00497993945312558,0.623148540972827,0.481062999999267,
-0.148679923095703,0.579875642089844,-0.00459686718749985,0.598650658572086,0.483956999999464,
-0.129526309814453,0.560722028808594,-0.0500866987304676,0.577663341328747,0.486949999999524,
-0.143891519775391,0.608606062011719,-0.0381156904296862,0.626545221063584,0.48985999999968,
-0.110372696533203,0.565510432128906,0.000191536132813752,0.576180716158327,0.492870999999468,
-0.146285721435547,0.58226984375,0.0456813676757815,0.602100050314977,0.495805999999902,
-0.13192051147461,0.634942280273438,-0.0261446821289049,0.649028708941428,0.498703999999634,
-0.172621939697266,0.594240852050781,-0.0476924970703116,0.620640877309646,0.501690000000053,
-0.167833536376953,0.618182868652344,0.00258573779296967,0.640566031778121,0.504625999999917,
-0.165439334716797,0.594240852050781,-0.0117794721679676,0.616953093583403,0.507605999999214,
-0.0984016882324221,0.587058247070313,0.0792001909179696,0.60049391998729,0.510620000000017,
-0.184592947998047,0.627759675292969,0.0839885942382814,0.659705123776272,0.513629999999466,
-0.165439334716797,0.58226984375,-0.00459686718749985,0.605334185058242,0.516718999999284,
-0.15107412475586,0.603817658691406,0.00497993945312558,0.622449962579545,0.519732999999178,
-0.129526309814453,0.584664045410156,0.0121625444335951,0.5989633030634,0.522734999999557,
-0.184592947998047,0.608606062011719,0.0313161577148442,0.636754738421351,0.525659999999334,
-0.11276689819336,0.587058247070313,-0.0237504804687489,0.598262353908313,0.528558999999404,
-0.148679923095703,0.570298835449219,-0.0261446821289049,0.58994069672307,0.531577999999172,
-0.143891519775391,0.611000263671875,0.0241335527343765,0.628178732557825,0.534517000000051,
-0.136708914794922,0.587058247070313,-0.0261446821289049,0.603332625705999,0.537508999999773,
-0.119949503173828,0.584664045410156,0.0552581743164069,0.599394190108479,0.540461999999934,
-0.163045133056641,0.594240852050781,0.0361045610351578,0.617259625268847,0.543383999999605,
-0.103190091552735,0.603817658691406,-0.0500866987304676,0.614615845331008,0.546394999999393,
-0.148679923095703,0.630153876953125,0.0552581743164069,0.64981004455116,0.549329999999827,
-0.172621939697266,0.599029255371094,0.139055232421876,0.638725872749175,0.552373999999872,
-0.222900174560547,0.462559760742188,-0.136277958496093,0.53124166068641,0.555307999999968,
-0.0409408483886721,0.611000263671875,-0.172190983398437,0.636118864708166,0.55827699999918,
-0.0672770666503908,0.718739338378906,0.270736323730469,0.77098028328714,0.561213999999381,
-0.153468326416016,0.52480900390625,0.1103248125,0.557806939762462,0.564132999999856,
-0.143891519775391,0.539174213867188,-0.373303922851562,0.671393641002755,0.567106999999851,
-0.179804544677735,0.658884296875,0.342562373535158,0.764072752241088,0.570046999999249,
-0.172621939697266,0.572693037109375,-0.0668461103515625,0.601867137570693,0.573013999999603,
-0.115161099853516,0.56311623046875,0.0121625444335951,0.574899900351274,0.575957000000017,
-0.146285721435547,0.670855305175781,0.167785652343751,0.706822734432635,0.578860999999961,
-0.124737906494141,0.579875642089844,-0.0405098920898439,0.594521956670046,0.581871999999748,
-0.13192051147461,0.60142345703125,-0.0237504804687489,0.616179585297695,0.584799999999632,
-0.201352359619141,0.594240852050781,0.0169509477539069,0.627656193787642,0.587805999999546,
-0.129526309814453,0.570298835449219,0.0456813676757815,0.586604307861453,0.590743999999177,
-0.115161099853516,0.611000263671875,0.0193451494140628,0.622059190055436,0.593660999999884,
-0.141497318115235,0.606211860351563,0.0289219560546883,0.623177976349241,0.596667999999227,
-0.146285721435547,0.591846650390625,-0.0381156904296862,0.610847587972199,0.599586999999701,
-0.165439334716797,0.630153876953125,0.0552581743164069,0.653848260638027,0.602578999999423,
-0.146285721435547,0.6205770703125,-0.0261446821289049,0.638121428019139,0.605510999999751,
-0.127132108154297,0.603817658691406,-0.021356278808593,0.617425646143629,0.608424000000014,
-0.15107412475586,0.553539423828125,0.0121625444335951,0.573913941623499,0.611422999999377,
-0.172621939697266,0.606211860351563,-0.0644519086914048,0.633597034580903,0.614341999999851,
-0.146285721435547,0.60142345703125,-0.0476924970703116,0.620793251606475,0.617330999999467,
-0.141497318115235,0.577481440429688,-0.0237504804687489,0.595038141968267,0.620242999999391,
-0.15107412475586,0.606211860351563,0.00497993945312558,0.62477276717108,0.623169999999845,
-0.146285721435547,0.575087238769531,-0.0189620771484371,0.593703970730587,0.626148999999714,
-0.146285721435547,0.608606062011719,-0.0668461103515625,0.629499208484382,0.629059999999299,
-0.105584293212891,0.606211860351563,0.0241335527343765,0.615811083833144,0.632057999999233,
-0.155862528076172,0.587058247070313,-0.0189620771484371,0.607692416837126,0.63497499999994,
-0.146285721435547,0.58226984375,0.0600465776367187,0.603359987671084,0.637899999999718,
-0.136708914794922,0.541568415527344,-0.0883939252929675,0.565507879794704,0.640871999999945,
-0.136708914794922,0.599029255371094,-0.0333272871093744,0.615334124066692,0.643793999999616,
-0.134314713134766,0.615788666992188,0.0384987626953137,0.631441429817176,0.646810999999616,
-0.124737906494141,0.599029255371094,0.0337103593750001,0.61280664359664,0.649854999999661,
-0.17022773803711,0.58226984375,0.0217393510742188,0.607032332848102,0.652940999999373,
-0.196563956298828,0.599029255371094,0.00497993945312558,0.630474612893534,0.655976999999439,
-0.124737906494141,0.608606062011719,0.000191536132813752,0.621257531720979,0.658928999999262,
-0.18938135131836,0.56311623046875,0.00258573779296967,0.594114358759689,0.661924999999428,
-0.141497318115235,0.60142345703125,0.00976834277343741,0.617921585819563,0.664858999999524,
-0.103190091552735,0.606211860351563,0.0648349809570323,0.618340189039385,0.667866999999205,
-0.13192051147461,0.63973068359375,-0.00459686718749985,0.65320708819408,0.670814999999493,
-0.148679923095703,0.579875642089844,-0.0333272871093744,0.599559995235609,0.673714999999902,
-0.17022773803711,0.587058247070313,-0.0261446821289049,0.611799323842484,0.67669399999977,
-0.177410343017578,0.591846650390625,-0.00220266552734216,0.617868707027345,0.679636999999275,
-0.155862528076172,0.584664045410156,-0.0285388837890626,0.605755430468098,0.682612999999947,
-0.134314713134766,0.558327827148438,0.014556746093751,0.574440861699103,0.685580999999729,
-0.148679923095703,0.594240852050781,0.0361045610351578,0.613621584614919,0.688514999999825,
-0.107978494873047,0.58226984375,0.014556746093751,0.592376084217228,0.691534999999931,
-0.136708914794922,0.603817658691406,0.014556746093751,0.619271338904696,0.694483999999647,
-0.15107412475586,0.584664045410156,0.0337103593750001,0.604807263097352,0.697478000000046,
-0.136708914794922,0.572693037109375,-0.0141736738281235,0.58895461214575,0.700406999999359,
-0.13192051147461,0.603817658691406,0.0121625444335951,0.618180162883276,0.703327999999601,
-0.146285721435547,0.63973068359375,0.0241335527343765,0.656686598153813,0.706327999999303,
-0.155862528076172,0.565510432128906,0.0289219560546883,0.587308825105623,0.709253999999419,
-0.11276689819336,0.606211860351563,0.0337103593750001,0.617531846375752,0.712249999999585,
-0.13192051147461,0.594240852050781,0.0265277543945324,0.609285592597575,0.715181999999913,
-0.148679923095703,0.608606062011719,-0.00938527050781168,0.626574130930779,0.718085999999857,
-0.155862528076172,0.630153876953125,-0.0117794721679676,0.64925017694407,0.721085999999559,
-0.119949503173828,0.642124885253906,0.0217393510742188,0.653593796603914,0.724014999999781,
-0.15107412475586,0.591846650390625,-0.0452982954101557,0.612501252501917,0.726998999999523,
-0.167833536376953,0.58226984375,0.0935654008789069,0.613156383898165,0.729938999999831,
-0.175016141357422,0.575087238769531,-0.0189620771484371,0.601427919455847,0.732842999999775,
-0.163045133056641,0.599029255371094,0.00976834277343741,0.620898691192407,0.735850000000028,
-0.141497318115235,0.594240852050781,0.0432871660156255,0.612386691577721,0.738781999999446,
-0.134314713134766,0.611000263671875,-0.100364933593749,0.633588892158672,0.741770999999972,
-0.163045133056641,0.60142345703125,-0.021356278808593,0.623498180210198,0.74470299999939,
-0.17022773803711,0.615788666992188,-0.00459686718749985,0.638900850196011,0.747675999999956,
-0.15107412475586,0.596635053710938,-0.0141736738281235,0.615627867723017,0.750597999999627,
-0.13192051147461,0.608606062011719,0.00976834277343741,0.62281600861384,0.753512999999657,
-0.107978494873047,0.577481440429688,0.0265277543945324,0.588088336178343,0.756507000000056,
-0.148679923095703,0.613394465332031,0.0456813676757815,0.632807456486128,0.759435999999369,
-0.136708914794922,0.577481440429688,0.0552581743164069,0.596009737549593,0.762425999999323,
-0.143891519775391,0.60142345703125,-0.0285388837890626,0.619055257645565,0.765344999999797,
-0.155862528076172,0.589452448730469,0.000191536132813752,0.609710877103838,0.768260999999256,
-0.148679923095703,0.58226984375,-0.00699106884765577,0.600993149308731,0.771246999999676,
-0.139103116455078,0.591846650390625,0.0169509477539069,0.608210053530747,0.774185999999645,
-0.148679923095703,0.618182868652344,0.0121625444335951,0.63592743777422,0.777181999999812,
-0.155862528076172,0.618182868652344,-0.0117794721679676,0.637637783320666,0.780089999999291,
-0.141497318115235,0.613394465332031,0.00976834277343741,0.62957897173771,0.783009999999194,
-0.165439334716797,0.6205770703125,-0.0189620771484371,0.642530648326572,0.786057999999684,
-0.153468326416016,0.615788666992188,0.0313161577148442,0.635396656697979,0.789097999999285,
-0.163045133056641,0.591846650390625,0.0744117875976578,0.618387651174843,0.792199999999866,
-0.136708914794922,0.577481440429688,-0.0357214887695303,0.594516750129938,0.79520599999978,
-0.107978494873047,0.603817658691406,0.0289219560546883,0.61407784510162,0.798114999999598,
-0.146285721435547,0.608606062011719,0.0121625444335951,0.626058127093986,0.801109999999426,
-0.148679923095703,0.596635053710938,-0.00459686718749985,0.614898559143162,0.804025999999794,
-0.146285721435547,0.608606062011719,-0.00938527050781168,0.626010330837947,0.807023999999728,
-0.148679923095703,0.565510432128906,-0.0261446821289049,0.585313004111465,0.809944999999971,
-0.119949503173828,0.632548078613281,0.00976834277343741,0.643894692934754,0.812878999999157,
-0.186987149658203,0.603817658691406,-0.0285388837890626,0.632751473307488,0.815866999999344,
-0.184592947998047,0.611000263671875,0.0241335527343765,0.638731795846499,0.818833999999697,
-0.136708914794922,0.589452448730469,0.00258573779296967,0.605103464490731,0.821846999999252,
-0.15107412475586,0.58226984375,-0.00220266552734216,0.601553334166493,0.824775999999474,
-0.129526309814453,0.575087238769531,0.0313161577148442,0.590324570777581,0.827734999999848,
-0.143891519775391,0.58226984375,-0.0429040937499998,0.601318303117766,0.830742999999529,
-0.122343704833985,0.606211860351563,0.0073741411132815,0.618478115781445,0.83368099999916,
-0.177410343017578,0.58226984375,-0.00220266552734216,0.60870144774404,0.836676999999327,
-0.155862528076172,0.575087238769531,-0.00459686718749985,0.595851987528613,0.839602000000014,
-0.163045133056641,0.596635053710938,-0.0141736738281235,0.618674385892852,0.842568999999457,
-0.136708914794922,0.606211860351563,-0.0237504804687489,0.621889244430071,0.845486999999594,
-0.15107412475586,0.594240852050781,0.0121625444335951,0.613264632034073,0.848401999999624,
-0.122343704833985,0.570298835449219,0.0265277543945324,0.583877098009895,0.851390999999239,
-0.119949503173828,0.611000263671875,-0.0716345136718743,0.626770060762123,0.854309999999714,
-0.13192051147461,0.599029255371094,0.0313161577148442,0.61418219761907,0.857322999999269,
-0.100795889892578,0.591846650390625,0.00976834277343741,0.600447907414439,0.860249999999724,
-0.119949503173828,0.606211860351563,0.0456813676757815,0.619651103682775,0.863156999999774,
-0.127132108154297,0.644519086914063,-0.0333272871093744,0.65778274102196,0.866140999999516,
-0.146285721435547,0.603817658691406,0.0337103593750001,0.62219905622934,0.869065999999293,
-0.186987149658203,0.6205770703125,-0.0429040937499998,0.649554351532998,0.872049999999945,
-0.127132108154297,0.606211860351563,-0.0237504804687489,0.619854400546737,0.874974999999722,
-0.141497318115235,0.599029255371094,-0.0117794721679676,0.61562675038436,0.877873999999792,
-0.124737906494141,0.594240852050781,0.000191536132813752,0.607191709634338,0.88088499999958,
-0.127132108154297,0.565510432128906,0.000191536132813752,0.579624584068402,0.883839999999509,
-0.163045133056641,0.618182868652344,0.0313161577148442,0.640089428316637,0.886839999999211,
-0.148679923095703,0.608606062011719,0.0241335527343765,0.626968489333188,0.88977899999918,
-0.141497318115235,0.613394465332031,0.000191536132813752,0.629503215098909,0.892691000000013,
-0.143891519775391,0.637336481933594,-0.00459686718749985,0.65339397904687,0.895676999999523,
-0.139103116455078,0.622971271972656,-0.0141736738281235,0.638469870659948,0.898597999999765,
-0.155862528076172,0.60142345703125,-0.0309330854492185,0.622061217326015,0.901585999999952,
-0.148679923095703,0.58226984375,0.014556746093751,0.601128762686691,0.904518999999709,
-0.15107412475586,0.591846650390625,0.0624407792968764,0.614007084379776,0.907439999999951,
-0.136708914794922,0.591846650390625,-0.00699106884765577,0.607470707118163,0.910422999999355,
-0.0960074865722658,0.58226984375,0.00258573779296967,0.59013752164941,0.913360999999895,
-0.155862528076172,0.58226984375,-0.00699106884765577,0.6028102302073,0.916341999999531,
-0.143891519775391,0.6205770703125,-0.0429040937499998,0.638483696676294,0.919262999999773,
-0.148679923095703,0.591846650390625,-0.00220266552734216,0.610240140310167,0.922165999999379,
-0.136708914794922,0.577481440429688,0.000191536132813752,0.593442649386815,0.925266999999621,
-0.141497318115235,0.625365473632813,0.0361045610351578,0.642189229101001,0.928296999999475,
-0.139103116455078,0.589452448730469,-0.0357214887695303,0.606695880224823,0.931386999999631,
-0.158256729736328,0.577481440429688,-0.021356278808593,0.599154485247448,0.934352999999646,
-0.143891519775391,0.594240852050781,-0.0357214887695303,0.612456516390529,0.937324999999873,
-0.103190091552735,0.611000263671875,0.0313161577148442,0.620443566278017,0.940261999999166,
-0.146285721435547,0.625365473632813,0.0720175859375001,0.646272404325123,0.943169999999554,
-0.141497318115235,0.584664045410156,0.0073741411132815,0.60158782815673,0.94618999999966,
-0.153468326416016,0.6205770703125,-0.00938527050781168,0.639340684387505,0.949094999999943,
-0.143891519775391,0.591846650390625,0.0073741411132815,0.609131845333203,0.952076999999917,
-0.182198746337891,0.6205770703125,-0.00938527050781168,0.646838748582094,0.954999999999927,
-0.165439334716797,0.599029255371094,0.0384987626953137,0.622646269555238,0.957927999999811,
-0.153468326416016,0.572693037109375,0.0265277543945324,0.593492682111338,0.96094599999924,
-0.122343704833985,0.56311623046875,0.00258573779296967,0.576259105932196,0.963894999999866,
-0.167833536376953,0.570298835449219,0.0361045610351578,0.595577364391118,0.966927999999825,
-0.17022773803711,0.634942280273438,-0.0189620771484371,0.657638762882668,0.969857000000047,
-0.15107412475586,0.596635053710938,0.0073741411132815,0.615508859761223,0.972783999999592,
-0.146285721435547,0.558327827148438,0.00976834277343741,0.577256351532621,0.975795999999718,
-0.136708914794922,0.567904633789063,-0.00938527050781168,0.584202947412968,0.978722999999263,
-0.148679923095703,0.656490095214844,-0.0189620771484371,0.673382896290604,0.981705999999576,
-0.11276689819336,0.622971271972656,-0.0165678754882812,0.633311987514508,0.984633000000031,
-0.182198746337891,0.58226984375,0.0361045610351578,0.611177628382527,0.987542999999278,
-0.172621939697266,0.565510432128906,0.0313161577148442,0.592098880800741,0.990546999999424,
-0.117555301513672,0.577481440429688,0.014556746093751,0.589504844603974,0.993475999999646,
-0.143891519775391,0.591846650390625,0.0289219560546883,0.6097734879313,0.996486999999433,
-0.127132108154297,0.587058247070313,0.00497993945312558,0.600686905279265,0.999417999999423,
-0.141497318115235,0.589452448730469,-0.00699106884765577,0.6062380352566,1.0023199999996,
-0.148679923095703,0.596635053710938,-0.0357214887695303,0.615918120863731,1.00530299999991,
-0.165439334716797,0.570298835449219,0.0408929643554696,0.595216909806878,1.00823199999923,
