X,Y,Z,Magnitude,Seconds,
2.0302830078125,5.74368978271484,8.46829127197266,10.4318732008611,0.0,
2.13323367919922,5.73890137939453,8.50899270019531,10.4827778639282,0.00293199999999949,
2.18590611572266,5.76763179931641,8.61433757324219,10.5948371363137,0.00595399999999913,
2.31519300537109,5.77960280761719,8.61433757324219,10.6287694062722,0.00886200000000059,
2.45405670166016,5.72214196777344,8.65264479980469,10.6599045505063,0.0117899999999995,
2.528276953125,5.73171877441406,8.69095202636719,10.7134229630539,0.0146339999999991,
2.66235224609375,5.74847818603516,8.66222160644531,10.7315983943106,0.0174520000000005,
2.71263048095703,5.75805499267578,8.5425115234375,10.6530777033193,0.0204310000000003,
2.73896669921875,5.77960280761719,8.37731160888672,10.5396915033427,0.0232650000000003,
2.74136090087891,5.81312163085938,8.21450589599609,10.4300311504514,0.0262060000000002,
2.7581203125,5.88015927734375,8.08761320800781,10.3727039959453,0.0290379999999999,
2.76290871582031,5.91846650390625,8.02057556152344,10.3436716241344,0.031879,
2.77727392578125,6.01902297363281,8.08761320800781,10.4571207996411,0.0348199999999999,
2.82036955566406,6.08606062011719,8.12352623291016,10.535003405744,0.0376619999999992,
2.92092602539063,6.1674634765625,8.02536396484375,10.5345090701347,0.0406200000000005,
2.96162745361328,6.24647213134766,8.06845959472656,10.6249560701884,0.0434769999999993,
2.95923325195313,6.31111557617188,7.98705673828125,10.6009582866733,0.0462939999999996,
3.08612593994141,6.39491263427734,8.02057556152344,10.7120825825479,0.0492340000000002,
3.17710560302734,6.45955607910156,8.03972917480469,10.7915295466422,0.052054,
3.27526787109375,6.50983431396484,8.03733497314453,10.8491509295993,0.0549900000000001,
3.34469971923828,6.67264002685547,7.99184514160156,10.9352974311267,0.0578179999999993,
3.40694896240234,6.79953271484375,7.96311472167969,11.0114550556807,0.0607249999999997,
3.49314022216797,6.88093557128906,7.92480749511719,11.061278261694,0.0635759999999994,
3.51468803710938,6.91206019287109,7.98945093994141,11.1337744916,0.0664160000000003,
3.51468803710938,6.95994422607422,7.9295958984375,11.1208069284913,0.0693509999999993,
3.45483299560547,6.99585725097656,7.94635531005859,11.1365368233245,0.0721910000000001,
3.42849677734375,7.00782825927734,8.00860455322266,11.1804290594628,0.0750679999999999,
3.39258375244141,7.05331809082031,8.07803640136719,11.2478261326105,0.0779270000000007,
3.37582434082031,7.05092388916016,8.10197841796875,11.2584977664001,0.0807500000000001,
3.32554610595703,7.08444271240234,7.99663354492188,11.1890452452355,0.0836839999999999,
3.3327287109375,7.09162531738281,8.01578715820313,11.209418988889,0.0865109999999998,
3.36145913085938,7.07965430908203,8.06367119140625,11.2447190141709,0.0894349999999999,
3.33033450927734,7.09401951904297,7.97747993164063,11.1828630922486,0.0922769999999993,
3.31836350097656,7.02937607421875,7.99184514160156,11.1486884019939,0.0951129999999996,
3.2561142578125,7.02219346923828,7.89607707519531,11.0571928786997,0.0980259999999991,
3.25132585449219,6.98867464599609,7.88410606689453,11.0259612548621,0.100873999999999,
3.19865341796875,6.92881960449219,7.91283648681641,10.9933118789094,0.103797999999999,
3.141192578125,6.87135876464844,7.89847127685547,10.9301651678595,0.106642000000001,
3.04781871337891,6.83305153808594,7.92480749511719,10.8987323146514,0.109462000000001,
2.96641585693359,6.77319649658203,7.90325968017578,10.8229999256154,0.112394999999999,
2.94007963867188,6.742071875,7.89368287353516,10.7893387544066,0.115220000000001,
2.95444484863281,6.69418784179688,7.82664522705078,10.7143488245899,0.118154000000001,
2.89698400878906,6.60799658203125,7.88650026855469,10.6890140640393,0.120976000000001,
2.92810863037109,6.52659372558594,7.83861623535156,10.611981450004,0.123818,
2.91134921875,6.50983431396484,7.93677850341797,10.6698805092235,0.12674,
2.88261879882813,6.43321986083984,7.95593211669922,10.6298007865993,0.129583999999999,
2.89937821044922,6.43800826416016,8.02775816650391,10.6910825268769,0.132519,
2.88261879882813,6.37575902099609,8.05648858642578,10.6708388881277,0.135465,
2.85388837890625,6.31829818115234,8.00381614990235,10.588986908418,0.138394999999999,
2.84670577392578,6.30872137451172,7.99184514160156,10.5722886789883,0.141432,
2.79403333740234,6.33505759277344,8.12352623291016,10.6738585081053,0.144283,
2.82515795898438,6.33505759277344,7.99902774658203,10.5876776059511,0.147212,
2.84431157226563,6.29196196289063,7.92480749511719,10.5110164825887,0.150040000000001,
2.94247384033203,6.29196196289063,7.96311472167969,10.5668412363455,0.152946999999999,
3.03584770507813,6.33745179443359,7.93917270507813,10.6023643484015,0.155822000000001,
3.15076938476563,6.32787498779297,7.95593211669922,10.6426596968351,0.158657,
3.22020123291016,6.36139381103516,7.94396110839844,10.6744341906847,0.161567,
3.80678063964844,6.59363137207031,7.06050069580078,10.3835554404335,0.164434999999999,
3.90494290771484,7.00782825927734,3.40216055908203,8.71395045279763,0.167306999999999,
3.62960971679688,7.19218178710938,6.94557901611328,10.6368516688054,0.170192999999999,
3.51947644042969,7.25203682861328,8.80108530273438,11.9347331383785,0.173022,
3.40455476074219,7.05571229248047,9.2320416015625,12.1080411795688,0.175988,
3.11725056152344,7.07726010742188,9.18176336669922,12.0045674729864,0.178832,
3.11725056152344,7.01501086425781,8.20492908935547,11.2360353261426,0.181765,
3.06936652832031,6.96952103271484,7.13472094726563,10.4354912345313,0.184604999999999,
3.34948812255859,6.91445439453125,6.17704028320313,9.85822382163885,0.18744,
3.71819517822266,6.99346304931641,6.25844313964844,10.0946327985581,0.190353,
3.97676895751953,7.21612380371094,6.99585725097656,10.8087535251765,0.193194999999999,
4.04141240234375,7.41723674316406,7.2951324584961,11.1609754366258,0.196106,
3.96719215087891,7.55849464111328,7.30231506347656,11.2335773504263,0.198949000000001,
3.73495458984375,7.67820472412109,7.03895288085938,11.0657838056176,0.201779,
3.63200391845703,7.66623371582031,7.00782825927734,11.0032835445059,0.204722,
3.47877501220703,7.60398447265625,6.51941112060547,10.6030739319043,0.207547999999999,
3.48356341552734,7.53694682617188,6.64151540527344,10.6325212630414,0.210481,
3.56496627197266,7.50582220458984,7.13472094726563,10.9521958749178,0.213303,
3.58890828857422,7.39568892822266,6.78516750488281,10.6590325778726,0.216142,
3.64158072509766,7.40287153320313,7.01979926757813,10.8324142679092,0.219056999999999,
3.68946475830078,7.40287153320313,6.92881960449219,10.7899582136099,0.2219,
3.65834013671875,7.40047733154297,6.67024582519531,10.6133263710839,0.224822,
6.69179364013672,5.38455953369141,-4.94402642822266,9.91044806338267,14.337373,
6.73010086669922,5.42765516357422,-4.99909306640625,9.98722332468892,14.341418,
6.82347473144531,5.39653054199219,-5.09246693115234,10.0804547886595,14.344264,
6.83305153808594,5.35582911376953,-5.20020600585938,10.1201601430716,14.347148,
6.89290657958984,5.34625230712891,-5.25287844238281,10.1826964393958,14.350065,
6.92642540283203,5.34146390380859,-5.25766684570313,10.205374376136,14.352931,
6.95515582275391,5.31033928222656,-5.29836827392578,10.2296921838973,14.355847,
6.94797321777344,5.36780012207031,-5.21457121582031,10.2117267369557,14.358745,
6.96473262939453,5.44920297851563,-5.2097828125,10.2636811453512,14.361613,
6.94797321777344,5.51863482666016,-5.15232197265625,10.2604134368377,14.364543,
6.92881960449219,5.51384642333984,-5.14992777099609,10.2436711943643,14.367392,
6.94079061279297,5.56651885986328,-5.18584079589844,10.298235349236,14.370325,
6.89769498291016,5.65271011962891,-5.08528432617188,10.2660335306207,14.373177,
6.87135876464844,5.69819995117188,-5.14753356933594,10.3044726116132,14.375988,
6.77319649658203,5.79636221923828,-5.08767852783203,10.2644278243109,14.378943,
6.79713851318359,5.87776507568359,-5.04937130126953,10.3075392209011,14.381825,
6.73967767333984,5.9376201171875,-5.0182466796875,10.2888963224799,14.384757,
6.69897624511719,5.94001431884766,-5.05415970458984,10.2812734211409,14.387603,
6.665457421875,5.98789835205078,-5.05176550292969,10.2860869145614,14.390429,
6.59363137207031,6.02381137695313,-5.07810172119141,10.27372353466,14.393351,
6.58884296875,6.04057078857422,-5.02782348632813,10.2557474680442,14.396199,
6.55292994384766,6.06930120849609,-5.07570751953125,10.273271865976,14.399112,
6.4739212890625,6.05972440185547,-4.96078583984375,10.1607732398776,14.401997,
6.4739212890625,6.09324322509766,-4.95599743652344,10.1784665076819,14.40498,
6.44758507080078,6.05733020019531,-4.96078583984375,10.1425834257454,14.407848,
6.43082565917969,6.07887801513672,-4.95360323486328,10.1413244495048,14.410673,
6.41406624755859,6.05493599853516,-4.90093079833984,10.0906698719433,14.413593,
6.3973068359375,6.07648381347656,-4.95120903320313,10.1174928306892,14.416432,
6.34702860107422,6.10282003173828,-4.9416322265625,10.0969754612578,14.419364,
6.28717355957031,6.11000263671875,-4.99430466308594,10.0897850649353,14.422234,
6.30153876953125,6.09803162841797,-4.99430466308594,10.0915043315064,14.425101,
6.31350977783203,6.00226356201172,-5.10443793945313,10.0966757034364,14.428092,
6.33266339111328,5.88015927734375,-5.0182466796875,9.99308253194542,14.431063,
6.44519086914063,5.80354482421875,-5.03021768798828,10.0262010679479,14.434052,
6.53377633056641,5.74368978271484,-4.95120903320313,10.0097290846658,14.436965,
6.52419952392578,5.65031591796875,-4.979939453125,9.96448926727484,14.439835,
6.55532414550781,5.5545478515625,-5.00627567138672,9.94424821622499,14.44287,
6.59363137207031,5.50905802001953,-5.00148726806641,9.94185947553684,14.445768,
6.62475599365234,5.48272180175781,-5.01106407470703,9.95280832186185,14.448709,
6.59363137207031,5.4779333984375,-4.98472785644531,9.91621100982067,14.451593,
6.63912120361328,5.43244356689453,-4.93444962158203,9.89637138206183,14.454497,
6.65588061523438,5.36301171875,-4.99909306640625,9.9022004093178,14.457495,
6.63433280029297,5.30555087890625,-5.43004936523438,10.082096902063,14.460354,
6.59123717041016,5.35822331542969,-5.77002600097656,10.26879567362,14.463279,
6.5505357421875,5.40850155029297,-5.81312163085938,10.2933857706958,14.466124,
6.57447775878906,5.47075079345703,-5.65749852294922,10.254762873031,14.469002,
6.67503422851563,5.46596239013672,-5.30794508056641,10.129516660757,14.471962,
6.87375296630859,5.28160886230469,-4.97754525146484,9.99599063357864,14.474922,
7.03416447753906,5.20020600585938,-4.93205541992188,10.0422499005765,14.477909,
7.10359632568359,5.16668718261719,-5.21217701416016,10.213839945301,14.480831,
7.05331809082031,5.19062919921875,-5.48751020507813,10.3346357374081,14.483717,
6.97909783935547,5.29118566894531,-5.49708701171875,10.3403296876335,14.486698,
6.92642540283203,5.31273348388672,-5.47553919677734,10.3044667706414,14.489601,
6.78277330322266,5.43004936523438,-5.38216533203125,10.2205260849484,14.492568,
6.67264002685547,5.48990440673828,-5.35582911376953,10.1660258124313,14.495496,
6.58644876708984,5.56412465820313,-5.36780012207031,10.1564791499821,14.498467,
6.48589229736328,5.62158549804688,-5.35343491210938,10.1157445481308,14.50136,
6.46195028076172,5.70059415283203,-5.54018264160156,10.2443740086275,14.504209,
6.38533582763672,5.75087238769531,-5.43483776855469,10.1677189389639,14.507201,
6.38294162597656,5.77960280761719,-5.26245524902344,10.0915404008712,14.51007,
6.36857641601563,5.72214196777344,-5.09725533447266,9.96411994161022,14.513022,
6.32308658447266,5.80354482421875,-5.07570751953125,9.97122677032673,14.515945,
6.49546910400391,5.73171877441406,-4.71418306884766,9.86241557614816,14.518822,
6.29914456787109,5.89691868896484,-5.32949289550781,10.1418127982364,14.521792,
6.32787498779297,5.90170709228516,-5.03979449462891,10.0135746370792,14.524666,
6.11479104003906,5.79875642089844,-5.48990440673828,10.057598912632,14.527647,
5.56651885986328,6.0142345703125,-6.03099398193359,10.1749711593731,14.530557,
5.36540592041016,5.85621726074219,-5.87776507568359,9.88083921439434,14.533405,
5.65510432128906,5.65031591796875,-5.19541760253906,9.53407776988871,14.536397,
6.20098229980469,5.44441457519531,-4.57771357421875,9.43659330037471,14.539329,
7.24485422363281,4.87698878173828,-3.69904156494141,9.48450530064987,14.542354,
8.04212337646485,4.78361491699219,-3.38300694580078,9.95004804368747,14.54526,
8.74123026123047,4.84825836181641,-2.77009132080078,10.3724694045512,14.548144,
7.80749161376953,5.54497104492188,-4.27843836669922,10.4885015157432,14.551096,
6.19379969482422,6.15549246826172,-6.27759675292969,10.7546019535278,14.553966,
4.84825836181641,6.39012423095703,-7.79312640380859,11.1835645469468,14.556967,
4.32392819824219,6.45476767578125,-7.25443103027344,10.629541400496,14.559896,
4.85304676513672,6.26562574462891,-5.19781180419922,9.47773055262879,14.562852,
6.02620557861328,5.81791003417969,-3.76847341308594,9.18502164976513,14.56587,
6.45237347412109,5.7077767578125,-4.24731374511719,9.60476512029459,14.568834,
6.72770666503906,5.58806667480469,-5.84903465576172,10.5213940396306,14.57183,
6.82586893310547,5.57370146484375,-6.16028087158203,10.7521018934865,14.574751,
6.72770666503906,5.51384642333984,-6.08366641845703,10.6148733596803,14.577709,
6.53377633056641,5.49948121337891,-5.73890137939453,10.2892913165385,14.580791,
6.25365473632813,5.38695373535156,-5.42526096191406,9.87729338497577,14.58367,
6.11000263671875,5.3247044921875,-5.41568415527344,9.74752507149951,14.586662,
6.06451280517578,5.28400306396484,-5.47314499511719,9.72904517831566,14.589585,
6.17225187988281,5.30076247558594,-5.65031591796875,9.9055967040935,14.592577,
6.35181700439453,5.35822331542969,-5.64552751464844,10.0462986852862,14.595465,
6.48349809570313,5.41328995361328,-5.58567247314453,10.1261637679884,14.598311,
6.60799658203125,5.49469281005859,-5.43483776855469,10.1683198944346,14.601234,
6.65348641357422,5.56651885986328,-5.32949289550781,10.1812822471484,14.604173,
6.67742843017578,5.60003768310547,-5.32949289550781,10.2152810541653,14.607092,
6.58884296875,5.61440289306641,-5.25048424072266,10.1243249787132,14.610028,
6.51701691894531,5.64792171630859,-5.4013189453125,10.175695336652,14.612988,
6.46913288574219,5.66946953125,-5.54497104492188,10.2342204856152,14.615967,
6.53138212890625,5.66707532958984,-5.58567247314453,10.2943883879659,14.618893,
6.53617053222656,5.71495936279297,-5.60003768310547,10.3316362594181,14.621868,
6.53377633056641,5.76044919433594,-5.66707532958984,10.3917636063202,14.624761,
6.58644876708984,5.80115062255859,-5.60003768310547,10.411295690706,14.627656,
6.61039078369141,5.78199700927734,-5.52342322998047,10.3748233674551,14.630647,
6.63912120361328,5.76523759765625,-5.42047255859375,10.3294442092576,14.633562,
6.62954439697266,5.71495936279297,-5.42526096191406,10.2978189892169,14.636543,
6.67024582519531,5.67425793457031,-5.45159718017578,10.3154880781992,14.639411,
6.65827481689453,5.65510432128906,-5.48751020507813,10.3162782374648,14.64229,
6.61996759033203,5.61440289306641,-5.44680877685547,10.2475956494364,14.645276,
6.61757338867188,5.58088406982422,-5.45877978515625,10.23410090326,14.648113,
6.58405456542969,5.53778843994141,-5.54975944824219,10.2380029917683,14.651113,
6.58884296875,5.53539423828125,-5.61200869140625,10.2736596494367,14.654003,
6.52898792724609,5.53060583496094,-5.55694205322266,10.2026902941677,14.656882,
6.56250675048828,5.52581743164063,-5.516240625,10.1995129183176,14.659835,
6.57208355712891,5.52581743164063,-5.48272180175781,10.1875992719177,14.662718,
6.55771834716797,5.51863482666016,-5.37258852539063,10.1155181643833,14.665681,
6.61996759033203,5.54018264160156,-5.40850155029297,10.1867307620684,14.668561,
6.66066901855469,5.57130726318359,-5.41328995361328,10.2326772898116,14.671413,
6.69658204345703,5.62637390136719,-5.39653054199219,10.2772971268418,14.674403,
6.68221683349609,5.64552751464844,-5.40850155029297,10.2847407234229,14.677302,
6.71094725341797,5.70538255615234,-5.45399138183594,10.3602232187992,14.680317,
6.67982263183594,5.69101734619141,-5.43244356689453,10.3208115928416,14.683181,
6.72052406005859,5.68622894287109,-5.4013189453125,10.3282568510646,14.686121,
6.73728347167969,5.71495936279297,-5.40610734863281,10.3574970799458,14.688994,
6.72531246337891,5.69819995117188,-5.41328995361328,10.3442263381804,14.691903,
6.74925447998047,5.70298835449219,-5.29118566894531,10.2991823942613,14.694891,
6.83065733642578,5.69819995117188,-5.31033928222656,10.3598776838127,14.697805,
6.80432111816406,5.7077767578125,-5.26245524902344,10.3233200397979,14.700763,
6.75164868164063,5.73411297607422,-5.20499440917969,10.2740828467691,14.703731,
6.7803791015625,5.80354482421875,-5.17865819091797,10.3185839118545,14.706649,
6.69897624511719,5.78917961425781,-5.11640894775391,10.2258752123933,14.709656,
6.63672700195313,5.82748684082031,-5.06134230957031,10.1795350656616,14.712554,
6.57926616210938,5.88015927734375,-4.94642062988281,10.1158337969017,14.715604,
6.53138212890625,5.94959112548828,-5.00388146972656,10.1535913270802,14.718521,
6.50025750732422,5.91846650390625,-4.94642062988281,10.0870545982024,14.721395,
6.46673868408203,5.95916793212891,-4.99909306640625,10.1154002954954,14.72439,
6.45955607910156,5.94480272216797,-4.91050760498047,10.0588085319845,14.727317,
6.44040246582031,5.92564910888672,-4.92487281494141,10.0422344887352,14.730335,
6.45716187744141,5.90649549560547,-4.88177718505859,10.0206475357458,14.733206,
6.51701691894531,5.84903465576172,-4.82192214355469,9.99668190374307,14.736056,
6.56011254882813,5.82748684082031,-4.85783516845703,10.0296182408467,14.739019,
6.63193859863281,5.76763179931641,-4.71657727050781,9.97468231560246,14.741908,
6.65827481689453,5.72214196777344,-4.79798012695313,10.0048061218238,14.744873,
6.65588061523438,5.63834490966797,-4.76446130371094,9.93940499221107,14.747827,
6.70855305175781,5.57370146484375,-4.75727869873047,9.93491483027636,14.750777,
6.72770666503906,5.52342322998047,-4.81234533691406,9.94630126177653,14.753789,
6.71334145507813,5.42765516357422,-4.73333668212891,9.84544921339456,14.756688,
6.78277330322266,5.30315667724609,-4.76446130371094,9.84020202744277,14.759687,
6.83783994140625,5.2480900390625,-4.75249029541016,9.84300097177509,14.762581,
6.87375296630859,5.26724365234375,-4.80037432861328,9.901309470459,14.765457,
6.85220515136719,5.27203205566406,-4.80276853027344,9.89007699604798,14.768461,
6.85220515136719,5.33428129882813,-4.77882651367188,9.91183410167986,14.77138,
6.8569935546875,5.39413634033203,-4.80755693359375,9.96130870603165,14.774375,
6.818686328125,5.48990440673828,-4.86980617675781,10.0174121326654,14.777231,
6.82826313476563,5.54497104492188,-4.91050760498047,10.0739747004443,14.780216,
6.89769498291016,5.55933625488281,-4.86262357177734,10.1059152813055,14.783117,
6.87614716796875,5.61200869140625,-4.86980617675781,10.1237865261557,14.786013,
6.88332977294922,5.58088406982422,-4.80995113525391,10.0827637921116,14.789032,
6.89290657958984,5.54497104492188,-4.93684382324219,10.1307103373386,14.791923,
6.87375296630859,5.58567247314453,-4.91769020996094,10.1307400430682,14.794881,
6.84981094970703,5.56651885986328,-4.91050760498047,10.1004518316019,14.797784,
6.85459935302734,5.59764348144531,-4.96557424316406,10.147712668393,14.800682,
6.84023414306641,5.60482608642578,-4.97275684814453,10.1455009369582,14.803682,
6.86178195800781,5.61919129638672,-5.06134230957031,10.2115889282362,14.806543,
6.86417615966797,5.61200869140625,-5.12359155273438,10.2402512812247,14.809511,
6.90966599121094,5.63834490966797,-5.20499440917969,10.3260052406566,14.812431,
6.96712683105469,5.61200869140625,-5.29597407226563,10.3962896846198,14.815373,
7.03177027587891,5.59046087646484,-5.34146390380859,10.4513292293233,14.818365,
6.98628044433594,5.54257684326172,-5.44441457519531,10.4484411553576,14.821278,
6.95515582275391,5.55933625488281,-5.41568415527344,10.4216144134832,14.824264,
6.93839641113281,5.61679709472656,-5.49948121337891,10.4849438709827,14.827122,
6.90487758789063,5.63595070800781,-5.53300003662109,10.4907275387409,14.830047,
6.92163699951172,5.61200869140625,-5.4779333984375,10.4599930508173,14.833059,
6.91684859619141,5.55215364990234,-5.46835659179688,10.4197950301245,14.836036,
6.91206019287109,5.54257684326172,-5.41089575195313,10.3814511033785,14.839051,
6.92881960449219,5.52821163330078,-5.41568415527344,10.3874587769982,14.841987,
7.02698187255859,5.48751020507813,-5.23611903076172,10.3396414344216,14.844912,
6.95994422607422,5.56412465820313,-5.22893642578125,10.3316060216672,14.847923,
6.99106884765625,5.56173045654297,-5.22175382080078,10.3476858412379,14.850882,
6.971915234375,5.56412465820313,-5.23611903076172,10.3433083562098,14.853975,
6.94797321777344,5.66946953125,-5.27203205566406,10.4024775220434,14.856861,
6.971915234375,5.72453616943359,-5.26245524902344,10.4437230736188,14.859772,
6.97670363769531,5.71974776611328,-5.32949289550781,10.4782347119855,14.862775,
6.97909783935547,5.71974776611328,-5.35104071044922,10.4908034889678,14.865713,
6.96712683105469,5.7077767578125,-5.32709869384766,10.4641078115155,14.868715,
7.02458767089844,5.65510432128906,-5.31991608886719,10.4702695296439,14.871584,
7.09401951904297,5.65510432128906,-5.30315667724609,10.5085102923604,14.874507,
7.16105716552734,5.61679709472656,-5.36061751708984,10.5624509227646,14.877453,
7.17063397216797,5.64792171630859,-5.55694205322266,10.6862816853775,14.880304,
7.18499918212891,5.65031591796875,-5.63355650634766,10.7371896756207,14.883295,
7.22809481201172,5.75326658935547,-5.71974776611328,10.8655853762042,14.886256,
7.29752666015625,5.87537087402344,-5.71974776611328,10.9767660433742,14.889208,
7.30949766845703,5.96395633544922,-5.72932457275391,11.0373317154231,14.892152,
7.38611212158203,6.08845482177734,-5.64792171630859,11.11408809138,14.895005,
7.37892951660156,6.08845482177734,-5.60243188476563,11.0862584288495,14.897991,
7.41484254150391,6.07169541015625,-5.40850155029297,11.0044202068319,14.90089,
7.38850632324219,5.95198532714844,-5.29836827392578,10.8668698984263,14.90388,
7.29992086181641,5.97353314208984,-5.05415970458984,10.7012369896161,14.906817,
7.25921943359375,6.07408961181641,-4.75967290039063,10.5945890678286,14.909694,
7.22809481201172,6.08845482177734,-4.60404979248047,10.5124645645012,14.912659,
7.13472094726563,6.27041414794922,-4.40054265136719,10.4683863230516,14.915535,
7.14190355224609,6.45955607910156,-4.19703551025391,10.50465411915,14.918536,
7.12993254394531,6.73010086669922,-4.13957467041016,10.6426629284713,14.921381,
7.13472094726563,6.94797321777344,-4.07732542724609,10.7611875492399,14.92431,
7.21612380371094,7.04134708251953,-4.12042105712891,10.8917804410033,14.9273,
7.20415279541016,7.13950935058594,-4.13957467041016,10.9548386441162,14.930181,
7.278373046875,7.19218178710938,-4.0988732421875,11.022837879776,14.933128,
7.28794985351563,7.3166802734375,-4.06774862060547,11.0993063806485,14.936012,
7.30470926513672,7.3166802734375,-3.99352836914063,11.0833594413885,14.938885,
7.278373046875,7.29273825683594,-3.84508786621094,10.9974290718821,14.941871,
7.29992086181641,7.2951324584961,-3.74931979980469,10.980218628834,14.944736,
7.29034405517578,7.32865128173828,-3.71101257324219,10.9831625851083,14.947733,
7.3166802734375,7.431601953125,-3.56496627197266,11.0214110863221,14.950621,
7.38371791992188,7.46512077636719,-3.57933148193359,11.093193065312,14.953525,
7.44596716308594,7.3932947265625,-3.57693728027344,11.0859241479716,14.956484,
7.47469758300781,7.26640203857422,-3.43807358398438,10.9768871959454,14.95937,
7.47230338134766,7.26161363525391,-3.18189400634766,10.8945307323554,14.962329,
7.5465236328125,7.23527741699219,-3.03345350341797,10.885820979551,14.965223,
7.55849464111328,7.24246002197266,-2.76769711914063,10.8279368188455,14.968181,
7.64229169921875,7.3166802734375,-2.67432325439453,10.9128565237821,14.971104,
7.75003077392578,7.40047733154297,-2.63122762451172,11.0341923376145,14.974003,
7.87931766357422,7.54173522949219,-2.68629426269531,11.2328800394674,14.97706,
7.97987413330078,7.73566556396484,-2.67671745605469,11.431698440756,14.979985,
8.03972917480469,7.94156690673828,-2.72938989257813,11.6256311365927,14.98295,
8.07803640136719,8.1594392578125,-2.53067115478516,11.7573558931167,14.985874,
8.09240161132813,8.30548555908203,-2.31519300537109,11.8248963151169,14.988808,
8.17859287109375,8.504204296875,-2.03267720947266,11.9725790334415,14.991845,
8.26957253417969,8.87530555419922,-1.5705962890625,12.23207469245,14.994717,
8.29351455078125,9.21767639160156,-1.36708914794922,12.474649269729,14.997677,
8.42519564208984,9.44512554931641,-1.24737906494141,12.7181080661195,15.000583,
8.5975781616211,9.66299790039063,-1.18512982177734,12.9883182653723,15.00352,
8.74123026123047,9.64863269042969,-1.20428343505859,13.0749959031212,15.006482,
8.77953748779297,9.67975731201172,-1.11809217529297,13.1159486973477,15.009361,
8.76756647949219,9.71088193359375,-0.907402429199219,13.1146799072272,15.012328,
8.76038387451172,9.78989058837891,-0.768538732910156,13.1596707840743,15.015236,
8.74841286621094,9.97184991455078,-0.411802685546875,13.2718536703746,15.018093,
8.77714328613281,10.1490208374023,-0.0718260498046875,13.4181230880017,15.021141,
8.79869110107422,10.3573163818359,0.174776721191406,13.5912293273214,15.024084,
8.82263311767578,10.649408984375,0.351947644042969,13.8337498166529,15.027084,
8.82263311767578,10.848127722168,0.387860668945313,13.9882510023267,15.029991,
8.79869110107422,11.1043072998047,0.237025964355469,14.1696431503548,15.032884,
8.7508070678711,11.4730143554688,0.277727392578125,14.4320412708834,15.035872,
8.68855782470703,11.7698953613281,0.337582434082031,14.6333672061386,15.038744,
