X,Y,Z,Magnitude,Seconds,
0.298987903320313,0.920091697998047,0.612532552734375,1.14505835100928,0.0,
0.507283447753906,0.994311949462891,0.79449187890625,1.37011316863162,0.0029700000000048,
0.768251428710938,1.04459018432617,1.06024826318359,1.67496426543697,0.00601599999981772,
1.15132369433594,1.17866547729492,1.13207431298828,1.99909749803108,0.00899699999990844,
1.32610041552734,1.5521609362793,0.495216671386718,2.100710697786,0.0120159999996758,
2.00844788867188,0.498712205810547,1.72583632470703,2.69464057072798,0.0149929999997767,
2.19519561816406,0.989523546142578,1.78808556787109,2.99921500536493,0.0179279999997561,
2.59981569873047,0.862630858154297,1.75935514794922,3.25553439567467,0.0209599999998318,
2.43222158251953,1.29358715698242,1.39304229394531,3.08701091541706,0.023920999999973,
2.71713158007813,1.07092640258789,1.17038153955078,3.14634396265554,0.0269519999997101,
2.73628519335938,0.857842454833984,0.957297591796875,3.02317201230321,0.0299110000000837,
2.56869107714844,0.745314976806641,0.705906417480469,2.76621982761934,0.0328569999996944,
2.57587368212891,0.627999095458985,0.552677511230469,2.70831322442614,0.0358940000000985,
2.48489401904297,0.503500609130859,0.478457259765625,2.58014195320589,0.0388570000000072,
2.4394041875,0.364636912841797,0.382689193359374,2.49601760548947,0.0418869999998606,
2.42264477587891,0.321541282958984,0.33480516015625,2.46671664404478,0.0448449999998957,
2.34124191943359,0.328723887939453,0.33480516015625,2.3877955555454,0.0477820000000975,
2.33166511279297,0.273657249755859,0.464092049804687,2.39310090034911,0.0508009999998649,
2.25265645800781,0.410126744384766,0.377900790039062,2.32066242081353,0.0537589999999,
2.19998402148438,0.505894810791016,0.325228353515625,2.28070882321754,0.0567900000000918,
2.20716662646484,0.630393297119141,0.33480516015625,2.31971436200671,0.0597649999999703,
2.26462746630859,0.627999095458985,0.294103731933593,2.36842087269004,0.0627899999999499,
2.34842452441406,0.695036741943359,0.353958773437499,2.474562715474,0.0657499999997526,
2.38912595263672,0.759680186767578,0.327622555175781,2.52831432824114,0.0686969999997018,
2.42743317919922,0.793199010009766,0.179182052246093,2.56002006179733,0.07172300000002,
2.39152015429688,0.776439598388672,0.167211043945311,2.51995766463871,0.0746869999998125,
2.45137519580078,0.795593211669922,0.0451067592773438,2.57764301810299,0.0777089999996861,
2.46334620410156,0.745314976806641,-0.0985453403320324,2.57551550568328,0.0806699999998273,
2.51841284228516,0.824323631591797,-0.282898868164063,2.66494736597104,0.0836269999999786,
2.62854611865234,0.857842454833984,-0.460069791015625,2.80300063999334,0.0866739999996753,
2.85599527636719,0.764468590087891,-0.515136429199218,3.00108093602135,0.0896419999999125,
3.07147342578125,0.776439598388672,-0.584568277343751,3.22157221339256,0.0926779999999781,
3.34441241503906,0.623210692138672,-0.378666934570314,3.42299205608197,0.0956489999998666,
3.63171661425781,0.577720860595703,-0.215861221679688,3.68371049704896,0.0986089999996693,
3.79452232714844,0.541807835693359,-0.0219308872070325,3.8330714036997,0.101709999999912,
3.92380921679687,0.529836827392578,0.313257345214843,3.97179254214172,0.104781999999886,
4.04351929980469,0.467587584228516,0.461697848144532,4.09656580318185,0.107903000000078,
4.15365257617188,0.438857164306641,0.763367257324218,4.24595747785552,0.110936000000038,
4.24942064257813,0.285628258056641,1.06982506982422,4.39131927550183,0.113875000000007,
4.37152492724609,0.230561619873047,1.36910027734375,4.58670082079867,0.116894999999658,
4.35955391894531,0.144370360107422,1.55584800683594,4.63111392576822,0.119850000000042,
4.42659156542969,0.0677559069824219,1.93413186914063,4.83116650895927,0.122899999999845,
4.27575686083984,0.177889183349609,2.17594623681641,4.80088359784814,0.125856999999996,
4.15365257617188,0.261686241455078,2.35072295800781,4.77987529521547,0.12879299999986,
3.96211644335937,0.388578929443359,2.31241573144531,4.60397945370979,0.131825999999819,
3.77058031054688,0.592086070556641,2.32678094140625,4.47009522745571,0.134790000000066,
3.72269627734375,0.781228001708985,2.32199253808594,4.45650469661258,0.137843999999859,
3.67241804248047,1.0374075793457,2.30523312646484,4.45835939912552,0.14080899999999,
3.61735140429688,1.29598135864258,2.34114615136719,4.4995293271829,0.143779999999879,
3.59819779101563,1.4587870715332,2.24537808496094,4.48517667520076,0.146811999999954,
3.54552535449219,1.65750580932617,2.17115783349609,4.47571244443255,0.149771999999757,
3.49524711962891,1.83467673217773,2.05144775048828,4.44873341658634,0.152806999999939,
3.49285291796875,1.8801665637207,1.87906523095703,4.38929766091202,0.15576800000008,
3.40187325488281,1.96635782348633,1.64443346826172,4.25951478032559,0.158781999999974,
3.36356602832031,2.00705925170898,1.34276405908203,4.1406374612013,0.16173899999967,
3.21991392871094,2.00705925170898,1.05067145654297,3.93700940534455,0.164680999999746,
3.1672414921875,2.05494328491211,0.701118014160157,3.84002305251145,0.167700999999852,
3.25103855029297,2.12916353637695,0.538312301269531,3.9233109937687,0.170663999999761,
3.27498056689453,2.16986496459961,0.394660201660155,3.94836274332895,0.17368899999974,
3.19357771044922,2.24408521606445,0.207912472167969,3.90871905433482,0.176653999999871,
3.11935745898438,2.29436345092773,0.15524003564453,3.8753830869401,0.179595999999947,
3.01161838427734,2.30633445922852,0.107356002441406,3.79480556044738,0.182620999999926,
2.88233149462891,2.27042143432617,0.0379241542968742,3.66934416154393,0.185582999999951,
2.66445914355469,2.24887361938477,-0.0578439121093748,3.48713650461307,0.188604999999825,
2.4394041875,2.10282731811523,-0.290081473144532,3.23368563420533,0.191575999999714,
2.26702166796875,2.01663605834961,-0.476829202636718,3.0714124313356,0.194514999999683,
2.08266814013672,1.86340715209961,-0.733008780273439,2.88913389589241,0.197565999999824,
1.96774646044922,1.67905362426758,-0.867084073242188,2.72820123815066,0.200550000000021,
1.81451755419922,1.52582471801758,-1.16635928076172,2.6421599112146,0.203591999999844,
1.71874948779297,1.35104799682617,-1.28606936376953,2.53641575849528,0.206576000000041,
1.64931763964844,1.18824228393555,-1.41535625341797,2.47697430868332,0.209527999999864,
1.69241326953125,1.09008001586914,-1.36268381689453,2.43093486146975,0.212567999999919,
1.72832629443359,0.994311949462891,-1.37944322851563,2.42458896590182,0.21554500000002,
1.7881813359375,0.84826564819336,-1.39380843847656,2.42071251148677,0.218587999999727,
2.12815797167969,0.996706151123047,-1.04425499609375,2.57156528227013,0.221559999999954,
2.39870275927734,1.39653782836914,-0.424156766113281,2.80784646939081,0.224514999999883,
2.56150847216797,1.79636950561523,0.0762313808593742,3.12954953261972,0.227554999999938,
2.62615191699219,2.09085630981445,0.272555916992188,3.36788371641601,0.230518999999731,
2.49686502734375,2.35900689575195,0.461697848144532,3.46589287225656,0.233545000000049,
-0.163093017089844,0.398155736083984,0.0834139858398437,0.438275273582411,16.597307,
-0.187035033691406,0.395761534423828,0.00679953271484379,0.437784798277177,16.6012809999997,
-0.227736461914062,0.414915147705078,-0.000383072265625728,0.473306055977126,16.6042039999998,
-0.215765453613281,0.381396324462891,-0.0243250888671884,0.438873099238429,16.6071419999998,
-0.206188646972656,0.367031114501953,0.0259531459960929,0.42178094188815,16.6101679999997,
-0.170275622070313,0.412520946044922,0.00919373437499971,0.446376346986472,16.6131179999998,
-0.218159655273438,0.359848509521484,-0.0123540805664071,0.420995496769859,16.6161939999997,
-0.201400243652344,0.383790526123047,0.0379241542968742,0.435080989660732,16.6192269999997,
-0.18464083203125,0.419703551025391,-0.0195366855468748,0.458938982522375,16.6221700000001,
-0.187035033691406,0.388578929443359,0.0451067592773438,0.433601554388124,16.6252009999998,
-0.160698815429688,0.388578929443359,0.0115879360351556,0.420656598604381,16.6281589999999,
-0.191823437011719,0.386184727783203,0.0307415493164065,0.432296099698284,16.6311759999999,
-0.175064025390625,0.390973131103516,-0.0410845004882816,0.430343279732852,16.6341619999998,
-0.189429235351563,0.395761534423828,0.0139821376953115,0.438983060618415,16.6371199999999,
-0.18464083203125,0.355060106201172,-0.0650265170898443,0.405448349107029,16.640222,
-0.189429235351563,0.386184727783203,-0.0578439121093748,0.434013821608231,16.6432159999999,
-0.2037944453125,0.395761534423828,0.00201112939453019,0.445155492733914,16.6463239999998,
-0.22294805859375,0.386184727783203,0.0187705410156251,0.446314702887691,16.6493350000001,
-0.206188646972656,0.407732542724609,0.0403183559570301,0.458677614849654,16.6523090000001,
-0.201400243652344,0.364636912841797,-0.00517147558593756,0.416591983251905,16.655381,
-0.208582848632813,0.412520946044922,0.0163763393554675,0.462545695213199,16.6584429999998,
-0.158304613769531,0.410126744384766,-0.00756567724609347,0.439683450532948,16.6614689999997,
-0.215765453613281,0.343089097900391,0.0163763393554675,0.405626730580881,16.664432,
-0.189429235351563,0.412520946044922,-0.0291134921875003,0.454867630810356,16.6674800000001,
-0.191823437011719,0.402944139404297,0.0283473476562488,0.447173101367247,16.6704999999997,
-0.179852428710938,0.419703551025391,0.0738371791992183,0.462547182337805,16.6734529999999,
-0.194217638671875,0.393367332763672,0.0475009609374997,0.441264876176283,16.6764749999998,
-0.215765453613281,0.343089097900391,0.0379241542968742,0.407066458394919,16.6794150000001,
-0.196611840332031,0.395761534423828,0.0283473476562488,0.442817095432635,16.6824509999997,
-0.201400243652344,0.371819517822266,-0.0267192905273443,0.423704770403981,16.6854089999997,
-0.232524865234375,0.350271702880859,0.0451067592773438,0.42283885644986,16.6883760000001,
-0.151122008789062,0.402944139404297,0.00679953271484379,0.430404547682586,16.6915169999997,
-0.179852428710938,0.395761534423828,-0.000383072265625728,0.434711668795636,16.694477,
-0.242101671875,0.367031114501953,0.0475009609374997,0.442245859027761,16.6975640000001,
-0.182246630371094,0.412520946044922,-0.00277727392578164,0.45099343504964,16.7005129999998,
-0.218159655273438,0.386184727783203,0.0953849941406251,0.453685547785268,16.7034839999997,
-0.201400243652344,0.414915147705078,0.0187705410156251,0.461593946178207,16.7065149999999,
-0.227736461914062,0.438857164306641,0.0642603725585928,0.498586905393403,16.7095249999998,
-0.196611840332031,0.355060106201172,0.0115879360351556,0.406027308239102,16.7126119999998,
-0.246890075195312,0.379002122802734,0.0379241542968742,0.453911400824059,16.7155739999998,
-0.179852428710938,0.390973131103516,-0.0291134921875003,0.431340330580693,16.7185019999997,
-0.220553856933594,0.405338341064453,0.0451067592773438,0.463656979110281,16.7215550000001,
-0.182246630371094,0.383790526123047,-0.00517147558593756,0.424894982770048,16.7245189999999,
-0.187035033691406,0.412520946044922,-0.0602381137695325,0.456929168585519,16.7275279999999,
-0.213371251953125,0.347877501220703,0.0139821376953115,0.408339989702374,16.7305309999997,
-0.258861083496094,0.381396324462891,-0.0123540805664071,0.461112611158289,16.7334940000001,
-0.206188646972656,0.390973131103516,-0.014748282226563,0.442257005839292,16.7365409999998,
-0.199006041992188,0.386184727783203,0.0570777675781251,0.438177955029786,16.7394850000001,
-0.201400243652344,0.400549937744141,0.0379241542968742,0.44993394209505,16.7425349999999,
-0.256466881835937,0.402944139404297,-0.0267192905273443,0.478385996288774,16.745508,
-0.230130663574219,0.376607921142578,0.00440533105468788,0.441376319625494,16.7484679999998,
-0.199006041992188,0.371819517822266,-0.00277727392578164,0.42173554727274,16.7514919999999,
-0.199006041992188,0.383790526123047,0.0355299526367183,0.433775230073789,16.7545059999998,
-0.163093017089844,0.388578929443359,0.0379241542968742,0.423120737036072,16.757572,
-0.151122008789062,0.374213719482422,-0.00756567724609347,0.403647134093012,16.7605749999998,
-0.177458227050781,0.376607921142578,0.0427125576171878,0.418508436227446,16.763645,
-0.232524865234375,0.383790526123047,-0.0674207187500002,0.453771455923393,16.7666369999997,
-0.194217638671875,0.347877501220703,0.0259531459960929,0.399265341363277,16.7695839999997,
-0.182246630371094,0.369425316162109,-0.000383072265625728,0.411933301940318,16.7726669999997,
-0.170275622070313,0.405338341064453,-0.0362960971679698,0.441146647814467,16.7756559999998,
-0.213371251953125,0.400549937744141,-0.00756567724609347,0.453899529917217,16.7787159999998,
-0.194217638671875,0.390973131103516,0.0139821376953115,0.436779098161412,16.7817489999998,
-0.220553856933594,0.395761534423828,-0.00756567724609347,0.453131807987454,16.7847629999997,
-0.237313268554687,0.369425316162109,0.0379241542968742,0.440716340895952,16.7878719999999,
-0.175064025390625,0.398155736083984,0.023558944335937,0.435580563180651,16.7908729999999,
-0.194217638671875,0.405338341064453,-0.053055508789063,0.452586509875215,16.7939369999999,
-0.227736461914062,0.388578929443359,0.0187705410156251,0.450787991967956,16.7969739999999,
-0.187035033691406,0.390973131103516,0.00919373437499971,0.433505037830693,16.8000229999998,
-0.182246630371094,0.393367332763672,0.0187705410156251,0.433940117962424,16.8030799999997,
-0.2037944453125,0.350271702880859,0.0139821376953115,0.405484823333522,16.8060499999997,
-0.163093017089844,0.395761534423828,-0.053055508789063,0.431325180537651,16.8091399999998,
-0.210977050292969,0.414915147705078,0.0858081874999996,0.473316955736306,16.8121919999999,
-0.18464083203125,0.371819517822266,0.0810197841796878,0.42297304419466,16.8151229999999,
-0.213371251953125,0.357454307861328,0.0283473476562488,0.417258247956597,16.8181529999997,
-0.225342260253906,0.364636912841797,0.0714429775390624,0.434561056127654,16.8211019999999,
-0.230130663574219,0.402944139404297,0.0475009609374997,0.46645518872381,16.8242019999998,
-0.163093017089844,0.383790526123047,0.0259531459960929,0.417813434384736,16.8271749999999,
-0.213371251953125,0.400549937744141,-0.0123540805664071,0.454004589286849,16.8301839999999,
-0.2037944453125,0.376607921142578,-0.0698149204101561,0.433866137557934,16.8332949999999,
-0.213371251953125,0.424491954345703,0.0259531459960929,0.475809075419304,16.836284,
-0.199006041992188,0.335906492919922,0.0163763393554675,0.390774565735596,16.8393489999999,
-0.2037944453125,0.386184727783203,-0.000383072265625728,0.436658867604423,16.842337,
-0.172669823730469,0.402944139404297,0.0451067592773438,0.440696570488,16.8453049999998,
-0.177458227050781,0.371819517822266,-0.0315076938476562,0.413199601830866,16.8483489999999,
-0.201400243652344,0.402944139404297,-0.0219308872070325,0.451006653428949,16.851365,
-0.191823437011719,0.395761534423828,-0.000383072265625728,0.439799465507693,16.8544609999999,
-0.218159655273438,0.390973131103516,0.0786255825195301,0.45457189383028,16.85743,
-0.201400243652344,0.388578929443359,-0.0123540805664071,0.437845024931439,16.8604249999999,
-0.237313268554687,0.393367332763672,-0.00517147558593756,0.459436818373811,16.863413,
-0.191823437011719,0.400549937744141,0.0187705410156251,0.44450963636781,16.8663839999999,
-0.179852428710938,0.364636912841797,-0.0291134921875003,0.407620619875112,16.8694049999999,
-0.16548721875,0.364636912841797,-0.0123540805664071,0.400622916322878,16.8724099999999,
-0.230130663574219,0.412520946044922,-0.00517147558593756,0.472398557790605,16.875462,
-0.206188646972656,0.410126744384766,0.0810197841796878,0.466135077020154,16.8784489999998,
-0.191823437011719,0.374213719482422,0.0427125576171878,0.422677774923238,16.881382,
-0.206188646972656,0.376607921142578,-0.0219308872070325,0.429916559603648,16.8844279999998,
-0.22294805859375,0.422097752685547,0.023558944335937,0.477940763600611,16.887416,
-0.220553856933594,0.362242711181641,0.0139821376953115,0.424333931929843,16.8904619999998,
-0.208582848632813,0.374213719482422,-0.00756567724609347,0.428485649777025,16.893399,
-0.196611840332031,0.369425316162109,-0.000383072265625728,0.418487068766268,16.896401,
-0.187035033691406,0.390973131103516,0.0403183559570301,0.435278833507799,16.8995209999998,
-0.189429235351563,0.419703551025391,-0.00995987890625116,0.460579748943685,16.9025079999997,
-0.16548721875,0.357454307861328,0.0139821376953115,0.394151115630493,16.9055509999998,
-0.175064025390625,0.371819517822266,0.0283473476562488,0.411947495366455,16.908539,
-0.194217638671875,0.410126744384766,0.0738371791992183,0.459756856026121,16.9114639999998,
-0.191823437011719,0.393367332763672,0.0522893642578115,0.440758740227667,16.9145669999998,
-0.194217638671875,0.388578929443359,0.0139821376953115,0.434637292179533,16.9175749999999,
-0.175064025390625,0.376607921142578,0.0403183559570301,0.417260720749487,16.9206819999999,
-0.196611840332031,0.357454307861328,-0.0171424838867189,0.408318090122365,16.9236849999998,
-0.225342260253906,0.347877501220703,0.0403183559570301,0.4164414243792,16.9267669999999,
-0.208582848632813,0.350271702880859,0.0666545742187488,0.413085829879359,16.9298709999998,
-0.208582848632813,0.395761534423828,-0.00995987890625116,0.447474240667671,16.9328929999997,
-0.187035033691406,0.429280357666016,-0.0362960971679698,0.469660660451176,16.935986,
-0.196611840332031,0.350271702880859,-0.0243250888671884,0.402415446455776,16.9390859999999,
-0.220553856933594,0.417309349365234,-0.0267192905273443,0.472763172595121,16.942043,
-0.213371251953125,0.367031114501953,0.0570777675781251,0.428365500156458,16.9451039999999,
-0.170275622070313,0.422097752685547,-0.00517147558593756,0.455178035996199,16.9480939999999,
-0.218159655273438,0.371819517822266,-0.0291134921875003,0.432077521343056,16.951188,
-0.2037944453125,0.395761534423828,-0.0626323154296884,0.449535510283466,16.954193,
-0.213371251953125,0.398155736083984,0.0451067592773438,0.453971255774116,16.9572330000001,
-0.182246630371094,0.376607921142578,0.0451067592773438,0.420811098096826,16.960192,
-0.194217638671875,0.374213719482422,-0.00517147558593756,0.421643383891985,16.9631599999998,
-0.218159655273438,0.390973131103516,0.0451067592773438,0.449986937773105,16.9662009999997,
-0.234919066894531,0.438857164306641,-0.000383072265625728,0.497777787168355,16.9691739999998,
-0.182246630371094,0.371819517822266,0.0187705410156251,0.414506841107863,16.9722959999999,
-0.220553856933594,0.367031114501953,0.0259531459960929,0.428986490006299,16.9752759999997,
-0.177458227050781,0.381396324462891,0.0283473476562488,0.421613745958257,16.9783029999999,
-0.199006041992188,0.355060106201172,0.0690487758789065,0.412842363639391,16.9813639999998,
-0.16548721875,0.386184727783203,0.0163763393554675,0.420467416137425,16.9843689999998,
-0.189429235351563,0.381396324462891,0.00201112939453019,0.425852833924023,16.9874289999998,
-0.234919066894531,0.376607921142578,-0.0195366855468748,0.444299647017741,16.9904299999998,
-0.230130663574219,0.410126744384766,0.0714429775390624,0.475676536962256,16.9934459999999,
-0.163093017089844,0.400549937744141,0.0307415493164065,0.433571940633473,16.9965189999998,
-0.213371251953125,0.388578929443359,0.00201112939453019,0.443311312971858,16.9994769999998,
-0.16548721875,0.376607921142578,-0.0315076938476562,0.412567910299071,17.0025379999997,
-0.182246630371094,0.422097752685547,-0.00517147558593756,0.45979026877865,17.0055279999997,
-0.234919066894531,0.383790526123047,0.0570777675781251,0.453585722310684,17.0084669999997,
-0.194217638671875,0.371819517822266,-0.00756567724609347,0.41955629476514,17.0115499999997,
-0.239707470214844,0.400549937744141,-0.0386902988281257,0.468398188646204,17.014553,
-0.196611840332031,0.405338341064453,0.0211647426757811,0.451002586276579,17.0176200000001,
-0.191823437011719,0.381396324462891,0.0139821376953115,0.427147383786114,17.0205799999999,
-0.201400243652344,0.388578929443359,-0.000383072265625728,0.43767086868437,17.0235349999998,
-0.201400243652344,0.374213719482422,0.0115879360351556,0.425126153339979,17.0266200000001,
-0.179852428710938,0.376607921142578,0.0187705410156251,0.417771176112686,17.0295919999999,
-0.196611840332031,0.390973131103516,0.0163763393554675,0.437931946190639,17.0326279999999,
-0.199006041992188,0.414915147705078,0.0283473476562488,0.461043985606219,17.0356259999999,
-0.239707470214844,0.376607921142578,0.0139821376953115,0.446641576343566,17.0386020000001,
-0.187035033691406,0.405338341064453,0.0522893642578115,0.449461291080016,17.041671,
-0.182246630371094,0.400549937744141,0.102567599121093,0.451856392339334,17.044668,
-0.170275622070313,0.367031114501953,0.00201112939453019,0.404610517813637,17.0477609999998,
-0.201400243652344,0.381396324462891,0.0427125576171878,0.433416170712662,17.0507109999999,
-0.244495873535156,0.402944139404297,-0.0339018955078121,0.472537353206084,17.0537649999997,
-0.234919066894531,0.383790526123047,0.0810197841796878,0.457215858606114,17.0567959999998,
-0.215765453613281,0.400549937744141,0.0259531459960929,0.45570664839003,17.0598089999999,
-0.187035033691406,0.405338341064453,0.0307415493164065,0.447466554525812,17.0629329999997,
-0.218159655273438,0.395761534423828,-0.0195366855468748,0.452330088984456,17.0659270000001,
-0.213371251953125,0.379002122802734,0.00679953271484379,0.434989808954374,17.0690159999999,
-0.170275622070313,0.347877501220703,0.0259531459960929,0.388183087104638,17.072009,
-0.242101671875,0.357454307861328,0.0570777675781251,0.435482115918661,17.0749900000001,
-0.196611840332031,0.388578929443359,0.00440533105468788,0.435510283584437,17.0780850000001,
-0.210977050292969,0.419703551025391,-0.00277727392578164,0.469755361591652,17.0811319999998,
-0.187035033691406,0.419703551025391,-0.00995987890625116,0.459600232549001,17.0841839999998,
-0.201400243652344,0.388578929443359,-0.0243250888671884,0.438346156021662,17.087156,
-0.218159655273438,0.381396324462891,-0.0219308872070325,0.439929261718876,17.0901549999999,
-0.215765453613281,0.383790526123047,-0.0410845004882816,0.442196602310694,17.0932769999999,
-0.163093017089844,0.410126744384766,-0.00277727392578164,0.441373981940003,17.096239,
-0.2037944453125,0.364636912841797,-0.00756567724609347,0.417791208164099,17.0992679999999,
-0.218159655273438,0.376607921142578,0.0139821376953115,0.435456842443531,17.1022319999997,
-0.218159655273438,0.347877501220703,0.0283473476562488,0.411601704519952,17.105223,
-0.210977050292969,0.362242711181641,-0.0650265170898443,0.424216389923095,17.1082590000001,
-0.194217638671875,0.410126744384766,-0.00277727392578164,0.453797477826161,17.1112859999998,
-0.230130663574219,0.371819517822266,-0.0315076938476562,0.438409182068864,17.1144139999997,
-0.213371251953125,0.374213719482422,0.00440533105468788,0.430792996635988,17.1174209999999,
-0.182246630371094,0.386184727783203,0.0139821376953115,0.427256338079537,17.1204170000001,
-0.208582848632813,0.417309349365234,-0.0123540805664071,0.466697462086581,17.123486,
-0.213371251953125,0.405338341064453,0.059471969238281,0.461912737453738,17.1265020000001,
-0.194217638671875,0.395761534423828,0.00679953271484379,0.440901255323595,17.1295649999997,
-0.213371251953125,0.405338341064453,0.0403183559570301,0.459839136790253,17.1325889999998,
-0.2037944453125,0.381396324462891,0.00679953271484379,0.432483023827725,17.135612,
-0.210977050292969,0.388578929443359,0.0115879360351556,0.44231118052704,17.1386869999997,
-0.2037944453125,0.383790526123047,0.00679953271484379,0.434595878405646,17.1416399999998,
-0.158304613769531,0.400549937744141,0.0546835659179692,0.434155382033968,17.1447229999999,
-0.187035033691406,0.405338341064453,0.0283473476562488,0.447308446917753,17.1477139999997,
-0.187035033691406,0.405338341064453,-0.00517147558593756,0.446439266557686,17.1507160000001,
-0.208582848632813,0.383790526123047,-0.000383072265625728,0.436809019400864,17.1537239999998,
-0.2037944453125,0.398155736083984,0.0618661708984369,0.451539133651164,17.1567070000001,
-0.194217638671875,0.398155736083984,-0.00517147558593756,0.443029598906884,17.1597790000001,
-0.22294805859375,0.381396324462891,-0.0171424838867189,0.442111816058258,17.162726,
-0.2037944453125,0.426886156005859,0.023558944335937,0.473623257439827,17.165759,
-0.208582848632813,0.359848509521484,-0.014748282226563,0.416191381911311,17.168729,
-0.201400243652344,0.347877501220703,-0.00995987890625116,0.402094532649489,17.1716699999997,
-0.170275622070313,0.386184727783203,0.0882023891601555,0.431175246156337,17.1747,
-0.179852428710938,0.371819517822266,0.00679953271484379,0.413089437763719,17.1777059999999,
-0.167881420410156,0.422097752685547,0.00201112939453019,0.454262841076135,17.1808080000001,
-0.227736461914062,0.400549937744141,0.0570777675781251,0.464286571272175,17.183779,
-0.201400243652344,0.395761534423828,0.0905965908203115,0.453207449785404,17.1867379999999,
-0.232524865234375,0.343089097900391,0.00201112939453019,0.414465905343021,17.1897979999999,
-0.201400243652344,0.390973131103516,-0.0458729038085934,0.442183639104776,17.1927299999998,
-0.170275622070313,0.402944139404297,0.0379241542968742,0.43908542270364,17.1958439999999,
-0.196611840332031,0.434068760986328,0.0187705410156251,0.476890174183714,17.1988379999998,
-0.215765453613281,0.436462962646484,0.0139821376953115,0.4870833079768,17.201845,
-0.18464083203125,0.381396324462891,0.00679953271484379,0.42379432135428,17.2049349999998,
-0.220553856933594,0.355060106201172,0.0187705410156251,0.41840652006618,17.2080099999998,
-0.208582848632813,0.379002122802734,0.0163763393554675,0.432917542175693,17.2111399999999,
-0.218159655273438,0.374213719482422,-0.0482671054687511,0.435843155857959,17.2141429999997,
-0.194217638671875,0.381396324462891,-0.050661307128907,0.430987488826638,17.2171289999997,
-0.151122008789062,0.379002122802734,-0.00995987890625116,0.408141727610946,17.2202929999999,
-0.191823437011719,0.355060106201172,0.0307415493164065,0.404733187244324,17.2232939999999,
-0.177458227050781,0.379002122802734,-0.0362960971679698,0.420061231377775,17.226357,
-0.227736461914062,0.407732542724609,0.0355299526367183,0.468371754075946,17.2293609999997,
-0.191823437011719,0.388578929443359,-0.0123540805664071,0.433523285073567,17.232348,
-0.187035033691406,0.379002122802734,0.0403183559570301,0.424558927292787,17.2354439999999,
-0.196611840332031,0.388578929443359,0.00440533105468788,0.435510283584437,17.238409,
-0.220553856933594,0.398155736083984,-0.0434787021484375,0.45723341033369,17.241458,
-0.170275622070313,0.388578929443359,0.0379241542968742,0.425940856643164,17.2444449999998,
-0.167881420410156,0.390973131103516,-0.014748282226563,0.425748367457179,17.2474769999999,
-0.2037944453125,0.419703551025391,0.0451067592773438,0.468740724085348,17.250485,
-0.194217638671875,0.414915147705078,0.0762313808593742,0.464420385420508,17.2535479999997,
-0.201400243652344,0.402944139404297,-0.0626323154296884,0.454806381397158,17.2566139999999,
-0.199006041992188,0.376607921142578,-0.0315076938476562,0.427117859364752,17.259681,
-0.172669823730469,0.388578929443359,0.0307415493164065,0.426325574284292,17.2627349999998,
-0.234919066894531,0.388578929443359,-0.00517147558593756,0.454100535738156,17.2657469999999,
-0.206188646972656,0.393367332763672,-0.050661307128907,0.447010273557588,17.2687259999998,
-0.215765453613281,0.395761534423828,0.0211647426757811,0.451253664179007,17.2718,
-0.206188646972656,0.338300694580078,0.0139821376953115,0.396429840284897,17.274813,
-0.220553856933594,0.376607921142578,0.0283473476562488,0.43735695055042,17.2778960000001,
-0.163093017089844,0.388578929443359,-0.0267192905273443,0.422263942478043,17.2808489999998,
-0.194217638671875,0.400549937744141,0.0331357509765624,0.446384051900261,17.2838349999997,
-0.201400243652344,0.405338341064453,0.0187705410156251,0.453005035391579,17.2869329999999,
-0.189429235351563,0.395761534423828,0.0786255825195301,0.445749491936801,17.289882,
-0.194217638671875,0.400549937744141,0.00440533105468788,0.445174292541489,17.2929879999997,
-0.187035033691406,0.424491954345703,0.0115879360351556,0.464014874108293,17.2959820000001,
-0.2037944453125,0.367031114501953,0.0810197841796878,0.427560779751018,17.298961,
-0.179852428710938,0.364636912841797,0.0642603725585928,0.411626493075201,17.3020200000001,
-0.177458227050781,0.393367332763672,0.059471969238281,0.435621620169031,17.3049839999999,
-0.191823437011719,0.407732542724609,-0.0482671054687511,0.453179623167234,17.3080660000001,
-0.206188646972656,0.424491954345703,-0.0362960971679698,0.47331235364638,17.3110349999997,
-0.170275622070313,0.369425316162109,0.0283473476562488,0.407765157672956,17.3139819999997,
-0.22294805859375,0.386184727783203,0.0163763393554675,0.446220422318829,17.3170649999997,
-0.191823437011719,0.405338341064453,-0.0458729038085934,0.450776801785212,17.320037,
