X,Y,Z,Magnitude,Seconds,
-0.687854136962891,5.47137328588867,-3.05193674023437,6.30264919011566,0.0,
-0.671094725341797,5.55038194067383,-3.02799472363281,6.35813336318828,0.00296700000001238,
-0.65672951538086,5.6940340402832,-2.90349623730469,6.42523211318616,0.00601599999998825,
-0.651941112060547,5.8472629465332,-2.81251657421875,6.52117785831287,0.0089800000000082,
-0.639970103759766,5.93345420629883,-2.66647027294922,6.53647491148504,0.0120420000000081,
-0.639970103759766,6.04358748266602,-2.55633699658203,6.59313053370231,0.0150189999999952,
-0.623210692138672,6.08428891088867,-2.41268489697265,6.57480125403337,0.0179899999999975,
-0.620816490478516,6.13935554907227,-2.33128204052734,6.59636078646854,0.0210390000000302,
-0.65672951538086,6.18245117895508,-2.24987918408203,6.61180403365837,0.024029999999982,
-0.683065733642578,6.16329756567383,-2.07989086621094,6.54054750727073,0.0270869999999945,
-0.711796153564453,6.12020193579102,-2.09186187451172,6.50687418052055,0.030052000000012,
-0.683065733642578,6.07231790258789,-2.01285321972656,6.4335994272825,0.0329820000000041,
-0.685459935302735,6.0004918527832,-1.91229675,6.33503249070464,0.0360180000000128,
-0.647152708740235,5.91669479467773,-1.87638372509766,6.24074513224245,0.0389840000000277,
-0.61842228881836,5.8472629465332,-1.81174028027344,6.15266876537107,0.0420220000000313,
-0.58011506225586,5.74431227514649,-1.78779826367187,6.04399533681512,0.0449879999999894,
-0.477164390869141,5.65333261206055,-1.75188523876953,5.93775693072051,0.0479440000000295,
-0.434068760986328,5.56235294897461,-1.75906784375,5.85000048693554,0.0509620000000268,
-0.355060106201172,5.5024979074707,-1.8189228852539,5.80620627976956,0.0539360000000215,
-0.307176072998047,5.46179647924805,-1.92187355664062,5.7982045400506,0.0569760000000201,
-0.232955821533203,5.45221967260742,-1.9506039765625,5.79532774280584,0.0599369999999908,
-0.125216746826172,5.45940227758789,-1.96496918652344,5.80360718572546,0.0629559999999856,
-0.110851536865235,5.4809500925293,-2.05594884960937,5.85491482877697,0.0659160000000156,
-0.0198718737792971,5.53841093237305,-2.05355464794922,5.90690081508998,0.0688640000000191,
0.0256179577636717,5.61981378881836,-2.1253806977539,6.008344731383,0.0719159999999874,
0.0447715710449217,5.63896740209961,-2.18284153759766,6.0468797766929,0.0748940000000289,
0.0878672009277341,5.76107168676758,-2.21157195751953,6.17160579981909,0.07793300000003,
0.066319385986328,5.91430059301758,-2.26424439404297,6.3332576484366,0.0809320000000184,
0.123780225830078,5.99091504614258,-2.38156027539062,6.44811708793526,0.0839030000000207,
0.116597620849609,6.12738454077148,-2.39592548535156,6.58018960570516,0.0869519999999966,
0.0974440075683591,6.31413227026367,-2.42705010693359,6.76522977307958,0.0899380000000178,
0.0735019909667967,6.46257277319336,-2.49408775341797,6.92753369629089,0.0929919999999811,
0.0782903942871092,6.65650310766602,-2.46056893017578,7.09715171518486,0.0959760000000074,
0.121386024169922,6.84085663549805,-2.46056893017578,7.27093209529891,0.0989480000000071,
0.116597620849609,7.00366234838867,-2.36719506542969,7.3938145617279,0.101996999999983,
0.169270057373047,7.18083327124024,-2.35761825878906,7.55985335015497,0.104984000000002,
0.178846864013672,7.25026511938477,-2.24269657910156,7.59131203732588,0.108034000000032,
0.190817872314453,7.36518679907227,-2.1038328828125,7.6621472737364,0.111012000000017,
0.226730897216797,7.43222444555664,-1.95299817822266,7.68788455903335,0.113977000000034,
0.241096107177734,7.48489688208008,-1.80695187695312,7.70369286471707,0.117021000000022,
0.195606275634765,7.50405049536133,-1.78540406201172,7.71600306613782,0.119997000000012,
0.221942493896484,7.52320410864258,-1.63696355908203,7.70243521392138,0.123103000000015,
0.159693250732422,7.5495403269043,-1.4741578461914,7.69377686428268,0.126172999999994,
0.121386024169922,7.50165629370117,-1.46936944287109,7.64517025809978,0.129234999999994,
0.0639251843261717,7.47771427709961,-1.29698692333984,7.58962926093528,0.132337000000007,
0.0375889660644531,7.42743604223633,-1.17488263867187,7.51987821088438,0.135316999999986,
0.00407014282226537,7.42264763891602,-1.0312305390625,7.49394095001177,0.138357999999982,
-0.0677559069824221,7.39870562231445,-0.92827986767578,7.45701946231406,0.14131500000002,
-0.0557848986816407,7.40349402563477,-0.748714743164062,7.44146554847644,0.144267000000013,
-0.0366312854003907,7.42983024389649,-0.719984323242185,7.46472348649992,0.147292999999991,
-0.0438138903808596,7.40828242895508,-0.643369870117185,7.43629564998121,0.150250000000028,
-0.0988805285644533,7.44419545385742,-0.533236593749999,7.46392420775257,0.153275000000008,
-0.086909520263672,7.45137805883789,-0.526053988769529,7.47042977609344,0.15623800000003,
-0.103668931884766,7.5327809152832,-0.466198947265623,7.54790547261454,0.15926300000001,
-0.118034141845703,7.53038671362305,-0.408738107421874,7.54239504108679,0.162214000000006,
-0.0821211169433596,7.48968528540039,-0.363248275878904,7.49893851569141,0.165178000000026,
-0.096486326904297,7.50165629370117,-0.253114999511716,7.50654540804781,0.168228999999997,
-0.115639940185547,7.50644469702149,-0.217201974609374,7.51047676802094,0.171176000000003,
-0.108457335205078,7.46574326879883,-0.21959617626953,7.46975956974567,0.17419799999999,
-0.15873557006836,7.48010847875977,-0.0711556733398417,7.48213091071435,0.177164000000005,
-0.168312376708985,7.44419545385742,-0.0352426484374977,7.44618137407717,0.180099999999982,
-0.187465989990235,7.46095486547852,-0.00890643017577908,7.46331496900734,0.183127000000013,
-0.173100780029297,7.45856066381836,0.0653138212890649,7.46085497454258,0.18609600000002,
-0.211408006591797,7.4178592355957,0.15150508105469,7.42241758283303,0.189127999999982,
-0.163523973388672,7.39152301733399,0.177841299316409,7.3954702442369,0.192087000000015,
-0.127610948486328,7.25026511938477,0.182629702636721,7.25368750800765,0.195044999999993,
-0.15873557006836,7.14731444799805,0.216148525878909,7.15234374069131,0.198079000000007,
-0.163523973388672,6.99887394506836,0.240090542480472,7.00489971787021,0.201041000000032,
-0.15873557006836,6.87916386206055,0.319099197265627,6.88838999476513,0.204072999999994,
-0.204225401611328,6.6517147043457,0.345435415527346,6.66380838177185,0.207037000000014,
-0.180283385009766,6.50327420141602,0.41965566699219,6.51929354428471,0.209981000000028,
-0.240138426513672,6.29497865698242,0.407684658691409,6.31273550346322,0.213012999999989,
-0.290416661376953,6.11301933081055,0.395713650390627,6.1326940629037,0.215972000000022,
-0.352665904541016,5.91190639135742,0.400502053710939,5.93594241173423,0.219016000000011,
-0.462799180908203,5.70361084692383,0.429232473632814,5.73843186693171,0.221992999999998,
-0.537019432373047,5.55995874731445,0.460357095214846,5.60477116372287,0.224944999999991,
-0.651941112060547,5.35166320288086,0.472328103515627,5.41187768598242,0.227987999999982,
-0.716584556884766,5.21519370825195,0.522606338378909,5.29007147651809,0.230964000000029,
-0.853054051513672,4.98535034887695,0.544154153320315,5.08699548441191,0.234013000000004,
0.181241065673828,7.08745940649414,-5.70231797802734,9.09842620924755,14.453779,
0.310527955322266,7.18322747290039,-5.81484545605469,9.24703261680564,14.458057,
0.353623585205078,7.25026511938477,-5.76696142285156,9.27088118756997,14.461034,
0.37756560180664,7.35560999243164,-5.69513537304687,9.31032335967756,14.463996,
0.389536610107422,7.51362730200195,-5.7047121796875,9.44193174393238,14.467036,
0.389536610107422,7.64051998999023,-5.65203974316406,9.51182620459186,14.470017,
0.384748206787109,7.7793836862793,-5.65443394482422,9.62493973785575,14.473046,
0.367988795166015,7.96373721411133,-5.61852091992187,9.7531688951022,14.476022,
0.334469971923828,8.11936032202149,-5.59936730664062,9.86857621116701,14.478978,
0.322498963623047,8.21273418676758,-5.55866587841797,9.92228677029278,14.48201,
0.305739552001953,8.39469351293945,-5.56106008007812,10.0742118830251,14.484986,
0.245884510498047,8.5072209909668,-5.54908907177734,10.1600028399685,14.48804,
0.183635267333984,8.60059485571289,-5.50359924023437,10.212421768642,14.491016,
0.130962830810547,8.70354552709961,-5.51557024853515,10.3048712350944,14.493975,
0.0423773693847656,8.6987571237793,-5.48205142529297,10.2821719091588,14.497012,
0.0256179577636717,8.72988174536133,-5.51796445019531,10.3276049131138,14.499992,
-0.0366312854003907,8.76818897192383,-5.43656159375,10.3169124092954,14.50301,
-0.110851536865235,8.79213098852539,-5.43656159375,10.3377975093949,14.505966,
-0.12042834350586,8.82564981176758,-5.41022537548828,10.3526390934607,14.508892,
-0.130005150146485,8.80410199682617,-5.44374419873047,10.3519787582276,14.511948,
-0.182677586669922,8.82086140844727,-5.41501377880859,10.3519728222399,14.515,
-0.19704279663086,8.86874544165039,-5.45332100537109,10.4130774298533,14.51811,
-0.213802208251953,8.85677443334961,-5.3814949555664,10.365744194426,14.521128,
-0.144370360107422,8.86635123999024,-5.42698478710937,10.3964027909306,14.524137,
-0.137187755126953,8.89747586157227,-5.47008041699219,10.4453662911254,14.527074,
-0.12042834350586,8.91662947485352,-5.42459058544922,10.4377663892947,14.529997,
-0.0509964953613282,8.88550485327148,-5.37431235058594,10.3845091545875,14.533021,
0.0232237561035153,8.9118410715332,-5.39107176220703,10.4156183384559,14.535993,
0.0280121594238281,8.8902932565918,-5.3814949555664,10.3922368538281,14.539011,
0.0830787976074216,8.87832224829102,-5.37431235058594,10.3785712539237,14.541986,
0.095049805908203,8.88789905493164,-5.36234134228515,10.3806786265368,14.544958,
0.200394678955078,8.87592804663086,-5.31924571240234,10.3497165016841,14.548024,
0.257855518798828,8.86635123999024,-5.24981386425781,10.3072411143237,14.551005,
0.320104761962891,8.82564981176758,-5.26178487255859,10.2801236229761,14.55408,
0.370382996826172,8.80410199682617,-5.12531537792969,10.1940302755141,14.557068,
0.365594593505859,8.80170779516602,-5.06546033642578,10.1618210935929,14.560034,
0.408690223388672,8.74424695532227,-5.17080520947265,10.1669124629194,14.563073,
0.401507618408203,8.78494838354492,-5.14207478955078,10.1871222438195,14.566053,
0.487698878173828,8.73945855200195,-5.11573857128906,10.1383808918242,14.569092,
0.504458289794922,8.69636292211914,-5.04870092480469,10.0682961452013,14.572066,
0.509246693115234,8.69636292211914,-4.95053865673828,10.0196753070904,14.57502,
0.506852491455078,8.67720930883789,-4.976874875,10.0159944268596,14.578055,
0.533188709716797,8.6987571237793,-4.93138504345703,10.0135520244068,14.581025,
0.521217701416016,8.68439191381836,-4.92659664013672,9.9980840794459,14.584077,
0.487698878173828,8.66284409887695,-4.86434739697266,9.94708970883715,14.587042,
0.461362659912109,8.64847888891602,-4.87153000195312,9.93684291693879,14.589992,
0.418267030029297,8.71072813208008,-4.81167496044922,9.96011786197507,14.593023,
0.336864173583984,8.6987571237793,-4.70393588574219,9.89489089313867,14.595994,
0.344046778564453,8.72748754370117,-4.63450403759765,9.88767084230703,14.599034,
0.329681568603515,8.74664115698242,-4.61056202099609,9.89291178648366,14.602004,
0.288980140380859,8.75382376196289,-4.55310118115234,9.87135605389916,14.604947,
0.217154090576172,8.82325561010742,-4.49803454296875,9.90602393546907,14.607993,
0.183635267333984,8.8352266184082,-4.5004287446289,9.91709686327202,14.610989,
0.118991822509765,8.84959182836914,-4.47169832470703,9.91592257380773,14.614015,
0.111809217529297,8.91423527319336,-4.45493891308594,9.96607106769245,14.616966,
0.047165772705078,8.89268745825195,-4.40944908154297,9.9259939574325,14.619982,
-0.0102950671386721,8.8352266184082,-4.36635345166015,9.85527157676849,14.622915,
-0.0677559069824221,8.87113964331055,-4.36395925,9.88665007824731,14.625828,
-0.0557848986816407,8.89268745825195,-4.33283462841797,9.89224231922623,14.628838,
-0.0725443103027346,8.86874544165039,-4.39508387158203,9.89831655505078,14.631772,
-0.0605733020019532,8.84719762670898,-4.43578529980469,9.89710898176452,14.63476,
-0.0581791003417971,8.83283241674805,-4.34959404003906,9.8458763765962,14.637703,
-0.0629675036621096,8.86635123999024,-4.42860269482422,9.91103783899538,14.640621,
0.0208295544433592,8.83043821508789,-4.45254471142578,9.88950086445563,14.643648,
0.0639251843261717,8.82325561010742,-4.53394756787109,9.92021202085356,14.646618,
0.0735019909667967,8.80889040014648,-4.52197655957031,9.90203133855737,14.649664,
0.130962830810547,8.79931359350586,-4.62971563427734,9.94380902039973,14.652735,
0.178846864013672,8.75142956030274,-4.59619681103515,9.88658336714346,14.655789,
0.231519300537109,8.78015998022461,-4.65126344921875,9.93876562450777,14.658919,
0.324893165283203,8.74424695532227,-4.72069529736328,9.94245314170795,14.661922,
0.363200391845703,8.7370643503418,-4.67520546582031,9.91593435508155,14.664952,
0.411084425048828,8.7370643503418,-4.7853387421875,9.97019311467997,14.667932,
0.41587282836914,8.69157451879883,-4.79012714550781,9.93286141528913,14.670899,
0.444603248291016,8.62932527563477,-4.88110680859375,9.92411862272919,14.673968,
0.449391651611328,8.56947023413086,-4.82843437207031,9.84639789139068,14.676937,
0.506852491455078,8.50003838598633,-4.88589521191406,9.81730737183776,14.679978,
0.506852491455078,8.42102973120117,-4.85716479199219,9.73461303794028,14.68297,
0.585861146240234,8.34920368139649,-4.92180823681641,9.70961542575772,14.685941,
0.597832154541015,8.26301242163086,-4.90744302685547,9.62900693876899,14.689018,
0.648110389404297,8.19358057348633,-4.87392420361328,9.55562383278212,14.692,
0.736695850830078,8.07387049047852,-4.97448067333984,9.51186435159173,14.695076,
0.755849464111328,7.93740099584961,-4.92180823681641,9.37005012266773,14.698066,
0.693600220947266,7.86078654272461,-4.92420243847656,9.30165662620788,14.701029,
0.734301649169922,7.81529671118164,-4.85716479199219,9.23093231544619,14.704078,
0.724724842529297,7.75065326635742,-4.86913580029297,9.18184815788035,14.707063,
0.662475599365234,7.72671124975586,-4.79252134716797,9.11642482116311,14.710116,
0.662475599365234,7.76023007299805,-4.76618512890625,9.13107690191166,14.7131,
0.576284339599609,7.78656629125977,-4.77576193554687,9.15262914758754,14.716146,
0.557130726318359,7.84402713110352,-4.77815613720703,9.20162661442124,14.719123,
0.499669886474609,7.90148797094727,-4.76618512890625,9.24119596337406,14.722081,
0.425449635009765,8.00204444067383,-4.68717647412109,9.28349858200038,14.72516,
0.394325013427734,8.08105309545899,-4.65844605419922,9.33595367317803,14.728149,
0.334469971923828,8.21273418676758,-4.59619681103515,9.41731905110947,14.731177,
0.233913502197266,8.29653124487305,-4.58422580273437,9.48168088653697,14.734168,
0.188423670654297,8.36596309301758,-4.58901420605469,9.54378820682683,14.73713,
0.12856862915039,8.38272250463867,-4.54352437451172,9.53573176132589,14.740188,
-0.00071826049804713,8.37314569799805,-4.60816781933594,9.55744631410319,14.743147,
-0.0581791003417971,8.38990510961914,-4.52437076123047,9.53225174558494,14.746161,
-0.122822545166016,8.38272250463867,-4.5770431977539,9.55167244002232,14.749123,
-0.173100780029297,8.34441527807617,-4.54591857617187,9.50392581590483,14.752054,
-0.249715233154297,8.36117468969727,-4.60098521435547,9.5467620077187,14.755072,
-0.21619640991211,8.33483847143555,-4.57464899609375,9.51018857173939,14.758029,
-0.249715233154297,8.30131964819336,-4.6704170625,9.52822444828214,14.761047,
-0.25450363647461,8.25343561499023,-4.69675328076172,9.499655937565,14.764007,
-0.261686241455078,8.19118637182617,-4.73027210400391,9.4625307420835,14.766949,
-0.280839854736328,8.09541830541992,-4.73984891064453,9.3851391177475,14.769972,
-0.278445653076172,8.01401544897461,-4.78773294384766,9.33939839281551,14.772929,
-0.285628258056641,7.9158531809082,-4.85477059033203,9.29037741796574,14.775952,
-0.247321031494141,7.85360393774414,-4.91223143017578,9.26662182929553,14.778913,
-0.175494981689453,7.78417208959961,-4.95772126171875,9.23055435594189,14.781856,
-0.0318428820800782,7.71713444311523,-4.94814445507812,9.16729575886886,14.784876,
-0.00311246215820327,7.67643301489258,-4.97926907666016,9.14990459279973,14.787825,
0.0232237561035153,7.52559831030274,-5.07743134472656,9.07829710525552,14.790902,
0.0423773693847656,7.56629973852539,-5.14686319287109,9.15100477001168,14.793977,
0.056742579345703,7.54714612524414,-5.206718234375,9.16910841512257,14.79702,
0.0543483776855467,7.50165629370117,-5.29290949414062,9.18110515178578,14.80014,
0.0543483776855467,7.56390553686524,-5.26417907421875,9.21559558803554,14.803116,
0.085472999267578,7.56151133520508,-5.25939067089844,9.21113182704342,14.80616,
0.0902614025878905,7.53517511694336,-5.33839932568359,9.23501589193319,14.809133,
0.0830787976074216,7.57348234350586,-5.35515873730469,9.2758968297269,14.812183,
0.152510645751953,7.54475192358399,-5.36952394726562,9.26165905795236,14.81517,
0.14772224243164,7.55432873022461,-5.52754125683594,9.36180627716839,14.818123,
0.174058460693359,7.51841570532227,-5.48683982861328,9.30925788506433,14.821176,
0.20518308227539,7.48010847875977,-5.58500209667969,9.33736426253053,14.824156,
0.288980140380859,7.42743604223633,-5.513176046875,9.25448139048764,14.827189,
0.384748206787109,7.42504184057617,-5.47247461865234,9.23186091580277,14.830178,
0.497275684814453,7.4178592355957,-5.41740798046875,9.19892537053468,14.833157,
0.549948121337891,7.36997520239258,-5.41261957714844,9.16053645301273,14.83623,
0.590649549560547,7.36279259741211,-5.31924571240234,9.10241488132756,14.839206,
0.645716187744141,7.31490856420899,-5.2665732758789,9.03668250897721,14.842254,
0.624168372802734,7.29814915258789,-5.17559361279297,8.96879793817488,14.84523,
0.631350977783203,7.32209116918945,-5.17080520947265,8.98603637102474,14.84818,
0.60740896118164,7.32209116918945,-5.08700815136719,8.93642079739546,14.851225,
0.564313331298828,7.39391721899414,-5.02475890820312,8.95749202973613,14.854186,
0.482910474853516,7.42025343725586,-4.98884588330078,8.95443727138438,14.857228,
0.437420643310547,7.4561664621582,-4.91701983349609,8.94219431535688,14.860188,
0.451785853271484,7.55432873022461,-4.92659664013672,9.03013551814809,14.863151,
0.375171400146484,7.54475192358399,-4.82604017041016,8.96407825123836,14.866188,
0.33925837524414,7.57348234350586,-4.80449235546875,8.97529263290763,14.869161,
0.334469971923828,7.5878475534668,-4.77815613720703,8.97318654260013,14.872203,
0.298556947021484,7.60700116674805,-4.77336773388672,8.98557969885259,14.875171,
0.277009132080078,7.59981856176758,-4.67759966748047,8.92826494231977,14.878128,
0.312922156982422,7.63094318334961,-4.66802286083984,8.95095813715849,14.881171,
0.296162745361328,7.63094318334961,-4.60577361767578,8.91808033472048,14.884136,
0.291374342041016,7.6477025949707,-4.62492723095703,8.94215890487131,14.887181,
0.315316358642578,7.6860098215332,-4.58422580273437,8.95484771468438,14.890181,
0.265038123779297,7.70037503149414,-4.6321098359375,8.99013138752175,14.893135,
0.312922156982422,7.69319242651367,-4.60098521435547,8.96951475445665,14.896168,
0.336864173583984,7.64530839331055,-4.61295622265625,8.93552365630645,14.899145,
0.384748206787109,7.68122141821289,-4.55310118115234,8.93755693822698,14.902187,
0.413478626708984,7.65009679663086,-4.54352437451172,8.90721950522996,14.905161,
0.39671921508789,7.69319242651367,-4.51479395458984,8.92893948346545,14.908194,
0.387142408447265,7.69079822485352,-4.54352437451172,8.94102177167746,14.911165,
0.322498963623047,7.69798082983399,-4.54591857617187,8.94585323707102,14.914124,
0.238701905517578,7.74825906469727,-4.4788809296875,8.95281360889857,14.917164,
0.20518308227539,7.74347066137695,-4.5004287446289,8.95864369569076,14.920137,
0.111809217529297,7.7793836862793,-4.39987227490234,8.93813111757303,14.923163,
0.066319385986328,7.75544166967773,-4.27537378857422,8.85607671515772,14.926139,
-0.00790086547851576,7.78656629125977,-4.12453908398437,8.81149815225384,14.929072,
-0.0438138903808596,7.76741267797852,-4.04553042919922,8.75790704566956,14.932165,
-0.163523973388672,7.81529671118164,-3.95694496777344,8.76145057919446,14.935211,
-0.25450363647461,7.83684452612305,-4.00722320263672,8.80560855496959,14.938334,
-0.33111808959961,7.78896049291992,-3.93060874951172,8.73082068830104,14.941345,
-0.362242711181641,7.8559981394043,-3.95455076611328,8.80263587284486,14.944283,
-0.386184727783203,7.8943053659668,-3.92103194287109,8.82290696721441,14.947309,
-0.434068760986328,7.89909376928711,-4.00004059765625,8.86478555003745,14.95026,
-0.395761534423828,7.94937200415039,-3.8659653046875,8.84843659578047,14.953309,
-0.434068760986328,8.04514007055664,-3.83244648144531,8.92190229027884,14.956267,
-0.438857164306641,8.11936032202149,-3.76301463330078,8.95973698162596,14.959207,
-0.46519338256836,8.20794578344727,-3.827658078125,9.06850292111276,14.962247,
-0.441251365966797,8.2606182199707,-3.85160009472656,9.12509394109327,14.965204,
-0.469981785888672,8.33005006811524,-3.86357110302734,9.19444390295148,14.968252,
-0.479558592529297,8.35878048803711,-3.9425797578125,9.25435696510414,14.971224,
-0.508289012451172,8.40905872290039,-4.02877101757812,9.33818088481066,14.974193,
-0.44603976928711,8.41145292456055,-4.05989563916016,9.35062802055325,14.977239,
-0.402944139404297,8.4306065378418,-4.11975068066406,9.39200916983225,14.980197,
-0.316752879638672,8.4138471262207,-4.17960572216797,9.40012020364373,14.983238,
-0.268868846435547,8.4306065378418,-4.15326950390625,9.40197131587637,14.986196,
-0.23535002319336,8.37793410131836,-4.17481731884765,9.36345390789107,14.989145,
-0.13958195678711,8.39469351293945,-4.23946076367187,9.40549785314747,14.992165,
-0.0462080920410157,8.33005006811524,-4.3256520234375,9.38632701076122,14.995129,
-0.0509964953613282,8.25822401831055,-4.28255639355469,9.30274980009225,14.998163,
-0.0294486804199221,8.1624559519043,-4.36156504833984,9.25471793532661,15.001121,
-0.0318428820800782,8.00443864233399,-4.25622017529297,9.06573009352251,15.004159,
-0.00790086547851576,7.92303578588867,-4.40944908154297,9.06740313931546,15.00711,
-0.00790086547851576,7.82726771948242,-4.41902588818359,8.98854672216614,15.010042,
-0.0438138903808596,7.66925040991211,-4.43817950146484,8.86096827633132,15.013062,
-0.0198718737792971,7.60221276342773,-4.44536210644531,8.80654745341277,15.01601,
0.0208295544433592,7.53038671362305,-4.47169832470703,8.75803881209923,15.01904,
0.0615309826660155,7.48489688208008,-4.54591857617187,8.75744500972655,15.022027,
0.047165772705078,7.41307083227539,-4.45493891308594,8.64883370714077,15.02499,
0.0591367810058592,7.41067663061524,-4.56267798779297,8.70285330812286,15.028043,
0.0256179577636717,7.38912881567383,-4.50521714794922,8.65429734204672,15.031025,
0.0375889660644531,7.43940705053711,-4.54591857617187,8.71846121142576,15.034078,
0.0926556042480467,7.47532007543945,-4.4238142915039,8.68672137097656,15.037067,
0.157299049072265,7.53756931860352,-4.42620849316406,8.74248339137969,15.040042,
0.181241065673828,7.50883889868164,-4.34241143505859,8.67594646142821,15.043094,
0.277009132080078,7.56390553686524,-4.33044042675781,8.72021303177707,15.046085,
0.324893165283203,7.5327809152832,-4.35198824169922,8.70563872110432,15.049134,
0.37756560180664,7.56390553686524,-4.37593025830078,8.74665583979389,15.052124,
0.35841198852539,7.58305915014649,-4.34959404003906,8.74929788847553,15.055084,
0.399113416748047,7.5710881418457,-4.38071866162109,8.75621854245885,15.058135,
0.35841198852539,7.63573158666992,-4.31607521679687,8.77846007533415,15.061117,
0.391930811767578,7.65727940161133,-4.33522883007812,8.80805010230383,15.064168,
0.387142408447265,7.71474024145508,-4.26340278027344,8.82290765589145,15.067152,
0.403901820068359,7.7626242746582,-4.23706656201172,8.85292072486166,15.070142,
0.432632239990234,7.82008511450195,-4.20833614208984,8.89106264391122,15.073287,
0.403901820068359,7.90148797094727,-4.18918252880859,8.95242420213397,15.076369,
0.425449635009765,7.98289082739258,-4.17960572216797,9.02090113828866,15.079514,
0.365594593505859,8.0690820871582,-4.22509555371094,9.11565563051205,15.082512,
0.35841198852539,8.10978351538086,-4.134115890625,9.10977288503835,15.085478,
0.298556947021484,8.16724435522461,-4.11496227734375,9.15018749275254,15.088523,
0.209971485595703,8.21991679174805,-4.05989563916016,9.17027113497177,15.091504,
0.118991822509765,8.24385880834961,-3.99525219433594,9.16173603648205,15.094595,
0.0519541760253905,8.2606182199707,-3.94976236279297,9.15648051027546,15.097585,
0.095049805908203,8.27498342993164,-3.91863774121094,9.15642435550522,15.100628,
0.0878672009277341,8.30371384985352,-3.88751311962891,9.16908624676062,15.103624,
0.102232410888672,8.2390704050293,-3.98328118603516,9.15200861078525,15.106591,
0.0806845959472655,8.24864721166992,-3.95933916943359,9.15003046362274,15.109665,
0.0208295544433592,8.23188780004883,-3.90187832958984,9.10983342997301,15.112672,
0.0639251843261717,8.32286746313477,-3.93060874951172,9.20455834789679,15.115727,
0.104626612548828,8.36596309301758,-3.88033051464844,9.22264875752609,15.118716,
0.118991822509765,8.42821233618164,-3.88751311962891,9.28233163019268,15.121673,
0.133357032470703,8.46651956274414,-3.93060874951172,9.33538551674095,15.12473,
0.145328040771484,8.48327897436524,-3.98567538769531,9.37404665512296,15.127706,
0.154904847412109,8.51200939428711,-4.0191942109375,9.41446873410376,15.13075,
0.202788880615234,8.51440359594727,-4.04313622753906,9.42778566150184,15.133723,
0.315316358642578,8.51679779760742,-4.14608689892578,9.47762131047671,15.136673,
0.399113416748047,8.51679779760742,-4.11735647900391,9.46825013505423,15.139713,
0.454180054931641,8.55749922583008,-4.24664336865234,9.56405000106644,15.142697,
0.578678541259765,8.48567317602539,-4.28255639355469,9.52269958406793,15.145731,
0.643321986083984,8.47370216772461,-4.39508387158203,9.56735354438835,15.148706,
0.767820472412109,8.49524998266602,-4.43817950146484,9.61541771495471,15.15166,
0.892318958740234,8.56228762915039,-4.54113017285156,9.73297826028662,15.154695,
1.04554786499023,8.56947023413086,-4.58662000439453,9.77579017247979,15.157666,
1.07427828491211,8.62693107397461,-4.70393588574219,9.884585292551,15.160706,
1.1676521496582,8.62453687231445,-4.84040538037109,9.95869329032873,15.163667,
1.2442666027832,8.68918031713867,-4.96011546337891,10.0823012934847,15.166627,
1.31609265258789,8.71551653540039,-5.03672991650391,10.1518952221168,15.169682,
1.47889836547852,8.77058317358398,-5.10137336132812,10.2535008534567,15.172656,
