X,Y,Z,Magnitude,Seconds,
0.015322890625,0.00584185205078125,-0.0433829340820289,0.0463788441215884,0.0,
-0.0014365209960937,0.00823605371093761,-0.0314119257812475,0.0325054649957245,0.00382899999976871,
0.0177170922851563,0.0273896669921876,0.0116837041015643,0.0346496487502627,0.00775899999962348,
0.0129286889648438,0.00344765039062511,-0.0266235224609357,0.0297967991534929,0.0117349999995895,
0.0177170922851563,-0.0300711728515624,0.00689530078125244,0.0355769021778629,0.0156159999996817,
-0.0158017309570313,0.0561200869140626,0.00928950244140836,0.0590377312579783,0.0194669999996222,
-0.0229843359375,0.0297838686523437,0.0332315190429711,0.0501965376125811,0.0233599999996841,
0.0225054956054688,0.00584185205078125,-0.0050757075195289,0.0237988943998412,0.0272689999997056,
0.00814028564453129,0.0202070620117187,-0.0433829340820289,0.0485455309486432,0.0311589999996613,
0.0201112939453125,0.0249954653320312,0.00928950244140836,0.0333995851310832,0.034972999999809,
0.00335188232421879,-0.00134075292968738,-0.0505655390624984,0.0506942449812099,0.0387649999997848,
-0.0134075292968751,0.00823605371093761,-0.0074699091796866,0.0174182078793651,0.0425769999997101,
0.0177170922851563,0.00344765039062511,-0.040988732421873,0.0447868042821613,0.0464499999998225,
-0.00622492431640631,-0.00373495458984374,0.0308373173828134,0.0316802732295911,0.0502509999996619,
-0.00861912597656256,-0.00612915624999988,-0.0984495722656238,0.0990160298548727,0.0541629999997895,
0.024899697265625,-0.00134075292968738,0.0116837041015643,0.0275372744452161,0.0582389999999577,
-0.0110133276367188,0.0249954653320312,-0.0074699091796866,0.0283172423790039,0.0620930000000044,
0.0296881005859375,-0.0492247861328126,0.0164721074218761,0.059797936495666,0.0661359999999149,
-0.04213794921875,0.0369664736328126,-0.0194409174804662,0.0593302301503178,0.0700369999999566,
0.0225054956054688,-0.00134075292968738,0.0140779057617202,0.0265797362948189,0.0739739999999074,
0.015322890625,-0.0204943662109374,-0.0170467158203103,0.0307473664523019,0.0778219999997418,
0.015322890625,0.00344765039062511,0.0116837041015643,0.0195751427033011,0.0819369999999253,
-0.00622492431640631,0.0154186586914062,-0.0242293208007798,0.0293861311685319,0.0859889999996994,
-0.0158017309570313,0.0202070620117187,-0.0242293208007798,0.0352856917581468,0.0899419999996098,
0.015322890625,0.0226012636718751,0.0212605107421897,0.0346066093931506,0.0939579999999296,
-0.0205901342773438,0.0321780703125001,-0.0242293208007798,0.045237615156663,0.0979159999997137,
0.00335188232421879,0.00584185205078125,-0.00268150585937299,0.00724933267083799,0.101829999999609,
-0.00861912597656256,0.0106302553710937,0.0667503422851574,0.0681388278226166,0.105827999999747,
-0.0229843359375,0.0178128603515626,0.0140779057617202,0.0323073540084607,0.109749999999622,
-0.0205901342773438,-0.00852335791015624,-0.0146525141601543,0.0266701599327262,0.113593999999921,
0.0105344873046875,0.0226012636718751,-0.0218351191406239,0.0331446069553326,0.11750099999972,
-0.0277727392578125,0.0393606752929687,0.00689530078125244,0.0486634665664593,0.121415999999954,
-0.0397437475585938,-0.0157059628906249,0.0212605107421897,0.0477310387205399,0.125233999999637,
-0.0110133276367188,-0.00373495458984374,-0.0266235224609357,0.029052628446491,0.129217999999582,
0.00814028564453129,-0.0228885678710937,0.0188663090820338,0.0307585501599646,0.13323199999968,
0.0177170922851563,-0.0252827695312499,-0.0050757075195289,0.0312870037081668,0.137111999999888,
0.00335188232421879,-0.00612915624999988,-0.0194409174804662,0.020657951106889,0.141097999999602,
-0.0110133276367188,0.0178128603515626,0.0547793339843761,0.0586461150572636,0.144976999999926,
0.0320823022460938,0.0202070620117187,-0.0433829340820289,0.0576166507367516,0.148834999999963,
0.00335188232421879,-0.0157059628906249,-0.0314119257812475,0.0352791931132743,0.152627999999822,
-0.04213794921875,0.0154186586914062,-0.0122583124999984,0.0465146001332017,0.15671999999995,
-0.04213794921875,-0.0300711728515624,0.00210689746093884,0.0518104354154779,0.160611999999674,
-0.0110133276367188,0.00344765039062511,-0.0266235224609357,0.0290170919817552,0.164444999999887,
-0.00383072265624995,-0.00852335791015624,-0.0529597407226543,0.0537778411945338,0.168369999999868,
-0.00622492431640631,0.00105344873046875,-0.0122583124999984,0.0137886062501012,0.172280999999657,
-0.04213794921875,0.070485296875,0.0236547124023456,0.085459518245521,0.176195999999891,
-0.032561142578125,0.0656968935546876,-0.038594530761717,0.082860410531484,0.18011899999965,
-0.0301669409179688,0.00344765039062511,0.0739329472656269,0.0799250355579913,0.184005999999954,
-0.0349553442382813,0.0441490786132812,0.0332315190429711,0.0653861689588997,0.187848999999915,
0.0847547387695312,0.0489374819335937,-0.0146525141601543,0.0989592797725702,0.191789999999855,
0.0416591088867188,-0.00612915624999988,-0.0721133540039052,0.0835067885579666,0.195684999999685,
0.00335188232421879,-0.0276769711914062,0.0116837041015643,0.0302284434097796,0.199572999999873,
0.024899697265625,0.0154186586914062,-0.000287304199217076,0.0292884363437985,0.203569999999672,
0.082360537109375,-0.0252827695312499,-0.0290177241210916,0.0909093219713073,0.207652999999937,
0.0177170922851563,0.0369664736328126,0.00928950244140836,0.0420322541329287,0.211710999999923,
-0.101992990722656,0.0585142885742187,0.0260489140625015,0.120436863325704,0.215604999999869,
0.0272938989257813,-0.0204943662109374,0.0763271489257829,0.0836110616371866,0.219556000000011,
0.0201112939453125,0.0130244570312501,-0.0266235224609357,0.0358177689609723,0.223424999999679,
0.0368707055664063,-0.0228885678710937,0.0212605107421897,0.0483254051733977,0.227302999999665,
0.0201112939453125,0.0489374819335937,0.0140779057617202,0.0547496914401483,0.231374999999844,
0.000957680664062543,-0.0109175595703124,0.0691445439453133,0.0700077011237407,0.235282999999981,
-0.00861912597656256,0.0321780703125001,0.00450109912109475,0.0336151369911529,0.239250999999967,
-0.0660799658203125,0.0178128603515626,0.0571735356445338,0.0891777609878983,0.24317099999962,
0.0129286889648438,-0.0252827695312499,0.0571735356445338,0.0638371569825657,0.247094999999717,
-0.00383072265624995,0.00105344873046875,-0.0074699091796866,0.00846071707656029,0.250973999999587,
0.0296881005859375,0.0417548769531251,0.0954807622070337,0.108357874736484,0.254943999999796,
-0.0397437475585938,0.0273896669921876,-0.000287304199217076,0.0482684355624568,0.258792999999969,
-0.0445321508789063,0.0202070620117187,-0.000287304199217076,0.0489031733198369,0.262643999999909,
-0.0565031591796875,0.00584185205078125,-0.00268150585937299,0.056867606827984,0.266501999999946,
-0.04213794921875,-0.0276769711914062,-0.0218351191406239,0.054939911963682,0.270282999999836,
0.0129286889648438,-0.00373495458984374,0.0140779057617202,0.0194753257937767,0.274172999999792,
0.0871489404296875,0.0872447084960939,-0.0266235224609357,0.126156208435469,0.278165999999601,
-0.0565031591796875,-0.0444363828125001,0.00689530078125244,0.0722131863831537,0.282144999999673,
0.00814028564453129,0.0633026918945312,0.0404141240234388,0.0755433416791341,0.286134999999831,
0.0416591088867188,-0.0181001645507812,0.0212605107421897,0.0501508387469204,0.290016999999807,
-0.0684741674804688,0.0154186586914062,0.00928950244140836,0.0708007168296642,0.293887999999697,
-0.0277727392578125,-0.0324653745117187,-0.0457771357421866,0.062616864699753,0.29772099999991,
-0.116358200683594,-0.0157059628906249,0.0140779057617202,0.118254368068503,0.301631999999699,
0.0799663354492187,0.0393606752929687,-0.0242293208007798,0.0923630746086475,0.305665999999746,
0.898783303222656,-0.451450665039062,-0.258861083496091,1.03857026226674,0.309546999999839,
-0.489853659667969,0.0513316835937501,-0.0146525141601543,0.492753737481396,0.31305599999996,
-0.0277727392578125,0.130340338378906,-0.040988732421873,0.13942741853797,0.316063999999642,
-0.966299790039063,0.0489374819335937,-0.0625365473632797,0.96955710565374,0.319068999999672,
0.482192214355469,0.151888153320312,0.160124207031252,0.53030095642142,0.322135999999773,
-0.817859287109375,-0.135416045898437,-0.0266235224609357,0.82942156407104,0.32510400000001,
-0.0445321508789063,0.218925799804688,0.0284431157226575,0.225212408881119,0.328168999999889,
-0.281558115234375,0.0561200869140626,0.0212605107421897,0.287882694385394,0.331144999999651,
-0.250433493652344,-0.305404363769531,-0.127179992187498,0.414925909729921,0.334129999999732,
-0.183395847167969,0.441586554199219,0.179277820312501,0.510659630736558,0.337205999999696,
-0.678995590820313,-0.511305706542969,-0.230130663574217,0.880584272068233,0.340152999999646,
2.02645228515625,0.0106302553710937,0.00689530078125244,2.0264918977181,0.343201999999565,
-1.92398045410156,0.240473614746094,0.0380199223632829,1.93932304210784,0.346196999999847,
-1.92637465576172,0.439192352539063,-0.258861083496091,1.99269121979263,0.34915299999966,
-0.858560715332031,0.0537258852539062,-0.0816901606445288,0.864110094261081,0.352184999999736,
5.71831124511719,-0.700447637695313,0.24392126513672,5.7662126194559,0.355160999999953,
4.18602218261719,-1.25111401953125,0.342083533203127,4.38236113834991,0.358270999999604,
-3.82976497558594,0.566085040527344,-0.392936376464842,3.89126599415703,0.36131099999966,
-3.49936514648438,2.37849569726563,-0.318716124999998,4.24315662905292,0.364279999999781,
2.36164051757813,-1.08351990332031,0.275045886718752,2.61285505816125,0.367355999999745,
1.29861498046875,-1.49532258886719,0.0978749638671896,1.98291956993377,0.37033399999973,
-1.74920373291016,1.68178301416016,-0.191823437011717,2.43411257688124,0.373348999999962,
-0.353384165039063,0.111186725097656,-0.0338061274414052,0.372002298636556,0.376377999999931,
0.735977590332031,-1.07633729833984,0.0763271489257829,1.30613583785592,0.379420999999638,
-0.19536685546875,0.599603863769531,-0.0529597407226543,0.632848904400181,0.382460999999694,
0.185311208496094,0.324270672851563,-0.0146525141601543,0.373773205884399,0.385478999999577,
0.506134230957031,-0.666928814453125,0.0116837041015643,0.837318584671241,0.388595999999779,
-0.130723410644531,0.317088067871094,-0.0362003291015611,0.344882467956583,0.391613999999663,
-0.164242233886719,0.209348993164063,-0.00268150585937299,0.266100925974676,0.394669999999678,
0.2068590234375,-0.367653606933594,-0.0074699091796866,0.421918984891591,0.397671999999602,
-0.0373495458984375,0.0824563051757814,-0.0218351191406239,0.0931171480982226,0.400753999999779,
-0.319865341796875,0.163859161621094,-0.0601423457031238,0.364390948675559,0.403792999999951,
0.127850368652344,-0.125839239257812,-0.0338061274414052,0.182548856896201,0.406786000000011,
0.07278373046875,0.0345722719726562,-0.040988732421873,0.0904034822108687,0.409900999999991,
-0.190578452148437,0.120763531738281,0.0308373173828134,0.22771674765938,0.41294999999991,
0.0488417138671875,0.0106302553710937,0.035625720703127,0.0613816529457793,0.415957999999591,
0.07278373046875,-0.0157059628906249,-0.0290177241210916,0.0799135595780661,0.418981999999687,
-0.0972045874023437,0.0465432802734376,0.0116837041015643,0.108404417309465,0.421970999999758,
-0.0110133276367188,0.0489374819335937,-0.0529597407226543,0.0729445313991754,0.425055999999586,
0.0560243188476562,-0.0755610043945312,-0.000287304199217076,0.0940652551751022,0.428014999999959,
-0.0301669409179688,-0.00134075292968738,0.0428083256835947,0.052386970618651,0.430995999999595,
0.015322890625,-0.0252827695312499,-0.0577481440429679,0.0648757084946545,0.434129999999641,
0.0416591088867188,-0.0252827695312499,-0.0170467158203103,0.0516264497003639,0.437101999999868,
-0.00622492431640631,0.00823605371093761,0.0499909306640642,0.0510458167936778,0.440229999999701,
0.015322890625,-0.0181001645507812,-0.0242293208007798,0.0339037891737512,0.443178999999873,
-0.00861912597656256,-0.00134075292968738,-0.0050757075195289,0.0100920641021608,0.4461239999996,
0.0296881005859375,0.00823605371093761,-0.0218351191406239,0.0377622605919644,0.449221999999736,
-0.0134075292968751,0.0441490786132812,0.00210689746093884,0.0461881153670418,0.452232999999978,
0.0392649072265625,-0.0252827695312499,-0.0242293208007798,0.0526118937232633,0.455325999999786,
0.063206923828125,-0.00373495458984374,-0.000287304199217076,0.0633178304216551,0.458299999999781,
-0.00383072265624995,0.0273896669921876,-0.0290177241210916,0.0400861148925637,0.461248999999953,
0.0201112939453125,-0.00612915624999988,0.0140779057617202,0.0253025321090114,0.464290999999776,
0.00335188232421879,0.00105344873046875,0.0691445439453133,0.0692337549664071,0.467308999999659,
0.00574608398437504,0.00344765039062511,0.0212605107421897,0.0222915475324221,0.470362999999907,
-0.0181959326171875,0.0321780703125001,-0.0218351191406239,0.0429335835999124,0.473359999999957,
-0.121146604003906,0.0776679018554689,-0.0242293208007798,0.145931020097775,0.476425999999719,
0.484586416015625,-0.317375372070313,-0.038594530761717,0.580552029699625,0.47941499999979,
1.38001783691406,0.0920331118164064,0.114634375488283,1.38782576857297,0.482387999999901,
-0.101992990722656,-0.396384026855469,-0.0553539423828102,0.413021701415347,0.485404999999901,
-0.571256516113281,0.470316974121094,-0.0577481440429679,0.742204090185922,0.488374999999905,
0.64739212890625,-0.0731668027343749,0.0428083256835947,0.652918449992011,0.491420999999718,
-0.209732065429688,-0.298221758789063,-0.0697191523437475,0.371193368594019,0.494354999999814,
-0.0684741674804688,0.369760504394531,-0.0601423457031238,0.38082626480971,0.497345999999652,
0.0536301171875,-0.0157059628906249,-0.0218351191406239,0.0599969929892483,0.500396999999793,
0.154186586914063,-0.245549322265625,0.0212605107421897,0.290723206102186,0.503402999999707,
-0.08044517578125,0.264415631347656,-0.0362003291015611,0.278742742030205,0.506471999999576,
-0.0756567724609375,-0.0444363828125001,-0.0505655390624984,0.101269013411538,0.509454000000005,
0.137427175292969,-0.109079827636719,-0.0553539423828102,0.183980151765293,0.512396999999964,
-0.00383072265624995,0.120763531738281,-0.0673249506835916,0.138315414970711,0.515469999999823,
-0.0541089575195313,-0.00612915624999988,0.0380199223632829,0.066414308222682,0.518459999999777,
0.0919373437499999,-0.0516189877929687,0.0475967290039083,0.115682512457362,0.521548999999595,
0.0201112939453125,0.0369664736328126,-0.0433829340820289,0.0604405764910118,0.524578999999903,
-0.090021982421875,0.0513316835937501,-0.0481713374023425,0.114277630386981,0.52760999999964,
0.063206923828125,0.0178128603515626,-0.0194409174804662,0.0684862211411972,0.53072499999962,
0.000957680664062543,0.0273896669921876,-0.0673249506835916,0.0726894765061992,0.53374599999961,
-0.04213794921875,0.0226012636718751,0.035625720703127,0.0596289850621725,0.536835999999766,
0.0201112939453125,0.0130244570312501,-0.0936611689453102,0.0966773768433731,0.539884999999686,
0.0368707055664063,-0.0157059628906249,0.0236547124023456,0.0465367770491682,0.542935999999827,
-0.0205901342773438,0.0393606752929687,0.0188663090820338,0.048261309632628,0.545991999999842,
0.0201112939453125,-0.00373495458984374,-0.0218351191406239,0.0299196667399254,0.548949999999877,
0.0536301171875,-0.0204943662109374,0.0212605107421897,0.0612226905072928,0.552063999999973,
-0.0277727392578125,0.0202070620117187,0.0212605107421897,0.0403938079171381,0.555112000000008,
-0.0469263525390625,0.00584185205078125,-0.0745075556640611,0.0882472982534693,0.558064999999715,
0.00574608398437504,0.0202070620117187,0.0882981572265642,0.0907629186722639,0.561115999999856,
0.0272938989257813,-0.0133117612304687,-0.0242293208007798,0.0388486794124958,0.564064999999573,
-0.0588973608398438,-0.00373495458984374,0.0140779057617202,0.0606715454749822,0.567155999999613,
-0.0277727392578125,-0.0181001645507812,0.0404141240234388,0.0522708563468181,0.570099999999911,
-0.0253785375976563,-0.00852335791015624,-0.0146525141601543,0.0305190755409432,0.573161999999684,
-0.0253785375976563,0.00823605371093761,-0.0050757075195289,0.0271599992295454,0.576214999999593,
0.0177170922851563,-0.00134075292968738,0.0308373173828134,0.0355897895586301,0.579205000000002,
-0.00861912597656256,-0.0276769711914062,0.0164721074218761,0.0333411815904537,0.582278999999744,
-0.0158017309570313,0.00823605371093761,-0.0050757075195289,0.0185280891834979,0.585252999999739,
0.0368707055664063,-0.0133117612304687,0.0499909306640642,0.0635275142334478,0.588330999999926,
0.0201112939453125,-0.00852335791015624,0.0164721074218761,0.0273576698045943,0.591301999999814,
-0.00861912597656256,0.0106302553710937,0.0882981572265642,0.0893524271156726,0.594312999999602,
-0.00383072265624995,0.0226012636718751,-0.0218351191406239,0.0316585530863299,0.597408999999971,
0.00814028564453129,0.0130244570312501,-0.0170467158203103,0.0229453971765986,0.600406999999905,
-0.0397437475585938,0.0345722719726562,-0.0601423457031238,0.0799494165458798,0.603439999999864,
-0.0229843359375,0.00584185205078125,-0.0194409174804662,0.0306652279683906,0.606442999999672,
0.0320823022460938,-0.0181001645507812,0.0116837041015643,0.0386445211602884,0.609420999999656,
-0.0110133276367188,-0.0348595761718749,-0.0074699091796866,0.0373133083452704,0.612428999999793,
0.015322890625,0.0178128603515626,-0.0122583124999984,0.0265019847626098,0.615455999999995,
-0.0253785375976563,-0.00852335791015624,-0.0122583124999984,0.0294445924748144,0.618497999999818,
0.00814028564453129,0.00584185205078125,0.0116837041015643,0.0153915700073348,0.621500999999625,
0.024899697265625,0.0178128603515626,-0.00986411083984251,0.0321650991057815,0.624445999999807,
0.0105344873046875,0.00344765039062511,0.0164721074218761,0.0198542700421452,0.627538999999615,
-0.0253785375976563,-0.00852335791015624,-0.0625365473632797,0.068026006473848,0.63049699999965,
-0.0110133276367188,0.00105344873046875,-0.0194409174804662,0.0223685585665178,0.633536999999706,
-0.0301669409179688,0.0202070620117187,-0.0122583124999984,0.0383227857134797,0.636487999999645,
-0.0205901342773438,-0.00373495458984374,0.0260489140625015,0.0334133123048708,0.639482999999927,
-0.0277727392578125,0.00584185205078125,0.0140779057617202,0.0316802732295909,0.642617999999857,
0.00335188232421879,0.0130244570312501,0.0571735356445338,0.0587340171806004,0.645632999999634,
-0.0277727392578125,0.0130244570312501,-0.0314119257812475,0.0439052457928199,0.648670999999922,
0.0105344873046875,-0.0372537778320312,0.0260489140625015,0.0466622471529882,0.651664999999866,
0.00335188232421879,-0.00612915624999988,0.0332315190429711,0.0339578493040368,0.654603999999836,
-0.0205901342773438,-0.0348595761718749,-0.0170467158203103,0.0439287400308751,0.657680999999684,
-0.0110133276367188,0.00823605371093761,-0.000287304199217076,0.0137553084322399,0.66068899999982,
-0.0014365209960937,-0.0181001645507812,-0.0649307490234357,0.0674216709825703,0.663765999999669,
0.024899697265625,0.0202070620117187,0.0380199223632829,0.0497376595305336,0.666798999999628,
-0.0014365209960937,0.0106302553710937,-0.0194409174804662,0.0222039454671727,0.669934000000012,
0.0105344873046875,0.00344765039062511,0.0308373173828134,0.0327689160540437,0.672970999999961,
-0.0277727392578125,-0.00134075292968738,0.00928950244140836,0.029315823711945,0.675977999999759,
-0.00622492431640631,-0.0109175595703124,-0.0146525141601543,0.0193038587057052,0.67904499999986,
-0.0134075292968751,0.0249954653320312,0.00450109912109475,0.0287192448074328,0.682177999999567,
-0.0014365209960937,-0.00373495458984374,0.00928950244140836,0.0101147582259461,0.685206999999991,
-0.00861912597656256,0.0130244570312501,-0.0338061274414052,0.0372394960511453,0.688216000000011,
-0.0134075292968751,0.0106302553710937,-0.0074699091796866,0.0186698611203725,0.691191999999774,
0.024899697265625,-0.0276769711914062,-0.0433829340820289,0.0571671988802614,0.694284999999581,
-0.0253785375976563,0.0226012636718751,-0.040988732421873,0.0532443750617206,0.697285999999622,
0.024899697265625,0.0130244570312501,0.00450109912109475,0.028458589181064,0.700357999999596,
-0.0134075292968751,0.0202070620117187,-0.0505655390624984,0.0560799512987757,0.703306999999768,
0.0105344873046875,0.0417548769531251,-0.0338061274414052,0.054747597433383,0.706300999999712,
0.0129286889648438,-0.0204943662109374,0.0284431157226575,0.0373655038337524,0.709357999999611,
0.00335188232421879,0.0226012636718751,-0.0553539423828102,0.0598841479191322,0.712356999999884,
0.00335188232421879,-0.00373495458984374,0.0140779057617202,0.0149456492511861,0.715496999999687,
0.0320823022460938,-0.0492247861328126,-0.0122583124999984,0.0600218286340767,0.718467999999575,
0.000957680664062543,-0.00612915624999988,0.0212605107421897,0.022147077134692,0.721512999999959,
0.000957680664062543,0.0321780703125001,0.0212605107421897,0.0385792000734759,0.724588999999924,
-0.00383072265624995,-0.00373495458984374,-0.0074699091796866,0.00918824602468108,0.727555999999822,
0.000957680664062543,0.0369664736328126,0.0164721074218761,0.0404816952216378,0.730657999999949,
-0.0110133276367188,0.00823605371093761,0.00210689746093884,0.0139127633227218,0.733662999999979,
-0.00622492431640631,0.0202070620117187,-0.0840843623046865,0.0867021050613895,0.736668000000009,
0.000957680664062543,0.0489374819335937,-0.0792959589843729,0.093186068709365,0.739759999999933,
-0.0349553442382813,0.00584185205078125,0.0116837041015643,0.0373163806890871,0.742727999999715,
-0.0229843359375,-0.00134075292968738,0.0404141240234388,0.0465121353787183,0.745776999999634,
-0.0158017309570313,-0.0516189877929687,-0.0146525141601543,0.0559366675198172,0.748750999999629,
-0.0014365209960937,-0.0444363828125001,-0.0146525141601543,0.0468118775658998,0.751673999999639,
-0.032561142578125,0.0106302553710937,-0.038594530761717,0.0516020168207094,0.75474099999974,
-0.0301669409179688,-0.0109175595703124,0.0308373173828134,0.0444991862250076,0.75773799999979,
-0.0158017309570313,0.00584185205078125,0.0404141240234388,0.0437849672513696,0.760818999999628,
-0.0110133276367188,0.00344765039062511,-0.038594530761717,0.0402829676608714,0.763766999999916,
0.000957680664062543,-0.00373495458984374,-0.0266235224609357,0.0269012822421248,0.766779999999926,
0.00574608398437504,0.0321780703125001,0.0523851323242202,0.0617466418424334,0.769783999999618,
0.0129286889648438,-0.0420421811523437,-0.0242293208007798,0.0502170885343153,0.772741999999653,
0.00335188232421879,-0.0204943662109374,0.0523851323242202,0.0563511867677113,0.775784999999814,
-0.032561142578125,-0.00134075292968738,-0.040988732421873,0.0523650819722776,0.778754999999819,
-0.0277727392578125,0.0202070620117187,0.00689530078125244,0.0350313512998261,0.781814999999824,
-0.0181959326171875,-0.0204943662109374,0.0140779057617202,0.0308106871204314,0.784788999999819,
-0.0014365209960937,0.0273896669921876,-0.0649307490234357,0.0704858824110157,0.78776599999992,
-0.0205901342773438,0.0106302553710937,-0.00986411083984251,0.0251844523759087,0.790858999999728,
-0.00622492431640631,0.0178128603515626,-0.0218351191406239,0.0288586227068184,0.793811000000005,
-0.0014365209960937,-0.00134075292968738,-0.00268150585937299,0.00332440741554567,0.79687100000001,
-0.00622492431640631,-0.00852335791015624,-0.0074699091796866,0.0129304623259331,0.799862999999732,
0.0129286889648438,-0.0228885678710937,0.0116837041015643,0.0287671075896109,0.802898999999798,
0.000957680664062543,-0.0204943662109374,0.00689530078125244,0.0216444304962332,0.806041999999707,
0.0129286889648438,0.0297838686523437,0.00210689746093884,0.0325371917528334,0.80906799999957,
-0.0493205541992188,0.0393606752929687,0.00689530078125244,0.0634769643169909,0.812176999999792,
-0.0205901342773438,-0.0109175595703124,-0.00986411083984251,0.0253070626345901,0.815141999999923,
-0.00383072265624995,0.0130244570312501,-0.00268150585937299,0.0138384027511067,0.818125999999666,
-0.00861912597656256,-0.0133117612304687,-0.0218351191406239,0.0269863807788689,0.821203999999852,
-0.0110133276367188,0.00344765039062511,0.00450109912109475,0.0123870727836568,0.824253999999655,
-0.0612915625,0.0226012636718751,-0.0505655390624984,0.0826096029159932,0.827300999999807,
-0.0134075292968751,-0.0324653745117187,-0.0338061274414052,0.0487505552441944,0.830239999999776,
-0.00622492431640631,0.0130244570312501,0.0308373173828134,0.034048881142737,0.833265999999639,
-0.00622492431640631,-0.0181001645507812,0.00210689746093884,0.0192562887499449,0.836362999999892,
0.0201112939453125,0.0178128603515626,-0.00986411083984251,0.028619273588261,0.839360999999826,
-0.0469263525390625,0.00344765039062511,-0.0050757075195289,0.0473258033493375,0.842396999999892,
0.00574608398437504,0.00823605371093761,-0.0242293208007798,0.0262280393539441,0.84536799999978,
-0.0349553442382813,-0.00373495458984374,-0.0338061274414052,0.0487717154628528,0.848332999999911,
-0.04213794921875,-0.0109175595703124,-0.076901757324217,0.0883667366766819,0.851333999999952,
0.024899697265625,0.0441490786132812,-0.0290177241210916,0.0584051742527085,0.854375999999775,
0.000957680664062543,0.00823605371093761,0.0116837041015643,0.0143268515214152,0.857518999999684,
0.0177170922851563,0.00105344873046875,-0.0338061274414052,0.0381819245959787,0.860508999999638,
0.0368707055664063,0.0297838686523437,0.00928950244140836,0.0482993024429299,0.863601000000017,
-0.0014365209960937,0.0226012636718751,-0.0577481440429679,0.0620300641023787,0.866566999999577,
-0.00622492431640631,0.00584185205078125,-0.0146525141601543,0.0169579801079529,0.86956599999985,
-0.0373495458984375,0.0130244570312501,0.0523851323242202,0.0656416571119623,0.872605999999905,
-0.00861912597656256,0.0297838686523437,-0.0218351191406239,0.0379228241615146,0.875609999999597,
0.0272938989257813,0.00344765039062511,-0.0194409174804662,0.0336866811109233,0.878706999999849,
-0.00622492431640631,-0.00852335791015624,-0.040988732421873,0.0423258018041184,0.88168399999995,
0.0225054956054688,0.0178128603515626,0.0212605107421897,0.0357184076264719,0.884660999999596,
-0.0229843359375,0.00584185205078125,-0.0314119257812475,0.0393588111502072,0.887719999999717,
-0.0301669409179688,0.0154186586914062,0.0188663090820338,0.0387777897586895,0.890719999999874,
0.0272938989257813,-0.00373495458984374,0.00210689746093884,0.0276287137100132,0.893761999999697,
-0.00622492431640631,0.0537258852539062,-0.0218351191406239,0.058326605052464,0.896769999999833,
-0.00383072265624995,0.00344765039062511,-0.0577481440429679,0.0579776583667576,0.899731999999858,
0.015322890625,-0.00612915624999988,0.00210689746093884,0.0166372038021278,0.902800999999727,
-0.0205901342773438,-0.00373495458984374,-0.0122583124999984,0.0242522110475491,0.905727999999726,
0.0272938989257813,-0.00373495458984374,-0.0290177241210916,0.0400116872616832,0.908794999999827,
-0.0014365209960937,0.0178128603515626,0.035625720703127,0.0398566627064246,0.911785999999665,
-0.0110133276367188,-0.00373495458984374,0.00210689746093884,0.0118187261721735,0.914723999999751,
-0.0158017309570313,-0.00852335791015624,0.0404141240234388,0.0442226610674315,0.917737999999645,
-0.00622492431640631,-0.0133117612304687,-0.00268150585937299,0.0149379765522593,0.920723999999609,
-0.0229843359375,0.0273896669921876,-0.0194409174804662,0.0406991747940063,0.923816999999872,
-0.0181959326171875,-0.0157059628906249,-0.0362003291015611,0.0434538037597659,0.926780999999664,
-0.0373495458984375,0.0202070620117187,0.0140779057617202,0.0447381421675153,0.929762999999639,
0.0392649072265625,0.0202070620117187,0.0116837041015643,0.0456789583527133,0.932834999999614,
-0.0110133276367188,0.0154186586914062,0.0116837041015643,0.0222606685211541,0.935784999999669,
0.00574608398437504,0.0106302553710937,-0.0362003291015611,0.0381639049033441,0.938904999999977,
-0.0014365209960937,0.0178128603515626,0.0212605107421897,0.0277735648323231,0.941923999999744,
-0.0253785375976563,0.00344765039062511,-0.0242293208007798,0.0352564384230559,0.944931999999881,
-0.0110133276367188,0.0178128603515626,-0.00986411083984251,0.0231493425867493,0.948016999999709,
0.00814028564453129,-0.0276769711914062,0.00928950244140836,0.0303079831119364,0.951098000000002,
0.000957680664062543,-0.0157059628906249,0.0452025273437524,0.0478629595913028,0.954221999999845,
0.0320823022460938,-0.0300711728515624,0.0332315190429711,0.0551169974869967,0.957245999999941,
0.03447650390625,0.00105344873046875,0.0164721074218761,0.0382239375096709,0.960316999999577,
-0.0205901342773438,-0.00852335791015624,-0.0314119257812475,0.0385137681993112,0.963376999999582,
0.00335188232421879,0.00584185205078125,0.0236547124023456,0.024594872826187,0.96639499999992,
0.015322890625,0.00105344873046875,0.0116837041015643,0.0192979188739706,0.969475999999759,
-0.00622492431640631,-0.0157059628906249,-0.00986411083984251,0.0195634259711169,0.9724369999999,
-0.0205901342773438,0.0106302553710937,-0.0242293208007798,0.0335263470315633,0.975515999999971,
-0.0253785375976563,0.0273896669921876,0.0164721074218761,0.0408116938077362,0.97853299999997,
0.0225054956054688,0.00105344873046875,-0.0338061274414052,0.0406258703200317,0.981501999999637,
0.0129286889648438,-0.00134075292968738,-0.0194409174804662,0.0233858480549762,0.984539999999924,
-0.00861912597656256,0.00823605371093761,-0.040988732421873,0.0426872123578151,0.987507999999707,
0.0105344873046875,0.0489374819335937,0.0811155522460947,0.0953183370446754,0.990578999999798,
0.0129286889648438,-0.0157059628906249,-0.0050757075195289,0.0209664273421859,0.99354699999958,
0.024899697265625,0.00344765039062511,-0.0362003291015611,0.0440720437941909,0.996623,
-0.0014365209960937,0.00584185205078125,-0.0362003291015611,0.0366967935250039,0.999688999999762,
-0.0181959326171875,0.0154186586914062,-0.00268150585937299,0.0240003640248468,1.00275199999987,
0.00814028564453129,0.0249954653320312,-0.0433829340820289,0.050725895823583,1.00585199999978,
0.000957680664062543,0.00584185205078125,-0.0338061274414052,0.0343205279712021,1.0088609999998,
0.0105344873046875,-0.00134075292968738,0.0140779057617202,0.0176340713344072,1.01188499999989,
0.024899697265625,-0.0133117612304687,0.00210689746093884,0.0283131935303613,1.01493599999958,
0.0105344873046875,-0.0252827695312499,0.0452025273437524,0.0528532150034944,1.01794599999994,
-0.032561142578125,0.0393606752929687,-0.0194409174804662,0.054657479250271,1.02101299999958,
-0.00861912597656256,0.0178128603515626,0.00450109912109475,0.0202940193111677,1.02403099999992,
0.0201112939453125,-0.00852335791015624,-0.0266235224609357,0.0344372432469171,1.02697599999965,
0.0272938989257813,-0.0133117612304687,-0.0721133540039052,0.0782463783910816,1.03004899999996,
0.00335188232421879,0.0178128603515626,-0.038594530761717,0.0426388427813983,1.03303899999992,
