X,Y,Z,Magnitude,Seconds,
-0.000191536132812448,-0.0163763393554688,0.014748282226563,0.022039351292858,0.0,
0.0165678754882813,0.000383072265624951,-0.023558944335937,0.028803907734536,0.00383599999997841,
0.0117794721679688,-0.018770541015625,0.0171424838867207,0.0280170292568947,0.00769900000000234,
-0.0121625444335937,0.000383072265624951,0.0243250888671884,0.0271989738750646,0.0114309999999591,
-0.0361045610351562,-0.02834734765625,0.0291134921875003,0.0543572154735437,0.0151619999999753,
0.0452982954101563,0.0458729038085937,-0.0355299526367183,0.0736113877417464,0.0189589999999953,
0.0237504804687501,-0.0139821376953125,0.00756567724609525,0.0285801499159686,0.0227339999999572,
0.00459686718750005,0.0123540805664062,-0.0475009609374997,0.0492960017097395,0.0264879999999721,
-0.00497993945312494,-0.0307415493164063,-0.0044053310546861,0.0314523384350228,0.030277999999953,
-0.0265277543945312,-0.0235589443359375,0.0482671054687511,0.059903748478471,0.0340379999999527,
0.0141736738281251,-0.0115879360351563,-0.0259531459960929,0.0317606529913266,0.0377819999999929,
0.0285388837890626,0.0243250888671875,-0.0259531459960929,0.0456042062031201,0.0415199999999913,
-0.0456813676757812,0.00756567724609369,0.0578439121093766,0.0740941630159842,0.045285999999976,
0.0117794721679688,-0.0211647426757813,0.00756567724609525,0.0253760077490545,0.0490089999999554,
0.0213562788085938,0.0243250888671875,-0.00201112939453019,0.0324321635785913,0.0528319999999667,
-0.0217393510742187,0.019536685546875,-0.0283473476562488,0.0407167482300569,0.0565499999999588,
0.0285388837890626,0.0267192905273437,-0.00679953271484202,0.0396815072716552,0.0602729999999951,
0.00938527050781254,0.0339018955078125,0.0171424838867207,0.0391316569459297,0.0639779999999632,
-0.00976834277343744,0.0171424838867187,0.0195366855468766,0.0277662989341993,0.0677519999999845,
-0.00976834277343744,-0.018770541015625,-0.0403183559570301,0.0455337628319516,0.071694999999977,
0.0022026655273438,-0.00919373437500004,-0.0331357509765606,0.0344580103889363,0.0754529999999818,
0.0357214887695313,-0.0403183559570313,-0.00679953271484202,0.0542939060312466,0.0793669999999906,
0.00459686718750005,-0.00440533105468754,-0.0115879360351556,0.0132218906059522,0.0831379999999626,
-0.0265277543945312,0.00756567724609369,-0.0139821376953115,0.0309267101376671,0.0869490000000042,
0.0165678754882813,0.0147482822265625,-0.0163763393554675,0.0275715581263548,0.0907980000000066,
0.0213562788085938,0.00995987890624994,0.0123540805664071,0.0266066371234478,0.0946019999999521,
0.00938527050781254,0.00995987890624994,0.0362960971679698,0.0387903230195197,0.0983879999999999,
0.0572693037109376,-0.00440533105468754,-0.0762313808593742,0.0954484338109535,0.102229999999963,
-0.0169509477539062,-0.0163763393554688,-0.0546835659179674,0.0595467169703404,0.105991999999958,
0.0117794721679688,0.019536685546875,-0.0331357509765606,0.0402295418752695,0.109743999999978,
-0.00497993945312494,-0.0020111293945313,0.0339018955078139,0.0343246698078957,0.11346199999997,
0.0069910688476563,0.019536685546875,0.00277727392578164,0.0209349080783502,0.117209000000003,
-0.00976834277343744,0.0219308872070312,0.0219308872070325,0.0325168901943971,0.120913999999971,
-0.000191536132812448,-0.0115879360351563,-0.00919373437499971,0.014793299138566,0.124582999999973,
-0.0025857377929687,-0.0235589443359375,-0.0187705410156234,0.0302331458531359,0.128386999999975,
0.00459686718750005,0.0147482822265625,-0.0211647426757811,0.0262028500187648,0.132093999999995,
-0.000191536132812448,0.00756567724609369,-0.0283473476562488,0.0293402160426004,0.135807999999997,
0.0022026655273438,-0.018770541015625,0.050661307128907,0.0540717392493903,0.139679000000001,
-0.024133552734375,0.0315076938476562,-0.0115879360351556,0.0413454157160785,0.143554999999992,
0.0165678754882813,0.0123540805664062,0.0554497104492206,0.0591759088966013,0.147322999999972,
0.0285388837890626,-0.0020111293945313,-0.0259531459960929,0.0386274295865215,0.151138000000003,
-0.0025857377929687,0.00756567724609369,0.000383072265625728,0.008004514756482,0.154921000000002,
0.0141736738281251,-0.0235589443359375,-0.00919373437499971,0.0289903715010334,0.158717999999965,
0.0069910688476563,-0.00679953271484379,0.000383072265625728,0.00975988899186835,0.162491999999986,
0.0285388837890626,-0.00919373437500004,0.0578439121093766,0.0651529800377615,0.166237999999964,
0.0285388837890626,0.0123540805664062,-0.00679953271484202,0.0318327636203186,0.169983999999999,
-0.0169509477539062,0.0219308872070312,-0.0139821376953115,0.0310451061839678,0.173836999999992,
0.0213562788085938,-0.0020111293945313,0.0267192905273443,0.0342644972570235,0.177597999999989,
-0.00737414111328119,-0.037924154296875,-0.0044053310546861,0.0388847833733602,0.181294999999977,
-0.000191536132812448,-0.0115879360351563,-0.00919373437499971,0.014793299138566,0.184980999999993,
-0.0193451494140625,0.0147482822265625,-0.00201112939453019,0.024408836021578,0.188694999999996,
0.0189620771484376,0.00756567724609369,-0.00201112939453019,0.0205144944713951,0.19241999999997,
-0.0169509477539062,0.0027772739257812,-0.0259531459960929,0.0311225588168613,0.196129999999982,
0.00938527050781254,-0.02834734765625,0.0339018955078139,0.0451773609308009,0.199957999999981,
0.0237504804687501,0.0219308872070312,-0.0259531459960929,0.0414561807608771,0.203690999999992,
0.0237504804687501,-0.0546835659179688,-0.0259531459960929,0.0650226382969488,0.207411999999977,
-0.0121625444335937,0.0027772739257812,-0.0379241542968742,0.0399234544684085,0.211379999999963,
-0.0361045610351562,-0.00919373437500004,0.0243250888671884,0.0444946516751844,0.215166999999951,
-0.0121625444335937,0.0291134921875,0.014748282226563,0.0348286483097624,0.218923999999959,
0.0022026655273438,0.00517147558593745,0.0267192905273443,0.0273041458655262,0.222809999999981,
0.0022026655273438,-0.0139821376953125,-0.0187705410156234,0.0235092560489529,0.226607000000001,
0.00459686718750005,0.00756567724609369,0.0362960971679698,0.0373601034495125,0.230453999999952,
0.0022026655273438,0.0243250888671875,0.00756567724609525,0.0255695357019638,0.234248999999977,
0.0213562788085938,-0.0498951625976563,0.00517147558593933,0.0545193732074473,0.237989999999968,
-0.00976834277343744,-0.0163763393554688,-0.0427125576171861,0.0467757158088071,0.241742999999985,
0.00938527050781254,-0.0020111293945313,0.0339018955078139,0.0352344499456014,0.245507999999973,
0.0069910688476563,0.0171424838867187,0.00995987890625116,0.0210223449040841,0.249390000000005,
-0.0337103593749999,-0.0163763393554688,-0.0163763393554675,0.0408993558697757,0.253068999999982,
-0.0025857377929687,-0.0211647426757813,-0.0163763393554675,0.0268852536374767,0.256804999999986,
0.0117794721679688,0.000383072265624951,-0.0475009609374997,0.0489412300509756,0.260538999999994,
-0.024133552734375,0.00517147558593745,-0.0283473476562488,0.0375864955331438,0.264260999999976,
-0.000191536132812448,0.0219308872070312,-0.0714429775390606,0.0747335235314408,0.267960999999957,
-0.00976834277343744,-0.037924154296875,0.0386902988281257,0.055050896660111,0.271748000000002,
0.0117794721679688,0.0147482822265625,0.050661307128907,0.0540632577005838,0.275494999999978,
0.0189620771484376,0.0267192905273437,0.0267192905273443,0.0422776695473217,0.279320999999982,
-0.0169509477539062,-0.018770541015625,0.0746033237304697,0.0787738773414651,0.283230000000003,
-0.0265277543945312,-0.018770541015625,0.0123540805664071,0.0347660505360777,0.286956999999973,
-0.0169509477539062,0.0123540805664062,0.0219308872070325,0.0303466925724122,0.29070999999999,
-0.0504697709960937,0.112910550292969,0.0841801303710952,0.149607100436957,0.294519999999977,
-0.227640693847656,-0.71787742578125,0.117698953613282,0.762247550093418,0.298346999999978,
0.0022026655273438,-1.06743086816406,-1.41698431054687,1.77405130883549,0.301971999999978,
0.562445854003906,1.54703734472656,-1.48641615869141,2.2179050659313,0.30498,
0.356544511230469,4.26445622900391,2.12403994482422,4.77747387274778,0.307956999999988,
-0.335379768554687,1.70026625097656,4.0130650546875,4.37127853682646,0.310991999999999,
-0.5317043046875,-3.20784715234375,-0.703512215820311,3.32684869782675,0.313918999999999,
-0.277918928710938,-3.94765546533203,-4.61803193017578,6.08173014133517,0.316962999999987,
0.411611149414063,-3.32037463037109,-1.41459010888672,3.63254409477629,0.319916999999975,
0.193738798339844,-0.251008102050781,2.83272363623047,2.85041452924589,0.322878000000003,
-0.581982539550781,3.4001494296875,1.69787204931641,3.84480029603569,0.325909999999965,
0.0261446821289063,3.03144237402344,-1.66837548486328,3.46031836250962,0.32887199999999,
0.402034342773438,1.03946659277344,-0.717877425781248,1.325696197742,0.331929000000002,
0.4642835859375,-1.07221927148438,0.986794156250001,1.52937115218073,0.334881999999993,
0.0883939252929688,-1.95567968408203,0.254168448242188,1.97410691525098,0.337847999999951,
-0.51255069140625,-1.17995834619141,-0.820828097167968,1.52603036506754,0.340841999999952,
-0.390446406738281,0.800046426757813,-0.121721212402342,0.898520303082504,0.343813999999952,
0.102759135253906,1.28367516210938,0.522319034179688,1.38967569423987,0.346881999999994,
0.425976359375,0.235014834960938,0.115304751953126,0.499983016932643,0.349864999999966,
0.246411234863281,-0.399448604980469,-0.145663229003905,0.491421876773444,0.352823999999998,
-0.131872627441406,-0.468880453125,-0.143269027343749,0.507705902454393,0.355852999999968,
-0.289889937011719,-0.217489278808594,0.00995987890625116,0.362542357753088,0.35881599999999,
-0.105536409179687,0.108122146972656,0.158400381835939,0.218904118952318,0.361864999999966,
0.04290409375,0.395426346191406,0.0746033237304697,0.40468310124643,0.364839999999958,
0.227257621582031,0.172765591796875,-0.107356002441405,0.304990635161549,0.367863999999997,
0.155431571777344,-0.210306673828125,-0.0283473476562488,0.263042663233494,0.370820999999978,
-0.1103248125,-0.21988348046875,0.0315076938476579,0.248018233216449,0.373755999999958,
-0.213275483886719,-0.0307415493164063,-0.0283473476562488,0.217336253304945,0.376766999999973,
-0.0025857377929687,0.151217776855469,-0.109750204101561,0.186865217141603,0.379723999999953,
0.145854765136719,0.136852566894531,0.0554497104492206,0.207549772265864,0.382759999999962,
0.165008378417969,-0.02834734765625,0.0650265170898443,0.179610091565334,0.385728999999969,
0.0117794721679688,-0.102567599121094,-0.0834139858398419,0.13272814843774,0.388653999999974,
-0.112719014160156,-0.1241154140625,-0.0403183559570301,0.172440662223911,0.39173599999998,
-0.0959596025390625,0.0315076938476562,0.0602381137695325,0.117599364120575,0.39480199999997,
0.04290409375,0.0793917270507812,0.0482671054687511,0.102340222077862,0.397960999999952,
0.114730143554688,0.04826710546875,0.000383072265625728,0.12447034206899,0.400990999999976,
0.0644519086914063,0.000383072265624951,0.0243250888671884,0.0688905307478661,0.40394699999996,
-0.0217393510742187,-0.0714429775390625,0.014748282226563,0.0761197100192157,0.406943999999953,
-0.0672291826171875,-0.0163763393554688,-0.00679953271484202,0.0695282757674949,0.40986399999997,
-0.0361045610351562,0.0554497104492187,-0.00679953271484202,0.0665164893961168,0.412898999999982,
0.0644519086914063,0.0291134921875,0.0386902988281257,0.0806137902888002,0.415868999999986,
0.0285388837890626,0.00517147558593745,0.00277727392578164,0.0291363226595326,0.418817999999987,
0.00938527050781254,-0.0115879360351563,-0.0259531459960929,0.0299320789647863,0.42183399999999,
-0.00737414111328119,-0.0810197841796876,-0.0139821376953115,0.0825474624698566,0.424777000000006,
-0.0337103593749999,-0.0355299526367188,-0.0738371791992183,0.0886041471696252,0.427798999999993,
-0.0193451494140625,0.0554497104492187,0.053055508789063,0.0791441230137837,0.430766000000006,
0.0620577070312501,0.0817859287109375,0.0746033237304697,0.12690844356748,0.433766999999989,
0.0452982954101563,-0.0355299526367188,-0.023558944335937,0.0622039947242703,0.436803999999995,
0.0237504804687501,-0.128903817382813,-0.0570777675781233,0.142962061436103,0.439747999999952,
0.0213562788085938,-0.0546835659179688,0.0698149204101579,0.0912168084178125,0.442797999999982,
-0.0145567460937499,-0.0618661708984375,-0.00679953271484202,0.0639183510708215,0.445720999999992,
-0.0025857377929687,0.0027772739257812,-0.100173397460937,0.100245243524367,0.448647999999991,
0.0309330854492188,0.0913627353515625,0.0123540805664071,0.0972451977887319,0.451683000000003,
0.0740287153320313,0.100939541992187,-0.0044053310546861,0.125253537966019,0.454637999999989,
-0.00737414111328119,0.134458365234375,0.0769975253906257,0.155119466395869,0.45768099999998,
-0.0217393510742187,0.146429373535156,-0.0259531459960929,0.150292137539264,0.460615999999959,
0.0381156904296875,0.0219308872070312,-0.0044053310546861,0.0441947577470528,0.463655999999958,
0.04290409375,-0.160028438964844,0.0195366855468766,0.166827889215776,0.466627999999957,
0.033327287109375,-0.169605245605469,-0.0331357509765606,0.175996094830944,0.469554999999957,
-0.0193451494140625,0.0458729038085937,-0.00201112939453019,0.0498257237892882,0.472582999999986,
-0.0193451494140625,0.0817859287109375,0.0554497104492206,0.100686857781268,0.475532999999984,
0.04290409375,0.0937569370117187,-0.0044053310546861,0.103201412005987,0.478545999999994,
0.0022026655273438,-0.00919373437500004,-0.0115879360351556,0.0149551579309034,0.481492000000003,
0.0213562788085938,-0.116932809082031,-0.0211647426757811,0.120736567852897,0.484414999999956,
-0.00976834277343744,-0.02834734765625,0.0171424838867207,0.0345377676390665,0.487450999999965,
-0.0576523759765625,0.0291134921875,-0.100173397460937,0.119189351210422,0.490394999999978,
-0.0384987626953124,0.0602381137695312,0.00756567724609525,0.0718889737843923,0.493427999999994,
0.0022026655273438,0.0171424838867187,-0.0044053310546861,0.0178360149958768,0.496387999999968,
0.0452982954101563,-0.0355299526367188,0.0123540805664071,0.0588806963959713,0.499325999999996,
-0.0121625444335937,-0.0522893642578125,0.000383072265625728,0.0536866076963896,0.502331999999967,
-0.0121625444335937,-0.00679953271484379,0.0243250888671884,0.028033392242752,0.505264999999952,
-0.05286397265625,0.0027772739257812,0.0482671054687511,0.0716381624959149,0.50829699999997,
0.0285388837890626,0.0458729038085937,0.0171424838867207,0.0566802959198749,0.511257000000001,
0.0500866987304688,-0.037924154296875,-0.0163763393554675,0.0649238273635756,0.514168999999981,
0.0165678754882813,-0.0498951625976563,-0.0211647426757811,0.0566742276645547,0.517188999999973,
0.0285388837890626,-0.00440533105468754,-0.0163763393554675,0.0331972788088488,0.520118999999966,
-0.024133552734375,-0.00679953271484379,0.0315076938476579,0.0402665715491253,0.52313799999996,
-0.00497993945312494,0.0602381137695312,0.0195366855468766,0.0635225332431359,0.526071999999999,
-0.00497993945312494,0.00517147558593745,0.000383072265625728,0.00718962454189571,0.529020000000003,
0.033327287109375,-0.0115879360351563,0.0219308872070325,0.0415445801677327,0.532157999999981,
-0.000191536132812448,0.00756567724609369,0.014748282226563,0.0165767302842444,0.535203999999965,
0.0069910688476563,0.00995987890624994,0.0291134921875003,0.0315542336115373,0.538348999999982,
-0.0337103593749999,0.0219308872070312,-0.0211647426757811,0.0454455550676983,0.541308999999956,
0.0381156904296875,-0.0331357509765625,-0.023558944335937,0.0557297739806678,0.54422999999997,
0.0069910688476563,-0.0235589443359375,0.00995987890625116,0.0265159968638492,0.547249999999963,
0.033327287109375,0.00517147558593745,-0.045106759277342,0.0563211501863265,0.550200999999959,
0.00459686718750005,0.0123540805664062,-0.00201112939453019,0.0133341342434488,0.553264999999953,
0.0237504804687501,-0.00919373437500004,-0.0044053310546861,0.0258460251480942,0.556198999999992,
-0.0025857377929687,0.00756567724609369,0.0195366855468766,0.0211094195629246,0.559221999999977,
0.0165678754882813,-0.02834734765625,0.00517147558593933,0.0332386939736727,0.562180999999953,
-0.00976834277343744,0.0123540805664062,-0.0139821376953115,0.0210604843655429,0.565093999999988,
-0.00976834277343744,0.00995987890624994,-0.045106759277342,0.0472148222581702,0.568143999999961,
0.0069910688476563,0.038690298828125,-0.0139821376953115,0.041729059917196,0.571111999999971,
0.0022026655273438,0.0123540805664062,-0.0115879360351556,0.0170808461037931,0.574175999999966,
-0.0337103593749999,-0.0475009609375,0.00517147558593933,0.0584762668004167,0.577113999999995,
0.0189620771484376,-0.0020111293945313,-0.0115879360351556,0.022313342931522,0.580030999999963,
0.00938527050781254,0.0027772739257812,-0.0690487758789047,0.0697390134955955,0.583084999999983,
0.0165678754882813,0.00995987890624994,-0.0211647426757811,0.0286642637888082,0.586038999999971,
-0.00737414111328119,-0.00679953271484379,0.0602381137695325,0.0610675196222178,0.589057999999966,
0.0069910688476563,-0.0522893642578125,0.00756567724609525,0.0532943911712195,0.592007999999964,
0.0237504804687501,-0.00440533105468754,-0.0475009609374997,0.0532900887049716,0.594926999999984,
0.0069910688476563,0.0027772739257812,0.00995987890625116,0.0124814855653757,0.59796399999999,
-0.0169509477539062,-0.0020111293945313,-0.081019784179686,0.0827984583172906,0.600879999999961,
-0.0025857377929687,0.0027772739257812,0.0171424838867207,0.0175574498204975,0.603926999999999,
-0.00497993945312494,0.0027772739257812,-0.0522893642578115,0.0525993408884723,0.606871999999953,
0.0213562788085938,-0.0594719692382813,0.0410845004882816,0.075372023656003,0.609813999999972,
0.0141736738281251,0.0458729038085937,0.0219308872070325,0.0527842793576473,0.612865999999997,
0.0141736738281251,0.0267192905273437,-0.097779195800781,0.102350303602472,0.615823999999975,
-0.0552581743164062,0.00995987890624994,-0.023558944335937,0.0608907946641631,0.618848999999955,
-0.0193451494140625,-0.0163763393554688,-0.0163763393554675,0.0301762122742949,0.621766999999977,
0.0141736738281251,0.0147482822265625,-0.104961800781249,0.10693635715538,0.624724999999955,
0.0309330854492188,-0.0235589443359375,-0.0331357509765606,0.0510867656679606,0.627758999999969,
-0.0121625444335937,0.0339018955078125,0.00517147558593933,0.0363869504885714,0.630729999999971,
0.0261446821289063,0.0362960971679687,-0.0044053310546861,0.0449483927960674,0.633770999999967,
-0.0169509477539062,0.04826710546875,-0.045106759277342,0.0682031365304497,0.636723999999958,
0.0309330854492188,-0.0020111293945313,0.000383072265625728,0.0310007606553599,0.639664999999979,
-0.00497993945312494,-0.0163763393554688,-0.0427125576171861,0.0460146375172478,0.642651000000001,
0.0309330854492188,0.00995987890624994,-0.023558944335937,0.0401382463675185,0.645613999999966,
0.0261446821289063,-0.0163763393554688,-0.00201112939453019,0.0309155872619068,0.648631999999964,
0.0117794721679688,0.0339018955078125,-0.0283473476562488,0.0457347417476345,0.651594999999986,
-0.0121625444335937,-0.018770541015625,-0.0187705410156234,0.0291992107279906,0.654573999999968,
0.0189620771484376,-0.0115879360351563,0.0171424838867207,0.0280660895948233,0.657533000000001,
0.0141736738281251,-0.0139821376953125,0.0674207187500002,0.0702989795166572,0.660468999999978,
0.04290409375,-0.0020111293945313,-0.0307415493164047,0.0528190188883065,0.663479999999993,
0.0213562788085938,0.0147482822265625,0.014748282226563,0.029851537679307,0.666453999999987,
0.0117794721679688,-0.0139821376953125,0.00277727392578164,0.0184924143784812,0.669499999999971,
-0.0145567460937499,-0.00440533105468754,-0.045106759277342,0.0476017387397076,0.672528,
0.0309330854492188,0.000383072265624951,0.014748282226563,0.0342711883132715,0.675577999999973,
-0.000191536132812448,-0.0355299526367188,0.014748282226563,0.0384698069801761,0.678651000000002,
0.0261446821289063,0.019536685546875,-0.081019784179686,0.0873466193638994,0.681617999999958,
-0.0025857377929687,0.0530555087890625,0.00277727392578164,0.0531910359295539,0.684661000000006,
-0.0193451494140625,-0.0139821376953125,-0.0187705410156234,0.030365575746267,0.687575999999979,
0.0261446821289063,-0.0139821376953125,0.000383072265625728,0.0296511605592922,0.69052499999998,
-0.0025857377929687,0.0123540805664062,-0.045106759277342,0.0468393966557995,0.693564999999978,
-0.00976834277343744,0.00756567724609369,0.0602381137695325,0.0614921974175795,0.696518999999967,
0.00938527050781254,-0.02834734765625,0.0123540805664071,0.032315301766971,0.699532999999974,
-0.0145567460937499,-0.0139821376953125,0.0769975253906257,0.0795991077063595,0.702467999999953,
0.0117794721679688,0.0339018955078125,-0.0882023891601555,0.0952247653561725,0.705425999999989,
0.0405098920898438,0.0147482822265625,-0.0307415493164047,0.052949089134168,0.708478999999954,
-0.000191536132812448,0.0171424838867187,0.000383072265625728,0.0171478332233923,0.711473999999953,
-0.0169509477539062,-0.0403183559570313,0.0339018955078139,0.0553375367707695,0.714511999999957,
-0.00497993945312494,0.0171424838867187,0.0769975253906257,0.0790397587739439,0.717464000000007,
0.0381156904296875,0.0171424838867187,-0.0834139858398419,0.0932982510255553,0.720424999999977,
-0.0217393510742187,0.0147482822265625,-0.0355299526367183,0.0441869748696369,0.723449999999957,
0.0069910688476563,-0.00679953271484379,-0.0403183559570301,0.0414810621350357,0.726389999999981,
0.0309330854492188,0.019536685546875,0.0219308872070325,0.0426556171125648,0.729436999999962,
-0.024133552734375,0.00995987890624994,-0.0618661708984369,0.0671494650540466,0.732367999999951,
-0.00497993945312494,-0.00919373437500004,0.0458729038085952,0.0470494192583445,0.735285999999974,
-0.0121625444335937,0.0291134921875,-0.0211647426757811,0.0379930157658324,0.738301999999976,
-0.0217393510742187,0.0267192905273437,-0.0762313808593742,0.0836525151991242,0.74124599999999,
-0.00976834277343744,0.0123540805664062,-0.0187705410156234,0.0245025924587547,0.744267999999977,
0.0189620771484376,0.00517147558593745,0.0123540805664071,0.0232148193221598,0.747230000000002,
0.033327287109375,0.0123540805664062,-0.0475009609374997,0.0593268291980773,0.750241999999957,
-0.00497993945312494,0.0147482822265625,0.00756567724609525,0.0173075445336192,0.753206999999975,
0.00938527050781254,-0.0139821376953125,0.00277727392578164,0.0170674171301437,0.756134999999972,
-0.0193451494140625,0.019536685546875,-0.0307415493164047,0.0412426931999211,0.759153999999967,
0.0141736738281251,0.0123540805664062,-0.0403183559570301,0.0444869212635031,0.762095999999985,
0.0213562788085938,-0.00679953271484379,-0.0283473476562488,0.0361371887234585,0.765107999999998,
-0.0025857377929687,-0.00440533105468754,-0.0044053310546861,0.00674536309895641,0.768038999999987,
-0.00497993945312494,0.0219308872070312,-0.0403183559570301,0.0461663669538995,0.770960000000002,
0.0309330854492188,0.00756567724609369,0.0219308872070325,0.0386659936027553,0.774013999999966,
0.0405098920898438,0.0219308872070312,-0.0211647426757811,0.0506947877335564,0.776953999999989,
0.0261446821289063,-0.0211647426757813,-0.00679953271484202,0.0343179891790559,0.779978999999969,
-0.0193451494140625,0.0434787021484375,0.0195366855468766,0.0514423408149598,0.782937000000004,
-0.0169509477539062,0.0434787021484375,-0.00201112939453019,0.0467094938070382,0.785875999999973,
-0.0408929643554687,-0.02834734765625,0.000383072265625728,0.0497589529359554,0.788885999999991,
0.033327287109375,-0.00919373437500004,-0.0139821376953115,0.0372925326621755,0.791836999999987,
-0.000191536132812448,0.0243250888671875,0.0243250888671884,0.0344014037923361,0.794869000000006,
0.0117794721679688,0.00517147558593745,0.0362960971679698,0.0385085288464595,0.797839999999951,
-0.0217393510742187,0.0027772739257812,0.0219308872070325,0.0310044585386447,0.800768000000005,
-0.000191536132812448,0.00995987890624994,0.0339018955078139,0.0353351721792899,0.803799999999967,
-0.0265277543945312,-0.0115879360351563,0.0219308872070325,0.0363175691430336,0.806728999999962,
0.0237504804687501,0.0434787021484375,-0.059471969238281,0.0774041212603571,0.809868999999992,
0.033327287109375,0.019536685546875,-0.0211647426757811,0.0440492506265455,0.812930999999992,
-0.00737414111328119,0.00517147558593745,0.0339018955078139,0.0350779223432241,0.815988000000004,
0.00938527050781254,0.0267192905273437,-0.0283473476562488,0.0400696382306311,0.819066999999961,
0.0476924970703125,0.019536685546875,-0.00201112939453019,0.0515781058240877,0.822023999999999,
0.00938527050781254,-0.00440533105468754,-0.0427125576171861,0.0439528477167026,0.825031999999965,
-0.0337103593749999,-0.0259531459960938,-0.0355299526367183,0.0554286176144927,0.827950999999985,
0.0405098920898438,0.0123540805664062,0.0219308872070325,0.0476931701343036,0.830928999999969,
0.033327287109375,0.0362960971679687,-0.0163763393554675,0.0519259013054446,0.833949999999959,
0.0141736738281251,0.000383072265624951,0.00517147558593933,0.0150925125106039,0.836921999999959,
-0.0145567460937499,-0.0020111293945313,-0.0044053310546861,0.0153411355505658,0.839912999999967,
-0.0456813676757812,-0.0403183559570313,0.00277727392578164,0.0609923801000306,0.842851999999993,
-0.0145567460937499,0.0147482822265625,-0.0139821376953115,0.0249982171364858,0.845871999999986,
-0.000191536132812448,-0.0139821376953125,-0.00201112939453019,0.0141273317389518,0.848810999999955,
-0.000191536132812448,-0.0020111293945313,0.00756567724609525,0.00783075984332325,0.85177699999997,
0.0261446821289063,0.00517147558593745,-0.00919373437499971,0.0281924336501046,0.854827999999998,
-0.00497993945312494,0.00995987890624994,-0.0618661708984369,0.0628603379438781,0.857776000000001,
-0.00737414111328119,0.0171424838867187,-0.0139821376953115,0.0233182950812371,0.860786999999959,
-0.0337103593749999,0.0434787021484375,-0.0044053310546861,0.0551923256567937,0.863742999999999,
0.0141736738281251,-0.00440533105468754,-0.0379241542968742,0.0407251942981319,0.866668000000004,
-0.0408929643554687,0.00995987890624994,-0.0762313808593742,0.0870784539902481,0.869690999999989,
0.00938527050781254,0.0123540805664062,-0.0570777675781233,0.0591487798762438,0.872650999999962,
0.00938527050781254,0.0147482822265625,-0.0475009609374997,0.0506155748868372,0.875698,
0.0213562788085938,-0.02834734765625,-0.0570777675781233,0.0672126053311205,0.878632999999979,
-0.0289219560546874,0.0315076938476562,-0.0044053310546861,0.0429955957666397,0.88158199999998,
-0.0145567460937499,-0.0355299526367188,-0.0355299526367183,0.0523130378163306,0.884577999999976,
0.033327287109375,0.019536685546875,-0.0403183559570301,0.0558386960387327,0.887532999999962,
-0.00737414111328119,0.019536685546875,-0.0690487758789047,0.0721373238323357,0.890552999999954,
-0.0217393510742187,-0.0211647426757813,-0.023558944335937,0.0384131432700313,0.893463999999994,
0.0189620771484376,0.0171424838867187,0.0674207187500002,0.0721039419196783,0.896416999999985,
0.00459686718750005,-0.0331357509765625,-0.0355299526367183,0.0488004786358467,0.899437999999975,
0.0069910688476563,-0.018770541015625,0.0195366855468766,0.0279801775514286,0.902384999999981,
-0.0361045610351562,0.00995987890624994,0.0339018955078139,0.050518086210695,0.905427999999972,
0.00459686718750005,0.0123540805664062,0.0698149204101579,0.0710484173395682,0.908390999999995,
-0.0361045610351562,-0.0139821376953125,0.0243250888671884,0.0457247137822492,0.91129699999999,
-0.000191536132812448,-0.018770541015625,0.0219308872070325,0.0288675199800228,0.914306999999951,
-0.000191536132812448,0.00517147558593745,-0.0714429775390606,0.0716301604456729,0.917241999999987,
0.0189620771484376,0.00756567724609369,-0.0187705410156234,0.0277332481327838,0.920278999999994,
0.0117794721679688,-0.0307415493164063,0.014748282226563,0.036073683587393,0.923233999999979,
0.0213562788085938,0.00517147558593745,-0.0283473476562488,0.0358665153510984,0.926180999999985,
-0.00497993945312494,-0.0163763393554688,-0.0379241542968742,0.0416080012350436,0.929169000000002,
-0.0265277543945312,-0.0163763393554688,-0.0163763393554675,0.0352149220443192,0.932078999999987,
-0.0361045610351562,0.0315076938476562,0.0410845004882816,0.0631206010705741,0.935125999999968,
-0.00497993945312494,0.0291134921875,0.0698149204101579,0.0758057935529013,0.938063999999997,
0.0285388837890626,-0.018770541015625,-0.059471969238281,0.0685836439905603,0.941057999999998,
0.0189620771484376,-0.0020111293945313,-0.00919373437499971,0.0211690756289191,0.944004000000007,
0.0381156904296875,0.0410845004882812,-0.0283473476562488,0.0628037750174907,0.946992999999964,
0.0189620771484376,0.000383072265624951,0.00995987890625116,0.0214220984492924,0.950151000000005,
0.00459686718750005,-0.00919373437500004,0.00995987890625116,0.0143127610028519,0.953196999999989,
0.0189620771484376,0.0339018955078125,-0.0139821376953115,0.0412843682685903,0.956297000000006,
0.0022026655273438,-0.00919373437500004,-0.045106759277342,0.0460868334742959,0.959246000000007,
0.0309330854492188,0.0147482822265625,0.0291134921875003,0.0449662432430668,0.962197000000003,
0.00938527050781254,0.057843912109375,0.00995987890625116,0.0594407323175707,0.965233999999953,
0.0117794721679688,-0.00440533105468754,-0.0331357509765606,0.0354420780857724,0.968164999999999,
0.0141736738281251,-0.0139821376953125,0.0195366855468766,0.0278940009047518,0.971221999999955,
0.00459686718750005,-0.0235589443359375,0.0434787021484393,0.049664399590411,0.974170999999956,
0.0261446821289063,0.0123540805664062,-0.0355299526367183,0.045809881517313,0.977112999999974,
-0.0025857377929687,0.0339018955078125,-0.0115879360351556,0.0359208131939058,0.980146999999988,
0.00459686718750005,-0.00440533105468754,0.0291134921875003,0.0298015697068552,0.98312199999998,
0.0405098920898438,0.0123540805664062,-0.023558944335937,0.0484633729944153,0.986174000000005,
0.0524809003906251,-0.00919373437500004,-0.0283473476562488,0.0603518166811323,0.989143999999953,
0.0213562788085938,0.00756567724609369,0.0171424838867207,0.0284111750997549,0.992125999999985,
0.0165678754882813,-0.0211647426757813,-0.0690487758789047,0.0740957102746336,0.995131999999955,
0.0069910688476563,0.0171424838867187,-0.0666545742187488,0.0691778292643082,0.998107000000005,
0.0022026655273438,0.000383072265624951,-0.0163763393554675,0.0165282476527753,1.001148,
-0.024133552734375,0.000383072265624951,-0.0283473476562488,0.0372309982553219,1.00407899999999,
-0.00497993945312494,0.000383072265624951,-0.0187705410156234,0.0194236904664557,1.00700399999999,
0.00459686718750005,-0.0307415493164063,0.0315076938476579,0.0442595618359502,1.01003599999996,
-0.0217393510742187,-0.00919373437500004,-0.045106759277342,0.0509091727431341,1.012944,
