X,Y,Z,Magnitude,Seconds,
-0.161848032226563,0.0537258852539062,0.0332315190429711,0.173740007309283,0.0,
-0.15705962890625,0.144705548339844,0.0787213505859388,0.227605961676267,0.00295600000026752,
-0.209732065429688,0.159070758300781,0.0978749638671896,0.280839017887102,0.00597300000026735,
-0.274375510253906,0.123157733398437,0.0571735356445338,0.306134874035986,0.00893799999994371,
-0.200155258789062,0.211743194824219,0.071538745605471,0.300025166107925,0.0119750000003478,
-0.0181959326171875,0.0633026918945312,0.12899958544922,0.144842037444154,0.0149520000004486,
0.015322890625,-0.0133117612304687,0.12899958544922,0.130586703037612,0.0178880000003119,
0.120667763671875,-0.0995030209960938,0.227161853515627,0.275797150220186,0.0209300000005896,
0.281079274902344,-0.0611957944335937,0.301382104980471,0.416631320520248,0.0238859999999477,
0.41754876953125,-0.133021844238281,0.337295129882815,0.5530007148497,0.0269200000002456,
0.611479104003906,-0.269491338867187,0.476158826171877,0.820523920491797,0.029884000000493,
0.956244143066406,-0.396384026855469,0.68445437060547,1.24096774467989,0.0328310000004421,
1.39677724853516,-0.520882513183594,0.933451343261721,1.75887369779726,0.035862000000634,
1.8923769921875,-0.853676543945313,1.05794982958985,2.33004552834751,0.0388360000006287,
2.15813337646484,-1.05718368505859,1.06752663623047,2.62959885412721,0.0419240000001082,
2.49332160888672,-1.26547922949219,1.38595545703125,3.12073114101364,0.0449330000001282,
2.3903709375,-1.10027931494141,1.15132369433594,2.87228724866994,0.0478920000005019,
1.91871321044922,-0.812975115722656,1.11780487109375,2.36471491993803,0.050930000000335,
1.37283523193359,-0.465815875,0.780222437011721,1.64633169642593,0.0539410000001226,
1.14299187255859,-0.173723272460937,1.31173520556641,1.74850205766304,0.0570830000006026,
1.22918313232422,0.230896808105469,1.1920251225586,1.7277524132799,0.0601759999999558,
1.19327010742188,0.879725458007813,1.77142192431641,2.30992338935353,0.0633200000002034,
1.26749035888672,1.63150477929688,2.35081872607422,3.12964667935544,0.0663279999998849,
1.62662060791016,2.54848401513672,3.73466728564453,4.80503955363001,0.069311000000198,
2.3520637109375,3.32420535302734,4.96289273730469,6.41972345599064,0.0723820000002888,
4.15010915771484,3.3265995546875,5.68594163867188,7.78585916495915,0.0754200000001219,
4.55712343994141,2.86212443261719,6.00915886279297,8.06654328401769,0.0784890000004452,
3.75267168212891,2.15344074121094,5.28371575976563,6.82916568914205,0.0814909999999145,
3.03441118408203,1.57404393945313,3.81367594042969,5.12146363220745,0.0844710000001214,
1.73435968261719,2.07203788476563,3.42820947314453,4.36508472957283,0.0875430000005508,
0.568383474121094,2.18935376611328,2.91106191455078,3.6865446094136,0.0905529999999999,
-0.0972045874023437,2.31145805078125,2.29335788623047,3.25757232408875,0.0936259999998583,
-1.42598650878906,1.77755108056641,2.40827956591797,3.31555965636109,0.0966220000000249,
-3.83215917724609,0.326664874511719,4.64206971484375,6.02834679970062,0.0996119999999792,
-8.12735695556641,-2.05556577734375,9.37480784655762,12.5764185644427,0.102622000000338,
-10.710700546875,-4.04275315527344,9.37480784655762,14.7969585198844,0.105575000000499,
-11.7737260839844,-4.39709500097656,9.37480784655762,15.6793524263021,0.108589999999822,
-10.8663236547852,-4.86396432470703,9.37480784655762,15.1532887810681,0.111550999999963,
-9.30769837402344,-5.98684490332031,9.37480784655762,14.5038816555462,0.114483000000291,
-11.4696624731445,-9.12564327978516,1.36919604541016,14.720910988404,0.117503999999826,
-12.7936559912109,-9.55899378027344,-5.40878885449219,16.8614054154816,0.120450000000346,
-11.9341375952148,-6.61891414160156,-7.53244572705078,15.5875399979079,0.123470000000452,
-8.05792510742188,-2.4194844296875,-9.36400999707031,12.5884369628462,0.12639500000023,
-6.573520078125,-1.01887645849609,-10.5515340205078,12.4733373898538,0.12934899999982,
-4.95743395751953,1.83740612207031,-10.508438390625,11.7634812071151,0.13236599999982,
-3.25515657714844,3.56362551904297,-9.31133756054687,10.4879205921945,0.135339999999815,
-2.43394540771484,4.91874365869141,-6.60828388623047,8.58996771522841,0.138377000000219,
-2.3214179296875,4.41835551171875,-4.18295760449219,6.51214104217569,0.141367000000173,
-2.45309902099609,3.16858224511719,-2.6554569453125,4.8071883507194,0.144329000000653,
-2.34057154296875,2.41201452050781,-1.68101686962891,3.75791257360687,0.147396000000299,
-2.32860053466797,2.04091326318359,-0.950785363281248,3.23908940983797,0.1503730000004,
-1.37331407226563,1.68657141748047,-0.414484191406249,2.21411649022145,0.153440000000046,
-0.621534750976562,1.49024688134766,-0.855017296874998,1.82707301222292,0.156421000000591,
0.384029946289063,1.449545453125,-1.78875594433594,2.33416127307418,0.159483999999793,
0.415154567871094,1.62432217431641,-2.74404240673828,3.21567171383806,0.162471000000551,
0.68569935546875,1.756003265625,-3.65862744091797,4.115736365028,0.165461999999934,
0.525287844238281,1.99302922998047,-4.60433709667969,5.04460235605561,0.168523000000278,
0.537258852539062,2.57721443505859,-4.75756600292969,5.43738131743014,0.171535000000404,
0.5133168359375,3.02253594384766,-4.82939205273437,5.72033611817714,0.17459400000007,
0.501345827636719,3.11351560693359,-4.58278928173828,5.56302837259735,0.177615000000515,
0.750342800292969,2.73762594628906,-4.44631978710937,5.27516538024989,0.18061200000011,
1.37762363525391,2.30666964746094,-3.86931718701172,4.71064615914123,0.183692000000519,
2.22995942626953,2.2923044375,-2.74164820507812,4.21236436664715,0.18669300000056,
3.59944277587891,1.93317418847656,-0.893324523437498,4.1822457417031,0.189758000000438,
3.7311238671875,3.01774754052734,-0.428849401367186,4.81788307659163,0.192754000000605,
4.49008579345703,2.57721443505859,0.318141516601564,5.18691803496687,0.195816000000377,
3.88195857177734,3.00817073388672,0.938239746582033,4.99989873290195,0.198970000000372,
3.59226017089844,2.28033342919922,0.696425378906252,4.31152664286462,0.202065000000403,
3.06553580566406,1.38729620996094,0.856836890136721,3.47221399200561,0.205191000000013,
2.28023766113281,1.11435722070313,0.68445437060547,2.62864101619498,0.208196999999927,
1.90913640380859,0.783957391601563,0.445034204589845,2.11126654959739,0.211173000000599,
1.25312514892578,0.611574872070313,1.0986512578125,1.77521295886186,0.214253000000099,
2.27784345947266,-0.202453692382813,0.983729578125002,2.48943411366917,0.217271999999866,
1.63140901123047,0.0680910952148439,1.45299310351563,2.18570828749756,0.220352000000275,
1.45423808837891,-0.123445037597656,2.04675511523438,2.51381256197385,0.223359000000528,
1.76069590087891,-0.518488311523438,2.27659847460938,2.92434279781833,0.226355000000694,
1.92829001708984,-0.822551922363281,2.42982738085938,3.20919852233635,0.229420000000573,
1.95702043701172,-0.846493938964844,2.60699830371094,3.36792534583792,0.23244700000032,
2.02884648681641,-0.863253350585938,2.6309403203125,3.43267699957499,0.235524000000623,
-0.643082565917969,-0.0588015927734374,0.0571735356445338,0.648291313437431,17.3708409999999,
-0.640688364257813,-0.0348595761718749,-0.0170467158203103,0.64186241568306,17.3748480000004,
-0.65505357421875,-0.0276769711914062,-0.00268150585937299,0.655643493298579,17.3777630000004,
-0.667024582519531,-0.0540131894531251,-0.00986411083984251,0.669280598107337,17.3806709999999,
-0.6742071875,-0.0683783994140624,0.0499909306640642,0.679507196673993,17.3837110000004,
-0.657447775878906,-0.0803494077148437,-0.0074699091796866,0.662381615740805,17.3866900000003,
-0.647870969238281,-0.0947146176757813,-0.0194409174804662,0.655046258561716,17.3897700000007,
-0.669418784179688,-0.0109175595703124,0.0284431157226575,0.670111716470914,17.3927880000001,
-0.640688364257813,-0.0468305844726562,-0.0792959589843729,0.647273151651336,17.3957490000003,
-0.645476767578125,-0.0300711728515624,0.0116837041015643,0.646282478380241,17.3988049999998,
-0.640688364257813,-0.0516189877929687,-0.0194409174804662,0.643058356036685,17.4017530000001,
-0.664630380859375,-0.0659841977539062,-0.0338061274414052,0.668752803184472,17.4047980000005,
-0.667024582519531,-0.0444363828125001,-0.0074699091796866,0.668544826728894,17.4077720000005,
-0.659841977539063,-0.0348595761718749,-0.0050757075195289,0.660781649397414,17.4106710000005,
-0.638294162597656,-0.0492247861328126,-0.00268150585937299,0.640195054690161,17.4136600000002,
-0.640688364257813,-0.0564073911132812,0.0212605107421897,0.643517974251362,17.4166500000001,
-0.702937607421875,-0.0468305844726562,0.0140779057617202,0.704636481457408,17.4196980000006,
-0.659841977539063,-0.0516189877929687,-0.0122583124999984,0.661971465736084,17.4226130000006,
-0.650265170898438,-0.0252827695312499,0.0140779057617202,0.650908748097136,17.4255170000006,
-0.6742071875,0.00105344873046875,-0.0290177241210916,0.67483217894826,17.4285120000004,
-0.662236179199219,-0.0588015927734374,-0.0481713374023425,0.666584474841864,17.431474,
-0.647870969238281,-0.0396479794921876,-0.0697191523437475,0.652816601552912,17.4344790000005,
-0.657447775878906,-0.0875320126953125,-0.0242293208007798,0.663691563334265,17.4374680000001,
-0.683783994140625,-0.0635899960937499,0.0188663090820338,0.686993577746174,17.4405240000006,
-0.676601389160156,-0.0420421811523437,0.0212605107421897,0.678239628838155,17.4434710000005,
-0.614352145996094,-0.0468305844726562,0.0571735356445338,0.618781444542541,17.4464390000003,
-0.633505759277344,-0.0635899960937499,-0.0290177241210916,0.637350188635678,17.4494510000004,
-0.652659372558594,-0.0444363828125001,0.0380199223632829,0.655274265634281,17.4524190000002,
-0.683783994140625,-0.0492247861328126,-0.0266235224609357,0.686070289519197,17.4553990000004,
-0.647870969238281,-0.0540131894531251,-0.0122583124999984,0.650234176002767,17.4583739999998,
-0.6358999609375,-0.0540131894531251,0.0428083256835947,0.6396239033237,17.461319,
-0.621534750976562,-0.0324653745117187,0.0428083256835947,0.623852546649861,17.4643480000004,
-0.647870969238281,-0.0420421811523437,-0.0122583124999984,0.649349369756485,17.4672909999999,
-0.657447775878906,-0.0396479794921876,-0.0146525141601543,0.658805158189542,17.4703120000004,
-0.65505357421875,-0.0372537778320312,-0.0122583124999984,0.656226557893587,17.4732199999999,
-0.6358999609375,-0.0109175595703124,0.0523851323242202,0.638147440264326,17.4761390000003,
-0.611957944335938,-0.0827436093749999,-0.0194409174804662,0.617832485226175,17.4791730000006,
-0.645476767578125,-0.0181001645507812,-0.038594530761717,0.646882841977268,17.4821360000005,
-0.662236179199219,-0.0252827695312499,0.0116837041015643,0.66282160829071,17.4851370000006,
-0.650265170898438,-0.0324653745117187,-0.0888727656249984,0.657112746410839,17.4880480000002,
-0.623928952636719,-0.0540131894531251,-0.0050757075195289,0.62628310322096,17.490949,
-0.678995590820313,-0.0995030209960938,0.0475967290039083,0.687896294620523,17.4939780000004,
-0.678995590820313,-0.0444363828125001,0.0188663090820338,0.68070958718771,17.4969000000001,
-0.65505357421875,-0.0588015927734374,-0.00986411083984251,0.657761440867518,17.4998919999998,
-0.638294162597656,-0.0588015927734374,-0.0194409174804662,0.641291676689647,17.5028659999998,
-0.585621726074219,-0.0324653745117187,0.0428083256835947,0.588081082283869,17.5058669999999,
-0.647870969238281,-0.0420421811523437,-0.0050757075195289,0.649253494857456,17.5088740000001,
-0.607169541015625,-0.0540131894531251,-0.038594530761717,0.610787863318142,17.5118510000002,
-0.676601389160156,-0.00612915624999988,-0.0122583124999984,0.676740181011249,17.5148610000006,
-0.647870969238281,-0.0659841977539062,-0.0194409174804662,0.651512591135013,17.517785,
-0.626323154296875,-0.0492247861328126,0.00689530078125244,0.628292382852977,17.5207780000001,
-0.645476767578125,-0.0588015927734374,-0.0792959589843729,0.652982184984437,17.5238239999999,
-0.669418784179688,-0.0396479794921876,0.0188663090820338,0.67085721916724,17.5268249999999,
-0.695755002441406,-0.0707726010742187,0.0284431157226575,0.699923421037662,17.5298630000007,
-0.640688364257813,-0.0492247861328126,-0.0242293208007798,0.643033218155672,17.5328770000006,
-0.662236179199219,-0.0372537778320312,0.00210689746093884,0.663286544428612,17.5359589999998,
-0.638294162597656,-0.0875320126953125,-0.0050757075195289,0.644288021043042,17.5389420000001,
-0.626323154296875,-0.0540131894531251,0.0523851323242202,0.630826695956911,17.5419240000001,
-0.640688364257813,-0.0564073911132812,0.0164721074218761,0.643377575138018,17.5450850000007,
-0.6358999609375,0.00105344873046875,-0.00268150585937299,0.635906487266969,17.5480779999998,
-0.65505357421875,-0.0372537778320312,-0.0242293208007798,0.656559280679197,17.5511270000006,
-0.652659372558594,-0.0540131894531251,0.0691445439453133,0.658530674441884,17.5540940000001,
-0.667024582519531,-0.0611957944335937,-0.00986411083984251,0.66989851442168,17.5570750000006,
-0.643082565917969,-0.0492247861328126,-0.0122583124999984,0.645080252668463,17.5601240000005,
-0.626323154296875,-0.0133117612304687,0.0188663090820338,0.626748621230093,17.5630570000003,
-0.6358999609375,-0.0755610043945312,-0.0074699091796866,0.640417071328191,17.5660480000006,
-0.681389792480469,-0.0468305844726562,0.0380199223632829,0.684054579280876,17.5690199999999,
-0.667024582519531,-0.0707726010742187,0.0380199223632829,0.671845271803468,17.5719570000001,
-0.640688364257813,-0.0611957944335937,0.0140779057617202,0.64375825647703,17.5749820000001,
-0.631111557617188,-0.0444363828125001,0.0212605107421897,0.633031120556068,17.5780130000003,
-0.671812985839844,-0.0588015927734374,0.0116837041015643,0.674482634466798,17.5810320000001,
-0.645476767578125,-0.0659841977539062,0.0452025273437524,0.650413284239025,17.5840440000002,
-0.695755002441406,-0.0348595761718749,0.0140779057617202,0.696769977039597,17.5869870000006,
-0.686178195800781,-0.0635899960937499,-0.0218351191406239,0.689464267691592,17.5900339999998,
-0.669418784179688,-0.0468305844726562,0.0260489140625015,0.671560241660044,17.5930020000005,
-0.664630380859375,-0.0228885678710937,-0.00986411083984251,0.665097534488836,17.5960150000001,
-0.626323154296875,-0.0372537778320312,-0.0122583124999984,0.627549841683107,17.5990019999999,
-0.607169541015625,-0.0420421811523437,-0.0433829340820289,0.610167579852238,17.6019560000004,
-0.667024582519531,-0.0157059628906249,-0.040988732421873,0.668467311946686,17.6049950000006,
-0.659841977539063,-0.0276769711914062,0.0116837041015643,0.660525517295527,17.6079540000001,
-0.676601389160156,-0.0611957944335937,-0.0074699091796866,0.679404271853633,17.6110330000001,
-0.643082565917969,-0.0252827695312499,-0.040988732421873,0.644883308210378,17.6139520000006,
-0.664630380859375,-0.0588015927734374,-0.0170467158203103,0.667444200659673,17.6169380000001,
-0.662236179199219,-0.0444363828125001,0.0428083256835947,0.66510442932345,17.6200180000005,
-0.650265170898438,-0.0181001645507812,-0.040988732421873,0.651807091573796,17.622969,
-0.643082565917969,-0.0492247861328126,0.0260489140625015,0.645489590993763,17.6260110000003,
-0.628717355957031,-0.0300711728515624,-0.0433829340820289,0.63092936854123,17.6289390000002,
-0.631111557617188,-0.0252827695312499,-0.040988732421873,0.632946358531839,17.6319480000002,
-0.6358999609375,-0.0540131894531251,-0.0170467158203103,0.638417399101459,17.634916,
-0.638294162597656,-0.0468305844726562,0.0188663090820338,0.640287809712689,17.6378439999999,
-0.669418784179688,-0.0492247861328126,-0.0362003291015611,0.672201645348696,17.6409210000002,
-0.671812985839844,-0.0827436093749999,0.00928950244140836,0.6769530912043,17.6439010000004,
-0.628717355957031,-0.0779552060546874,-0.0074699091796866,0.633575826066448,17.646917,
-0.650265170898438,-0.0683783994140624,-0.0625365473632797,0.656834239170069,17.6499260000001,
-0.657447775878906,-0.0444363828125001,-0.0577481440429679,0.66147336927951,17.6528580000004,
-0.614352145996094,-0.0588015927734374,-0.0529597407226543,0.619427897934949,17.6559040000002,
-0.638294162597656,-0.0492247861328126,-0.0170467158203103,0.640416355269229,17.6588510000001,
-0.659841977539063,-0.0564073911132812,-0.0625365473632797,0.665194745056654,17.661932,
-0.65505357421875,-0.0588015927734374,-0.0194409174804662,0.657974742434643,17.6649299999999,
-0.633505759277344,-0.0324653745117187,0.0284431157226575,0.634974454928513,17.6679560000002,
-0.638294162597656,-0.0396479794921876,-0.0290177241210916,0.640182340116645,17.6710280000007,
-0.633505759277344,-0.0348595761718749,-0.0218351191406239,0.634839751052446,17.6740090000003,
-0.664630380859375,-0.0468305844726562,-0.0050757075195289,0.666297538349162,17.677068,
-0.662236179199219,-0.0635899960937499,-0.040988732421873,0.666543712616911,17.6800380000004,
-0.662236179199219,-0.0516189877929687,-0.0146525141601543,0.664406481841022,17.6830110000001,
-0.650265170898438,-0.0444363828125001,0.0188663090820338,0.652054692659605,17.6861500000005,
-0.638294162597656,-0.0899262143554688,-0.0122583124999984,0.644714222163508,17.6890760000006,
-0.638294162597656,-0.0899262143554688,0.0308373173828134,0.645334875996887,17.6921650000004,
-0.643082565917969,-0.0300711728515624,0.0116837041015643,0.643891272627483,17.6951480000007,
-0.631111557617188,-0.0947146176757813,0.0499909306640642,0.640134165709128,17.698144,
-0.619140549316406,-0.0396479794921876,-0.0601423457031238,0.623317001077548,17.701188,
-0.671812985839844,-0.0396479794921876,0.0164721074218761,0.673183467224038,17.7041470000004,
-0.6742071875,-0.0899262143554688,0.0212605107421897,0.68051015056499,17.7071800000003,
-0.681389792480469,-0.0300711728515624,0.00210689746093884,0.682056276087359,17.7101680000005,
-0.631111557617188,-0.0947146176757813,0.0308373173828134,0.63892378035477,17.7130950000001,
-0.647870969238281,-0.104291424316406,-0.0122583124999984,0.656325955751441,17.7161800000003,
-0.626323154296875,-0.0683783994140624,0.0667503422851574,0.633570759513096,17.7192009999999,
-0.647870969238281,-0.0827436093749999,-0.0170467158203103,0.653355866426874,17.7222529999999,
-0.640688364257813,-0.0564073911132812,-0.040988732421873,0.644471450145862,17.7252400000007,
-0.647870969238281,-0.0516189877929687,-0.0218351191406239,0.65029076966416,17.7282370000003,
-0.664630380859375,-0.0157059628906249,-0.0338061274414052,0.665674901648082,17.731229,
-0.662236179199219,-0.0252827695312499,-0.0122583124999984,0.662831986027302,17.734168,
-0.657447775878906,-0.0324653745117187,-0.0194409174804662,0.658535897140611,17.7372210000003,
-0.619140549316406,-0.0181001645507812,-0.0242293208007798,0.61987877504481,17.7402220000004,
-0.664630380859375,-0.0659841977539062,0.0116837041015643,0.667999974892243,17.7432520000002,
-0.662236179199219,-0.0468305844726562,0.00928950244140836,0.66395493486986,17.7462270000005,
-0.628717355957031,-0.0611957944335937,-0.0625365473632797,0.634776542331299,17.7491710000004,
-0.638294162597656,-0.0348595761718749,-0.0338061274414052,0.640138643037358,17.7522100000006,
-0.633505759277344,-0.0348595761718749,0.0547793339843761,0.636824553955184,17.7551210000001,
-0.652659372558594,-0.0564073911132812,-0.0242293208007798,0.655540319390998,17.7581980000004,
-0.729273825683594,-0.0588015927734374,0.0428083256835947,0.732891869846917,17.76116,
-0.647870969238281,-0.0516189877929687,0.0475967290039083,0.65166460798051,17.7641170000006,
-0.650265170898438,-0.0611957944335937,0.00689530078125244,0.65317475679392,17.7671390000005,
-0.626323154296875,-0.0252827695312499,0.0332315190429711,0.627713506228328,17.77009,
-0.6742071875,-0.0228885678710937,-0.038594530761717,0.675698716900193,17.7731250000006,
-0.645476767578125,-0.0204943662109374,0.0116837041015643,0.645907722102024,17.7760920000001,
-0.619140549316406,-0.0348595761718749,-0.0242293208007798,0.620594287634982,17.7789980000007,
-0.604775339355469,-0.092320416015625,0.0188663090820338,0.612072061055068,17.7820970000002,
-0.662236179199219,-0.0635899960937499,0.0308373173828134,0.665996535116326,17.7851250000003,
-0.667024582519531,0.00344765039062511,-0.0146525141601543,0.667194406563623,17.7881969999999,
-0.645476767578125,-0.0540131894531251,-0.0266235224609357,0.648279641872419,17.7911600000007,
-0.671812985839844,-0.0396479794921876,-0.0338061274414052,0.67383047161244,17.794132,
-0.657447775878906,-0.0157059628906249,0.00210689746093884,0.657638726274049,17.7971660000003,
-0.662236179199219,-0.0468305844726562,-0.0553539423828102,0.666193605207788,17.8001880000002,
-0.659841977539063,-0.0252827695312499,0.0116837041015643,0.660429528942615,17.8032680000006,
-0.657447775878906,-0.0276769711914062,-0.0242293208007798,0.658476007709406,17.8062680000003,
-0.688572397460938,-0.0707726010742187,0.0380199223632829,0.693243263295377,17.80926,
-0.669418784179688,-0.0683783994140624,-0.0050757075195289,0.672921152086828,17.8123759999999,
-0.700543405761719,-0.0611957944335937,0.0236547124023456,0.703608935440295,17.8154070000001,
-0.631111557617188,-0.0611957944335937,-0.0816901606445288,0.63931213484532,17.8184710000005,
-0.643082565917969,-0.0348595761718749,0.0595677373046897,0.646775611758918,17.8214520000001,
-0.643082565917969,-0.0444363828125001,0.0284431157226575,0.645243201852689,17.8245830000005,
-0.647870969238281,-0.0588015927734374,0.0428083256835947,0.651940927417719,17.8275899999999,
-0.6742071875,-0.0228885678710937,0.0763271489257829,0.678899883546159,17.8305520000004,
-0.65505357421875,-0.0540131894531251,-0.000287304199217076,0.657276724276283,17.8336130000007,
-0.65505357421875,-0.0420421811523437,0.0260489140625015,0.656918013161948,17.8366139999998,
-0.638294162597656,-0.0516189877929687,-0.0625365473632797,0.643424259461153,17.8396650000004,
-0.662236179199219,-0.0396479794921876,0.0499909306640642,0.665302797579307,17.8426399999998,
-0.6742071875,-0.0659841977539062,-0.0242293208007798,0.677861568475713,17.8455570000006,
-0.65505357421875,-0.0683783994140624,0.0547793339843761,0.660886954051115,17.8486110000003,
-0.638294162597656,-0.0947146176757813,0.0547793339843761,0.647604101469011,17.8515699999998,
-0.647870969238281,-0.0659841977539062,-0.0194409174804662,0.651512591135013,17.8546130000004,
-0.645476767578125,-0.0348595761718749,-0.00268150585937299,0.646422955972064,17.8576499999999,
-0.607169541015625,-0.0516189877929687,0.0547793339843761,0.611817086121062,17.8606070000005,
-0.614352145996094,-0.0324653745117187,-0.0146525141601543,0.615383828194571,17.8637210000006,
-0.650265170898438,-0.0492247861328126,0.0595677373046897,0.654840581654036,17.866704,
-0.683783994140625,-0.0588015927734374,-0.0218351191406239,0.686654899045718,17.8697730000004,
-0.628717355957031,-0.0516189877929687,0.00689530078125244,0.630870492855099,17.8727600000002,
-0.640688364257813,-0.0372537778320312,-0.0218351191406239,0.642141881896824,17.875712,
-0.6358999609375,-0.0588015927734374,-0.0266235224609357,0.639167583331035,17.8787940000002,
-0.686178195800781,-0.0372537778320312,-0.0266235224609357,0.687704276781381,17.8817650000001,
-0.65505357421875,-0.00852335791015624,-0.0242293208007798,0.65555693323562,17.884806,
-0.6358999609375,-0.0228885678710937,0.0571735356445338,0.638875152152281,17.8877750000001,
-0.657447775878906,-0.0181001645507812,0.0188663090820338,0.657967424408887,17.8907680000002,
-0.657447775878906,-0.0851378110351562,0.00210689746093884,0.662940769520845,17.893806,
-0.669418784179688,-0.0588015927734374,-0.0314119257812475,0.672730142781332,17.8968030000005,
-0.607169541015625,-0.0396479794921876,0.0452025273437524,0.610139395788536,17.8998879999999,
-0.640688364257813,-0.0707726010742187,0.0116837041015643,0.644691282785563,17.9028880000005,
-0.607169541015625,-0.0348595761718749,0.035625720703127,0.60921197752804,17.9058320000004,
-0.667024582519531,-0.0444363828125001,-0.0146525141601543,0.66866365384551,17.9088510000001,
-0.662236179199219,-0.0204943662109374,-0.0122583124999984,0.662666614755954,17.9118180000005,
-0.609563742675781,-0.0516189877929687,-0.0433829340820289,0.61328179106773,17.914871,
-0.676601389160156,-0.0444363828125001,-0.0122583124999984,0.678169815132066,17.9178179999999,
-0.638294162597656,-0.0659841977539062,0.0404141240234388,0.642967070525429,17.9208650000001,
-0.669418784179688,-0.0396479794921876,0.0452025273437524,0.672113635755656,17.9238439999999,
-0.667024582519531,-0.0683783994140624,0.0499909306640642,0.672381210579566,17.9268670000001,
-0.633505759277344,-0.0755610043945312,0.0188663090820338,0.638274979958523,17.9299410000003,
-0.671812985839844,-0.0228885678710937,0.0284431157226575,0.672804269690858,17.9329050000006,
-0.6358999609375,-0.0300711728515624,0.0164721074218761,0.63682365383197,17.935939,
-0.623928952636719,-0.0372537778320312,-0.0242293208007798,0.625509585767939,17.9388880000006,
-0.676601389160156,-0.0468305844726562,0.00450109912109475,0.678235064965534,17.9418970000006,
-0.628717355957031,-0.0133117612304687,0.0212605107421897,0.629217550602076,17.9449830000003,
-0.638294162597656,-0.0468305844726562,0.0212605107421897,0.640362827594882,17.9480370000001,
-0.633505759277344,-0.0516189877929687,0.0284431157226575,0.636241367540926,17.9511069999999,
-0.626323154296875,-0.0252827695312499,-0.0074699091796866,0.626877748517771,17.9540930000003,
-0.6742071875,-0.0564073911132812,0.0140779057617202,0.676709178953192,17.9570709999998,
-0.645476767578125,-0.0635899960937499,0.00210689746093884,0.648604952265413,17.960137,
-0.631111557617188,-0.0564073911132812,-0.0266235224609357,0.634186410985309,17.9631640000007,
-0.6358999609375,-0.0875320126953125,-0.0266235224609357,0.642447994405021,17.9662950000002,
-0.645476767578125,-0.0516189877929687,-0.00268150585937299,0.647543023943235,17.9692730000006,
-0.645476767578125,-0.0635899960937499,-0.0649307490234357,0.651843499051001,17.9722350000002,
-0.652659372558594,-0.0157059628906249,-0.0074699091796866,0.652891057835878,17.9752820000003,
-0.647870969238281,-0.0516189877929687,-0.0338061274414052,0.650802709686357,17.9782300000006,
-0.667024582519531,-0.0396479794921876,-0.0290177241210916,0.668831656155969,17.9812660000007,
-0.643082565917969,-0.0588015927734374,-0.00986411083984251,0.645840626302645,17.984254,
-0.652659372558594,-0.0372537778320312,0.00689530078125244,0.653758094194022,17.9872230000001,
-0.647870969238281,-0.0396479794921876,-0.0122583124999984,0.64919875329895,17.9902339999999,
-0.623928952636719,-0.0157059628906249,-0.0050757075195289,0.624147240653596,17.9932400000007,
-0.657447775878906,-0.0516189877929687,0.00210689746093884,0.659474439933651,17.9962759999999,
-0.65505357421875,-0.0564073911132812,-0.0338061274414052,0.65834628663155,17.9992160000002,
-0.638294162597656,-0.0564073911132812,-0.000287304199217076,0.640781799306248,18.0021850000003,
-0.643082565917969,-0.0276769711914062,-0.0218351191406239,0.644048114468053,18.0052000000005,
-0.664630380859375,-0.0635899960937499,0.00689530078125244,0.667701112727353,18.008135,
-0.657447775878906,-0.0635899960937499,-0.0577481440429679,0.663035529780819,18.011246,
-0.628717355957031,-0.0444363828125001,0.0164721074218761,0.630500940619423,18.0142110000006,
-0.65505357421875,-0.0468305844726562,-0.0170467158203103,0.656946633493976,18.0172480000001,
-0.638294162597656,-0.0659841977539062,-0.0194409174804662,0.641990110229085,18.0202479999998,
-0.6742071875,-0.0276769711914062,0.00450109912109475,0.674790046091588,18.0232169999999,
-0.662236179199219,-0.0444363828125001,-0.0888727656249984,0.669648951039031,18.0262730000004,
-0.676601389160156,0.00344765039062511,-0.00986411083984251,0.676682072164861,18.0292589999999,
-0.645476767578125,-0.0516189877929687,-0.0266235224609357,0.648084554153317,18.0323480000006,
-0.623928952636719,-0.0492247861328126,-0.0218351191406239,0.626248504937185,18.0353350000005,
-0.652659372558594,-0.0300711728515624,-0.038594530761717,0.654490694991123,18.0382820000004,
-0.623928952636719,-0.0444363828125001,0.00450109912109475,0.625525531013011,18.041389,
-0.626323154296875,-0.0683783994140624,-0.0218351191406239,0.630422930692326,18.0443830000004,
-0.678995590820313,-0.0444363828125001,0.0188663090820338,0.68070958718771,18.0474279999999,
-0.667024582519531,-0.0396479794921876,0.00689530078125244,0.668237458644778,18.0503600000002,
-0.662236179199219,-0.0181001645507812,-0.0122583124999984,0.66259689044131,18.053285,
-0.671812985839844,-0.0300711728515624,-0.00986411083984251,0.672558000519193,18.0563350000002,
-0.664630380859375,-0.0659841977539062,0.0308373173828134,0.668609301205026,18.0592820000002,
-0.659841977539063,-0.0731668027343749,0.0236547124023456,0.66430743015856,18.0624090000001,
-0.631111557617188,-0.00612915624999988,-0.0218351191406239,0.631518912735173,18.0653730000004,
-0.657447775878906,-0.0611957944335937,0.0116837041015643,0.660393074014266,18.0683630000003,
-0.640688364257813,-0.0635899960937499,0.0332315190429711,0.644693416715618,18.071422,
-0.611957944335938,-0.0348595761718749,0.0260489140625015,0.613503269437568,18.074396,
-0.647870969238281,-0.0444363828125001,0.0811155522460947,0.654439544736867,18.0774570000003,
-0.652659372558594,-0.00373495458984374,0.00928950244140836,0.652736165176999,18.0804109999999,
-0.65505357421875,0.00344765039062511,-0.0050757075195289,0.655082311008929,18.0834130000003,
-0.669418784179688,-0.0324653745117187,-0.0074699091796866,0.670247199694225,18.0864750000001,
-0.65505357421875,-0.0588015927734374,-0.0146525141601543,0.657850673466757,18.0894040000003,
