X,Y,Z,Magnitude,Seconds,
0.0194888015136719,-0.0035913024902344,0.0447715710449241,0.0489612541898832,0.0,
0.00272938989257815,-0.0251391174316407,-0.0246602770996063,0.0353207313210937,0.00389899999993304,
0.0218830031738281,0.0011971008300781,-0.010295067138669,0.0242133699780276,0.00779699999998229,
0.00751779321289064,-0.0155623107910157,0.00885854614258008,0.019421034259487,0.0116979999999103,
0.0051235915527344,-0.00598550415039066,-0.0174776721191385,0.0191715015853664,0.0155619999999317,
0.00751779321289064,-0.0371101257324219,-0.0390254870605453,0.0543752451670863,0.019506999999976,
0.0147003981933594,0.0179565124511718,-0.00311246215820127,0.0234142150656102,0.0236209999999346,
-0.0116358200683594,-0.0323217224121094,-0.0079008654785131,0.0352492513914587,0.0276339999999209,
-0.0427604416503906,-0.0131681091308594,0.00885854614258008,0.0456106161762687,0.0315200000000004,
-0.0068474167480469,-0.0107739074707032,0.0663193859863309,0.0675368429519225,0.035398999999984,
0.0051235915527344,-0.0299275207519532,0.04716577270508,0.0560938303525897,0.0392309999999725,
0.0314598098144531,-0.0227449157714844,0.0136469494628937,0.0411496057898038,0.0431609999999409,
-0.0331836350097656,-0.00598550415039066,-0.0533906970214826,0.0631470222642005,0.04711599999996,
0.00751779321289064,-0.0323217224121094,-0.000718260498045353,0.0331922709771461,0.051117999999974,
0.0170945998535156,-0.0514753356933594,0.0567425793457055,0.0784962154482593,0.0551029999999173,
-0.00924161840820314,-0.00598550415039066,-0.0150834704589826,0.0186747115593303,0.0590199999999186,
0.00272938989257815,-0.0131681091308594,0.0351947644042987,0.0376765193289139,0.0629209999999603,
0.000335188232421846,-0.00598550415039066,-0.0342370837402317,0.0347579705121162,0.0667969999999514,
-0.0116358200683594,-0.0275333190917969,-0.0126892687988249,0.0324729658565825,0.0706629999999677,
-0.0020590134277344,-0.0299275207519532,0.00885854614258008,0.0312789046229947,0.0746239999999716,
0.0314598098144531,0.0155623107910156,-0.0749385119628876,0.0827507445642006,0.0785319999999956,
-0.0140300217285156,-0.0514753356933594,-0.0198718737792944,0.0569336724790073,0.082369999999969,
-0.0188184250488281,-0.0347159240722656,0.0184353527832055,0.0435797055720999,0.0863239999999905,
0.0290656081542969,-0.0418985290527344,-0.0725443103027317,0.0886734079161333,0.0903439999999591,
-0.0188184250488281,-0.0227449157714844,-0.0318428820800758,0.0434215782064159,0.0942599999999629,
-0.0307894333496094,-0.00119710083007815,-0.0222660754394504,0.0380157910855832,0.0981899999999314,
-0.0020590134277344,-0.00119710083007815,-0.0246602770996063,0.0247750247895402,0.102220999999986,
0.00272938989257815,-0.0682347473144532,0.00167594116211234,0.0683098754868712,0.106110999999942,
-0.0307894333496094,-0.0299275207519532,0.102232410888675,0.11088332399626,0.109935999999948,
-0.0140300217285156,0.0011971008300781,0.028012159423831,0.0313521233042695,0.113944999999944,
0.00751779321289064,0.0011971008300781,-0.000718260498045353,0.007646316978272,0.11787199999992,
-0.0331836350097656,0.0323217224121093,-0.0390254870605453,0.0605709172165948,0.121771999999964,
-0.0068474167480469,0.00359130249023434,0.0184353527832055,0.0199911680984139,0.125762000000009,
0.00751779321289064,-0.0155623107910157,-0.0126892687988249,0.0214410884657654,0.129707999999937,
-0.0068474167480469,-0.0155623107910157,0.00885854614258008,0.0191715015853693,0.133618999999953,
-0.0140300217285156,-0.00598550415039066,0.0208295544433614,0.0258173993257633,0.137454999999932,
-0.0379720383300781,-0.0323217224121094,-0.0318428820800758,0.0591653494352225,0.141235999999935,
-0.0403662399902344,-0.0347159240722656,-0.0462080920410131,0.0704969253599846,0.145129999999995,
-0.00924161840820314,-0.0275333190917969,-0.0150834704589826,0.0327261707521755,0.149034999999913,
-0.0140300217285156,-0.0179565124511719,-0.0246602770996063,0.0335768836514212,0.152942999999937,
-0.0140300217285156,-0.00837970581054691,0.04716577270508,0.0499166414539401,0.156977999999981,
-0.0164242233886719,-0.0347159240722656,0.0663193859863309,0.0766368805192138,0.160815999999954,
-0.0595198532714844,-0.0203507141113282,-0.00311246215820127,0.0629797738880212,0.164814999999976,
-0.0164242233886719,-0.00119710083007815,-0.0150834704589826,0.0223315750766795,0.168781999999965,
-0.0212126267089844,-0.0035913024902344,0.025617957763675,0.033453740380599,0.172666999999933,
0.0170945998535156,-0.0275333190917969,0.011252747802736,0.0343064620366849,0.176650999999993,
0.0051235915527344,-0.0299275207519532,-0.0079008654785131,0.0313740555884539,0.180651000000012,
-0.0331836350097656,-0.0179565124511719,-0.0294486804199199,0.0478624565849373,0.184572000000003,
-0.0307894333496094,-0.0035913024902344,0.00167594116211234,0.0310434443698708,0.188517999999931,
-0.0116358200683594,-0.0395043273925782,0.00167594116211234,0.0412164162704874,0.192454999999995,
0.0266714064941406,-0.0347159240722656,0.00167594116211234,0.0438105933233717,0.196354999999926,
0.00272938989257815,-0.0418985290527344,-0.0150834704589826,0.0446144302558661,0.200365999999917,
-0.0164242233886719,-0.0395043273925782,-0.048602293701169,0.0647497486456564,0.204214999999976,
0.0218830031738281,-0.00598550415039066,0.011252747802736,0.0253242259694565,0.20804099999998,
-0.0355778366699219,-0.00598550415039066,0.0328005627441428,0.0487594671666788,0.211995000000002,
-0.0068474167480469,-0.0203507141113282,0.00167594116211234,0.0215371181856187,0.215911000000006,
0.0123061965332031,-0.0275333190917969,0.00885854614258008,0.0314324668628593,0.219784000000004,
0.0147003981933594,-0.0155623107910157,-0.0509964953613249,0.0553075922757185,0.223778999999922,
-0.0499430466308594,-0.0275333190917969,-0.00311246215820127,0.0571146127332501,0.227863999999954,
-0.0307894333496094,0.0251391174316406,-0.048602293701169,0.0627865223136824,0.23192999999992,
-0.0116358200683594,-0.00837970581054691,-0.0462080920410131,0.0483818100964121,0.235890999999924,
0.00751779321289064,-0.0035913024902344,0.025617957763675,0.02693871616001,0.23985899999991,
-0.0260010300292969,-0.0323217224121094,-0.0677559069824198,0.0794456432617937,0.243743999999992,
0.00991199487304689,-0.0131681091308594,-0.0198718737792944,0.0258173993257598,0.247758999999974,
-0.0260010300292969,-0.00837970581054691,-0.000718260498045353,0.0273274391445442,0.251846999999998,
-0.00445321508789065,-0.0227449157714844,-0.010295067138669,0.0253604165080276,0.255819999999972,
-0.0068474167480469,0.0179565124511718,-0.00550666381835718,0.019991168098411,0.259834999999953,
-0.0068474167480469,-0.0179565124511719,-0.0438138903808571,0.047843290499675,0.263834999999972,
-0.00924161840820314,-0.0275333190917969,-0.0222660754394504,0.0365960282884474,0.267757999999958,
0.00272938989257815,-0.0131681091308594,0.00885854614258008,0.0161034936280346,0.271659,
-0.0523372482910157,-0.0251391174316407,0.0232237561035173,0.0625340357843063,0.275626999999986,
-0.0571256516113282,-0.0227449157714844,0.0328005627441428,0.0696889387335121,0.279553999999962,
-0.0212126267089844,0.00359130249023434,0.00646434448242417,0.022464655240144,0.283463999999981,
-0.00924161840820314,-0.0778115539550782,-0.00311246215820127,0.0784202324683695,0.287397999999939,
-0.0212126267089844,0.0107739074707031,0.0304063610839869,0.0386082816044923,0.291365999999925,
0.00751779321289064,0.0155623107910156,-0.0222660754394504,0.0281865366340606,0.295376999999917,
-0.0068474167480469,0.0131681091308593,-0.0174776721191385,0.022929353172468,0.299393000000009,
-0.0020590134277344,-0.0179565124511719,-0.0294486804199199,0.0345528675246969,0.303379999999947,
-0.0427604416503906,-0.0203507141113282,0.04716577270508,0.0668372429850659,0.307317000000012,
-0.0906444748535156,0.518344659423828,0.178846864013675,0.55577316194847,0.888569999999959,
0.677894258056641,0.444124407958984,0.107020814208987,0.817459827468626,0.892603000000008,
0.376224848876953,-0.108936175537109,0.0447715710449241,0.394229274441877,0.895535999999993,
-0.358795060791016,-0.453701214599609,-0.132399351806638,0.593387121646575,0.898466999999982,
-0.610186235107422,-0.302866510009766,-0.146764561767576,0.69684661224038,0.901490999999965,
-0.128951701416016,0.140060797119141,0.0615309826660173,0.200079059412973,0.904446000000007,
0.433685688720703,0.300472308349609,0.248278712158205,0.583103081450467,0.907471999999984,
0.421714680419922,0.0179565124511718,0.0304063610839869,0.423190565603081,0.910424999999918,
-0.136134306396484,-0.322020123291016,-0.146764561767576,0.37916928379451,0.913334999999961,
-0.449774723876953,-0.312443316650391,-0.132399351806638,0.563424987657544,0.916381999999999,
-0.229508171142578,-0.0706289489746094,-0.0533906970214826,0.245993934036815,0.919306000000006,
0.122439472900391,0.434547601318359,0.171664259033205,0.483002753786233,0.922329999999988,
0.333129218994141,0.456095416259766,0.0687135876464868,0.568963674067217,0.925257999999985,
0.124833674560547,-0.152031805419922,-0.0198718737792944,0.197716988473499,0.928184999999985,
-0.231902372802734,-0.484825836181641,-0.0629675036621062,0.541109700946308,0.931198999999992,
-0.354006657470703,-0.312443316650391,-0.048602293701169,0.474661692794026,0.934162000000015,
-0.119374894775391,0.192733233642578,0.00407014282226825,0.226744417606154,0.937169999999924,
0.199053926025391,0.345962139892578,0.102232410888675,0.412023947776442,0.940111000000002,
0.278062580810547,0.101753570556641,0.0830787976074241,0.30752995720733,0.943024999999921,
-0.0451546433105469,-0.259770880126953,-0.13718775512695,0.297221015628449,0.946025999999961,
-0.243873381103516,-0.252588275146484,-0.0246602770996063,0.35197044196774,0.94897299999991,
-0.184018339599609,-0.0682347473144532,0.04716577270508,0.201849796048774,0.951999999999998,
0.000335188232421846,0.0682347473144531,0.0447715710449241,0.081612417352074,0.954931999999985,
0.148775691162109,0.221463653564453,-0.000718260498045353,0.266797436323932,0.95792199999994,
0.108074262939453,0.106541973876953,-0.0198718737792944,0.153055969746376,0.960886999999957,
-0.0523372482910157,-0.144849200439453,-0.0079008654785131,0.154217061643431,0.963808999999969,
-0.181624137939453,-0.252588275146484,-0.0294486804199199,0.312498622400484,0.966829999999959,
-0.0786734665527344,-0.0371101257324219,0.0160411511230496,0.0884533453333049,0.969858999999929,
0.0961032546386719,0.199915838623047,0.0447715710449241,0.226288911920872,0.972979000000009,
0.0362482131347656,0.0299275207519531,0.0136469494628937,0.048947203019833,0.976050999999984,
-0.0403662399902344,-0.161608612060547,-0.0869095202636689,0.187883052816231,0.979036999999948,
-0.105009684814453,-0.168791217041016,-0.115639940185545,0.229978487300735,0.982058999999936,
-0.0331836350097656,0.0442927307128906,-0.027054478759764,0.0616031204358067,0.984976999999958,
0.0745554396972656,0.183156427001953,0.0423773693847682,0.202239046122522,0.988006999999925,
0.0554018264160157,0.0514753356933594,-0.000718260498045353,0.0756279607890985,0.990955999999983,
-0.0140300217285156,-0.168791217041016,-0.048602293701169,0.176208681434555,0.993881999999985,
-0.0403662399902344,-0.185550628662109,-0.0893037219238249,0.209841902100846,0.99690099999998,
-0.0188184250488281,0.0802057556152343,-0.0414196887207012,0.0922100155560601,0.99981600000001,
0.0218830031738281,0.185550628662109,0.0160411511230496,0.187523918885465,1.00285499999995,
0.0147003981933594,0.0921767639160156,0.04716577270508,0.10458139235992,1.00582899999995,
0.000335188232421846,-0.221463653564453,-0.0581791003417944,0.228978317571441,1.00879299999997,
-0.121769096435547,-0.228646258544922,-0.048602293701169,0.263569739056546,1.01184599999999,
-0.0834618698730469,0.0227449157714844,0.0806845959472682,0.118292936979903,1.014769,
0.108074262939453,0.190339031982422,0.04716577270508,0.223905345002701,1.01778999999999,
0.124833674560547,0.123301385498047,0.0543483776855496,0.183685666634818,1.02075200000002,
0.0410366164550781,-0.0945709655761719,0.0304063610839869,0.107481245873224,1.02368300000001,
-0.116980693115234,-0.214281048583984,-0.0126892687988249,0.244462405875876,1.02668999999992,
-0.184018339599609,-0.0897825622558594,-0.0174776721191385,0.205497267176302,1.02964099999997,
-0.0283952316894531,0.0562637390136719,0.063925184326175,0.08976818312538,1.032647,
0.108074262939453,0.101753570556641,0.0567425793457055,0.158913673866458,1.03562599999998,
0.110468464599609,0.0969651672363281,0.0160411511230496,0.147860893604485,1.03855699999997,
-0.0068474167480469,-0.0873883605957032,0.00646434448242417,0.0878942571122456,1.04156499999999,
-0.184018339599609,-0.183156427001953,-0.0749385119628876,0.27023102456293,1.04449499999998,
-0.126557499755859,-0.0825999572753907,-0.027054478759764,0.153530122475406,1.047504,
0.0147003981933594,0.0921767639160156,0.0328005627441428,0.0989370225416383,1.05043899999998,
0.132016279541016,0.173579620361328,0.00167594116211234,0.218084826265867,1.05343799999991,
0.143987287841797,0.0131681091308593,0.0160411511230496,0.145475278612798,1.05637899999999,
-0.0283952316894531,-0.190339031982422,-0.0246602770996063,0.194018982435566,1.05929900000001,
-0.155287919677734,-0.137666595458984,-0.0126892687988249,0.207912113754238,1.06230699999992,
-0.119374894775391,0.0107739074707031,-0.0533906970214826,0.1312136010986,1.06521899999996,
0.0218830031738281,0.144849200439453,0.0423773693847682,0.152499174200478,1.06824499999993,
0.153564094482422,0.101753570556641,0.028012159423831,0.186334112042904,1.07120099999997,
0.0697670363769531,-0.0514753356933594,-0.0198718737792944,0.0889496538333194,1.07416499999999,
-0.128951701416016,-0.147243402099609,0.0136469494628937,0.196202446441412,1.07728199999997,
-0.167258927978516,-0.0610521423339844,-0.0581791003417944,0.187317166294688,1.08034799999996,
-0.0499430466308594,0.0634463439941406,-0.0126892687988249,0.0817359407827661,1.08346299999994,
0.120045271240234,0.0538695373535156,0.0711077893066427,0.149563069980197,1.08647599999995,
0.0961032546386719,-0.0035913024902344,-0.0653617053222639,0.116279342655333,1.08941499999992,
-0.00924161840820314,-0.0921767639160157,-0.010295067138669,0.0932091826174945,1.09244899999999,
-0.133740104736328,-0.0754173522949219,-0.00311246215820127,0.15357044006822,1.09539899999993,
-0.0858560715332031,-0.0035913024902344,-0.0222660754394504,0.0887690294425153,1.09845699999994,
0.0577960280761719,0.0442927307128906,0.0232237561035173,0.076430162259032,1.10145499999999,
0.0266714064941406,0.0011971008300781,0.0184353527832055,0.0324447100004655,1.10440199999994,
0.0242772048339844,-0.0442927307128907,0.0208295544433614,0.0546360595839857,1.10745099999997,
-0.0810676682128906,-0.0514753356933594,-0.0677559069824198,0.117526762676548,1.11040200000002,
-0.0523372482910157,-0.0442927307128907,-0.0366312854003876,0.0777359930969221,1.11345599999993,
0.0123061965332031,0.0658405456542969,-0.0557848986816385,0.0871686574755516,1.11642699999993,
0.0147003981933594,-0.0203507141113282,-0.0079008654785131,0.026318756566257,1.11942199999999,
-0.0260010300292969,-0.0275333190917969,-0.000718260498045353,0.0378768150844043,1.12245799999994,
-0.0810676682128906,-0.0371101257324219,-0.0318428820800758,0.0946736362485201,1.12540000000001,
-0.0188184250488281,0.0011971008300781,0.00646434448242417,0.0199337382671486,1.12843399999997,
-0.0523372482910157,0.0442927307128906,0.0184353527832055,0.070999266087202,1.13137399999994,
-0.00445321508789065,0.0347159240722656,-0.0150834704589826,0.0381121711517112,1.13428899999997,
0.0170945998535156,-0.0466869323730469,0.011252747802736,0.0509756739206972,1.13734399999998,
-0.0212126267089844,-0.123301385498047,0.0160411511230496,0.12613693244639,1.14028699999994,
0.0218830031738281,-0.0466869323730469,-0.00311246215820127,0.0516548439451467,1.14332000000002,
-0.0212126267089844,0.00837970581054684,-0.0198718737792944,0.030250394524142,1.14623699999993,
-0.0236068283691406,0.0610521423339843,0.00646434448242417,0.0657756351455962,1.14924099999996,
0.0147003981933594,-0.0395043273925782,-0.0605733020019503,0.0737957892105153,1.152197,
0.0314598098144531,-0.0706289489746094,0.0423773693847682,0.0881703436694711,1.15512799999999,
-0.0307894333496094,-0.0730231506347657,-0.0414196887207012,0.0894201339091902,1.15811199999996,
-0.0355778366699219,-0.0275333190917969,0.0567425793457055,0.0724126123898733,1.16104099999995,
-0.0140300217285156,0.0466869323730469,-0.0126892687988249,0.0503738891367036,1.16398900000002,
-0.0068474167480469,0.0466869323730469,0.0160411511230496,0.0498384921509409,1.16691099999991,
-0.0140300217285156,-0.0323217224121094,-0.0438138903808571,0.0562244807863429,1.16984100000002,
-0.0451546433105469,-0.0634463439941407,-0.0629675036621062,0.100146327422242,1.17288099999996,
0.0458250197753906,0.0131681091308593,0.00407014282226825,0.0478528745018606,1.17585299999996,
-0.0236068283691406,0.0610521423339843,0.0184353527832055,0.068003740054944,1.17886999999996,
-0.0475488449707031,0.0323217224121093,-0.0126892687988249,0.0588778730966247,1.18179599999996,
-0.0164242233886719,-0.0658405456542969,-0.0294486804199199,0.0739726797165759,1.18473599999993,
-0.0068474167480469,-0.0778115539550782,-0.048602293701169,0.0919984130191394,1.18774699999994,
0.0170945998535156,-0.0514753356933594,0.00167594116211234,0.0542654983177592,1.19070799999997,
-0.00924161840820314,0.0179565124511718,-0.0198718737792944,0.0283325822633967,1.19370099999992,
-0.00924161840820314,-0.00119710083007815,0.0208295544433614,0.0228190906810322,1.19665099999997,
-0.0188184250488281,-0.0658405456542969,-0.0653617053222639,0.0946639482380087,1.19957799999997,
-0.0355778366699219,-0.0538695373535156,-0.00550666381835718,0.0647922284167002,1.20260199999996,
0.000335188232421846,-0.104147772216797,0.00167594116211234,0.104161795240154,1.205556,
-0.0164242233886719,-0.0131681091308594,0.00407014282226825,0.0214410884657678,1.20857699999999,
0.0458250197753906,-0.0203507141113282,-0.048602293701169,0.0698302724845796,1.21152999999993,
-0.0307894333496094,-0.0227449157714844,-0.0342370837402317,0.0513565799336132,1.21445999999992,
-0.0236068283691406,0.00359130249023434,-0.0150834704589826,0.0282434218945479,1.21754999999996,
-0.0307894333496094,-0.0610521423339844,-0.048602293701169,0.0838900246905067,1.220596,
0.0123061965332031,-0.0179565124511719,0.0543483776855496,0.0585459218867895,1.22375799999998,
-0.00445321508789065,-0.0442927307128907,-0.0198718737792944,0.0487500613961036,1.22673399999996,
0.0051235915527344,-0.0347159240722656,-0.0198718737792944,0.0403278804562151,1.22967799999992,
-0.0403662399902344,-0.0299275207519532,0.0136469494628937,0.0520704240327516,1.23271299999999,
-0.0595198532714844,-0.0155623107910157,0.0758961926269563,0.0976986719760471,1.23564999999996,
0.00991199487304689,-0.0395043273925782,-0.0366312854003876,0.0547785596304609,1.238742,
0.0051235915527344,-0.0442927307128907,-0.0126892687988249,0.0463585453509138,1.24171000000001,
0.000335188232421846,-0.0323217224121094,0.00885854614258008,0.0335153685731909,1.24475899999993,
-0.00445321508789065,0.00598550415039059,-0.0246602770996063,0.0257640573509439,1.24768299999994,
-0.0212126267089844,-0.0107739074707032,-0.0318428820800758,0.0397494874589296,1.25060999999994,
-0.0020590134277344,-0.0107739074707032,-0.0629675036621062,0.0639157502961534,1.25366099999997,
0.00991199487304689,-0.00119710083007815,-0.0294486804199199,0.0310951036537146,1.25663899999995,
-0.0188184250488281,-0.0035913024902344,-0.048602293701169,0.0522418752334697,1.25967500000002,
-0.0355778366699219,-0.0203507141113282,-0.0246602770996063,0.0478337045772331,1.26263699999993,
-0.0355778366699219,-0.0131681091308594,0.00885854614258008,0.0389570969138369,1.26558499999999,
-0.00924161840820314,-0.0347159240722656,-0.0366312854003876,0.051307445513091,1.26860599999998,
0.0601902297363281,-0.0275333190917969,0.049559974365236,0.0826869909659646,1.271569,
0.0170945998535156,-0.0323217224121094,-0.010295067138669,0.0379856221645371,1.27459799999997,
-0.0403662399902344,-0.0490811340332032,0.0160411511230496,0.0655416629197564,1.27755300000001,
0.0170945998535156,-0.0179565124511719,0.102232410888675,0.105195663026913,1.28049999999996,
0.00991199487304689,-0.0586579406738282,0.028012159423831,0.0657547163482877,1.28354300000001,
-0.0331836350097656,-0.0179565124511719,0.0160411511230496,0.040998884146071,1.28648199999998,
-0.0260010300292969,-0.0203507141113282,0.00885854614258008,0.0341859469253907,1.28951299999994,
-0.0355778366699219,-0.0107739074707032,0.0423773693847682,0.0563711005770865,1.29245600000002,
-0.0260010300292969,-0.0538695373535156,-0.0246602770996063,0.0647001536620709,1.29538000000002,
-0.0116358200683594,-0.0227449157714844,-0.027054478759764,0.0372111317091764,1.29840799999999,
0.000335188232421846,-0.0251391174316407,-0.00550666381835718,0.0257373449058246,1.30136699999991,
-0.0068474167480469,-0.0035913024902344,0.00885854614258008,0.0117583336173974,1.30441299999995,
-0.0283952316894531,-0.0179565124511719,-0.0533906970214826,0.0630816300561944,1.30734199999995,
-0.0427604416503906,-0.0155623107910157,-0.0126892687988249,0.0472404321523571,1.31026899999995,
-0.0236068283691406,-0.0299275207519532,-0.0821211169433571,0.0905362727973335,1.31330200000002,
-0.0212126267089844,-0.0131681091308594,0.0232237561035173,0.0340986433385934,1.31625599999995,
0.0051235915527344,-0.0251391174316407,-0.0246602770996063,0.0355858916183146,1.31928999999991,
-0.0116358200683594,-0.0371101257324219,0.0160411511230496,0.042069849891483,1.32225199999993,
-0.0236068283691406,-0.0227449157714844,0.0375889660644564,0.049875283547032,1.32518299999992,
-0.0403662399902344,-0.0035913024902344,-0.0294486804199199,0.0500954644953027,1.32819099999995,
-0.0403662399902344,-0.0371101257324219,0.00167594116211234,0.0548580307849655,1.331141,
0.0362482131347656,0.0179565124511718,-0.010295067138669,0.0417415584551198,1.33415500000001,
-0.0188184250488281,-0.0131681091308594,-0.0414196887207012,0.0473616177206857,1.33708899999999,
0.0314598098144531,-0.0275333190917969,-0.0294486804199199,0.0511373451818418,1.34011999999996,
-0.0188184250488281,-0.0634463439941407,-0.0294486804199199,0.0724347738728835,1.34306399999991,
-0.0212126267089844,0.0299275207519531,-0.0079008654785131,0.037524068350365,1.34596199999999,
-0.0283952316894531,-0.0131681091308594,0.00885854614258008,0.032529403937671,1.34900399999992,
-0.0283952316894531,-0.0251391174316407,-0.0390254870605453,0.0544173965589345,1.35193700000002,
-0.0331836350097656,-0.0371101257324219,0.0136469494628937,0.051619320936838,1.35499699999991,
-0.0116358200683594,-0.0155623107910157,0.0208295544433614,0.0284859292305579,1.35804699999994,
-0.0355778366699219,-0.0155623107910157,-0.0126892687988249,0.0408532192356567,1.36107299999992,
0.000335188232421846,-0.00598550415039066,-0.00311246215820127,0.00675470441779156,1.36420199999998,
-0.0690966599121094,-0.0155623107910157,-0.0198718737792944,0.073562390497224,1.36714399999994,
-0.0140300217285156,-0.0155623107910157,0.0160411511230496,0.0263883602410475,1.37017700000001,
-0.0068474167480469,-0.0730231506347657,0.028012159423831,0.0785108191291827,1.37311999999997,
-0.0020590134277344,-0.0251391174316407,0.00646434448242417,0.026038481352123,1.37604799999997,
-0.00924161840820314,-0.0035913024902344,-0.0174776721191385,0.0200941281742532,1.37908499999992,
0.0051235915527344,0.0371101257324219,-0.0342370837402317,0.0507502761106878,1.38201800000002,
-0.0667024582519531,-0.0849941589355469,-0.000718260498045353,0.108045087293026,1.38502699999992,
-0.0188184250488281,-0.0562637390136719,-0.0366312854003876,0.0697251211487051,1.38797499999998,
0.00751779321289064,0.0011971008300781,-0.0342370837402317,0.0350731830352592,1.39092599999992,
-0.0020590134277344,-0.0155623107910157,0.028012159423831,0.0321108413006865,1.39397499999995,
0.00272938989257815,-0.00837970581054691,-0.00550666381835718,0.0103919384652444,1.39696500000002,
-0.0188184250488281,-0.00837970581054691,0.028012159423831,0.0347711614182759,1.40003899999999,
-0.00924161840820314,-0.0035913024902344,0.0423773693847682,0.043521792246555,1.40298299999995,
0.0147003981933594,-0.0371101257324219,-0.0366312854003876,0.0541766943344104,1.40593799999999,
-0.0236068283691406,-0.00598550415039066,-0.0533906970214826,0.0586828350885006,1.40896599999996,
-0.0116358200683594,0.0011971008300781,-0.0438138903808571,0.045348454762719,1.41188099999999,
-0.0260010300292969,-0.0275333190917969,-0.0438138903808571,0.0579119522473632,1.41489999999999,
-0.0260010300292969,-0.0251391174316407,0.0232237561035173,0.0429810613570893,1.41785099999993,
-0.0475488449707031,-0.0395043273925782,0.00646434448242417,0.0621552273777146,1.42079100000001,
0.00751779321289064,0.00837970581054684,0.0184353527832055,0.0216009008262234,1.42382099999998,
0.0338540114746094,-0.00837970581054691,-0.0246602770996063,0.0427134970357575,1.42678899999999,
-0.0307894333496094,-0.0299275207519532,0.0351947644042987,0.0555186198119398,1.42984200000001,
-0.0403662399902344,-0.0466869323730469,0.0160411511230496,0.0637684993919974,1.43279199999995,
-0.0188184250488281,-0.00598550415039066,-0.027054478759764,0.0334948384413961,1.43580099999997,
-0.00445321508789065,-0.00598550415039066,0.0519541760253937,0.0524870821348544,1.43876,
-0.0164242233886719,0.00359130249023434,0.0136469494628937,0.0216539095116825,1.44167699999991,
0.00991199487304689,-0.0466869323730469,0.0304063610839869,0.0565903179982102,1.44473399999993,
-0.0523372482910157,-0.0323217224121094,-0.00311246215820127,0.0615919533628145,1.44766499999992,
-0.00445321508789065,-0.0323217224121094,0.00646434448242417,0.0332612779954697,1.45067699999993,
-0.0140300217285156,0.00359130249023434,-0.0629675036621062,0.0646114965057794,1.45361200000002,
0.00991199487304689,-0.0442927307128907,0.0711077893066427,0.0843588248877724,1.45655599999998,
0.000335188232421846,-0.0371101257324219,-0.0462080920410131,0.0592660235978259,1.45958499999995,
0.0051235915527344,-0.0347159240722656,0.0375889660644564,0.0514235057574395,1.46255199999996,
0.0290656081542969,-0.0347159240722656,0.0423773693847682,0.0620148885151262,1.46558900000002,
0.00751779321289064,-0.0227449157714844,-0.0677559069824198,0.0718659261350888,1.46853199999998,
0.0051235915527344,-0.00119710083007815,-0.0438138903808571,0.0441286894333198,1.47148399999992,
-0.0212126267089844,-0.00837970581054691,0.0232237561035173,0.0325505429896598,1.47452399999997,
-0.0116358200683594,0.0011971008300781,-0.0150834704589826,0.0190875991195229,1.47743800000001,
-0.0164242233886719,0.00837970581054684,-0.0438138903808571,0.047535582185328,1.48043999999993,
0.0242772048339844,-0.0131681091308594,-0.0079008654785131,0.0287263893996969,1.48339099999998,
0.00272938989257815,0.00837970581054684,-0.010295067138669,0.0135520273777292,1.48631599999999,
0.0242772048339844,-0.0347159240722656,0.0351947644042987,0.0550749443959469,1.48936400000002,
-0.0164242233886719,-0.00598550415039066,-0.00311246215820127,0.0177558101629178,1.49228799999992,
0.0266714064941406,0.0107739074707031,0.0304063610839869,0.041856753349164,1.495408,
-0.0164242233886719,-0.0490811340332032,0.028012159423831,0.0588506066875472,1.49845199999993,
-0.0068474167480469,0.00359130249023434,0.00167594116211234,0.00791159582364133,1.50146999999993,
-0.0164242233886719,-0.0371101257324219,-0.0174776721191385,0.0441858073197862,1.50452799999994,
-0.0068474167480469,0.0323217224121093,-0.0318428820800758,0.0458862724022392,1.50744699999996,
-0.0283952316894531,0.00359130249023434,-0.0294486804199199,0.0410659398376399,1.51043499999992,
-0.00445321508789065,-0.0490811340332032,-0.00550666381835718,0.0495894362643162,1.51337599999999,
-0.0307894333496094,0.00837970581054684,0.0328005627441428,0.0457611799650511,1.51631599999996,
-0.0307894333496094,-0.0179565124511719,0.0399831677246123,0.0535637867098062,1.51933799999995,
-0.0068474167480469,0.0275333190917968,-0.0677559069824198,0.0734563387825888,1.52225799999997,
0.0170945998535156,-0.00119710083007815,0.00407014282226825,0.0176131898627947,1.52531499999998,
-0.0379720383300781,-0.0299275207519532,0.0136469494628937,0.0502371518195676,1.52824599999997,
-0.0212126267089844,-0.0323217224121094,0.00885854614258008,0.0396628681683561,1.53127499999994,
-0.0451546433105469,0.00359130249023434,-0.048602293701169,0.0664381081841873,1.53420399999993,
0.0051235915527344,-0.0586579406738282,-0.000718260498045353,0.0588856611802623,1.53718800000001,
0.0051235915527344,0.00598550415039059,-0.0749385119628876,0.0753515628606696,1.54021999999998,
-0.0188184250488281,-0.0179565124511719,0.0399831677246123,0.0476992993871182,1.543183,
0.0290656081542969,-0.00837970581054691,-0.0390254870605453,0.0493762866886852,1.5462,
-0.0451546433105469,-0.00598550415039066,-0.0438138903808571,0.0632014640870196,1.54914999999994,
-0.0116358200683594,-0.0131681091308594,0.00646434448242417,0.0187237591400046,1.55208499999992,
0.00751779321289064,-0.0131681091308594,0.0304063610839869,0.0339773911188572,1.55513399999995,
0.0051235915527344,-0.0299275207519532,-0.0557848986816385,0.063512696444715,1.55806899999993,
-0.0212126267089844,-0.0227449157714844,-0.0629675036621062,0.0702297176612864,1.56111199999998,
-0.0379720383300781,-0.0418985290527344,-0.0222660754394504,0.0607712147912073,1.56404699999996,
-0.0236068283691406,-0.0275333190917969,-0.0414196887207012,0.0550541244556714,1.56698999999992,
-0.0331836350097656,-0.0179565124511719,-0.010295067138669,0.0391098245874376,1.57000599999992,
-0.0188184250488281,-0.0371101257324219,-0.0438138903808571,0.0604231043848319,1.57295099999999,
0.0218830031738281,0.0442927307128906,-0.0557848986816385,0.0745162179852889,1.57597099999998,
-0.0068474167480469,-0.0179565124511719,-0.0198718737792944,0.0276444356612816,1.57891599999994,
0.0170945998535156,-0.0490811340332032,0.04716577270508,0.0701839951627459,1.58187899999996,
-0.0164242233886719,0.0179565124511718,-0.0605733020019503,0.0652787589400225,1.58486299999993,
0.00991199487304689,-0.0682347473144532,-0.0414196887207012,0.0804351850694108,1.58782699999995,
-0.0307894333496094,-0.0035913024902344,0.00167594116211234,0.0310434443698708,1.59087799999998,
0.00751779321289064,0.00598550415039059,-0.027054478759764,0.0287104213777619,1.59381999999994,
0.000335188232421846,0.00598550415039059,-0.0174776721191385,0.0184772193197356,1.59674599999994,
0.0266714064941406,0.0131681091308593,-0.010295067138669,0.0314762041842343,1.59977199999992,
0.0123061965332031,-0.0466869323730469,-0.0964863269042944,0.1078921841794,1.60273899999993,
