X,Y,Z,Magnitude,Seconds,
-0.0523372482910157,-0.0730231506347657,-0.0294486804199199,0.0945451895432955,0.0,
0.0051235915527344,-0.0179565124511719,-0.0294486804199199,0.034869934159429,0.00298699999996188,
0.0386424147949219,0.0203507141113281,0.0208295544433614,0.0483865490021014,0.00606099999993148,
-0.0427604416503906,-0.0107739074707032,-0.000718260498045353,0.0441027023034506,0.00902599999994891,
-0.0020590134277344,-0.0490811340332032,-0.010295067138669,0.050191489932762,0.0120919999999387,
-0.0427604416503906,-0.108936175537109,-0.00550666381835718,0.11715745412562,0.0150380000000041,
-0.0188184250488281,-0.0802057556152344,0.00885854614258008,0.0828587363824074,0.0179819999999609,
0.0362482131347656,-0.00119710083007815,-0.048602293701169,0.0606427980792069,0.0210610000000315,
-0.00445321508789065,0.0179565124511718,-0.0366312854003876,0.041038013281746,0.023967999999968,
-0.0403662399902344,-0.0227449157714844,0.0543483776855496,0.0714178596812608,0.0270319999999629,
-0.0283952316894531,-0.0658405456542969,-0.0342370837402317,0.0794571868227722,0.0299589999999625,
-0.0068474167480469,-0.0610521423339844,-0.0318428820800758,0.0691969676998648,0.032901000000038,
0.000335188232421846,-0.0418985290527344,-0.0581791003417944,0.0716966303567648,0.0359620000000405,
-0.0236068283691406,0.0131681091308593,0.0208295544433614,0.0341255297693859,0.0389040000000023,
-0.0236068283691406,0.00598550415039059,-0.0150834704589826,0.0286464602817068,0.0419339999999693,
-0.0475488449707031,-0.0562637390136719,0.0208295544433614,0.0765530621474772,0.0448880000000145,
-0.0307894333496094,-0.0730231506347657,0.0184353527832055,0.0813648079138577,0.0478319999999712,
-0.0116358200683594,-0.0179565124511719,-0.0150834704589826,0.0261789940440676,0.0508690000000342,
-0.0236068283691406,-0.0155623107910157,-0.00311246215820127,0.028445654914107,0.0538090000000011,
0.0123061965332031,0.0442927307128906,-0.0150834704589826,0.048381810096414,0.0568560000000389,
-0.0116358200683594,-0.0299275207519532,-0.0366312854003876,0.0487124201524259,0.0597960000000057,
-0.0260010300292969,-0.0131681091308594,-0.0174776721191385,0.0339841387027939,0.0628020000000333,
-0.0643082565917969,-0.0634463439941407,-0.00550666381835718,0.0905058770384975,0.0657909999999902,
-0.0331836350097656,-0.0442927307128907,-0.0653617053222639,0.0856455027955377,0.0687379999999393,
0.0147003981933594,-0.0538695373535156,-0.0366312854003876,0.0667823317338485,0.0718029999999317,
-0.0307894333496094,-0.00598550415039066,0.0615309826660173,0.0690642982572769,0.0747739999999339,
-0.0260010300292969,-0.0323217224121094,-0.0390254870605453,0.0569538053389117,0.0777789999999641,
0.000335188232421846,-0.0466869323730469,-0.0725443103027317,0.0862696873928243,0.0807780000000093,
0.00751779321289064,-0.0490811340332032,-0.0438138903808571,0.0662203286240925,0.0837440000000242,
-0.0260010300292969,-0.0418985290527344,0.00885854614258008,0.0501000413086401,0.0868150000000014,
-0.0020590134277344,-0.0251391174316407,-0.0079008654785131,0.0264317694611422,0.0897579999999607,
-0.0403662399902344,-0.0275333190917969,-0.027054478759764,0.0558521424130035,0.0928049999999985,
-0.00445321508789065,-0.0323217224121094,-0.0198718737792944,0.0382023066293736,0.0957419999999729,
-0.0260010300292969,-0.0514753356933594,-0.0509964953613249,0.0769831558619551,0.0986890000000358,
-0.0331836350097656,-0.0825999572753907,-0.0126892687988249,0.0899162060865923,0.101729999999975,
0.00272938989257815,-0.0514753356933594,0.00885854614258008,0.0523032847313624,0.104697999999985,
-0.00445321508789065,-0.0227449157714844,-0.0438138903808571,0.0495663122329744,0.107817999999952,
-0.00924161840820314,-0.0155623107910157,-0.0605733020019503,0.0632196009428918,0.110859000000005,
-0.0164242233886719,-0.0155623107910157,-0.0222660754394504,0.0317445860983011,0.113897999999949,
-0.0427604416503906,-0.0514753356933594,-0.0174776721191385,0.0691638241972248,0.116989999999987,
0.000335188232421846,-0.0514753356933594,-0.13718775512695,0.146527481015225,0.119956000000002,
-0.0164242233886719,-0.0754173522949219,0.00407014282226825,0.0772922907131819,0.123037999999951,
-0.0403662399902344,-0.0227449157714844,-0.000718260498045353,0.0463387572399624,0.125973999999928,
-0.0307894333496094,-0.0179565124511719,-0.0318428820800758,0.0477953416617639,0.128949000000034,
-0.00924161840820314,-0.0418985290527344,-0.0150834704589826,0.0454797243689171,0.132003999999938,
-0.0212126267089844,-0.0897825622558594,-0.0174776721191385,0.0938954367359037,0.134957999999983,
-0.0307894333496094,-0.0442927307128907,-0.0462080920410131,0.0710283251250191,0.138029999999958,
-0.0307894333496094,-0.00837970581054691,-0.0150834704589826,0.0352947553688696,0.140972000000033,
-0.0427604416503906,0.0011971008300781,-0.00550666381835718,0.0431301723500178,0.14390800000001,
-0.0164242233886719,-0.0203507141113282,-0.0150834704589826,0.03018969625301,0.146961000000033,
-0.0260010300292969,-0.0442927307128907,-0.010295067138669,0.0523821340151272,0.149950999999987,
0.0218830031738281,-0.0706289489746094,-0.027054478759764,0.0787353737663464,0.153046000000018,
-0.0068474167480469,-0.0490811340332032,-0.0126892687988249,0.051155277115421,0.155987999999979,
-0.0164242233886719,-0.0203507141113282,0.00407014282226825,0.0264664455746454,0.158997999999997,
-0.0260010300292969,-0.0179565124511719,-0.118034141845701,0.122190623794318,0.161968999999999,
-0.0212126267089844,-0.0323217224121094,-0.00550666381835718,0.0390511538624479,0.164909999999963,
-0.0475488449707031,-0.0466869323730469,-0.0342370837402317,0.0749182235206432,0.167954000000009,
-0.0212126267089844,-0.0514753356933594,-0.000718260498045353,0.0556794541530519,0.170890999999983,
-0.0212126267089844,-0.0682347473144532,0.00407014282226825,0.071571798465287,0.173898000000008,
-0.0164242233886719,-0.0323217224121094,0.0184353527832055,0.0406732232045568,0.176877999999988,
-0.0307894333496094,-0.0395043273925782,-0.0629675036621062,0.0804579865903156,0.179827999999929,
-0.0499430466308594,-0.0347159240722656,-0.0438138903808571,0.0749610584321571,0.182871999999975,
0.00751779321289064,-0.0251391174316407,0.00407014282226825,0.0265529377400555,0.185833000000002,
-0.0499430466308594,-0.0155623107910157,0.011252747802736,0.0535081092643007,0.188883000000033,
-0.0236068283691406,-0.0395043273925782,0.0136469494628937,0.0480011818399593,0.191823999999997,
-0.00924161840820314,-0.0371101257324219,-0.0677559069824198,0.0778038037225002,0.194773999999938,
-0.0307894333496094,-0.0586579406738282,-0.00550666381835718,0.0664760600253413,0.197817999999984,
-0.00924161840820314,-0.0251391174316407,-0.0390254870605453,0.0473325614810507,0.200761999999941,
-0.0020590134277344,-0.0490811340332032,-0.0174776721191385,0.0521408311880906,0.203806999999983,
-0.0475488449707031,-0.0634463439941407,0.011252747802736,0.0800809312969247,0.206766000000016,
-0.0116358200683594,-0.0610521423339844,0.0304063610839869,0.0691903402694489,0.209709999999973,
-0.0331836350097656,-0.0586579406738282,-0.027054478759764,0.0726212947937325,0.212762999999995,
0.0266714064941406,-0.0778115539550782,-0.0677559069824198,0.106568591922245,0.215718000000038,
-0.0499430466308594,-0.0275333190917969,-0.0414196887207012,0.070483914340101,0.218773999999939,
-0.0236068283691406,-0.0682347473144532,-0.0294486804199199,0.0779774830652536,0.221716000000015,
0.0147003981933594,-0.0155623107910157,0.011252747802736,0.0241849448482205,0.224705999999969,
-0.0116358200683594,-0.0371101257324219,-0.0533906970214826,0.0660539194066419,0.227757999999994,
-0.0595198532714844,-0.0586579406738282,-0.0988805285644503,0.129463222062246,0.230721000000017,
0.0194888015136719,-0.0418985290527344,-0.0174776721191385,0.0494041409592986,0.233798999999976,
3.56290725854492,1.82079036254883,-0.395761534423826,4.02072292871223,14.8581839999999,
3.50065801538086,1.27251818237305,-0.599268675537107,3.77266908310287,14.862451,
3.41925515893555,1.05225162963867,-0.695036741943357,3.64439506731033,14.865382,
3.39531314233398,0.860715496826172,-0.809958421630856,3.59513770887199,14.868323,
3.23250742944336,0.580593902587891,-0.874601866455075,3.39869415892861,14.871327,
3.10561474145508,0.436941802978516,-0.984735142822263,3.2871666162582,14.874315,
2.9404148269043,0.161608612060547,-1.27682774536133,3.20974232440787,14.877437,
2.7871859206543,-0.0418985290527344,-1.33189438354492,3.08935324816519,14.880503,
2.62916861108398,-0.125695587158203,-1.50667110473633,3.03288390545825,14.883544,
2.51664113305664,-0.142454998779297,-1.64792900268555,3.01155209437957,14.88659,
2.39453684838867,-0.235828863525391,-1.71017824584961,2.95197079994706,14.889574,
2.23651953881836,-0.175973822021484,-1.76045648071289,2.85170009889489,14.89261,
2.10723264916992,-0.0849941589355469,-1.93283900024414,2.86068524057534,14.895585,
1.97076315454102,-0.0035913024902344,-2.02381866333008,2.82484730397825,14.8985779999999,
1.87738928979492,0.164002813720703,-2.04536647827148,2.78118886427759,14.901622,
1.84147626489258,0.365115753173828,-2.13395193969726,2.84219901279205,14.904584,
1.74810240014648,0.578199700927734,-2.21774899780273,2.88246205747896,14.907612,
1.72655458520508,0.776918438720703,-2.21535479614258,2.91417052845382,14.910586,
1.68106475366211,1.05704003295898,-2.32309387084961,3.05615403245026,14.913538,
1.68824735864258,1.29406599731445,-2.36140109741211,3.1782072135448,14.916598,
1.70021836694336,1.54785137329102,-2.26563303100586,3.22795281878085,14.919576,
1.71697777856445,1.75854111938477,-2.35421849243164,3.40335485525066,14.922613,
1.73134298852539,1.97641347045898,-2.41407353393554,3.56812412583641,14.925576,
1.7744386184082,2.16555540161133,-2.46435176879883,3.72978447746359,14.9286,
1.80556323999023,2.43370598754883,-2.44280395385742,3.89233536638565,14.931561,
1.79359223168945,2.60608850708008,-2.44759235717773,3.99992234264948,14.9345079999999,
1.78162122338867,2.8239608581543,-2.46914017211914,4.15278006901269,14.937532,
1.88696609643555,2.98676657104492,-2.47392857543945,4.31297324306383,14.9404949999999,
1.83668786157227,3.13520707397461,-2.48350538208008,4.40122081704248,14.943508,
1.87499508813477,3.2285809387207,-2.44759235717773,4.46430843528032,14.946476,
1.86541828149414,3.27646497192383,-2.43562134887695,4.48856986492151,14.9494109999999,
1.97076315454102,3.40335765991211,-2.42365034057617,4.61961380917863,14.9524309999999,
2.02343559106445,3.41054026489258,-2.47153437377929,4.67274637129092,14.955384,
2.12399206079102,3.45603009643555,-2.44519815551758,4.73650507457958,14.958395,
2.18384710229492,3.47039530639648,-2.48350538208008,4.79381171216407,14.9613419999999,
2.23173113549805,3.44884749145508,-2.42604454223633,4.77083483275014,14.964276,
2.35622962182617,3.39378085327149,-2.46914017211914,4.81312992764332,14.967279,
2.31313399194336,3.34589682006836,-2.44040975219726,4.74354447157892,14.970228,
2.34425861352539,3.29083018188477,-2.39013151733398,4.69444782730035,14.9732319999999,
2.3490470168457,3.21182152709961,-2.4547749621582,4.67544003534758,14.976179,
2.33468180688477,3.1519664855957,-2.42365034057617,4.61082561360677,14.979105,
2.36101802514648,3.01789119262695,-2.34703588745117,4.49340080813916,14.982122,
2.40650785668945,2.89339270629883,-2.35182429077148,4.43780113477769,14.985064,
2.49509331811523,2.74974060668945,-2.39491992065429,4.4183939951669,14.988076,
2.49988172143555,2.64439573364258,-2.38773731567383,4.35241621469453,14.991024,
2.49509331811523,2.43131178588867,-2.37337210571289,4.21540778792284,14.993952,
2.55973676293945,2.34033212280273,-2.46914017211914,4.25747107214349,14.996939,
2.5788903762207,2.22541044311523,-2.51702420532226,4.23539113460236,14.999877,
2.64113961938477,2.10570036010742,-2.43562134887695,4.16435395358579,15.002869,
2.66029323266602,1.98359607543945,-2.5313894152832,4.173696903954,15.005798,
2.66268743432617,1.87585700073242,-2.57209084350586,4.15022832713599,15.0087129999999,
2.67944684594727,1.85191498413086,-2.51463000366211,4.11489836618389,15.0117299999999,
2.7105714675293,1.81839616088867,-2.60321546508789,4.17498419592115,15.014754,
2.73451348413086,1.80642515258789,-2.61279227172851,4.19135053198846,15.017862,
2.73690768579102,1.77530053100586,-2.58885025512695,4.16467301230271,15.020901,
2.81112793725586,1.83036716918945,-2.66785890991211,4.28604192896715,15.023966,
2.80394533227539,1.91655842895508,-2.58166765014648,4.26618254342223,15.026916,
2.8087337355957,1.91895263061523,-2.56251403686523,4.2588546095341,15.029848,
2.79436852563477,2.0578163269043,-2.50744739868164,4.28140116661443,15.032859,
2.77760911401367,2.2493524597168,-2.52181260864258,4.37426996325038,15.035851,
2.77521491235352,2.3642741394043,-2.42125613891601,4.37653873583266,15.038847,
2.78000331567383,2.54383926391602,-2.35421849243164,4.44318369481899,15.0418129999999,
2.75606129907227,2.73776959838867,-2.24408521606445,4.48633198894868,15.044755,
2.78958012231445,2.90296951293945,-2.27281563598633,4.62327591292709,15.047778,
2.80394533227539,3.0538042175293,-2.1866243762207,4.68712660252219,15.050755,
2.81352213891602,3.19266791381836,-2.15549975463867,4.77024259617299,15.053773,
2.87816558374023,3.37702144165039,-2.06691429321289,4.89492039161833,15.056755,
2.87577138208008,3.52067354125977,-1.99987664672851,4.96635780308341,15.059705,
2.9236554152832,3.65714303588867,-1.98072303344726,5.08386859659968,15.062723,
2.90450180200195,3.76248790893555,-1.88734916870117,5.11415025857823,15.065696,
2.86140617211914,3.88219799194336,-1.9567810168457,5.20462279885663,15.068719,
2.91168440698242,3.94684143676758,-1.90889698364258,5.26301730065652,15.071673,
2.82788734887695,4.01387908325195,-1.79636950561523,5.22829948966298,15.0745899999999,
2.8254931472168,4.0880993347168,-1.7269376574707,5.26101524121261,15.077615,
2.84943516381836,4.18865580444336,-1.77482169067383,5.36787762850346,15.080567,
2.88055978540039,4.1862616027832,-1.70778404418945,5.36087093910971,15.083577,
2.91886701196289,4.21738622436523,-1.69581303588867,5.40202860522607,15.086557,
2.96435684350586,4.27484706420898,-1.61441017944336,5.44683845414076,15.089477,
3.00505827172852,4.21259782104492,-1.6120159777832,5.41986633884866,15.0924639999999,
3.07449011987305,4.2030210144043,-1.60243917114258,5.44845725338221,15.0953969999999,
3.0936437331543,4.18147319946289,-1.52821891967773,5.4213285024957,15.098389,
3.13434516137695,4.1096471496582,-1.58807396118164,5.40696755968852,15.101324,
3.11997995141602,4.01627328491211,-1.38456682006836,5.27083971256676,15.104216,
3.12716255639648,3.93726463012695,-1.36301900512695,5.20951237930329,15.107225,
3.12716255639648,3.81755454711914,-1.3438653918457,5.11457159161536,15.1101609999999,
3.11758574975586,3.68108505249023,-1.30316396362304,4.99679541174477,15.113169,
3.09124953149414,3.53264454956055,-1.33189438354492,4.87948192213283,15.116094,
3.0553365065918,3.30040698852539,-1.23852051879883,4.66494378678945,15.1190779999999,
2.98111625512695,3.14478388061523,-1.2672509387207,4.51471424611216,15.121996,
2.94999163354492,3.02028539428711,-1.17866547729492,4.3833579375059,15.124907,
2.86858877709961,2.87663329467773,-1.21936690551758,4.24154174026637,15.127901,
2.82788734887695,2.7305869934082,-1.17627127563476,4.10325069918861,15.130828,
2.75127289575195,2.64678993530273,-1.23612631713867,4.01285531516425,15.13381,
2.70338886254883,2.55820447387695,-1.17866547729492,3.90409705049503,15.136771,
2.67944684594727,2.53426245727539,-1.17148287231445,3.869663257021,15.1397009999999,
2.67465844262695,2.54862766723633,-1.09486841918945,3.85331514753939,15.14273,
2.5788903762207,2.53665665893555,-1.04937858764648,3.76649678057698,15.145684,
2.55255415795898,2.52947405395508,-1.07332060424804,3.75043848615719,15.148704,
2.46157449487305,2.62284791870117,-0.979946739501951,3.72813301944889,15.151673,
2.44960348657227,2.68270296020508,-1.00388875610351,3.76898461773873,15.154704,
2.43044987329102,2.86466228637695,-0.860236656494138,3.85400878394782,15.1578089999999,
2.39932525170898,3.01070858764648,-0.8075642199707,3.93361002548468,15.160852,
2.32031659692383,3.16154329223633,-0.726161363525389,3.98829981627783,15.163877,
2.32031659692383,3.31477219848633,-0.592086070556638,4.08927252121514,15.166831,
2.27961516870117,3.50391412963867,-0.462799180908201,4.20573924858678,15.169766,
2.22933693383789,3.6667198425293,-0.345483299560545,4.30512906640986,15.172807,
2.15511668237305,3.83670816040039,-0.21380220825195,4.40574270775984,15.175785,
2.1575108840332,3.9731776550293,-0.146764561767576,4.52355321950971,15.178812,
2.18624130395508,4.06415731811523,-0.122822545166013,4.61650421023418,15.1817579999999,
2.16469348901367,4.21738622436523,-0.0725443103027317,4.74104494218322,15.184722,
2.21018332055664,4.26527025756836,0.00885854614258008,4.80390665546322,15.1877489999999,
2.22933693383789,4.35385571899414,0.104626612548831,4.89254019037608,15.1907239999999,
2.23891374047852,4.42328756713867,0.12378022583008,4.95918634286045,15.193749,
2.16469348901367,4.50708462524414,0.198000477294924,5.00388987783498,15.19673,
2.15032827905273,4.49032521362305,0.262643922119143,4.98557058536121,15.199665,
2.11202105249023,4.50708462524414,0.293768543701175,4.98605502401873,15.202677,
2.09526164086914,4.53342084350586,0.329681568603519,5.00506901298153,15.2056249999999,
2.12878046411133,4.48553681030273,0.375171400146487,4.97920679631312,15.208638,
2.07131962426758,4.42328756713867,0.35362358520508,4.89702843850154,15.211581,
2.05456021264648,4.34427891235352,0.219548292236331,4.81063180760421,15.214582,
1.97794575952148,4.15753118286133,0.233913502197268,4.60999463021201,15.217528,
1.93006172631836,4.06415731811523,0.241096107177738,4.50562318738317,15.220451,
1.84865886987305,3.91332261352539,0.193212073974612,4.33231628580129,15.223487,
1.75767920678711,3.69784446411133,0.164481654052738,4.09762664102655,15.22644,
1.70979517358398,3.4368764831543,0.114203419189456,3.84038564691421,15.229441,
1.64036332543945,3.26449396362305,0.0950498059082054,3.65468837845052,15.232402,
1.5996618972168,2.99155497436523,0.011252747802736,3.39241005398665,15.235334,
1.52544164575195,2.74016380004883,-0.0916979235839825,3.13749555774699,15.2383619999999,
1.47755761254883,2.52229144897461,-0.223379014892576,2.93172796082205,15.241323,
1.45840399926758,2.33554371948242,-0.371819517822264,2.77848095990004,15.2443519999999,
1.39376055444336,2.19907422485352,-0.450828172607419,2.64229861498543,15.247311,
1.34827072290039,2.06021052856445,-0.568144053955075,2.52687337044868,15.250262,
1.2932040847168,2.00035548706055,-0.73813237182617,2.49371976727121,15.253285,
1.32193450463867,1.91177002563477,-0.81474682495117,2.46296322632675,15.256265,
1.22616643823242,1.93092363891602,-0.860236656494138,2.44375885445935,15.259293,
1.2764446730957,1.97401926879883,-0.996706151123044,2.55332846080366,15.262263,
1.25250265649414,2.03866271362305,-0.977552537841795,2.58466971365447,15.265186,
1.19504181665039,2.14161338500977,-1.03022497436523,2.66007449749098,15.268234,
1.16391719506836,2.31639010620117,-1.10444522583008,2.81782994837185,15.2711869999999,
1.1782824050293,2.46722481079102,-1.08050320922851,2.93990388926875,15.274222,
1.09687954858398,2.66115514526367,-1.00388875610351,3.04839040903494,15.2771789999999,
1.11842736352539,2.9005753112793,-1.03261917602539,3.27574713104976,15.280126,
1.07054333032227,3.12323606567383,-0.905726488037107,3.4235956266994,15.283144,
1.08969694360352,3.37462723999024,-0.843477244873045,3.64513405794651,15.28611,
1.07533173364258,3.64277782592773,-0.802775816650389,3.88208933929247,15.289132,
1.11363896020508,3.89895740356445,-0.683065733642575,4.11201159591913,15.292159,
1.14715778344727,4.16231958618164,-0.616028087158201,4.36123444930478,15.295179,
1.13279257348633,4.39216294555664,-0.539413634033201,4.5678530431098,15.2982969999999,
1.21898383325195,4.5693338684082,-0.417309349365231,4.74751310475069,15.301318,
1.22856063989258,4.76565840454102,-0.309570274658201,4.93119610537014,15.304355,
1.2764446730957,4.92128151245117,-0.321541282958982,5.09428223844292,15.307312,
1.25729105981445,5.0673278137207,-0.211408006591794,5.22525457045376,15.310331,
1.3147518996582,5.17267268676758,-0.235350023193357,5.34233141198703,15.313309,
1.31954030297852,5.22295092163086,-0.249715233154294,5.39284346505798,15.3162619999999,
1.35545332788086,5.28280596313477,-0.29041666137695,5.46165125263421,15.319293,
1.42249097436523,5.27083495483399,-0.376607921142575,5.4723866109329,15.3222549999999,
1.47037500756836,5.27801755981445,-0.388578929443357,5.49276484195334,15.325281,
1.58529668725586,5.22534512329102,-0.489135399169919,5.4823946121058,15.32825,
1.67388214868164,5.24210453491211,-0.522654222412108,5.52763139498523,15.331191,
1.87738928979492,5.19182630004883,-0.630393297119138,5.55671185003938,15.334258,
2.01864718774414,5.07929882202148,-0.690248338623045,5.50914292435294,15.337231,
2.22933693383789,4.95719453735352,-0.769256993408201,5.48957896087202,15.340247,
2.4424208815918,4.87100327758789,-0.886572874755856,5.52069779605445,15.343207,
2.65071642602539,4.6627077331543,-0.948822117919919,5.44677926737184,15.346144,
2.80633953393555,4.58369907836914,-1.04459018432617,5.47512625187422,15.349155,
2.96675104516602,4.44004697875977,-1.00867715942383,5.43443267963922,15.3521059999999,
3.11279734643555,4.30836588745117,-1.08529161254883,5.4248854203935,15.35511,
3.21095961450195,4.17189639282227,-1.18584808227539,5.39640777116057,15.358068,
3.3067276809082,4.1264065612793,-1.11881043579101,5.40494364964967,15.360983,
3.46474499047852,4.01387908325195,-1.16669446899414,5.42925953772658,15.364012,
3.49347541040039,3.91571681518555,-1.15951186401367,5.37416750600384,15.3669639999999,
3.63952171166992,3.7433342956543,-1.19303068725586,5.35555712876565,15.369976,
3.73768397973633,3.58292278442383,-1.18105967895508,5.31060440785928,15.372924,
3.83345204614258,3.37462723999024,-1.13317564575195,5.23140044759376,15.375858,
3.9364027175293,3.19985051879883,-1.19542488891601,5.21184711616419,15.378873,
4.06329540551758,2.98197816772461,-1.19303068725586,5.17937115546093,15.381835,
4.10878523706055,2.7856536315918,-1.22176110717773,5.11220915871988,15.384849,
4.1279388503418,2.63721312866211,-1.21457850219726,5.04677849485676,15.387802,
4.25961994165039,2.49116682739258,-1.21457850219726,5.08187712830669,15.3907419999999,
4.19737069848633,2.40018716430664,-1.2840103503418,5.00274942246749,15.393761,
4.17103448022461,2.28047708129883,-1.23612631713867,4.91183393708242,15.396715,
4.13272725366211,2.24456405639648,-1.31752917358398,4.88399278046902,15.3997409999999,
4.07526641381836,2.24695825805664,-1.35344219848633,4.84648568982602,15.402688,
4.05850700219727,2.2876596862793,-1.3438653918457,4.848797801364,15.405708,
4.04174759057617,2.34512052612305,-1.24330892211914,4.83540390699608,15.4086589999999,
3.96992154077149,2.4791958190918,-1.1690886706543,4.82425717278172,15.411598,
3.98189254907227,2.59651170043945,-1.0541669909668,4.86914872721302,15.414612,
3.97231574243164,2.72340438842773,-1.07092640258789,4.93387344590815,15.417569,
3.93879691918945,2.88621010131836,-0.936851109619138,4.97212428657642,15.420577,
3.87894187768555,3.02507379760742,-0.769256993408201,4.97885708705734,15.423538,
3.83345204614258,3.15675488891602,-0.740526573486326,5.02084013137336,15.426459,
3.77120280297852,3.27407077026367,-0.671094725341794,5.03903543550445,15.429488,
3.70177095483398,3.41293446655274,-0.582509263916013,5.06858431098705,15.432533,
3.61079129174805,3.50151992797852,-0.510683214111326,5.0556159766906,15.435659,
3.5150232253418,3.56137496948242,-0.40533834106445,5.02026683739869,15.438701,
3.42404356225586,3.61404740600586,-0.414915147705075,4.99575495284533,15.4416699999999,
3.34024650415039,3.66432564086914,-0.371819517822264,4.97220060583375,15.4446839999999,
3.27081465600586,3.70981547241211,-0.331118089599608,4.95687386792836,15.447646,
3.21335381616211,3.72178648071289,-0.266474644775387,4.9242609691373,15.450684,
3.12476835473633,3.69305606079102,-0.149158763427732,4.83994717694461,15.45367,
3.14392196801758,3.67629664916992,-0.108457335205076,4.83850859121293,15.4566,
3.11758574975586,3.7050270690918,-0.0533906970214826,4.8424598146306,15.4596319999999,
3.10322053979492,3.69784446411133,0.00167594116211234,4.82742521517865,15.462599,
3.04097129663086,3.63798942260742,0.12378022583008,4.74318405822954,15.46563,
2.9404148269043,3.63798942260742,0.140539637451175,4.67982454617446,15.4685959999999,
2.90689600366211,3.57813438110352,0.16208745239258,4.61295592517042,15.471542,
2.87816558374023,3.58052858276367,0.226730897216799,4.59950312089981,15.474588,
2.86140617211914,3.51109673461914,0.303345350341798,4.53954446649316,15.477545,
2.83028155053711,3.44166488647461,0.348835181884768,4.46959023068375,15.480562,
2.84225255883789,3.35786782836914,0.458968458251956,4.42315814850512,15.483514,
2.82070474389648,3.27167656860352,0.547553919677737,4.35431488488647,15.486448,
2.68423524926758,3.16154329223633,0.578678541259768,4.1875223839652,15.489449,
2.55494835961914,3.0154969909668,0.695994422607424,4.01315230948826,15.49239,
2.45678609155273,2.9005753112793,0.753455262451174,3.87515546379308,15.495402,
2.25567315209961,2.73776959838867,0.767820472412112,3.62946167093956,15.498343,
2.15990508569336,2.6539725402832,0.904289967041018,3.53927966799353,15.501363,
2.03061819604492,2.48159002075195,0.966539210205081,3.34901438248155,15.504309,
1.95400374291992,2.35709153442383,1.07427828491211,3.24470105902397,15.507244,
1.84147626489258,2.24456405639648,1.08146088989258,3.09817047526391,15.510263,
1.76965021508789,2.17034380493164,1.12695072143555,3.01862088442883,15.5132179999999,
1.68824735864258,2.0195091003418,1.2993332409668,2.93544937299356,15.516214,
1.54220105737305,1.96204826049805,1.19638256958008,2.76755284153365,15.519187,
1.45361559594727,1.92374103393555,1.12695072143555,2.66154011710751,15.522124,
1.34348231958008,1.91416422729492,1.05512467163086,2.56559106343236,15.525163,
1.20701282495117,1.93810624389648,0.976116016845706,2.48313073569836,15.528144,
1.14955198510742,1.97401926879883,0.933020386962893,2.46753903364098,15.5311829999999,
1.14715778344727,2.05063372192383,0.808521900634767,2.48490991897511,15.534132,
1.02984190209961,2.12724817504883,0.861194337158206,2.51543531578971,15.537098,
1.04899551538086,2.12245977172852,0.75584946411133,2.48526366534668,15.540125,
0.969986860595703,2.25414086303711,0.6481103894043,2.53812383799447,15.5430759999999,
0.996323078857422,2.33075531616211,0.597832154541019,2.60432012361864,15.546076,
1.0082940871582,2.46004220581055,0.528400306396486,2.71065886905146,15.54903,
1.04899551538086,2.49356102905273,0.506852491455081,2.75229679449617,15.551958,
1.06814912866211,2.56778128051758,0.482910474853519,2.82270186033902,15.554988,
1.24532005151367,2.64200153198242,0.399113416748049,2.94792904343503,15.557941,
1.28362727807617,2.69706817016602,0.332075770263675,3.00535356002253,15.560968,
1.33869391625977,2.69706817016602,0.423055433349612,3.04060093002028,15.5639169999999,
1.41770257104492,2.70185657348633,0.406296021728519,3.07814651712863,15.566854,
1.42488517602539,2.72579859008789,0.480516273193361,3.11306466482559,15.569917,
1.48234601586914,2.69946237182617,0.382354005126956,3.10332747110342,15.5729719999999,
