X,Y,Z,Magnitude,Seconds,
3.36897692407227,2.88621010131836,1.74944315307618,4.7687278817027,0.0,
3.35461171411133,2.68749136352539,1.86197063110352,4.68433177866049,0.00293399999998201,
3.32588129418945,2.50553203735352,1.94337348754883,4.59520159354863,0.00593800000001465,
3.28996826928711,2.30441909790039,1.88112424438477,4.43541058014884,0.00891999999998916,
3.20138280786133,2.08894094848633,1.87873004272461,4.25936060250468,0.0119189999999207,
3.15589297631836,1.89022221069336,1.90506626098633,4.14268969903884,0.0148859999999331,
3.04097129663086,1.67234985961914,1.91703726928711,3.96475628150542,0.0178209999999126,
2.98351045678711,1.53588036499023,1.98168071411133,3.89709142746246,0.020844000000011,
2.83267575219727,1.4281412902832,1.95295029418946,3.72527238113843,0.0237999999999374,
2.66987003930664,1.38504566040039,1.90746046264649,3.56159555883887,0.0268229999999221,
2.55255415795898,1.4664485168457,1.92421987426758,3.51690575739513,0.0297689999999875,
2.41369046166992,1.4065934753418,1.88830684936524,3.37195931277205,0.0327199999999266,
2.35383542016602,1.52869776000977,1.70634752319336,3.28467348401559,0.0357490000000098,
2.30355718530273,1.58376439819336,1.74226054809571,3.29395767920527,0.0387139999999135,
2.26285575708008,1.6962918762207,1.59860844848633,3.24861066892521,0.0417390000000069,
2.25327895043945,1.85430918579102,1.51241718872071,3.28681218473771,0.0447029999999131,
2.23651953881836,1.95247145385742,1.43101433227539,3.29574975458119,0.0476390000000038,
2.12878046411133,2.04584531860352,1.33285206420899,3.23939561602162,0.0506500000000187,
2.10483844750977,2.1176713684082,1.22032458618164,3.22553391089454,0.0536220000000185,
2.05456021264648,2.23977565307617,1.15568114135742,3.25167826575631,0.0566499999999905,
1.99709937280273,2.37145674438477,1.07667248657227,3.28198669081378,0.0596160000000054,
2.03540659936523,2.51510884399414,1.09582609985352,3.41606313802852,0.06264299999998,
2.06174281762695,2.60608850708008,0.997663831787111,3.46955528476307,0.0655919999999242,
2.09286743920898,2.67312615356445,0.961750806884767,3.52854958382548,0.0685320000000047,
2.12399206079102,2.94606514282227,1.04075946166992,3.77807124828412,0.071550000000002,
2.1958181105957,2.98437236938477,1.03836526000977,3.84789527237456,0.0745289999999841,
2.34425861352539,3.12563026733398,1.17722895629883,4.08056136220383,0.0776389999999765,
2.35622962182617,3.21182152709961,1.22511298950196,4.16755532533858,0.0807039999999688,
2.41608466333008,3.26449396362305,1.26820861938477,4.25473137121393,0.0837419999999156,
2.46636289819336,3.17590850219727,1.23229559448242,4.2056977057433,0.0867929999999433,
2.4424208815918,3.0370448059082,1.28496803100586,4.10368173188866,0.0897429999999986,
2.42326726831055,2.85029707641602,1.26342021606446,3.94875275496597,0.0927619999999933,
2.40650785668945,2.67552035522461,1.29215063598633,3.82352487916702,0.095737999999983,
2.35383542016602,2.49595523071289,1.25384340942383,3.65273281178719,0.0987079999999878,
2.22454853051758,2.2876596862793,1.27778542602539,3.43725742414186,0.10172399999999,
2.0042819777832,2.12724817504883,1.24905500610352,3.17843820971674,0.10470399999997,
1.89654290307617,1.9261352355957,1.25863181274414,2.98178234770137,0.107739999999922,
1.78640962670898,1.79445414428711,1.18201735961914,2.79436756150452,0.110728999999992,
1.65712273706055,1.72741649780273,1.33524626586914,2.74096809778618,0.113699999999994,
1.53501845239258,1.63883103637695,1.25863181274414,2.57414118785852,0.116761999999994,
1.41530836938477,1.61249481811523,1.22032458618164,2.46828471099637,0.119751999999949,
1.39615475610352,1.51672675170898,1.17244055297852,2.37156593680394,0.122797999999989,
1.33869391625977,1.44968910522461,1.15328693969727,2.28555697118101,0.125762000000009,
1.23095484155273,1.44729490356445,1.12216231811524,2.20661746300158,0.128725999999915,
1.13518677514648,1.42095868530273,1.00245223510742,2.07670004658271,0.131757999999991,
1.08251433862305,1.4281412902832,0.937808790283206,2.02259985302796,0.13473399999998,
1.05857232202148,1.39222826538086,0.863588538818362,1.95055378501947,0.137769999999932,
1.08251433862305,1.38504566040039,0.712753834228518,1.89689398832035,0.140749999999912,
1.01547669213867,1.38025725708008,0.545159718017581,1.79819412916073,0.143693999999982,
0.941256440673828,1.34434423217773,0.408690223388675,1.69122819288025,0.146731999999929,
0.907737617431641,1.35392103881836,0.231519300537112,1.64641761044294,0.149690999999962,
0.821546357666016,1.35631524047852,0.107020814208987,1.58933410710981,0.152717999999936,
0.735355097900391,1.3515268371582,-0.0916979235839825,1.54135668187365,0.155669999999986,
0.567760981689453,1.4664485168457,-0.216196409912108,1.58731366545709,0.158690999999976,
0.474387116943359,1.49757313842773,-0.369425316162108,1.61376686850474,0.161656999999991,
0.347494428955078,1.51433255004883,-0.563355650634763,1.65267209070472,0.164610999999923,
0.222995942626953,1.5598223815918,-0.740526573486326,1.74102057959755,0.167634000000021,
0.110468464599609,1.64840784301758,-0.900938084716795,1.88179199995271,0.170605000000023,
-0.0667024582519531,1.66516725463867,-1.18105967895508,2.0425800275904,0.173617999999919,
-0.227113969482422,1.68671506958008,-1.29119295532226,2.13629766862121,0.17656199999999,
-0.327670439208984,1.80642515258789,-1.45399866821289,2.34193336280058,0.17948899999999,
-0.399496489013672,1.88303960571289,-1.72214925415039,2.58287313954603,0.182517999999959,
-0.397102287353516,1.94768305053711,-1.82988832885742,2.70178659187944,0.185469000000012,
-0.473716740478516,2.06739313354492,-2.00945345336914,2.9217161224348,0.188476999999921,
-0.476110942138672,2.14161338500977,-2.20817219116211,3.11275022221489,0.191436999999951,
-0.433015312255859,2.2325930480957,-2.32548807250976,3.25267101847673,0.194364999999948,
-0.375554472412109,2.34512052612305,-2.4547749621582,3.41563340518727,0.197377999999958,
-0.294151615966797,2.43370598754883,-2.67264731323242,3.62663668816375,0.200320999999917,
-0.260632792724609,2.5558102722168,-2.83066462280273,3.82266370571612,0.203321999999957,
-0.193595146240234,2.64918413696289,-2.91925008422851,3.94685656269034,0.206263999999919,
-0.140922709716797,2.77128842163086,-3.0676905871582,4.13649903475369,0.209182999999939,
0.0051235915527344,2.88860430297852,-3.16585285522461,4.28563710214831,0.212209999999914,
0.127227876220703,3.02028539428711,-3.31189915649414,4.48408149103228,0.215226999999913,
0.256514765869141,3.11126505737305,-3.40766722290039,4.62146794691568,0.218354999999974,
0.443262495361328,3.25252295532227,-3.44836865112304,4.76094880971644,0.221415999999977,
0.560578376708984,3.38659824829102,-3.58244394409179,4.9615723741896,0.224423999999999,
0.716201484619141,3.51109673461914,-3.54413671752929,5.04000495227566,0.227448999999979,
0.919708625732422,3.56376917114258,-3.60638596069336,5.15289572560119,0.230411000000004,
1.06814912866211,3.6882676574707,-3.61356856567383,5.27277333601892,0.233435999999983,
1.50149962915039,4.19344420776367,-1.09486841918945,4.58674310544027,14.6636619999999,
1.61402710717773,3.94684143676758,-1.29119295532226,4.45531369014169,14.66764,
1.6595169387207,3.86783278198242,-1.40611463500976,4.43748636798666,14.670658,
1.7361313918457,3.70981547241211,-1.52582471801758,4.37092943425238,14.673646,
1.78162122338867,3.59249959106445,-1.53061312133789,4.29220270055352,14.676659,
1.87020668481445,3.49912572631836,-1.66229421264648,4.30171778966329,14.679612,
1.86541828149414,3.40814606323242,-1.71975505249023,4.24885895198051,14.6826169999999,
1.88217769311523,3.35547362670898,-1.82031152221679,4.25621077555087,14.685601,
1.8893602980957,3.32434900512695,-1.89213757202148,4.26628213264948,14.688542,
1.91809071801758,3.2668881652832,-2.05733748657226,4.31094743886632,14.691644,
1.94921533959961,3.27407077026367,-2.03818387329101,4.32124673562722,14.69466,
1.99470517114258,3.25970556030273,-2.09564471313476,4.35846943586177,14.6976999999999,
2.02822399438477,3.29322438354492,-2.16986496459961,4.43478673403466,14.70069,
1.99231096948242,3.32434900512695,-2.22972000610351,4.47126946320917,14.7036429999999,
2.06653122094727,3.42490547485352,-2.19380698120117,4.56216153479887,14.706683,
2.10483844750977,3.48954891967773,-2.31830546752929,4.6884791557301,14.7096329999999,
2.1742702956543,3.55419236450195,-2.30872866088867,4.763398231521,14.71269,
2.23891374047852,3.7050270690918,-2.35900689575195,4.92999734829662,14.715648,
2.31552819360352,3.77924732055664,-2.39252571899414,5.0367211994864,14.718583,
2.34665281518555,3.86783278198242,-2.43801555053711,5.13914678609756,14.721626,
2.36101802514648,3.95162984008789,-2.43562134887695,5.2078820899906,14.724574,
2.38017163842773,4.03542689819336,-2.38773731567383,5.25843862450628,14.727592,
2.36341222680664,4.1647137878418,-2.38055471069336,5.34767229914689,14.73052,
2.32271079858398,4.29639487915039,-2.38773731567383,5.43647715897985,14.733557,
2.28440357202148,4.3777977355957,-2.27760403930664,5.43793093497125,14.736528,
2.21976012719727,4.48074840698242,-2.20098958618164,5.46340520805938,14.7394469999999,
2.1958181105957,4.55018025512695,-2.16747076293945,5.4976073920538,14.742454,
2.18624130395508,4.64115991821289,-2.08846210815429,5.5391055598121,14.745378,
2.12638626245117,4.74171638793945,-2.00705925170898,5.57078806639287,14.748376,
2.12159785913086,4.72974537963867,-1.98551143676758,5.55102913860276,14.751322,
2.11441525415039,4.79678302612305,-1.90889698364258,5.57886789239948,14.754237,
2.08329063256836,4.83509025268555,-1.79397530395508,5.56206301677377,14.757314,
2.04977180932617,4.8374844543457,-1.78200429565429,5.54782476526386,14.760321,
1.98033996118164,4.86860907592773,-1.67426522094726,5.51618207876901,14.763369,
1.98991676782227,4.86621487426758,-1.63356379272461,5.50530168204287,14.7662899999999,
1.97315735620117,4.82551344604492,-1.72454345581055,5.49117292582105,14.769226,
1.95879214624023,4.81833084106445,-1.68384202758789,5.4670378396346,14.772246,
1.89175449975586,4.7776294128418,-1.67665942260742,5.40515168272046,14.775224,
1.90851391137695,4.72016857299805,-1.64074639770508,5.34924905468235,14.778282,
1.89414870141602,4.65791932983398,-1.60243917114258,5.2774826464451,14.781304,
1.83668786157227,4.59088168334961,-1.5354015246582,5.17755490297153,14.78427,
1.85584147485352,4.57172807006836,-1.46596967651367,5.14722373895822,14.787416,
1.89893710473633,4.60524689331055,-1.43723925659179,5.18458462721744,14.7904159999999,
1.89175449975586,4.55257445678711,-1.37259581176758,5.117488498709,14.793497,
1.91569651635742,4.54299765014648,-1.33189438354492,5.1071188982575,14.796469,
1.9827341628418,4.5477860534668,-1.23373211547851,5.11230747132546,14.799538,
2.03540659936523,4.57651647338867,-1.11881043579101,5.13216522017485,14.802602,
2.06653122094727,4.5860932800293,-1.08529161254883,5.14593633312233,14.8055919999999,
2.10962685083008,4.66510193481445,-1.01107136108398,5.21880894545461,14.808664,
2.1958181105957,4.69143815307617,-1.00149455444336,5.27581277733948,14.811695,
2.23173113549805,4.75368739624023,-0.869813463134763,5.32303890489025,14.814681,
2.29398037866211,4.86621487426758,-0.742920775146482,5.43086774451137,14.817723,
2.29158617700195,4.8542438659668,-0.627999095458982,5.40457524517885,14.820657,
2.27482676538086,4.92128151245117,-0.558567247314452,5.45030695530621,14.8237399999999,
2.29876878198242,5.03141478881836,-0.54659623901367,5.55861854588538,14.8267129999999,
2.27003836206055,5.06253941040039,-0.429280357666013,5.56476963337761,14.829741,
2.16708769067383,5.08169302368164,-0.283234056396482,5.53173522293932,14.832816,
2.10962685083008,5.14873067016602,-0.264080443115231,5.57043009507232,14.835772,
2.08807903588867,5.20379730834961,-0.163523973388669,5.60948487620541,14.838904,
2.14553987573242,5.19182630004883,-0.0964863269042944,5.6185150439877,14.841872,
2.07131962426758,5.22534512329102,0.0878672009277359,5.62159383879484,14.84494,
2.0808964309082,5.28520016479492,0.272220728759768,5.68661365518014,14.847935,
1.98991676782227,5.2971711730957,0.39193081176758,5.67216016532935,14.8508979999999,
1.90851391137695,5.28759436645508,0.449391651611331,5.63941773507024,14.8539949999999,
1.82471685327148,5.30674797973633,0.6481103894043,5.64900104371582,14.856985,
1.6978241652832,5.2971711730957,0.729513245849612,5.61024232178662,14.8600369999999,
1.63078651879883,5.22534512329102,0.806127698974612,5.53295022519192,14.863016,
1.41530836938477,5.14633646850586,0.842040723876956,5.40341645703819,14.8660259999999,
1.34108811791992,5.06253941040039,0.9162609753418,5.31670544574527,14.869065,
1.1615229934082,4.95001193237305,0.887530555419925,5.16134326330419,14.872087,
1.0633607253418,4.88297428588867,0.964145008544925,5.0895726251181,14.8751689999999,
0.905343415771484,4.68904395141602,0.978510218505862,4.87486021609977,14.878166,
0.821546357666016,4.61003529663086,1.07667248657227,4.80485041362563,14.8811049999999,
0.682682661376953,4.44962378540039,1.17722895629883,4.65307161596445,14.8841259999999,
0.486358125244141,4.46159479370117,0.923443580322267,4.58204325331078,14.8870889999999,
0.337917622314453,4.39934555053711,0.925837781982425,4.50839275030997,14.890126,
0.313975605712891,4.15513698120117,0.9545682019043,4.27492040459412,14.893069,
0.196659724365234,4.21499202270508,0.79415669067383,4.29366016913273,14.896031,
0.179900312744141,4.02585009155273,0.660081397705081,4.08356958233564,14.899087,
0.108074262939453,3.99233126831055,0.446997449951175,4.01873061084005,14.902077,
0.00751779321289064,4.02585009155273,0.439814844970705,4.0498101899628,14.905142,
0.0051235915527344,4.00669647827148,0.236307703857424,4.0136621994241,14.908134,
-0.0619140549316406,4.00190807495117,0.121386024169924,4.00422728593436,14.9110529999999,
-0.0236068283691406,3.87501538696289,-0.0988805285644503,3.87634865440068,14.914101,
-0.0283952316894531,3.8798037902832,-0.307176072998045,3.89204841697802,14.91712,
-0.0331836350097656,3.79600673217774,-0.448433970947264,3.82254644061661,14.92021,
0.0051235915527344,3.79361253051758,-0.673488927001952,3.85293519510576,14.9232559999999,
0.0170945998535156,3.72178648071289,-0.975158336181638,3.84745638233703,14.926342,
0.0961032546386719,3.79600673217774,-1.16430026733398,3.97171223262774,14.9293709999999,
0.225390144287109,3.78882412719727,-1.30795236694336,4.01456453157333,14.9323569999999,
0.297216194091797,3.85346757202148,-1.46596967651367,4.13359612046329,14.93543,
0.433685688720703,3.91092841186524,-1.59046816284179,4.24417639788325,14.9384669999999,
0.534242158447266,4.06894572143555,-1.78439849731445,4.4750208899031,14.941592,
0.682682661376953,4.0713399230957,-2.00705925170898,4.5902234395951,14.944562,
0.876612995849609,4.15274277954102,-2.21535479614258,4.78764240626996,14.947548,
0.967592658935547,4.21499202270508,-2.38055471069336,4.93654069523363,14.950645,
1.09209114526367,4.2796354675293,-2.56011983520508,5.10511080928793,14.95368,
1.08251433862305,4.92846411743164,-2.47632277709961,5.62083359889955,14.9567509999999,
1.28602147973633,4.72735117797852,-2.80911680786133,5.64737440289619,14.959735,
1.3530591262207,5.07690462036133,-2.86178924438476,5.98293967900159,14.9627029999999,
1.40094315942383,5.4120928527832,-2.96234571411133,6.32683830305447,14.9657999999999,
1.56374887231445,5.71376226196289,-2.93840369750976,6.61260962188417,14.9687819999999,
1.65233433374023,5.77840570678711,-3.02698915893555,6.72925290288602,14.9719,
1.91809071801758,5.88135637817383,-3.09642100708008,6.91789331391559,14.9749499999999,
2.03780080102539,5.99148965454102,-3.12754562866211,7.05918706682967,14.9779239999999,
2.26764416040039,6.03937368774414,-3.18740067016601,7.19553803482332,14.9810239999999,
2.47354550317383,6.12317074584961,-3.13233403198242,7.30911511928873,14.984008,
2.61001499780273,6.19020839233399,-3.16106445190429,7.42449908737083,14.987069,
2.66987003930664,6.18541998901367,-3.23767890502929,7.47463652356078,14.990041,
2.77760911401367,6.16147797241211,-3.28316873657226,7.51386186641576,14.993012,
2.87577138208008,6.08725772094727,-3.23049630004883,7.46732039943727,14.9961069999999,
2.9236554152832,6.07768091430664,-3.2592267199707,7.49056240182358,14.9990749999999,
2.9787220534668,6.03219108276367,-3.20894848510742,7.45368799393,15.002129,
2.9787220534668,5.9483940246582,-3.16824705688476,7.36844393056348,15.005107,
2.95478003686523,5.82868394165039,-3.09881520874023,7.23235350738819,15.008053,
2.95238583520508,5.67784923706055,-3.07487319213867,7.09995769187688,15.0110659999999,
2.9021076003418,5.55335075073242,-3.0293833605957,6.95982015788311,15.0140789999999,
2.85182936547852,5.4120928527832,-3.06529638549805,6.84249382227708,15.0171459999999,
2.7704265090332,5.30435377807617,-3.00544134399414,6.69657447633745,15.0201069999999,
2.67465844262695,5.17267268676758,-2.98389352905273,6.54323781486427,15.023111,
2.59804398950195,5.03859739379883,-2.95755731079101,6.39409426852599,15.026076,
2.49030491479492,4.84706126098633,-2.9527689074707,6.19794043673637,15.0290239999999,
2.40890205834961,4.75368739624023,-2.86897184936523,6.05238403113553,15.032069,
2.40650785668945,4.67707294311523,-2.93361529418945,6.02265639679294,15.035006,
2.32031659692383,4.57891067504883,-2.89530806762695,5.89347952287119,15.038047,
2.29158617700195,4.47596000366211,-2.82587621948242,5.76811594620337,15.0410979999999,
2.22933693383789,4.3562499206543,-2.90727907592773,5.692023204547,15.0440649999999,
2.22933693383789,4.32033689575195,-2.88573126098633,5.65355631156205,15.047091,
2.20300071557617,4.2796354675293,-2.88812546264648,5.61335555401141,15.0500569999999,
2.20778911889648,4.27484706420898,-2.83305882446289,5.58344629406972,15.0530789999999,
2.29158617700195,4.22935723266602,-2.86897184936523,5.60087754557988,15.05607,
2.19821231225586,4.27005866088867,-2.7995400012207,5.55904331298277,15.059027,
2.19342390893555,4.24372244262695,-2.72053134643554,5.49741570388161,15.062132,
2.16469348901367,4.3394905090332,-2.66067630493164,5.5313898957669,15.065126,
2.06653122094727,4.34906731567383,-2.62476328002929,5.48400584241139,15.068239,
2.01146458276367,4.42568176879883,-2.70616613647461,5.56381020925344,15.0712699999999,
1.93485012963867,4.38258613891602,-2.73489655639648,5.51637249135434,15.074259,
1.86302407983398,4.38019193725586,-2.71095453979492,5.47779286264798,15.077325,
1.84147626489258,4.40892235717773,-2.70616613647461,5.4911716731483,15.080396,
1.8127458449707,4.44004697875977,-2.66785890991211,5.48794459112423,15.0834649999999,
1.76965021508789,4.43047017211914,-2.68940672485351,5.47664462618174,15.086451,
1.73852559350586,4.49032521362305,-2.65828210327148,5.50017777021318,15.089441,
1.76725601342773,4.70580336303711,-2.52660101196289,5.62596585327531,15.092545,
1.7744386184082,4.92606991577148,-2.41167933227539,5.76463306961437,15.0955749999999,
1.84626466821289,4.9907133605957,-2.34464168579101,5.81491682721848,15.0986389999999,
1.87499508813477,5.04817420043945,-2.35661269409179,5.87820488996995,15.1016179999999,
1.98033996118164,5.17506688842773,-2.20817219116211,5.96482087638646,15.1045799999999,
2.00907038110352,5.24928713989258,-2.14352874633789,6.01548790703181,15.107655,
2.06413701928711,5.20619151000977,-2.10522151977539,5.98306353974405,15.110635,
2.09526164086914,5.40491024780273,-1.99029984008789,6.1289860159699,15.113794,
2.17666449731445,5.51025512084961,-1.87058975708008,6.21288064186102,15.1167829999999,
2.26046155541992,5.49349570922852,-1.77721589233398,6.20053851522656,15.119882,
2.34186441186523,5.45279428100586,-1.66947681762695,6.16477471114111,15.122876,
2.44960348657227,5.40730444946289,-1.72933185913086,6.18304838486755,15.125872,
2.47115130151367,5.40730444946289,-1.65511160766601,6.17129845316078,15.128954,
2.44960348657227,5.40491024780273,-1.67187101928711,6.1651248757314,15.131947,
2.35383542016602,5.33068999633789,-1.73890866577148,6.08116768147205,15.1350289999999,
2.32271079858398,5.32111318969727,-1.67905362426758,6.04387724102624,15.138016,
2.24130794213867,5.28759436645508,-1.70778404418945,5.99154753108489,15.1409669999999,
2.17187609399414,5.24928713989258,-1.69581303588867,5.9285616381543,15.14402,
2.0976558425293,5.21337411499024,-1.67187101928711,5.86298408676671,15.147037,
1.99949357446289,5.25646974487305,-1.68623622924805,5.87127254978959,15.1500689999999,
1.91809071801758,5.19661470336914,-1.6503232043457,5.77991721883795,15.1530849999999,
1.84387046655273,5.19661470336914,-1.63595799438476,5.75161031643219,15.156075,
1.78401542504883,5.22773932495117,-1.53300732299804,5.73254576421495,15.1591559999999,
1.77683282006836,5.25646974487305,-1.54018992797851,5.75845413835035,15.1621259999999,
1.74331399682617,5.25407554321289,-1.43723925659179,5.71927532000396,15.165168,
1.73852559350586,5.24689293823242,-1.40372043334961,5.70287539751233,15.168154,
1.73373719018555,5.25168134155274,-1.33668278686523,5.6897031935372,15.1711399999999,
1.72655458520508,5.2205567199707,-1.32710598022461,5.65653723446349,15.1741929999999,
1.67148794702148,5.21816251831055,-1.22176110717773,5.61389278732248,15.177201,
1.68824735864258,5.24210453491211,-1.15472346069336,5.62700856313418,15.180286,
1.66191114038086,5.23492192993164,-1.16190606567383,5.61394531113822,15.1833409999999,
1.64994013208008,5.26125814819336,-1.0757148059082,5.61785564829051,15.186338,
1.64754593041992,5.24689293823242,-1.09965682250976,5.60834540888922,15.189435,
1.61642130883789,5.22295092163086,-1.02543657104492,5.56269308327057,15.192428,
1.54938366235352,5.2205567199707,-0.989523546142577,5.53479530316794,15.195477,
1.58050828393555,5.1990089050293,-1.00867715942383,5.52676484411144,15.198529,
1.50868223413086,5.23252772827149,-0.936851109619138,5.52568172376103,15.201555,
1.54938366235352,5.1990089050293,-0.888967076416014,5.49732169248749,15.204669,
1.47037500756836,5.21337411499024,-0.817141026611326,5.4780463472942,15.20769,
1.45361559594727,5.21097991333008,-0.829112034912107,5.47309206247682,15.210798,
1.39376055444336,5.17267268676758,-0.788410606689451,5.41485941574608,15.213808,
1.3147518996582,5.19422050170898,-0.730949766845701,5.40766000592498,15.2168859999999,
1.2381374465332,5.16309588012695,-0.630393297119138,5.34676903493544,15.2199469999999,
1.21898383325195,5.13675966186523,-0.604057078857419,5.31385983669246,15.223039,
1.12800417016602,5.11760604858398,-0.551384642333982,5.26937473522401,15.226097,
1.06814912866211,5.11760604858398,-0.498712205810545,5.25162337699396,15.2290929999999,
1.0082940871582,5.08887562866211,-0.572932457275389,5.21934514386518,15.2321989999999,
0.922102827392578,5.0074727722168,-0.529836827392575,5.11915854925782,15.2352179999999,
0.862247785888672,5.02183798217773,-0.474770189208982,5.11739530387036,15.2381869999999,
0.831123164306641,4.98113655395508,-0.632787498779294,5.08948986657857,15.241229,
0.771268122802734,4.99310756225586,-0.620816490478513,5.09032324713847,15.244187,
0.737749299560547,4.98592495727539,-0.62321069213867,5.07859363164446,15.247271,
0.718595686279297,4.99789596557617,-0.642364305419919,5.0899877940855,15.250219,
0.749720307861328,5.02662638549805,-0.735738170166014,5.13520827371627,15.2532299999999,
0.768873921142578,5.00986697387695,-0.630393297119138,5.10757573723669,15.256364,
0.862247785888672,5.1223944519043,-0.697430943603512,5.24106917396303,15.2593429999999,
0.912526020751953,5.15830747680664,-0.616028087158201,5.27449811527092,15.26243,
1.00350568383789,5.20140310668945,-0.716584556884763,5.3455693207496,15.265398,
1.05378391870117,5.29238276977539,-0.718978758544919,5.4439605421391,15.268388,
1.13039837182617,5.32111318969727,-0.678277330322263,5.48198013435169,15.271445,
1.14476358178711,5.40491024780273,-0.599268675537107,5.55721705446792,15.274453,
1.2381374465332,5.48631310424805,-0.721372960205075,5.67036107863218,15.277562,
1.25250265649414,5.57011016235352,-0.819535228271482,5.76771428866382,15.280542,
1.20701282495117,5.65390722045898,-0.73813237182617,5.82824040474418,15.283497,
1.22616643823242,5.74967528686523,-0.855448253173826,5.94087887037722,15.286565,
1.19025341333008,5.80234772338867,-0.850659849853514,5.98394221823794,15.289545,
1.18067660668945,5.88135637817383,-0.917697496337889,6.06848570826813,15.2925749999999,
1.14955198510742,5.95797083129883,-0.915303294677733,6.13650277554895,15.2956029999999,
1.12560996850586,6.04655629272461,-0.984735142822263,6.22876746265234,15.2985729999999,
1.0849085402832,6.13514175415039,-0.975158336181638,6.30618146463638,15.301663,
1.05857232202148,6.22133301391602,-1.00388875610351,6.39009800125337,15.304631,
1.07293753198242,6.30034166870117,-0.989523546142577,6.46719853864712,15.307689,
1.0466013137207,6.31949528198242,-0.982340941162107,6.48046207099179,15.310666,
1.09448534692383,6.3314662902832,-0.920091697998044,6.49091151475264,15.313724,
1.14236938012695,6.34583150024414,-0.934456907958982,6.5151972297832,15.316694,
1.08012013696289,6.28837066040039,-0.841083043212889,6.43565736801125,15.319703,
1.10645635522461,6.24048662719727,-0.879390269775389,6.39853469607069,15.3228339999999,
1.01308249047852,6.20936200561523,-0.963187327880856,6.36476570486946,15.325842,
0.929285432373047,6.1949967956543,-0.994311949462888,6.34272914176795,15.328862,
0.898160810791016,6.24766923217773,-0.9991003527832,6.39048239115582,15.331853,
0.924497029052734,6.19978519897461,-1.1140220324707,6.36655922449341,15.334792,
0.962804255615234,6.15190116577149,-1.04937858764648,6.3145922598583,15.3378859999999,
0.974775263916016,6.14471856079102,-1.07810900756836,6.31427525838652,15.3408579999999,
1.02026509545898,6.03937368774414,-1.13796404907226,6.22976224122632,15.3439579999999,
1.11842736352539,6.0034606628418,-1.18105967895508,6.21991331635938,15.3469679999999,
1.1615229934082,5.91487520141602,-1.25527993041992,6.15715941130787,15.35,
1.23334904321289,5.80234772338867,-1.31034656860351,6.07498124238741,15.3531049999999,
1.28841568139648,5.67784923706055,-1.41569144165039,5.99184188583273,15.3561169999999,
1.39615475610352,5.47194789428711,-1.44921026489258,5.83023775266958,15.3591839999999,
1.51586483911133,5.2971711730957,-1.55216093627929,5.72425298354655,15.362255,
1.65472853540039,5.12478865356445,-1.51624791137695,5.5946932890308,15.365247,
1.59008509057617,4.88297428588867,-1.4970942980957,5.34912140536306,15.3683139999999,
1.94203273461914,4.75129319458008,-1.61441017944336,5.38076187827389,15.371306,
1.92048491967773,4.45680639038086,-1.62877538940429,5.1190130686665,15.3744019999999,
2.2125775222168,4.32512529907227,-1.76045648071289,5.16734120849185,15.377433,
2.24370214379883,4.04260950317383,-1.69102463256836,4.92305344407226,15.380368,
2.52142953637695,3.89416900024414,-1.75327387573242,4.95944839601163,15.383417,
2.71775407250977,3.74812269897461,-1.73651446411133,4.94470357547143,15.386366,
