X,Y,Z,Magnitude,Seconds,
0.0653138212890625,0.155431571777344,0.302004597412111,0.34587807911836,0.0,
0.0820732329101563,0.121912748535156,0.285245185791018,0.32087933843218,0.0029660000000149,
0.0820732329101563,0.145854765136719,0.182294514404298,0.247469024436011,0.00600400000075751,
0.0629196196289062,0.224863419921875,0.146381489501955,0.27559023317603,0.00898299999971641,
0.089255837890625,0.222469218261719,0.127227876220704,0.271378131320799,0.0120229999993171,
0.0964384428710938,0.232046024902344,0.141593086181642,0.288434278460141,0.0150040000007721,
0.0653138212890625,0.222469218261719,0.0362482131347672,0.234675054662449,0.0179590000007011,
0.06052541796875,0.306266276367188,-0.00684741674804457,0.31226470401926,0.021005000000514,
0.0629196196289062,0.289506864746094,-0.0930386765136699,0.310530672553895,0.0239789999995992,
0.02221819140625,0.303872074707031,-0.107403886474607,0.323059562071719,0.0270340000006399,
0.0198239897460938,0.275141654785156,-0.0978270798339835,0.292687646333445,0.0300069999993866,
0.0677080229492188,0.263170646484375,-0.0882502731933581,0.28571187630443,0.0329820000006293,
0.0341891997070313,0.241622831542969,-0.0810676682128886,0.257142880377669,0.036087000000407,
0.0724964262695313,0.227257621582031,-0.0858560715332022,0.253521248435096,0.0391689999996743,
-0.0208774384765625,0.260776444824219,-0.105009684814451,0.281899371260973,0.0422990000006394,
-0.09270348828125,0.272747453125,-0.212748759521483,0.358116104920759,0.0453450000004523,
-0.0615788666992187,0.217680814941406,-0.279786406005858,0.359801788493595,0.0482859999992797,
-0.0615788666992187,0.188950395019531,-0.306122624267577,0.364972971177956,0.0513040000005276,
-0.0352426484375,0.17697938671875,-0.200777751220702,0.269954538723609,0.0542569999997795,
-0.0879150849609375,0.13867216015625,-0.28457480932617,0.328545053636659,0.057303999999931,
-0.063973068359375,0.109941740234375,-0.375554472412109,0.39651090964791,0.0602729999991425,
-0.133404916503906,0.0596635053710938,-0.162470524658202,0.218525231960275,0.0633010000001377,
-0.09270348828125,0.0812113203125001,0.00272938989257909,0.123274753520731,0.0662749999992229,
-0.09270348828125,0.0644519086914063,0.0937090529785163,0.146728906094224,0.0692249999992782,
-0.09270348828125,0.0812113203125001,0.256514765869142,0.284585734701007,0.0722630000000208,
-0.073549875,0.0788171186523439,0.340311823974611,0.356978794667274,0.075236999999106,
-0.0136948334960937,0.0812113203125001,0.381013252197267,0.389812679836512,0.0782889999991312,
0.0174297880859375,0.0788171186523439,0.402561067138674,0.410574412842795,0.0813039999993634,
0.070102224609375,0.0764229169921876,0.464810310302736,0.476238814777317,0.0842630000006466,
0.110803652832031,0.10036493359375,0.527059553466799,0.547852482222013,0.0873069999997824,
0.1946007109375,0.165008378417969,0.47438711694336,0.538646765856197,0.0902790000000095,
0.156293484375,0.184161991699219,0.309187202392579,0.392351906543158,0.0933210000002873,
0.13713987109375,0.220075016601563,0.0913148513183604,0.274915913048122,0.0962870000003022,
0.168264492675781,0.203315604980469,-0.0260010300292954,0.265190927986981,0.0992370000003575,
0.182629702636719,0.227257621582031,-0.172047331298828,0.33852609804762,0.102279000000635,
0.223331130859375,0.275141654785156,-0.112192289794921,0.371707995741643,0.105262999999468,
0.151505081054688,0.294295268066406,-0.255844389404295,0.418353733079223,0.108313000000635,
0.0557370146484375,0.289506864746094,-0.267815397705077,0.398303812164736,0.111295000000609,
0.000670376464843747,0.275141654785156,-0.315699430908202,0.418771429634689,0.1142490000002,
-0.0520020600585938,0.270353251464844,-0.368371867431639,0.459883602168009,0.117282999999588,
-0.0567904633789063,0.203315604980469,-0.325276237548827,0.387771869368171,0.120233999999982,
-0.0711556733398437,0.184161991699219,-0.265421196044921,0.330797793742621,0.123262999999497,
-0.0759440766601562,0.196133,-0.179229936279295,0.276331370870996,0.126213999999891,
-0.109462899902344,0.112335941894531,-0.184018339599607,0.241793795630406,0.129146999999648,
-0.195654159667969,0.112335941894531,-0.181624137939451,0.289632942737803,0.132179000000178,
-0.20762516796875,0.0261446821289063,-0.239084977783202,0.317731618475825,0.135156000000279,
-0.241143991210938,0.052480900390625,-0.222325566162109,0.332164607946502,0.138177999999243,
-0.214807772949219,0.0237504804687501,-0.0667024582519513,0.226176220188491,0.141148000000612,
-0.183683151367188,0.0165678754882813,-0.0762792648925767,0.199580862927607,0.144078999999692,
-0.171712143066406,0.0237504804687501,-0.0212126267089836,0.174639975179937,0.147106000000349,
-0.159741134765625,-0.00258573779296867,-0.107403886474607,0.1925084699591,0.150030999999217,
-0.102280294921875,-0.0145567460937499,-0.107403886474607,0.149026012548125,0.153043000000253,
-0.0950976899414063,-0.0241335527343749,0.0242772048339859,0.101071171331523,0.155984999999419,
-0.0400310517578125,0.00699106884765632,0.155958296142579,0.161165598947684,0.159012000000075,
0.0581312163085937,-0.0121625444335937,0.24454375756836,0.251652170986599,0.161974999999074,
0.1946007109375,0.0117794721679688,0.25172636254883,0.318393395446578,0.164946999999302,
0.276003567382813,-0.0193451494140624,0.189477119384767,0.335341292990053,0.167970000000423,
0.345435415527344,0.0237504804687501,0.194265522705079,0.397024942459441,0.170962000000145,
0.323887600585938,0.0381156904296875,0.225390144287111,0.396429944393726,0.173999000000549,
0.345435415527344,0.174585185058594,0.163140901123048,0.420024483526535,0.177073000000746,
0.362194827148438,0.186556193359375,0.134410481201174,0.429015714806064,0.180126999999629,
0.376560037109375,0.2344402265625,0.0721612380371113,0.44940730485111,0.183283000000301,
0.323887600585938,0.265564848144531,0.000335188232423178,0.418841233326537,0.186303000000407,
0.326281802246094,0.244017033203125,-0.0667024582519513,0.412859957984626,0.189335999999457,
0.237696340820313,0.315843083007812,-0.222325566162109,0.453525149129073,0.192310000000361,
0.156293484375,0.363727116210938,-0.186412541259765,0.437578225994081,0.195271000000503,
0.120380459472656,0.33020829296875,-0.358795060791014,0.502257769891329,0.198344000000361,
0.07967903125,0.289506864746094,-0.418650102294921,0.515199845601296,0.201320000000123,
0.0581312163085937,0.232046024902344,-0.562302201904295,0.611071487020066,0.204358999999386,
-0.0687614716796875,0.193738798339844,-0.507235563720702,0.547312323150851,0.20734099999936,
-0.0998860932617188,0.244017033203125,-0.492870353759765,0.558965767946141,0.21026399999937,
-0.221990377929687,0.258382243164063,-0.380342875732421,0.510589673413266,0.213314000000537,
-0.310575839355469,0.2344402265625,-0.327670439208983,0.508711596637465,0.216287999999622,
-0.28423962109375,0.148248966796875,-0.0858560715332022,0.331875252730561,0.219358000000284,
-0.344094662597656,0.0836055219726564,0.0290656081542977,0.355296819166587,0.222347999999329,
-0.377613485839844,0.0668461103515625,0.254120564208986,0.460040876782862,0.225295000000187,
-0.36085407421875,0.0859997236328126,0.364253840576174,0.519896600988777,0.228339999999662,
-0.327335250976563,0.033327287109375,0.361859638916018,0.489082276181003,0.231300999999803,
-0.279451217773437,0.0261446821289063,0.440868293701174,0.52262929492104,0.23432800000046,
0.02221819140625,0.162614176757813,-0.0690966599121072,0.1780768567866,18.9196389999997,
-0.01608903515625,0.179373588378906,-0.116980693115233,0.214751539742803,18.9241060000004,
-0.0017238251953125,0.141066361816406,-0.0188184250488259,0.142326466726114,18.9270959999994,
0.0629196196289062,0.124306950195313,-0.0667024582519513,0.154467842407277,18.9300640000001,
0.0150355864257813,0.143460563476563,-0.033183635009765,0.148014039079546,18.9331849999999,
0.0365834013671875,0.124306950195313,-0.0403662399902327,0.135720287552752,18.936205,
0.0150355864257813,0.153037370117188,-0.0379720383300768,0.158393122345931,18.9393660000005,
0.0485544096679688,0.141066361816406,-0.0379720383300768,0.153945200734752,18.9424290000006,
0.0413718046875,0.148248966796875,-0.0188184250488259,0.15505971591861,18.9454339999993,
0.0413718046875,0.129095353515625,-0.0260010300292954,0.138033655624305,18.9485069999992,
0.06052541796875,0.153037370117188,-0.0475488449707022,0.171302818221782,18.9516160000003,
0.0557370146484375,0.165008378417969,-0.0116358200683582,0.174555928168341,18.9546929999997,
0.0437660063476563,0.186556193359375,-0.0882502731933581,0.210966317953995,18.9576870000001,
0.0677080229492188,0.165008378417969,0.0242772048339859,0.180004233267917,18.9606810000005,
0.0461602080078125,0.126701151855469,-0.0307894333496073,0.138318241352386,18.9637920000005,
0.0533428129882813,0.174585185058594,-0.0116358200683582,0.182923029846188,18.9668099999999,
0.0748906279296875,0.119518546875,-0.05473144995117,0.151290517920232,18.9698580000004,
0.0629196196289062,0.169796781738281,-0.01642422338867,0.181822937873209,18.9728279999999,
0.0294007963867188,0.169796781738281,-0.0810676682128886,0.190439808722667,18.9757829999999,
0.0294007963867188,0.136277958496094,-0.0140300217285141,0.140117558891593,18.9788499999995,
0.0294007963867188,0.150643168457031,-0.0786734665527327,0.172474013608922,18.9818379999997,
0.0748906279296875,0.141066361816406,0.0266714064941418,0.161924947158231,18.9850079999997,
0.0150355864257813,0.155431571777344,-0.0738850632324208,0.172754290636156,18.9879899999996,
0.02221819140625,0.150643168457031,-0.033183635009765,0.155846610051677,18.9911250000005,
-0.0184832368164062,0.136277958496094,0.02188300317383,0.139255800033536,18.9941240000007,
0.0198239897460938,0.121912748535156,-0.0116358200683582,0.12406087672394,18.9971050000004,
0.0246123930664063,0.129095353515625,-0.0403662399902327,0.137480229570395,19.0001599999996,
-0.0136948334960937,0.105153336914062,-0.0690966599121072,0.126566666779439,19.0031560000007,
0.00785298144531249,0.126701151855469,0.000335188232423178,0.126944726358499,19.0062290000005,
0.0389776030273438,0.13867216015625,-0.052337248291014,0.153259287153612,19.0092079999995,
0.02221819140625,0.136277958496094,-0.0283952316894514,0.140966730769801,19.012154,
0.012641384765625,0.174585185058594,0.000335188232423178,0.175042577111648,19.0152369999996,
0.0389776030273438,0.0979707319335938,-0.0451546433105463,0.114701611435341,19.0182179999993,
0.0150355864257813,0.129095353515625,-0.052337248291014,0.140110194908032,19.0212489999994,
-0.0184832368164062,0.119518546875,-0.0379720383300768,0.126760359676295,19.0242450000005,
0.0413718046875,0.124306950195313,0.0338540114746113,0.13531422017986,19.0272559999994,
0.0485544096679688,0.167402580078125,-0.0212126267089836,0.175587955301361,19.0302969999993,
0.00545877978515624,0.131489555175781,-0.0451546433105463,0.139133903882448,19.033265,
0.0198239897460938,0.200921403320313,-0.0762792648925767,0.21582615025573,19.0362970000006,
0.0557370146484375,0.188950395019531,-0.0140300217285141,0.197498628070323,19.0392730000003,
0.0341891997070313,0.167402580078125,-0.0667024582519513,0.183416856178143,19.0422479999997,
0.0461602080078125,0.162614176757813,-0.0427604416503886,0.174363386799184,19.0452960000002,
0.0365834013671875,0.150643168457031,-0.0834618698730463,0.176061333577454,19.0482969999994,
0.0485544096679688,0.169796781738281,-0.052337248291014,0.184194639839377,19.0513919999994,
0.00306457812499999,0.131489555175781,-0.0283952316894514,0.134555505060576,19.0544119999995,
0.0150355864257813,0.136277958496094,-0.0260010300292954,0.139548573599355,19.0573839999997,
-0.01608903515625,0.174585185058594,-0.033183635009765,0.178437657255031,19.060449999999,
0.0246123930664063,0.174585185058594,-0.00684741674804457,0.176444449758331,19.0634429999991,
0.012641384765625,0.165008378417969,-0.00445321508788865,0.165551806639309,19.0665260000005,
0.02221819140625,0.150643168457031,-0.0978270798339835,0.180989363723349,19.0695820000001,
0.0246123930664063,0.10036493359375,-0.0882502731933581,0.135893342391875,19.0726130000003,
0.0270065947265625,0.124306950195313,-0.033183635009765,0.131463788390743,19.0757350000004,
0.0437660063476563,0.17697938671875,-0.0427604416503886,0.187258169394834,19.078759,
0.06052541796875,0.114730143554687,-0.0307894333496073,0.133320370785417,19.0818880000006,
0.0246123930664063,0.0907881269531251,-0.05473144995117,0.108829157406779,19.0849259999995,
0.0485544096679688,0.133883756835938,0.0362482131347672,0.14695687802268,19.088017,
-0.006512228515625,0.102759135253906,-0.0236068283691395,0.105636789727918,19.0910719999993,
0.050948611328125,0.112335941894531,0.02188300317383,0.125275658711107,19.0941480000001,
0.0198239897460938,0.133883756835938,-0.0499430466308581,0.144264197986645,19.0972139999994,
0.0174297880859375,0.150643168457031,-0.0140300217285141,0.152295775467335,19.1002329999992,
0.0270065947265625,0.150643168457031,-0.0475488449707022,0.16026107768122,19.1033299999999,
0.0533428129882813,0.117124345214844,-0.0307894333496073,0.132331240247715,19.1063819999999,
-0.00890643017578124,0.165008378417969,0.0697670363769554,0.179372597716115,19.1093579999997,
0.0581312163085937,0.184161991699219,-0.00924161840820226,0.193339817437957,19.1124010000003,
-0.00411802685546875,0.165008378417969,-0.0260010300292954,0.167095112603254,19.1153429999995,
-0.0184832368164062,0.1578257734375,-0.0475488449707022,0.165865902048626,19.1184400000002,
-0.00890643017578124,0.174585185058594,0.00272938989257909,0.174833523414719,19.1214120000004,
0.012641384765625,0.145854765136719,-0.0283952316894514,0.149129830364611,19.1244279999992,
0.00785298144531249,0.126701151855469,-0.0379720383300768,0.132501799587869,19.1275900000001,
0.0174297880859375,0.155431571777344,-0.0667024582519513,0.170035257975367,19.1305959999991,
0.0341891997070313,0.114730143554687,-0.0475488449707022,0.128813042331646,19.1337010000007,
0.00785298144531249,0.121912748535156,-0.05473144995117,0.133865302400339,19.1366930000004,
0.0150355864257813,0.184161991699219,-0.090644474853514,0.205810905608181,19.1397010000001,
-0.00411802685546875,0.145854765136719,-0.0714908615722649,0.16248542687458,19.1427750000003,
0.000670376464843747,0.133883756835938,-0.0882502731933581,0.160354047244875,19.1458089999996,
0.0294007963867188,0.13867216015625,-0.0283952316894514,0.14457061946769,19.1489280000005,
-0.0136948334960937,0.131489555175781,-0.0643082565917954,0.147012256124062,19.1519090000002,
0.0365834013671875,0.117124345214844,-0.0714908615722649,0.142011974093537,19.1548750000002,
0.0270065947265625,0.117124345214844,-0.0212126267089836,0.122055085648347,19.1579619999993,
0.0629196196289062,0.121912748535156,-0.0379720383300768,0.142349824322278,19.1609800000006,
0.0174297880859375,0.131489555175781,-0.0283952316894514,0.135645087694849,19.1640339999994,
0.0413718046875,0.160219975097656,-0.0810676682128886,0.184266202741765,19.1670720000002,
0.012641384765625,0.131489555175781,-0.0355778366699209,0.136803107388791,19.1700700000001,
0.06052541796875,0.119518546875,-0.05473144995117,0.144718833885438,19.1731560000007,
0.0461602080078125,0.141066361816406,-0.128951701416014,0.196618983156578,19.1761220000008,
0.0413718046875,0.155431571777344,-0.0379720383300768,0.16526486445466,19.1792079999996,
0.02221819140625,0.17697938671875,-0.0619140549316395,0.18880863738396,19.1821959999997,
0.0581312163085937,0.129095353515625,-0.0403662399902327,0.14722187996283,19.1852400000007,
0.0294007963867188,0.167402580078125,-0.0260010300292954,0.171942095507676,19.1882220000007,
0.02221819140625,0.145854765136719,-0.0188184250488259,0.148732624745785,19.1912369999991,
0.0629196196289062,0.174585185058594,-0.0236068283691395,0.18707257340893,19.1943790000005,
0.0102471831054687,0.145854765136719,-0.00684741674804457,0.146374534639075,19.1973990000006,
0.0150355864257813,0.165008378417969,-0.0260010300292954,0.167719669001221,19.2004739999993,
0.00545877978515624,0.155431571777344,-0.0499430466308581,0.163349562866542,19.2034899999999,
0.0294007963867188,0.119518546875,-0.0403662399902327,0.129531938942617,19.206447999999,
0.0581312163085937,0.119518546875,-0.00684741674804457,0.133081961485205,19.2095669999999,
0.0198239897460938,0.150643168457031,0.0458250197753927,0.158701881556716,19.2125639999995,
0.0581312163085937,0.126701151855469,-0.0930386765136699,0.167596585640742,19.2156599999998,
-0.0280600434570312,0.124306950195313,-0.01642422338867,0.128488672728733,19.2186679999995,
0.031794998046875,0.143460563476563,0.0170945998535164,0.147932689145995,19.2217049999999,
0.012641384765625,0.141066361816406,-0.0499430466308581,0.150179329308936,19.2248159999999,
0.031794998046875,0.131489555175781,-0.0571256516113259,0.146846059167906,19.2278370000004,
0.0461602080078125,0.153037370117188,-0.05473144995117,0.168957784873817,19.2309129999994,
0.0461602080078125,0.153037370117188,-0.0786734665527327,0.17815924280018,19.2339740000007,
0.012641384765625,0.143460563476563,-0.0451546433105463,0.150929386450446,19.2369859999999,
0.00785298144531249,0.124306950195313,-0.0978270798339835,0.158379369658062,19.2400419999994,
-0.0280600434570312,0.13867216015625,-0.0403662399902327,0.147128404368974,19.2430270000004,
0.012641384765625,0.121912748535156,-0.0786734665527327,0.145643527846632,19.2461320000002,
-0.00411802685546875,0.131489555175781,0.0314598098144554,0.135263376044918,19.2491420000006,
0.0389776030273438,0.153037370117188,-0.0355778366699209,0.161881044758964,19.2521080000006,
0.0341891997070313,0.126701151855469,-0.0451546433105463,0.138784095164441,19.2551640000002,
0.000670376464843747,0.148248966796875,-0.0236068283691395,0.150118246414604,19.2581339999997,
0.00306457812499999,0.148248966796875,-0.0403662399902327,0.153676872451174,19.2612100000006,
0.02221819140625,0.155431571777344,-0.0451546433105463,0.163375528605244,19.2641920000005,
0.0461602080078125,0.124306950195313,0.00991199487304861,0.132970787440504,19.26728,
0.031794998046875,0.162614176757813,0.00991199487304861,0.165989578063761,19.2703500000007,
0.0557370146484375,0.131489555175781,-0.0212126267089836,0.144381762886244,19.2733939999998,
0.031794998046875,0.172190983398438,-0.0499430466308581,0.182085047632401,19.2764850000003,
0.089255837890625,0.155431571777344,-0.0307894333496073,0.181861395872579,19.279477,
0.0581312163085937,0.126701151855469,-0.0116358200683582,0.13988499740745,19.2825350000003,
0.0246123930664063,0.129095353515625,-0.105009684814451,0.168221324738007,19.2855319999999,
0.0174297880859375,0.114730143554687,-0.0978270798339835,0.151779250563588,19.2885480000004,
0.0557370146484375,0.153037370117188,-0.05473144995117,0.171821369649013,19.2916420000001,
0.0461602080078125,0.114730143554687,-0.0307894333496073,0.127443163211659,19.2946140000004,
0.0461602080078125,0.0955765302734376,-0.107403886474607,0.151000770767186,19.2976579999995,
0.0246123930664063,0.174585185058594,-0.090644474853514,0.198247768098075,19.3006700000005,
0.0246123930664063,0.109941740234375,-0.100221281494139,0.150788797337686,19.3036150000007,
-0.0591846650390625,0.148248966796875,-0.0307894333496073,0.162568662226509,19.3066820000004,
0.031794998046875,0.133883756835938,-0.0427604416503886,0.144098013919143,19.3097020000005,
0.00306457812499999,0.136277958496094,-0.0954328781738258,0.166398641363106,19.3127690000001,
-0.025665841796875,0.133883756835938,-0.01642422338867,0.137307504869791,19.3157250000004,
0.0102471831054687,0.131489555175781,-0.0355778366699209,0.136602673268254,19.3186760000008,
0.0461602080078125,0.114730143554687,-0.0260010300292954,0.126371769814259,19.3217330000007,
0.0150355864257813,0.131489555175781,-0.052337248291014,0.142319217037501,19.3247319999991,
0.000670376464843747,0.126701151855469,-0.0140300217285141,0.127477342284069,19.327781,
0.06052541796875,0.150643168457031,-0.0260010300292954,0.164416373836822,19.3307669999995,
0.031794998046875,0.155431571777344,0.00272938989257909,0.15867370599807,19.3337809999994,
-0.00890643017578124,0.143460563476563,-0.00205901342773274,0.143751512366947,19.3369019999991,
0.07967903125,0.13867216015625,-0.0571256516113259,0.169829491241532,19.3398830000006,
0.0868616362304688,0.124306950195313,-0.0260010300292954,0.153861025858008,19.3429780000006,
0.0413718046875,0.133883756835938,0.0506134230957045,0.148990621064112,19.345976999999,
0.0748906279296875,0.172190983398438,0.000335188232423178,0.18777234425382,19.3489489999993,
0.00785298144531249,0.184161991699219,0.0314598098144554,0.186994727566756,19.3520580000004,
0.0198239897460938,0.153037370117188,-0.0786734665527327,0.173213572104677,19.355082,
0.0461602080078125,0.167402580078125,-0.033183635009765,0.176792370459245,19.3582299999998,
0.031794998046875,0.184161991699219,-0.102615483154295,0.213205296534616,19.3612539999995,
0.0557370146484375,0.167402580078125,-0.052337248291014,0.184036480561351,19.3642770000006,
0.0150355864257813,0.145854765136719,-0.0260010300292954,0.14891519376759,19.3673699999999,
-0.0232716401367187,0.169796781738281,-0.0762792648925767,0.187592757258596,19.3703679999999,
0.012641384765625,0.126701151855469,-0.0260010300292954,0.129957839520667,19.3735240000005,
0.0270065947265625,0.141066361816406,0.0075177932128927,0.143824865060371,19.376628,
0.012641384765625,0.129095353515625,-0.0236068283691395,0.13184345737945,19.3796660000007,
-0.00411802685546875,0.117124345214844,-0.0260010300292954,0.120046340842912,19.3826690000005,
0.031794998046875,0.188950395019531,-0.0212126267089836,0.192777460328567,19.3857050000006,
0.031794998046875,0.155431571777344,-0.0619140549316395,0.170303392814278,19.3888270000007,
0.0365834013671875,0.141066361816406,-0.0140300217285141,0.146406643296719,19.3918539999995,
0.0341891997070313,0.148248966796875,0.00991199487304861,0.152462799316134,19.3949030000003,
0.0413718046875,0.126701151855469,0.000335188232423178,0.133285109655034,19.3978879999995,
0.0964384428710938,0.126701151855469,0.019488801513674,0.160416235242394,19.4009179999994,
0.050948611328125,0.114730143554687,-0.00684741674804457,0.125720539103461,19.4039680000005,
0.0246123930664063,0.107547538574219,-0.0236068283691395,0.112825197945665,19.4070109999993,
-0.0017238251953125,0.186556193359375,-0.0595198532714836,0.195828490745099,19.410151,
0.0533428129882813,0.160219975097656,-0.0379720383300768,0.17308313555265,19.4131589999997,
0.0389776030273438,0.150643168457031,-0.0571256516113259,0.165758733744407,19.4161800000002,
0.050948611328125,0.198527201660156,-0.0690966599121072,0.21629414972737,19.4192399999993,
0.0270065947265625,0.121912748535156,-0.0188184250488259,0.12627829399956,19.4222709999995,
0.0581312163085937,0.143460563476563,0.000335188232423178,0.154791097721027,19.4253580000004,
0.0270065947265625,0.167402580078125,-0.0307894333496073,0.172339691254011,19.4283660000001,
0.00785298144531249,0.169796781738281,-0.0307894333496073,0.172744335977328,19.4313889999994,
0.0294007963867188,0.184161991699219,-0.0690966599121072,0.198882866094105,19.4345020000001,
0.0174297880859375,0.150643168457031,-0.0571256516113259,0.162050923439247,19.4374769999995,
0.06052541796875,0.191344596679688,-0.0475488449707022,0.206244935833227,19.4405569999999,
0.0461602080078125,0.1578257734375,0.0482192214355486,0.171361701906582,19.4435969999995,
0.0270065947265625,0.155431571777344,-0.0475488449707022,0.164770210663057,19.4465500000006,
0.0294007963867188,0.155431571777344,-0.0475488449707022,0.165179517469318,19.4496739999995,
0.0174297880859375,0.114730143554687,0.00512359155273501,0.116159608053743,19.4526970000006,
0.0150355864257813,0.126701151855469,-0.0403662399902327,0.133823331566729,19.4557910000003,
0.0198239897460938,0.0883939252929689,-0.00205901342773274,0.0906130020165306,19.4587780000002,
0.050948611328125,0.121912748535156,-0.0403662399902327,0.138159011948587,19.4617720000006,
0.0102471831054687,0.126701151855469,-0.0236068283691395,0.129288317294138,19.4648610000004,
0.0437660063476563,0.109941740234375,-0.01642422338867,0.11946716984723,19.4678650000005,
0.0461602080078125,0.10036493359375,0.000335188232423178,0.110471702484182,19.4709359999997,
0.0365834013671875,0.107547538574219,-0.0140300217285141,0.114462482144449,19.4739530000006,
0.0246123930664063,0.121912748535156,-0.0307894333496073,0.12812680185598,19.4770480000007,
0.0365834013671875,0.148248966796875,-0.052337248291014,0.161416507738859,19.4800720000003,
0.000670376464843747,0.102759135253906,0.00272938989257909,0.102797562480445,19.4830820000007,
0.00545877978515624,0.141066361816406,-0.01642422338867,0.142124142307987,19.4861610000007,
0.0341891997070313,0.131489555175781,-0.0451546433105463,0.14316894324341,19.4891299999999,
0.0533428129882813,0.133883756835938,-0.0379720383300768,0.149037551432342,19.4922289999995,
0.06052541796875,0.169796781738281,-0.05473144995117,0.188387379945491,19.495234,
0.031794998046875,0.179373588378906,-0.0475488449707022,0.188272936894217,19.4982450000007,
0.0150355864257813,0.114730143554687,-0.0954328781738258,0.149988362667864,19.5013739999995,
0.02221819140625,0.143460563476563,-0.0571256516113259,0.156006158129723,19.5044280000002,
0.0581312163085937,0.191344596679688,0.00512359155273501,0.200045605246474,19.5075460000007,
-0.006512228515625,0.143460563476563,-0.0451546433105463,0.150539975440928,19.5105499999991,
0.031794998046875,0.162614176757813,-0.0140300217285141,0.166286300978537,19.5135389999996,
0.0174297880859375,0.150643168457031,-0.0260010300292954,0.153861025858008,19.5167060000003,
0.00545877978515624,0.143460563476563,0.000335188232423178,0.143564772492791,19.519757,
0.0198239897460938,0.150643168457031,-0.00684741674804457,0.152096160005268,19.522825,
0.0413718046875,0.109941740234375,-0.0212126267089836,0.119368287248993,19.5258400000002,
0.0724964262695313,0.162614176757813,-0.05473144995117,0.186264956226962,19.528875,
0.0365834013671875,0.133883756835938,-0.0475488449707022,0.146710934351006,19.5319899999995,
0.02221819140625,0.102759135253906,-0.0930386765136699,0.140389754736272,19.5349709999991,
0.00306457812499999,0.150643168457031,-0.0499430466308581,0.158735830071946,19.5380320000004,
0.000670376464843747,0.150643168457031,0.0386424147949231,0.155521862863589,19.5410150000007,
0.02221819140625,0.107547538574219,-0.138528508056639,0.176777455087283,19.5440099999996,
0.0341891997070313,0.136277958496094,0.0123061965332045,0.141039093238663,19.5470810000006,
0.0102471831054687,0.107547538574219,-0.0355778366699209,0.113742077865149,19.5501769999992,
0.00306457812499999,0.129095353515625,-0.0643082565917954,0.144258635111679,19.5532899999998,
0.0389776030273438,0.129095353515625,-0.0116358200683582,0.135352340747194,19.5563280000006,
0.0150355864257813,0.129095353515625,-0.0619140549316395,0.143961902448424,19.5593399999998,
0.00306457812499999,0.129095353515625,0.0290656081542977,0.132362424863659,19.56243,
0.0389776030273438,0.165008378417969,-0.00924161840820226,0.169801136617773,19.5654369999993,
0.0485544096679688,0.145854765136719,-0.0451546433105463,0.160218866004585,19.5685219999996,
0.0365834013671875,0.133883756835938,-0.0283952316894514,0.141666844331321,19.5715710000004,
0.0533428129882813,0.13867216015625,-0.0427604416503886,0.154608793637489,19.5746739999995,
0.0581312163085937,0.165008378417969,0.043430818115235,0.180258811767422,19.5776839999999,
0.00306457812499999,0.181767790039063,-0.05473144995117,0.189853766748322,19.5806510000002,
0.0150355864257813,0.145854765136719,-0.0116358200683582,0.147088659253247,19.5837499999998,
-0.00411802685546875,0.162614176757813,-0.0499430466308581,0.170160619811329,19.5867080000007,
-0.0232716401367187,0.129095353515625,0.019488801513674,0.13261596027031,19.5897600000008,
0.0389776030273438,0.184161991699219,0.0147003981933604,0.188814709255989,19.5928060000006,
0.031794998046875,0.136277958496094,-0.102615483154295,0.173529655262878,19.5957760000001,
0.012641384765625,0.136277958496094,0.0170945998535164,0.137926472893377,19.5988639999996,
0.0437660063476563,0.136277958496094,-0.0403662399902327,0.148716436934305,19.6018370000002,
0.050948611328125,0.155431571777344,0.00272938989257909,0.163591515888281,19.604926,
0.0413718046875,0.133883756835938,-0.00684741674804457,0.14029744717466,19.6079300000001,
0.00545877978515624,0.13867216015625,-0.0834618698730463,0.161943354299733,19.6109070000002,
-0.0184832368164062,0.143460563476563,-0.100221281494139,0.175974056555368,19.6139579999999,
0.0365834013671875,0.0979707319335938,-0.0451546433105463,0.113910277779046,19.6170050000001,
0.0198239897460938,0.143460563476563,-0.0307894333496073,0.148060504687969,19.6201359999995,
0.00785298144531249,0.109941740234375,-0.0379720383300768,0.116579291721489,19.623141,
0.0246123930664063,0.148248966796875,-0.0667024582519513,0.164416373836822,19.6261379999996,
0.0389776030273438,0.117124345214844,0.00512359155273501,0.12354601155101,19.6292350000003,
0.0365834013671875,0.155431571777344,-0.052337248291014,0.168037217066469,19.6322089999994,
0.0341891997070313,0.1578257734375,0.00272938989257909,0.161509522031793,19.6353400000007,
-0.00890643017578124,0.136277958496094,-0.00205901342773274,0.136584208481928,19.6383420000002,
0.02221819140625,0.126701151855469,0.02188300317383,0.130482549556533,19.6414029999996,
0.0629196196289062,0.21528661328125,0.019488801513674,0.225137775099596,19.644515,
0.0270065947265625,0.121912748535156,-0.0427604416503886,0.131986854588847,19.6475809999993,
