X,Y,Z,Magnitude,Seconds,
0.0485544096679688,0.112335941894531,0.0506134230957045,0.132433429076654,0.0,
0.0581312163085937,0.0979707319335938,0.0625844313964858,0.129978127692093,0.00297399999908521,
0.0677080229492188,0.114730143554687,0.0242772048339859,0.13541331133357,0.0060349999985192,
0.0653138212890625,0.172190983398438,0.0841322463378926,0.202469417169509,0.00901899999917077,
0.132351467773437,0.145854765136719,-0.0116358200683582,0.197296517565653,0.0120669999996608,
0.06052541796875,0.153037370117188,-0.0188184250488259,0.165643883056379,0.0150839999987511,
0.0485544096679688,0.193738798339844,-0.00205901342773274,0.19974106292064,0.0180650000002061,
0.00785298144531249,0.198527201660156,-0.00684741674804457,0.198800418089888,0.0211309999995137,
0.02221819140625,0.145854765136719,-0.0140300217285141,0.148202908379541,0.0241269999987708,
0.0461602080078125,0.188950395019531,-0.128951701416014,0.233370002098484,0.0271949999987555,
0.00545877978515624,0.181767790039063,-0.114586491455077,0.214940437787802,0.0301870000002964,
-0.0113006318359375,0.155431571777344,-0.126557499755858,0.200757262706785,0.0331399999995483,
-0.0208774384765625,0.169796781738281,-0.0619140549316395,0.181934506688803,0.0361869999996998,
-0.0017238251953125,0.141066361816406,-0.00924161840820226,0.141379268353688,0.0391650000001391,
-0.0328484467773437,0.112335941894531,-0.00684741674804457,0.117240229499677,0.0422099999996135,
-0.0400310517578125,0.165008378417969,0.000335188232423178,0.16979506001093,0.0451959999991232,
0.00306457812499999,0.155431571777344,-0.00684741674804457,0.155612506760804,0.0481609999987995,
-0.01608903515625,0.148248966796875,0.0314598098144554,0.152401879391829,0.0512179999986984,
-0.0232716401367187,0.0883939252929689,0.0170945998535164,0.0929907554948541,0.0541880000000674,
0.02221819140625,0.105153336914062,0.0170945998535164,0.10882599706724,0.0573050000002695,
0.0341891997070313,0.121912748535156,-0.00684741674804457,0.126801051841556,0.0603769999997894,
-0.0472136567382813,0.10036493359375,-0.109798088134765,0.156070078605502,0.0635169999986829,
0.0198239897460938,0.052480900390625,-0.0260010300292954,0.0618327505279222,0.0666169999985868,
0.0413718046875,0.105153336914062,0.000335188232423178,0.112999835568085,0.0696209999987332,
0.0724964262695313,0.0979707319335938,-0.0355778366699209,0.126963690083304,0.0726839999988442,
0.0437660063476563,0.107547538574219,-0.0499430466308581,0.126397168764843,0.0756810000002588,
0.0533428129882813,0.112335941894531,-0.0475488449707022,0.13313794424161,0.0787519999994402,
0.050948611328125,0.133883756835938,-0.052337248291014,0.152511668076394,0.081769999998869,
0.0413718046875,0.126701151855469,-0.0619140549316395,0.146963118851912,0.0847389999998995,
0.0294007963867188,0.184161991699219,0.0123061965332045,0.186899674927246,0.0878130000000965,
0.0557370146484375,0.160219975097656,-0.00924161840820226,0.169889560400328,0.0908019999988028,
0.0389776030273438,0.162614176757813,-0.00205901342773274,0.167232961932371,0.093894999999975,
0.0150355864257813,0.174585185058594,-0.0140300217285141,0.175792198947545,0.0968919999995705,
0.0294007963867188,0.150643168457031,0.0458250197753927,0.160180221838908,0.0999159999992116,
0.0581312163085937,0.188950395019531,0.02188300317383,0.19889785296845,0.102996999999959,
0.0270065947265625,0.179373588378906,0.0242772048339859,0.183012630824218,0.105975999998918,
0.0485544096679688,0.222469218261719,-0.0260010300292954,0.229185813991114,0.109030999999959,
0.0365834013671875,0.208104008300781,-0.01642422338867,0.211932486042997,0.112014999998792,
0.0294007963867188,0.224863419921875,-0.0236068283691395,0.228002734178309,0.114981999999145,
0.0389776030273438,0.150643168457031,0.0170945998535164,0.156540228327042,0.118042999998579,
0.0437660063476563,0.17697938671875,-0.0499430466308581,0.189027708396785,0.121006999999736,
-0.0208774384765625,0.200921403320313,0.02188300317383,0.203184998406507,0.124064999999973,
0.0102471831054687,0.145854765136719,0.0170945998535164,0.147210198759584,0.127044999999271,
0.0294007963867188,0.0812113203125001,-0.00684741674804457,0.0866404783642968,0.130010999999286,
-0.01608903515625,0.136277958496094,-0.0236068283691395,0.139240157173755,0.133044999998674,
0.0102471831054687,0.0883939252929689,-0.0236068283691395,0.0920639621999074,0.136026999998649,
-0.0136948334960937,0.117124345214844,-0.0978270798339835,0.153218139446138,0.13906599999973,
-0.0136948334960937,0.109941740234375,-0.00205901342773274,0.110810533102878,0.142033999998603,
0.0533428129882813,0.126701151855469,0.00272938989257909,0.137499407810329,0.145015000000058,
0.0150355864257813,0.143460563476563,0.0458250197753927,0.151350370232765,0.14807699999983,
-0.0280600434570312,0.162614176757813,0.0075177932128927,0.165188539966377,0.151044999998703,
0.012641384765625,0.133883756835938,-0.0643082565917954,0.149064472021918,0.154108999999153,
0.0150355864257813,0.160219975097656,-0.0236068283691395,0.162646216141387,0.157114999999976,
0.00785298144531249,0.129095353515625,-0.0690966599121072,0.146634334410172,0.160173999998733,
0.031794998046875,0.160219975097656,-0.033183635009765,0.166680880587894,0.163172999999006,
0.070102224609375,0.129095353515625,-0.0427604416503886,0.152997998564177,0.166153000000122,
0.0557370146484375,0.169796781738281,-0.0212126267089836,0.179965378399548,0.169216999998753,
0.02221819140625,0.172190983398438,-0.0355778366699209,0.177226310843501,0.172209999998813,
0.031794998046875,0.162614176757813,-0.033183635009765,0.168983567295413,0.175257999999303,
0.050948611328125,0.141066361816406,-0.0858560715332022,0.172819977003516,0.178238999998939,
0.0677080229492188,0.186556193359375,0.0410366164550791,0.202661277856708,0.181214999998701,
0.0724964262695313,0.188950395019531,0.0147003981933604,0.202913984995943,0.184266999998727,
0.108409451171875,0.203315604980469,-0.0355778366699209,0.233142932112626,0.187243999998827,
0.0461602080078125,0.169796781738281,0.0554018264160163,0.184475131826034,0.190307999999277,
0.0294007963867188,0.193738798339844,-0.0116358200683582,0.196302116949877,0.193291999999929,
0.06052541796875,0.141066361816406,-0.0930386765136699,0.179497186562421,0.196264999998675,
0.0533428129882813,0.169796781738281,-0.0882502731933581,0.198656773116052,0.199321999998574,
0.0294007963867188,0.114730143554687,-0.107403886474607,0.159884356639738,0.202305999999226,
0.012641384765625,0.179373588378906,-0.100221281494139,0.205861589620418,0.205355999998574,
0.02221819140625,0.112335941894531,-0.0643082565917954,0.131333787490396,0.208339999999225,
0.031794998046875,0.160219975097656,-0.124163298095702,0.205177695949381,0.211304999998902,
0.012641384765625,0.136277958496094,-0.112192289794921,0.176970609057219,0.2143619999988,
0.00785298144531249,0.131489555175781,-0.0786734665527327,0.15342974541245,0.217343999998775,
0.0150355864257813,0.136277958496094,-0.0595198532714836,0.149466932010024,0.220421999998507,
-0.00890643017578124,0.160219975097656,0.0290656081542977,0.163078430505536,0.223402999999962,
0.00306457812499999,0.124306950195313,-0.0451546433105463,0.13228964932468,0.226375999998709,
0.0270065947265625,0.155431571777344,-0.0355778366699209,0.161722330325815,0.229432000000088,
-0.0376368500976562,0.184161991699219,-0.00205901342773274,0.187979815959566,0.232404999998835,
0.0198239897460938,0.160219975097656,0.0290656081542977,0.164037314557164,0.235466999998607,
-0.89715524609375,0.641454508789063,-0.447380522216795,1.19016837216351,18.1916559999991,
-0.662523483398438,0.698915348632813,-0.310911027587888,1.01197119409827,18.196034999999,
-0.617033651855469,0.672579130371094,-0.114586491455077,0.919903950506148,18.1990069999993,
-0.633793063476563,0.734828373535156,0.242149555908204,1.0001513851862,18.2019700000001,
-0.715195919921875,0.787500810058594,0.409743672119141,1.13997921321291,18.204991999999,
-0.588303231933594,0.785106608398438,0.524665351806641,1.11254968906597,18.2079619999986,
-0.4949293671875,0.720463163574219,0.337917622314455,0.937128896173118,18.2109979999987,
-0.334517855957031,0.569628458984375,0.196659724365237,0.689241484841426,18.2139499999994,
-0.255509201171875,0.490619804199219,0.0817380446777349,0.559172470802801,18.2168989999991,
-0.186077353027344,0.373303922851563,-0.0403662399902327,0.419058508393491,18.2199139999993,
-0.212413571289063,0.277535856445313,-0.200777751220702,0.403060023155173,18.2228689999993,
-0.150164328125,0.244017033203125,-0.301334220947265,0.415807588493022,18.2258829999992,
-0.140587521484375,0.17697938671875,-0.313305229248046,0.386324631876658,18.2288369999987,
-0.174106344726563,0.126701151855469,-0.0762792648925767,0.228439767571452,18.2318649999997,
-0.193259958007813,0.141066361816406,0.146381489501955,0.280493618954353,18.2350069999993,
-0.289028024414062,0.169796781738281,0.337917622314455,0.475979480078741,18.2380819999999,
-0.394372897460938,0.13867216015625,0.39777266381836,0.577046828546254,18.2411899999988,
-0.358459872558594,0.109941740234375,0.280456782470704,0.468227159949427,18.2441579999995,
-0.334517855957031,0.0500866987304688,0.177506111083986,0.381993838714666,18.247104,
-0.300999032714844,0.0836055219726564,-0.0307894333496073,0.313908091972128,18.2501119999997,
-0.3800076875,0.0788171186523439,-0.136134306396483,0.411279138943136,18.2531019999988,
-0.449439535644531,0.150643168457031,-0.179229936279295,0.506766840333724,18.2561449999994,
-0.502111972167969,0.205709806640625,-0.155287919677733,0.564399942541075,18.2590999999993,
-0.753503146484375,0.313448881347656,0.0673728347167977,0.818875016005329,18.2621409999992,
-0.892366842773438,0.385274931152344,0.237361152587892,1.00054768572704,18.265077,
-0.978558102539063,0.512167619140625,0.601279804931641,1.25754881971224,18.2680449999989,
-0.937856674316406,0.660608122070313,0.874218794189455,1.44230258011943,18.2710580000003,
-0.901943649414063,0.569628458984375,1.19504181665039,1.60190632421073,18.2740329999997,
-0.906732052734375,0.588782072265625,1.19743601831055,1.6132824805423,18.2770339999988,
-0.846877011230469,0.641454508789063,1.09687954858399,1.52702629417384,18.2799779999987,
-0.748714743164063,0.698915348632813,0.879007197509766,1.34970740698113,18.2829039999997,
-0.70561911328125,0.761164591796875,0.644375434814455,1.22167490349333,18.2859209999988,
-0.633793063476563,0.756376188476563,0.268485774169923,1.02268430942152,18.2888829999993,
-0.566755416992188,0.718068961914063,-0.0810676682128886,0.918371767632152,18.2919089999996,
-0.521265585449219,0.763558793457031,-0.291757414306639,0.969464919655255,18.2948919999999,
-0.583514828613281,0.797077616699219,-0.375554472412109,1.05681760205025,18.2978419999999,
-0.5715438203125,0.7707413984375,-0.258238591064451,0.993675908794086,18.3008869999994,
-0.636187265136719,0.627089298828125,-0.217537162841795,0.919400697326332,18.3038710000001,
-0.655340878417969,0.528927030761719,-0.157682121337889,0.856795846270078,18.306912,
-0.758291549804688,0.497802409179688,0.0721612380371113,0.909956349153818,18.3098639999989,
-0.806175583007813,0.457100980957031,0.268485774169923,0.964854905341466,18.3127759999988,
-0.844482809570312,0.423582157714844,0.268485774169923,0.982169878852816,18.3157879999999,
-0.832511801269531,0.342179301269531,0.17511190942383,0.916966059509513,18.3187289999987,
-0.698436508300781,0.299083671386719,0.0889206496582045,0.764965019169624,18.3217429999986,
-0.55239020703125,0.251199638183594,-0.105009684814451,0.615843513363928,18.3247039999987,
-0.542813400390625,0.251199638183594,-0.449774723876951,0.748361508968619,18.3276679999999,
-0.461410543945313,0.181767790039063,-0.672435478271483,0.835528989322209,18.3306959999991,
-0.497323568847656,0.2344402265625,-0.84721219946289,1.00998092203803,18.3336499999987,
-0.425497519042969,0.181767790039063,-0.986075895751952,1.0892352089381,18.336659999999,
-0.274662814453125,0.0405098920898438,-0.976499089111327,1.01520007093956,18.3396009999997,
-0.102280294921875,-0.0145567460937499,-0.92382665258789,0.929585306261824,18.3424880000002,
0.0174297880859375,-0.0408929643554687,-0.741867326416015,0.743197929255824,18.3454919999986,
0.0940442412109375,-0.115113215820312,-0.380342875732421,0.408357778035196,18.3484219999991,
0.0389776030273438,-0.177362458984375,0.127227876220704,0.221728725884519,18.3514469999991,
0.050948611328125,-0.115113215820312,0.606068208251955,0.619003623984943,18.3544079999992,
-0.0807324799804687,0.121912748535156,1.16152299340821,1.17069044405221,18.3574360000002,
-0.166923739746094,0.306266276367188,1.47037500756836,1.51118007855196,18.3604059999998,
-0.154952731445313,0.440341569335938,1.53741265405274,1.60671986217544,18.3633599999994,
-0.277057016113281,0.600753080566406,1.31714610131836,1.47395342742089,18.3663899999992,
-0.195654159667969,0.643848710449219,0.996323078857424,1.20228174302301,18.3694139999989,
-0.190865756347656,0.612724088867188,0.507905940185548,0.818430809598498,18.3725290000002,
-0.303393234375,0.75158778515625,-0.13134590307617,0.821086718754783,18.3756009999997,
-0.372825082519531,0.777924003417969,-0.708348503173827,1.11620871668256,18.3786409999993,
-0.406343905761719,0.799471818359375,-1.22310186010742,1.51665708658838,18.3816769999994,
-0.3800076875,0.75158778515625,-1.46012782446289,1.68560472980053,18.3846409999987,
-0.432680124023438,0.773135600097656,-1.54392488256836,1.7800715684705,18.3876939999991,
-0.581120626953125,0.813837028320313,-1.32126412817383,1.65703674918047,18.3906769999994,
-0.825329196289062,0.921576103027344,-0.928615055908201,1.54686674215254,18.3936429999994,
-1.13896961376953,1.00776736279297,-0.49526455541992,1.5994167119473,18.3966659999987,
-1.28501591503906,1.17296727734375,0.124833674560549,1.74433413712143,18.3996319999987,
-1.35684196484375,0.90481669140625,0.65395224145508,1.75709046344021,18.4026539999995,
-1.44782162792969,0.844961649902344,1.03223610375977,1.96866935517669,18.4056359999995,
-1.48373465283203,0.842567448242188,1.23574324487305,2.10676287040125,18.4085669999986,
-1.44542742626953,0.78989501171875,1.17349400170899,2.02244474490585,18.4116269999995,
-1.53640708935547,0.780318205078125,0.850276777587892,1.92156546698345,18.4145979999994,
-1.39514919140625,0.75158778515625,0.541424763427736,1.67465406562979,18.4176059999991,
-1.222766671875,0.679761735351563,0.239755354248048,1.41940726382073,18.4205459999994,
-1.11742179882813,0.550474845703125,-0.0355778366699209,1.24616203389057,18.4234749999996,
-0.947433480957031,0.536109635742188,-0.121769096435546,1.09538644104294,18.426492999999,
-0.899549447753906,0.457100980957031,-0.172047331298828,1.02358722146835,18.4294300000001,
-0.741532138183594,0.366121317871094,-0.181624137939451,0.846700690233005,18.4324469999992,
-0.612245248535156,0.210498209960938,-0.255844389404295,0.696139420188435,18.4354149999999,
-0.430285922363281,0.0883939252929689,-0.184018339599607,0.476258554066712,18.438361999999,
-0.2650860078125,-0.0361045610351562,0.0937090529785163,0.283470487838929,18.4413679999998,
-0.28423962109375,-0.00976834277343741,0.266091572509767,0.389476966816754,18.4442959999997,
-0.164529538085938,-0.0289219560546874,0.598885603271485,0.621747870322571,18.4472949999999,
-0.253114999511719,-0.00019153613281242,0.993928877197266,1.02565191590058,18.4502240000002,
-0.447045333984375,0.00699106884765632,1.2165896315918,1.29614379502334,18.4532369999997,
-0.784627768066406,0.279930058105469,1.30756929467774,1.55039963629892,18.4561479999993,
-0.863636422851563,0.306266276367188,1.30278089135742,1.59276644672146,18.4590599999992,
-0.976163900878906,0.320631486328125,1.22377223657227,1.59791082304652,18.462066,
-1.07672037060547,0.263170646484375,0.924497029052736,1.44335730239436,18.4649959999988,
-1.11263339550781,0.25359383984375,0.572549385009767,1.27674418216063,18.4679949999991,
-1.15094062207031,0.2344402265625,0.02188300317383,1.17477887331624,18.4709459999995,
-1.11023919384766,0.229651823242188,-0.50244716040039,1.24009039044272,18.4738789999992,
-1.222766671875,0.21528661328125,-0.674829679931639,1.41311774336855,18.4769039999992,
-1.42148540966797,0.193738798339844,-0.746655729736327,1.61729721159383,18.4798689999989,
-1.7207606171875,0.390063334472656,-0.61018623510742,1.8669477089833,18.4828959999995,
-1.988911203125,0.504985014160156,-0.449774723876951,2.10073200115604,18.4858499999991,
-2.13974590771484,0.631877702148438,-0.0595198532714836,2.23188812286554,18.488781,
-2.36480086376953,0.667790727050781,0.187082917724611,2.46439193281517,18.4917960000003,
-2.54436598828125,0.663002323730469,0.189477119384767,2.63614717767517,18.4947620000003,
-2.66647027294922,0.686944340332031,-0.0260010300292954,2.75365798471754,18.4977710000003,
-2.40310809033203,0.52174442578125,-0.478505143798827,2.50521713875165,18.5007229999992,
-1.988911203125,0.313448881347656,-1.19437144018555,2.34105555514283,18.5036709999986,
-1.56513750927734,0.150643168457031,-1.72109580541992,2.33120560195443,18.5066989999996,
-1.21558406689453,-0.00497993945312492,-2.34119403540039,2.63796492298119,18.5097089999999,
-1.00010591748047,-0.112719014160156,-2.91580243383789,3.08461038958045,18.512815,
-0.856453817871094,-0.146237837402344,-3.13846318823242,3.25650884094057,18.5158629999987,
-0.731955331542969,-0.103142207519531,-3.05706033178711,3.14515735608451,18.5188359999993,
-0.652946676757813,-0.100748005859375,-2.71229529272461,2.79160084509046,18.5218539999987,
-0.442256930664063,-0.201304475585937,-2.17599412084961,2.22958854916852,18.5248080000001,
-0.334517855957031,-0.196516072265625,-1.40745538793945,1.45994911954239,18.5277879999994,
0.517817935058594,-0.862104133789063,-0.543148588623046,1.14296515287551,18.5307759999996,
0.185023904296875,-0.498185481445312,0.019488801513674,0.53179171906734,18.5337289999989,
-0.351277267578125,0.0381156904296875,0.661134846435548,0.749631782774344,18.5367559999995,
0.237696340820313,-0.227640693847656,0.926891230712892,0.983588933196825,18.539741999999,
1.60957389208984,-1.13504312304688,1.13279257348633,2.27206294363053,18.5427769999988,
1.5736608671875,-0.852527327148437,0.754508711181643,1.94229111198635,18.5457659999993,
1.29593347460938,-0.565223127929688,0.242149555908204,1.43441875419498,18.5488159999986,
1.14031036669922,-0.361715986816406,-0.421044303955076,1.26823676551868,18.5518039999988,
1.04933070361328,-0.309043550292969,-0.92382665258789,1.4318025441921,18.5547549999992,
0.991869863769531,-0.213275483886719,-1.3883017746582,1.71949820476801,18.5577789999988,
0.793151125976562,-0.0983538041992187,-1.46970463110351,1.67295961760153,18.5607559999989,
0.668652639648438,0.0476924970703125,-1.75222042700195,1.87607232045796,18.5638039999994,
0.620768606445313,-0.273130525390625,-1.5582900925293,1.69947696634087,18.5667809999995,
0.168264492675781,0.188950395019531,-1.29253370825195,1.31706437892801,18.5697409999993,
0.273609365722656,0.145854765136719,-0.907067240966796,0.958596201306555,18.5727969999989,
0.089255837890625,0.203315604980469,-0.478505143798827,0.52751399267514,18.5757709999998,
-0.1884715546875,0.303872074707031,0.0817380446777349,0.366798136119608,18.5788249999987,
-0.621822055175781,0.466677787597656,0.385801655517579,0.867924964003329,18.5818049999998,
-0.978558102539063,0.550474845703125,0.596491401611329,1.2713774058056,18.58475,
-1.35444776318359,0.734828373535156,0.821546357666017,1.74626455599937,18.5877459999992,
-1.71836641552734,0.897634086425781,1.09687954858399,2.22748172500417,18.590705999999,
-1.83807649853516,1.05086299267578,1.36263593286133,2.51785919569932,18.5937169999997,
-2.16847632763672,1.28310055371094,1.49671122583008,2.93066223027833,18.5966589999989,
-2.51802977001953,1.48900189648438,1.42727937768555,3.25495422278181,18.5995989999992,
-2.59464422314453,1.62307718945313,1.25010845483399,3.30595362285495,18.6026229999989,
-2.39353128369141,1.59674097119141,0.905343415771485,3.01632565144606,18.6055729999989,
-2.06313145458984,1.55603954296875,0.603674006591799,2.65371301470882,18.6086049999994,
-1.83328809521484,1.36450341015625,0.32834081567383,2.30881408684672,18.611558999999,
-1.59147372753906,1.31183097363281,-0.136134306396483,2.06693533479099,18.6145029999989,
-1.41909120800781,1.11311223583984,-0.68680068823242,1.92990515092788,18.6175239999993,
-1.04798995068359,0.955094926269531,-1.05071934057617,1.76479471542172,18.6204859999998,
-0.777445163085938,0.818625431640625,-1.11536278540039,1.58701062441013,18.6235189999989,
-0.377613485839844,0.473860392578125,-0.969316484130857,1.14311419497363,18.6264949999986,
-0.181288949707031,0.40682274609375,-0.607792033447264,0.753512830645304,18.6294369999996,
0.00545877978515624,0.270353251464844,-0.0882502731933581,0.284444703893495,18.6324800000002,
0.0964384428710938,0.124306950195313,0.419320478759767,0.447864103314366,18.635463999999,
0.53936575,-0.337773970214844,0.910131819091799,1.11056138747532,18.6385099999989,
0.548942556640625,-0.354533381835938,1.13758097680664,1.31191551866709,18.6414819999991,
0.604009194824219,-0.344956575195313,1.05138971704102,1.26065161059758,18.6445289999992,
0.963139443847656,-0.567617329589844,0.776056526123048,1.36091540989293,18.6475519999985,
0.922438015625,-0.6083187578125,0.349888630615236,1.1590365212583,18.6506209999989,
0.764420706054687,-0.368898591796875,-0.641310856689453,1.06381615036745,18.6537489999992,
0.817093142578125,-0.416782625,-1.2350728684082,1.53842580270488,18.656837999999,
0.675835244628906,-0.395234810058594,-1.68997118383789,1.86251615702176,18.6598799999992,
0.498664321777344,-0.39762901171875,-1.72109580541992,1.83546879793914,18.6628449999989,
0.208965920898438,-0.409600020019531,-1.60617412573242,1.67069873246772,18.6657779999987,
-0.126222311523438,-0.340168171875,-1.22070765844726,1.27348876888448,18.6687910000001,
-0.293816427734375,-0.340168171875,-0.49526455541992,0.668826926953947,18.6717360000002,
-0.231567184570313,-0.637049177734375,0.179900312744142,0.701298180767143,18.6747799999994,
-0.547601803710938,-0.555646321289063,0.99871728051758,1.26729900820366,18.6777489999986,
-0.652946676757813,-0.572405732910156,1.66669954370117,1.87932835202665,18.6807229999995,
-0.815752389648438,-0.510156489746094,1.9444269362793,2.16944871240961,18.6837459999988,
-1.09826818554688,-0.304255146972656,1.8127458449707,2.14121734074389,18.6867089999996,
-1.17488263867188,-0.0911711992187499,1.59247929223633,1.98107337027711,18.6897489999992,
-1.16530583203125,0.179373588378906,1.1016679519043,1.61362475273125,18.6927450000003,
-1.11742179882813,0.258382243164063,0.780844929443361,1.38748393284974,18.6956659999996,
-0.928279867675781,0.5025908125,0.263697370849611,1.08804289480451,18.6987059999992,
-0.966587094238281,0.643848710449219,-0.0499430466308581,1.16246551802705,18.701658,
-1.22755507519531,0.921576103027344,-0.435409513916014,1.59554862699869,18.704674999999,
-1.33050574658203,1.13944845410156,-0.567090605224609,1.841244165171,18.7076319999997,
-1.25867969677734,1.23282231884766,-0.583850016845702,1.85607281406176,18.7105780000002,
-0.959404489257813,1.10592963085938,-0.428226908935546,1.52542309145931,18.713620999999,
-0.662523483398438,1.11311223583984,-0.459351530517576,1.37439442818269,18.7166029999989,
-0.36085407421875,1.0005847578125,-0.413861698974609,1.14134439426718,18.719642,
-0.174106344726563,0.897634086425781,-0.476110942138671,1.03089359373878,18.7226129999999,
0.0581312163085937,0.773135600097656,-0.547936991943358,0.949396040431924,18.7255749999986,
0.103621047851562,0.703703751953125,-0.555119596923827,0.902271610414311,18.7286249999997,
0.1179862578125,0.749193583496094,-0.598215226806639,0.965957162698033,18.7316099999989,
0.158687686035156,0.998190556152344,-0.385131279052732,1.08161558337318,18.7346539999999,
0.350223818847656,0.844961649902344,-0.255844389404295,0.949775375909264,18.7376420000001,
0.395713650390625,0.703703751953125,0.043430818115235,0.808501391205073,18.7406819999997,
0.273609365722656,0.684550138671875,0.304398799072267,0.797577335587889,18.7436539999999,
0.261638357421875,0.627089298828125,0.570155183349611,0.88700200218466,18.7466269999986,
0.235302139160156,0.507379215820313,0.661134846435548,0.865967695997453,18.7496620000002,
0.292762979003906,0.344573502929688,0.601279804931641,0.752315402351374,18.7526449999987,
0.304733987304688,0.220075016601563,0.416926277099611,0.561358474138347,18.7556729999997,
0.422049868652344,0.0237504804687501,0.153564094482423,0.449746715459005,18.7586569999985,
0.285580374023438,0.0141736738281251,-0.186412541259765,0.341330746631586,18.7616049999997,
0.228119534179688,0.0955765302734376,-0.318093632568358,0.4029354217415,18.7646580000001,
0.000670376464843747,0.21528661328125,-0.310911027587888,0.378172503414079,18.7676379999994,
-0.186077353027344,0.246411234863281,-0.100221281494139,0.324634537966676,18.7706749999998,
-0.528448190429688,0.433158964355469,0.179900312744142,0.706575049726038,18.7736609999993,
-0.863636422851563,0.641454508789063,0.675500056396485,1.27028818931505,18.7766089999986,
-1.04559574902344,0.698915348632813,1.14476358178711,1.70065775308157,18.7796369999996,
-0.976163900878906,0.672579130371094,1.49910542749024,1.91117129811028,18.7826169999989,
-1.11263339550781,0.576811063964844,1.36263593286133,1.85133485945584,18.785625999999,
-1.04559574902344,0.59835887890625,0.931679634033205,1.52293491614516,18.7886659999986,
-1.01925953076172,0.545686442382813,0.105680061279298,1.16096165302778,18.7917109999999,
-0.746320541503906,0.40682274609375,-0.976499089111327,1.29462333072025,18.7948500000002,
-0.74392633984375,0.449918375976563,-1.67800017553711,1.88985119341637,18.7978919999987,
-0.731955331542969,0.576811063964844,-2.04670723120117,2.24888419024582,18.8009249999996,
-0.863636422851563,0.725251566894531,-2.00840000463867,2.30337324044355,18.8038879999986,
-0.815752389648438,0.689338541992188,-1.85756530004883,2.14270586657118,18.8068349999994,
-1.13178700878906,0.914393498046875,-1.11775698706055,1.83478554187043,18.8099160000002,
-1.18685364697266,0.974248539550781,-0.411467497314451,1.58968150819444,18.8128829999987,
-1.33289994824219,0.890451481445313,0.661134846435548,1.73396234042252,18.8159239999986,
-1.21318986523438,0.861721061523438,1.35784752954102,2.01448324650793,18.8189000000002,
-1.26825650341797,0.909605094726563,1.82232265161133,2.39931570106775,18.8218339999985,
-0.703224911621094,0.646242912109375,2.06892542260742,2.27872937886169,18.8248829999993,
-0.607456845214844,0.667790727050781,1.89414870141602,2.09827252210226,18.8278789999986,
-0.233961386230469,0.437947367675782,1.09927375024414,1.2062083588986,18.8309689999987,
-0.22677878125,0.485831400878906,0.218207539306642,0.578856887248874,18.8339559999986,
-0.178894748046875,0.624695097167969,-0.57906161352539,0.870379025231583,18.8369839999996,
-0.05439626171875,0.670184928710938,-0.981287492431639,1.18955114844341,18.8399539999991,
0.0174297880859375,0.660608122070313,-1.18958303686523,1.36081398069519,18.842928,
0.173052895996094,0.715674760253906,-1.21591925512695,1.42147715502769,18.8459889999995,
0.0820732329101563,0.732434171875,-0.950162870849608,1.20249961032497,18.8489859999991,
0.0677080229492188,0.67497333203125,-0.128951701416014,0.69050844790136,18.8520229999995,
-0.0687614716796875,0.720463163574219,0.471992915283204,0.864044340374073,18.8550230000001,
-0.152558529785156,0.761164591796875,0.993928877197266,1.26116622764096,18.8579699999991,
0.0964384428710938,0.528927030761719,1.25968526147461,1.36962445039148,18.8610609999996,
0.149110879394531,0.378092326171875,1.3315113112793,1.39216027580469,18.864039,
0.216148525878906,0.270353251464844,1.19264761499024,1.24186126413506,18.8670979999988,
-0.0496078583984375,0.327814091308594,0.663529048095704,0.741750507746472,18.8700639999988,
-0.135799118164062,0.428370561035156,0.273274177490237,0.525948204806022,18.8730269999996,
-0.4183149140625,0.543292240722656,0.0482192214355486,0.687371020244825,18.8760739999998,
-0.791810373046875,0.7707413984375,0.00512359155273501,1.10500326756097,18.8790439999993,
-1.08629717724609,0.861721061523438,0.0242772048339859,1.38679274869768,18.8820689999993,
-1.48134045117188,1.05086299267578,0.337917622314455,1.84739570236705,18.8850539999985,
-1.79976927197266,1.14184265576172,0.644375434814455,2.22670020071097,18.8879939999988,
-1.91229675,1.15860206738281,1.11363896020508,2.49788497419135,18.8910189999988,
-1.85004750683594,0.876086271484375,1.26926206811524,2.40857408650625,18.8939819999996,
-1.91947935498047,0.813837028320313,1.20940702661133,2.41026908433028,18.8970069999996,
-1.86201851513672,0.744405180175781,1.12082156518555,2.29727947885526,18.8999499999991,
-1.78779826367188,0.7707413984375,0.756902912841799,2.08881951214603,18.9028879999987,
-1.835682296875,0.809048625,0.112862666259767,2.0092354650737,18.9058999999997,
-1.67527078564453,0.758770390136719,-0.368371867431639,1.8756232411914,18.9088499999998,
