X,Y,Z,Magnitude,Seconds,
1.31748128955078,-0.584376741210938,-5.90376610571289,6.07714631673033,0.0,
1.78674481494141,-0.639443379394531,-4.03868301245117,4.46232062319968,0.00294699999903969,
2.09799103076172,-0.610712959472656,-1.48885824438476,2.64409446803569,0.00597399999969639,
2.33741119677734,-0.93393018359375,1.04420711206055,2.72508443603595,0.00895299999865529,
1.63112170703125,-0.981814216796875,4.3577822097168,4.75550028564579,0.0119879999983823,
3.47465698535156,-4.35045595263672,8.63861477807617,10.2774205638225,0.0149229999988165,
-1.52443608105469,-1.97540790576172,9.38740134729004,9.71336428918787,0.0178619999987859,
-1.84286490185547,-1.42474152392578,9.38740134729004,9.67209095860828,0.0208559999991849,
-1.09347978222656,-3.15574932421875,9.38740134729004,9.96382235322109,0.0237839999990683,
-1.55316650097656,-1.9873789140625,9.38740134729004,9.72035519839265,0.0268039999991743,
-1.01925953076172,-2.87562772998047,9.38740134729004,9.87073598510183,0.0297069999996893,
-2.04158363964844,-3.04561604785156,7.41278352807617,8.2700181682224,0.0326249999998254,
-2.28339800732422,-2.58353512744141,2.45678609155274,4.23371682026832,0.0355999999992491,
-1.76864465039063,-2.06878177050781,-1.08902656713867,2.93154238879035,0.0385299999998097,
-0.942645077636719,-1.63064286669922,-4.47682191625977,4.85690337262474,0.0415359999988141,
-1.25628549511719,-1.39122270068359,-5.16156359106445,5.49140169289603,0.0444999999999709,
-0.940250875976563,-1.19489816455078,-5.8103922409668,6.00603957090766,0.0474369999992632,
-1.18924784863281,-1.16856194628906,-6.09290803686523,6.31691188900792,0.0504449999989447,
-1.24431448681641,-1.64740227832031,-6.22698332983398,6.5603029044966,0.0533729999988282,
-1.66569397900391,-2.73197563037109,-5.15438098608398,6.06678420799154,0.056377999999313,
-2.55154859326172,-3.02167403125,-3.30605730444336,5.15469970756491,0.059319999998479,
-5.45092680371094,-2.47579605273437,-0.24626758276367,5.99189593004332,0.0623089999990043,
-4.04792463085938,-3.41192890185547,1.49192282250977,5.50025329932724,0.0652519999985088,
-5.819633859375,-2.09272378710938,4.25961994165039,7.50946024382732,0.0681639999984327,
-6.07820763867188,-1.58275883349609,6.51735210717774,9.05127682223636,0.071154999999635,
-4.79730975048828,-1.18771555957031,6.94591420434571,8.52470370316217,0.0741109999999026,
-4.55310118115234,-0.615501362792969,7.01055764916992,8.38197416160094,0.0771099999983562,
-4.26100857861328,0.0261446821289063,6.47425647729492,7.75066929917764,0.0800509999990027,
-4.34719983837891,1.50576130810547,4.57565456079102,6.48861142398562,0.0829869999997754,
-3.82526387646484,1.35732080517578,3.46235078881836,5.33505730780664,0.0861179999992601,
-3.10460917675781,2.79863020458984,1.52783584741211,4.45030465688462,0.0891629999987344,
-2.11101548779297,2.96622432080078,0.237361152587892,3.64845356661829,0.0922809999992751,
-1.74949103710938,3.38999801464844,-0.42583270727539,3.83850738215154,0.0952919999999722,
-1.07432616894531,3.2990183515625,-1.41942639624023,3.74866244086746,0.0982219999987137,
-0.930674069335938,3.34690238476563,-2.3459824387207,4.19184248264055,0.101252999998906,
-0.736743734863281,3.40196902294922,-3.17437621313476,4.71092866709762,0.10419599999841,
-0.763079953125,3.38281540966797,-3.9165787277832,5.23118724972374,0.107240999999703,
-0.588303231933594,3.11466482373047,-4.95326804663086,5.88065489538893,0.110215999999127,
-0.308181637695313,2.61906508007813,-5.5039344284668,6.10309528095042,0.113160999999309,
-0.300999032714844,2.6861027265625,-5.98756316381836,6.56937294694526,0.116205999998783,
0.00306457812499999,2.61906508007813,-5.82954585424805,6.39086192560161,0.119171999998798,
0.3478296171875,3.01410835400391,-5.39858955541992,6.19278643262934,0.122238999998444,
0.441203481933594,3.08832860546875,-5.13043896948242,6.00448483280712,0.125228999999308,
0.644710623046875,3.34211398144531,-5.00833468481445,6.05547636173713,0.128228999999919,
0.766814907714844,3.93108758984375,-4.85749998022461,6.2957732487439,0.131294999999227,
0.872159780761719,4.37880330029297,-4.63723342749023,6.43727542418901,0.134290999998484,
1.075666921875,4.84806682568359,-4.01952939916992,6.38885184238147,0.137355999999272,
1.51141162402344,5.14494783154297,-3.40182537084961,6.35037551175424,0.140340999998443,
1.98785775439453,4.95580590039063,-3.0738197434082,6.16116534342482,0.143299999999726,
2.27037355029297,4.51048439160156,-3.52153545385742,6.15632012305452,0.146342000000004,
2.14587506396484,3.82334851513672,-4.44809149633789,6.24566182386925,0.149315999999089,
2.4930343046875,3.46421826611328,-4.55822477270508,6.24447286150912,0.152367999999115,
3.23523681933594,3.87602095166016,-3.50956444555664,6.14876721728923,0.155346999999892,
3.65422210986328,4.76666396923828,-1.38590757299805,6.16402177354537,0.158396999999241,
3.12749774462891,5.82011269970703,0.02188300317383,6.60722580556907,0.161378999999215,
3.72125975634766,6.61977605419922,1.36742433618164,7.71615568124074,0.164342000000033,
4.99258083789063,6.28219362011719,2.80633953393555,8.50102121413912,0.167374999999083,
4.76034327685547,6.16487773876953,3.02181768334961,8.35451780528856,0.170355999998719,
4.37248260791016,5.64773018017578,2.99787566674805,7.74614219194466,0.173386999998911,
3.82421042773438,4.7546929609375,2.53340054467774,6.60680019889768,0.176365999999689,
2.62232119433594,3.87602095166016,0.821546357666017,4.75132037246135,0.179318999998941,
1.78195641162109,2.39640432568359,-1.78095084692383,3.4770545385759,0.182364999998754,
1.03975389697266,1.41238744335938,-4.82398115698242,5.13290567411388,0.185343999999532,
0.740478689453125,0.720463163574219,-6.5597773605957,6.64063663214496,0.188401999999769,
0.457962893554688,0.323025687988281,-7.58928407446289,7.60994798733009,0.191385999998602,
0.694988857910156,0.00459686718750008,-8.23332432104492,8.26260612756756,0.194352999998955,
-0.356065670898438,0.536109635742188,-8.29078516088867,8.31572696085795,0.197383999999147,
0.994264065429688,-0.584376741210938,-9.4711265793457,9.54108462856617,0.200354999999035,
0.0150355864257813,-0.356927583496094,-9.05932389379883,9.06636491552562,0.203379999999015,
-0.0136948334960937,-0.373686995117188,-9.42563674780273,9.43305134197379,0.20632299999852,
0.247273147460938,-0.335379768554687,-9.49746279760742,9.50659892866781,0.209258999999292,
0.0653138212890625,-0.565223127929688,-9.19339918676758,9.21098972352357,0.212295999999697,
0.0677080229492188,-0.699298420898438,-8.8582109543457,8.8860285825296,0.215254999999161,
-0.444651132324219,-0.596347749511719,-8.6834342331543,8.71523811202774,0.21827200000007,
-0.535630795410156,-1.09434169482422,-8.25487213598633,8.34430333074643,0.221224999999322,
-0.336912057617188,-1.13264892138672,-7.34028710180664,7.43479778142185,0.224236999998539,
-0.415920712402344,-1.05124606494141,-7.36183491674805,7.44813544919202,0.227360999999291,
-0.351277267578125,-1.73598773974609,-6.11924425512695,6.37041595228837,0.230405999998766,
0.00545877978515624,-1.88921664599609,-4.33077561499023,4.72491129664669,0.233524999999645,
-0.408738107421875,-1.12786051806641,-8.49429230200195,8.57858600822545,18.1252489999988,
-2.06791985791016,-0.775912874023438,-7.83349264379883,8.13891518123053,18.1293029999997,
-2.37198346875,-0.493397078125,-6.65075702368164,7.07829889456331,18.1322509999991,
-2.24030237744141,-0.866892537109375,-4.92693182836914,5.48134241355732,18.1351379999996,
-2.95616867382813,-1.40798211230469,-2.94213865209961,4.40199122044459,18.138171999999,
-4.0958086640625,-1.77668916796875,-0.761020939697264,4.52895417098083,18.1410889999988,
-5.21150663769531,-1.97061950244141,1.46319240258789,5.7605620094862,18.1441339999983,
-5.91061352246094,-1.65697908496094,4.13033305200195,7.39868792559572,18.1471689999998,
-6.24340755322266,-1.10391850146484,7.15181554711914,9.55757498288814,18.1501009999993,
-5.54190646679687,-0.651414387695312,9.38740134729004,10.9206397269722,18.1531719999984,
-4.34001723339844,-0.117507417480469,9.38740134729004,10.3427685671904,18.1561099999999,
-2.31691683056641,-0.232429097167969,8.81099729760742,9.11349550191459,18.1591379999991,
-1.32092893994141,-0.725634639160156,6.0049929519043,6.19123083452266,18.1620809999986,
-0.779839364746094,-0.644231782714844,2.49748751977539,2.69455523901466,18.1650559999998,
-0.344094662597656,-0.479031868164062,0.369042243896486,0.695747687976827,18.1681379999991,
0.59682658984375,-0.668173799316406,-0.382737077392576,0.974241178994427,18.1711039999991,
1.41085515429688,-0.198910273925781,-0.727502116455076,1.59979276561869,18.1741159999983,
1.64548691699219,0.282324259765625,-0.42583270727539,1.72298220426972,18.1771079999999,
1.74843758837891,0.696521146972656,-0.988470097412108,2.1258524977322,18.1800699999985,
1.26480885302734,1.44111786328125,-0.670041276611327,2.03113698280731,18.1831009999987,
0.987081460449219,2.06121609326172,-0.215142961181639,2.2954799250766,18.1861219999992,
1.30072187792969,2.13304214306641,0.13680468286133,2.50209146696819,18.189214,
1.61436229541016,2.22881020947266,-0.0307894333496073,2.7522188430242,18.1921779999993,
2.22727792041016,2.05403348828125,-0.698771696533202,3.10935723094072,18.1952009999986,
2.80667472216797,1.57279895458984,-0.703560099853513,3.29334425193016,18.1981699999997,
2.82103993212891,2.28866525097656,0.127227876220704,3.63489227655802,18.2011309999998,
3.30466866748047,2.81538961621094,1.62839231713867,4.63669227266721,18.2041759999993,
2.9527210234375,4.00291363964844,2.33468180688477,5.49478099546579,18.2071379999998,
2.61035018603516,3.97418321972656,1.69303576196289,5.04722007138338,18.2101939999993,
2.41402564990234,3.39239221630859,0.0314598098144554,4.16375245509278,18.2132039999997,
2.21770111376953,2.62864188671875,-1.57744370581054,3.783686699983,18.2161899999992,
1.94955052783203,2.12107113476563,-2.25739697729492,3.6599905918467,18.2192339999983,
1.60957389208984,1.55603954296875,-2.60455621801758,3.43448689998865,18.2221939999999,
1.20974221484375,1.28549475537109,-2.92298503881836,3.41464705784033,18.2252419999986,
1.10439734179688,0.651031315429688,-3.86390629125976,4.07103268101288,18.2282199999991,
0.668652639648438,0.392457536132813,-4.42893788305664,4.49628847408065,18.2312159999983,
0.311916592285156,0.0812113203125001,-4.44809149633789,4.45975393927548,18.2343229999988,
0.122774661132812,0.06205770703125,-3.89263671118164,3.89506679553217,18.2373599999992,
-0.202836764648438,0.196133,-3.09776176000976,3.11058496565531,18.2404769999994,
-0.43746852734375,0.0979707319335938,-2.0562840378418,2.10458571244197,18.2435159999986,
-1.44542742626953,0.488225602539063,-0.358795060791014,1.56727744169143,18.2465029999985,
-3.14770480664063,0.880874674804688,2.12399206079102,3.89811852266758,18.2495619999991,
-5.06306613476563,1.15620786572266,4.26680254663086,6.7213881963256,18.2525779999996,
-6.19312931835938,1.06522820263672,5.2771556472168,8.20596938835183,18.2556539999987,
-5.96089175732422,0.476254594238281,4.93717901147461,7.75466218299768,18.2585959999997,
-5.12770957958984,0.0548751020507813,3.41686095727539,6.16209019820348,18.2615239999996,
-3.69358278515625,-0.431147834960938,1.64275752709961,4.06535294153368,18.2645999999986,
-2.75026733105469,-1.02490984667969,0.120045271240237,2.93748556647259,18.2676109999993,
-2.53718338330078,-1.17095614794922,-1.86953630834961,3.36208325732055,18.2706389999985,
-2.16368792431641,-1.19968656787109,-4.0698076340332,4.76278568413464,18.2735929999999,
-1.64175196240234,-1.38404009570313,-5.95404434057617,6.32942023427999,18.2765309999995,
-0.387190292480469,-1.98977311572266,-6.60047878881836,6.90473993835284,18.2796139999991,
-0.138193319824219,-1.46783715380859,-5.48956921850586,5.68410182073755,18.2825389999998,
0.625557009765625,-1.40798211230469,-3.5502658737793,3.87015800395265,18.2856479999991,
0.376560037109375,-0.814220100585938,-1.56786689916992,1.80636608893621,18.2887039999987,
0.517817935058594,-0.203698677246094,0.096103254638674,0.564680795257197,18.2917839999991,
0.012641384765625,0.397245939453125,3.14152776635742,3.16656925517435,18.294817,
-0.741532138183594,0.888057279785157,6.28272034448242,6.38835585820889,18.2977959999989,
-0.854059616210938,1.21366870556641,7.9802093215332,8.11702841995758,18.300851,
-1.16770003369141,2.00854365673828,8.13104402612305,8.45645599198966,18.3038189999988,
-0.703224911621094,2.61427667675781,7.02252865747071,7.52627906498036,18.3068859999985,
-0.717590121582031,2.90636927929688,5.65543950952149,6.39889943787909,18.3098849999988,
-0.758291549804688,2.88960986767578,3.52220583032227,4.61852629883501,18.3128349999988,
-0.669706088378906,2.21444499951172,0.376224848876955,2.34388951053302,18.3158859999985,
-0.605062643554688,1.46984828320313,-2.34837664038086,2.83574110654465,18.3188889999983,
-0.731955331542969,0.979036942871094,-3.97882797094726,4.1623723962751,18.3219689999987,
-0.810963986328125,0.658213920410156,-4.90298981176758,5.0130048121301,18.3249129999986,
-0.708013314941406,0.531321232421875,-5.58294308325195,5.6526841922212,18.3279139999995,
-0.540419198730469,0.526532829101563,-6.17909929663086,6.22499460627093,18.3310179999989,
-0.375219284179688,0.710886356933594,-6.0785428269043,6.13146245378737,18.3339809999998,
-0.459016342285156,1.97981323681641,-3.53590066381836,4.07835137764629,18.3370299999988,
-0.538024997070313,2.71962154980469,-0.907067240966796,2.91694759145064,18.3400279999987,
-1.00489432080078,3.36605599804688,1.20222442163086,3.71288151412494,18.3429819999983,
-1.39754339306641,3.73476305371094,2.98351045678711,4.98025272939294,18.3459979999989,
-1.58189692089844,3.77546448193359,4.10639103540039,5.79818741145082,18.3489569999983,
-1.45021582958984,3.55040952587891,5.98105093530274,7.10503371170963,18.3520489999992,
-1.299381125,3.20325028515625,6.85254033959961,7.67505783712408,18.3550599999999,
-1.069537765625,2.35091449414063,6.30187395776367,6.81060389175575,18.3580259999999,
-0.636187265136719,1.16339047070313,4.01541137231446,4.22868065861649,18.3611339999989,
-0.006512228515625,0.21528661328125,1.27644467309571,1.2944889873818,18.3641009999992,
0.225725332519531,-0.285101533691406,-1.36196555639648,1.40967548998506,18.3671399999985,
0.261638357421875,-0.304255146972656,-3.10015596166992,3.12601868375915,18.3701590000001,
0.32867600390625,-0.186939265625,-4.24458435522461,4.26139302965517,18.3731559999997,
0.36698323046875,-0.131872627441406,-4.85031737524414,4.86596811764204,18.3762549999992,
0.505846926757813,0.107547538574219,-4.38344805151367,4.41384915993769,18.3792709999998,
0.414867263671875,0.320631486328125,-3.2821152878418,3.32373286519486,18.3824649999988,
0.1179862578125,0.418793754394531,-2.44653890844726,2.48492687946724,18.3855029999995,
-0.387190292480469,0.308660478027344,-2.24303176733398,2.29703703116789,18.3885719999998,
-0.497323568847656,-0.170179854003906,-2.59976781469726,2.65237339097947,18.3916109999991,
-0.593091635253906,-0.457484053222656,-2.9373502487793,3.03134884676195,18.394710999999,
-0.538024997070313,-0.364110188476563,-3.03072411352539,3.0995702571694,18.3977859999995,
-0.329729452636719,-0.153420442382812,-2.97805167700195,3.00017518404696,18.4007839999995,
0.326281802246094,-0.481426069824219,-3.11691537329101,3.17070848856233,18.4038339999988,
0.525000540039063,-0.376081196777344,-3.75137881323242,3.80656086697427,18.4068829999997,
0.78836272265625,-0.663385395996094,-4.50315813452148,4.61952694013163,18.4098789999989,
0.371771633789063,-0.574799934570312,-5.70983577124023,5.75072461929858,18.4129479999992,
0.778785916015625,-1.70486311816406,-5.31958090063477,5.64012470722577,18.4159099999997,
-0.205230966308594,-1.00096783007813,-4.01234679418945,4.14040857201625,18.4190049999997,
-1.07432616894531,-0.51255069140625,-2.6907474777832,2.94227920458586,18.4219329999996,
-1.89314313671875,-0.491002876464844,-1.19915984350586,2.29413580484658,18.4248899999984,
-3.18122362988281,-0.218063887207031,0.342706025634767,3.20705208286909,18.4280259999996,
-4.50282294628906,0.227257621582031,1.97555155786133,4.92238402300783,18.4309979999998,
-4.98405747998047,0.294295268066406,3.23969003442383,5.95172497581169,18.4341249999998,
-4.81885756542969,0.2344402265625,3.92922011254883,6.22214763153269,18.4370849999996,
-4.16524051220703,0.0692403120117189,3.98907515405274,5.76773294544911,18.4400559999995,
-3.70315959179688,0.133883756835938,3.85499986108399,5.34718054226891,18.4431299999997,
-2.4869051484375,-0.170179854003906,3.27081465600586,4.11240646264161,18.4460979999985,
-2.10143868115234,-0.534098506347656,2.55973676293945,3.35463232570573,18.4491719999987,
-1.96257498486328,-0.974631611816406,2.17187609399414,3.08523145284535,18.4521679999998,
-1.25149709179688,-1.36009807910156,1.84147626489258,2.60905089826061,18.4550849999996,
-0.509294577148438,-1.23320539111328,1.08730274194336,1.7211634889287,18.4581549999984,
0.352618020507813,-1.19010976123047,0.426503083740236,1.31248070180206,18.461174,
0.8458235625,-1.44150093554688,0.160746699462893,1.67904197310577,18.4641999999985,
0.240090542480469,-1.00575623339844,-0.358795060791014,1.09449667210842,18.4672399999999,
-0.0855208833007812,-0.6849332109375,-1.54871328588867,1.69557074957484,18.4702029999989,
0.25206155078125,-0.945901191894531,-2.53991277319336,2.72202516256564,18.473285,
-0.289028024414062,-0.139055232421875,-3.06184873510742,3.07860215572579,18.4762169999995,
0.383742642089844,-0.756759260742188,-3.10255016333008,3.21648263015,18.4792609999986,
0.362194827148438,-0.713663630859375,-3.27014427954101,3.36665182040544,18.4822469999999,
0.599220791503906,-0.996179426757813,-3.39943116918945,3.59271085412156,18.4853139999996,
0.268820962402344,-0.883651948730469,-3.72264839331055,3.83552037363115,18.4882739999994,
-0.296210629394531,-1.38882849902344,-2.77933293920898,3.12110187652343,18.4912569999997,
-1.13178700878906,-1.18532135791016,-1.29253370825195,2.08724026929082,18.4943199999998,
-1.17009423535156,-1.24996480273438,1.01787089379883,1.99188194532722,18.4973169999994,
-1.70400120556641,-0.325802961914062,4.2045533034668,4.54841028934916,18.5003529999994,
-2.39353128369141,-0.172574055664062,7.43433134301758,7.81204559180701,18.5033089999997,
-3.53317127392578,0.0859997236328126,9.38740134729004,10.0306529826558,18.5062629999993,
-4.19875933544922,0.380486527832031,8.73198864282227,9.6964929543243,18.5093059999999,
-3.69597698681641,0.366121317871094,5.79190900415039,6.88044334464245,18.5123209999983,
-1.91469095166016,0.485831400878906,2.48312230981445,3.17300646011752,18.5154299999995,
-1.02883633740234,0.533715434082031,0.39777266381836,1.22538951595727,18.5184419999987,
-0.624216256835938,0.524138627441406,-1.28774530493164,1.52402598614588,18.5214659999983,
-0.538024997070313,0.354150309570313,-2.81285176245117,2.88565908879859,18.5245729999988,
-0.559572812011719,0.179373588378906,-3.61490931860352,3.6623579833049,18.5275839999995,
-0.499717770507813,0.48343719921875,-3.6651875534668,3.73055346803094,18.5306809999984,
-0.549996005371094,1.02452677441406,-2.2310607590332,2.5159059656341,18.5337069999987,
-0.767868356445313,1.41717584667969,-0.313305229248046,1.64200163212967,18.5367239999996,
-0.581120626953125,1.6901148359375,1.64515172875977,2.42913843828788,18.5397969999995,
-0.320152645996094,1.97741903515625,2.9787220534668,3.5896335229583,18.5427769999988,
0.553730959960938,1.74757567578125,4.35538800805664,4.72546753446949,18.5458989999988,
0.881736587402344,1.79545970898438,5.47826858666992,5.83202895087504,18.5489569999991,
1.12833935839844,1.32619618359375,5.36334690698242,5.63892153427653,18.5519299999996,
1.35339431445313,0.720463163574219,3.6131854934082,3.92502901266181,18.5549689999989,
1.20255960986328,0.205709806640625,0.962804255615236,1.55417443501476,18.5579289999987,
0.850611965820313,0.10036493359375,-0.892702031005857,1.23714621304596,18.5610019999986,
0.649499026367188,0.193738798339844,-2.6141330246582,2.70056941733456,18.5639929999998,
0.266426760742188,0.284718461425781,-3.67237015844726,3.69301372889003,18.5670229999996,
0.110803652832031,0.13867216015625,-5.14001577612305,5.14307977735881,18.5701569999983,
0.0557370146484375,-0.136661030761719,-6.30120358129883,6.30293181187167,18.5731359999991,
0.110803652832031,-0.0480755693359375,-6.72497727514648,6.72606185379562,18.5762169999998,
0.158687686035156,0.267959049804688,-6.16233988500977,6.17020394253331,18.5792199999996,
0.00785298144531249,0.986219547851563,-4.74257830053711,4.84404165987531,18.5823029999992,
-0.229172982910156,1.64701920605469,-3.3970369675293,3.78220209401475,18.5852669999986,
-0.511688778808594,2.19050298291016,-2.34119403540039,3.24673963167533,18.5882839999995,
-0.478169955566406,3.07635759716797,-0.148105314697265,3.11681853117903,18.5914189999985,
-0.636187265136719,3.54801532421875,2.72493667749024,4.51867534500375,18.5944099999997,
-1.08390297558594,4.16811355419922,5.84218723901367,7.25804160892437,18.5974119999992,
-0.834906002929688,4.27585262890625,8.37285839379883,9.43847134977164,18.6004109999994,
-0.0136948334960937,3.40436322460938,9.08872469018555,9.70540019821571,18.6033989999996,
0.855400369140625,2.31500146923828,7.89880646508789,8.27539033321182,18.6064609999994,
1.42761456591797,1.13944845410156,5.81585102075196,6.09594531011862,18.6094819999998,
1.35339431445313,0.56005165234375,4.28595615991211,4.52932160796466,18.6125779999984,
0.793151125976562,0.191344596679688,2.39453684838867,2.52972492212248,18.6155719999988,
0.32867600390625,0.0405098920898438,0.325946614013674,0.464661341288353,18.6185459999997,
0.173052895996094,-0.265947920410156,-1.40984958959961,1.4451129597638,18.6216099999983,
0.249667349121094,-0.445513044921875,-2.93256184545898,2.9766986135406,18.624581,
0.335858608886719,-0.471849263183594,-3.84235847631836,3.885763939416,18.6276209999996,
0.29036877734375,-0.493397078125,-4.51752334448242,4.55365478176618,18.6305749999992,
0.1946007109375,-0.625078169433594,-5.18311140600586,5.22429287096999,18.6335629999994,
0.220936929199219,-0.699298420898438,-5.62603871313476,5.6736357840318,18.6366769999986,
0.278397769042969,-0.89562295703125,-5.65476913305664,5.73202056408904,18.6396399999994,
-0.0879150849609375,-0.759153462402344,-4.72342468725586,4.78484940388089,18.6427119999989,
-0.583514828613281,-0.58916514453125,-3.31323990942383,3.41543025402963,18.6456979999984,
-1.79498086865234,-0.258765315429688,-1.85038269506836,2.59091333809253,18.6486179999993,
-2.69759489453125,0.260776444824219,-0.227113969482421,2.71966970867977,18.6517269999986,
-2.93701506054688,0.423582157714844,1.44403878930664,3.30011020046842,18.6547249999985,
-2.92743825390625,0.500196610839844,3.43601457055664,4.54161727901052,18.6578239999999,
-2.77660354931641,0.40682274609375,5.12871514428711,5.84625957754663,18.660840999999,
-3.16685841992188,0.172190983398438,5.66262211450196,6.49029515494021,18.6638939999993,
-3.58823791210938,-0.184545063964844,5.22687741235352,6.34269309349777,18.6669929999989,
-3.69118858349609,-0.388052205078125,3.11997995141602,4.84868359145405,18.6700000000001,
-3.43261480419922,-0.979420015136719,2.24370214379883,4.21619582919787,18.673080999999,
-1.60823313916016,-1.25714740771484,1.11124475854492,2.32415540530547,18.6761659999993,
-0.468593148925781,-0.593953547851562,-0.308516825927732,0.817033039788576,18.6792310000001,
-0.01608903515625,-0.0696233842773437,-1.05311354223633,1.05553512756897,18.6822069999998,
-0.0974918916015625,0.289506864746094,-0.966922282470701,1.01403037134078,18.6851879999995,
-0.85884801953125,0.909605094726563,-0.552725395263671,1.36766469266946,18.6882809999988,
-1.71836641552734,1.53928013134766,0.517482746826174,2.36430853613413,18.6912919999995,
-1.99848800976563,1.78109449902344,1.86302407983399,3.26145836423981,18.6943139999985,
-1.90511414501953,1.97741903515625,3.25884364770508,4.26142087411459,18.6972719999994,
-1.51964767773438,1.71884525585938,4.48467489770508,5.03746632903286,18.7002209999991,
-1.21318986523438,1.44111786328125,4.80310371850586,5.15930767406835,18.7032459999991,
-0.851665414550781,1.26394694042969,3.76162599633789,4.05866061440084,18.7062119999991,
-0.4183149140625,0.935941312988281,2.1575108840332,2.38868723850719,18.7093609999993,
-0.444651132324219,0.825808036621094,0.886189802490236,1.29035107969222,18.7123579999989,
-0.447045333984375,0.612724088867188,-0.368371867431639,0.84319521608605,18.7154199999986,
-0.396767099121094,0.497802409179688,-1.81446967016601,1.92289665699497,18.7184869999983,
-0.408738107421875,0.44512997265625,-2.9205908371582,2.98245844415446,18.7214969999986,
-0.784627768066406,0.665396525390625,-3.28929789282226,3.44642915176676,18.724549999999,
-1.28262171337891,0.837779044921875,-2.83679377905273,3.22403336406644,18.727531999999,
-2.45578052685547,0.75158778515625,-2.27415638891601,3.43038328414277,18.7305509999987,
-2.99208169873047,0.40682274609375,-2.49681714331055,3.91818242119309,18.7336349999987,
-2.91067884228516,0.0381156904296875,-2.97326327368164,4.16098529478385,18.7365849999987,
-2.10862128613281,-0.275524727050781,-2.7458141159668,3.47299478303543,18.7396199999985,
-1.65851137402344,-0.440724641601563,-1.52477126928711,2.29561007384167,18.7426069999983,
-1.68963599560547,-0.546069514648438,-0.612580436767576,1.87838135211794,18.745531999999,
-1.68963599560547,-0.445513044921875,0.613250813232423,1.85187154812948,18.7486309999986,
-1.78061565869141,-0.297072541992187,1.08251433862305,2.10491840994069,18.7516219999998,
-1.61062734082031,-0.119901619140625,1.57093147729492,2.25306958073346,18.75468,
-1.45739843457031,0.248805436523438,2.05456021264649,2.53123132283906,18.7576469999985,
-0.154952731445313,0.375698124511719,2.45199768823242,2.48544806681635,18.760581999999,
0.797939529296875,0.734828373535156,2.92604961694336,3.12064842489205,18.763676999999,
1.10679154345703,1.01973837109375,3.79514481958008,4.08264351465254,18.7666709999994,
1.20974221484375,1.02931517773438,4.03217078393555,4.33374747675875,18.7697449999996,
1.46352759082031,0.873692069824219,3.48868700708008,3.88280670074308,18.7727449999984,
1.87293607470703,0.720463163574219,2.38496004174805,3.11688804911906,18.7758049999993,
1.80829262988281,0.837779044921875,1.62839231713867,2.57360787648681,18.7788389999987,
1.60957389208984,1.17296727734375,1.51825904077149,2.50433441510929,18.7818319999988,
1.05890751025391,1.33816719189453,0.993928877197266,1.97480914562943,18.7849079999996,
0.527394741699219,1.12268904248047,-0.588638420166014,1.37297891075327,18.7878829999991,
0.247273147460938,0.67497333203125,-2.55667218481445,2.6558060300053,18.7909449999988,
0.165870291015625,0.481042997558594,-3.95967435766601,3.9922345043471,18.7939959999985,
0.127563064453125,0.516956022460938,-4.47203351293945,4.50362072175543,18.7970289999994,
-0.0136948334960937,0.679761735351563,-3.98361637426758,4.04122048181554,18.8001559999993,
-0.1884715546875,0.71328055859375,-4.11769166723633,4.18326132922886,18.8031579999988,
-0.509294577148438,0.200921403320313,-4.44330309301758,4.47690660535202,18.8062739999987,
-0.664917685058594,-0.124690022460937,-5.50872283178711,5.5501072392394,18.8092539999998,
-0.502111972167969,-0.507762288085937,-6.22219492651367,6.26303829441663,18.8122449999992,
-0.619427853515625,-0.577194136230469,-6.49513391577148,6.5500846193324,18.815360999999,
-0.650552475097656,-0.548463716308594,-6.32035719458008,6.37737767723089,18.8184009999986,
-0.7247727265625,-0.510156489746094,-5.86545887915039,5.93204543241225,18.8214469999984,
-0.997711715820313,-0.929141780273438,-5.19508241430664,5.37099752440577,18.8244239999985,
-1.79498086865234,-1.14701413134766,-3.89742511450195,4.44156732015734,18.8274169999986,
-2.27142699902344,-1.36967488574219,-1.86235370336914,3.24094912347884,18.8305229999987,
-3.07109035351563,-1.61627765673828,1.08490854028321,3.63606600103842,18.8334759999998,
-4.9385676484375,-1.50135597705078,5.19814699243164,7.32558887345896,18.8365089999988,
-6.45170309765625,-0.763941865722656,9.07675368188477,11.1622371161036,18.8394529999987,
-6.96885065625,0.241622831542969,9.38740134729004,11.6938686976099,18.8424539999996,
-5.32403411572266,0.564840055664063,9.38740134729004,10.8068352263262,18.8454919999986,
-1.80216347363281,-0.428753633300781,7.02492285913086,7.26506462741415,18.8484829999998,
