X,Y,Z,Magnitude,Seconds,
-0.0117794721679688,-0.0444842668457031,-0.0561200869140652,0.0725745831307208,0.0,
-0.0285388837890626,-0.0301190568847655,-0.00105344873047031,0.0415058457302233,0.00382100000024366,
-0.0189620771484376,-0.0109654436035155,-0.0154186586914093,0.0267868691535116,0.00774900000033085,
-0.0237504804687501,-0.00138863696289054,-0.003447650390628,0.0240395492538272,0.0116029999990133,
-0.0452982954101563,-0.0277248552246093,-0.0465432802734398,0.0706178454988773,0.0154739999998128,
-0.0500866987304688,-0.0373016618652343,0.00373495458984152,0.0625622989780043,0.0194859999992332,
-0.00938527050781257,-0.0468784685058593,-0.0537258852539093,0.0719176255049893,0.0233489999991434,
-0.0261446821289064,-0.0229364519042968,0.010917559570311,0.0364529606006284,0.0273089999991498,
0.00019153613281242,-0.0109654436035155,-0.130340338378909,0.130800922964024,0.0312340000000404,
-0.0237504804687501,-0.0612436784667968,-0.0321780703125025,0.0731457564297289,0.035200000000259,
0.0121625444335937,-0.00617704028320304,-0.00823605371093983,0.0159347386074871,0.0391019999988202,
-0.0548751020507813,-0.0660320817871093,0.010917559570311,0.0865488634078718,0.0430710000000545,
-0.0165678754882813,0.00818816967773445,-0.0513316835937516,0.0545571476658704,0.0469339999999647,
-0.0476924970703126,-0.034907460205078,-0.0321780703125025,0.0672943776537627,0.0508780000000115,
-0.0261446821289064,-0.00138863696289054,-0.003447650390628,0.0264075559159165,0.0547909999986587,
-0.00220266552734383,-0.0301190568847655,0.0181001645507788,0.0352083126522468,0.0587639999994281,
-0.0285388837890626,-0.0205422502441406,-0.0728794985351584,0.0809189300457851,0.062685999999303,
-0.0237504804687501,0.00339976635742195,-0.0178128603515653,0.0298821305747416,0.0664930000002641,
-0.0500866987304688,-0.00617704028320304,-0.0561200869140652,0.0754738191137781,0.0702849999997852,
0.00019153613281242,-0.0396958635253905,-0.0393606752929703,0.0559022452736493,0.0741729999990639,
-0.0429040937500001,-0.00857124194335929,-0.0202070620117212,0.0481928708846645,0.078045000000202,
0.0241335527343749,-0.0277248552246093,-0.0680910952148466,0.0773788938429964,0.0820139999996172,
-0.0141736738281251,-0.0109654436035155,-0.0226012636718771,0.0288435625881005,0.0859789999994973,
0.00497993945312492,0.00339976635742195,0.013311761230467,0.0146137331061851,0.089828000000125,
-0.0285388837890626,-0.0444842668457031,-0.0345722719726584,0.0631550463072968,0.0937599999997474,
-0.0189620771484376,-0.025330653564453,-0.0441490786132839,0.0543170647420086,0.0976949999985663,
-0.0476924970703126,0.0105823713378907,-0.0321780703125025,0.0584977697777543,0.101539999999659,
0.0145567460937499,-0.0157538469238281,-0.0297838686523466,0.0367036971112931,0.105411999998978,
-0.0764229169921876,-0.0660320817871093,-0.0369664736328144,0.10755100296873,0.109367999999449,
-0.0141736738281251,0.00339976635742195,-0.041754876953128,0.0442257977931658,0.113269999999829,
-0.0261446821289064,0.0105823713378907,0.0300711728515601,0.0412287087285422,0.117168999999194,
-0.0381156904296876,-0.025330653564453,0.0588015927734347,0.0745122485208101,0.12112199999865,
-0.0500866987304688,-0.00138863696289054,0.0420421811523415,0.0654075737080787,0.12508699999853,
-0.0524809003906251,-0.0373016618652343,0.00134075292968561,0.0644007492358392,0.129060999999638,
-0.00938527050781257,0.00339976635742195,-0.0800621035156279,0.080681981465114,0.132918999999674,
-0.0955765302734376,0.0297359846191407,-0.0369664736328144,0.106703430559775,0.136719000000085,
-0.0309330854492189,0.0201591779785157,-0.0728794985351584,0.0816986507778085,0.140600999999151,
-0.0285388837890626,-0.0301190568847655,-0.0537258852539093,0.0678829597312138,0.144451000000117,
-0.0237504804687501,0.0369185895996095,-0.0513316835937516,0.0675426481646219,0.148263999999472,
-0.0141736738281251,0.0177649763183595,-0.024995465332033,0.0337825502374053,0.152133999999933,
-0.0285388837890626,-0.0181480485839843,-0.0848505068359398,0.0913423673091963,0.156284999999116,
-0.00699106884765632,-0.034907460205078,-0.0656968935546889,0.0747227384692096,0.160239999999249,
-0.0261446821289064,0.00339976635742195,-0.0537258852539093,0.0598462493496697,0.164056999999957,
-0.0285388837890626,-0.025330653564453,-0.0561200869140652,0.0678643798554897,0.167928999999276,
-0.0309330854492189,-0.0109654436035155,-0.0154186586914093,0.0362606089947856,0.171757000000071,
-0.0596635053710938,0.00818816967773445,-0.063302691894533,0.0873728264217891,0.17563599999994,
-0.0285388837890626,-0.0277248552246093,-0.0561200869140652,0.0687938924643271,0.179662999998982,
-0.0165678754882813,-0.0157538469238281,-0.0585142885742211,0.062821971940093,0.183504999999059,
-0.0357214887695314,-0.0157538469238281,-0.0465432802734398,0.0607493653581923,0.187456999999995,
-0.0405098920898438,-0.0181480485839843,0.00373495458984152,0.0445460762618396,0.191342999998596,
-0.0117794721679688,-0.0277248552246093,-0.0752737001953143,0.081077453727134,0.195170999999391,
0.00019153613281242,-0.0277248552246093,-0.0465432802734398,0.0541754669747081,0.198974999999336,
-0.0620577070312501,0.0057939680175782,-0.0345722719726584,0.0712739156825037,0.202857999998741,
-0.0476924970703126,-0.0373016618652343,-0.0489374819335957,0.077851559988937,0.206704999998692,
-0.00220266552734383,-0.0133596452636718,-0.125551935058596,0.126279928151525,0.210574999999153,
-0.0524809003906251,-0.0109654436035155,-0.0465432802734398,0.0709983295426347,0.214415999998891,
-0.0261446821289064,-0.0229364519042968,-0.139917145019533,0.144175007196104,0.218365999999151,
-0.0189620771484376,-0.034907460205078,-0.00105344873047031,0.0397391608112216,0.222415000000183,
-0.0405098920898438,0.022553379638672,-0.0441490786132839,0.0640222417028549,0.226297999999588,
-0.0333272871093751,0.0010055646972657,0.00134075292968561,0.0333693998275301,0.230285999999978,
-0.0117794721679688,-0.0133596452636718,0.00373495458984152,0.0181985156514282,0.234191999999894,
-0.0716345136718751,-0.0109654436035155,-0.024995465332033,0.0766584489119941,0.237989999999627,
0.00019153613281242,-0.00617704028320304,-0.0226012636718771,0.0234309545754371,0.241820999999618,
-0.0548751020507813,-0.034907460205078,0.013311761230467,0.0663853190856965,0.245802999999796,
-0.0285388837890626,-0.0277248552246093,0.00373495458984152,0.0399635505296932,0.249657999998817,
-0.00459686718750008,-0.00857124194335929,0.00373495458984152,0.0104186017382034,0.253656999999293,
-0.00459686718750008,-0.025330653564453,0.00612915624999744,0.0264639330840813,0.257583999999042,
-0.0381156904296876,-0.054061073486328,0.0181001645507788,0.0685785788726422,0.261475999999675,
-0.0429040937500001,-0.025330653564453,0.00373495458984152,0.0499635182538151,0.265389999998661,
-0.0237504804687501,-0.0157538469238281,-0.0226012636718771,0.0363742509883241,0.269245999999839,
-0.0333272871093751,-0.0444842668457031,-0.0321780703125025,0.0642260560201761,0.273051000000123,
0.00737414111328116,-0.00138863696289054,-0.0609084902343771,0.061368969784448,0.27689399999872,
-0.0285388837890626,-0.0301190568847655,-0.0154186586914093,0.0442646643655584,0.280837999998766,
-0.00938527050781257,-0.0109654436035155,-0.0561200869140652,0.0579464270785433,0.284748000000036,
0.00737414111328116,0.0536780012207032,0.0540131894531228,0.0765057540784178,0.288759999999456,
-0.0213562788085938,-0.073214686767578,-0.0345722719726584,0.0837360316254384,0.292563999999402,
-0.0285388837890626,-0.216866786376953,-0.16146495996094,0.271876082465119,0.296508999999787,
0.00019153613281242,0.206906907470703,0.0228885678710924,0.208169141767866,0.300366999999824,
-0.0979707319335938,0.204512705810547,-0.0297838686523466,0.228715521960045,0.304226999998718,
-0.0812113203125001,-0.496988380615234,-0.156676556640628,0.527390057181794,0.30805700000019,
0.194121870605469,0.0608606062011719,0.104291424316404,0.22861324375566,0.311821999999665,
-0.193738798339844,0.391260435302734,-0.0776679018554702,0.443454341724244,0.314800999998624,
-0.289506864746094,0.0919852277832032,-0.041754876953128,0.3066251402198,0.317742999999609,
0.0959596025390624,-0.334182667724609,-0.00823605371093983,0.347784607634842,0.320834999998624,
0.280313130371094,-0.295875441162109,-0.0106302553710957,0.407714029769113,0.323822999998811,
-0.0979707319335938,0.233243125732422,-0.0465432802734398,0.257229269243697,0.326890000000276,
-0.308660478027344,0.355347410400391,-0.113580926757814,0.484193865819773,0.32987299999877,
0.0121625444335937,-0.145040736572266,-0.106398321777347,0.180292389272427,0.332854000000225,
0.258765315429688,-0.327000062744141,-0.063302691894533,0.421776908217119,0.335919999999533,
0.0408929643554687,-0.0205422502441406,-0.0297838686523466,0.0546012583258917,0.338925999998537,
-0.196133,0.240425730712891,-0.0513316835937516,0.314495830526251,0.341957999999067,
-0.0979707319335938,0.0943794294433595,0.034859576171872,0.140431232525178,0.344902999999249,
0.0768059892578124,-0.228837794677734,-0.101609918457033,0.261897827000693,0.34792699999889,
0.115113215820312,-0.140252333251953,-0.0680910952148466,0.193799294855962,0.351022999999259,
-0.10036493359375,0.108744639404297,-0.0704852968750025,0.163910626775709,0.353955999999016,
-0.232046024902344,0.166205479248047,-0.063302691894533,0.292364241668071,0.356991999999082,
0.0289219560546874,-0.104339308349609,-0.0896389101562516,0.140564238065394,0.359974999999395,
0.177362458984375,-0.142646534912109,-0.0106302553710957,0.227856266336194,0.362954999998692,
-0.0381156904296876,0.0273417829589845,-0.0297838686523466,0.0555648970502801,0.365961999999854,
-0.200921403320313,0.178176487548828,0.00134075292968561,0.268548075111068,0.368936999999278,
-0.0716345136718751,-0.00617704028320304,0.032465374511716,0.0788901763076516,0.372058999999354,
0.1103248125,-0.152223341552734,-0.024995465332033,0.189653060227895,0.375051999999414,
0.00737414111328116,-0.0564552751464843,-0.0321780703125025,0.0653988093015476,0.378099999999904,
-0.129095353515625,0.0560722028808595,-0.003447650390628,0.140789163391408,0.381063999999242,
-0.0620577070312501,0.012976572998047,0.032465374511716,0.0712288634679516,0.384000000000015,
0.00258573779296867,-0.0875798967285156,-0.0226012636718771,0.0904861396594923,0.387080999998943,
0.0217393510742186,-0.0588494768066405,-0.0345722719726584,0.0716317129133104,0.390116999999009,
0.00258573779296867,-0.0277248552246093,-0.0441490786132839,0.0521966931860769,0.39320299999963,
-0.0764229169921876,0.041706992919922,-0.0465432802734398,0.0987229073651561,0.396205999999438,
-0.0476924970703126,-0.113916114990234,-0.041754876953128,0.130364585991138,0.399190999998609,
0.0241335527343749,-0.0995509050292968,-0.0297838686523466,0.106676566740944,0.402288999999655,
-0.00459686718750008,0.022553379638672,-0.0393606752929703,0.045596588475282,0.405252999998993,
-0.0285388837890626,0.051283799560547,-0.0178128603515653,0.0613334654099729,0.408382999999958,
-0.0812113203125001,-0.0468784685058593,-0.00105344873047031,0.093776218256987,0.411360999998578,
-0.0261446821289064,-0.0564552751464843,-0.0752737001953143,0.0976569118730511,0.414329999999609,
0.00497993945312492,-0.0373016618652343,0.00852335791015335,0.0385857668697881,0.417429999999513,
-0.00459686718750008,0.0656490095214845,-0.0441490786132839,0.0792468597579323,0.420430000000124,
-0.0788171186523438,-0.0133596452636718,-0.0680910952148466,0.105009597474641,0.42349699999977,
0.00737414111328116,-0.0229364519042968,-0.0824563051757838,0.0859040222944112,0.42646699999932,
-0.00699106884765632,-0.0181480485839843,-0.063302691894533,0.0662227869553487,0.429398000000219,
-0.0644519086914064,0.0177649763183595,-0.0273896669921889,0.0722484378758479,0.432441999999355,
-0.0476924970703126,0.012976572998047,-0.0704852968750025,0.0860879945122004,0.435373000000254,
-0.00938527050781257,-0.034907460205078,0.013311761230467,0.0385203461501956,0.438516999998683,
-0.0165678754882813,-0.0564552751464843,-0.0178128603515653,0.061473494971124,0.441493000000264,
-0.0189620771484376,-0.00617704028320304,-0.041754876953128,0.0462729504766496,0.444519999999102,
-0.0333272871093751,-0.0109654436035155,-0.024995465332033,0.0430780954390681,0.44759299999896,
-0.0405098920898438,-0.0181480485839843,0.00134075292968561,0.0444094656909527,0.450589999998556,
-0.0405098920898438,-0.025330653564453,-0.0273896669921889,0.0550716553689476,0.453663999998753,
-0.00699106884765632,-0.0133596452636718,0.00373495458984152,0.0155339966200588,0.456661999998687,
-0.0261446821289064,-0.00378283862304679,-0.0776679018554702,0.0820375356181579,0.459661999999298,
-0.0213562788085938,0.0010055646972657,-0.0537258852539093,0.057823633154853,0.462703999999576,
-0.0405098920898438,-0.00857124194335929,-0.00584185205078391,0.0418168002239009,0.465643999999884,
-0.00220266552734383,-0.0780030900878905,-0.00823605371093983,0.0784676135702775,0.468721999999616,
-0.0237504804687501,-0.0492726701660156,-0.063302691894533,0.0836606965598519,0.471682999999757,
-0.0261446821289064,-0.0301190568847655,-0.0273896669921889,0.0483828053051112,0.474688999998762,
-0.0141736738281251,0.0632548078613282,0.0181001645507788,0.0673028952135411,0.477693999999246,
-0.00459686718750008,-0.0420900651855468,0.00134075292968561,0.0423615674129458,0.48068400000011,
-0.0476924970703126,-0.0588494768066405,-0.0489374819335957,0.0901815520781169,0.483737999998993,
-0.0309330854492189,-0.00857124194335929,-0.0537258852539093,0.0625842848499246,0.486688999999387,
-0.0788171186523438,0.0105823713378907,-0.0226012636718771,0.0826737074005779,0.48969599999873,
-0.0548751020507813,-0.0229364519042968,-0.0489374819335957,0.0770210022594019,0.492691999999806,
-0.00699106884765632,0.0010055646972657,-0.0106302553710957,0.0127627792133127,0.495601999999053,
0.00976834277343741,-0.0923683000488281,-0.0226012636718771,0.0955936216178434,0.498708999999508,
-0.0429040937500001,0.0249475812988282,0.0204943662109347,0.0536950846871326,0.501702999999907,
-0.112335941894531,0.0441011945800782,0.0420421811523415,0.127796025762806,0.504746999999043,
0.0361045610351562,-0.0325132585449218,-0.0369664736328144,0.0610505649572206,0.507750999999189,
0.00258573779296867,-0.0301190568847655,-0.0609084902343771,0.067997704447966,0.510734999999841,
-0.0572693037109376,-0.0468784685058593,-0.00823605371093983,0.0744660764222202,0.513764999999694,
-0.0955765302734376,0.00818816967773445,0.0157059628906229,0.0972038915481388,0.516777999999249,
-0.0476924970703126,0.00818816967773445,0.0204943662109347,0.0525513029891843,0.51985699999932,
-0.0285388837890626,-0.025330653564453,-0.0273896669921889,0.0469713077939178,0.522880999998961,
-0.0165678754882813,-0.025330653564453,-0.0704852968750025,0.0767092796456515,0.525864999999612,
-0.0357214887695314,-0.0157538469238281,-0.0202070620117212,0.0439605938080539,0.528962999998839,
-0.0476924970703126,0.0057939680175782,-0.0273896669921889,0.0553022440786402,0.531929999999193,
0.00497993945312492,-0.0325132585449218,-0.0226012636718771,0.0399090077267204,0.535025999999561,
0.00497993945312492,-0.0109654436035155,-0.0345722719726584,0.036609872162166,0.538078999999925,
-0.0237504804687501,-0.00857124194335929,-0.0226012636718771,0.0338875881483736,0.541062999998758,
-0.0213562788085938,-0.00617704028320304,-0.0441490786132839,0.04943063436385,0.544127999999546,
-0.0333272871093751,-0.0229364519042968,0.00852335791015335,0.0413453325309328,0.54712599999948,
-0.0309330854492189,-0.0109654436035155,-0.024995465332033,0.0412537272982141,0.550219999999172,
-0.0620577070312501,-0.00378283862304679,0.00612915624999744,0.0624742781179692,0.553224999999657,
-0.0285388837890626,0.00339976635742195,-0.0752737001953143,0.0805739178661727,0.556149000000005,
-0.0261446821289064,-0.0325132585449218,-0.0178128603515653,0.0453646820636368,0.559173999999985,
-0.0285388837890626,-0.0660320817871093,-0.0656968935546889,0.097420662776442,0.562158999999156,
-0.00459686718750008,-0.0420900651855468,-0.0393606752929703,0.057809752938252,0.56520399999863,
-0.0596635053710938,0.0345243879394532,-0.0202070620117212,0.0718330884126942,0.568208999999115,
0.00258573779296867,-0.0109654436035155,-0.0202070620117212,0.0231355213578906,0.571291999998721,
-0.0165678754882813,-0.054061073486328,0.0157059628906229,0.058683655603677,0.574322999998913,
-0.0740287153320313,0.00818816967773445,-0.0561200869140652,0.0932564258999053,0.577264999999898,
-0.0285388837890626,-0.0229364519042968,-0.0273896669921889,0.0457246385642002,0.580325999999332,
-0.0213562788085938,-0.0205422502441406,0.00373495458984152,0.0298667804664558,0.583305000000109,
-0.0668461103515626,-0.0612436784667968,-0.0345722719726584,0.0970279991065937,0.586336000000301,
-0.0213562788085938,0.00339976635742195,-0.0465432802734398,0.0513217886910367,0.589316999999937,
-0.0524809003906251,-0.00378283862304679,-0.0297838686523466,0.0604618359443291,0.592291999999361,
-0.00938527050781257,-0.0492726701660156,-0.0680910952148466,0.084571133227308,0.59534100000019,
-0.0548751020507813,-0.0277248552246093,-0.0561200869140652,0.0832430692463429,0.598299999999654,
0.00019153613281242,-0.0277248552246093,-0.0680910952148466,0.0735193956100907,0.601381999998921,
-0.0285388837890626,-0.0157538469238281,-0.063302691894533,0.0712031065468298,0.60432899999978,
0.00019153613281242,-0.0325132585449218,-0.063302691894533,0.0711644536857642,0.607346999999208,
-0.0117794721679688,-0.0325132585449218,-0.0154186586914093,0.0378629499855341,0.610424999998941,
-0.0429040937500001,-0.025330653564453,0.013311761230467,0.0515713705224914,0.613395999998829,
-0.0333272871093751,-0.0301190568847655,0.0157059628906229,0.0475872138711659,0.616441999998642,
-0.00459686718750008,-0.0277248552246093,0.00852335791015335,0.0293674380092924,0.61942099999942,
0.0121625444335937,-0.0420900651855468,-0.003447650390628,0.0439475524647132,0.622395999998844,
-0.0500866987304688,-0.0396958635253905,0.013311761230467,0.0652812527284836,0.625460999999632,
-0.0333272871093751,-0.025330653564453,-0.0106302553710957,0.0431897256917402,0.628452999999354,
-0.0429040937500001,-0.0229364519042968,-0.00584185205078391,0.0489996869566548,0.631523000000016,
-0.0524809003906251,-0.0133596452636718,-0.0178128603515653,0.0570089731646363,0.634511000000202,
-0.0620577070312501,-0.0301190568847655,-0.041754876953128,0.0806336551259774,0.637483999998949,
-0.0333272871093751,-0.0468784685058593,-0.0561200869140652,0.0803602080060013,0.640559999999823,
-0.0309330854492189,-0.00857124194335929,-0.0297838686523466,0.0437881353309377,0.643497999999454,
-0.0572693037109376,-0.0133596452636718,-0.0441490786132839,0.0735349876691951,0.646591999999146,
-0.0333272871093751,-0.0205422502441406,0.0181001645507788,0.0431312887348486,0.649604999998701,
-0.0405098920898438,-0.0325132585449218,-0.101609918457033,0.114117215472446,0.652624999998807,
0.0289219560546874,0.0201591779785157,-0.0178128603515653,0.039498987236423,0.655717999999979,
-0.0165678754882813,0.00339976635742195,-0.099215716796877,0.100646964032694,0.658691999999064,
-0.0429040937500001,-0.0444842668457031,-0.0489374819335957,0.0788320264569516,0.661759999999049,
0.00258573779296867,0.0105823713378907,-0.0178128603515653,0.0208799094100373,0.664745000000039,
-0.0668461103515626,-0.0588494768066405,0.032465374511716,0.0947927419781419,0.667856000000029,
-0.0165678754882813,-0.0181480485839843,-0.0656968935546889,0.070142198342638,0.670884999999544,
-0.0117794721679688,0.0153707746582032,-0.0537258852539093,0.0571094337606795,0.673842999998669,
-0.0261446821289064,-0.0420900651855468,0.0420421811523415,0.0649820204902205,0.67689799999971,
0.00737414111328116,-0.0301190568847655,-0.063302691894533,0.0704894768449908,0.6799460000002,
-0.0476924970703126,-0.0157538469238281,-0.0202070620117212,0.0541394802786906,0.682996999999887,
-0.0237504804687501,-0.0133596452636718,0.010917559570311,0.0293557243317026,0.685969999998633,
-0.0189620771484376,-0.025330653564453,0.00852335791015335,0.0327696507434884,0.688915999999153,
-0.0213562788085938,-0.0109654436035155,-0.0920331118164093,0.0951126977252983,0.691985999999815,
-0.0285388837890626,-0.0205422502441406,-0.0680910952148466,0.0766345169005182,0.694915000000037,
0.0121625444335937,-0.034907460205078,0.034859576171872,0.0508099234003633,0.698043999998845,
-0.0309330854492189,0.0105823713378907,-0.0154186586914093,0.0361466097218516,0.70103299999937,
-0.0452982954101563,-0.0468784685058593,-0.0154186586914093,0.0669870242088929,0.704019999999218,
-0.0357214887695314,-0.025330653564453,-0.0872447084960957,0.0976181639372653,0.707091000000219,
-0.0141736738281251,-0.0420900651855468,0.0396479794921856,0.0595351064072487,0.710068999998839,
-0.0237504804687501,-0.0373016618652343,-0.00823605371093983,0.0449814615273252,0.713144999999713,
-0.0357214887695314,-0.0133596452636718,-0.0800621035156279,0.088681707814126,0.716115999999602,
-0.0261446821289064,-0.0420900651855468,-0.0202070620117212,0.0535111516049756,0.719123999999283,
-0.0309330854492189,-0.025330653564453,-0.063302691894533,0.074871413680424,0.722207999999227,
0.00258573779296867,-0.0301190568847655,-0.0393606752929703,0.0496296925950622,0.725173999999242,
0.0145567460937499,-0.0420900651855468,-0.0106302553710957,0.0457872774186912,0.728245000000243,
-0.0357214887695314,-0.0492726701660156,-0.0345722719726584,0.0699933052123714,0.731244999999035,
-0.0237504804687501,-0.0444842668457031,-0.0154186586914093,0.0527320619276202,0.734164999999848,
-0.0285388837890626,-0.0109654436035155,-0.0513316835937516,0.0597465528873133,0.737261999998736,
-0.0524809003906251,-0.0396958635253905,0.0252827695312483,0.0704927295684269,0.740259999998671,
-0.0165678754882813,0.0105823713378907,0.0300711728515601,0.0359271000499151,0.743309999999838,
-0.0381156904296876,-0.0420900651855468,0.032465374511716,0.065409326448461,0.746272000000317,
-0.0189620771484376,-0.0612436784667968,-0.0202070620117212,0.0672210820879375,0.749243999998725,
-0.0309330854492189,0.0010055646972657,-0.0345722719726584,0.0464016047688065,0.752269999999044,
-0.0141736738281251,-0.0396958635253905,-0.0465432802734398,0.0627927666966863,0.755218000000241,
-0.0452982954101563,-0.0181480485839843,-0.0345722719726584,0.0598040903603082,0.758270999998786,
0.00258573779296867,-0.0229364519042968,-0.003447650390628,0.0233378053618609,0.761279999998806,
-0.0381156904296876,-0.034907460205078,-0.0537258852539093,0.0745507034253676,0.764314999998533,
-0.00938527050781257,-0.0229364519042968,-0.00823605371093983,0.0261150667085578,0.767304999999396,
-0.0213562788085938,-0.0468784685058593,0.00134075292968561,0.0515313406814115,0.770305999998527,
-0.0213562788085938,-0.0133596452636718,-0.0465432802734398,0.0529230356719407,0.773322999999436,
-0.0141736738281251,-0.0396958635253905,-0.0202070620117212,0.046743769274183,0.776325999999244,
-0.00220266552734383,0.0105823713378907,-0.0202070620117212,0.0229164498494838,0.779362999999648,
-0.00699106884765632,-0.0133596452636718,-0.108792523437502,0.10983245568184,0.782400999998572,
-0.0141736738281251,-0.00378283862304679,-0.0106302553710957,0.0181164352754288,0.785362999999052,
-0.0213562788085938,-0.0396958635253905,0.00612915624999744,0.0454908648182655,0.788526999998794,
-0.0285388837890626,0.0273417829589845,0.013311761230467,0.0417042440329374,0.791490999999951,
-0.0237504804687501,-0.034907460205078,-0.0824563051757838,0.0926372406956705,0.794613000000027,
0.00019153613281242,-0.025330653564453,-0.0896389101562516,0.0931494117538756,0.797618999999031,
-0.0405098920898438,-0.0109654436035155,0.00612915624999744,0.042412956356396,0.800678999999946,
0.0289219560546874,0.0177649763183595,-0.0226012636718771,0.0407785610975529,0.803729999999632,
0.00976834277343741,0.00818816967773445,-0.024995465332033,0.0280577962494491,0.806688999999096,
-0.00220266552734383,-0.0181480485839843,-0.0106302553710957,0.0211472393490667,0.80980499999896,
-0.0476924970703126,-0.0109654436035155,-0.0465432802734398,0.0675358583926763,0.812821999999869,
-0.0357214887695314,-0.0205422502441406,-0.0321780703125025,0.052282282027863,0.815762000000177,
-0.0452982954101563,-0.0181480485839843,-0.0369664736328144,0.0612193385076808,0.818795999999566,
-0.0213562788085938,-0.0444842668457031,-0.0728794985351584,0.0880134191364377,0.821769000000131,
-0.0285388837890626,-0.0109654436035155,-0.0226012636718771,0.0380200731313501,0.82481099999859,
0.00019153613281242,-0.0109654436035155,-0.0154186586914093,0.0189212228821032,0.827805999999327,
-0.0285388837890626,-0.0468784685058593,-0.0369664736328144,0.0661708309621847,0.830857999999353,
-0.0285388837890626,-0.0420900651855468,-0.0154186586914093,0.0531392182017328,0.833891000000222,
0.00497993945312492,-0.0325132585449218,-0.0609084902343771,0.0692225105063152,0.836937999998554,
0.0169509477539062,-0.00617704028320304,-0.063302691894533,0.0658234096466458,0.839997999999468,
-0.00459686718750008,0.0273417829589845,-0.0609084902343771,0.0669219580253517,0.84296699999868,
-0.0261446821289064,-0.0564552751464843,-0.0704852968750025,0.0940155283506083,0.845900000000256,
-0.00938527050781257,0.0153707746582032,-0.0273896669921889,0.032780144509155,0.848958999999013,
-0.0237504804687501,0.0249475812988282,-0.0561200869140652,0.0658477888041835,0.851918999998816,
0.00019153613281242,-0.034907460205078,-0.0297838686523466,0.0458873217344346,0.855005999999776,
-0.0476924970703126,-0.0205422502441406,-0.0561200869140652,0.0764592864022213,0.857952999998815,
-0.00938527050781257,-0.0373016618652343,-0.024995465332033,0.0458723289966615,0.861001999999644,
-0.0141736738281251,0.0105823713378907,0.0157059628906229,0.0236549547292044,0.863953999998557,
-0.0357214887695314,-0.00857124194335929,0.0276769711914042,0.0459946266719622,0.866959999999381,
-0.0452982954101563,-0.00857124194335929,-0.0202070620117212,0.0503361411975822,0.870041000000128,
-0.0740287153320313,-0.0133596452636718,-0.0489374819335957,0.0897418963098234,0.873012000000017,
-0.0189620771484376,0.00818816967773445,-0.0393606752929703,0.0444507508594996,0.875978999998551,
-0.0381156904296876,0.012976572998047,0.0300711728515601,0.0502540818279852,0.878974999999627,
-0.0333272871093751,-0.0396958635253905,-0.0441490786132839,0.0680853199265383,0.881924999999683,
0.00976834277343741,-0.00378283862304679,-0.00823605371093983,0.0133252755812729,0.88499099999899,
-0.0381156904296876,-0.0133596452636718,-0.063302691894533,0.0750900577946049,0.887942999999723,
-0.0237504804687501,0.00339976635742195,-0.0704852968750025,0.0744568385666406,0.891009999999369,
-0.0189620771484376,-0.0492726701660156,-0.00105344873047031,0.0528059291112275,0.894021999998586,
0.0217393510742186,0.0057939680175782,-0.024995465332033,0.0336294920818277,0.896978999999192,
-0.0429040937500001,0.00818816967773445,-0.003447650390628,0.0438143090370733,0.900025999999343,
-0.0596635053710938,-0.00617704028320304,-0.0106302553710957,0.060917091436489,0.902970999999525,
-0.0357214887695314,-0.00138863696289054,0.00612915624999744,0.0362700927606112,0.906068999998752,
-0.00699106884765632,-0.00378283862304679,-0.106398321777347,0.106694834873655,0.909045000000333,
-0.0381156904296876,-0.025330653564453,-0.0537258852539093,0.070575623364235,0.912037999998574,
-0.0476924970703126,-0.00378283862304679,-0.063302691894533,0.0793480620175689,0.915114999999787,
-0.0452982954101563,-0.0181480485839843,-0.0704852968750025,0.0857290167331323,0.918126999999004,
-0.0237504804687501,-0.00138863696289054,-0.0800621035156279,0.0835221770217845,0.921191999999792,
-0.0429040937500001,0.00818816967773445,-0.149493951660158,0.15574417795266,0.924140999999508,
-0.0309330854492189,-0.0157538469238281,-0.0585142885742211,0.0680364713639332,0.927126999999018,
-0.0500866987304688,-0.0444842668457031,-0.0345722719726584,0.0753841453879258,0.930272999999943,
-0.0452982954101563,-0.0205422502441406,-0.0130244570312517,0.0514155238533811,0.933223999998518,
-0.0429040937500001,0.0057939680175782,0.010917559570311,0.0446489018103335,0.936249000000316,
-0.00699106884765632,-0.00378283862304679,0.0204943662109347,0.0219819006928106,0.939252999998644,
-0.0357214887695314,0.0177649763183595,-0.0537258852539093,0.0669185317368803,0.942240000000311,
-0.0309330854492189,-0.0109654436035155,0.00373495458984152,0.0330309947567241,0.945286000000124,
-0.0165678754882813,-0.034907460205078,-0.0609084902343771,0.0721309188822346,0.94822799999929,
-0.0429040937500001,-0.0325132585449218,-0.0297838686523466,0.0615219641560472,0.951277000000118,
-0.0309330854492189,0.0010055646972657,-0.0130244570312517,0.0335783176577979,0.954201999998986,
-0.0572693037109376,-0.0277248552246093,-0.0321780703125025,0.0713012549244227,0.957216999999218,
-0.0500866987304688,-0.0133596452636718,0.00852335791015335,0.0525338475780374,0.960279999999329,
-0.0381156904296876,-0.0205422502441406,-0.0321780703125025,0.0539464374269611,0.963218999999299,
0.00019153613281242,-0.0205422502441406,-0.0489374819335957,0.0530744559009706,0.96632899999895,
0.00737414111328116,-0.0229364519042968,-0.0345722719726584,0.0421390646843065,0.969293999998627,
-0.00938527050781257,-0.0373016618652343,-0.0872447084960957,0.0953474511509448,0.972307000000001,
-0.0189620771484376,-0.00138863696289054,-0.0441490786132839,0.0480690110653415,0.975276999999551,
-0.0261446821289064,-0.0301190568847655,0.00134075292968561,0.0399061349878406,0.978268999999273,
-0.0285388837890626,-0.0444842668457031,-0.0130244570312517,0.0544330264240769,0.981319999998959,
-0.0381156904296876,-0.054061073486328,-0.0968215151367211,0.117259589444942,0.984286999999313,
-0.00938527050781257,-0.00378283862304679,0.0420421811523415,0.0432427816704607,0.987304000000222,
-0.0524809003906251,-0.034907460205078,0.034859576171872,0.0720275345591001,0.990313999998762,
-0.0524809003906251,-0.0301190568847655,0.013311761230467,0.0619564805367075,0.993239999999787,
-0.0285388837890626,-0.00378283862304679,-0.00584185205078391,0.0293752445327164,0.996296999999686,
-0.0548751020507813,-0.0181480485839843,-0.0393606752929703,0.0699277573786616,0.999279999999999,
0.00019153613281242,0.00818816967773445,0.032465374511716,0.0334825827998308,1.00234900000032,
-0.0668461103515626,-0.0133596452636718,-0.0226012636718771,0.0718171268589195,1.00527499999953,
-0.0237504804687501,-0.00857124194335929,-0.00823605371093983,0.0265590679745651,1.00825099999929,
-0.0213562788085938,-0.0205422502441406,-0.0513316835937516,0.0592707046542583,1.01127699999961,
-0.0189620771484376,-0.00617704028320304,0.00852335791015335,0.0216878727981373,1.01425899999958,
-0.0165678754882813,-0.034907460205078,-0.0178128603515653,0.0425478938382227,1.01725499999884,
-0.0381156904296876,-0.0109654436035155,-0.0321780703125025,0.0510732319262255,1.02025799999865,
-0.0141736738281251,0.012976572998047,-0.0585142885742211,0.0615890123634642,1.02322599999934,
-0.0237504804687501,-0.00857124194335929,-0.0297838686523466,0.0390465151178478,1.0262700000003,
-0.0309330854492189,-0.0229364519042968,0.00134075292968561,0.0385322490880724,1.02925499999947,
