X,Y,Z,Magnitude,Seconds,
-0.361189262451172,4.86860907592773,-0.197042796630857,4.88596335242294,0.0,
-0.188806742919922,4.79678302612305,-0.199436998291013,4.80463843615329,0.00290900000004513,
-0.0858560715332031,4.67707294311523,-0.115639940185545,4.67929002905418,0.00589800000000196,
-0.0667024582519531,4.49990202026367,-0.130005150146483,4.50227373101354,0.0088500000000522,
-0.0403662399902344,4.31554849243164,-0.149158763427732,4.3183140877624,0.0118280000000368,
-0.0858560715332031,4.13837756958008,-0.21380220825195,4.14478606898788,0.0147950000000492,
-0.0858560715332031,3.92050521850586,-0.256897838134764,3.92985100641094,0.0177080000000842,
-0.121769096435547,3.68108505249023,-0.261686241455076,3.69238331778821,0.0207440000000361,
-0.155287919677734,3.48954891967773,-0.347877501220701,3.51028271748551,0.0236650000000509,
-0.236690776123047,3.24773455200195,-0.436462962646482,3.28546833214554,0.026670000000081,
-0.251055986083984,3.04183320922852,-0.434068760986326,3.0828872944333,0.0296150000000353,
-0.289363212646484,2.87663329467773,-0.493923802490231,2.93303782852318,0.0325350000000526,
-0.320487834228516,2.72101018676758,-0.460404979248045,2.77823354549214,0.0355170000000271,
-0.409073295654297,2.57017548217773,-0.537019432373045,2.65735448165112,0.038462000000095,
-0.411467497314453,2.37145674438477,-0.616028087158201,2.4844724180401,0.0414600000000291,
-0.480899345458984,2.26850607299805,-0.740526573486326,2.434289134374,0.0443970000000036,
-0.476110942138672,2.1344307800293,-0.843477244873045,2.3439134469044,0.0473100000000386,
-0.504841362060547,2.05302792358398,-0.876996068115233,2.28886665390369,0.0503180000000611,
-0.547936991943359,1.99556708374023,-1.00388875610351,2.30006860060271,0.0532670000000053,
-0.512023967041016,1.97641347045898,-1.08529161254883,2.31219303547627,0.056297000000086,
-0.490476152099609,1.90698162231445,-1.19781909057617,2.30475949664433,0.0592380000000503,
-0.447380522216797,1.94768305053711,-1.32471177856445,2.39759877654204,0.0622460000000729,
-0.382737077392578,2.00514389038086,-1.43245085327148,2.49379332314867,0.0651780000000599,
-0.363583464111328,2.00753809204102,-1.62877538940429,2.61061513737663,0.068108000000052,
-0.313305229248047,2.12724817504883,-1.70538984252929,2.74439419178893,0.0711090000000922,
-0.279786406005859,2.20625682983398,-1.86340715209961,2.9014023930973,0.0740690000000086,
-0.243873381103516,2.35709153442383,-1.98551143676758,3.09153851556117,0.0770570000000816,
-0.255844389404297,2.46004220581055,-2.14592294799805,3.27448458611481,0.0800060000000258,
-0.229508171142578,2.5941174987793,-2.27760403930664,3.45971093560721,0.0829210000000558,
-0.200777751220703,2.7473464050293,-2.36379529907226,3.62984189607878,0.0859169999999949,
-0.162470524658203,2.84790287475586,-2.40928513061523,3.73384551046626,0.0888340000000198,
-0.148105314697266,2.97000715942383,-2.46195756713867,3.86058451191808,0.0918380000000525,
-0.140922709716797,3.12563026733398,-2.60321546508789,4.0701541169667,0.0947620000000597,
-0.136134306396484,3.16393749389648,-2.62955168334961,4.11625741056955,0.0976800000000821,
-0.0930386765136719,3.29561858520508,-2.76602117797851,4.30356029486078,0.100669000000039,
-0.0499430466308594,3.42969387817383,-2.74447336303711,4.39288384165915,0.103604000000018,
-0.0547314499511719,3.58771118774414,-2.87136605102539,4.5955859362283,0.106588000000102,
-0.0164242233886719,3.61883580932617,-3.0461427722168,4.73024609916904,0.109523000000081,
0.0266714064941406,3.69545026245117,-3.06529638549805,4.80136500769544,0.112437,
0.0147003981933594,3.80797774047852,-3.16106445190429,4.94906446136842,0.115505000000098,
0.0458250197753906,3.81276614379883,-3.13472823364258,4.93617328489711,0.118539000000055,
0.167929304443359,3.90374580688477,-3.26162092163086,5.08975467114883,0.121655000000032,
0.201448127685547,3.98036026000977,-3.22331369506836,5.12577802137668,0.124667000000045,
0.266091572509766,4.01627328491211,-3.28316873657226,5.19427114972495,0.12759200000005,
0.340311823974609,4.08331093139648,-3.34781218139648,5.29122733417358,0.130596000000082,
0.397772663818359,4.1096471496582,-3.38133100463867,5.33674265350183,0.1335610000001,
0.491146528564453,4.09528193969727,-3.31908176147461,5.29422919956106,0.136568000000011,
0.541424763427734,4.13358916625977,-3.42921503784179,5.39807520748212,0.139551000000097,
0.603674006591797,4.13598336791992,-3.40048461791992,5.38832778908771,0.142471999999998,
0.697047871337891,4.18147319946289,-3.43400344116211,5.45554520526375,0.145485000000008,
0.742537702880859,4.2245688293457,-3.47709907104492,5.52164486217109,0.148430000000076,
0.795210139404297,4.22935723266602,-3.48667587768554,5.53865781966624,0.151476000000002,
0.819152156005859,4.23653983764648,-3.38851360961914,5.48646557751244,0.15441700000008,
0.876612995849609,4.28681807250977,-3.44358024780273,5.56807906322691,0.157459000000017,
0.926891230712891,4.27724126586914,-3.44358024780273,5.56885671597712,0.160427000000027,
0.969986860595703,4.28681807250977,-3.34062957641601,5.52064214230103,0.163364999999999,
0.984352070556641,4.22696303100586,-3.23049630004883,5.41038555085759,0.166378000000009,
1.00350568383789,4.21738622436523,-3.23767890502929,5.41072406568957,0.169346000000019,
1.00111148217773,4.17189639282227,-3.20894848510742,5.35763885422158,0.172356000000036,
0.989140473876953,4.14556017456055,-3.08923840209961,5.26378779425719,0.175312000000076,
0.967592658935547,4.12161815795898,-3.02459495727539,5.20309008659459,0.178238000000079,
0.974775263916016,4.06176311645508,-2.90009647094726,5.08514168633856,0.181253000000083,
0.958015852294922,4.01866748657227,-2.77080958129883,4.97442142130105,0.184199000000035,
0.888584004150391,4.00909067993164,-2.79235739624023,4.96584831027733,0.187223000000017,
0.855065180908203,4.03782109985352,-2.58406185180664,4.86954939927569,0.190179000000057,
0.816757954345703,4.0497921081543,-2.52899521362304,4.8439370831777,0.193121000000019,
0.759297114501953,4.08331093139648,-2.39731412231445,4.79552658960424,0.196136000000024,
0.675500056396484,4.18865580444336,-2.36140109741211,4.8556516470138,0.199104000000034,
0.632404426513672,4.26766445922852,-2.16986496459961,4.8292037914995,0.202125000000024,
0.637192829833984,4.32512529907227,-2.18183597290039,4.88601389352394,0.205095000000028,
0.620433418212891,4.46398899536133,-2.11479832641601,4.97840409554652,0.208020000000033,
0.668317451416016,4.51187302856445,-2.1100099230957,5.02551373665588,0.211041000000023,
0.716201484619141,4.67467874145508,-2.08367370483398,5.16790692743196,0.213994000000071,
0.788027534423828,4.71298596801758,-2.05015488159179,5.19964990823953,0.217018000000053,
0.792815937744141,4.82790764770508,-2.01424185668945,5.29097529980533,0.219969000000106,
0.862247785888672,4.9524061340332,-2.02142446166992,5.41811356607788,0.222900000000095,
0.910131819091797,5.10084663696289,-1.95438681518555,5.53774359873316,0.225908000000004,
0.938862239013672,5.11760604858398,-1.84664774047851,5.52100188822315,0.228862000000049,
0.955621650634766,5.20858571166992,-1.91129118530273,5.62988559830392,0.231874000000062,
-0.210354557861328,1.61249481811523,0.703177027587893,1.77167900890338,14.7893600000001,
0.0051235915527344,1.65559044799805,0.813310303955081,1.84458115386997,14.7934,
0.110468464599609,1.70347448120117,0.825281312255862,1.89607959593825,14.7963410000001,
0.230178547607422,1.70586868286133,0.861194337158206,1.92474045348953,14.7992710000001,
0.483963923583984,1.63404263305664,0.980904420166018,1.96633920966824,14.802322,
0.680288459716797,1.5598223815918,0.968933411865237,1.95823139775854,14.805292,
0.756902912841797,1.49996734008789,0.79415669067383,1.85835650243454,14.808311,
0.828728962646485,1.47841952514648,0.739090052490237,1.848991641829,14.81124,
0.881401399169922,1.45208330688477,0.581072742919924,1.79528824681625,14.8141790000001,
0.864641987548828,1.45208330688477,0.516429298095705,1.76715899587372,14.817213,
0.790421736083984,1.50954414672852,0.485304676513675,1.77172534012538,14.8201290000001,
0.713807282958984,1.54785137329102,0.5714959362793,1.79776870486387,14.8231930000001,
0.637192829833984,1.63164843139648,0.559524927978519,1.83884731587476,14.8261550000001,
0.639587031494141,1.66995565795898,0.559524927978519,1.87373733896565,14.8290820000001,
0.541424763427734,1.72981069946289,0.631350977783205,1.91937226393862,14.8320930000001,
0.500723335205078,1.72262809448242,0.595437952880863,1.89016342310658,14.835015,
0.481569721923828,1.77530053100586,0.511640894775393,1.90928724336336,14.8380340000001,
0.416926277099609,1.72981069946289,0.463756861572268,1.8387884606903,14.8409730000001,
0.371436445556641,1.78248313598633,0.425449635009768,1.86981778660204,14.843882,
0.302004597412109,1.85670338745117,0.499669886474612,1.94633610696618,14.846939,
0.467204511962891,1.83754977416992,0.420661231689456,1.94211871429038,14.849918,
0.505511738525391,1.82318456420898,0.451785853271486,1.94516182621732,14.852973,
0.488752326904297,2.00035548706055,0.480516273193361,2.11452046584355,14.8558710000001,
0.639587031494141,2.09372935180664,0.576284339599612,2.26381929701553,14.8588590000001,
0.788027534423828,2.14161338500977,0.554736524658205,2.34845223448401,14.8618,
0.773662324462891,2.29244808959961,0.636139381103519,2.50170840586848,14.8647580000001,
0.962804255615234,2.39061035766602,0.600226356201174,2.64618245695367,14.867786,
1.01308249047852,2.5558102722168,0.734301649169925,2.84564600610419,14.8707810000001,
1.17109980004883,2.64439573364258,0.727119044189456,2.98211429060062,14.8738440000001,
1.34108811791992,2.75692321166992,0.818098707275393,3.17307869897928,14.876886,
1.56614307397461,2.85508547973633,0.925837781982425,3.38548265736305,14.8798670000001,
1.72176618188477,2.87663329467773,1.00724063842774,3.50057589559644,14.8829480000001,
1.94921533959961,2.97479556274414,0.973721815185549,3.68740874512453,14.8859000000001,
2.11202105249023,3.02267959594727,1.03597105834961,3.83020376738052,14.889035,
2.35862382348633,3.06338102416992,1.1077971081543,4.02176877415854,14.8919920000001,
2.5190353347168,3.07774623413086,1.16046954467774,4.14303638209744,14.8949120000001,
2.89731919702148,3.30998379516602,1.53875340698242,4.6602803886881,14.897957,
2.52382373803711,3.13520707397461,1.16046954467774,4.18878254645722,14.9009450000001,
2.78479171899414,3.27646497192383,1.22990139282227,4.47246521132231,14.9040240000001,
2.66987003930664,3.3818098449707,1.18201735961914,4.46788640105912,14.9069480000001,
2.6938120559082,3.39617505493164,1.23708399780274,4.50788256434392,14.909853,
2.6722642409668,3.44405908813477,1.34003466918946,4.56050787640403,14.912863,
2.56452516625977,3.48954891967773,1.31848685424805,4.52682544130306,14.9158180000001,
2.57410197290039,3.56137496948242,1.46453315551758,4.63187327155611,14.918859,
2.59086138452148,3.60207639770508,1.56987802856445,4.70659474708393,14.9218920000001,
2.59086138452148,3.58052858276367,1.68958811157227,4.73153840019909,14.924845,
2.61480340112305,3.50151992797852,1.7590199597168,4.71083748936826,14.927901,
2.66747583764648,3.54461555786133,1.83324021118164,4.80005171527909,14.9308480000001,
2.6555048293457,3.58531698608398,2.07744878051758,4.92158482859482,14.933924,
2.62677440942383,3.57574017944336,2.18997625854492,4.94791447398598,14.9368870000001,
2.68902365258789,3.53743295288086,2.30729213989258,5.00678311085218,14.939843,
2.74648449243164,3.47997211303711,2.40784860961914,5.04491009845847,14.9429180000001,
2.81352213891602,3.32674320678711,2.59459633911133,5.07100161240407,14.9458900000001,
2.8254931472168,3.20224472045898,2.66402818725586,5.0333715298168,14.9489460000001,
2.84464676049805,3.00831438598633,2.68557600219727,4.93500649447619,14.9518670000001,
2.8638003737793,2.82156665649414,2.72867163208008,4.85883112009633,14.954909,
2.84225255883789,2.64439573364258,2.87471793334961,4.83065540073492,14.9578700000001,
2.76803230737305,2.41934077758789,2.96090919311524,4.72040209120313,14.9608350000001,
2.82070474389648,2.20625682983398,3.0614656628418,4.7113179107537,14.963918,
2.72493667749023,1.95007725219727,3.14047431762696,4.59245687247504,14.9668670000001,
2.66508163598633,1.70586868286133,3.19793515747071,4.49882622036302,14.969869,
2.52621793969727,1.45447750854492,3.24103078735352,4.35907816703081,14.9728270000001,
2.35862382348633,1.17196171264648,3.25060759399414,4.18366470056564,14.9757800000001,
2.18624130395508,0.89423432006836,3.16920473754883,3.95261492265681,14.9788430000001,
1.9659747512207,0.640448944091797,3.09737868774414,3.72410879375418,14.9817680000001,
1.71697777856445,0.379480963134766,2.99921641967774,3.47668198510165,14.984856,
1.46558660424805,0.166397015380859,2.77416146362305,3.14191086562464,14.98787,
1.19264761499023,-0.0514753356933594,2.70233541381836,2.95426382242742,14.9909220000001,
0.898160810791016,-0.252588275146484,2.43418482788086,2.60686582989375,14.9940280000001,
0.651558039794922,-0.379480963134766,2.37911818969727,2.49574378515734,14.9970390000001,
0.388195857177734,-0.501585247802734,2.23546609008789,2.3237023097368,15.00012,
0.134410481201172,-0.650025750732422,2.03435315063477,2.13990476320083,15.003097,
-0.0786734665527344,-0.709880792236328,1.96731550415039,2.09295259057534,15.0060860000001,
-0.277392204345703,-0.803254656982422,1.74704895141602,1.94276723197596,15.009185,
-0.500052958740234,-0.870292303466797,1.64649248168946,1.92831510580566,15.012246,
-0.610186235107422,-0.927753143310547,1.44537954223633,1.82268350449344,15.015353,
-0.811299174560547,-1.00915599975586,1.20356517456055,1.76781540662504,15.018372,
-0.885519426025391,-1.0450690246582,1.0694898815918,1.73784997252226,15.0213620000001,
-0.861577409423828,-1.18393272094727,0.918655177001956,1.72856577959636,15.02444,
-0.844817997802734,-1.20069213256836,0.892318958740237,1.71802566067863,15.027469,
-0.844817997802734,-1.22463414916992,0.873165345458986,1.72506926505433,15.0306350000001,
-0.770597746337891,-1.2916717956543,0.727119044189456,1.670610373119,15.0335710000001,
-0.665252873291016,-1.23181675415039,0.672052406005863,1.55292895447468,15.0365330000001,
-0.634128251708984,-1.1767501159668,0.727119044189456,1.52169694074292,15.039608,
-0.526389177001953,-1.10971246948242,0.590649549560549,1.36286984741231,15.042624,
-0.406679093994141,-0.961271966552735,0.554736524658205,1.18201704343124,15.045699,
-0.332458842529297,-0.812831463623047,0.523611903076175,1.02244476392349,15.048624,
-0.217537162841797,-0.681150372314453,0.537977113037112,0.894822675770525,15.0516120000001,
-0.0906444748535156,-0.489614239501953,0.576284339599612,0.76160499237617,15.054655,
0.0314598098144531,-0.276530291748047,0.5331887097168,0.601455669236967,15.057628,
0.196659724365234,-0.00119710083007815,0.549948121337893,0.584054292340092,15.060742,
0.280456782470703,0.266953485107422,0.480516273193361,0.617102956441188,15.0637810000001,
0.381013252197266,0.429759197998047,0.473333668212893,0.744250514328163,15.066822,
0.414532075439453,0.666785162353516,0.427843836669924,0.894141847180516,15.0698560000001,
0.527059553466797,0.798466253662109,0.446997449951175,1.05600513796131,15.072802,
0.634798628173828,1.00436759643555,0.437420643310549,1.26612021004931,15.0758510000001,
0.761691316162109,1.11210667114258,0.435026441650393,1.41640492587805,15.0788180000001,
0.840699970947266,1.25575877075195,0.401507618408205,1.56362236461078,15.081892,
0.996323078857422,1.39701666870117,0.420661231689456,1.76671195216972,15.0848820000001,
1.11842736352539,1.46884271850586,0.475727869873049,1.9064877931327,15.087838,
1.16391719506836,1.62686002807617,0.425449635009768,2.04508781715059,15.0908910000001,
1.28602147973633,1.70826288452148,0.406296021728519,2.17648565036604,15.0938630000001,
1.36263593286133,1.7896657409668,0.478122071533205,2.29962624467593,15.096932,
1.44882719262695,1.8279729675293,0.511640894775393,2.38796185256794,15.099871,
1.52544164575195,1.89740481567383,0.451785853271486,2.47613160117812,15.102875,
1.51586483911133,1.92852943725586,0.4565742565918,2.49510161167812,15.105946,
1.57811408227539,1.93810624389648,0.396719215087893,2.53062956691144,15.108913,
1.52065324243164,1.96204826049805,0.442209046630861,2.52142192049713,15.1119560000001,
1.59008509057617,1.91416422729492,0.406296021728519,2.52140273292479,15.114915,
1.54220105737305,1.87346279907227,0.351229383544924,2.45185828316719,15.117868,
1.5445952590332,1.82079036254883,0.332075770263675,2.41066927963476,15.120928,
1.42727937768555,1.73220490112305,0.288980140380861,2.26300016857615,15.123867,
1.36263593286133,1.62925422973633,0.140539637451175,2.12861396695913,15.1269460000001,
1.24053164819336,1.54545717163086,0.025617957763675,1.98192152197673,15.129934,
1.21898383325195,1.49517893676758,-0.127610948486327,1.93333033723072,15.13292,
1.11363896020508,1.40180507202148,-0.237744224853513,1.80603751624461,15.135975,
1.03702450708008,1.3898340637207,-0.386184727783201,1.77656893953938,15.138948,
0.955621650634766,1.32758482055664,-0.474770189208982,1.70326184936311,15.1419870000001,
0.898160810791016,1.2749123840332,-0.582509263916013,1.66475567923644,15.144976,
0.847882575927735,1.29885440063477,-0.656729515380857,1.6844053173101,15.1480150000001,
0.788027534423828,1.26054717407227,-0.876996068115233,1.72600367223284,15.1510450000001,
0.776056526123047,1.26772977905273,-0.910514891357419,1.7431121282978,15.1540500000001,
0.732960896240234,1.30364280395508,-0.953610521240233,1.77372186713171,15.1571590000001,
0.685076863037109,1.31561381225586,-1.02064816772461,1.80052567144897,15.160163,
0.699442072998047,1.35631524047852,-1.14035825073242,1.90505306620251,15.163217,
0.668317451416016,1.37546885375977,-1.06853220092773,1.86556260896006,15.1662210000001,
0.665923249755859,1.42335288696289,-1.15711766235351,1.95148879062152,15.169247,
0.677894258056641,1.4664485168457,-1.26006833374023,2.04884945356168,15.1723390000001,
0.649163838134766,1.48799633178711,-1.28161614868164,2.06835362661111,15.175284,
0.661134846435547,1.61249481811523,-1.31274077026367,2.18186322979519,15.178351,
0.694653669677734,1.60531221313477,-1.25288572875976,2.15157934359072,15.1813500000001,
0.747326106201172,1.66756145629883,-1.32471177856445,2.25701546645358,15.18435,
0.766479719482422,1.69150347290039,-1.43245085327148,2.34533379420716,15.187394,
0.816757954345703,1.68910927124023,-1.43484505493164,2.36198306891444,15.1903390000001,
0.835911567626953,1.74417590942383,-1.48991169311523,2.44146157151582,15.193383,
0.912526020751953,1.72262809448242,-1.42287404663086,2.41344605140144,15.196359,
0.910131819091797,1.75854111938477,-1.54258412963867,2.51005430094718,15.199296,
0.934073835693359,1.7729063293457,-1.59046816284179,2.55837443705458,15.2024190000001,
0.946044843994141,1.81839616088867,-1.55934354125976,2.57548397868267,15.205461,
0.924497029052734,1.87585700073242,-1.62877538940429,2.65074395463864,15.2085340000001,
0.900555012451172,1.82318456420898,-1.71736085083008,2.66164039223646,15.2115100000001,
0.879007197509766,1.92852943725586,-1.81791732055664,2.79225765788478,15.2144920000001,
0.871824592529297,1.90698162231445,-1.83228253051758,2.78458548075361,15.2175530000001,
0.840699970947266,1.96204826049805,-1.86580135375976,2.83507045933005,15.220508,
0.857459382568359,1.98359607543945,-1.82749412719726,2.83012804802076,15.223594,
0.852670979248047,1.98359607543945,-1.92086799194336,2.88988495131262,15.2265990000001,
0.924497029052734,1.94528884887695,-1.97114622680664,2.91963369444634,15.2295620000001,
0.907737617431641,1.86867439575195,-2.05733748657226,2.92379361670671,15.232602,
0.931679634033203,1.87825120239258,-2.13634614135742,2.99329740511265,15.235589,
0.991534675537109,1.81600195922852,-2.19620118286133,3.01733388346662,15.238647,
1.04181291040039,1.75614691772461,-2.2632388293457,3.04822507954526,15.241612,
1.04420711206055,1.72981069946289,-2.42365034057617,3.15542303379897,15.244686,
1.07772593530273,1.64601364135742,-2.38294891235351,3.0901941068557,15.2476760000001,
1.1016679519043,1.64840784301758,-2.50265899536133,3.19283929132643,15.2506390000001,
1.19743601831055,1.5981296081543,-2.61039807006836,3.28664712840053,15.25369,
1.21898383325195,1.60052380981445,-2.62955168334961,3.31091227714045,15.2566740000001,
1.30517509301758,1.55024557495117,-2.72771395141601,3.39811223576248,15.259722,
1.31954030297852,1.5430629699707,-2.81869361450195,3.47379671726967,15.262688,
1.38657794946289,1.52630355834961,-2.9527689074707,3.60153372649669,15.265656,
1.34348231958008,1.49996734008789,-3.0078355456543,3.61965764044835,15.268761,
1.38418374780273,1.54545717163086,-3.1227572253418,3.74913526102365,15.2717970000001,
1.4081257644043,1.56461078491211,-3.21373688842773,3.84173526738681,15.274884,
1.45361559594727,1.57658179321289,-3.34781218139648,3.97573324726121,15.2778810000001,
1.51107643579102,1.61728322143555,-3.36457159301758,4.02731908565495,15.2808510000001,
1.54698946069336,1.71065708618164,-3.44597444946289,4.14659667249551,15.283891,
1.56614307397461,1.79445414428711,-3.44358024780273,4.18701740230023,15.2869030000001,
1.66191114038086,1.86149179077148,-3.46512806274414,4.27015372285924,15.2900400000001,
1.66669954370117,2.02669170532227,-3.39330201293945,4.28950640382022,15.293049,
1.74091979516602,2.06260473022461,-3.39569621459961,4.33772898971247,15.296048,
1.77922702172852,2.19189161987305,-3.44358024780273,4.45289597803225,15.2991820000001,
1.83189945825195,2.29484229125977,-3.28077453491211,4.40291248105455,15.302173,
1.83668786157227,2.36666834106445,-3.28077453491211,4.44274947373487,15.3052710000001,
1.88696609643555,2.41455237426758,-3.20416008178711,4.43366056965307,15.3082870000001,
1.90851391137695,2.46961901245117,-3.17303546020508,4.45079739465846,15.3113370000001,
1.90851391137695,2.58932909545898,-3.06529638549805,4.4433199800889,15.3144130000001,
1.93485012963867,2.66354934692383,-2.95755731079101,4.42552656689286,15.3173840000001,
1.88696609643555,2.75213480834961,-2.87136605102539,4.40223012249563,15.3205,
1.81992844995117,2.77368262329102,-2.85221243774414,4.37499378830537,15.3235500000001,
1.83908206323242,2.81198984985352,-2.76602117797851,4.35205502125238,15.3265080000001,
1.81514004663086,2.85747968139648,-2.77559798461914,4.37765550160113,15.329558,
1.7911980300293,2.81198984985352,-2.69658932983398,4.28803816590227,15.3325100000001,
1.76486181176758,2.78086522827148,-2.71813714477539,4.27038852685006,15.335593,
1.73134298852539,2.74974060668945,-2.75165596801758,4.25796107477742,15.3385500000001,
1.69542996362305,2.74016380004883,-2.74686756469726,4.23417782227374,15.341674,
1.71218937524414,2.69946237182617,-2.70616613647461,4.1883200345492,15.344692,
1.62839231713867,2.65876094360352,-2.70856033813476,4.13000852288036,15.3477190000001,
1.64994013208008,2.60130010375977,-2.81151100952148,4.17057056359553,15.350802,
1.61163290551758,2.56299287719727,-2.82108781616211,4.13821574802586,15.3538090000001,
1.62360391381836,2.51989724731445,-2.78996319458008,4.09510273779556,15.356853,
1.61163290551758,2.44567699584961,-2.80432840454101,4.05499129354066,15.3598470000001,
1.63318072045898,2.45764800415039,-2.71334874145508,4.00868736255887,15.3628490000001,
1.62360391381836,2.44328279418945,-2.75405016967773,4.02374363229698,15.365934,
1.6212097121582,2.39539876098633,-2.69419512817383,3.95283993397235,15.3688890000001,
1.65712273706055,2.38821615600586,-2.59842706176758,3.89890438056854,15.3719500000001,
1.67148794702148,2.35948573608398,-2.57927344848633,3.87475114270432,15.374944,
1.67867055200195,2.31160170288086,-2.5313894152832,3.81698436291375,15.3778950000001,
1.7528908034668,2.28047708129883,-2.52899521362304,3.83001549314568,15.3809600000001,
1.78640962670898,2.19907422485352,-2.47632277709961,3.76289267681075,15.3839850000001,
1.80556323999023,2.12724817504883,-2.51702420532226,3.75774590173827,15.387061,
1.86062987817383,2.0961235534668,-2.43801555053711,3.71478092484768,15.3900080000001,
1.91809071801758,2.06739313354492,-2.35900689575195,3.67669687428528,15.392958,
1.98512836450195,2.03626851196289,-2.22732580444336,3.61221598406034,15.396017,
2.03540659936523,2.05542212524414,-2.16747076293945,3.61463271244535,15.399002,
2.03780080102539,2.04345111694336,-2.05254908325195,3.5413672940201,15.4020380000001,
1.99470517114258,2.1176713684082,-1.98551143676758,3.52216359783211,15.4049990000001,
1.92527332299805,2.13921918334961,-1.80594631225586,3.39770189472376,15.408002,
1.90372550805664,2.16555540161133,-1.79397530395508,3.39590170627394,15.4111160000001,
1.82711105493164,2.18949741821289,-1.72933185913086,3.33508956857523,15.414113,
1.75049660180664,2.25174666137695,-1.64314059936523,3.29158205263688,15.4171650000001,
1.6379691237793,2.34033212280273,-1.48033488647461,3.21737294567951,15.42015,
1.57811408227539,2.35709153442383,-1.35583640014648,3.14398105946753,15.4231030000001,
1.50868223413086,2.37624514770508,-1.22415530883789,3.06940047985433,15.426195,
1.47516341088867,2.44567699584961,-1.13796404907226,3.07447641621035,15.4292180000001,
1.39854895776367,2.40736976928711,-1.03022497436523,2.96862457901722,15.4323710000001,
1.33869391625977,2.46483060913086,-0.987129344482419,2.97353588777361,15.4353430000001,
1.30038668969727,2.47680161743164,-0.908120689697263,2.94112818182242,15.438444,
1.26207946313477,2.55341607055664,-0.81474682495117,2.96253111197359,15.441459,
1.22856063989258,2.6156653137207,-0.704613548583982,2.97448256544613,15.444467,
1.15673459008789,2.71143338012695,-0.675883128662107,3.02435511975405,15.447578,
1.08969694360352,2.77607682495117,-0.532231029052731,3.02940783573562,15.450635,
1.02744770043945,2.84790287475586,-0.474770189208982,3.0645727750769,15.45366,
1.0250534987793,2.95803615112305,-0.453222374267575,3.16324565395217,15.456664,
0.977169465576172,2.99155497436523,-0.347877501220701,3.16627226955601,15.4596620000001,
0.984352070556641,3.13281287231445,-0.165918175048827,3.28800765396917,15.4627300000001,
0.986746272216797,3.23815774536133,-0.0629675036621062,3.38574935517896,15.4657060000001,
1.00111148217773,3.30280119018555,0.0615309826660173,3.45173955614658,15.4687600000001,
1.02265929711914,3.41293446655274,0.212365687255861,3.56918098393616,15.471706,
0.993928877197266,3.4368764831543,0.310527955322268,3.5911616761742,15.474689,
1.10645635522461,3.48715471801758,0.435026441650393,3.68425592193922,15.477705,
1.09448534692383,3.52067354125977,0.549948121337893,3.72766458991694,15.4807040000001,
1.14715778344727,3.53025034790039,0.614591566162112,3.76249402553307,15.483821,
1.1782824050293,3.4967315246582,0.684023414306644,3.75278147683286,15.48679,
1.24053164819336,3.43927068481445,0.758243665771486,3.73395702576717,15.4898010000001,
1.17109980004883,3.3985692565918,0.861194337158206,3.69640412020638,15.492836,
1.21898383325195,3.37702144165039,0.933020386962893,3.70954477605871,15.4958310000001,
1.20222442163086,3.25731135864258,0.887530555419925,3.58373148183728,15.4988880000001,
1.20461862329102,3.2453403503418,0.949779798583988,3.58962695595718,15.501874,
1.23334904321289,3.11844766235352,0.937808790283206,3.48214747136946,15.5048730000001,
1.25968526147461,2.96521875610352,0.935414588623049,3.35474733506612,15.50797,
1.26447366479492,2.91015211791992,1.02639425170899,3.33487093578372,15.5109190000001,
