X,Y,Z,Magnitude,Seconds,
-0.206284415039062,-0.0995509050292969,-0.0597592734374981,0.236716736505761,0.0,
-0.235014834960937,-0.0923683000488281,0.0168551796875018,0.25307700920456,0.00396100000034494,
-0.213467020019531,-0.0540610734863282,-0.0429998618164049,0.224365229968333,0.00791000000026543,
-0.208678616699219,-0.0803972917480469,-0.0382114584960931,0.226871340517745,0.0118039999997563,
-0.227832229980469,-0.0995509050292969,0.0264319863281255,0.250033113029605,0.0157130000006873,
-0.208678616699219,-0.0803972917480469,-0.0597592734374981,0.231477127055132,0.0195440000006784,
-0.208678616699219,-0.104339308349609,-0.0501824667968744,0.238645629141189,0.023323999999775,
-0.227832229980469,-0.0420900651855469,-0.0190578452148422,0.232469998213597,0.0272100000001956,
-0.196707608398437,-0.0947625017089844,9.57680664068761e-05,0.218343362856536,0.0310499999995955,
-0.1823423984375,-0.0157538469238281,0.0240377846679696,0.184593469691057,0.0349280000009458,
-0.156006180175781,-0.0923683000488281,-0.105249104980468,0.209635887209557,0.0389279999999417,
-0.213467020019531,-0.0708204851074219,-0.0142694418945304,0.225360437341719,0.0428499999998166,
-0.237409036621094,-0.0899740983886719,-0.102854903320312,0.273929772363723,0.0469000000011874,
-0.23980323828125,-0.118704518310547,-0.0860954916992185,0.281085021743321,0.0508310000004712,
-0.199101810058594,-0.0588494768066407,-0.0238462485351558,0.208981901748032,0.0547550000010233,
-0.1823423984375,-0.111521913330078,0.033614591308595,0.216369656305096,0.0585960000007617,
-0.172765591796875,-0.0612436784667969,0.00248996972656279,0.183316496285272,0.0626080000001821,
-0.230226431640625,-0.0875798967285156,-0.0956722983398421,0.264249194523996,0.066530000000057,
-0.132064163574219,-0.106733510009766,-0.0669418784179676,0.182521781017194,0.070584000000963,
-0.16318878515625,-0.0277248552246094,-0.00708683691406087,0.165678817159722,0.0745360000000801,
-0.196707608398437,-0.130675526611328,0.0072783730468764,0.236268811253602,0.0785240000004706,
-0.223043826660156,-0.101945106689453,0.00248996972656279,0.245249981321852,0.082470999999714,
-0.223043826660156,-0.0995509050292969,0.0407971962890645,0.247635503368169,0.0863449999997101,
-0.218255423339844,-0.0636378801269531,-0.040605660156249,0.230941614355299,0.0902220000007219,
-0.220649625,-0.0803972917480469,0.0192493813476577,0.235627927494448,0.0942840000006981,
-0.208678616699219,-0.101945106689453,0.0527682045898441,0.238168119741201,0.0982469999999012,
-0.251774246582031,-0.0684262834472657,0.0192493813476577,0.261616066384736,0.102184999999736,
-0.208678616699219,-0.0588494768066407,0.00967257470703231,0.21703360267336,0.1061150000005,
-0.191919205078125,-0.106733510009766,-0.107643306640623,0.244565134271734,0.110152000001108,
-0.199101810058594,-0.0564552751464844,-0.0621534750976558,0.216082815899804,0.114188000001377,
-0.215861221679687,-0.116310316650391,-0.0286346518554677,0.246868588668638,0.118147000001045,
-0.165582986816406,-0.0612436784667969,0.00248996972656279,0.176563624862047,0.122088000000076,
-0.203890213378906,-0.106733510009766,0.00248996972656279,0.230150953115428,0.1259710000013,
-0.225438028320312,-0.0756088884277344,-0.0358172568359372,0.240461815075656,0.129904000001261,
-0.1823423984375,-0.0780030900878906,-0.0932780966796862,0.219166684629267,0.133882000000085,
-0.194313406738281,-0.0899740983886719,-0.0573650717773422,0.221683986519349,0.137770999999702,
-0.199101810058594,-0.0947625017089844,-0.0166636435546863,0.221131498243175,0.141783000000942,
-0.189525003417969,-0.0780030900878906,-0.0142694418945304,0.20544543303715,0.145833000000493,
-0.206284415039062,-0.0971567033691406,-0.0525766684570304,0.234002117434026,0.149715999999898,
-0.206284415039062,-0.0827914934082031,-0.078912886718749,0.235870589432118,0.153560000000653,
-0.199101810058594,-0.0684262834472657,-0.0118752402343745,0.210866565310003,0.157412000000477,
-0.232620633300781,-0.0947625017089844,0.0192493813476577,0.251918299156035,0.161264000000301,
-0.184736600097656,-0.0780030900878906,-0.0549708701171863,0.207927607691575,0.165178000001106,
-0.208678616699219,-0.0827914934082031,-0.0453940634765608,0.229045448431472,0.169074000001274,
-0.237409036621094,-0.0899740983886719,-0.0956722983398421,0.271314536506686,0.173017000000982,
-0.206284415039062,-0.0468784685058594,0.0120667763671882,0.21188784247653,0.177166000001307,
-0.206284415039062,-0.101945106689453,-0.0142694418945304,0.230542147205047,0.181107000000338,
-0.191919205078125,-0.0923683000488281,-0.0190578452148422,0.213841262613095,0.185099000000264,
-0.191919205078125,-0.0923683000488281,-0.078912886718749,0.227139005505474,0.189056999999593,
-0.206284415039062,-0.121098719970703,-0.0286346518554677,0.240910985954221,0.192930999999589,
-0.218255423339844,-0.0660320817871094,-0.0693360800781235,0.238334130252035,0.196926000000531,
-0.20149601171875,-0.0492726701660157,0.0527682045898441,0.21403953415079,0.200996999999916,
-0.215861221679687,-0.0851856950683594,0.0144609780273441,0.23251191271596,0.204955999999584,
-0.225438028320312,-0.0947625017089844,-0.0693360800781235,0.254184437650489,0.208956000000398,
-0.211072818359375,-0.0995509050292969,-0.00469263525390495,0.233418375814647,0.212902000001122,
-0.177553995117187,-0.118704518310547,-0.0166636435546863,0.214228524865226,0.216846000001169,
-0.223043826660156,-0.0971567033691406,-0.0214520468749981,0.244229735978017,0.220844000001307,
-0.1823423984375,-0.111521913330078,0.0072783730468764,0.213866458648735,0.224750000001222,
-0.191919205078125,-0.0732146867675781,-0.0429998618164049,0.209862716442259,0.228533999999854,
-0.20149601171875,-0.0540610734863282,0.0144609780273441,0.209122840193423,0.232448000000659,
-0.237409036621094,-0.0588494768066407,0.0312203896484391,0.246578637192218,0.236315000000104,
-0.187130801757812,-0.0756088884277344,-0.0334230551757795,0.204576982070521,0.240171000001283,
-0.206284415039062,-0.0923683000488281,-0.0453940634765608,0.230533693287624,0.244254000001092,
-0.232620633300781,-0.0827914934082031,-0.0477882651367167,0.251496538152703,0.248085999999603,
-0.203890213378906,-0.0612436784667969,-0.0477882651367167,0.21818736340269,0.252065000000584,
-0.199101810058594,-0.0851856950683594,0.0144609780273441,0.217042054216217,0.255989999999656,
-0.213467020019531,-0.0923683000488281,-0.0621534750976558,0.240755323838631,0.259898000000248,
-0.232620633300781,-0.0875798967285156,-0.0645476767578117,0.256805373625757,0.26373600000079,
-0.20149601171875,-0.0803972917480469,-0.0573650717773422,0.224399462385726,0.267670999999609,
-0.191919205078125,-0.0827914934082031,-0.0860954916992185,0.226052751254016,0.271759999999631,
-0.184736600097656,-0.109127711669922,-0.0765186850585931,0.227797230082043,0.275669000000562,
-0.189525003417969,-0.101945106689453,-0.0837012900390608,0.230907855329151,0.279629000000568,
-0.211072818359375,-0.113916114990234,-0.00708683691406087,0.239955910871319,0.283580000001166,
-0.177553995117187,-0.0684262834472657,-0.0118752402343745,0.190653084892702,0.287464000000909,
-0.0362960971679686,-0.0396958635253906,0.071921817871095,0.0898104455870029,0.291328000001158,
0.0546835659179689,-0.0468784685058594,0.0575566079101577,0.0921989495877439,0.295282000000952,
-0.0386902988281249,-0.0612436784667969,0.0934696328125018,0.118255230893428,0.29917899999964,
-0.175159793457031,-0.116310316650391,0.00488417138672048,0.210316186094553,0.30301800000052,
-0.347542312988281,-0.121098719970703,-0.0837012900390608,0.377434054173693,0.306860000000597,
-0.50795382421875,-0.176165358154297,-0.153133138183593,0.559017959427101,0.310747999999876,
-0.589356680664062,-0.176165358154297,-0.174680953125,0.639444263279961,0.314268000000084,
-0.572597269042969,-0.185742164794922,-0.148344734863279,0.619978987272816,0.317275000001246,
-0.402608951171875,-0.130675526611328,-0.102854903320312,0.435602102790948,0.320272000000841,
-0.189525003417969,-0.0516668718261719,0.0312203896484391,0.19890677538657,0.323399000000791,
-0.0482671054687498,0.00100556469726559,-0.0238462485351558,0.0538457816350755,0.326429000000644,
0.0786255825195314,-0.00138863696289065,0.0479798012695323,0.0921193349358003,0.32950400000118,
0.112144405761719,0.0129765729980469,0.071921817871095,0.13385629262872,0.332499000000098,
0.0331357509765626,-0.0205422502441406,0.0862870278320322,0.0946858659460829,0.33553000000029,
-0.0722091220703124,-0.0899740983886719,0.0312203896484391,0.119516561282611,0.338615000000573,
-0.27811046484375,-0.111521913330078,0.0431913979492204,0.302734313656738,0.341566000000967,
-0.491194412597656,-0.161800148193359,-0.0693360800781235,0.521784180407139,0.344617000000653,
-0.630058108886719,-0.197713173095703,-0.141162129882812,0.675270661514723,0.347614000000249,
-0.69948995703125,-0.178559559814453,-0.179469356445312,0.743894459108014,0.350538000000597,
-0.383455337890625,-0.209684181396484,-0.253689607910156,0.505335402724107,0.353650000000926,
0.119327010742188,-0.159405946533203,-0.201017171386718,0.282943624199468,0.356692000001203,
0.437755831542969,-0.137858131591797,-0.133979524902342,0.478106207436083,0.359762000000046,
0.672387594238281,-0.247991407958984,0.00488417138672048,0.716678917254553,0.362783000000491,
0.861529525390625,-0.293481239501953,0.390350638671876,0.990322160799677,0.365775000000212,
0.473668856445313,-0.133069728271484,0.747086686035157,0.894543601284728,0.368875000000116,
-0.68033634375,0.151840269287109,0.782999710937501,1.04833275029091,0.371828999999707,
-0.83356525,0.238031529052734,-0.241718599609374,0.899954396749003,0.374918000001344,
-0.826382645019531,0.348164805419922,-0.902518257812499,1.27226813738594,0.377905000001192,
-1.09692743261719,0.64983421459961,-1.02941094580078,1.63866445443443,0.380956000000879,
-1.06580281103516,1.15501076489258,-0.538599605468749,1.6613473550222,0.383950000001278,
-0.543866849121094,0.846158750732422,-0.0142694418945304,1.00597186739289,0.386986000001343,
-0.914968106445312,0.300280772216797,0.790182315917971,1.24568184957666,0.3900450000001,
-0.591750882324219,-0.149829139892578,0.883556180664064,1.07391312604051,0.393047999999908,
-0.208678616699219,-0.324605861083984,0.287399967285157,0.48115950714195,0.396119000000908,
0.0905965908203126,-0.444315944091797,-0.318333052734374,0.554040010202904,0.399100000000544,
0.205518270507813,-1.25834450854492,-1.5154338828125,1.98045664301793,0.402043000000049,
0.729848434082031,-3.10187978686524,-1.92963077001953,3.72529352635484,0.405171000000337,
1.14883372460938,-3.86802431811524,-1.41008900976562,4.27431656148588,0.408166000001074,
0.806462887207032,-1.83295290698242,0.131776859375002,2.00685422697423,0.411218999999619,
0.483245663085938,-0.0181480485839844,1.05593870019531,1.16140529580717,0.414187000000311,
0.6987238125,0.822216734130859,1.17325458154297,1.59398294757219,0.417208000000755,
1.17277574121094,0.992205052001953,1.03199668359375,1.85064609240653,0.420307000000321,
1.80005657617188,0.716871861083984,0.668078031250001,2.04949681592153,0.423333000000639,
2.27889690820313,0.0560722028808593,0.395139041992188,2.31357949348195,0.426427000000331,
1.41698431054688,0.273944553955078,0.823701139160157,1.66173816277757,0.42941299999984,
1.31882204248047,0.0369185895996094,0.440628873535157,1.39097389126584,0.432439000000159,
1.24939019433594,0.00100556469726559,0.411898453613283,1.3155368504729,0.435555000000022,
1.16080473291016,-0.168982753173828,0.170084085937502,1.18530645619857,0.43855799999983,
1.07221927148438,-0.327000062744141,0.294582572265627,1.15903498612414,0.441661000000749,
0.878288937011719,-0.394037709228516,0.366408622070313,1.03000604439911,0.444715999999971,
0.552677511230469,-0.374884095947266,0.486118705078127,0.826015685226945,0.447743000000628,
0.152845833984375,-0.372489894287109,0.646530216308594,0.761650767026752,0.450850000001083,
-0.251774246582031,-0.276721827880859,0.692020047851564,0.786674639159134,0.453857000000426,
-0.83356525,-0.185742164794922,0.689625846191408,1.09768619628994,0.457050000000891,
-1.04425499609375,-0.0468784685058594,0.385562235351564,1.11414735336288,0.460027000000991,
-1.41535625341797,0.0560722028808593,0.150930472656251,1.42448496783978,0.463028000000122,
-1.65717062109375,0.187753294189453,0.00967257470703231,1.66780074517213,0.466110000001208,
-1.91813860205078,0.352953208740234,-0.186651961425779,1.9592525663991,0.469150000000809,
-2.14798196142578,0.465480686767578,-0.306362044433593,2.21908911011561,0.472206000000369,
-2.35148910253906,0.580402366455078,-0.430860530761718,2.46008306837694,0.47518300000047,
-2.52147742041016,0.774332700927734,-0.471561958984374,2.6795167837738,0.478225000000748,
-2.59809187353516,0.901225388916016,-0.500292378906249,2.79509947038525,0.481227000000217,
-2.62442809179687,1.03769488354492,-0.337486666015623,2.84224044199048,0.484194000000571,
-2.53823683203125,1.04487748852539,-0.313544649414061,2.76273875505509,0.487366999999722,
-2.46880498388672,1.05206009350586,-0.136373726562498,2.68708509022472,0.490359999999782,
-2.22220221289063,0.913196397216797,-0.105249104980468,2.40482592071961,0.49346400000104,
-1.84631255224609,0.587584971435547,0.0623450112304695,1.93855952698485,0.496463000001313,
-1.39620264013672,0.261973545654297,0.105440641113283,1.42447522960064,0.499442000000272,
-0.888631888183594,-0.259962416259766,0.182055094238283,0.943605398406805,0.502486999999746,
-0.31641769140625,-0.714860731689453,0.402321646972657,0.879209149616423,0.505527000001166,
0.176787850585938,-1.1170866105957,0.565127359863283,1.26432012265606,0.508649000001242,
0.581407931152344,-1.34932417163086,0.850037357421876,1.69743171042812,0.511642000001302,
0.636474569335938,-1.38284299487305,1.24747483300781,1.96813314713936,0.514595000000554,
0.696329610839844,-1.43312122973633,1.78138180322266,2.38998588173783,0.517697999999655,
0.519158687988281,-1.5169182878418,2.3919032265625,2.87954299855771,0.520684000000983,
0.112144405761719,-1.47621685961914,2.96172322167969,3.31113228763276,0.523753999999826,
-0.282898868164062,-1.44509223803711,3.56027363671875,3.85277454756415,0.526780000000144,
-0.50795382421875,-1.29665173510742,4.10615161523438,4.33587406378315,0.529781999999614,
-0.752162393554688,-1.30144013842773,4.36472539453125,4.61631048239335,0.532811000000947,
-0.689913150390625,-1.32777635668945,4.62808757714844,4.86396595693485,0.535777000000962,
-0.673153738769531,-1.31101694506836,4.7454034584961,4.96897930868931,0.538824000001114,
-0.543866849121094,-1.14342282885742,5.13805253076172,5.29176631418963,0.541822999999567,
-0.325994498046875,-0.791475184814453,5.31043505029297,5.37897999664565,0.544767999999749,
-0.0410845004882811,-0.650217286865234,5.43972193994141,5.47859883913749,0.547897000000376,
0.320439950195313,-0.499382582275391,5.19790757226563,5.23166396617535,0.550992000000406,
0.576619527832031,-0.350942079345703,4.91299757470703,4.95915270908347,0.554073999999673,
0.67957019921875,-0.101945106689453,4.93933379296875,4.98690553136985,0.557087999999567,
0.75618465234375,0.0895910261230469,4.84835412988281,4.90778764303772,0.560083000000304,
0.772944063964844,0.314645982177734,4.73822085351563,4.81115178276569,0.563161000000036,
0.669993392578125,0.489422703369141,4.38866741113281,4.46641101716028,0.566183000000819,
0.693935409179688,0.637863206298828,4.06545018701172,4.17328420373413,0.569317999999839,
0.722665829101563,0.783909507568359,3.60336926660156,3.75779590825471,0.572364999999991,
0.842375912109375,0.791092112548828,3.2346622109375,3.43488915784864,0.575515000000451,
0.629291964355469,0.745602281005859,2.86356095361328,3.02521279795358,0.578575000001365,
0.385083395019532,0.891648582275391,2.87553196191406,3.03512940076413,0.581607000000076,
0.231854488769531,0.996993455322266,2.86116675195313,3.03875429023145,0.584711000001334,
-0.0147482822265624,0.925167405517578,2.29613516015625,2.47555830344723,0.587826000000859,
-0.211072818359375,0.834187742431641,2.15008885888672,2.31588061552882,0.590919000000213,
-0.0889685336914061,0.585190769775391,2.04953238916016,2.13329478770142,0.59393799999998,
0.114538607421875,0.498999510009766,2.10459902734375,2.16597707039488,0.596972000001188,
0.0498951625976564,0.508576316650391,1.63772970361328,1.71560426066316,0.600108000000546,
0.126509615722656,0.307463377197266,1.45337617578125,1.49091942086632,0.603140999999596,
-0.0674207187499999,0.142263462646484,1.07269811181641,1.08418895272707,0.606208999999581,
-0.220649625,0.0871968244628907,0.912286600585938,0.942632688175888,0.609195000000909,
-0.290081473144531,0.233243125732422,1.11818794335938,1.17851342522578,0.612210000001141,
-0.132064163574219,-0.00617704028320315,1.0128430703125,1.02143535488413,0.6152519999996,
0.0522893642578126,-0.197713173095703,0.993689457031252,1.0145163445924,0.618329000000813,
0.0307415493164064,-0.310240651123047,1.01044886865234,1.05745033955474,0.62150500000098,
0.0570777675781252,-0.379672499267578,0.787788114257813,0.876367041380307,0.624539000000368,
-0.172765591796875,-0.350942079345703,0.80933592919922,0.89890652409312,0.627553000000262,
-0.184736600097656,-0.470652162353516,0.814124332519533,0.958352491593807,0.63063400000101,
-0.266139456542969,-0.544872413818359,0.754269291015627,0.967800765156986,0.633655999999974,
-0.330782901367187,-0.564026027099609,0.747086686035157,0.992814788132035,0.636736000000383,
-0.421762564453125,-0.475440565673828,0.936228617187501,1.13157033184117,0.639811000000918,
-0.519924832519531,-0.269539222900391,1.09185172509766,1.23899693855592,0.642814000000726,
-0.476829202636719,-0.157011744873047,1.26662844628906,1.36248537513762,0.645924000000377,
-0.43133937109375,-0.0325132585449219,1.36239651269531,1.42941772160594,0.648919999999634,
-0.376272732910156,0.0800142194824218,1.48689499902344,1.53585161489383,0.652023000000554,
-0.270927859863281,0.161417075927734,1.50126020898438,1.53402724641089,0.654999000000316,
-0.223043826660156,0.211695310791016,1.31211827783203,1.34767126119206,0.658005999999659,
-0.103333743652344,0.264367747314453,1.26902264794922,1.30037942516997,0.661130000000412,
-0.0674207187499999,0.336193797119141,0.98171844873047,1.03987640376918,0.664119000000937,
-0.0410845004882811,0.384077830322266,0.696808451171876,0.796709315591313,0.667192000000796,
-0.1057279453125,0.482240098388672,0.411898453613283,0.642957422387309,0.67020600000069,
-0.285293069824219,0.645045811279297,0.033614591308595,0.706120510315015,0.673265999999785,
-0.563020462402344,0.886860178955078,-0.0238462485351558,1.0507529022892,0.676276000000144,
-0.728220376953125,1.10233832836914,-0.0884896933593744,1.32411673708637,0.679288000001179,
-0.984399954589844,1.54526563549805,0.344860807128908,1.86435461517955,0.682402000000366,
-1.10650423925781,1.79186840649414,0.775817105957033,2.24433424417641,0.685389000000214,
-1.02988978613281,2.10311462231445,1.35042550439453,2.70322273020423,0.6884710000013,
-1.07059121435547,2.30183336010742,1.92263970117188,3.18451657029459,0.691490000001068,
-0.974823147949219,2.5053405012207,2.49245969628906,3.66597415900055,0.694445000000997,
-0.869478274902344,2.61068537426758,2.80610011376953,3.93012320957488,0.697546000001239,
-0.790469620117188,2.61786797924805,3.04552027978516,4.09307570803218,0.70057000000088,
-0.675547940429687,2.58913755932617,3.24902742089844,4.20905898066091,0.703733000000284,
-0.531895840820312,2.45027386303711,3.33521868066406,4.17258179514977,0.706752000000051,
-0.531895840820312,2.26831453686523,3.43098674707031,4.14726826745127,0.709799000000203,
-0.515136429199219,2.06959579907227,3.39507372216797,4.0093787412991,0.712913999999728,
-0.560626260742187,1.88763647290039,3.28733464746094,3.83197629721985,0.715976999999839,
-0.574991470703125,1.64342790356445,3.32085347070313,3.74960507780174,0.719140000001062,
-0.553443655761719,1.35851790600586,3.29451725244141,3.60634367575742,0.722225000001345,
-0.522319034179688,1.06403110180664,3.30888246240234,3.5147805776566,0.725247000000309,
-0.467252395996094,0.690535642822266,3.38310271386719,3.48432895234471,0.728347000000213,
-0.517530630859375,0.376895225341797,3.38070851220703,3.44079613015247,0.731370999999854,
-0.62287550390625,-0.195318971435547,3.42859254541016,3.49018197754948,0.734526000000187,
-0.821594241699219,-0.549660817138672,3.39507372216797,3.5360528405054,0.73748599999999,
-0.977217349609375,-1.03328955249023,3.53872582177735,3.81381980295042,0.740439000001061,
-1.13523465917969,-1.48339946459961,3.65364750146485,4.10345851300309,0.743508999999904,
-1.216637515625,-2.0747672746582,3.75659817285156,4.46059367356975,0.746456000000762,
-1.35310701025391,-2.59430903491211,3.73983876123047,4.74844520973199,0.749531999999817,
-1.57576776464844,-2.8792190324707,3.64407069482422,4.90430397854001,0.752581000000646,
-1.85110095556641,-3.0324479387207,3.55309103173828,5.02461651557304,0.755546000000322,
-2.06657910498047,-3.01568852709961,3.54351422509766,5.09132787719388,0.758642000000691,
-2.42810355566406,-2.87682483081055,3.43098674707031,5.0934740642089,0.761596000000281,
-2.67710052832031,-2.69007710131836,3.25381582421875,4.99906986025467,0.764674000000014,
-2.85187724951172,-2.49135836352539,3.25381582421875,4.9927334957643,0.767640000000029,
-2.92849170263672,-2.23996718920898,3.01200145654297,4.76084755430815,0.770699000000604,
-2.95722212255859,-1.9598455949707,3.01439565820313,4.6553988682464,0.773698000000877,
-2.92370329931641,-1.66057038745117,2.83243633203125,4.39638835513015,0.776657000000341,
-2.89976128271484,-1.27270971850586,2.57865095605469,4.08385189220582,0.779708000000028,
-3.06256699560547,-0.609515858642578,2.87313776025391,4.24331789687098,0.782729000000472,
-2.78483960302734,-0.367701490966797,2.75103347558594,3.93175802724979,0.785745000001043,
-2.62921649511719,-0.171376954833984,2.7151204506836,3.78338849453301,0.788794000000053,
-2.44486296728516,0.0967736311035157,2.81328271875,3.72844199634334,0.791791999999987,
-2.36106590917969,0.223666319091797,2.85637834863281,3.71262119267842,0.794893000000229,
-2.28205725439453,0.417596653564453,3.0215782631836,3.80947601094252,0.79785400000037,
-2.23656742285156,0.539700938232422,3.3112766640625,4.03212897681296,0.800936999999976,
-2.15516456640625,0.661805222900391,3.60576346826172,4.25255813016143,0.803917000001093,
-2.17671238134766,0.685747239501953,3.87391405419922,4.49616905453064,0.806894000001193,
-2.12882834814453,0.697718247802734,4.14206464013672,4.70907850563692,0.809951000001092,
-2.01630087011719,0.537306736572266,4.21628489160156,4.70438370194746,0.812960999999632,
-1.93250381201172,0.343376402099609,4.34317757958985,4.76609586819344,0.816101000000344,
-1.85349515722656,0.199724302490234,4.46288766259766,4.83660008516664,0.819075000001249,
-1.78645751074219,0.0488895979003906,4.40542682275391,4.75411465165804,0.822054000000207,
-1.7912459140625,-0.0540610734863282,4.26177472314453,4.62322488260584,0.825127000000066,
-1.75054448583984,-0.121098719970703,4.15882405175781,4.51385515832776,0.828105000000505,
-1.73378507421875,-0.183347963134766,4.08939220361328,4.44553211147355,0.831227000000581,
-1.71223725927734,-0.145040736572266,3.85476044091797,4.22042311909471,0.834256000000096,
-1.70744885595703,-0.197713173095703,3.51478380517578,3.91256658622579,0.837249000000156,
-1.75772709082031,-0.240808802978516,3.35916069726563,3.79888852106108,0.840378000000783,
-2.00911826513672,0.223666319091797,3.09340431298828,3.69536643233341,0.843376000000717,
-1.72899667089844,-0.231231996337891,2.72948566064453,3.2392884551661,0.846487000000707,
-1.75772709082031,-0.614304261962891,2.63611179589844,3.22739208224602,0.849503000001278,
-1.95884003027344,-0.657399891845703,2.33683658837891,3.11930026172325,0.85260500000004,
-2.03306028173828,-0.892031654541016,2.04474398583985,3.01828304661991,0.855661999999938,
-2.03306028173828,-1.11948081225586,1.86039045800781,2.9744955966411,0.858609000000797,
-2.01390666845703,-1.29425753344727,1.86996726464844,3.03771298891081,0.861708000000363,
-1.94686902197266,-1.43072702807617,1.92982230615235,3.09216638473864,0.864698000001226,
-1.99954145849609,-1.42593862475586,1.98728314599609,3.15923429143447,0.867744000001039,
-2.20304859960937,-1.22961408862305,2.05432079248047,3.25355311276744,0.870695999999953,
-2.45683397558594,-0.954280897705078,2.16445406884766,3.41050533374006,0.873644999999669,
-2.83511783789063,-0.506565187255859,2.18360768212891,3.61422798853608,0.876736000000164,
-3.08411481054687,-0.238414601318359,2.32965398339844,3.87245314614917,0.879700999999841,
-3.21579590185547,-0.250385609619141,2.37274961328125,4.00424486803955,0.882793000000675,
-3.21340170019531,-0.279116029541016,2.33683658837891,3.98304675914698,0.885820000001331,
-3.14636405371094,-0.358124684326172,2.24106852197266,3.87946493323303,0.888844000000972,
-3.06017279394531,-0.324605861083984,2.24825112695313,3.81112314465161,0.891924000001382,
-3.12002783544922,-0.195318971435547,2.276981546875,3.86747568310259,0.894917999999961,
-3.15594086035156,-0.0157538469238281,2.33923079003906,3.92838536638098,0.89796700000079,
-3.22776691015625,0.0273417829589844,2.37274961328125,4.00614122650729,0.900963000000047,
-3.22297850683594,0.0584664045410156,2.29134675683594,3.95490565450668,0.903975999999602,
-3.17988287695313,0.0919852277832032,2.26022213525391,3.90239932528204,0.907062000000224,
-3.89096077001953,0.544489341552734,1.99925415429688,4.40829462835333,0.91001099999994,
-3.5533783359375,0.266761948974609,1.87475566796875,4.02645853701633,0.913107000000309,
-3.03623077734375,-0.0085712419433594,1.78377600488281,3.52145248939604,0.916078000000198,
-2.61485128515625,-0.0995509050292969,1.78856440820313,3.16959307616395,0.919009999999616,
-2.46641078222656,0.0249475812988281,1.77659339990235,3.03975141040722,0.922147999999652,
-2.07376170996094,0.125504051025391,1.83644844140625,2.77286526439121,0.925121000000217,
-1.89419658544922,0.211695310791016,1.95855272607422,2.73289670308835,0.928195000000414,
-1.61646919287109,0.319434385498047,2.11657003564453,2.6823272906057,0.931147999999666,
-1.39859684179687,0.319434385498047,2.31050037011719,2.71965501724656,0.934106000000611,
-1.19748390234375,0.364924217041016,2.35120179833985,2.66369804540078,0.937179000000469,
-1.17354188574219,0.410414048583984,2.59301616601563,2.87565176717989,0.940110999999888,
-1.18790709570313,0.448721275146484,2.79652330712891,3.07132164680063,0.943202000000383,
-1.19748390234375,0.451115476806641,2.92581019677734,3.19340542013588,0.946235000001252,
-1.3315591953125,0.489422703369141,3.00242464990234,3.32071351542641,0.949195999999574,
-1.46084608496094,0.448721275146484,3.14128834619141,3.49329565605786,0.952305000000706,
-1.38423163183594,0.364924217041016,3.20353758935547,3.50883456167025,0.955275000000256,
-1.50633591650391,0.396048838623047,3.26578683251953,3.61818548603886,0.958314000001337,
-1.58534457128906,0.393654636962891,3.31845926904297,3.69870968085024,0.961330000000089,
-1.49436490820313,0.281127158935547,3.29930565576172,3.63284692335108,0.964410000000498,
-1.50154751318359,0.376895225341797,3.39507372216797,3.73138319181892,0.96745700000065,
-1.64041120947266,0.568431358154297,3.4046505288086,3.82174153605569,0.970472000000882,
-1.77209230078125,0.850947154052735,3.44774615869141,3.96880029180734,0.973563999999897,
-1.76730389746094,1.04008908520508,3.42859254541016,3.99504633434776,0.976561000001311,
-1.48718230322266,1.17177017651367,3.37592010888672,3.87060630020301,0.979608999999982,
-1.31958818701172,0.815034129150391,3.17959557275391,3.53771418026627,0.982670000001235,
-1.64280541113281,0.944321018798828,3.0981927163086,3.63171445914738,0.985684999999648,
-1.57337356298828,1.61230328198242,3.349583890625,4.03667418577921,0.9887630000012,
-1.36028961523438,2.11987403393555,3.30169985742188,4.15276723469644,0.991737000000285,
-1.34831860693359,2.29465075512695,3.2131143959961,4.17222833454323,0.994819999999891,
-1.23818533056641,2.06720159741211,3.06706809472656,3.90042716312748,0.997853000000759,
-1.28846356542969,1.93791470776367,2.98087683496094,3.78170311886236,1.00081200000022,
-1.25255054052734,1.77510899487305,2.87792616357422,3.60587767446978,1.00387600000067,
-1.26212734716797,1.60751487866211,2.76061028222656,3.434827310932,1.00690300000133,
-1.16396507910156,1.36570051098633,2.59541036767578,3.15533002516617,1.00994100000025,
-1.30043457373047,1.32021067944336,2.40866263818359,3.03903636425289,1.01297400000112,
-1.41296205175781,1.27711504956055,2.21233810205078,2.91923354449543,1.01601300000038,
-1.46563448828125,1.12867454663086,2.0854454140625,2.7876644813331,1.01910800000041,
-1.63562280615234,1.12149194165039,1.91785129785156,2.75883303950481,1.02211499999976,
-1.82237053564453,1.10233832836914,1.76222818994141,2.76435025870478,1.02520000000004,
-1.91574440039063,1.11670353833008,1.50126020898438,2.67785093222658,1.02819799999997,
-1.96123423193359,0.882071775634766,1.40309794091797,2.56771769509186,1.03116600000067,
-2.08812691992188,0.609132786376953,1.22592701806641,2.49684077160859,1.03425200000129,
-2.27726885107422,0.436750266845703,1.10861113671875,2.57016008608793,1.03725000000122,
