X,Y,Z,Magnitude,Seconds,
1.26207946313477,3.83910236206055,3.55227700317383,5.38054118327544,0.0,
1.27883887475586,3.64517202758789,3.70790011108399,5.35455238204583,0.00294100000007802,
1.16391719506836,3.50151992797852,3.70550590942383,5.22935168905108,0.00605200000006789,
0.986746272216797,3.2668881652832,3.79169716918946,5.10129335688907,0.0090940000000046,
0.826334760986328,3.0538042175293,3.74141893432618,4.89966988462983,0.0121940000000222,
0.668317451416016,2.82156665649414,3.73423632934571,4.72783328558781,0.0151830000000928,
0.481569721923828,2.59172329711914,3.74141893432618,4.5768061667541,0.0181049999999914,
0.321158210693359,2.36666834106445,3.68635229614258,4.39243154575779,0.0211209999999937,
0.141593086181641,2.1344307800293,3.66480448120118,4.24342258586428,0.0240840000000162,
0.00751779321289064,1.86149179077148,3.62170885131836,4.0720981334003,0.0271250000000691,
-0.157682121337891,1.66516725463867,3.51875817993164,3.89606272615654,0.0300480000000789,
-0.303728422607422,1.49278473510742,3.50918137329102,3.82557330745628,0.0330000000000155,
-0.423438505615234,1.32758482055664,3.31285683715821,3.59399527647379,0.0360320000000911,
-0.564696403564453,1.18632692260742,3.20272356079102,3.46174692927541,0.03899100000001,
-0.684406486572266,1.02830961303711,3.10934969604492,3.34572689133787,0.0419860000000654,
-0.727502116455078,0.927753143310547,2.92260196655274,3.15144212691065,0.0449270000000297,
-0.732290519775391,0.932541546630859,2.73346003540039,2.97954474822526,0.0478620000000092,
-0.780174552978516,0.882263311767578,2.65205717895508,2.90180429471967,0.050860000000057,
-0.794539762939453,0.846350286865234,2.58501953247071,2.83371279882486,0.0537830000000667,
-0.708348503173828,0.872686505126953,2.4485500378418,2.69420426582588,0.0567880000000969,
-0.677223881591797,0.944512554931641,2.31208054321289,2.58775048846008,0.0596980000000258,
-0.593426823486328,1.08577045288086,2.15406323364258,2.48415806375378,0.0626630000000432,
-0.404284892333984,1.19350952758789,2.17561104858399,2.51419862010408,0.065607,
-0.267815397705078,1.37786305541992,2.07744878051758,2.50719467182208,0.0685240000000249,
-0.0571256516113282,1.54066876831055,2.03914155395508,2.55636888394181,0.0715250000000651,
0.0841322463378906,1.6747440612793,1.92661407592774,2.55415107290603,0.0744950000000699,
0.251726362548828,1.7729063293457,1.8739416394043,2.5919529860955,0.0774969999999939,
0.376224848876953,1.8662801940918,1.6824055065918,2.54067612819545,0.080455000000029,
0.486358125244141,1.91895263061523,1.58184903686524,2.53400272295978,0.083389000000011,
0.551001570068359,1.93092363891602,1.38313029907227,2.43826131777425,0.0864100000000008,
0.589308796630859,1.96683666381836,1.23468979614258,2.39586940642124,0.0893590000000586,
0.567760981689453,1.92134683227539,1.04315366333008,2.25878191677342,0.0923810000000458,
0.637192829833984,1.80163674926758,0.808521900634767,2.07499815482071,0.095326,
0.613250813232422,1.75375271606445,0.650504591064456,1.96847183673773,0.0982480000000123,
0.625221821533203,1.63883103637695,0.377565601806642,1.79421996298705,0.10126200000002,
0.606068208251953,1.49996734008789,0.16208745239258,1.62588223331433,0.104213000000072,
0.627616023193359,1.38743986206055,-0.0869095202636689,1.5252686675193,0.107209000000012,
0.577337788330078,1.28927759399414,-0.25210943481445,1.43496160343462,0.110167000000047,
0.615645014892578,1.17435591430664,-0.479558592529294,1.41000249698281,0.113097000000039,
0.663529048095703,1.03309801635742,-0.709401951904294,1.41803153647373,0.116102000000069,
0.572549385009766,0.946906756591797,-0.903332286376951,1.42844475691756,0.119066000000089,
0.577337788330078,0.887051715087891,-1.03501337768554,1.4803487288684,0.122095000000058,
0.627616023193359,0.870292303466797,-1.10923362915039,1.54327891519347,0.125045999999998,
0.694653669677734,0.872686505126953,-1.21457850219726,1.64903802109811,0.127992000000063,
0.716201484619141,0.956483563232422,-1.3438653918457,1.79827127116713,0.131007000000068,
0.768873921142578,0.992396588134766,-1.37977841674804,1.86542396630858,0.133965999999987,
0.797604341064453,1.09295305786133,-1.56652614624023,2.06995730352767,0.136968000000024,
0.79999854272461,1.18153851928711,-1.71975505249023,2.2346338361097,0.139954999999986,
0.852670979248047,1.26772977905273,-1.77003328735351,2.33820538659212,0.142877999999996,
0.931679634033203,1.3682862487793,-1.92565639526367,2.53936739202712,0.145908000000077,
0.943650642333984,1.50954414672852,-2.01424185668945,2.68819090150596,0.148875000000089,
1.01547669213867,1.61249481811523,-2.08367370483398,2.82365517706075,0.151899000000071,
1.02984190209961,1.77530053100586,-2.19380698120117,3.0041729959303,0.154854,
1.03223610375977,1.9428946472168,-2.28718084594726,3.17357010418186,0.157888000000071,
1.07533173364258,2.06260473022461,-2.30872866088867,3.27733193926591,0.16083900000001,
1.32911710961914,2.77607682495117,-2.27520983764648,3.82749717628069,0.163825000000088,
1.1998302199707,2.91494052124023,-2.24647941772461,3.87080619165873,0.166877999999997,
1.14715778344727,2.87902749633789,-2.31351706420898,3.86744508832115,0.169873000000052,
1.2932040847168,2.95085354614258,-2.48111118041992,4.06642670475138,0.17288700000006,
1.24053164819336,3.05141001586914,-2.42125613891601,4.08809284940476,0.175861000000054,
1.31235769799805,3.17351430053711,-2.37576630737304,4.1758521633862,0.178801000000021,
1.41291416772461,3.27407077026367,-2.35182429077148,4.27164410370465,0.181836000000089,
1.48713441918945,3.34589682006836,-2.34224748413086,4.34657538623211,0.184793000000013,
1.49910542749023,3.38420404663086,-2.26084462768554,4.3372309763832,0.187824000000091,
1.48952862084961,3.41293446655274,-2.1866243762207,4.31834960928319,0.190772000000038,
1.52544164575195,3.40335765991211,-2.25126782104492,4.35637720795034,0.193721000000096,
1.59008509057617,3.43448228149414,-2.15071135131836,4.3531136504644,0.196742000000086,
1.62360391381836,3.3818098449707,-2.07888530151367,4.28887999288353,0.199721000000068,
1.6379691237793,3.37941564331055,-2.16268235961914,4.33365756945726,0.202738000000068,
1.64515172875977,3.36505043334961,-2.16507656127929,4.32638938906666,0.205707000000075,
1.69542996362305,3.36744463500977,-2.09085630981445,4.31113050599234,0.208644000000049,
1.72655458520508,3.33632001342773,-2.04297227661133,4.27618494580082,0.211687000000097,
1.79359223168945,3.33632001342773,-1.90410858032226,4.23953226326113,0.214650000000006,
1.84865886987305,3.28843598022461,-1.83467673217773,4.19492425733653,0.217680000000087,
1.86302407983398,3.19985051879883,-1.77482169067383,4.1060801378425,0.220646999999985,
1.89893710473633,3.12084186401367,-1.67187101928711,4.01755756312922,0.223613,
1.94921533959961,3.04901581420898,-1.52582471801758,3.92735011751439,0.226634999999987,
1.95879214624023,3.0154969909668,-1.45639286987304,3.87958360731139,0.229601000000002,
2.0425892043457,2.93648833618164,-1.37020161010742,3.83048128289141,0.23262299999999,
-3.49041083227539,2.29484229125977,-0.637575902099607,4.22560906269829,14.743553,
-3.27493268286133,2.60369430541992,-1.08529161254883,4.32229869370666,14.747866,
-3.25099066625977,2.73298119506836,-1.24330892211914,4.42537496722328,14.7507750000001,
-3.15761680151367,2.86945068969727,-1.38696102172851,4.48641861640215,14.75368,
-3.13367478491211,2.93648833618164,-1.42526824829101,4.52485038268795,14.7566850000001,
-3.10255016333008,2.94606514282227,-1.46118127319336,4.52108040791831,14.7596070000001,
-3.02832991186523,2.91254631958008,-1.52343051635742,4.46928950247869,14.762607,
-2.81045756079102,2.93169993286133,-1.49230589477539,4.32672082308622,14.765524,
-2.72187209936523,2.99634337768555,-1.32950018188476,4.26077834391025,14.7684280000001,
-0.543148588623047,4.53820924682617,0.025617957763675,4.57066842344331,14.771424,
-2.03234202124023,3.52546194458008,-0.982340941162107,4.1862023050331,14.7743400000001,
-2.06825504614258,3.13760127563477,-0.687854136962889,3.82038794031393,14.777336,
-1.97009277807617,3.06338102416992,-0.69982514526367,3.7088170738681,14.780243,
-1.72827841040039,2.90296951293945,-0.817141026611326,3.47590243164037,14.783143,
-1.45294521948242,2.77847102661133,-0.850659849853514,3.24878026906841,14.7861220000001,
-1.30211051489258,2.82156665649414,-0.874601866455075,3.22825937849486,14.78904,
-1.13212219702148,2.76650001831055,-0.826717833251951,3.10140055396232,14.7920300000001,
-0.998046904052735,2.72340438842773,-0.754891783447263,2.99714709187135,14.7949590000001,
-0.98847009741211,2.5773580871582,-0.781228001708982,2.86882642095542,14.797854,
-0.919038249267578,2.40736976928711,-0.711796153564451,2.67333392488171,14.800841,
-0.859183207763672,2.26850607299805,-0.651941112060545,2.51184052067938,14.803752,
-0.904673039306641,2.06739313354492,-0.639970103759763,2.34565756460386,14.8067470000001,
-0.847212199462891,1.90698162231445,-0.548990440673826,2.15771590407891,14.8096730000001,
-0.832846989501953,1.70586868286133,-0.548990440673826,1.97611046630515,14.812666,
-0.837635392822266,1.46405431518555,-0.513077415771482,1.7630475103345,14.8155870000001,
-0.852000602783203,1.37546885375977,-0.438857164306638,1.67642930225805,14.8185060000001,
-0.789751359619141,1.28927759399414,-0.29041666137695,1.53957324008991,14.8214760000001,
-0.758626738037109,1.03309801635742,-0.266474644775387,1.3091274862956,14.8244000000001,
-0.631734050048828,0.752976422119141,-0.37421371948242,1.05171160976159,14.8273730000001,
-0.557513798583984,0.650025750732422,-0.295205064697264,0.905815181176441,14.83033,
-0.430621110595703,0.391451971435547,-0.333512291259764,0.670745581612574,14.833245,
-0.270209599365234,0.168791217041016,-0.280839854736326,0.424705458579977,14.836234,
0.0338540114746094,-0.233434661865234,-0.407732542724608,0.471045286410695,14.8392130000001,
0.0123061965332031,-0.300472308349609,-0.400549937744138,0.500874538367533,14.842359,
0.0745554396972656,-0.496796844482422,-0.426886156005857,0.659240023409988,14.8454260000001,
0.0673728347167969,-0.343567938232422,-0.343089097900389,0.490191958458273,14.8484850000001,
0.136804682861328,-0.300472308349609,-0.383790526123045,0.506255170126227,14.8515530000001,
0.225390144287109,-0.398634576416016,-0.355060106201169,0.579463477426943,14.854546,
0.263697370849609,-0.159214410400391,-0.232955821533201,0.38620453992457,14.8575870000001,
0.287639387451172,-0.0897825622558594,-0.22098481323242,0.373673137083575,14.8605620000001,
0.345100227294922,0.0921767639160156,-0.141976158447264,0.384379958182627,14.863519,
0.460021906982422,0.185550628662109,-0.110851536865232,0.508268879556905,14.866534,
0.503117536865234,0.412999786376953,0.0232237561035173,0.651333572216499,14.8694830000001,
0.558184175048828,0.489614239501953,0.138145435791017,0.755232307457717,14.8724960000001,
0.658740644775391,0.659602557373047,0.183635267333987,0.950124561402865,14.8754200000001,
0.651558039794922,0.769735833740234,0.214759888916019,1.03108823233145,14.8783470000001,
0.711413081298828,0.89423432006836,0.241096107177738,1.16785740753205,14.8813640000001,
0.701836274658203,1.03788641967773,0.317710560302737,1.29256426405245,14.884308,
0.732960896240234,1.10492406616211,0.432632239990237,1.39472560831171,14.8873130000001,
0.761691316162109,1.23181675415039,0.504458289794924,1.53363109744984,14.890255,
0.720989887939453,1.29885440063477,0.528400306396486,1.57672320220105,14.8931650000001,
0.711413081298828,1.32758482055664,0.554736524658205,1.60509272000261,14.896148,
0.713807282958984,1.35392103881836,0.6098031628418,1.64756878884377,14.899072,
0.644375434814453,1.36110364379883,0.576284339599612,1.61242874888242,14.902068,
0.596491401611328,1.3132196105957,0.614591566162112,1.56782350124208,14.9050030000001,
0.567760981689453,1.26772977905273,0.554736524658205,1.49573524957324,14.907989,
0.515088545166016,1.19111532592773,0.581072742919924,1.42187111285997,14.910923,
0.476781318603516,1.12407767944336,0.583466944580081,1.35325708223149,14.913855,
0.397772663818359,1.02830961303711,0.4948814831543,1.20853276112594,14.916836,
0.292427790771484,0.968454571533203,0.4182670300293,1.09469885281231,14.9197740000001,
0.201448127685547,0.903811126708984,0.399113416748049,1.00833894119947,14.9227460000001,
0.124833674560547,0.901416925048828,0.351229383544924,0.975447589024711,14.9256700000001,
-0.0140300217285156,0.831985076904297,0.317710560302737,0.890694116871236,14.9285530000001,
-0.0690966599121094,0.808043060302735,0.284191737060549,0.859344447313131,14.931545,
-0.169653129638672,0.810437261962891,0.288980140380861,0.876983615302273,14.934467,
-0.217537162841797,0.757764825439453,0.250672913818361,0.827264684132431,14.937481,
-0.157682121337891,0.717063397216797,0.20039467895508,0.761052951095533,14.9404000000001,
-0.186412541259766,0.640448944091797,0.00167594116211234,0.667028705758605,14.943314,
-0.0738850632324219,0.559046087646484,0.00885854614258008,0.563976953892143,14.9462980000001,
-0.0906444748535156,0.566228692626953,0.0328005627441428,0.574375513137382,14.949246,
-0.0379720383300781,0.604535919189453,-0.0438138903808571,0.607309814078024,14.9522430000001,
-0.00924161840820314,0.628477935791016,-0.0294486804199199,0.629235367780144,14.955182,
-0.0714908615722656,0.657208355712891,-0.156341368408201,0.679320535228352,14.9580860000001,
-0.0547314499511719,0.628477935791016,-0.14437036010742,0.647165240311499,14.961082,
0.0170945998535156,0.729034405517578,-0.228167418212887,0.764096695782972,14.9640340000001,
0.0482192214355469,0.712274993896484,-0.307176072998045,0.777185885144981,14.9670620000001,
0.110468464599609,0.815225665283203,-0.340694896240231,0.890432018366129,14.970012,
0.182294514404297,0.858321295166016,-0.422097752685545,0.97371107035894,14.9729590000001,
0.232572749267578,1.01155020141602,-0.426886156005857,1.12229928444962,14.9759620000001,
0.330735017333984,1.04267482299805,-0.501106407470701,1.20318912470696,14.978973,
0.419320478759766,1.17196171264648,-0.510683214111326,1.34540747173177,14.982083,
0.591702998291016,1.27970078735352,-0.604057078857419,1.53382903149521,14.985135,
0.594097199951172,1.39701666870117,-0.62321069213867,1.64103583824812,14.9881250000001,
0.649163838134766,1.49757313842773,-0.582509263916013,1.73304819212569,14.9911430000001,
0.704230476318359,1.59573540649414,-0.656729515380857,1.86376117238421,14.994085,
0.747326106201172,1.64840784301758,-0.678277330322263,1.93282302934355,14.997119,
0.749720307861328,1.74657011108398,-0.759680186767575,2.04687607810508,15.000089,
0.79999854272461,1.84233817749023,-0.742920775146482,2.14152723698387,15.003109,
0.792815937744141,1.91895263061523,-0.704613548583982,2.1925821677954,15.00606,
0.833517365966797,1.98599027709961,-0.663912120361326,2.253816293238,15.009,
0.823940559326172,2.07218153686523,-0.618422288818357,2.31414357686277,15.01202,
0.845488374267578,2.09372935180664,-0.654335313720701,2.35089512578087,15.014997,
0.900555012451172,2.18470901489258,-0.479558592529294,2.41120908547403,15.018014,
0.955621650634766,2.2325930480957,-0.505894810791013,2.48064790269648,15.0209990000001,
0.946044843994141,2.27808287963867,-0.498712205810545,2.51662001851196,15.023959,
0.912526020751953,2.34512052612305,-0.441251365966794,2.55479877653028,15.0269880000001,
0.905343415771484,2.32117850952148,-0.453222374267575,2.5323757410941,15.029943,
0.907737617431641,2.30202489624023,-0.448433970947264,2.51483582591585,15.0329780000001,
0.910131819091797,2.29244808959961,-0.37421371948242,2.49473326820346,15.035921,
0.910131819091797,2.25414086303711,-0.314358677978513,2.45118590420177,15.038858,
0.864641987548828,2.20146842651367,-0.333512291259764,2.38857686666984,15.041873,
0.917314424072266,2.14879598999023,-0.29759926635742,2.35528242097325,15.0448280000001,
0.907737617431641,2.07457573852539,-0.280839854736326,2.2818245114353,15.0478280000001,
0.874218794189453,2.0961235534668,-0.307176072998045,2.29180051298861,15.050788,
0.847882575927735,1.96204826049805,-0.299993468017576,2.15836380620563,15.0537260000001,
0.831123164306641,1.94768305053711,-0.283234056396482,2.1364588716611,15.0567460000001,
0.838305769287109,1.9045874206543,-0.242532628173826,2.09500164235342,15.059691,
0.845488374267578,1.8279729675293,-0.295205064697264,2.03555441864432,15.062709,
0.845488374267578,1.81600195922852,-0.276051451416013,2.02210734402809,15.0656630000001,
0.871824592529297,1.81839616088867,-0.283234056396482,2.03638509343796,15.0686010000001,
0.807181147705078,1.82318456420898,-0.25210943481445,2.00975185719602,15.0716040000001,
0.831123164306641,1.72262809448242,-0.268868846435545,1.93145119605203,15.074567,
0.859853584228516,1.72023389282227,-0.338300694580076,1.95269050089317,15.0775930000001,
0.840699970947266,1.71065708618164,-0.276051451416013,1.925961710804,15.080548,
0.857459382568359,1.74417590942383,-0.323935484619138,1.97036047310242,15.083471,
0.859853584228516,1.72262809448242,-0.395761534423826,1.96555919024085,15.0864790000001,
0.898160810791016,1.7345991027832,-0.429280357666013,1.9999521281508,15.089423,
0.890978205810547,1.7513585144043,-0.462799180908201,2.01873274384083,15.092445,
0.907737617431641,1.79684834594727,-0.577720860595701,2.09437650703051,15.0953950000001,
0.912526020751953,1.80163674926758,-0.517865819091794,2.08489417511884,15.0984030000001,
0.946044843994141,1.88064540405273,-0.620816490478513,2.19482142724246,15.101353,
1.01068828881836,1.91655842895508,-0.663912120361326,2.26615673163089,15.10428,
1.02744770043945,1.98359607543945,-0.678277330322263,2.33460110178725,15.107303,
1.06096652368164,2.06499893188477,-0.797987413330075,2.45492453344121,15.1102540000001,
1.14476358178711,2.15358439331055,-0.831506236572263,2.5767832696514,15.1132690000001,
1.2165896315918,2.18949741821289,-0.759680186767575,2.61746122458859,15.1162380000001,
1.28123307641602,2.28526548461914,-0.826717833251951,2.74726389469792,15.119263,
1.34108811791992,2.34512052612305,-0.867419261474607,2.83734449745652,15.122389,
1.36263593286133,2.42652338256836,-0.886572874755856,2.92075399065528,15.125436,
1.42727937768555,2.5007436340332,-0.908120689697263,3.01919332474426,15.128502,
1.47276920922852,2.5558102722168,-0.932062706298826,3.09353457709682,15.1314550000001,
1.52783584741211,2.57975228881836,-0.944033714599607,3.14334279113841,15.134403,
1.60684450219727,2.66833775024414,-0.994311949462888,3.26965317066875,15.137423,
1.6595169387207,2.74495220336914,-0.953610521240233,3.34636102279806,15.1404210000001,
1.76725601342773,2.72819279174805,-0.886572874755856,3.36930871072915,15.1434410000001,
1.76725601342773,2.79283623657227,-0.876996068115233,3.41939324512364,15.1464010000001,
1.81992844995117,2.77607682495117,-0.862630858154295,3.42970466635433,15.149351,
1.81514004663086,2.81438405151367,-0.848265648193356,3.45471353200269,15.152377,
1.7744386184082,2.76650001831055,-0.790804808349607,3.38046254330965,15.155355,
1.74570819848633,2.71622178344727,-0.726161363525389,3.30948156317766,15.1583890000001,
1.72176618188477,2.70664497680664,-0.695036741943357,3.28229826313909,15.16138,
1.68585315698242,2.6922797668457,-0.580115062255857,3.22908728518299,15.1643320000001,
1.65233433374023,2.64918413696289,-0.635181700439452,3.18619540119023,15.1673530000001,
1.60205609887695,2.63960733032227,-0.517865819091794,3.13086179970044,15.1703240000001,
1.5829024855957,2.57975228881836,-0.525048424072263,3.07186881200832,15.17335,
1.52783584741211,2.46722481079102,-0.441251365966794,2.93533361163392,15.1763130000001,
1.52065324243164,2.37863934936523,-0.400549937744138,2.85144729754792,15.17925,
1.55896046899414,2.3475147277832,-0.244926829833982,2.82863435124054,15.1822840000001,
1.5062880324707,2.28526548461914,-0.264080443115231,2.74974188832188,15.18524,
1.47037500756836,2.23738145141602,-0.321541282958982,2.69652873499783,15.1882770000001,
1.46319240258789,2.15119019165039,-0.292810863037108,2.61806979455405,15.1912480000001,
1.44403878930664,2.09372935180664,-0.170706578369138,2.54913541412326,15.194258,
1.42009677270508,2.07457573852539,-0.264080443115231,2.52789988313649,15.197217,
1.42009677270508,1.99317288208008,-0.280839854736326,2.4633887240375,15.2001750000001,
1.3315113112793,1.97162506713867,-0.266474644775387,2.39400010729792,15.203197,
1.30756929467773,1.92852943725586,-0.21380220825195,2.33980226408127,15.206171,
1.28362727807617,1.9644424621582,-0.177889183349606,2.35337581735349,15.2091810000001,
1.27405047143555,1.9644424621582,-0.268868846435545,2.35680488107923,15.2121530000001,
1.23334904321289,2.03387431030273,-0.242532628173826,2.39094471877383,15.2150810000001,
1.20940702661133,2.03866271362305,-0.309570274658201,2.39053231956518,15.21812,
1.21180122827148,2.11288296508789,-0.299993468017576,2.45412565323214,15.221083,
1.25010845483398,2.15119019165039,-0.316752879638669,2.5081313315414,15.2241300000001,
1.2932040847168,2.18470901489258,-0.379002122802731,2.56689947087339,15.227082,
1.35545332788086,2.28526548461914,-0.338300694580076,2.67845840348664,15.230035,
1.3698185378418,2.34512052612305,-0.316752879638669,2.73428701774669,15.233066,
1.40573156274414,2.3642741394043,-0.326329686279294,2.76990333710369,15.236039,
1.42249097436523,2.44328279418945,-0.340694896240231,2.84766297107943,15.2390660000001,
1.4464329909668,2.52229144897461,-0.32872388793945,2.92612063070367,15.2420430000001,
1.42249097436523,2.55341607055664,-0.376607921142575,2.94707443540112,15.244987,
1.45840399926758,2.62284791870117,-0.364636912841794,3.02311652238572,15.248022,
1.47516341088867,2.66354934692383,-0.371819517822264,3.06738520015935,15.250982,
1.49671122583008,2.68509716186523,-0.395761534423826,3.09943840950454,15.2540180000001,
1.44164458764648,2.75213480834961,-0.510683214111326,3.14855243970861,15.257022,
1.50149962915039,2.80241304321289,-0.46998178588867,3.21386105489575,15.26007,
1.4847402175293,2.80241304321289,-0.455616575927731,3.20399108029014,15.263186,
1.48234601586914,2.84072026977539,-0.393367332763669,3.2282780580925,15.2662330000001,
1.50389383081055,2.79283623657227,-0.458010777587889,3.20490323895244,15.269258,
1.55177786401367,2.78325942993164,-0.477164390869138,3.22214733515706,15.2722220000001,
1.55896046899414,2.81198984985352,-0.486741197509764,3.25185510945966,15.275157,
1.5062880324707,2.71861598510742,-0.460404979248045,3.14193399933265,15.2781990000001,
1.51347063745117,2.71861598510742,-0.458010777587889,3.14503419970199,15.2811720000001,
1.49192282250977,2.61087691040039,-0.48195279418945,3.04545406227288,15.284206,
1.4679808059082,2.61087691040039,-0.419703551025389,3.02453251900523,15.2871650000001,
1.41530836938477,2.50553203735352,-0.489135399169919,2.91891109994404,15.290195,
1.40573156274414,2.41455237426758,-0.458010777587889,2.8312397049637,15.293168,
1.38178954614258,2.4025813659668,-0.400549937744138,2.80038922697303,15.2961210000001,
1.37221273950195,2.29723649291992,-0.400549937744138,2.70567987010313,15.299171,
1.42488517602539,2.29244808959961,-0.462799180908201,2.73857610633977,15.302169,
1.40094315942383,2.22780464477539,-0.450828172607419,2.67001897229884,15.3051840000001,
1.43206778100586,2.15119019165039,-0.455616575927731,2.62412344113382,15.3081570000001,
1.45600979760742,2.16076699829102,-0.395761534423826,2.63543274316797,15.31111,
1.45122139428711,2.1176713684082,-0.32872388793945,2.58817212609875,15.3141390000001,
1.46558660424805,2.09851775512695,-0.280839854736326,2.57499357031095,15.317081,
1.51825904077148,2.10330615844727,-0.218590611572264,2.60322668365897,15.320111,
1.48713441918945,2.10330615844727,-0.29041666137695,2.59225913328615,15.323071,
1.45122139428711,2.12724817504883,-0.173100780029294,2.58092855645637,15.326035,
1.51347063745117,2.08654674682617,-0.168312376708982,2.58313757923792,15.32906,
1.49910542749023,2.04823952026367,-0.180283385009764,2.54462262703357,15.332038,
1.47755761254883,2.06978733520508,-0.0821211169433571,2.54439383532195,15.335063,
1.44164458764648,2.06739313354492,-0.187465989990232,2.52736957786591,15.3380420000001,
1.34587652124023,2.0961235534668,-0.156341368408201,2.49590868929529,15.3409780000001,
1.28841568139648,2.08415254516602,-0.130005150146483,2.45369275555334,15.344022,
1.21898383325195,2.13682498168945,-0.141976158447264,2.46416310695319,15.346996,
1.17588820336914,2.11048876342773,-0.161129771728513,2.42132994255527,15.3500280000001,
1.18307080834961,2.16555540161133,-0.225773216552732,2.47795485841239,15.3529950000001,
1.15912879174805,2.23498724975586,-0.206619603271482,2.52615106889644,15.3559710000001,
1.15194618676758,2.29244808959961,-0.161129771728513,2.57065382034504,15.358997,
1.13758097680664,2.4025813659668,-0.187465989990232,2.66488858984503,15.361973,
1.18067660668945,2.44328279418945,-0.161129771728513,2.71838019145653,15.365004,
1.18067660668945,2.53186825561523,-0.223379014892576,2.80254389754563,15.367977,
1.16631139672852,2.56538707885742,-0.163523973388669,2.82280591404727,15.3709130000001,
1.21419542993164,2.65636674194336,-0.146764561767576,2.92439645847831,15.3739420000001,
1.28123307641602,2.64918413696289,-0.168312376708982,2.94755217829841,15.3768990000001,
1.31235769799805,2.71861598510742,-0.168312376708982,3.02348882222669,15.379936,
1.30996349633789,2.72340438842773,-0.0605733020019503,3.02268174797822,15.3828950000001,
1.31954030297852,2.72101018676758,-0.153947166748045,3.02799979818812,15.3859170000001,
1.34827072290039,2.77128842163086,-0.141976158447264,3.08513057870539,15.388873,
1.35066492456055,2.80959564819336,-0.0964863269042944,3.11888330273268,15.391821,
1.32193450463867,2.73776959838867,-0.118034141845701,3.0425031252337,15.394847,
1.31235769799805,2.73298119506836,-0.110851536865232,3.03376943806173,15.3978980000001,
1.33390551293945,2.6922797668457,-0.115639940185545,3.00683336022852,15.4010000000001,
1.35066492456055,2.59172329711914,-0.0342370837402317,2.92275513260541,15.4040690000001,
1.3315113112793,2.57256968383789,-0.027054478759764,2.89685503522138,15.407054,
1.34587652124023,2.48398422241211,-0.0916979235839825,2.82665345184153,15.4100940000001,
1.31235769799805,2.42891758422852,0.0447715710449241,2.76114611204171,15.4130620000001,
1.32672290795898,2.39061035766602,-0.0150834704589826,2.73412491809798,15.416103,
1.26207946313477,2.29723649291992,0.0735019909667987,2.62212559164233,15.4190900000001,
1.25250265649414,2.23498724975586,0.011252747802736,2.56204167324211,15.4220350000001,
1.20461862329102,2.18470901489258,0.0184353527832055,2.49487462000893,15.425058,
1.15673459008789,2.02908590698242,0.0160411511230496,2.33569729381824,15.428029,
1.12800417016602,1.98599027709961,0.0136469494628937,2.28401773808255,15.4310700000001,
1.09927375024414,1.9261352355957,0.0208295544433614,2.21784435750515,15.434062,
1.07293753198242,1.84473237915039,0.0160411511230496,2.1341250705504,15.436999,
1.11363896020508,1.82557876586914,0.0758961926269563,2.13978732497746,15.440067,
1.07533173364258,1.74178170776367,0.04716577270508,2.04752691435149,15.443034,
1.07533173364258,1.70826288452148,0.0399831677246123,2.01893513360725,15.4460670000001,
1.08251433862305,1.66995565795898,0.0423773693847682,1.99057404642723,15.449029,
1.07054333032227,1.7130512878418,0.121386024169924,2.02369521018796,15.451981,
1.07293753198242,1.69389767456055,0.0806845959472682,2.00673722331583,15.455004,
1.04899551538086,1.62925422973633,0.183635267333987,1.94642822827139,15.457974,
