X,Y,Z,Magnitude,Seconds,
0.0104387192382811,0.00641646044921873,0.00651222851562849,0.0138761285765091,0.0,
0.0104387192382811,0.0614830986328125,0.0280600434570353,0.0683849714165219,0.00373500000000604,
-0.00632069238281274,0.0112048637695312,-0.00545877978515286,0.0139749204303529,0.00742800000000443,
-0.0135032973632815,0.01838746875,-0.0317949980468715,0.0391325944388305,0.0111689999999953,
0.0104387192382811,0.0135990654296875,-0.0126413847656224,0.0213003767264593,0.0148960000000073,
0.00325611425781225,0.0327526787109375,-0.0341891997070274,0.047457787763536,0.0186230000000052,
-0.0206859023437502,0.0135990654296875,-0.00545877978515286,0.0253503335891046,0.0224149999999952,
-0.0326569106445315,0.01838746875,0.0567904633789098,0.0680421160066942,0.0261560000000003,
0.0319865341796873,-0.0103429511718751,0.0256658417968776,0.042294803970635,0.0298439999999971,
0.0343807358398436,0.0255700737304687,-0.0294007963867156,0.0519641270074252,0.033535999999998,
-0.00632069238281274,0.00402225878906243,-0.0892558378906223,0.0895697176255535,0.0372169999999983,
-0.0206859023437502,0.0303584770507812,-0.0677080229492155,0.0770319417924115,0.0408869999999979,
0.00325611425781225,-0.000766144531250068,-0.0270065947265596,0.0272129641205682,0.0445660000000032,
-0.018291700683594,0.0255700737304687,0.013694833496098,0.0342923234699203,0.0486230000000063,
0.0056503159179685,0.0423294853515625,-0.0102471831054647,0.0439171511109032,0.0524539999999973,
-0.0135032973632815,-0.0175255561523438,-0.0126413847656224,0.0254811453220351,0.0561770000000053,
0.0176213242187498,0.0327526787109375,-0.0150355864257783,0.0401163045298448,0.0599430000000041,
-0.00392649072265649,0.0399352836914062,-0.0198239897460901,0.0447575109044425,0.0636860000000041,
0.000861912597656,-0.0271023627929688,0.00411802685547258,0.0274269777312428,0.067497000000003,
-0.00392649072265649,0.00641646044921873,-0.0533428129882783,0.0538706227139981,0.0713279999999941,
-0.0111090957031252,0.027964275390625,0.00651222851562849,0.0307867150846542,0.0751089999999976,
-0.0111090957031252,0.00162805712890618,0.0208774384765658,0.0237050630604301,0.0788620000000009,
-0.027868507324219,0.00641646044921873,-0.0126413847656224,0.0312670637247719,0.0826330000000013,
0.000861912597656,0.0447236870117187,0.0160890351562539,0.04753743919804,0.0863910000000061,
0.000861912597656,0.0231758720703125,-0.0485544096679646,0.0538088713666253,0.0901170000000064,
-0.0254743056640627,0.0686657036132812,0.0280600434570353,0.0784301290358736,0.0939259999999962,
-0.0111090957031252,0.00641646044921873,-0.0294007963867156,0.0320778708802609,0.0976590000000073,
0.0367749374999998,0.0255700737304687,0.0711556733398471,0.084079453775328,0.101382999999998,
-0.00871489404296899,0.00162805712890618,0.0113006318359403,0.0143632944719039,0.105063999999999,
0.0224097275390623,0.0135990654296875,0.0400310517578166,0.0478499276255767,0.108750999999998,
0.0367749374999998,0.00641646044921873,-0.10362104785156,0.110140313013358,0.112427999999994,
0.0056503159179685,0.0159932670898437,0.00651222851562849,0.0181691987280587,0.116230999999999,
0.0248039291992186,0.0135990654296875,0.0591846650390657,0.0655972107643852,0.120296999999994,
0.000861912597656,-0.0127371528320313,-0.000670376464841027,0.0127838710959214,0.124029000000007,
0.00325611425781225,-0.0175255561523438,-0.0126413847656224,0.0218529633528589,0.127769999999998,
-0.018291700683594,-0.0318907661132813,0.0807324799804725,0.0887093039144576,0.131504000000007,
-0.00153228906250025,0.0159932670898437,0.00411802685547258,0.016585856841313,0.135300000000001,
-0.00392649072265649,-0.00316034619140632,-0.0246123930664037,0.0251231966497061,0.139061999999996,
0.00325611425781225,0.0231758720703125,-0.0365834013671833,0.0434288910965022,0.142896000000007,
0.0056503159179685,0.066271501953125,0.0160890351562539,0.0684302206145433,0.146687999999997,
-0.00392649072265649,0.0159932670898437,-0.0198239897460901,0.0257719322336388,0.150422000000006,
-0.00392649072265649,0.0447236870117187,0.00172382519531666,0.0449288001466909,0.154156,
-0.037445313964844,0.00641646044921873,-0.0317949980468715,0.0495403310790581,0.157841000000005,
0.0248039291992186,0.027964275390625,0.00890643017578441,0.0384260341476802,0.161546000000001,
0.00325611425781225,0.0423294853515625,0.0807324799804725,0.0912146969187831,0.165262999999996,
0.0104387192382811,-0.00794874951171881,-0.0413718046874969,0.0434024849661411,0.169025000000005,
-0.0135032973632815,-0.0103429511718751,0.0160890351562539,0.0234130888796026,0.172705000000008,
-0.0470221206054689,-0.0151313544921876,0.00651222851562849,0.0498241591523959,0.176355000000001,
0.0152271225585936,-0.0438617744140625,0.00890643017578441,0.047276262697475,0.180053000000001,
-0.0135032973632815,0.0255700737304687,-0.0198239897460901,0.0350593536693975,0.183728000000002,
-0.0158974990234377,0.0159932670898437,0.00890643017578441,0.0242454029845537,0.187618999999998,
-0.0158974990234377,0.00881066210937498,0.00172382519531666,0.0182573222382087,0.191553999999996,
-0.0111090957031252,0.027964275390625,-0.0198239897460901,0.0360333633583793,0.195295999999999,
-0.0230801040039065,0.0327526787109375,0.00890643017578441,0.041045750840363,0.199036000000007,
-0.00871489404296899,0.0686657036132812,-0.0413718046874969,0.0806384179779561,0.202755999999994,
-0.00392649072265649,0.0399352836914062,0.00890643017578441,0.041104363653806,0.206524999999999,
-0.0326569106445315,0.0303584770507812,0.0663672700195352,0.0799545212701172,0.210299000000006,
-0.00632069238281274,0.0495120903320312,-0.0341891997070274,0.0605004100635059,0.214077000000003,
0.0367749374999998,0.00881066210937498,0.0160890351562539,0.0410959955128677,0.217820000000003,
-0.00871489404296899,0.0135990654296875,-0.0150355864257783,0.0220670074524877,0.221546000000004,
0.0319865341796873,0.0112048637695312,0.0496078583984403,0.0600801710700108,0.225312000000002,
0.00325611425781225,-0.0223139594726563,0.0663672700195352,0.070093720098545,0.229022999999998,
-0.027868507324219,-0.0366791694335938,-0.0294007963867156,0.0546481655592522,0.232693999999995,
-0.0254743056640627,-0.0199197578125001,-0.00785298144530877,0.0332777150350669,0.236367999999999,
-0.00392649072265649,-0.000766144531250068,0.0184832368164098,0.0189112228597032,0.240147000000007,
-0.0398395156250002,0.0303584770507812,-0.0557370146484342,0.0749362324646576,0.243824000000004,
0.0056503159179685,0.0327526787109375,0.00411802685547258,0.0334906282099506,0.247536999999994,
-0.0111090957031252,0.0207816704101562,-0.038977603027341,0.0455471554560166,0.251202000000006,
0.0056503159179685,0.03754108203125,0.0472136567382844,0.0605837296033385,0.254937999999996,
-0.0111090957031252,0.0447236870117187,0.0448194550781285,0.0642837750973272,0.258876000000001,
0.0128329208984373,0.0638773002929687,-0.0485544096679646,0.0812559170135209,0.262771000000001,
-0.0111090957031252,0.0686657036132812,0.0184832368164098,0.0719723620792014,0.266560999999996,
0.0248039291992186,0.0566946953124999,0.0113006318359403,0.0629064993477504,0.270336999999998,
0.00325611425781225,0.0782425102539062,0.00890643017578441,0.0788150822455237,0.274150000000006,
-0.0206859023437502,0.0590888969726562,0.0280600434570353,0.0686059060142133,0.277975999999995,
0.0559285507812498,-0.11568782421875,-0.216148525878904,0.251459461354275,0.281774999999996,
-0.224193043457031,0.214712004882812,-0.393319448730466,0.501062824928133,0.285554000000005,
0.149302415527344,0.351181499511719,-0.151505081054685,0.410576967774601,0.289460000000005,
-0.0973003554687503,0.0950019218749999,-0.175447097656246,0.221978396269297,0.293242000000006,
0.122966197265625,-0.3263775703125,0.176500546386722,0.390890581810141,0.297003000000004,
-0.152366993652344,-0.539461518066406,0.20283676464844,0.596135205571867,0.300566000000003,
-0.166732203613281,-0.812400507324219,0.152558529785159,0.8432486685626,0.303486000000007,
-0.111665565429688,-1.01351344677734,0.0974918916015657,1.02429652651431,0.306400999999994,
-0.114059767089844,-0.956052606933594,-0.146716677734371,0.973946611071943,0.309381000000002,
-0.224193043457031,-0.979994623535156,-0.388531045410152,1.07777936338559,0.312296000000003,
0.321684935058594,-0.836342523925781,-1.33424070117187,1.60721755323721,0.315284000000005,
-0.00871489404296899,-0.321589166992188,-0.627951211425778,0.705562375439628,0.318196,
0.340838548339844,0.118943938476562,-0.443597683593747,0.571924366874211,0.321112999999997,
0.0726879624023435,0.255413433105469,-0.106015249511715,0.285934948577395,0.324124999999995,
-0.0518105239257815,0.885088469726563,0.57393802197266,1.05615850263976,0.327064000000007,
0.13254300390625,0.988039141113281,0.734349533203128,1.23816728642458,0.330076000000005,
0.0391691391601561,1.19872888720703,0.408738107421879,1.26710378696695,0.333005999999997,
0.0295923325195311,1.25858392871094,0.21001936962891,1.27632963899329,0.335915,
0.0152271225585936,1.13647964404297,-0.144322476074215,1.14570800105683,0.338912000000008,
-0.0613873305664064,1.08859561083984,-0.180235500976559,1.10512155173362,0.341831999999997,
-0.121242372070313,0.815656621582031,-0.098832644531246,0.830519914716612,0.344814999999997,
-0.0326569106445315,0.557082842285156,0.0567904633789098,0.560921495141829,0.347842,
0.0726879624023435,0.226683013183594,0.253114999511721,0.347470763262201,0.350864999999999,
0.0104387192382811,-0.0151313544921876,0.226778781250003,0.227522615081096,0.353964000000005,
-0.0542047255859377,-0.199484882324219,0.13340491650391,0.246026913769956,0.356922999999995,
-0.00153228906250025,-0.407780426757813,-0.0748906279296833,0.414603220571497,0.359914000000003,
-0.0518105239257815,-0.623258576171875,-0.280791970703122,0.685550664774384,0.362828000000007,
0.0224097275390623,-0.69029622265625,-0.165870291015622,0.710298545925211,0.365821999999994,
-0.0446279189453127,-0.7477570625,-0.237696340820309,0.785895556742359,0.368757000000002,
0.0128329208984373,-0.714238239257813,-0.10362104785156,0.721829805310602,0.371682000000007,
0.0248039291992186,-0.678325214355469,-0.0557370146484342,0.681063099966539,0.374679,
0.0535343491210936,-0.582557147949219,-0.0581312163085901,0.587892843528532,0.377660000000006,
0.000861912597656,-0.467635468261719,-0.106015249511715,0.479502770793574,0.380682000000007,
0.0726879624023435,-0.240186310546875,-0.0820732329101528,0.264024656448311,0.383622000000003,
0.0271981308593748,-0.0749863959960938,-0.09643844287109,0.125152192030852,0.386521000000002,
0.0487459458007811,0.0734541069335937,0.0567904633789098,0.104865770336253,0.389572999999999,
0.0367749374999998,0.193164189941406,0.12622231152344,0.233659736005519,0.392523999999995,
0.0607169541015623,0.308085869628906,0.198048361328128,0.371250057245959,0.395531000000005,
0.00804451757812485,0.430190154296875,0.138193319824222,0.4519133509436,0.398483999999996,
0.0176213242187498,0.463708977539063,0.150164328125003,0.487735432748922,0.401408000000004,
-0.0350511123046877,0.511593010742188,0.0831266816406284,0.519486317735736,0.404387999999997,
-0.0135032973632815,0.468497380859375,0.0759440766601589,0.474804841689235,0.407313000000002,
-0.0781467421875002,0.408642339355469,0.073549875000003,0.422498590460307,0.410302000000001,
-0.11645396875,0.399065532714844,0.0974918916015657,0.426988870073518,0.413227000000006,
-0.126030775390625,0.269778643066406,0.052002060058598,0.302272206546767,0.416129999999995,
-0.128424977050781,0.174010576660156,0.0567904633789098,0.223601905740727,0.419132000000005,
-0.147578590332031,0.0471178886718749,0.0903092866210979,0.179318997898428,0.422055999999998,
-0.111665565429688,-0.0342849677734375,-0.0294007963867156,0.120453577556379,0.425019000000006,
-0.0853293471679689,-0.168360260742188,0.0304542451171912,0.191190313381581,0.427926999999997,
-0.0230801040039065,-0.235397907226563,-0.0198239897460901,0.237355970004821,0.430802999999997,
0.0463517441406248,-0.285676142089844,-0.10362104785156,0.307403096767209,0.433785999999998,
0.0511401474609373,-0.316800763671875,-0.0485544096679646,0.324554416459881,0.436696999999995,
0.0822647690429685,-0.302435553710938,-0.0270065947265596,0.314585620352964,0.439690999999996,
0.13254300390625,-0.302435553710938,-0.0270065947265596,0.331306909362993,0.442636000000007,
0.139725608886719,-0.256945722167969,-0.0581312163085901,0.298200583883901,0.445541000000006,
0.130148802246094,-0.194696479003906,0.0232716401367217,0.235344426101967,0.448535000000007,
0.173244432128906,-0.101322614257813,0.0184832368164098,0.20154784907539,0.451471999999995,
0.113389390625,0.00402225878906243,0.00411802685547258,0.113535415695973,0.454486000000003,
0.0726879624023435,0.0686657036132812,0.00890643017578441,0.10038846163473,0.457420999999997,
0.0319865341796873,0.128520745117187,0.052002060058598,0.142284695398498,0.460414999999998,
0.0559285507812498,0.205135198242187,-0.0701022246093714,0.223881160988448,0.463341999999997,
-0.0518105239257815,0.264990239746094,0.0304542451171912,0.271719742742065,0.466268999999997,
-0.0925119521484377,0.274567046386719,0.107068698242191,0.308883846121999,0.469261000000003,
-0.111665565429688,0.298509062988281,0.0543962617187539,0.323319984655834,0.472193000000004,
-0.147578590332031,0.30569166796875,0.0591846650390657,0.34457170627562,0.475166999999999,
-0.164338001953125,0.296114861328125,0.0807324799804725,0.348150432010528,0.478097000000005,
-0.0853293471679689,0.221894609863281,-0.0294007963867156,0.239546910234014,0.480981999999997,
-0.114059767089844,0.140491753417969,0.00411802685547258,0.181009727341453,0.484018000000006,
-0.0805409438476564,0.0806367119140625,-0.0246123930664037,0.116597139058546,0.487036000000003,
0.0056503159179685,-0.0366791694335938,-0.0126413847656224,0.0392057667837735,0.490120000000005,
0.0439575424804686,-0.029496564453125,-0.0174297880859342,0.0557324893413181,0.493140999999994,
0.077476365722656,-0.120476227539063,-0.0150355864257783,0.14402491974239,0.496065999999999,
0.0942357773437498,-0.187513874023438,-0.0724964262695273,0.222030553088334,0.499043999999998,
0.130148802246094,-0.252157318847656,-0.132351467773434,0.313111697635706,0.501968000000005,
0.106206785644531,-0.233003705566406,-0.022218191406246,0.25702967951967,0.504969000000003,
0.127754600585937,-0.23060950390625,-0.09643844287109,0.280717570747112,0.507914999999997,
0.110995188964844,-0.211455890625,-0.0341891997070274,0.241251791765285,0.510805000000005,
0.067899559082031,-0.118082025878906,0.0376368500976589,0.141316125918009,0.513819999999996,
0.0487459458007811,-0.0989284125976563,-0.0270065947265596,0.113544503212747,0.516738000000004,
-0.0470221206054689,-0.0151313544921876,0.0615788666992216,0.0789429828354872,0.519744000000003,
-0.0494163222656252,-0.0342849677734375,0.013694833496098,0.0616845230667436,0.522660000000002,
-0.118848170410156,0.085425115234375,0.0974918916015657,0.175860759837717,0.525605999999996,
-0.190674220214844,0.162039568359375,0.0280600434570353,0.251795246197068,0.528621999999999,
-0.102088758789063,0.164433770019531,0.0376368500976589,0.197172797006081,0.531560999999996,
-0.104482960449219,0.159645366699219,0.0591846650390657,0.199765254007166,0.534553000000002,
-0.130819178710938,0.226683013183594,0.0711556733398471,0.271223110801872,0.537499999999994,
-0.0709641372070314,0.197952593261719,-0.00785298144530877,0.210434805263194,0.540392999999995,
-0.0230801040039065,0.224288811523437,-0.00785298144530877,0.225609910006204,0.543371000000008,
0.0152271225585936,0.157251165039062,0.0496078583984403,0.165592070409294,0.546311000000003,
0.0511401474609373,0.145280156738281,0.0256658417968776,0.156142159775534,0.549315000000007,
0.0463517441406248,0.0519062919921874,0.0113006318359403,0.0705014298659796,0.552244999999999,
0.077476365722656,0.0495120903320312,0.0591846650390657,0.109347422971117,0.555240999999995,
0.0631111557617186,-0.0223139594726563,-0.0509486113281223,0.0841230751054152,0.558152000000007,
0.103812583984375,-0.0558327827148438,0.035242648437503,0.123030063350733,0.561068000000006,
0.0846589707031248,-0.0893516059570313,0.0113006318359403,0.123606452450932,0.564059999999998,
0.0607169541015623,-0.132447235839844,-0.0485544096679646,0.153578479922126,0.566975999999997,
0.0224097275390623,-0.149206647460938,-0.0102471831054647,0.151227723306623,0.569938000000008,
0.0224097275390623,-0.1348414375,-0.0126413847656224,0.13727422833232,0.572866000000005,
0.0128329208984373,-0.137235639160156,-0.0796790312499969,0.159207576878176,0.575756999999996,
-0.0589931289062502,-0.0917458076171875,-0.0653138212890596,0.127135273330648,0.578733,
-0.0350511123046877,-0.0438617744140625,-0.0629196196289037,0.0843286088038446,0.581652000000005,
-0.0230801040039065,-0.0318907661132813,-0.0557370146484342,0.0682372842809773,0.584625000000003,
-0.0111090957031252,0.0135990654296875,0.052002060058598,0.0548868002186332,0.587558000000001,
-0.0422337172851565,0.027964275390625,-0.022218191406246,0.0553112610885869,0.590464999999995,
-0.0518105239257815,0.0686657036132812,-0.038977603027341,0.0944381426115949,0.593450000000004,
0.0200155258789061,0.128520745117187,0.0304542451171912,0.133587665026919,0.596390999999997,
-0.11645396875,0.138097551757812,-0.170658694335934,0.248509256551086,0.599367000000001,
-0.0996945571289065,0.348787297851562,0.142981723144535,0.38991711557343,0.602305999999999,
0.0487459458007811,0.288932256347656,0.0855208833007843,0.305240622248591,0.605231000000003,
-0.0470221206054689,0.154856963378906,-0.0102471831054647,0.162162769138813,0.608211999999995,
-0.0135032973632815,0.0447236870117187,-0.177841299316404,0.183875161351799,0.611126999999996,
0.130148802246094,0.0135990654296875,0.12622231152344,0.181812313205058,0.614136999999999,
0.130148802246094,-0.0606211860351563,0.0328484467773471,0.147284280824825,0.617059999999995,
0.120571995605469,-0.0223139594726563,0.0376368500976589,0.128265550312257,0.619969999999995,
0.0846589707031248,-0.0247081611328125,0.0711556733398471,0.113317096660321,0.623044000000007,
0.077476365722656,-0.0749863959960938,0.013694833496098,0.108688064177073,0.626074000000003,
0.0343807358398436,-0.139629840820313,-0.21136012255859,0.255639646479917,0.629159000000001,
-0.0135032973632815,-0.108505219238281,-0.125168862792965,0.16620158198559,0.632131999999999,
-0.11645396875,-0.110899420898438,-0.0270065947265596,0.163063069246103,0.635006000000004,
-0.0709641372070314,-0.120476227539063,0.0759440766601589,0.159116098969735,0.637977000000006,
-0.0733583388671877,-0.122870429199219,0.0496078583984403,0.151458006945269,0.640868999999995,
-0.104482960449219,-0.0582269843750001,-0.0102471831054647,0.120050304019759,0.643843000000004,
-0.138001783691406,-0.000766144531250068,-0.0677080229492155,0.153718755040314,0.646743999999998,
-0.018291700683594,0.0351468803710937,0.0328484467773471,0.0514675623028949,0.649738999999997,
-0.0135032973632815,0.0519062919921874,0.00172382519531666,0.0536616600690235,0.652686000000003,
0.0367749374999998,0.0926077202148437,0.121433908203128,0.157082080241527,0.655623000000006,
0.0487459458007811,0.1333091484375,0.0783382783203166,0.162124588324336,0.658641000000003,
0.0607169541015623,0.126126543457031,0.0232716401367217,0.141901454236532,0.661595000000005,
0.077476365722656,0.164433770019531,0.00890643017578441,0.181990044966484,0.664626999999996,
0.0271981308593748,0.178798979980469,0.0328484467773471,0.183814673026894,0.667585000000003,
0.077476365722656,0.142885955078125,-0.0437660063476528,0.168328389512291,0.670501999999999,
0.0535343491210936,0.104578728515625,0.0208774384765658,0.119325204508967,0.673530999999997,
0.0942357773437498,0.0543004936523437,0.0591846650390657,0.123821443693148,0.676469999999995,
-0.0230801040039065,0.0327526787109375,0.0496078583984403,0.0637680858929664,0.679457999999997,
0.0056503159179685,0.00162805712890618,0.0280600434570353,0.0286695427029895,0.682399000000004,
-0.0589931289062502,-0.0845632026367188,-0.0796790312499969,0.130306839879057,0.685263000000006,
-0.0661757338867189,-0.0462559760742188,-0.0820732329101528,0.115129746974224,0.688243,
-0.0326569106445315,-0.086957404296875,-0.0677080229492155,0.114945379840107,0.691136,
-0.094906153808594,-0.0821690009765625,-0.0413718046874969,0.132176204270388,0.694115999999994,
-0.00153228906250025,-0.0534385810546876,-0.0246123930664037,0.0588540546382713,0.697012000000001,
0.000861912597656,-0.0821690009765625,0.0424252534179725,0.0924791313886086,0.699922999999998,
-0.0589931289062502,-0.0534385810546876,-0.0102471831054647,0.0802550681570004,0.702882000000002,
0.0056503159179685,-0.0199197578125001,-0.0437660063476528,0.0484167959793323,0.705794999999995,
-0.0135032973632815,0.0112048637695312,-0.0485544096679646,0.0516276932467401,0.708785000000006,
0.0319865341796873,0.0231758720703125,-0.0341891997070274,0.0522413704993925,0.711731999999998,
0.0295923325195311,0.085425115234375,0.0113006318359403,0.0911090595750182,0.714668000000003,
0.0631111557617186,0.0590888969726562,-0.0102471831054647,0.0870604415829716,0.717674000000002,
0.00804451757812485,0.0495120903320312,-0.0246123930664037,0.0558742449127246,0.720629000000002,
0.0295923325195311,0.0973961235351562,-0.0102471831054647,0.102306968409873,0.723637999999994,
0.00325611425781225,0.066271501953125,-0.0126413847656224,0.0675449395586041,0.726592999999994,
-0.0135032973632815,0.111761333496094,0.0376368500976589,0.118699061452818,0.729511000000002,
-0.00153228906250025,0.0973961235351562,-0.0246123930664037,0.100469511205647,0.732500999999999,
-0.00392649072265649,0.0686657036132812,-0.00545877978515286,0.0689941624983222,0.735422,
-0.0350511123046877,0.0351468803710937,-0.0102471831054647,0.050684203014477,0.738409000000004,
-0.0422337172851565,0.0112048637695312,0.0448194550781285,0.0625940843955453,0.741337000000001,
-0.0302627089843752,-0.0318907661132813,-0.00545877978515286,0.0443018148060301,0.744294999999994,
-0.0398395156250002,-0.0654095893554688,-0.0557370146484342,0.0947217830639049,0.747187999999994,
0.0152271225585936,-0.07738059765625,0.00411802685547258,0.078972022262541,0.750101000000001,
-0.027868507324219,-0.0845632026367188,0.0113006318359403,0.0897512853420511,0.753066000000004,
-0.027868507324219,-0.0366791694335938,-0.0150355864257783,0.0484570328227531,0.755966000000001,
-0.0326569106445315,-0.0558327827148438,-0.0126413847656224,0.0659058271120269,0.758937000000003,
0.0631111557617186,-0.0414675727539063,0.0160890351562539,0.0772103271845133,0.761981000000006,
0.0271981308593748,-0.000766144531250068,0.00172382519531666,0.0272634714038849,0.764984999999996,
0.0343807358398436,0.0351468803710937,0.0328484467773471,0.0591300148181385,0.768101999999999,
0.0439575424804686,0.0159932670898437,-0.0174297880859342,0.0499184098890364,0.771068,
0.0152271225585936,0.0686657036132812,0.073549875000003,0.101766537853253,0.774079999999998,
0.0439575424804686,0.0614830986328125,-0.00545877978515286,0.0757775378008361,0.777001999999996,
0.0200155258789061,0.109367131835937,-0.0246123930664037,0.113875197890865,0.779930000000007,
0.0271981308593748,0.0566946953124999,-0.00785298144530877,0.0633695204053277,0.782967999999997,
-0.027868507324219,0.0950019218749999,0.0280600434570353,0.102904737010666,0.785902000000007,
-0.037445313964844,0.0806367119140625,-0.0485544096679646,0.101301340289464,0.788886000000005,
-0.0446279189453127,0.0327526787109375,0.0280600434570353,0.0620625100277293,0.791831999999999,
-0.027868507324219,0.0399352836914062,0.013694833496098,0.0505868465955231,0.794753,
-0.0254743056640627,-0.0414675727539063,0.0472136567382844,0.0678058199697279,0.797740000000005,
-0.0230801040039065,-0.00316034619140632,0.035242648437503,0.042245985108293,0.800679000000002,
0.0056503159179685,-0.00316034619140632,0.00172382519531666,0.00669965904553307,0.803714999999997,
-0.0158974990234377,-0.0271023627929688,0.0160890351562539,0.0353005041949981,0.806634000000003,
0.0056503159179685,0.01838746875,-0.022218191406246,0.0293883158137662,0.809561000000002,
0.0176213242187498,-0.029496564453125,-0.0533428129882783,0.0634508792631125,0.812550999999999,
-0.0230801040039065,0.00162805712890618,-0.0102471831054647,0.025305069303265,0.815483999999998,
0.0176213242187498,-0.00316034619140632,0.035242648437503,0.0395290162306282,0.818483000000001,
-0.00632069238281274,-0.0438617744140625,0.00411802685547258,0.0445057811090947,0.821393,
0.0271981308593748,-0.0151313544921876,-0.0126413847656224,0.0335931662664363,0.824287999999996,
0.0176213242187498,0.03754108203125,0.00651222851562849,0.0419791975571128,0.827297000000002,
0.0152271225585936,0.00881066210937498,0.052002060058598,0.0548972429048858,0.830235000000002,
0.00804451757812485,0.0495120903320312,-0.0102471831054647,0.0511973252593228,0.833241000000001,
-0.018291700683594,0.03754108203125,-0.0174297880859342,0.0452517034673371,0.836161000000004,
0.0224097275390623,0.0543004936523437,-0.022218191406246,0.06280435915307,0.839163999999997,
-0.018291700683594,0.0543004936523437,-0.0102471831054647,0.0582076858016476,0.842081000000007,
-0.0135032973632815,0.0303584770507812,-0.0246123930664037,0.0413490756967937,0.844982999999999,
0.0248039291992186,0.0638773002929687,0.0280600434570353,0.0740466774085689,0.847999000000002,
0.000861912597656,0.0447236870117187,-0.0365834013671833,0.0577866449003626,0.850915999999998,
-0.00153228906250025,0.0399352836914062,0.00890643017578441,0.0409450765264919,0.853914000000003,
-0.0254743056640627,0.00402225878906243,0.0759440766601589,0.0802036258195126,0.856862000000007,
-0.0446279189453127,0.0303584770507812,0.0113006318359403,0.055145195240598,0.859764999999996,
0.0056503159179685,-0.00316034619140632,0.00890643017578441,0.0110108290559116,0.862759999999994,
0.0224097275390623,-0.00794874951171881,0.0208774384765658,0.0316424705817647,0.865699000000006,
0.00804451757812485,0.00881066210937498,-0.060525417968746,0.0616900984774845,0.868707000000001,
0.0248039291992186,0.0112048637695312,-0.0198239897460901,0.0336715673122991,0.871656000000002,
0.00325611425781225,-0.00555454785156256,-0.0174297880859342,0.0185809793771965,0.874567999999996,
0.0295923325195311,-0.00555454785156256,-0.0102471831054647,0.0318050924755567,0.877555000000001,
0.0248039291992186,0.01838746875,0.0208774384765658,0.0372719914693978,0.880510999999998,
0.00804451757812485,0.0566946953124999,0.00890643017578441,0.0579510762464174,0.883516999999998,
0.0200155258789061,0.066271501953125,0.0304542451171912,0.0756306438752849,0.886454000000001,
0.00804451757812485,0.0255700737304687,0.035242648437503,0.0442785185223693,0.889363000000003,
0.0176213242187498,0.00881066210937498,-0.0198239897460901,0.0279486923393736,0.892358000000002,
0.000861912597656,0.0207816704101562,0.0687614716796912,0.0718384347401816,0.895302999999998,
-0.00871489404296899,0.0614830986328125,0.0903092866210979,0.109598759325478,0.898358999999999,
-0.0111090957031252,0.0543004936523437,-0.00785298144530877,0.0559787900531065,0.901375000000002,
0.0343807358398436,-0.00555454785156256,0.0448194550781285,0.0567597705441519,0.904394999999994,
-0.0158974990234377,0.0112048637695312,0.0855208833007843,0.0877046231839595,0.907458000000005,
-0.0326569106445315,0.0399352836914062,0.00411802685547258,0.0517518969849454,0.910392000000002,
0.00325611425781225,0.0112048637695312,-0.0485544096679646,0.0499367795353106,0.913390000000007,
0.000861912597656,0.0447236870117187,0.0160890351562539,0.04753743919804,0.916336999999999,
0.000861912597656,0.0255700737304687,-0.0437660063476528,0.0506955113943078,0.919297,
0.0248039291992186,0.0471178886718749,-0.0174297880859342,0.0560279202660212,0.922308999999998,
0.0200155258789061,0.00162805712890618,0.0184832368164098,0.0272928908222568,0.925257000000002,
-0.00392649072265649,0.0231758720703125,-0.0341891997070274,0.0414902368301459,0.928239000000005,
-0.00871489404296899,0.027964275390625,-0.00785298144530877,0.030325227021133,0.931169999999995,
-0.0111090957031252,0.00881066210937498,-0.0270065947265596,0.030502392248337,0.934163999999996,
0.0271981308593748,0.0159932670898437,-0.0701022246093714,0.0768755150202814,0.937111000000002,
-0.00632069238281274,0.03754108203125,-0.060525417968746,0.0715025189246266,0.940056999999996,
-0.0206859023437502,0.0231758720703125,-0.0198239897460901,0.0368512980971871,0.943058000000008,
0.0224097275390623,-0.00794874951171881,-0.0294007963867156,0.0378125023682401,0.945981000000003,
-0.00632069238281274,-0.00316034619140632,0.013694833496098,0.0154106263575992,0.948953000000003,
-0.018291700683594,-0.000766144531250068,-0.0294007963867156,0.0346349551683565,0.951858999999999,
0.0224097275390623,-0.0127371528320313,-0.0270065947265596,0.0373334583097544,0.954747999999995,
-0.00153228906250025,0.0638773002929687,0.0113006318359403,0.0648872998542907,0.957758999999996,
-0.018291700683594,0.0255700737304687,-0.00785298144530877,0.0324050042749598,0.960687000000007,
-0.00632069238281274,0.01838746875,0.052002060058598,0.0555181448678574,0.963699000000005,
-0.0398395156250002,-0.000766144531250068,-0.000670376464841027,0.0398525204633535,0.966594999999998,
0.0104387192382811,0.027964275390625,-0.0485544096679646,0.0569955985639498,0.969536000000005,
0.0152271225585936,0.0590888969726562,0.0663672700195352,0.0901552967756499,0.972545999999994,
0.0128329208984373,0.01838746875,0.0950976899414098,0.0977054425199041,0.975486000000004,
-0.0230801040039065,0.027964275390625,0.0496078583984403,0.0614461676090019,0.978472999999994,
-0.0230801040039065,0.0112048637695312,0.0328484467773471,0.0416804585940354,0.981403999999998,
-0.00153228906250025,0.00641646044921873,-0.000670376464841027,0.00663085809470078,0.984303999999995,
0.0271981308593748,0.01838746875,0.0424252534179725,0.0536445659583065,0.987323000000004,
0.0152271225585936,0.00162805712890618,0.00890643017578441,0.0177155392214162,0.990257,
0.0271981308593748,0.0614830986328125,-0.0317949980468715,0.074369561250127,0.993262000000001,
0.0319865341796873,0.0255700737304687,-0.0246123930664037,0.047777996314884,0.996205000000003,
-0.0135032973632815,-0.000766144531250068,0.0400310517578166,0.0422541255022626,0.999105,
-0.00871489404296899,0.0207816704101562,-0.0150355864257783,0.0270905160966636,1.00208499999999,
-0.0158974990234377,0.01838746875,0.0543962617187539,0.0595800534676464,1.00501800000001,
