X,Y,Z,Magnitude,Seconds,
-0.183491615234375,0.140491753417969,-0.0461602080078087,0.23566474162059,0.0,
-0.169126405273438,0.147674358398437,-0.0341891997070274,0.227113096200356,0.00380100000006678,
-0.190674220214844,0.169222173339844,-0.0437660063476528,0.258666320799639,0.00757500000008804,
-0.188280018554688,0.162039568359375,-0.038977603027341,0.251446695422316,0.0115170000001399,
-0.197856825195313,0.171616375,-0.0748906279296833,0.272411654662959,0.015393000000131,
-0.193068421875,0.171616375,-0.0653138212890596,0.266446037585142,0.0192440000000715,
-0.255317665039063,0.181193181640625,-0.0317949980468715,0.314688736777871,0.0231870000000072,
-0.166732203613281,0.142885955078125,-0.0701022246093714,0.230500207755897,0.0272580000000744,
-0.164338001953125,0.183587383300781,-0.0270065947265596,0.247872270235898,0.0311380000000554,
-0.214616236816406,0.164433770019531,-0.0437660063476528,0.27388694225847,0.0351520000001528,
-0.21222203515625,0.142885955078125,-0.0748906279296833,0.266576807911249,0.0391020000001845,
-0.197856825195313,0.159645366699219,-0.0533428129882783,0.25976801589572,0.0429510000001301,
-0.169126405273438,0.157251165039062,-0.098832644531246,0.251196260903496,0.0467700000001514,
-0.200251026855469,0.164433770019531,-0.0341891997070274,0.2613576856649,0.0506850000001577,
-0.205039430175782,0.154856963378906,-0.0365834013671833,0.259538421605237,0.0545630000001438,
-0.188280018554688,0.169222173339844,-0.0341891997070274,0.255449428876677,0.0584180000000742,
-0.185885816894531,0.166827971679687,-0.0485544096679646,0.254445750122714,0.0624810000001617,
-0.176309010253906,0.181193181640625,-0.0940442412109341,0.269740904341008,0.0664220000001023,
-0.188280018554688,0.162039568359375,-0.108409451171871,0.271032832336661,0.0703090000001794,
-0.171520606933594,0.162039568359375,0.00651222851562849,0.236047769396791,0.0741880000000492,
-0.157155396972656,0.214712004882812,-0.0653138212890596,0.273979851612868,0.078083000000106,
-0.17391480859375,0.195558391601563,-0.0581312163085901,0.268083351746256,0.081967000000077,
-0.145184388671875,0.185981584960938,-0.0701022246093714,0.246134066219594,0.0859730000001946,
-0.190674220214844,0.181193181640625,-0.0629196196289037,0.270456107089186,0.0898740000000089,
-0.1547611953125,0.150068560058594,-0.0437660063476528,0.2199705971357,0.093751999999995,
-0.178703211914063,0.202740996582031,-0.0270065947265596,0.271602845718159,0.0976920000000518,
-0.183491615234375,0.181193181640625,-0.0940442412109341,0.274489455606792,0.101571000000149,
-0.195462623535156,0.19076998828125,-0.0341891997070274,0.275259381320022,0.105519000000186,
-0.21222203515625,0.183587383300781,-0.0365834013671833,0.282985626434773,0.10940400000004,
-0.185885816894531,0.162039568359375,-0.0341891997070274,0.248956341580701,0.113285000000133,
-0.169126405273438,0.193164189941406,-0.113197854492183,0.2805884878217,0.117090000000189,
-0.169126405273438,0.164433770019531,-0.153899282714841,0.281650838634813,0.120943000000125,
-0.202645228515625,0.145280156738281,-0.077284829589841,0.261044742269942,0.124936000000162,
-0.181097413574219,0.150068560058594,0.0113006318359403,0.235466664734571,0.128859000000148,
-0.185885816894531,0.166827971679687,-0.120380459472653,0.277266233213049,0.132798000000093,
-0.183491615234375,0.171616375,-0.0126413847656224,0.251557463888975,0.136907000000065,
-0.171520606933594,0.176404778320312,-0.0461602080078087,0.250337230991379,0.140806999999995,
-0.195462623535156,0.162039568359375,-0.0533428129882783,0.259437689264381,0.144699000000173,
-0.200251026855469,0.181193181640625,0.00651222851562849,0.270136728250644,0.148574000000053,
-0.178703211914063,0.166827971679687,-0.077284829589841,0.256396870043087,0.152431000000206,
-0.181097413574219,0.159645366699219,-0.156293484374997,0.287594453301654,0.156301000000212,
-0.17391480859375,0.142885955078125,-0.077284829589841,0.237982565940279,0.160273000000188,
-0.17391480859375,0.15246276171875,-0.0820732329101528,0.245412448582857,0.164099000000078,
-0.190674220214844,0.138097551757812,-0.0844674345703087,0.25012464804359,0.168034000000034,
-0.202645228515625,0.171616375,-0.0365834013671833,0.268058974973574,0.172088000000031,
-0.169126405273438,0.169222173339844,-0.0533428129882783,0.245123113165767,0.175955000000158,
-0.217010438476563,0.171616375,-0.0581312163085901,0.282710008463526,0.179956000000175,
-0.181097413574219,0.142885955078125,-0.0246123930664037,0.231988015324746,0.183854999999994,
-0.176309010253906,0.181193181640625,-0.0270065947265596,0.254254188418774,0.187851000000137,
-0.195462623535156,0.164433770019531,-0.106015249511715,0.276556205952992,0.191665000000057,
-0.178703211914063,0.214712004882812,-0.038977603027341,0.282055555745595,0.195614000000205,
-0.195462623535156,0.128520745117187,-0.0246123930664037,0.235221149170687,0.199522999999999,
-0.200251026855469,0.19076998828125,-0.00306457812499694,0.276591854226733,0.203357000000096,
-0.130819178710938,0.19076998828125,-0.0294007963867156,0.233176441296297,0.207272999999986,
-0.200251026855469,0.157251165039062,-0.0150355864257783,0.255057780751694,0.211213000000043,
-0.190674220214844,0.171616375,-0.0557370146484342,0.262517529366325,0.215084000000161,
-0.183491615234375,0.166827971679687,-0.0437660063476528,0.25182574989008,0.218923000000132,
-0.197856825195313,0.185981584960938,-0.060525417968746,0.278208194417854,0.222702000000027,
-0.161943800292969,0.169222173339844,-0.0677080229492155,0.243816149536655,0.226493000000119,
-0.205039430175782,0.145280156738281,-0.0581312163085901,0.25792776155006,0.230351000000155,
-0.166732203613281,0.166827971679687,-0.0868616362304646,0.251348649698249,0.234259000000065,
-0.209827833496094,0.166827971679687,-0.0796790312499969,0.279657003962642,0.238086000000067,
-0.171520606933594,0.176404778320312,-0.060525417968746,0.253379736043351,0.242012000000159,
-0.197856825195313,0.157251165039062,-0.0581312163085901,0.259334707457423,0.24600200000009,
-0.17391480859375,0.159645366699219,-0.0413718046874969,0.239676093884703,0.249978000000056,
-0.164338001953125,0.169222173339844,-0.127563064453122,0.268170576776195,0.253869000000122,
-0.193068421875,0.154856963378906,-0.077284829589841,0.259285633070885,0.257781000000023,
-0.197856825195313,0.178798979980469,-0.0126413847656224,0.266976034743228,0.261744000000135,
-0.197856825195313,0.157251165039062,-0.0724964262695273,0.262927716310708,0.265618000000131,
-0.195462623535156,0.193164189941406,-0.0341891997070274,0.276924074163972,0.269607000000178,
-0.183491615234375,0.193164189941406,-0.0892558378906223,0.28097719077284,0.273530000000164,
-0.171520606933594,0.217106206542969,-0.0198239897460901,0.277393969097743,0.277448000000049,
-0.195462623535156,0.176404778320312,-0.0174297880859342,0.263871333278561,0.281391000000212,
-0.178703211914063,0.157251165039062,-0.0509486113281223,0.243430745492037,0.285335000000032,
-0.209827833496094,0.154856963378906,-0.113197854492183,0.284292372529116,0.289218000000119,
-0.00392649072265649,0.0231758720703125,-0.0868616362304646,0.0899860112697977,0.293010000000095,
0.173244432128906,0.0351468803710937,0.116645504882817,0.211790250655818,0.29678899999999,
-0.0973003554687503,-0.0654095893554688,-0.362194827148434,0.380697867563085,0.300539000000072,
0.242676280273437,-0.221032697265625,-0.022218191406246,0.328999815041337,0.304378000000042,
0.3815399765625,-0.182725470703125,0.224384579589847,0.478863018948743,0.308179000000109,
0.2283110703125,-0.00794874951171881,0.157346933105472,0.277393555807876,0.311746000000085,
0.503644261230469,-0.1731486640625,-0.0126413847656224,0.53272676518625,0.314743000000135,
0.103812583984375,0.219500408203125,0.0783382783203166,0.255135978734954,0.317711000000145,
-0.018291700683594,0.197952593261719,-0.146716677734371,0.247074075973885,0.320789999999988,
-0.228981446777344,0.399065532714844,0.0376368500976589,0.461630084433956,0.323796000000129,
-0.755705812011719,0.540323430664063,-0.122774661132809,0.937077532250747,0.326857000000018,
-0.695850770507813,0.638485698730469,0.207625167968754,0.966943893239781,0.329873000000134,
-0.928088331542969,0.518775615722656,-0.0294007963867156,1.06364491135097,0.332920000000058,
-0.487555226074219,0.300903264648438,0.198048361328128,0.606198009377404,0.335960999999998,
-0.432488587890625,0.126126543457031,-0.0820732329101528,0.457919533521305,0.338896000000204,
-0.0925119521484377,-0.127658832519531,-0.17305289599609,0.234099431061244,0.341960000000199,
0.237887876953125,-0.381444208496094,0.0998860932617216,0.460507934593494,0.344996000000037,
0.257041490234375,-0.458058661621094,-0.220936929199215,0.569825580219066,0.347925000000032,
0.348021153320312,-0.374261603515625,-0.0246123930664037,0.511660278814901,0.350932000000057,
0.166061827148437,-0.276099335449219,-0.144322476074215,0.353038738060811,0.353869000000032,
-0.0805409438476564,-0.177937067382813,-0.563307766601559,0.596208087414372,0.356884000000036,
-0.386998756347657,0.26738444140625,-0.534577346679685,0.712064194089168,0.359821000000011,
-0.829926063476563,0.767772588378906,-0.54415415332031,1.25473334253916,0.362890999999991,
-1.12920127099609,1.15802745898438,-0.168264492675778,1.62617220664862,0.365905999999995,
-1.52903294824219,1.320833171875,0.205230966308598,2.03092633403271,0.368918000000122,
-1.92886462548828,1.41899543994141,0.518871383789065,2.45016209972927,0.371945000000096,
-1.97435445703125,1.43814905322266,0.619427853515628,2.51992838925938,0.374899000000141,
-1.84506756738281,1.29928535693359,0.0615788666992216,2.25747839940362,0.377883999999995,
-1.16032589257813,1.01198115771484,-0.177841299316404,1.54986759702229,0.380878000000166,
-0.652755140625,0.628908892089844,-0.72850768115234,1.16290116074411,0.38385500000004,
0.187609642089844,0.142885955078125,-0.716536672851559,0.754346457209715,0.386903000000075,
0.934600560058594,-0.28807034375,-0.0102471831054647,0.978042808148844,0.389825000000201,
1.63131324316406,-0.874649750488281,0.439862729003909,1.90254416603621,0.392857000000049,
1.78693635107422,-1.06858008496094,0.660129281738286,2.18421051855673,0.395809000000099,
1.85397399755859,-1.21941478955078,0.322546847656254,2.24237117389864,0.398772000000008,
1.69356248632812,-1.11885831982422,-0.153899282714841,2.03560379842393,0.401854000000185,
1.38710467382812,-1.04942647167969,-0.47951070849609,1.80424106348911,0.404817000000094,
0.992061399902344,-0.853101935546875,-0.580067178222652,1.43123955537192,0.40783300000021,
0.386328379882812,-0.505942694824219,-0.139534072753904,0.651688104086735,0.410798999999997,
-0.238558253417969,-0.132447235839844,0.212413571289066,0.345791607508369,0.413734000000204,
-0.851473878417969,0.384700322753906,0.554784408691409,1.08664062324311,0.416787000000113,
-1.16990269921875,0.655245110351563,0.473381552246098,1.42200864072124,0.419702000000143,
-1.57452277978516,1.01198115771484,-0.0796790312499969,1.87338639785101,0.422758000000158,
-1.65592563623047,1.20351729052734,-0.501058523437496,2.10751114474703,0.425763000000188,
-1.68944445947266,1.24182451708984,-0.608797598144529,2.18334267314932,0.428683000000092,
-1.59128219140625,1.2825259453125,-0.457962893554685,2.09446456760657,0.431746000000203,
-1.38777505029297,1.24421871875,-0.259244155761715,1.88180959254653,0.434673000000203,
-1.11723026269531,1.09577821582031,0.102280294921879,1.56824571317058,0.437742000000071,
-0.74852320703125,0.782137798339844,0.253114999511721,1.1117975220489,0.440719000000172,
-0.276865479980469,0.396671331054688,0.243538192871098,0.541584241159612,0.44370200000003,
0.2283110703125,-0.0103429511718751,0.147770126464847,0.272156079743995,0.446777000000111,
0.628142747558594,-0.34553118359375,-0.0341891997070274,0.717721402441619,0.449806000000081,
1.05191644140625,-0.735786054199219,-0.10362104785156,1.28788455958316,0.452907000000096,
1.19317433935547,-0.812400507324219,-0.0940442412109341,1.4465489648477,0.455898000000161,
1.15726131445312,-0.833948322265625,-0.0940442412109341,1.42953414560281,0.458854000000201,
1.00882081152344,-0.757333869140625,-0.0748906279296833,1.2636782127037,0.461995999999999,
0.759823838867187,-0.527490509765625,0.0639730683593775,0.927184478665914,0.464967000000115,
0.328867540039062,-0.290464545410156,0.0160890351562539,0.439069889748696,0.468029000000115,
-0.0996945571289065,-0.000766144531250068,-0.0198239897460901,0.101649310219129,0.47098300000016,
-0.5378334609375,0.272172844726562,-0.0820732329101528,0.608341108812222,0.47401600000012,
-0.817955055175782,0.521169817382813,0.0304542451171912,0.970358651161573,0.47700900000018,
-1.09328824609375,0.743830571777344,0.0256658417968776,1.32258150750436,0.4799280000002,
-1.22975774072266,0.875511663085938,-0.0629196196289037,1.51088836503596,0.482975000000124,
-1.29440118554688,0.875511663085938,-0.24966734912109,1.58250715213607,0.485941000000139,
-1.18666211083984,0.861146453125,-0.228119534179685,1.48383917622733,0.488955000000033,
-1.03822160791016,0.782137798339844,-0.125168862792965,1.30587552505449,0.492007000000058,
-0.8825985,0.652850908691406,-0.192206509277341,1.11451234330986,0.494981000000053,
-0.564169679199219,0.413430742675781,-0.0581312163085901,0.701848733151748,0.498074000000088,
-0.207433631835938,0.226683013183594,0.035242648437503,0.309282951925143,0.501026000000138,
0.0559285507812498,0.0351468803710937,0.0591846650390657,0.0886912090801406,0.504089000000022,
0.364780564941406,-0.180331269042969,0.0687614716796912,0.412689189513338,0.507043000000067,
0.55392249609375,-0.369473200195313,-0.0533428129882783,0.667971581011347,0.509991000000127,
0.66884417578125,-0.453270258300781,-0.120380459472653,0.81688304766313,0.513080000000173,
0.676026780761719,-0.486789081542969,-0.163476089355465,0.848940663419686,0.516042000000198,
0.580258714355469,-0.38383841015625,-0.0365834013671833,0.696685327786032,0.519062000000076,
0.376751573242187,-0.273705133789063,-0.0653138212890596,0.470236263440338,0.522030000000086,
0.156485020507812,-0.0893516059570313,-0.0150355864257783,0.180824058105104,0.524969000000056,
-0.0853293471679689,0.0950019218749999,0.104674496582035,0.165115756010012,0.528016000000207,
-0.379816151367188,0.248230828125,-0.0557370146484342,0.457149283793517,0.531016000000136,
-0.566563880859375,0.4397669609375,-0.0533428129882783,0.719190563567226,0.534084000000121,
-0.700639173828125,0.549900237304688,-0.144322476074215,0.902282937880631,0.53702700000008,
-0.841897071777344,0.614543682128906,-0.0868616362304646,1.04594433913113,0.539963000000171,
-0.784436231933594,0.681581328613281,-0.127563064453122,1.04697929535263,0.543019000000186,
-0.770071021972656,0.609755278808594,-0.149110879394527,0.993501350412151,0.545983000000206,
-0.686273963867188,0.557082842285156,-0.108409451171871,0.89054245028178,0.548975000000155,
-0.489949427734375,0.401459734375,-0.132351467773434,0.647099119983538,0.551957000000129,
-0.281653883300782,0.231471416503906,-0.060525417968746,0.36955548007982,0.554959000000053,
-0.106877162109375,0.109367131835937,-0.0724964262695273,0.16923247066809,0.557983000000149,
0.103812583984375,-0.0247081611328125,-0.0557370146484342,0.120391696648887,0.560947000000169,
0.225916868652344,-0.158783454101563,-0.0485544096679646,0.280371445650779,0.563981000000013,
0.345626951660156,-0.211455890625,-0.038977603027341,0.407051393477115,0.566899000000149,
0.364780564941406,-0.223426898925781,-0.0461602080078087,0.430250165050389,0.569969000000128,
0.269012498535156,-0.175542865722656,-0.0437660063476528,0.324188965552304,0.572966000000179,
0.261829893554687,-0.168360260742188,-0.0150355864257783,0.311650668882971,0.575952000000143,
0.0750821640624998,-0.0199197578125001,-0.038977603027341,0.0869101930119464,0.578998000000183,
-0.13560758203125,0.0950019218749999,-0.0317949980468715,0.168599238922085,0.581983000000037,
-0.284048084960938,0.241048223144531,-0.0246123930664037,0.373354162081484,0.585017999999991,
-0.427700184570313,0.358364104492187,-0.0701022246093714,0.562375854002597,0.588000000000193,
-0.571352284179688,0.411036541015625,-0.0365834013671833,0.704792746800809,0.591019000000188,
-0.571352284179688,0.475679985839844,-0.110803652832027,0.751659717589589,0.594087000000172,
-0.640784132324219,0.437372759277344,-0.0701022246093714,0.778982385353842,0.597026000000142,
-0.547410267578125,0.446949565917969,-0.0916500395507782,0.712616057406704,0.600074000000177,
-0.528256654296875,0.387094524414062,-0.09643844287109,0.66196498162945,0.603048000000172,
-0.382210353027344,0.310480071289063,-0.0341891997070274,0.493610706939745,0.60603100000003,
-0.269682875,0.174010576660156,-0.038977603027341,0.323307573984314,0.60904800000003,
-0.161943800292969,0.0997903251953124,-0.0437660063476528,0.195190590878603,0.611981000000014,
-0.00153228906250025,0.0255700737304687,-0.106015249511715,0.109066079554479,0.615022000000181,
0.0607169541015623,-0.0534385810546876,-0.0677080229492155,0.105482732388771,0.61794000000009,
0.146908213867187,-0.0821690009765625,-0.0916500395507782,0.191659849141109,0.620916000000079,
0.168456028808594,-0.0630153876953126,-0.0581312163085901,0.18901748870903,0.62400700000012,
0.115783592285156,-0.0510443793945313,-0.0341891997070274,0.131073530076958,0.626957000000175,
0.0894473740234373,0.0399352836914062,-0.0796790312499969,0.126271167034045,0.630018000000064,
-0.0302627089843752,0.150068560058594,-0.077284829589841,0.171491542525757,0.632980000000089,
-0.094906153808594,0.166827971679687,-0.0102471831054647,0.192207582907377,0.635934000000134,
-0.202645228515625,0.243442424804687,0.0280600434570353,0.317988472863006,0.638984000000164,
-0.329537916503907,0.296114861328125,-0.0724964262695273,0.448926476535928,0.641965000000027,
-0.456430604492188,0.336816289550781,-0.108409451171871,0.577517721569863,0.645026000000144,
-0.454036402832032,0.360758306152344,-0.0916500395507782,0.587107605387818,0.647959000000128,
-0.48037262109375,0.384700322753906,-0.0557370146484342,0.617947253594803,0.650890000000118,
-0.477978419433594,0.334422087890625,-0.0317949980468715,0.584219500029023,0.653959000000214,
-0.382210353027344,0.241048223144531,-0.0198239897460901,0.452307406983211,0.656868000000031,
-0.346297328125,0.200346794921875,-0.0509486113281223,0.403306879061399,0.659934000000021,
-0.257711866699219,0.126126543457031,-0.0916500395507782,0.301202657610576,0.662888000000066,
-0.11645396875,0.0710599052734375,-0.060525417968746,0.149245982175023,0.665898000000197,
-0.037445313964844,0.0303584770507812,-0.0701022246093714,0.0850770859982364,0.668825000000197,
0.0224097275390623,0.00881066210937498,-0.0174297880859342,0.0297257660607958,0.671797000000197,
0.0702937607421873,0.00162805712890618,-0.0485544096679646,0.0854481952266951,0.674855000000207,
0.087053172363281,0.0231758720703125,-0.0892558378906223,0.126814748599237,0.677800000000161,
0.0128329208984373,0.0471178886718749,-0.0533428129882783,0.072320363585806,0.680829000000131,
-0.0494163222656252,0.145280156738281,-0.0294007963867156,0.15624565170376,0.683811000000105,
-0.0901177504882814,0.157251165039062,-0.077284829589841,0.197033202135938,0.686813000000029,
-0.159549598632813,0.174010576660156,-0.0174297880859342,0.236726746959891,0.689865000000054,
-0.226587245117188,0.22907721484375,-0.0341891997070274,0.324017054160692,0.692825000000084,
-0.291230689941407,0.284143853027344,0.00411802685547258,0.406902939436612,0.695864000000029,
-0.367845143066406,0.269778643066406,-0.0102471831054647,0.456284527782713,0.698834000000033,
-0.358268336425781,0.255413433105469,-0.00785298144530877,0.440061236663262,0.701803000000154,
-0.367845143066406,0.22907721484375,-0.0437660063476528,0.435547796400966,0.704880000000003,
-0.375027748046875,0.233865618164062,-0.098832644531246,0.452887216411999,0.707865000000083,
-0.291230689941407,0.188375786621094,-0.0365834013671833,0.348767970152731,0.710944000000154,
-0.226587245117188,0.142885955078125,-0.0701022246093714,0.276897991512339,0.713919000000033,
-0.200251026855469,0.121338140136719,-0.101226846191404,0.25508879316498,0.716900000000123,
-0.0973003554687503,0.0614830986328125,-0.0126413847656224,0.11579004793431,0.719975000000204,
-0.0518105239257815,0.0830309135742187,-0.0724964262695273,0.121795709367311,0.723014000000148,
0.00804451757812485,0.085425115234375,-0.0198239897460901,0.08806335869886,0.726077000000032,
-0.0446279189453127,0.0806367119140625,-0.00306457812499694,0.0922134594123066,0.729029000000082,
-0.0206859023437502,0.1333091484375,0.0232716401367217,0.136897059309394,0.732028000000128,
-0.0589931289062502,0.1333091484375,0.00172382519531666,0.145789196748541,0.735137000000122,
-0.106877162109375,0.157251165039062,-0.0533428129882783,0.197474333482097,0.738070000000107,
-0.1547611953125,0.123732341796875,-0.0533428129882783,0.205197893942884,0.741093000000092,
-0.226587245117188,0.195558391601563,-0.0820732329101528,0.310356053164604,0.744012000000112,
-0.281653883300782,0.226683013183594,-0.0844674345703087,0.371280010163883,0.74697100000003,
-0.310384303222656,0.255413433105469,-0.108409451171871,0.416325649703597,0.749978000000056,
-0.386998756347657,0.22907721484375,-0.0653138212890596,0.454434046949149,0.753008000000136,
-0.317566908203125,0.214712004882812,-0.077284829589841,0.391053616670681,0.756031000000121,
-0.331932118164063,0.195558391601563,-0.0748906279296833,0.392467351185259,0.759042000000136,
-0.248135060058594,0.183587383300781,-0.0533428129882783,0.31324238384199,0.762031000000206,
-0.21222203515625,0.159645366699219,-0.00785298144530877,0.265681208654224,0.76501200000007,
-0.152366993652344,0.109367131835937,0.0280600434570353,0.189642390618457,0.767959000000019,
-0.126030775390625,0.0926077202148437,-0.0270065947265596,0.158711380649523,0.77102600000012,
-0.128424977050781,0.116549736816406,-0.0653138212890596,0.18531786512327,0.773996000000125,
-0.0685699355468752,0.104578728515625,0.00651222851562849,0.125223622528208,0.777014000000008,
-0.0326569106445315,0.147674358398437,-0.0629196196289037,0.163808023232933,0.77996700000017,
-0.0398395156250002,0.145280156738281,-0.10362104785156,0.182841003347141,0.782934000000068,
-0.0781467421875002,0.15246276171875,-0.0748906279296833,0.186977039170937,0.785951000000068,
-0.138001783691406,0.176404778320312,-0.0868616362304646,0.240225065230258,0.788916000000199,
-0.17391480859375,0.2099236015625,-0.0916500395507782,0.287600432702789,0.791996000000154,
-0.233769850097656,0.176404778320312,-0.077284829589841,0.302886007457674,0.794961000000058,
-0.2313756484375,0.178798979980469,-0.0413718046874969,0.29532252226173,0.797880000000077,
-0.269682875,0.166827971679687,-0.0916500395507782,0.330091131284504,0.800940000000082,
-0.264894471679688,0.197952593261719,-0.0701022246093714,0.33803643620279,0.803862000000208,
-0.286442286621094,0.19076998828125,-0.0940442412109341,0.356772604467453,0.806900000000041,
-0.293624891601563,0.166827971679687,-0.129957266113278,0.361850853416743,0.809810000000198,
-0.2313756484375,0.166827971679687,-0.0317949980468715,0.28701425874934,0.812782000000198,
-0.224193043457031,0.154856963378906,-0.0437660063476528,0.275968590881435,0.815904000000046,
-0.176309010253906,0.135703350097656,0.00172382519531666,0.222493231127922,0.818873000000167,
-0.142790187011719,0.130914946777344,-0.00306457812499694,0.19374507073895,0.821923000000197,
-0.147578590332031,0.106972930175781,-0.0485544096679646,0.188627089287267,0.824870000000146,
-0.104482960449219,0.121338140136719,-0.0102471831054647,0.16045135723224,0.82779400000004,
-0.0733583388671877,0.147674358398437,-0.0246123930664037,0.166718121097253,0.830890000000181,
-0.130819178710938,0.102184526855469,-0.0509486113281223,0.173640709637874,0.833883000000014,
-0.130819178710938,0.123732341796875,-0.0509486113281223,0.187133938454271,0.836973000000171,
-0.159549598632813,0.178798979980469,-0.038977603027341,0.242784684862338,0.840008000000125,
-0.185885816894531,0.195558391601563,-0.0629196196289037,0.27704782977418,0.842965000000049,
-0.233769850097656,0.178798979980469,-0.0820732329101528,0.305537941370726,0.846027000000049,
-0.25052926171875,0.157251165039062,-0.0868616362304646,0.308281987362412,0.8489840000002,
-0.252923463378906,0.2099236015625,-0.0916500395507782,0.341230020030787,0.852114000000029,
-0.238558253417969,0.174010576660156,-0.0437660063476528,0.29850491516063,0.85506700000019,
-0.226587245117188,0.159645366699219,-0.038977603027341,0.279906549219702,0.858067000000119,
-0.260106068359375,0.193164189941406,-0.0677080229492155,0.330986325162813,0.86106000000018,
-0.214616236816406,0.171616375,-0.00545877978515286,0.27484924513289,0.864029000000073,
-0.17391480859375,0.157251165039062,-0.0916500395507782,0.251741969691195,0.867089000000078,
-0.185885816894531,0.169222173339844,-0.0557370146484342,0.25748067048679,0.870017000000189,
-0.169126405273438,0.15246276171875,-0.0557370146484342,0.23442536013312,0.872997000000169,
-0.111665565429688,0.140491753417969,-0.0581312163085901,0.188643498670649,0.875976000000037,
-0.128424977050781,0.147674358398437,-0.0868616362304646,0.214115937537395,0.878898000000163,
-0.123636573730469,0.1333091484375,-0.0724964262695273,0.195737230088693,0.882034000000203,
-0.106877162109375,0.174010576660156,-0.0461602080078087,0.209363734618673,0.885014000000183,
-0.152366993652344,0.164433770019531,-0.0748906279296833,0.23635306562258,0.888086000000158,
-0.178703211914063,0.145280156738281,-0.0365834013671833,0.233194140462179,0.891049000000066,
-0.195462623535156,0.162039568359375,-0.0365834013671833,0.256516674251268,0.894003999999995,
-0.178703211914063,0.176404778320312,-0.038977603027341,0.254111663054646,0.897053000000142,
-0.195462623535156,0.166827971679687,0.00172382519531666,0.256982841659339,0.900023000000147,
-0.228981446777344,0.181193181640625,-0.0365834013671833,0.294281867088155,0.903088000000025,
-0.233769850097656,0.176404778320312,-0.0724964262695273,0.301699719010098,0.906071999999995,
-0.245740858398438,0.200346794921875,-0.13474566943359,0.344505156932339,0.908994000000121,
-0.245740858398438,0.181193181640625,-0.0916500395507782,0.318777772608306,0.91202700000008,
-0.207433631835938,0.145280156738281,-0.0509486113281223,0.258323046890538,0.915009000000055,
-0.262500270019531,0.185981584960938,-0.09643844287109,0.335851030917444,0.91801200000009,
-0.190674220214844,0.147674358398437,-0.0557370146484342,0.247529774340076,0.921004000000039,
-0.183491615234375,0.176404778320312,-0.132351467773434,0.286888008981451,0.923946999999998,
-0.1547611953125,0.159645366699219,-0.0581312163085901,0.229819296388702,0.926981000000069,
-0.169126405273438,0.164433770019531,-0.0317949980468715,0.238019174824953,0.929906000000074,
-0.157155396972656,0.140491753417969,-0.110803652832027,0.238145335996759,0.932950000000119,
-0.188280018554688,0.138097551757812,-0.077284829589841,0.245953743767372,0.935906000000159,
-0.176309010253906,0.178798979980469,-0.10362104785156,0.27164547464779,0.938814000000093,
-0.183491615234375,0.159645366699219,-0.0246123930664037,0.244461829049656,0.941855000000032,
-0.207433631835938,0.176404778320312,-0.0653138212890596,0.280023664504029,0.944831000000022,
-0.185885816894531,0.166827971679687,-0.0533428129882783,0.255402750092493,0.947895000000017,
-0.188280018554688,0.169222173339844,0.0208774384765658,0.254010583980582,0.950850000000173,
-0.2313756484375,0.178798979980469,-0.122774661132809,0.317139375272459,0.953882000000021,
-0.243346656738281,0.178798979980469,-0.0294007963867156,0.303399204705497,0.956811000000016,
-0.2313756484375,0.1333091484375,-0.0198239897460901,0.267766708753083,0.959792000000107,
-0.207433631835938,0.147674358398437,-0.038977603027341,0.257595965191217,0.962824000000182,
-0.214616236816406,0.138097551757812,-0.0509486113281223,0.260243777837246,0.965849000000162,
-0.178703211914063,0.166827971679687,-0.0916500395507782,0.261086460454808,0.968864000000167,
-0.17391480859375,0.162039568359375,-0.0246123930664037,0.238974794182877,0.971850000000131,
-0.164338001953125,0.145280156738281,-0.0892558378906223,0.236811966389796,0.974799000000075,
-0.157155396972656,0.171616375,-0.122774661132809,0.263103812937118,0.977861000000075,
-0.145184388671875,0.157251165039062,-0.0270065947265596,0.215721560765013,0.980862000000116,
-0.1547611953125,0.142885955078125,-0.0365834013671833,0.213789075934048,0.983943000000181,
-0.176309010253906,0.178798979980469,-0.022218191406246,0.252086473988853,0.986905000000206,
-0.152366993652344,0.164433770019531,-0.038977603027341,0.227537730970594,0.989840000000186,
-0.188280018554688,0.178798979980469,-0.0102471831054647,0.259852737893228,0.99291200000016,
-0.183491615234375,0.140491753417969,-0.0102471831054647,0.23132684755854,0.995910000000094,
-0.161943800292969,0.150068560058594,-0.0485544096679646,0.226061712524685,0.998919000000114,
-0.164338001953125,0.174010576660156,-0.0437660063476528,0.243314863884573,1.0018570000002,
-0.209827833496094,0.195558391601563,-0.0629196196289037,0.293648910724526,1.0048240000001,
-0.197856825195313,0.188375786621094,-0.0317949980468715,0.27503396547024,1.007836,
-0.202645228515625,0.176404778320312,-0.108409451171871,0.28971769631449,1.01083200000016,
-0.164338001953125,0.154856963378906,-0.0940442412109341,0.244605758922029,1.01390400000014,
-0.205039430175782,0.188375786621094,-0.0796790312499969,0.289612418471417,1.01686800000016,
-0.178703211914063,0.147674358398437,-0.09643844287109,0.251083506706819,1.01983900000005,
-0.166732203613281,0.157251165039062,-0.0437660063476528,0.233330280802784,1.02286400000003,
-0.200251026855469,0.1333091484375,-0.0437660063476528,0.244514347483791,1.02583200000004,
