X,Y,Z,Magnitude,Seconds,
-0.875942619384766,-9.37210239868164,-6.85771181518555,11.6461062241405,0.0,
-0.919038249267578,-9.29548794555664,-7.05882475463867,11.708020087372,0.00303800000006049,
-0.528783378662109,-9.42477483520508,-6.94390307495117,11.7185230498634,0.00608499999998457,
-0.421044303955078,-8.98424172973633,-6.7834915637207,11.2654176824163,0.00906600000007529,
0.462416108642578,-9.13507643432617,-7.01094072143555,11.5246145236184,0.0121220000000903,
0.349888630615234,-8.96748231811524,-6.24479619018555,10.933235597777,0.0151260000000093,
0.371436445556641,-8.87171425170899,-6.1322687121582,10.7912000424039,0.0181070000001,
-0.0307894333496094,-8.43596954956055,-6.25437299682617,10.5016052017655,0.0211510000001454,
-0.145711113037109,-8.25879862670899,-5.77792686645508,10.0803484740904,0.0240989999999783,
0.474387116943359,-9.02494315795899,-5.64385157348633,10.6549379502959,0.0271750000001703,
0.0314598098144531,-8.86453164672852,-5.9790398059082,10.6925127091867,0.0301779999999781,
-0.528783378662109,-8.6682071105957,-5.83299350463867,10.46141671089,0.0331540000001951,
-0.842423796142578,-8.41442173461914,-6.00777022583008,10.3733058407968,0.0362210000000687,
-0.995652702392578,-8.57243904418945,-6.53449459106445,10.8248628181043,0.0392150000000129,
-1.31647572485352,-8.62271727905274,-6.31422803833008,10.7681863528004,0.0422360000000026,
-2.02515941625977,-8.35217249145508,-7.15459282104492,11.182497682684,0.0452110000001085,
-2.21430134741211,-8.30428845825196,-7.52569407836914,11.4236775434274,0.0481590000001688,
-1.97009277807617,-8.94832870483399,-7.11867979614258,11.6029933294815,0.0512080000000878,
-2.36753025366211,-8.54610282592774,-6.45069753295898,10.9659733573932,0.0541580000001431,
-2.68356487280273,-8.53892022094727,-7.00136391479492,11.363704309495,0.0571990000000824,
-2.58061420141602,-8.39526812133789,-6.57519601928711,10.9714766179285,0.0601460000000316,
-2.3076752121582,-8.72087954711914,-6.44112072631836,11.0845451494943,0.0631630000000314,
-2.26697378393555,-8.37132610473633,-6.46506274291992,10.8173613769155,0.0661340000001474,
-2.30528101049805,-7.98346543579102,-6.77152055541992,10.7193064856971,0.0690940000001774,
-1.95093916479492,-8.01937846069336,-6.53688879272461,10.5284143919686,0.0721340000000055,
-1.42900320288086,-8.1319059387207,-6.07959627563476,10.2533621424758,0.0750990000001366,
-1.00762371069336,-8.12951173706055,-5.9407325793457,10.1191190429136,0.0781030000000555,
-0.976499089111328,-8.07683930053711,-5.70131241333008,9.93447768089132,0.0810820000001513,
-0.892702031005859,-8.29471165161133,-5.39485460083008,9.93496927341178,0.0840220000000045,
-0.763415141357422,-8.31625946655274,-4.97347510864258,9.72000148402093,0.0870500000000902,
-0.842423796142578,-8.57243904418945,-4.92798527709961,9.92378092815241,0.090020000000095,
-0.763415141357422,-8.6466592956543,-5.24641409790039,10.142602256809,0.0930630000000292,
-0.799328166259766,-8.85734904174805,-5.9407325793457,10.6950390903461,0.0960130000000845,
-0.717925309814453,-8.91720408325195,-5.91439636108398,10.7243661690955,0.0989570000001549,
-0.696377494873047,-8.94354030151367,-5.76116745483398,10.6612806539741,0.101985000000013,
-0.729896318115235,-9.53011970825195,-6.47463954956055,11.5445609524808,0.104939000000059,
-0.550331193603516,-9.71686743774414,-6.88883643676758,11.9237764436391,0.1079900000002,
-0.373160270751953,-9.8341833190918,-7.7028650012207,12.4973813004246,0.110979000000043,
-0.0762792648925781,-9.75038626098633,-8.16973432495117,12.7208651319385,0.113919000000124,
0.203842329345703,-9.58279214477539,-8.30141541625976,12.6801007448095,0.116984000000002,
0.357071235595703,-9.40801542358399,-7.42274340698242,11.9889688365424,0.119957000000113,
0.428897285400391,-9.42716903686524,-6.42436131469726,11.4161240021661,0.123019999999997,
0.699442072998047,-9.53730231323242,-5.81144568969726,11.1902750471903,0.125993000000108,
0.845488374267578,-9.47505307006836,-5.75398484985351,11.1175457239436,0.128962000000001,
0.79999854272461,-9.47744727172852,-6.06044266235351,11.2778973980273,0.132011000000148,
0.761691316162109,-9.39365021362305,-6.41239030639648,11.3991046770606,0.135085000000117,
0.740143501220703,-9.40801542358399,-6.57519601928711,11.5018159133609,0.138235000000122,
0.723384089599609,-9.16620105590821,-5.8808775378418,10.9145429108832,0.141320000000178,
0.268485774169922,-8.86213744506836,-5.37330678588867,10.3673521461119,0.144329000000198,
0.847882575927735,-9.31942996215821,-4.5233651965332,10.3938208750845,0.147367000000031,
0.548607368408203,-9.04170256958008,-4.33661746704101,10.0428883523052,0.150336000000152,
0.318764009033203,-8.7065143371582,-4.87291863891601,9.98250161322759,0.153402000000142,
-0.148105314697266,-8.62271727905274,-5.50498787719726,10.2312306193735,0.156378000000132,
-0.550331193603516,-9.10155761108399,-6.11072089721679,10.9764349974942,0.159407999999985,
-0.734684721435547,-9.89164415893555,-6.89123063842773,12.0778079765709,0.162375000000111,
-0.993258500732422,-10.4423105407715,-7.19529424926758,12.7200892769166,0.165337000000136,
-1.29732211157227,-10.9043914611816,-7.44668542358398,13.2680790470092,0.168362000000116,
-1.65884656225586,-11.2419738952637,-7.3197927355957,13.517141512575,0.17134800000008,
-1.95572756811523,-11.6346229675293,-7.19529424926758,13.8188849496184,0.174378000000161,
-2.1328984909668,-11.9913590148926,-6.94869147827148,14.0223485998964,0.177365000000009,
-2.09219706274414,-12.1421937194824,-6.51055257446289,13.9354745773382,0.18032600000015,
-2.1712057175293,-12.4654109436035,-6.16578753540039,14.075423268678,0.183363999999983,
-2.1927535324707,-12.7862339660645,-5.78032106811523,14.2023962323123,0.186321000000135,
-1.87193051000977,-12.5156891784668,-5.10515619995117,13.6458498918974,0.189375000000155,
-1.3499945480957,-12.3217588439941,-4.13071612426758,13.0656435734609,0.192324000000099,
-1.03395992895508,-12.7622919494629,-3.53216570922851,13.2823704034882,0.195249999999987,
-1.03156572729492,-13.6433581604004,-3.36935999633789,14.0910587440268,0.198281000000179,
-1.13930480200195,-14.5627315979004,-3.3358411730957,14.9832908053095,0.201232000000118,
-1.15367001196289,-15.0152357116699,-3.21613109008789,15.3990829974431,0.204262000000199,
-1.1967656418457,-14.8189111755371,-2.97671092407226,15.1622288716221,0.207232000000204,
-1.30689891821289,-14.3783780700684,-2.82348201782226,14.7111451428233,0.210170000000062,
-1.80728706518555,-13.882778326416,-3.11318041870117,14.3418866581694,0.213212000000112,
-2.06346664282227,-13.5523784973145,-3.26880352661133,14.0929036758256,0.216149000000087,
-2.47048092504883,-12.8987614440918,-3.24246730834961,13.527561385495,0.219196000000011,
-3.00678209692383,-12.3337298522949,-3.69497142211914,13.2217413549823,0.222150000000056,
-3.33718192602539,-11.8692547302246,-4.0636784777832,12.9818902255853,0.225093000000015,
-3.71307158666992,-11.5149128845215,-4.33901166870117,12.8532930257961,0.228126000000202,
-3.75137881323242,-11.4598462463379,-4.5233651965332,12.8787325343483,0.231099000000086,
-3.77771503149414,-11.3832317932129,-4.81066939575195,12.9225244032431,0.234131000000161,
3.60360868676758,6.58764586791992,2.31208054321289,7.85676715238353,15.0842380000001,
3.5365710402832,6.10401713256836,2.09181399047852,7.35812786301105,15.088264,
3.70416515649414,5.71136806030273,1.91464306762696,7.07152195098364,15.0912080000001,
3.48389860375977,5.49349570922852,1.89788365600586,6.77628268007803,15.0941700000001,
3.34024650415039,5.32590159301758,2.05350676391602,6.61357426180767,15.0972310000002,
3.37615952905273,4.93564672241211,1.81887500122071,6.25038942819858,15.1001820000001,
3.33066969750977,4.67228453979492,2.25461970336914,6.16497473324399,15.10319,
3.40967835229492,4.40652815551758,2.03674735229492,5.93226235331498,15.1061580000001,
3.25644944604492,4.07612832641602,1.94816189086914,5.56907711215172,15.1090920000001,
3.0385770949707,3.93008202514648,2.01519953735352,5.3609257280632,15.1121110000001,
3.07209591821289,3.62123001098633,2.02238214233399,5.1615026545377,15.115096,
2.73451348413086,3.66432564086914,1.89548945434571,4.9495178218449,15.1181700000002,
2.40171945336914,3.66193143920898,1.90267205932618,4.77474179024368,15.1211230000001,
2.21497172387695,3.67150824584961,1.67043449829102,4.6017848656795,15.124043,
1.96836895288086,3.57095177612305,1.56269542358399,4.36671385700414,15.1270500000001,
1.78401542504883,3.59489379272461,1.48608097045899,4.27953374429299,15.1300040000001,
1.68824735864258,3.56855757446289,1.39510130737305,4.18701444516903,15.1330500000001,
1.50868223413086,3.58052858276367,1.30651584594727,4.09918170752176,15.1360030000001,
1.2764446730957,3.5350387512207,1.2993332409668,3.97669169627062,15.1389730000001,
1.26447366479492,3.69784446411133,0.971327613525393,4.02696221270024,15.1420450000001,
1.17588820336914,3.64756622924805,0.923443580322267,3.94210610075527,15.145045,
1.00350568383789,3.72178648071289,0.698388624267581,3.91745643702882,15.1480820000002,
0.840699970947266,3.70742127075195,0.597832154541019,3.84826612969762,15.1510350000001,
0.618039216552734,3.70742127075195,0.420661231689456,3.78204981774006,15.154047,
0.785633332763672,3.74094009399414,0.339258375244142,3.83757068541747,15.1570000000002,
0.783239131103516,3.82952555541992,0.265038123779298,3.91777675769849,15.1599640000002,
0.601279804931641,3.88698639526367,0.231519300537112,3.94002561251887,15.163031,
0.615645014892578,3.93008202514648,0.23870190551758,3.98516525484694,15.166054,
0.716201484619141,3.98275446166992,0.190817872314456,4.05113430151568,15.169112,
0.797604341064453,4.06655151977539,0.212365687255861,4.14947142814552,15.1721250000001,
0.881401399169922,4.13598336791992,0.296162745361331,4.23921445764529,15.175115,
0.922102827392578,4.15274277954102,0.269826527099612,4.26243505194414,15.1781800000001,
0.986746272216797,4.13598336791992,0.243490308837893,4.25902737205831,15.1812080000002,
1.0633607253418,4.16710798950195,0.190817872314456,4.30487357407451,15.184303,
1.06814912866211,4.10007034301758,0.109415015869143,4.23833587914544,15.1872400000002,
1.14715778344727,4.02824429321289,0.0926556042480495,4.18942813841274,15.1901850000002,
1.14955198510742,3.96838925170898,0.011252747802736,4.13155051329122,15.193272,
1.19264761499023,3.91092841186524,-0.211408006591794,4.09419866659249,15.196263,
1.2165896315918,3.80797774047852,-0.268868846435545,4.00662891471872,15.1993070000001,
1.24292584985352,3.6882676574707,-0.381396324462889,3.91070916045828,15.2022710000001,
1.26447366479492,3.59728799438477,-0.489135399169919,3.84429811568065,15.205205,
1.2548968581543,3.48476051635742,-0.592086070556638,3.75085162275401,15.2082740000001,
1.24053164819336,3.32434900512695,-0.774045396728514,3.63171603436371,15.2112360000001,
1.19743601831055,3.21421572875977,-0.879390269775389,3.54095509933827,15.214326,
1.19743601831055,3.11605346069336,-0.965581529541014,3.47505250004043,15.2173770000002,
1.18307080834961,2.9771897644043,-1.04219598266601,3.36890010198104,15.220329,
1.10406215356445,2.88860430297852,-1.1906364855957,3.31369933744011,15.2234290000001,
1.08251433862305,2.80001884155273,-1.28161614868164,3.26412051844542,15.226402,
1.06575492700195,2.67791455688477,-1.46118127319336,3.23142548289996,15.2294810000001,
1.00350568383789,2.62524212036133,-1.67426522094726,3.27140396131199,15.232485,
0.967592658935547,2.54144506225586,-1.80834051391601,3.26577310484986,15.235484,
0.867036189208985,2.42173497924805,-2.06452009155273,3.29830187695676,15.238554,
0.850276777587891,2.34990892944336,-2.17225916625976,3.31115575903376,15.2415090000002,
0.756902912841797,2.29963069458008,-2.38773731567383,3.40036657429526,15.2445540000001,
0.677894258056641,2.25174666137695,-2.50984160034179,3.43936164294113,15.2475200000001,
0.534242158447266,2.23738145141602,-2.78756899291992,3.61411556722961,15.2505630000001,
0.495934931884766,2.32836111450195,-2.9695283190918,3.80595787865242,15.2535340000002,
0.416926277099609,2.31639010620117,-3.16106445190429,3.94104289671349,15.256535,
0.292427790771484,2.33314951782227,-3.35738898803711,4.09892199271011,15.2596130000002,
0.306793000732422,2.39539876098633,-3.47231066772461,4.2295388096845,15.2625800000001,
0.302004597412109,2.30681329956055,-3.56807873413086,4.25955164645815,15.265572,
0.285245185791016,2.43610018920898,-3.65666419555664,4.40308323643182,15.2685690000001,
0.225390144287109,2.60608850708008,-3.86735394165039,4.6689318407828,15.271522,
0.108074262939453,2.89578690795898,-3.99664083129883,4.93663851188453,15.274572,
0.124833674560547,2.93169993286133,-3.9870640246582,4.95046740009133,15.277511,
0.0769496413574219,3.03465060424805,-3.97748721801758,5.00354175626239,15.2806110000001,
0.148775691162109,3.44645328979492,-4.06846688110351,5.33409760387408,15.283633,
0.0841322463378906,3.77445891723633,-4.15944654418945,5.61734936662731,15.286615,
0.132016279541016,3.88698639526367,-4.22887839233398,5.74538980332736,15.289708,
0.234966950927734,4.00430227661133,-4.12592772094726,5.75438317710804,15.2926620000001,
0.412137873779297,4.0880993347168,-4.2169073840332,5.88767540571226,15.2956940000001,
0.512694343505859,4.20062681274414,-4.23606099731445,5.98768184548717,15.298724,
0.577337788330078,4.24372244262695,-4.24084940063476,6.02721351295553,15.301686,
0.728172492919922,4.2245688293457,-4.26000301391601,6.04357862957851,15.304797,
0.850276777587891,4.14556017456055,-4.35098267700195,6.06957082625936,15.3078010000002,
1.01068828881836,4.0114848815918,-4.3701362902832,6.01760691371947,15.3109200000001,
1.11603316186523,3.90135160522461,-4.46351015502929,6.03232934031467,15.313973,
1.22616643823242,3.80079513549805,-4.52815359985351,6.03769018914846,15.316986,
1.23334904321289,3.68108505249023,-4.66462309448242,6.06879276624601,15.320091,
1.2764446730957,3.55658656616211,-4.67898830444336,6.01427888937626,15.3231600000001,
1.30756929467773,3.42729967651367,-4.7699679675293,6.01736777538737,15.3262810000001,
1.30038668969727,3.37702144165039,-4.76517956420898,5.98349526942766,15.329277,
1.35066492456055,3.30040698852539,-4.80348679077148,5.98251346655079,15.3322580000001,
1.3698185378418,3.25970556030273,-4.68617090942383,5.8704583261287,15.335376,
1.43206778100586,3.21900413208008,-4.69095931274414,5.86667750993393,15.338375,
1.45122139428711,3.18548530883789,-4.65744048950195,5.82624339530291,15.341435,
1.4679808059082,3.2453403503418,-4.5784318347168,5.80079647128045,15.3443650000002,
1.47995181420898,3.18069690551758,-4.56885502807617,5.76034082713223,15.3473860000001,
1.51825904077148,3.19266791381836,-4.53773040649414,5.75232441408089,15.350406,
1.51825904077148,3.19745631713867,-4.48984637329101,5.71730337402598,15.3533640000001,
1.49910542749023,3.19985051879883,-4.46351015502929,5.69291518726895,15.3565480000002,
1.54698946069336,3.22139833374023,-4.5018173815918,5.74777725327998,15.3595260000002,
1.47755761254883,3.25252295532227,-4.42280872680664,5.6853600683876,15.3626260000001,
1.51825904077148,3.27167656860352,-4.42520292846679,5.70888772376412,15.3656570000001,
1.49192282250977,3.30998379516602,-4.3701362902832,5.68154183547366,15.3686270000001,
1.48234601586914,3.35068522338867,-4.26000301391601,5.61890263802211,15.371713,
1.50149962915039,3.4584242980957,-4.21451318237304,5.65484934603865,15.3746820000001,
1.47755761254883,3.64756622924805,-4.0636784777832,5.65697787391379,15.377792,
1.48713441918945,3.71699807739258,-3.86735394165039,5.56633362259907,15.380795,
1.38418374780273,3.79840093383789,-3.81468150512695,5.55838189470815,15.3837580000002,
1.3698185378418,3.82473715209961,-3.62793377563476,5.44673485582487,15.3868300000001,
1.25968526147461,3.88698639526367,-3.44118604614258,5.34202504665671,15.3898360000001,
1.1232157668457,3.93726463012695,-3.28316873657226,5.24812951244013,15.392875,
0.991534675537109,3.92289942016602,-3.09402680541992,5.09365121952695,15.3958790000001,
0.840699970947266,3.93965883178711,-2.92403848754883,4.9777192798204,15.3988830000001,
0.749720307861328,3.92768782348633,-2.71334874145508,4.83229485560829,15.4019460000002,
0.574943586669922,3.89416900024414,-2.61997487670898,4.72857068096709,15.4049100000002,
0.361859638916016,3.91332261352539,-2.44280395385742,4.62734561414933,15.4079390000002,
0.187082917724609,3.88219799194336,-2.29196924926758,4.5121596055926,15.4109040000001,
0.0386424147949219,3.83670816040039,-2.11479832641601,4.38111797441202,15.4138740000001,
-0.0571256516113282,3.82234295043945,-2.04057807495117,4.33330449551121,15.4168970000001,
-0.131345903076172,3.76727631225586,-1.97832883178711,4.25715956076574,15.4198410000001,
-0.248661784423828,3.7265748840332,-1.81552311889648,4.1527481556901,15.4229090000001,
-0.222325566162109,3.74572849731445,-1.79876370727539,4.16118510854468,15.4259400000001,
-0.205566154541016,3.69066185913086,-1.82031152221679,4.12028839284961,15.428891,
-0.198383549560547,3.62123001098633,-1.74848547241211,4.02614757211413,15.431922,
-0.119374894775391,3.72178648071289,-1.63835219604492,4.0681866834998,15.4348730000002,
-0.0714908615722656,3.81516034545898,-1.41329723999023,4.06914837446548,15.4378960000001,
0.00991199487304689,3.83670816040039,-1.25767413208008,4.03759482591167,15.4408910000002,
0.100891657958984,3.86065017700195,-1.22176110717773,4.05061712814765,15.4439910000001,
0.177506111083984,3.98275446166992,-1.08768581420898,4.13242083431193,15.4470490000001,
0.328340815673828,4.07612832641602,-0.963187327880856,4.20123311103284,15.4500390000001,
0.361859638916016,4.17189639282227,-0.580115062255857,4.22755193890932,15.4531460000001,
0.330735017333984,4.24611664428711,-0.529836827392575,4.29180839183722,15.4561520000002,
0.474387116943359,4.37061513061523,-0.295205064697264,4.40618494697029,15.4592160000002,
0.486358125244141,4.36822092895508,-0.268868846435545,4.40342920537344,15.462256,
0.572549385009766,4.37540353393555,-0.0198718737792944,4.41275013732006,15.4653040000001,
0.632404426513672,4.45201798706055,0.202788880615238,4.50128013412695,15.468349,
0.606068208251953,4.46638319702148,0.174058460693361,4.5106755462379,15.471321,
0.656346443115234,4.5094788269043,0.389536610107424,4.57361221730725,15.47442,
0.572549385009766,4.45680639038086,0.317710560302737,4.50465048585821,15.4774200000002,
0.536636360107422,4.35385571899414,0.241096107177738,4.39342298643138,15.48037,
0.594097199951172,4.21738622436523,0.243490308837893,4.26598002561585,15.4834080000001,
0.433685688720703,4.28202966918945,0.195606275634768,4.30837825399391,15.486347,
0.378619050537109,4.26766445922852,0.327287366943361,4.29690927790576,15.4894160000001,
0.428897285400391,4.15034857788086,0.420661231689456,4.19360251707145,15.4923470000001,
0.469598713623047,4.03063849487305,0.446997449951175,4.08244734790931,15.4953330000001,
0.340311823974609,4.10725294799805,0.444603248291019,4.14523955456937,15.4984790000001,
0.397772663818359,4.13358916625977,0.4182670300293,4.17369498117804,15.5014450000001,
0.404955268798828,4.08331093139648,0.408690223388675,4.12364458105732,15.5045260000002,
0.378619050537109,4.09288773803711,0.482910474853519,4.13863322225193,15.507472,
0.474387116943359,4.05936891479492,0.492487281494142,4.11655958848632,15.5104600000002,
0.551001570068359,4.08570513305664,0.537977113037112,4.15764459022833,15.5135150000001,
0.656346443115234,4.08570513305664,0.511640894775393,4.16959872084616,15.5165010000001,
0.665923249755859,4.12880076293945,0.468545264892581,4.20832320287642,15.5195970000002,
0.785633332763672,4.13358916625977,0.470939466552737,4.23385912733601,15.522586,
0.926891230712891,4.16710798950195,0.468545264892581,4.29458391639944,15.5255260000001,
1.21180122827148,4.04021530151367,0.569101734619142,4.25625171762338,15.528548,
1.33390551293945,4.23175143432617,0.643321986083986,4.48340130895629,15.5315790000002,
1.48234601586914,4.23414563598633,0.863588538818362,4.56849254589341,15.534615,
1.61163290551758,4.39934555053711,0.961750806884767,4.78294538017331,15.5376410000001,
1.66191114038086,4.34667311401367,0.94738559692383,4.7490057136068,15.5407170000001,
1.83429365991211,4.17668479614258,1.26581441772461,4.73409075295794,15.543715,
1.90133130639648,4.12161815795898,1.23947819946289,4.70522084323832,15.5466730000001,
1.66191114038086,4.22696303100586,1.18680576293946,4.69442999979322,15.5497400000002,
1.47755761254883,4.09288773803711,1.01202904174805,4.46756189838675,15.5527240000001,
1.36742433618164,3.94923563842774,0.813310303955081,4.25767367156397,15.5557840000001,
1.2548968581543,3.88219799194336,0.554736524658205,4.11751866845124,15.558757,
1.07533173364258,3.71699807739258,0.401507618408205,3.89019554937264,15.5617550000002,
0.907737617431641,3.65953723754883,0.231519300537112,3.77753908803445,15.5648390000001,
0.723384089599609,3.57095177612305,0.121386024169924,3.64550623306914,15.5678280000002,
0.634798628173828,3.54700975952148,0.00885854614258008,3.60337702805463,15.5709020000002,
0.579731989990234,3.60207639770508,0.0902614025878936,3.64954663977859,15.573893,
0.498329133544922,3.69066185913086,0.23870190551758,3.73179520920972,15.576822,
0.481569721923828,3.75291110229492,0.478122071533205,3.81377134265932,15.579911,
0.385801655517578,3.8965632019043,0.688811817626956,3.97574011021059,15.582903,
0.337917622314453,3.95881244506836,0.796550892333986,4.05226820666856,15.5859850000002,
0.297216194091797,4.05218630981445,0.707965430908205,4.12428980635929,15.5889880000002,
-0.172047331298828,3.95162984008789,1.18680576293946,4.12958673431451,15.5920130000002,
-0.186412541259766,4.08091672973633,1.12455651977539,4.23712855088799,15.5950850000002,
-0.334853044189453,4.07373412475586,1.01202904174805,4.21089528031092,15.598109,
-0.528783378662109,4.15274277954102,1.26342021606446,4.3727697283232,15.601167,
-0.624551445068359,4.0497921081543,1.29454483764649,4.29729298087563,15.604188,
-0.792145561279297,4.00669647827148,1.27539122436524,4.27875379455695,15.6071770000001,
-0.921432450927735,3.98993706665039,1.32088105590821,4.30271569143379,15.610218,
-0.993258500732422,3.91092841186524,1.39510130737305,4.26945326123216,15.6131750000002,
-1.02917152563477,3.8798037902832,1.37115929077149,4.24171537009996,15.6162420000001,
-1.0219889206543,3.99951387329102,1.49805197875977,4.39143852372472,15.6192460000002,
-1.0986033737793,4.11922395629883,1.51481139038086,4.52433298105401,15.6221580000001,
-0.942980265869141,4.0330326965332,1.58424323852539,4.43445500055395,15.625172,
-0.895096232666016,4.11204135131836,1.76380836303711,4.56301449506844,15.6281190000002,
-0.756232536376953,4.08570513305664,1.76859676635742,4.51583974531099,15.6311310000001,
-0.722713713134766,4.01387908325195,1.79253878295899,4.45496753013225,15.634051,
-0.401890690673828,3.80558353881836,1.90506626098633,4.27472334273506,15.6371860000002,
-0.121769096435547,3.44884749145508,1.89548945434571,3.93729056632839,15.6401640000001,
-0.0571256516113282,3.24773455200195,1.90985466430664,3.7681013652917,15.643153,
0.0554018264160157,2.90775791625977,1.78296197631836,3.41131629593895,15.6462160000001,
-0.0451546433105469,2.85029707641602,1.65606928833008,3.29678598841179,15.6491800000001,
-0.0283952316894531,2.57017548217773,1.38313029907227,2.91884527212081,15.652225,
-0.0140300217285156,2.2493524597168,1.14371013305664,2.52346115444644,15.6551890000001,
0.0314598098144531,1.9812018737793,0.980904420166018,2.21095546445454,15.6582040000001,
0.0769496413574219,1.79684834594727,0.820492908935549,1.97681406289311,15.6612950000001,
0.0937090529785156,1.6364368347168,0.707965430908205,1.78547527341857,15.664262,
0.201448127685547,1.49757313842773,0.60262055786133,1.62679383753609,15.6673050000002,
0.232572749267578,1.50954414672852,0.408690223388675,1.58108864815281,15.6702870000001,
0.357071235595703,1.3898340637207,0.305739552001956,1.4671793570067,15.6732220000001,
0.378619050537109,1.40419927368164,0.509246693115237,1.54092835008201,15.676271,
0.388195857177734,1.62686002807617,0.154904847412112,1.67969196171016,15.6792820000001,
0.381013252197266,1.87106859741211,0.0591367810058614,1.91038371890031,15.6823370000002,
0.352282832275391,2.0578163269043,-0.0414196887207012,2.08816350408764,15.685289,
0.323552412353516,2.3259669128418,-0.101274730224606,2.35054564179397,15.6882340000002,
0.340311823974609,2.62524212036133,-0.0126892687988249,2.64723805986519,15.691288,
0.337917622314453,2.91972892456055,-0.0653617053222639,2.93994514658161,15.6942720000002,
0.407349470458984,3.2453403503418,-0.0342370837402317,3.27098452435087,15.6973170000001,
0.421714680419922,3.54461555786133,-0.027054478759764,3.56971632900084,15.700288,
0.493540730224609,3.89416900024414,0.0519541760253937,3.92566349694667,15.7032960000001,
0.524665351806641,4.20541521606445,0.0926556042480495,4.23903006970833,15.7063880000001,
0.584520393310547,4.44004697875977,0.116597620849612,4.47987458183568,15.7093670000002,
0.567760981689453,4.69383235473633,0.116597620849612,4.72948302797318,15.712407,
0.610856611572266,4.89015689086914,0.231519300537112,4.93359720728574,15.715373,
0.699442072998047,5.14154806518555,0.231519300537112,5.19406747228165,15.7183100000002,
0.797604341064453,5.28998856811523,0.382354005126956,5.36342673306081,15.7213750000001,
0.917314424072266,5.39772764282227,0.506852491455081,5.49852970409298,15.7243880000001,
1.13039837182617,5.45279428100586,0.590649549560549,5.59996721779633,15.7275160000002,
1.17349400170898,5.51743772583008,0.626562574462893,5.67554295994467,15.730532,
1.1232157668457,5.45279428100586,0.643321986083986,5.6043235370239,15.7336310000001,
1.15434038842773,5.5054667175293,0.583466944580081,5.65536021713877,15.7366490000002,
1.14955198510742,5.26125814819336,0.490093079833986,5.40763333587778,15.739634,
1.10645635522461,5.27801755981445,0.6098031628418,5.42711478827733,15.7427600000001,
1.28602147973633,4.51426723022461,0.281797535400393,4.70232599073913,15.7458490000001,
0.811969551025391,4.60524689331055,0.272220728759768,4.6841965826922,15.748867,
1.04420711206055,4.23414563598633,0.490093079833986,4.38845633298556,15.7518610000002,
0.735355097900391,3.93008202514648,-0.0438138903808571,3.99852616614896,15.754854,
0.742537702880859,3.55898076782227,0.159693250732424,3.63912191060671,15.7579660000001,
0.737749299560547,3.06098682250977,0.253067115478519,3.15879048395381,15.7609500000001,
0.888584004150391,2.47680161743164,0.00167594116211234,2.63137427845655,15.763993,
0.967592658935547,2.03866271362305,-0.0869095202636689,2.25830345132254,15.7669210000001,
0.749720307861328,1.98599027709961,-0.0342370837402317,2.12306620213711,15.7699270000001,
0.902949214111328,1.33955582885742,-0.235350023193357,1.632518525257,15.7729530000001,
0.627616023193359,1.30124860229492,-0.419703551025389,1.50442708972115,15.7759740000001,
0.601279804931641,0.882263311767578,-0.666306322021482,1.25852694443763,15.7791100000002,
0.634798628173828,0.599747515869141,-0.771651195068356,1.16538060219527,15.7820850000001,
0.668317451416016,0.336385333251953,-0.903332286376951,1.17295035185008,15.7850980000001,
0.764085517822266,0.0610521423339843,-1.06853220092773,1.31503426078895,15.7881380000001,
0.792815937744141,-0.113724578857422,-1.26485673706054,1.49711487744423,15.7911650000001,
0.527059553466797,-0.0203507141113282,-1.31274077026367,1.41474176243508,15.794257,
0.555789973388672,0.106541973876953,-1.47315228149414,1.57811005040471,15.797274,
0.632404426513672,0.0323217224121093,-1.64792900268555,1.76540365081359,15.8002690000001,
0.476781318603516,0.209492645263672,-1.67187101928711,1.75110259531559,15.8033340000002,
0.510300141845703,0.187944830322266,-1.81073471557617,1.8906320911815,15.8063120000002,
