X,Y,Z,Magnitude,Seconds,
-0.233769850097656,-0.11568782421875,-0.0581312163085901,0.267228841625797,0.0,
-0.226587245117188,-0.110899420898438,-0.108409451171871,0.27457798584153,0.00373100000024351,
-0.214616236816406,-0.1348414375,-0.0341891997070274,0.255756219374836,0.00739900000007765,
-0.233769850097656,-0.120476227539063,-0.0653138212890596,0.270977415051705,0.0111830000000737,
-0.217010438476563,-0.146812445800781,-0.0246123930664037,0.263160016990143,0.0151420000001963,
-0.21222203515625,-0.132447235839844,-0.0485544096679646,0.254829341296642,0.0188640000001215,
-0.224193043457031,-0.118082025878906,0.00651222851562849,0.25347247324006,0.0226440000001276,
-0.205039430175782,-0.120476227539063,-0.0246123930664037,0.239084627739444,0.0264729999998963,
-0.21222203515625,-0.144418244140625,-0.0102471831054647,0.25690431333109,0.0302910000000338,
-0.221798841796875,-0.11568782421875,-0.0461602080078087,0.254379959309353,0.0340799999999035,
-0.25052926171875,-0.146812445800781,-0.117986257812497,0.3134319100729,0.0378559999999197,
-0.252923463378906,-0.146812445800781,-0.0677080229492155,0.300180860384669,0.0415939999998045,
-0.257711866699219,-0.144418244140625,-0.0820732329101528,0.3066073238502,0.0453550000001997,
-0.240952455078125,-0.118082025878906,-0.0844674345703087,0.28131156738878,0.049094999999852,
-0.200251026855469,-0.103716815917969,-0.0940442412109341,0.244339867737076,0.0529209999999694,
-0.207433631835938,-0.163571857421875,-0.0653138212890596,0.272121956865794,0.0566210000001774,
-0.209827833496094,-0.130053034179688,-0.077284829589841,0.258678287248347,0.0603380000002289,
-0.248135060058594,-0.158783454101563,-0.0485544096679646,0.298564438647521,0.0640079999998306,
-0.221798841796875,-0.158783454101563,-0.0437660063476528,0.276265044532386,0.0676809999999932,
-0.233769850097656,-0.1348414375,0.0184832368164098,0.270503578765529,0.0713580000001457,
-0.209827833496094,-0.1348414375,-0.022218191406246,0.250406830989283,0.0751369999998133,
-0.228981446777344,-0.122870429199219,-0.0246123930664037,0.261027613926766,0.078860000000077,
-0.17391480859375,-0.125264630859375,-0.0629196196289037,0.223375170792956,0.0827300000000832,
-0.260106068359375,-0.151600849121094,-0.0892558378906223,0.314013676213578,0.086605999999847,
-0.255317665039063,-0.125264630859375,-0.0844674345703087,0.29666999398022,0.0903419999999642,
-0.252923463378906,-0.156389252441406,-0.0677080229492155,0.304979102527459,0.094101000000137,
-0.217010438476563,-0.11568782421875,-0.038977603027341,0.248990876575861,0.0979090000000724,
-0.209827833496094,-0.106111017578125,-0.077284829589841,0.247508005215711,0.10171900000023,
-0.236164051757813,-0.11568782421875,-0.0796790312499969,0.274783332893524,0.105497000000014,
-0.219404640136719,-0.142024042480469,-0.0701022246093714,0.270598497134038,0.109253000000081,
-0.240952455078125,-0.165966059082031,-0.0557370146484342,0.297841288570467,0.112954000000173,
-0.207433631835938,-0.151600849121094,-0.0916500395507782,0.272784271578372,0.116680999999971,
-0.25052926171875,-0.0893516059570313,-0.0317949980468715,0.267879716225852,0.120398000000023,
-0.221798841796875,-0.137235639160156,-0.0413718046874969,0.264083269256559,0.124205999999958,
-0.2313756484375,-0.130053034179688,-0.110803652832027,0.287621160330976,0.12791500000003,
-0.202645228515625,-0.122870429199219,-0.0629196196289037,0.245196063479812,0.13160999999991,
-0.228981446777344,-0.151600849121094,-0.038977603027341,0.277370823916718,0.135290000000168,
-0.219404640136719,-0.151600849121094,-0.0557370146484342,0.272447845228549,0.138965999999982,
-0.209827833496094,-0.163571857421875,-0.0844674345703087,0.279138352350579,0.142636999999922,
-0.252923463378906,-0.142024042480469,-0.101226846191404,0.307226270621399,0.146376000000146,
-0.221798841796875,-0.120476227539063,-0.077284829589841,0.26397384815396,0.150101000000177,
-0.205039430175782,-0.118082025878906,-0.0916500395507782,0.253740541719559,0.154043000000001,
-0.197856825195313,-0.144418244140625,-0.0892558378906223,0.260711635940145,0.15782100000024,
-0.205039430175782,-0.149206647460938,-0.132351467773434,0.286043183095008,0.161549999999806,
-0.197856825195313,-0.197090680664063,-0.0294007963867156,0.280813935746012,0.165308000000095,
-0.190674220214844,-0.168360260742188,-0.120380459472653,0.281413025062031,0.169092000000092,
-0.226587245117188,-0.182725470703125,-0.108409451171871,0.310617105769888,0.173001999999997,
-0.228981446777344,-0.165966059082031,-0.117986257812497,0.306427793726455,0.176781000000119,
-0.233769850097656,-0.0941400092773438,-0.0581312163085901,0.258630861404696,0.18051400000013,
-0.181097413574219,-0.110899420898438,-0.0653138212890596,0.222173018186862,0.184295999999904,
-0.188280018554688,-0.144418244140625,-0.0174297880859342,0.237928123895296,0.188034000000243,
-0.238558253417969,-0.15399505078125,-0.0198239897460901,0.284635743553765,0.191764000000148,
-0.195462623535156,-0.122870429199219,-0.117986257812497,0.259275021171426,0.195540000000165,
-0.224193043457031,-0.108505219238281,-0.00306457812499694,0.249088929853493,0.199278000000049,
-0.269682875,-0.137235639160156,-0.0413718046874969,0.30540808756001,0.202949999999873,
-0.219404640136719,-0.163571857421875,-0.0820732329101528,0.285709930198951,0.206627000000026,
-0.233769850097656,-0.146812445800781,-0.106015249511715,0.295705039161864,0.210289999999986,
-0.197856825195313,-0.127658832519531,-0.0557370146484342,0.241972551332869,0.213972000000012,
-0.260106068359375,-0.201879083984375,-0.156293484374997,0.364469456341433,0.217724000000089,
-0.2313756484375,-0.118082025878906,-0.0653138212890596,0.267850612799224,0.221550000000207,
-0.169126405273438,-0.156389252441406,0.0807324799804725,0.244088247491956,0.225476999999955,
-0.207433631835938,-0.216244293945313,-0.0724964262695273,0.308295374766484,0.229243000000224,
-0.0877235488281252,-0.163571857421875,-0.00785298144530877,0.185776324856057,0.232989000000089,
-0.255317665039063,-0.139629840820313,-0.146716677734371,0.325897815356158,0.236769999999979,
-0.276865479980469,-0.108505219238281,-0.139534072753904,0.328477752771865,0.240549999999985,
-0.21222203515625,-0.110899420898438,0.0807324799804725,0.25269469144655,0.244470999999976,
-0.238558253417969,-0.118082025878906,-0.0868616362304646,0.279997051695428,0.24821699999984,
-0.252923463378906,-0.137235639160156,-0.0796790312499969,0.298584405159103,0.251957999999831,
-0.171520606933594,-0.127658832519531,-0.129957266113278,0.2502098861731,0.255698999999822,
-0.279259681640625,-0.122870429199219,-0.0677080229492155,0.31251798113599,0.259448000000248,
-0.236164051757813,-0.106111017578125,0.00172382519531666,0.258913072222003,0.26318399999991,
-0.226587245117188,-0.165966059082031,-0.098832644531246,0.29774889427512,0.266966000000139,
-0.226587245117188,-0.130053034179688,-0.0844674345703087,0.274572975458308,0.270710000000236,
-0.233769850097656,-0.146812445800781,-0.13474566943359,0.307178502645928,0.274409999999989,
-0.207433631835938,-0.165966059082031,-0.106015249511715,0.286029155005043,0.278123999999934,
-0.126030775390625,-0.292858747070313,-0.182629702636715,0.367428374470904,0.281847000000198,
-0.401363966308594,0.00402225878906243,0.128616513183598,0.421487152212543,0.28560299999981,
-0.130819178710938,-0.271310932128906,-0.117986257812497,0.323487304919153,0.289292999999816,
-0.0781467421875002,-0.11568782421875,0.255509201171879,0.291162390892917,0.293318999999883,
-0.59529430078125,0.430190154296875,0.42070911572266,0.846424853988084,0.297199999999975,
-0.451642201171875,0.11415553515625,-0.24966734912109,0.528531881066165,0.300606000000244,
0.101418382324219,-0.321589166992188,-0.299945583984371,0.451301045812788,0.303573000000142,
0.221128465332031,-0.831554120605469,-0.740478689453122,1.13520427378082,0.306509999999889,
-0.501920436035157,0.0950019218749999,0.432680124023442,0.669448712744006,0.309575000000223,
-0.454036402832032,-0.209061688964844,0.236355587890628,0.552919351096169,0.312518000000182,
0.230705271972656,-0.266522528808594,0.561967013671879,0.66337478496985,0.315575999999965,
-0.217010438476563,-0.350319586914063,-0.65189322802734,0.771221190146728,0.31852200000003,
-0.2313756484375,-0.0462559760742188,-0.180235500976559,0.296916051813848,0.321487000000161,
-0.482766822753906,-0.0749863959960938,-0.508241128417966,0.704979297108753,0.324497000000065,
-0.0350511123046877,-0.118082025878906,0.159741134765628,0.201715580572432,0.327444000000014,
-0.286442286621094,-0.0965342109375001,-0.0174297880859342,0.302773570442942,0.33046000000013,
-0.291230689941407,0.0112048637695312,0.281845419433598,0.405435203443833,0.333435999999892,
-0.228981446777344,0.0447236870117187,0.152558529785159,0.278759423443185,0.336382999999842,
-0.255317665039063,-0.118082025878906,-0.161081887695309,0.324157136987835,0.339373000000251,
-0.197856825195313,-0.0917458076171875,-0.177841299316404,0.281410988119237,0.342313000000104,
-0.188280018554688,-0.295252948730469,-0.366983230468747,0.507247829533324,0.345306000000164,
-0.209827833496094,-0.216244293945313,0.13340491650391,0.329524181390359,0.348258999999871,
-0.355874134765625,-0.0654095893554688,0.138193319824222,0.387327003730534,0.351199000000179,
-0.221798841796875,-0.0414675727539063,0.0831266816406284,0.240466902115693,0.354209000000083,
-0.188280018554688,-0.15399505078125,-0.0509486113281223,0.248514792413525,0.357140999999956,
-0.21222203515625,-0.28807034375,-0.371771633789059,0.515981455911247,0.360153999999966,
-0.149972791992188,-0.185119672363281,-0.189812307617185,0.3046142536993,0.363081999999849,
-0.264894471679688,-0.1348414375,-0.0294007963867156,0.298689975094077,0.366081000000122,
-0.207433631835938,-0.120476227539063,0.0903092866210979,0.256318162190476,0.369031000000177,
-0.209827833496094,-0.175542865722656,-0.022218191406246,0.274475254704594,0.371940999999879,
-0.159549598632813,-0.158783454101563,0.00890643017578441,0.225272244670289,0.374960000000101,
-0.228981446777344,-0.151600849121094,-0.292762979003903,0.401404387491869,0.377904999999828,
-0.185885816894531,-0.130053034179688,-0.220936929199215,0.31667089431438,0.380885999999919,
-0.248135060058594,-0.0510443793945313,0.0615788666992216,0.260707678295089,0.383842000000186,
-0.224193043457031,-0.197090680664063,-0.177841299316404,0.347469113565071,0.386751000000004,
0.0535343491210936,-0.292858747070313,0.214807772949221,0.367116536798353,0.389787000000069,
-0.236164051757813,-0.170754462402344,0.0232716401367217,0.292356144124992,0.392722000000049,
-0.425305982910156,0.0231758720703125,-0.0748906279296833,0.43247069992902,0.395747999999912,
-0.13560758203125,-0.180331269042969,-0.120380459472653,0.255734702224506,0.398674999999912,
-0.142790187011719,-0.225821100585938,-0.319099197265622,0.41618325851991,0.401593000000048,
-0.466007411132813,0.07584830859375,-0.0413718046874969,0.473948836236929,0.404617000000144,
-0.377421949707032,-0.0510443793945313,0.131010714843754,0.402761299273281,0.407571000000189,
-0.0135032973632815,-0.213850092285156,0.27945121777344,0.352146537857622,0.410566999999901,
-0.0589931289062502,-0.369473200195313,-0.151505081054685,0.403663751786189,0.413493000000017,
-0.334326319824219,0.085425115234375,0.0855208833007843,0.3555071868761,0.416474999999991,
-0.221798841796875,-0.182725470703125,-0.28797457568359,0.406832496374439,0.419576000000234,
-0.104482960449219,-0.189908075683594,-0.146716677734371,0.261739469242776,0.422593000000234,
-0.157155396972656,-0.225821100585938,-0.182629702636715,0.330222041288362,0.425701000000117,
-0.195462623535156,-0.118082025878906,0.0615788666992216,0.236518411247145,0.428670000000238,
0.178032835449219,-0.630441181152344,-0.137139871093746,0.669297480672429,0.431602000000112,
-0.430094386230469,0.214712004882812,1.12699860546875,1.22523805149704,0.434647999999925,
-2.77641201318359,2.50596299365234,1.49809986279297,4.02897225001681,0.437613000000056,
-0.858656483398438,0.8994536796875,-2.05250119921875,2.39980604449192,0.440678999999818,
1.72468710791016,-0.865072943847656,-1.3270580961914,2.34178991564912,0.443620999999894,
1.49484374853516,-2.1651244453125,-1.84420565478515,3.21300734411951,0.446542000000136,
0.728699217285156,-1.03506126171875,1.12939280712891,1.69643227910145,0.449588999999833,
-0.463613209472657,-1.74853335644531,0.516477182128909,1.88123756773547,0.452521000000161,
0.19000384375,-0.95844680859375,2.55873119824219,2.73894634675476,0.455570999999964,
0.194792247070312,-0.802823700683594,0.0927034882812539,0.831302502484814,0.458520000000135,
-0.588111695800781,0.288932256347656,-1.03496549365234,1.22495338219332,0.46156000000019,
-0.669514552246094,0.674398723632813,-1.34621170947265,1.64783170889146,0.464514000000236,
-0.466007411132813,0.178798979980469,-1.13312776171875,1.2381883971555,0.467454000000089,
-0.602476905761719,0.463708977539063,0.147770126464847,0.774493672086464,0.470491000000038,
-0.880204298339844,0.889876873046875,1.09826818554688,1.66518271171186,0.473475000000235,
-1.07174043115234,0.990433342773438,0.968981295898441,1.75171644681581,0.4764839999998,
-0.724581190429688,0.645668303710938,0.219596176269535,0.995051727586895,0.479452999999921,
-0.236164051757813,0.284143853027344,-0.532183145019529,0.647865795052315,0.482382000000143,
-0.382210353027344,0.118943938476562,-0.915255410644528,0.99896190176387,0.485404999999901,
-0.513891444335938,0.0973961235351562,-0.635133816406247,0.822779062801258,0.488358000000062,
-0.188280018554688,-0.309618158691406,0.0879150849609402,0.372883134161495,0.491405000000213,
0.137331407226562,-0.618470172851563,0.545207602050784,0.83583287770453,0.494379000000208,
0.290560313476562,-0.762122272460938,0.638581466796879,1.03587737869165,0.497311999999965,
0.067899559082031,-0.924927985351563,-0.139534072753904,0.93785493850026,0.500324000000091,
0.0942357773437498,-0.824371515625,-0.694988857910152,1.08234850677806,0.503266000000167,
0.264224095214844,-0.527490509765625,-0.311916592285153,0.667347413966432,0.506304999999884,
0.0535343491210936,-0.654383197753906,-0.529788943359371,0.843658473876892,0.509269000000131,
0.0343807358398436,-0.604104962890625,0.073549875000003,0.609536237887862,0.512229999999818,
-0.0565989272460939,-0.470029669921875,0.17171214306641,0.503603404723136,0.515265999999883,
-0.185885816894531,0.11415553515625,0.585909030273442,0.625199500068036,0.518237000000227,
-0.542621864257813,0.370335112792969,-0.0629196196289037,0.659958681943234,0.521264999999858,
-0.425305982910156,0.372729314453125,-0.268820962402341,0.626160547127325,0.524229000000105,
-0.298413294921875,0.0566946953124999,-0.58246137988281,0.656906418082282,0.527176999999938,
-0.516285645996094,0.444555364257813,-0.180235500976559,0.704744759444348,0.530201999999917,
-0.789224635253906,0.604966875488281,0.0927034882812539,0.998726379980637,0.533182000000124,
-0.695850770507813,0.454132170898438,0.377613485839847,0.912708205369802,0.536192000000028,
-0.319961109863281,-0.0654095893554688,0.166923739746098,0.366765676005017,0.53914900000018,
-0.291230689941407,-0.0845632026367188,-0.0796790312499969,0.313552225354668,0.542053000000124,
-0.427700184570313,-0.0845632026367188,-0.383742642089841,0.580807023442167,0.545050000000174,
-0.262500270019531,-0.244974713867188,-0.316704995605466,0.478770358769312,0.547971999999845,
0.0559285507812498,-0.644806391113281,-0.163476089355465,0.667553530890206,0.550987000000077,
0.122966197265625,-0.699873029296875,0.0639730683593775,0.713467235605439,0.553936000000249,
0.0056503159179685,-0.558615131347656,0.162135336425784,0.58169636268283,0.557030999999824,
-0.0111090957031252,-0.49876008984375,-0.00785298144530877,0.498945596779716,0.560068000000228,
0.163667625488281,-0.608893366210938,-0.254455752441404,0.679916136739804,0.563111999999819,
0.187609642089844,-0.493971686523438,-0.220936929199215,0.572729021070058,0.566233000000011,
-0.00871489404296899,-0.204273285644531,-0.117986257812497,0.23605991112171,0.569166000000223,
-0.276865479980469,0.0638773002929687,0.0927034882812539,0.298879139849281,0.572168000000147,
-0.0518105239257815,-0.101322614257813,0.0759440766601589,0.136814126936021,0.575138000000152,
-0.267288673339844,0.0519062919921874,0.166923739746098,0.319376005571763,0.578097000000071,
-0.540227662597657,0.353575701171875,-0.0317949980468715,0.646430681353934,0.58123999999998,
-0.379816151367188,0.322451079589844,-0.0892558378906223,0.506163621930296,0.584213999999974,
-0.590505897460938,0.269778643066406,-0.414867263671871,0.770449594494984,0.587307000000237,
-0.470795814453125,0.128520745117187,-0.0581312163085901,0.491472806105866,0.590289000000212,
-0.4612190078125,0.0543004936523437,-0.00785298144530877,0.464470866789313,0.593255000000227,
-0.482766822753906,0.123732341796875,0.152558529785159,0.521198237303859,0.596294999999827,
-0.473190016113282,-0.0965342109375001,-0.0629196196289037,0.487017991212706,0.599255999999968,
-0.21222203515625,-0.323983368652344,-0.170658694335934,0.42323492923154,0.602296000000024,
-0.00153228906250025,-0.477212274902344,-0.194600710937497,0.515367189414131,0.605261000000155,
-0.0973003554687503,-0.379050006835938,-0.158687686035153,0.422289058058412,0.608173999999963,
-0.152366993652344,-0.388626813476563,-0.182629702636715,0.455631549821537,0.61121600000024,
0.0655053574218748,-0.467635468261719,-0.00545877978515286,0.472232655906035,0.614195000000109,
0.175638633789062,-0.496365888183594,0.0903092866210979,0.534213245700243,0.617232999999942,
-0.0422337172851565,-0.319194965332031,-0.0748906279296833,0.330571805997943,0.62017300000025,
-0.0829351455078127,-0.182725470703125,-0.110803652832027,0.229225403227917,0.623153000000002,
-0.0398395156250002,-0.144418244140625,-0.106015249511715,0.183529423730712,0.62615599999981,
-0.094906153808594,-0.0558327827148438,-0.0270065947265596,0.113374749460134,0.629072000000178,
-0.264894471679688,0.085425115234375,-0.0365834013671833,0.280722063071037,0.632085000000188,
-0.341508924804688,0.106972930175781,-0.0270065947265596,0.358888436244986,0.635028000000148,
-0.398969764648438,0.142885955078125,-0.0317949980468715,0.424975518310194,0.637962000000243,
-0.42291178125,0.109367131835937,-0.0653138212890596,0.441680245763207,0.640965999999935,
-0.425305982910156,0.0902135185546875,-0.156293484374997,0.4620079125808,0.643926000000192,
-0.499526234375,0.0519062919921874,-0.168264492675778,0.529654284862006,0.647013000000243,
-0.432488587890625,-0.0486501777343751,-0.127563064453122,0.453525692614966,0.650016000000051,
-0.396575562988281,-0.110899420898438,-0.0270065947265596,0.412674465982336,0.653012000000217,
-0.279259681640625,-0.194696479003906,-0.0724964262695273,0.348063816775595,0.655927000000247,
-0.243346656738281,-0.271310932128906,0.00890643017578441,0.364563494794571,0.658860999999888,
-0.142790187011719,-0.264128327148438,-0.077284829589841,0.310041538497351,0.661853000000065,
-0.0973003554687503,-0.34553118359375,-0.122774661132809,0.379384732726976,0.664816999999857,
0.0056503159179685,-0.314406562011719,-0.153899282714841,0.350097702829002,0.667883000000074,
-0.00153228906250025,-0.350319586914063,-0.0270065947265596,0.351362372834849,0.670948999999837,
-0.0494163222656252,-0.242580512207031,-0.000670376464841027,0.24756358216323,0.673900000000231,
-0.0111090957031252,-0.228215302246094,-0.00306457812499694,0.228506078312375,0.676968000000215,
-0.0518105239257815,-0.151600849121094,-0.101226846191404,0.189509952861476,0.679924999999912,
-0.118848170410156,-0.0701979926757813,-0.0485544096679646,0.14632216675458,0.682980000000043,
-0.245740858398438,-0.0366791694335938,-0.108409451171871,0.271084009229843,0.685973999999987,
-0.319961109863281,0.027964275390625,-0.0581312163085901,0.326399066837792,0.688991999999871,
-0.334326319824219,-0.0199197578125001,-0.0629196196289037,0.34077817332212,0.691988000000038,
-0.398969764648438,0.0423294853515625,0.0543962617187539,0.404879749706914,0.694942000000083,
-0.317566908203125,-0.11568782421875,-0.204177517578122,0.394868171093246,0.697995999999875,
-0.377421949707032,0.0519062919921874,0.0424252534179725,0.383329484121186,0.70099399999981,
-0.528256654296875,-0.0247081611328125,-0.0461602080078087,0.530844940485277,0.703910000000178,
-0.355874134765625,-0.0630153876953126,-0.098832644531246,0.374680170954659,0.706907000000228,
-0.252923463378906,-0.15399505078125,-0.132351467773434,0.324348061524165,0.70981299999994,
-0.185885816894531,-0.285676142089844,-0.113197854492183,0.359135280003952,0.712890000000243,
-0.281653883300782,-0.177937067382813,-0.060525417968746,0.338605723737059,0.715803999999935,
-0.0805409438476564,-0.228215302246094,0.162135336425784,0.291302137192726,0.718811000000187,
-0.106877162109375,-0.283281940429688,-0.10362104785156,0.320013604573334,0.721904999999879,
-0.0613873305664064,-0.276099335449219,-0.120380459472653,0.307393400079469,0.724874,
-0.027868507324219,-0.23060950390625,-0.077284829589841,0.244806743937126,0.727941000000101,
-0.0757525405273439,-0.180331269042969,-0.0317949980468715,0.198163407045284,0.730873999999858,
-0.0829351455078127,-0.185119672363281,-0.106015249511715,0.228881551430695,0.733833000000232,
-0.140395985351563,-0.103716815917969,-0.0724964262695273,0.189007784043015,0.736871000000065,
-0.195462623535156,-0.0749863959960938,0.0184832368164098,0.210167140216878,0.739859000000251,
-0.272077076660156,-0.0606211860351563,-0.0509486113281223,0.283366590896862,0.742918999999802,
-0.351085731445313,-0.0725921943359376,-0.13474566943359,0.382997667008695,0.745867000000089,
-0.370239344726563,-0.0127371528320313,-0.117986257812497,0.388793215576633,0.748853000000054,
-0.36545094140625,-0.0725921943359376,-0.09643844287109,0.384869316153706,0.751803000000109,
-0.377421949707032,-0.0486501777343751,-0.0557370146484342,0.384604709690564,0.754781999999977,
-0.375027748046875,-0.0893516059570313,-0.0748906279296833,0.392731622668602,0.757767999999942,
-0.276865479980469,-0.244974713867188,-0.264032559082027,0.454290982405033,0.760765999999876,
-0.353479933105469,0.109367131835937,0.200442562988284,0.420816413286814,0.763829999999871,
-0.370239344726563,0.0734541069335937,0.178894748046879,0.4177032548206,0.766823999999815,
-0.944847743164063,0.590601665527344,0.152558529785159,1.12464291670561,0.769776000000093,
-0.638389930664063,0.111761333496094,-0.910467007324215,1.11757884315336,0.772813999999926,
0.80291946875,-0.553826728027344,-0.0413718046874969,0.976276264280944,0.775806999999986,
0.462942833007812,-1.17871336132813,-0.905678604003903,1.55689915812078,0.778859999999895,
-0.142790187011719,-0.235397907226563,0.767868356445316,0.815734653587499,0.781822999999804,
-0.303201698242188,-0.436510846679688,0.377613485839847,0.651970040549475,0.78482299999996,
0.369568968261719,-0.491577484863281,0.581120626953128,0.846126957966083,0.78792599999997,
0.28577191015625,-0.446087653320313,-0.268820962402341,0.594074480941654,0.790923999999904,
-0.420517579589844,-0.0127371528320313,-0.785968520996091,0.891484035641217,0.79397599999993,
-0.3846045546875,0.162039568359375,-0.292762979003903,0.509791768348316,0.79695300000003,
-0.279259681640625,-0.0749863959960938,-0.110803652832027,0.30965525807812,0.799855000000207,
-0.358268336425781,0.0423294853515625,0.401555502441409,0.539809973746686,0.802974000000177,
-0.638389930664063,0.358364104492187,0.377613485839847,0.823746611313136,0.805945999999949,
-0.559381275878907,0.303297466308594,0.0424252534179725,0.637727737361882,0.809025999999903,
-0.482766822753906,0.0423294853515625,-0.407684658691403,0.633294853456394,0.812015999999858,
-0.303201698242188,-0.00794874951171881,-0.369377432128903,0.477947842135404,0.815000000000055,
-0.28883648828125,0.03754108203125,-0.0724964262695273,0.3001525972311,0.818072000000029,
-0.571352284179688,0.0351468803710937,-0.0820732329101528,0.578286046345138,0.821093000000019,
-0.21222203515625,-0.125264630859375,0.336912057617191,0.417419638395279,0.824141999999938,
-0.00392649072265649,-0.414963031738281,0.0304542451171912,0.416097580003151,0.827216000000135,
0.182821238769531,-0.424539838378906,0.0927034882812539,0.471435697052659,0.830234000000019,
-0.205039430175782,-0.405386225097656,-0.560913564941403,0.721805504800989,0.83326500000021,
-0.0326569106445315,-0.283281940429688,-0.09643844287109,0.301024093470696,0.836209000000053,
0.103812583984375,-0.443693451660156,-0.137139871093746,0.475865817098923,0.839312000000064,
0.0918415756835935,-0.302435553710938,0.169317941406254,0.358567573066135,0.842341999999917,
-0.296019093261719,-0.189908075683594,-0.132351467773434,0.375778248182513,0.845312999999805,
-0.161943800292969,-0.194696479003906,-0.022218191406246,0.254216760696875,0.848226999999952,
-0.161943800292969,-0.0749863959960938,-0.149110879394527,0.232557107807139,0.851132000000234,
-0.257711866699219,-0.0318907661132813,-0.180235500976559,0.316096920284206,0.854158000000098,
-0.351085731445313,0.0926077202148437,-0.129957266113278,0.385650452720489,0.857108000000153,
-0.463613209472657,0.102184526855469,-0.0892558378906223,0.48305847484934,0.860220000000027,
-0.406152369628906,0.07584830859375,0.052002060058598,0.416433581165168,0.863213000000087,
-0.396575562988281,0.0399352836914062,0.0472136567382844,0.401367828089878,0.866200999999819,
-0.398969764648438,0.0830309135742187,-0.0341891997070274,0.408949761082222,0.869252999999844,
-0.367845143066406,-0.0127371528320313,-0.110803652832027,0.384382275632907,0.872209000000112,
-0.310384303222656,-0.139629840820313,-0.208965920898434,0.399376594496285,0.875231999999869,
-0.166732203613281,-0.221032697265625,-0.00785298144530877,0.276977887745283,0.878181999999924,
-0.164338001953125,-0.228215302246094,0.0256658417968776,0.282396774946818,0.881163000000015,
-0.152366993652344,-0.225821100585938,0.0304542451171912,0.274113719594907,0.884246000000076,
-0.0925119521484377,-0.319194965332031,-0.09643844287109,0.346040836386447,0.887180000000171,
0.0104387192382811,-0.362290595214844,-0.117986257812497,0.381161644546062,0.8902250000001,
-0.0326569106445315,-0.295252948730469,-0.149110879394527,0.332377544218455,0.893173999999817,
-0.149972791992188,-0.23060950390625,-0.137139871093746,0.307375870675348,0.896096999999827,
-0.123636573730469,-0.244974713867188,-0.0916500395507782,0.289306658319126,0.899115000000165,
-0.0973003554687503,-0.204273285644531,-0.00306457812499694,0.226283729069153,0.90210500000012,
-0.164338001953125,-0.0917458076171875,-0.0246123930664037,0.189815810705353,0.905138999999963,
-0.28883648828125,-0.0366791694335938,-0.0892558378906223,0.304529937823098,0.908065999999963,
-0.339114723144532,0.0447236870117187,-0.106015249511715,0.358103667619232,0.910996000000068,
-0.317566908203125,-0.029496564453125,-0.0892558378906223,0.331187851676034,0.914014999999836,
-0.363056739746094,0.0207816704101562,-0.098832644531246,0.376842096540632,0.916987999999947,
-0.415729176269531,0.01838746875,-0.106015249511715,0.429427619207017,0.92001399999981,
-0.351085731445313,0.0112048637695312,-0.0341891997070274,0.352924412832537,0.922958999999992,
-0.379816151367188,-0.0199197578125001,-0.0126413847656224,0.380548170668949,0.925928000000113,
-0.319961109863281,-0.1348414375,-0.14192827441406,0.375101266553663,0.928993999999875,
-0.197856825195313,-0.211455890625,-0.122774661132809,0.314538605536199,0.931938000000173,
-0.149972791992188,-0.204273285644531,-0.127563064453122,0.283710678295012,0.934945999999854,
-0.195462623535156,-0.185119672363281,0.0160890351562539,0.269692023143797,0.93789599999991,
-0.169126405273438,-0.259339923828125,-0.098832644531246,0.325005890218827,0.940877,
-0.0398395156250002,-0.343136981933594,-0.0677080229492155,0.352014987958498,0.943843999999899,
-0.0470221206054689,-0.223426898925781,-0.077284829589841,0.241046891443464,0.946806999999808,
-0.114059767089844,-0.206667487304688,-0.0653138212890596,0.244922387765598,0.949920999999904,
-0.157155396972656,-0.175542865722656,-0.0748906279296833,0.247228078210097,0.952893000000131,
-0.161943800292969,-0.247368915527344,-0.0892558378906223,0.30884264508008,0.955949000000146,
-0.161943800292969,-0.0462559760742188,0.24114399121094,0.294135741237017,0.95893500000011,
-0.406152369628906,-0.0199197578125001,-0.165870291015622,0.439169099036,0.961878999999954,
-0.492343629394531,0.346393096191406,0.013694833496098,0.602144480136565,0.964998999999807,
-0.396575562988281,0.102184526855469,-0.290368777343746,0.502023785835144,0.96806400000014,
-0.106877162109375,-0.180331269042969,-0.110803652832027,0.237106608630215,0.971071999999822,
-0.214616236816406,-0.333560175292969,-0.098832644531246,0.408766940042552,0.974017999999887,
-0.279259681640625,-0.30722395703125,0.0591846650390657,0.419374956500444,0.976990999999998,
-0.310384303222656,-0.235397907226563,0.119039706542972,0.407334067010723,0.980051999999887,
-0.11645396875,-0.355107990234375,-0.170658694335934,0.41083768269034,0.983001999999942,
-0.094906153808594,-0.185119672363281,-0.0270065947265596,0.209775659420615,0.986011999999846,
-0.360662538085938,-0.0701979926757813,-0.477116506835934,0.602200453046677,0.988917000000129,
-0.133213380371094,-0.0893516059570313,0.00172382519531666,0.160413483754634,0.991915000000063,
-0.200251026855469,-0.316800763671875,-0.228119534179685,0.43875017891063,0.994903000000249,
-0.106877162109375,-0.0510443793945313,0.28663382275391,0.310140621000936,0.997898000000077,
-0.243346656738281,-0.0151313544921876,0.123828109863284,0.273459236499301,1.00100599999996,
-0.284048084960938,0.0543004936523437,-0.0916500395507782,0.303367084454664,1.00397000000021,
-0.176309010253906,-0.15399505078125,-0.283186172363278,0.367414957479409,1.0069410000001,
-0.147578590332031,-0.130053034179688,-0.187418105957027,0.271696114186883,1.0099439999999,
-0.262500270019531,-0.0917458076171875,-0.022218191406246,0.278957582806099,1.01290500000005,
