X,Y,Z,Magnitude,Seconds,
-0.936851109619141,0.165822406982422,0.0413718046875022,0.952312290414841,0.0,
-0.936851109619141,0.156245600341797,0.0174297880859395,0.949950781216324,0.00391600000000381,
-0.920091697998047,0.168216608642578,0.0198239897460954,0.93555253765761,0.00774599999999737,
-0.941639512939453,0.103573163818359,0.0222181914062514,0.947579031332775,0.0115360000000067,
-0.929668504638672,0.156245600341797,-0.0232716401367163,0.94299405373413,0.015326999999985,
-0.917697496337891,0.170610810302734,0.0246123930664091,0.933746493042648,0.019171,
-0.92488010131836,0.146668793701172,0.000670376464846356,0.936437604042587,0.0229709999999841,
-0.939245311279297,0.196947028564453,0.0413718046875022,0.960563122883453,0.0268350000000055,
-0.936851109619141,0.139486188720703,0.0317949980468768,0.947711622984146,0.0306249999999864,
-0.874601866455078,0.175399213623047,0.0581312163085954,0.893908578801997,0.034435000000002,
-0.915303294677735,0.158639802001953,-0.00890643017577908,0.928991944273798,0.0382040000000075,
-0.92488010131836,0.163428205322266,0.01024718310547,0.939264065570015,0.0419929999999908,
-0.932062706298828,0.149062995361328,0.0796790312500022,0.947264172805098,0.0457490000000007,
-0.932062706298828,0.182581818603516,0.0246123930664091,0.950096194524596,0.0495119999999929,
-0.932062706298828,0.194552826904297,0.04855440966797,0.953388284817762,0.0533929999999998,
-0.946427916259766,0.161034003662109,0.0557370146484395,0.96164669490056,0.0574239999999975,
-0.908120689697266,0.170610810302734,-0.0160890351562486,0.924148306658976,0.0612460000000112,
-0.953610521240235,0.122726777099609,0.0437660063476581,0.962470961301666,0.0650960000000111,
-0.932062706298828,0.156245600341797,-0.0687614716796858,0.94756620670369,0.0689059999999984,
-0.900938084716797,0.141880390380859,-0.0184832368164045,0.912228648810706,0.0727400000000102,
-0.917697496337891,0.125120978759766,-0.00651222851562316,0.926210755298639,0.0766570000000115,
-0.953610521240235,0.187370221923828,0.00545877978515819,0.971859261704389,0.0805310000000077,
-0.908120689697266,0.156245600341797,0.00306457812500227,0.921469080502157,0.0843339999999841,
-0.912909093017578,0.153851398681641,0.0126413847656277,0.925868818785506,0.0881650000000036,
-0.939245311279297,0.175399213623047,-0.0184832368164045,0.955661168481245,0.091951999999992,
-0.92488010131836,0.182581818603516,0.0198239897460954,0.942938127805149,0.0957329999999956,
-0.915303294677735,0.184976020263672,-0.0280600434570299,0.934228888099331,0.0994640000000118,
-0.927274302978516,0.129909382080078,0.000670376464846356,0.936330352985166,0.103363000000002,
-0.953610521240235,0.151457197021484,-0.0735498749999977,0.968360414753821,0.107089999999999,
-0.941639512939453,0.158639802001953,-0.00172382519531133,0.954910744876909,0.110817999999995,
-0.922485899658203,0.117938373779297,-0.0136948334960927,0.930095287345547,0.114532999999994,
-0.893755479736328,0.173005011962891,-0.0328484467773418,0.910938314145737,0.118261999999987,
-0.917697496337891,0.161034003662109,0.0461602080078141,0.932861945800988,0.122008999999991,
-0.939245311279297,0.182581818603516,0.00306457812500227,0.956831890607642,0.125954000000007,
-0.932062706298828,0.184976020263672,-0.0376368500976536,0.950985567204338,0.129905000000008,
-0.941639512939453,0.170610810302734,0.0365834013671886,0.957669758411844,0.133690999999999,
-0.893755479736328,0.158639802001953,-0.0256658417968723,0.908088200437092,0.137439999999998,
-0.946427916259766,0.206523835205078,-0.0160890351562486,0.968832675045529,0.141201999999993,
-0.912909093017578,0.129909382080078,0.0198239897460954,0.922319060974053,0.145024000000006,
-0.927274302978516,0.158639802001953,0.0126413847656277,0.94083156003203,0.148907000000008,
-0.929668504638672,0.141880390380859,0.0413718046875022,0.941342233151594,0.152689000000009,
-0.893755479736328,0.182581818603516,-0.0448194550781231,0.913314711146591,0.156437000000011,
-0.915303294677735,0.184976020263672,0.0557370146484395,0.935469328263852,0.160240999999985,
-0.915303294677735,0.173005011962891,0.0317949980468768,0.932052454163926,0.164008999999993,
-0.915303294677735,0.134697785400391,0.0365834013671886,0.92588442037615,0.167744999999996,
-0.970369932861328,0.175399213623047,0.0389776030273463,0.986864704140664,0.171496999999988,
-0.956004722900391,0.144274592041016,-0.00172382519531133,0.96683150532539,0.175361000000009,
-0.936851109619141,0.151457197021484,0.0317949980468768,0.949547369026433,0.179123000000004,
-0.946427916259766,0.199341230224609,0.01024718310547,0.967247502713168,0.182883000000004,
-0.922485899658203,0.144274592041016,0.0198239897460954,0.933910265253713,0.186643000000004,
-0.910514891357422,0.196947028564453,-0.0232716401367163,0.931862151113907,0.190381000000002,
-0.888967076416016,0.137091987060547,0.0581312163085954,0.901352269746609,0.194135999999986,
-1.00628295776367,0.194552826904297,-0.0735498749999977,1.02755329674649,0.198154999999986,
-0.92488010131836,0.149062995361328,-0.00651222851562316,0.936837972928612,0.202052000000009,
-0.704613548583985,0.0820253488769531,-0.0280600434570299,0.709926599547666,0.205826999999999,
-0.833900438232422,0.0413239206542969,0.0198239897460954,0.83515902549869,0.209659999999985,
-0.956004722900391,0.244831061767578,-0.00172382519531133,0.986858779454992,0.213413000000003,
-0.876996068115235,0.0820253488769531,-0.0136948334960927,0.880930082249694,0.217255999999992,
-0.970369932861328,0.144274592041016,0.062919619628909,0.983052309413974,0.221046999999999,
-0.920091697998047,0.252013666748047,-0.0208774384765604,0.954209352495598,0.224937000000011,
-0.912909093017578,0.103573163818359,-0.0376368500976536,0.919536266203131,0.228701999999998,
-0.908120689697266,0.180187616943359,0.0341891997070327,0.926455431055683,0.23253600000001,
-0.967975731201172,0.175399213623047,-0.0424252534179672,0.984653138146427,0.236297000000008,
-0.876996068115235,0.115544172119141,-0.011300631835935,0.884646971102129,0.240031999999985,
-0.874601866455078,0.194552826904297,0.000670376464846356,0.89597973005407,0.243801999999988,
-0.917697496337891,0.0509007272949218,0.00306457812500227,0.919113143450288,0.247624000000002,
-0.956004722900391,0.259196271728516,0.0365834013671886,0.991194270938552,0.251407,
-0.936851109619141,0.187370221923828,0.00545877978515819,0.955420012316648,0.25515200000001,
-0.989523546142578,0.0987847604980468,-0.00890643017577908,0.994482077151577,0.258875999999987,
-0.956004722900391,0.228071650146484,-0.0639730683593722,0.984913326787544,0.262605000000008,
-0.951216319580078,0.134697785400391,-0.085520883300779,0.964504951520616,0.266403999999994,
-0.94403371459961,0.170610810302734,-0.00172382519531133,0.959328241253325,0.270499000000001,
-0.932062706298828,0.184976020263672,-0.0136948334960927,0.950339184191712,0.274304999999998,
-0.865025059814453,0.0724485422363281,-0.011300631835935,0.868127208224151,0.278131000000002,
-0.948822117919922,0.228071650146484,0.0413718046875022,0.976724994703057,0.281940999999989,
-0.984735142822266,0.117938373779297,0.0605254179687513,0.993617676845167,0.285805000000011,
-0.965581529541016,0.225677448486328,0.01024718310547,0.991656697505575,0.289661999999993,
-0.96318732788086,0.144274592041016,0.027006594726565,0.974307109004957,0.293531000000002,
-0.802775816650391,0.000622492431640587,0.00545877978515819,0.802794617303998,0.297333000000009,
-0.352665904541016,-0.336959941650391,0.0294007963867209,0.488650846035225,0.301110999999992,
-0.436462962646485,-0.351325151611328,-0.0208774384765604,0.560682751076054,0.304508999999996,
-0.908120689697266,-0.0783861623535157,0.0557370146484395,0.9131999738867,0.307461999999987,
-0.80995842163086,-0.121481792236328,-0.0208774384765604,0.819284039911096,0.310372999999998,
-0.627999095458985,-0.0328963308105469,0.0796790312500022,0.633887829587411,0.313398000000007,
-0.838688841552735,-0.00656011254882816,0.04855440966797,0.840118764651717,0.31634600000001,
-1.06613799926758,0.144274592041016,0.0174297880859395,1.07599683498772,0.319375000000008,
-1.01107136108398,0.290320893310547,0.0341891997070327,1.05248297832956,0.322321999999986,
-0.88657287475586,0.0724485422363281,-0.0543962617187486,0.891189770371055,0.325256999999993,
-0.814746824951172,0.0389297189941406,0.0126413847656277,0.815774304815843,0.32830100000001,
-1.02304236938477,0.213706440185547,-0.011300631835935,1.04518602957228,0.331230000000005,
-1.0541669909668,0.256802070068359,0.0126413847656277,1.08506919256063,0.334270000000004,
-0.932062706298828,0.105967365478516,0.0294007963867209,0.938527771484535,0.337212999999991,
-0.793199010009766,0.149062995361328,0.0365834013671886,0.807912613666947,0.340157000000005,
-0.984735142822266,0.165822406982422,0.0557370146484395,1.00015348170596,0.343181999999985,
-1.0924742175293,0.244831061767578,-0.00411802685546725,1.11957988679579,0.346119999999985,
-0.876996068115235,0.170610810302734,0.0389776030273463,0.89428709351052,0.349147999999985,
-0.817141026611328,0.0485065256347656,-0.0376368500976536,0.819444246355934,0.352097999999984,
-0.970369932861328,0.134697785400391,-0.00651222851562316,0.979695722718696,0.355029000000002,
-0.977552537841797,0.273561481689453,-0.0232716401367163,1.01537501335207,0.358045000000004,
-0.879390269775391,0.177793415283203,0.0222181914062514,0.897458296035568,0.360993000000008,
-0.843477244873047,0.0652659372558593,0.0174297880859395,0.846178056142579,0.364025999999996,
-0.92488010131836,0.163428205322266,0.0222181914062514,0.939470929906232,0.367048000000011,
-1.07810900756836,0.263984675048828,0.0317949980468768,1.11041337472199,0.370156000000009,
-1.03261917602539,0.158639802001953,0.0533428129882836,1.04609483564927,0.373210999999998,
-0.843477244873047,0.146668793701172,-0.0256658417968723,0.856518728983509,0.376204000000001,
-0.75249758178711,0.189764423583984,-0.0735498749999977,0.77953366262537,0.379232999999999,
-0.697430943603516,-0.126270195556641,0.00306457812500227,0.7087760401006,0.382168000000007,
-1.03261917602539,0.0892079538574218,-0.0903092866210926,1.04039232454723,0.385156999999992,
-1.2289437121582,0.489039631103516,-0.0376368500976536,1.32320782227446,0.388163999999989,
-1.12120463745117,0.659027948974609,0.000670376464846356,1.30054531869378,0.391117000000008,
-1.1906364855957,0.350175934814453,0.156293484375002,1.25086613169153,0.394149999999996,
-1.29837556030273,0.204129633544922,-0.0807324799804672,1.31680132753822,0.397082000000012,
-0.726161363525391,0.213706440185547,-0.0424252534179672,0.758142909075467,0.400117999999992,
-0.934456907958985,0.393271564697266,0.134745669433595,1.02275541155391,0.403092999999984,
-1.43963345825195,0.568048285888672,-0.049607858398435,1.54844576554506,0.406060999999994,
-1.34865379516602,0.893659711669922,0.185023904296877,1.62841290360858,0.409153000000003,
-1.60962177612305,0.915207526611328,-0.0950976899414044,1.85405788732923,0.412139999999994,
-1.0374075793457,0.371723749755859,0.00545877978515819,1.10200854356634,0.415168999999992,
-1.14514665405273,0.381300556396484,0.04855440966797,1.20793563748018,0.418135000000007,
-0.723767161865235,-0.219644060302734,0.0988326445312513,0.762791130943307,0.421035999999987,
-0.577720860595703,-0.0879629689941407,0.0940442412109395,0.591897960789396,0.42405500000001,
-0.855448253173828,0.357358539794922,-0.0998860932617163,0.932455935392982,0.426984000000004,
-1.14275245239258,0.211312238525391,0.0174297880859395,1.16225635171961,0.430024000000003,
-0.965581529541016,0.462703412841797,-0.0232716401367163,1.07097325255156,0.432941999999997,
-1.35344219848633,0.438761396240234,-0.00890643017577908,1.42281294342323,0.435881999999992,
-0.735738170166016,-0.317806328369141,-0.0184832368164045,0.801656502146601,0.438885999999997,
-0.199436998291016,-0.0113485158691407,0.0796790312500022,0.215064299967944,0.441826999999989,
-0.994311949462891,0.216100641845703,0.0126413847656277,1.01760284239953,0.44485499999999,
-1.37977841674805,0.0413239206542969,-0.0424252534179672,1.38104889409085,0.447811999999999,
-0.86741926147461,0.407636774658203,0.000670376464846356,0.958428069619992,0.450729999999993,
-0.762074388427735,0.225677448486328,-0.0424252534179672,0.795919334091328,0.453753000000006,
-0.860236656494141,-0.222038261962891,-0.00172382519531133,0.888431801842451,0.456680000000006,
-0.876996068115235,0.275955683349609,0.0868616362304699,0.923481773783958,0.459703999999988,
-0.58011506225586,-0.210067253662109,0.0677080229492208,0.620681974032558,0.462627999999995,
-1.06853220092773,0.201735431884766,-0.0735498749999977,1.08989349617736,0.465642000000003,
-1.19781909057617,0.204129633544922,0.153899282714846,1.22479568510836,0.46861899999999,
-0.912909093017578,0.529741059326172,0.206571719238283,1.07550010564353,0.471552000000003,
-0.917697496337891,0.326233918212891,0.11319785449219,0.980515690052435,0.474581999999998,
-1.10683942749023,0.122726777099609,0.00545877978515819,1.1136360169916,0.477540000000005,
-0.920091697998047,0.151457197021484,0.0892558378906276,0.936736152741044,0.480539999999991,
-0.673488927001953,0.189764423583984,0.027006594726565,0.700233694855603,0.483496000000002,
-0.939245311279297,0.0580833322753906,-0.0328484467773418,0.941612685080251,0.486427999999989,
-1.01825396606445,0.201735431884766,-0.0256658417968723,1.03836268197526,0.489463999999998,
-0.888967076416016,0.326233918212891,0.01024718310547,0.946993155786129,0.492415999999992,
-0.920091697998047,0.110755768798828,0.00306457812500227,0.926738887004443,0.495446999999984,
-0.80995842163086,-0.0209253225097656,0.0317949980468768,0.810852289750539,0.498377000000005,
-0.841083043212891,0.249619465087891,0.00306457812500227,0.877348251591183,0.501318999999995,
-1.00867715942383,0.247225263427734,0.0246123930664091,1.03882419721178,0.504377000000005,
-1.00149455444336,0.0963905588378906,-0.011300631835935,1.00618596029396,0.507427000000007,
-0.795593211669922,0.180187616943359,0.0413718046875022,0.816791137303833,0.510574999999989,
-0.838688841552735,0.156245600341797,-0.00411802685546725,0.853128723415417,0.513621000000001,
-0.965581529541016,0.0724485422363281,0.0317949980468768,0.968817528414788,0.516593,
-0.98234094116211,0.223283246826172,0.0365834013671886,1.00806124727225,0.519614999999988,
-0.915303294677735,0.230465851806641,0.04855440966797,0.945120183254533,0.522562999999991,
-0.88657287475586,0.0604775339355468,-0.011300631835935,0.888705068424663,0.525601999999992,
-0.879390269775391,0.144274592041016,0.04855440966797,0.89246845052497,0.52857800000001,
-0.948822117919922,0.261590473388672,-0.0160890351562486,0.984353515904736,0.531509999999997,
-0.977552537841797,0.144274592041016,-0.0328484467773418,0.988687585946756,0.534549999999996,
-0.92488010131836,0.103573163818359,0.04855440966797,0.931927107007951,0.537509999999997,
-0.79080480834961,0.173005011962891,0.0581312163085954,0.811592396084795,0.540547000000004,
-0.941639512939453,0.158639802001953,0.0437660063476581,0.955911618519041,0.543519000000003,
-1.01107136108398,0.134697785400391,-0.011300631835935,1.02006690705849,0.546478000000008,
-0.908120689697266,0.232860053466797,0.04855440966797,0.938756902640403,0.549541000000005,
-0.874601866455078,0.125120978759766,0.0365834013671886,0.884263551995728,0.552500000000009,
-0.920091697998047,0.0844195505371093,0.0557370146484395,0.925636001914217,0.555525999999986,
-0.874601866455078,0.165822406982422,0.04855440966797,0.891506043817066,0.558492000000001,
-0.896149681396485,0.182581818603516,0.0150355864257836,0.91468379279987,0.561503999999985,
-0.920091697998047,0.0987847604980468,0.0892558378906276,0.929674010731258,0.564456000000007,
-0.857842454833985,0.177793415283203,0.000670376464846356,0.876073413155694,0.567395000000005,
-0.922485899658203,0.180187616943359,0.0198239897460954,0.940128077943312,0.570433000000008,
-0.953610521240235,0.156245600341797,0.00545877978515819,0.966341302088958,0.573367999999988,
-0.932062706298828,0.175399213623047,0.0078529814453141,0.948455292531103,0.576393999999993,
-0.881784471435547,0.208918036865234,-0.047213656738279,0.907424779017573,0.579351000000003,
-0.920091697998047,0.149062995361328,-0.0136948334960927,0.932188853063319,0.582280999999995,
-0.967975731201172,0.129909382080078,0.0341891997070327,0.977252457210254,0.585323999999986,
-0.936851109619141,0.220889045166016,0.0222181914062514,0.962795731138404,0.588271999999989,
-0.936851109619141,0.151457197021484,-0.00890643017577908,0.949056694103517,0.59131099999999,
-0.912909093017578,0.175399213623047,-0.0208774384765604,0.92984071952733,0.594267000000002,
-0.888967076416016,0.139486188720703,-0.00172382519531133,0.899845448601464,0.597187999999989,
-0.908120689697266,0.182581818603516,0.0389776030273463,0.927113024975144,0.600214999999992,
-0.946427916259766,0.127515180419922,0.0317949980468768,0.955508683275107,0.603172999999998,
-0.951216319580078,0.122726777099609,-0.0136948334960927,0.959198570118416,0.606209000000007,
-0.88657287475586,0.146668793701172,-0.0783382783203113,0.902031087684242,0.609154999999987,
-0.893755479736328,0.141880390380859,-0.047213656738279,0.906177704490648,0.612086000000005,
-0.912909093017578,0.146668793701172,0.0413718046875022,0.925541124630902,0.615120999999988,
-0.922485899658203,0.182581818603516,0.0317949980468768,0.940918316036824,0.618067999999994,
-0.965581529541016,0.158639802001953,0.0294007963867209,0.978968173026151,0.621098999999987,
-0.94403371459961,0.153851398681641,-0.0136948334960927,0.956586355558932,0.624036999999987,
-0.967975731201172,0.266378876708984,0.0341891997070327,1.0045414991566,0.626988000000011,
-0.920091697998047,0.165822406982422,-0.011300631835935,0.934983159026014,0.630014999999986,
-0.876996068115235,0.0939963571777343,0.00545877978515819,0.882035836533306,0.632967000000008,
-0.850659849853516,0.0724485422363281,0.0150355864257836,0.853871793821615,0.635996000000006,
-0.90572648803711,0.137091987060547,-0.0184832368164045,0.916229400364045,0.638941999999986,
-0.956004722900391,0.180187616943359,0.0437660063476581,0.973821375211698,0.641887999999994,
-0.958398924560547,0.184976020263672,0.0557370146484395,0.97767645030108,0.644977000000011,
-0.860236656494141,0.156245600341797,0.0198239897460954,0.874535753055208,0.648021,
-0.912909093017578,0.170610810302734,0.0078529814453141,0.928747936753516,0.651151999999996,
-0.946427916259766,0.177793415283203,0.0677080229492208,0.965360386366439,0.654167000000001,
-0.967975731201172,0.237648456787109,0.0892558378906276,1.0007099528861,0.657178999999985,
-0.903332286376953,0.156245600341797,-0.00172382519531133,0.916746900082289,0.660121000000004,
-0.891361278076172,0.091602155517578,0.0317949980468768,0.896619654507894,0.663060999999999,
-0.934456907958985,0.187370221923828,0.084467434570314,0.956792590062727,0.666092999999989,
-0.999100352783204,0.208918036865234,0.00545877978515819,1.0207242817411,0.669062999999994,
-0.946427916259766,0.153851398681641,0.0413718046875022,0.959743548962534,0.672083999999984,
-0.860236656494141,0.156245600341797,0.0461602080078141,0.875528730314267,0.675041999999991,
-0.898543883056641,0.137091987060547,0.0246123930664091,0.909275036821737,0.677979999999991,
-0.929668504638672,0.163428205322266,0.0533428129882836,0.945429935272553,0.681014000000005,
-0.941639512939453,0.156245600341797,-0.0208774384765604,0.954742649823691,0.683968999999991,
-0.912909093017578,0.223283246826172,0.0198239897460954,0.940027345877165,0.687042999999989,
-0.88657287475586,0.120332575439453,0.000670376464846356,0.894702095878492,0.690019000000007,
-0.893755479736328,0.113149970458984,-0.0184832368164045,0.901079021738268,0.692944000000011,
-0.903332286376953,0.196947028564453,0.0078529814453141,0.924585864584227,0.695979999999992,
-0.929668504638672,0.170610810302734,0.0724964262695327,0.947970099175662,0.698925000000003,
-0.900938084716797,0.139486188720703,0.0533428129882836,0.913231233059022,0.701944999999995,
-0.90572648803711,0.180187616943359,0.000670376464846356,0.923476311464657,0.704883999999993,
-0.891361278076172,0.199341230224609,0.0126413847656277,0.913466835046484,0.707808999999997,
-0.922485899658203,0.158639802001953,0.0437660063476581,0.937049777311241,0.710834000000006,
-0.92488010131836,0.156245600341797,0.00545877978515819,0.9380008996358,0.71376699999999,
-0.891361278076172,0.115544172119141,0.0078529814453141,0.89885318772415,0.716813000000002,
-0.903332286376953,0.132303583740234,0.00545877978515819,0.912985901401695,0.719751000000002,
-0.92488010131836,0.120332575439453,0.0772848295898463,0.935871826379704,0.72268600000001,
-0.910514891357422,0.175399213623047,0.0509486113281277,0.928653871213309,0.725718000000001,
-0.903332286376953,0.163428205322266,0.0126413847656277,0.918083766611012,0.728658999999993,
-0.893755479736328,0.201735431884766,0.000670376464846356,0.916240411377414,0.731684999999999,
-0.956004722900391,0.184976020263672,0.027006594726565,0.974110114124253,0.734631000000007,
-0.941639512939453,0.144274592041016,-0.0328484467773418,0.953194183098668,0.737562999999994,
-0.94403371459961,0.182581818603516,0.0748906279296886,0.964439931222783,0.740600000000001,
-0.927274302978516,0.146668793701172,-0.00411802685546725,0.938811123791805,0.74356800000001,
-0.951216319580078,0.180187616943359,0.0150355864257836,0.968249003508067,0.746603999999991,
-0.908120689697266,0.168216608642578,0.0581312163085954,0.925396808287647,0.749563999999992,
-0.967975731201172,0.182581818603516,-0.047213656738279,0.986175575676872,0.752563000000009,
-0.977552537841797,0.163428205322266,0.0581312163085954,0.992822733847947,0.755527999999998,
-0.941639512939453,0.184976020263672,0.0461602080078141,0.960745473684244,0.758467999999993,
-0.92488010131836,0.139486188720703,0.0389776030273463,0.93615108406509,0.761514000000005,
-0.96318732788086,0.129909382080078,0.0701022246093768,0.974433475429637,0.764459999999985,
-0.896149681396485,0.177793415283203,0.0317949980468768,0.91416938905538,0.767472999999995,
-0.88657287475586,0.127515180419922,0.0461602080078141,0.896884802131087,0.77042800000001,
-0.903332286376953,0.144274592041016,0.0294007963867209,0.915253398981828,0.773359999999997,
-0.869813463134766,0.163428205322266,0.0317949980468768,0.885604404260815,0.776387,
-0.903332286376953,0.165822406982422,0.0509486113281277,0.91983805708653,0.779332000000011,
-0.965581529541016,0.151457197021484,0.000670376464846356,0.977388061173748,0.782371000000012,
-0.896149681396485,0.153851398681641,0.0748906279296886,0.912339361474129,0.785428999999993,
-0.879390269775391,0.146668793701172,0.0294007963867209,0.892022078454096,0.788464000000005,
-0.900938084716797,0.168216608642578,0.0461602080078141,0.91766934389229,0.791596999999996,
-0.934456907958985,0.199341230224609,0.0317949980468768,0.956011276502808,0.794570999999991,
-0.951216319580078,0.165822406982422,0.0748906279296886,0.968461751152113,0.797610999999989,
-0.951216319580078,0.184976020263672,0.0365834013671886,0.969725198168867,0.800570999999991,
-0.893755479736328,0.122726777099609,0.027006594726565,0.902546439544635,0.803537000000006,
-0.884178673095703,0.170610810302734,0.0174297880859395,0.900657411040488,0.806580999999994,
-0.941639512939453,0.216100641845703,0.0413718046875022,0.967003663880379,0.809528,
-0.929668504638672,0.168216608642578,0.0341891997070327,0.945383127264773,0.812570999999991,
-0.891361278076172,0.125120978759766,0.0078529814453141,0.900134354803198,0.815526000000006,
-0.893755479736328,0.177793415283203,0.0246123930664091,0.91160031042625,0.818473000000012,
-0.900938084716797,0.134697785400391,0.0868616362304699,0.915083531560685,0.821521999999987,
-0.900938084716797,0.177793415283203,0.0413718046875022,0.919245101827764,0.824481999999989,
-0.958398924560547,0.158639802001953,0.0126413847656277,0.971521945190547,0.827552999999995,
0.949779798583984,1.47784491674805,0.0892558378906276,1.75899797281118,0.830528999999984,
-1.84664774047852,-1.42632169702148,-0.0280600434570299,2.33351426540475,0.833438000000001,
-2.11479832641602,-0.617081535888672,-0.147770126464842,2.20793967164462,0.836471999999986,
-0.00550666381835963,1.15941609594727,0.261638357421877,1.18858345813932,0.839425000000006,
0.442209046630859,1.50657533666992,0.15150508105469,1.57742571158507,0.842470999999989,
-1.32710598022461,-1.91952723901367,0.608797598144534,2.41172751768725,0.845410999999984,
-1.39653782836914,-1.1078928762207,-0.370430880859374,1.82070414091385,0.848407000000009,
-0.201831199951172,1.06364802954102,0.0222181914062514,1.0828557669651,0.851375999999988,
-1.34865379516602,0.963091559814453,-0.224384579589842,1.67235189220428,0.854331000000002,
-2.24887361938477,-0.0400789357910157,0.0605254179687513,2.25004493361336,0.85735600000001,
-1.24330892211914,0.857746686767578,-0.133404916503904,1.51635857442402,0.860322999999994,
-0.692642540283203,1.32222180883789,-0.238749789550779,1.51163013412245,0.863327999999996,
-1.41090303833008,0.314262909912109,0.352618020507814,1.48786693911194,0.866298999999998,
-1.23612631713867,-0.0233195241699219,-0.0759440766601536,1.23867654168071,0.869202000000001,
-0.58011506225586,0.388483161376953,0.0437660063476581,0.699548508283146,0.872228000000007,
-0.898543883056641,-0.147818010498047,-0.437468527343748,1.0102524369792,0.875134000000003,
-1.69102463256836,-0.430333806396484,-0.10467449658203,1.74805842096749,0.878150000000005,
-1.7436970690918,0.156245600341797,-0.425497519042967,1.80164932633884,0.88112799999999,
1.44298534057617,-0.0448673391113282,-0.85166541455078,1.67617235079768,0.884039000000001,
0.854011732177734,-0.720032207275391,0.0772848295898463,1.11971217868514,0.887066000000004,
-1.97593463012695,0.0269587106933593,0.0916500395507835,1.97824269602262,0.890025000000009,
-2.34224748413086,0.204129633544922,-0.583514828613279,2.42245366094382,0.893032000000005,
-0.747709178466797,0.596778705810547,0.0892558378906276,0.960822795248927,0.895992000000007,
0.906684168701172,-0.89959733178711,0.0533428129882836,1.27835714760364,0.89892900000001,
-1.05656119262695,-0.447093218017578,0.0940442412109395,1.15111173161755,0.901936000000006,
-1.88974337036133,0.936755341552734,-0.0208774384765604,2.10928339565586,0.90489199999999,
-0.965581529541016,0.625509125732422,0.0365834013671886,1.15106372622062,0.907944999999984,
-0.247321031494141,-0.997759599853516,0.027006594726565,1.02830990847988,0.910886000000005,
-0.458010777587891,0.393271564697266,-0.00172382519531133,0.60368813766663,0.913803999999999,
-1.70060143920898,0.800285846923828,0.0222181914062514,1.87962664905976,0.916850000000011,
-1.30076976196289,-0.147818010498047,0.0533428129882836,1.31022806929256,0.919777000000011,
-0.0677559069824221,-0.298652715087891,0.027006594726565,0.307430745565736,0.922834999999992,
-0.663912120361328,0.431578791259766,0.0294007963867209,0.792403914336678,0.925880000000006,
-1.56173774291992,0.254407868408203,-0.00651222851562316,1.5823370533135,0.928929000000011,
-0.991917747802735,-0.0879629689941407,0.00545877978515819,0.995825336390402,0.932005000000004,
-0.165918175048828,0.0892079538574218,0.0222181914062514,0.189685391826377,0.93495999999999,
-0.666306322021485,0.0413239206542969,0.134745669433595,0.681049320251587,0.937984999999998,
-1.31513497192383,-0.61229313256836,-0.430285922363279,1.51315195851292,0.940924999999993,
-0.891361278076172,-0.384843974853516,-0.0711556733398417,0.973495219753588,0.94392400000001,
-0.747709178466797,-0.135847002197266,-0.269874411132811,0.806446291673387,0.946879999999993,
-0.857842454833985,-0.238797673583984,0.173052895996095,0.90711923749712,0.949809999999985,
-0.256897838134766,2.3996125559082,0.12516886279297,2.41656867519289,0.952834999999993,
-0.50350060913086,0.426790387939453,0.632739614746097,0.914342560915598,0.955792000000002,
-1.08289741088867,0.0125935007324218,-0.32733525097656,1.13135925563102,0.958804999999984,
-0.88657287475586,0.141880390380859,-0.18128894970703,0.915973356988822,0.961752999999987,
-0.862630858154297,0.0556891306152343,0.127563064453128,0.873788081929121,0.964718000000005,
-1.60483337280273,0.0485065256347656,-0.317758444335936,1.63670811888906,0.967792000000003,
-1.25049152709961,0.826622065185547,0.321493398925783,1.53309853028186,0.970746999999989,
-0.996706151123047,1.3054623972168,-0.320152645996092,1.67336575170279,0.973766000000012,
-1.49230589477539,0.704517780517578,0.106015249511721,1.65365093649652,0.976734999999991,
-1.7269376574707,0.254407868408203,-0.600274240234373,1.84590525211544,0.979670999999996,
-1.67905362426758,0.0892079538574218,-0.281845419433592,1.70488004641183,0.982707000000005,
-1.79158110229492,0.244831061767578,-0.700830709960936,1.93929594928956,0.985648999999995,
-1.32471177856445,0.316657111572266,1.00144667041016,1.69057045290999,0.98869400000001,
0.858800135498047,0.314262909912109,-0.439862729003904,1.01477981338054,0.99163200000001,
-0.462799180908203,-0.00177170922851566,0.15150508105469,0.486970235628711,0.994565999999992,
-2.21774899780273,-0.547649687744141,-0.205230966308592,2.29356721010596,0.997577000000007,
-1.00867715942383,-0.186125237060547,0.213754324218751,1.04774191809643,1.00051199999999,
-0.0845153186035159,0.654239545654297,0.0868616362304699,0.66536994674033,1.00356400000001,
0.00646434448242172,-0.712849602294922,-0.154952731445311,0.729524977107692,1.00650899999999,
-0.436462962646485,-1.19408413598633,0.0126413847656277,1.27141521391918,1.00944799999999,
-1.3223175769043,0.967879963134766,0.0820732329101581,1.64074721172645,1.01250400000001,
-1.49948849975586,0.934361139892578,-0.150164328124998,1.77314574304615,1.015458,
