X,Y,Z,Magnitude,Seconds,
2.00610157104492,5.07858056152344,-0.291901066406249,5.46823831464958,0.0,
1.8816030847168,5.00196610839844,-0.765952995117187,5.39877570461224,0.00294800000028772,
1.76907560668945,4.67874888427734,-0.519350224121093,5.02892078676974,0.00595700000030774,
1.70443216186523,4.73381552246094,-0.332602494628906,5.04229340821477,0.00891000000046915,
2.00370736938477,4.45369392822266,-0.109941740234374,4.88490737012074,0.0119230000000243,
2.38199123168945,3.48404225585938,0.215669685546876,4.2259846286662,0.0148880000006102,
2.3412898034668,3.38587998779297,0.0911711992187509,4.11753972939199,0.0178210000003673,
2.25509854370117,3.59896393554688,0.0504697709960951,4.24741780955849,0.0209380000005694,
2.1880608972168,3.89584494140625,-0.0572693037109371,4.46861254424205,0.0239730000002965,
2.15454207397461,3.95809418457031,-0.114730143554686,4.50796230333576,0.0270909999999276,
2.08032182250977,4.02513183105469,-0.272747453125,4.53914268510764,0.03009800000018,
1.99413056274414,4.13765930908203,-0.373303922851562,4.60826833833706,0.0330309999999372,
1.81456543823242,4.15920712402344,-0.595964677246092,4.57677020689044,0.0360420000006343,
1.53923224731445,4.25736939208984,-0.734828373535155,4.58632781105194,0.0389800000002651,
1.35009031616211,4.34116645019531,-0.926364506347655,4.63967899845634,0.0420340000000579,
1.20164981323242,4.40580989501953,-1.02213257275391,4.67973055858754,0.0449699999999211,
1.05799771362305,4.50157796142578,-1.03649778271484,4.73897572882566,0.0479040000000168,
0.967018050537109,4.58537501953125,-1.06762240429688,4.80630893492735,0.0509449999999561,
0.727597884521484,4.63804745605469,-0.98143114453125,4.79625791400248,0.0538839999999254,
0.344525618896484,4.89662123535156,-0.85932685986328,4.98337637316853,0.056933000000754,
0.732386287841797,4.62847064941406,-1.2304281171875,4.84490284512205,0.0598850000005768,
0.646195028076172,4.77930535400391,-1.27831215039062,4.98932957770451,0.0629220000000714,
0.619858809814453,4.796064765625,-1.23761072216797,4.99180753633384,0.0658680000005916,
0.593522591552734,4.88943863037109,-1.29746576367187,5.09335808624814,0.0688010000003487,
0.734780489501953,5.05463854492188,-1.28310055371094,5.26646183110596,0.0718270000006669,
0.864067379150391,5.24138627441406,-1.20409189892578,5.44688716739999,0.0747730000002775,
0.955047042236328,5.32518333251953,-1.35253240185547,5.57665099104266,0.0777760000000853,
1.04123830200195,5.39940358398438,-1.38605122509766,5.67087949641799,0.0807170000007318,
1.09630494018555,5.34673114746094,-1.4602714765625,5.64993905014614,0.0836440000002767,
0.962229647216797,5.21026165283203,-1.498578703125,5.5062192577498,0.0866519999999582,
1.03644989868164,4.97084148681641,-1.42196425,5.27308977809125,0.0896080000002257,
1.02926729370117,4.83916039550781,-1.31183097363281,5.1183752303555,0.0926180000005843,
0.95983544555664,4.67156627929687,-1.11311223583984,4.89732931647311,0.0955659999999625,
0.627041414794922,4.43693451660156,-1.04128618603516,4.60041799858513,0.0984950000001845,
0.524090743408203,4.09456367919922,-0.962277531249999,4.23864375449178,0.101505999999972,
1.27347586303711,3.81204788330078,-0.742010978515625,4.08705641391868,0.10444600000028,
1.39318594604492,3.83120149658203,-0.684550138671874,4.1337248190978,0.10746300000028,
0.684502254638672,3.53432049072266,-0.61032988720703,3.65136511991962,0.1104090000008,
1.16573678833008,3.22786267822266,-0.53371543408203,3.47316741515669,0.113341000000219,
0.787452926025391,2.97647150390625,-0.655819718749999,3.14794603317357,0.116361000000325,
1.14658317504883,2.76099335449219,-0.552869047363281,3.04029627904707,0.119312000000718,
0.947864437255859,2.49523697021484,-0.947912321289062,2.83252401539562,0.12232800000038,
0.706050069580078,2.70592671630859,-1.16099626904297,3.02794623986595,0.125285000000076,
0.650983431396484,2.67001369140625,-1.00297895947265,2.92552889806175,0.128211000000192,
0.473812508544922,2.46650655029297,-1.08917021923828,2.73759833108645,0.131232000000637,
0.509725533447265,2.01639663818359,-1.32859038525391,2.46796027798571,0.13417600000048,
1.14897737670898,1.66923739746094,-1.06283400097656,2.28825667592232,0.137202000000798,
1.3069946862793,1.81049529541016,-1.13226584912109,2.50362822275004,0.140148000000409,
0.820971749267578,1.54952731445313,-0.864115263183594,1.95492319526846,0.143080000000737,
1.0771513269043,1.25982891357422,-1.27352374707031,2.09028385796793,0.146083000000544,
1.44825258422852,0.895910261230469,-1.36210920849609,2.18069535693835,0.149028000000726,
0.983777462158203,0.560722028808594,-1.95347701855469,2.25794148521678,0.152039999999943,
1.76189300170898,0.6205770703125,-1.47942508984375,2.382872519907,0.154984000000695,
2.76506349731445,0.529597407226563,-0.236834428222656,2.82526814732929,0.158028000000741,
2.65253601928711,0.843237824707031,-1.06522820263672,2.98021953659874,0.161079000000427,
2.25509854370117,0.709162531738281,-0.768347196777343,2.48570681155687,0.164107000000513,
3.03560828491211,0.165678754882813,-1.02931517773438,3.20965057979228,0.167226000000483,
2.94941702514648,0.378762702636719,-0.370909721191406,2.99668082958578,0.170196000000033,
3.76105138793945,-0.629196196289063,-2.42752894726562,4.52043053103999,0.173228999999992,
3.51923702026367,0.000478840332031241,-0.97424853955078,3.65160097093032,0.176195000000007,
4.27580474487305,-0.217393510742188,-1.47703088818359,4.52894981198071,0.179158000000825,
4.26862213989258,-0.258094938964844,-1.33337878857422,4.47946949588007,0.182223000000704,
4.80971171508789,0.330878669433594,-1.59674097119141,5.07862079754151,0.185175999999956,
5.29573465209961,-0.487938298339844,-1.16817887402344,5.44495465271751,0.188203000000613,
5.5040301965332,-0.593283171386719,-1.99417844677734,5.88413808500373,0.191184000000248,
-5.18608021606445,17.3488640698242,-9.89743812695313,20.6358376131806,0.194100000000617,
12.7895858483887,-8.69765579101563,-0.141066361816405,15.4674698044227,0.197159000000283,
12.8039510583496,-1.23732341796875,7.44855290087891,14.8644903129054,0.200176000000283,
5.55191422973633,-2.77440088378906,-3.25831692333984,7.00982746230184,0.20322699999997,
6.61015136352539,-2.74806466552734,1.80063118457031,7.38161453324973,0.206216999999924,
6.52635430541992,-1.82150862304688,-0.509773417480469,6.79492922118229,0.209165000000212,
7.02434825073242,-0.641167204589844,-1.25197593212891,7.16379839655188,0.212206000000151,
7.46248715454102,0.0411802685546875,-0.696521146972655,7.49503516031699,0.215146000000459,
7.09856850219727,0.148919343261719,-0.928758708007813,7.16061760526877,0.218172000000777,
6.37312539916992,-0.140779057617187,-1.61828878613281,6.57688411726492,0.221146000000772,
5.83203582397461,-0.480755693359375,-1.7284220625,6.10173833550386,0.224099000000024,
5.43699255004883,-0.617225187988281,-1.80024811230469,5.76044687396995,0.227136000000428,
5.12814053588867,-0.638773002929688,-1.72363365917969,5.44763887350782,0.230116000000635,
4.90069137817383,-0.521457121582031,-1.76433508740234,5.23465106902026,0.233172000000195,
-0.385705887451172,0.280600434570313,0.0432871660156255,0.478935709920662,20.964148,
-0.414436307373047,0.316513459472656,-0.0141736738281235,0.521669546673123,20.9683520000008,
-0.395282694091797,0.299754047851563,0.0241335527343765,0.496672251912113,20.9712880000006,
-0.440772525634766,0.304542451171875,-0.00938527050781168,0.535830763602398,20.9741950000007,
-0.402465299072266,0.297359846191406,0.000191536132813752,0.500401070912519,20.9772230000008,
-0.433589920654297,0.282994636230469,-0.0117794721679676,0.517904372826462,20.9801460000008,
-0.38091748413086,0.280600434570313,0.00497993945312558,0.473137964440171,20.9831520000007,
-0.388100089111328,0.249475812988281,0.00497993945312558,0.461394256825268,20.9860900000003,
-0.404859500732422,0.297359846191406,-0.00459686718749985,0.50234970354149,20.9889870000006,
-0.376129080810547,0.318907661132813,-0.0381156904296862,0.494598814816129,20.991978,
-0.402465299072266,0.278206232910156,0.00976834277343741,0.489359219293892,20.994909,
-0.383311685791016,0.282994636230469,-0.0572693037109371,0.479889139017233,20.9979830000002,
-0.40007109741211,0.271023627929688,0.0313161577148442,0.484243112098376,21.0010150000007,
-0.376129080810547,0.306936652832031,0.00497993945312558,0.485497676698946,21.0040150000004,
-0.407253702392578,0.273417829589844,0.0217393510742188,0.491004569261032,21.0070700000006,
-0.426407315673828,0.316513459472656,-0.0237504804687489,0.531571306797127,21.0099810000002,
-0.404859500732422,0.27581203125,0.0265277543945324,0.490598831703433,21.0129660000002,
-0.378523282470703,0.282994636230469,-0.0285388837890626,0.473476828784194,21.0158700000002,
-0.409647904052735,0.285388837890625,0.0169509477539069,0.499545321985018,21.0188020000005,
-0.390494290771485,0.27581203125,-0.00220266552734216,0.478082544591205,21.0217680000005,
-0.424013114013672,0.273417829589844,-0.0117794721679676,0.504661457174756,21.024684,
-0.376129080810547,0.306936652832031,-0.0141736738281235,0.485678996161975,21.0276730000005,
-0.433589920654297,0.27581203125,0.0121625444335951,0.514023757585532,21.0305820000003,
-0.404859500732422,0.273417829589844,0.0289219560546883,0.489392485039315,21.0335760000007,
-0.395282694091797,0.263841022949219,0.00258573779296967,0.475254857607256,21.0365000000002,
-0.356975467529297,0.285388837890625,0.0121625444335951,0.45719383274211,21.0394630000001,
-0.40007109741211,0.290177241210938,0.052863972656251,0.49704558534034,21.0424600000006,
-0.416830509033203,0.29496564453125,0.0313161577148442,0.511598579404435,21.0454050000008,
-0.41922471069336,0.3141192578125,-0.0381156904296862,0.52523620595075,21.0483710000008,
-0.424013114013672,0.273417829589844,0.0289219560546883,0.505352263213713,21.0513170000004,
-0.424013114013672,0.268629426269531,-0.00938527050781168,0.502032840375979,21.0542020000003,
-0.40007109741211,0.290177241210938,0.00497993945312558,0.494251468483683,21.0572280000006,
-0.412042105712891,0.278206232910156,0.0408929643554696,0.498848313061346,21.060152,
-0.390494290771485,0.302148249511719,0.0408929643554696,0.495430711948602,21.0631550000007,
-0.404859500732422,0.263841022949219,-0.0357214887695303,0.484560961576671,21.0660630000002,
-0.385705887451172,0.29496564453125,-0.0309330854492185,0.486549708502267,21.0689830000001,
-0.421618912353516,0.287783039550781,-0.0189620771484371,0.510823986787065,21.0719680000002,
-0.397676895751953,0.290177241210938,-0.0117794721679676,0.492431214177429,21.0748970000004,
-0.409647904052735,0.266235224609375,-0.00699106884765577,0.488611783690524,21.0778700000001,
-0.38091748413086,0.3141192578125,-0.0740287153320303,0.499248724123528,21.080809,
-0.424013114013672,0.266235224609375,-0.00938527050781168,0.50075582770536,21.0836990000007,
-0.428801517333985,0.311725056152344,0.0121625444335951,0.530274626385431,21.086722,
-0.388100089111328,0.273417829589844,0.0289219560546883,0.475621139403907,21.0896540000003,
-0.402465299072266,0.323696064453125,0.0313161577148442,0.517434209183922,21.0926530000006,
-0.404859500732422,0.27581203125,0.0648349809570323,0.494152877833627,21.0955710000007,
-0.416830509033203,0.304542451171875,-0.0309330854492185,0.51715629513916,21.0984670000007,
-0.376129080810547,0.292571442871094,-0.0165678754882812,0.476807748587684,21.1014460000006,
-0.354581265869141,0.311725056152344,-0.00220266552734216,0.472128411000619,21.1043520000003,
-0.402465299072266,0.290177241210938,0.0241335527343765,0.496753033852539,21.1073420000002,
-0.407253702392578,0.309330854492188,-0.0141736738281235,0.511607318832633,21.1102440000004,
-0.392888492431641,0.290177241210938,0.0456813676757815,0.490561908585173,21.1131450000003,
-0.392888492431641,0.318907661132813,-0.0117794721679676,0.50616422214432,21.1161110000003,
-0.412042105712891,0.280600434570313,-0.00220266552734216,0.498517956042495,21.1190130000005,
-0.392888492431641,0.266235224609375,-0.0572693037109371,0.478040098167034,21.1219639999999,
-0.397676895751953,0.27581203125,-0.0764229169921862,0.489958827085252,21.1248770000002,
-0.421618912353516,0.323696064453125,-0.021356278808593,0.53197531901504,21.1278310000007,
-0.424013114013672,0.290177241210938,-0.0429040937499998,0.515587735921706,21.1307430000006,
-0.409647904052735,0.299754047851563,-0.0189620771484371,0.507960091806412,21.1336770000007,
-0.424013114013672,0.278206232910156,0.0600465776367187,0.510677413218476,21.1367749999999,
-0.378523282470703,0.292571442871094,-0.0261446821289049,0.479125733977722,21.1397910000005,
-0.392888492431641,0.290177241210938,0.0217393510742188,0.48891389649623,21.1428720000004,
-0.416830509033203,0.266235224609375,0.0121625444335951,0.494749224931968,21.1457870000004,
-0.424013114013672,0.304542451171875,0.000191536132813752,0.522047183794181,21.1487080000006,
-0.424013114013672,0.290177241210938,0.0456813676757815,0.515826268742773,21.1517060000006,
-0.40007109741211,0.304542451171875,-0.0548751020507812,0.505780846192684,21.1546430000008,
-0.416830509033203,0.318907661132813,-0.0668461103515625,0.52907293642674,21.1576520000008,
-0.385705887451172,0.328484467773438,0.0313161577148442,0.507594108434008,21.1605650000001,
-0.397676895751953,0.282994636230469,-0.0309330854492185,0.489070274424376,21.1634520000007,
-0.414436307373047,0.27581203125,-0.00938527050781168,0.497913459100839,21.1664460000002,
-0.390494290771485,0.268629426269531,-0.0716345136718743,0.479352754588965,21.1693720000003,
-0.424013114013672,0.263841022949219,0.0648349809570323,0.50358989366563,21.1723850000008,
-0.390494290771485,0.268629426269531,-0.0261446821289049,0.474690535177018,21.175338,
-0.426407315673828,0.285388837890625,0.00497993945312558,0.513122585207159,21.1782980000007,
-0.428801517333985,0.297359846191406,0.0792001909179696,0.527793794617128,21.1813110000003,
-0.433589920654297,0.29496564453125,0.0289219560546883,0.525206083636476,21.1842530000004,
-0.40007109741211,0.323696064453125,0.0624407792968764,0.518396446791616,21.1872710000007,
-0.376129080810547,0.304542451171875,0.0193451494140628,0.484348453907942,21.1902150000005,
-0.383311685791016,0.29496564453125,0.0241335527343765,0.484267496622754,21.193139,
-0.378523282470703,0.29496564453125,-0.0476924970703116,0.482243902089942,21.1961240000001,
-0.397676895751953,0.297359846191406,-0.0452982954101557,0.498619822218243,21.1990420000002,
-0.431195718994141,0.287783039550781,0.0384987626953137,0.51983745600046,21.202037,
-0.40007109741211,0.29496564453125,0.0217393510742188,0.497528103551341,21.2049640000005,
-0.347398660888672,0.306936652832031,0.0337103593750001,0.464792778308963,21.2078950000005,
-0.416830509033203,0.235110603027344,0.0121625444335951,0.478719747246612,21.2108700000008,
-0.404859500732422,0.287783039550781,-0.0261446821289049,0.497407114534979,21.21378,
-0.390494290771485,0.29496564453125,0.00258573779296967,0.489384520207571,21.2167830000008,
-0.409647904052735,0.268629426269531,-0.00220266552734216,0.489875520605104,21.2196880000001,
-0.354581265869141,0.309330854492188,-0.0285388837890626,0.471410563664153,21.2226820000005,
-0.402465299072266,0.280600434570313,0.0456813676757815,0.492749133120604,21.2256030000008,
-0.390494290771485,0.261446821289062,-0.0333272871093744,0.471116694199378,21.2285019999999,
-0.385705887451172,0.278206232910156,0.0504697709960951,0.478241505339044,21.2315310000004,
-0.397676895751953,0.290177241210938,0.0337103593750001,0.493443140656441,21.2344660000008,
-0.407253702392578,0.290177241210938,-0.00220266552734216,0.50006325716321,21.237419,
-0.395282694091797,0.290177241210938,-0.0716345136718743,0.495563056647956,21.2403570000006,
-0.404859500732422,0.292571442871094,0.0480755693359374,0.501817222586027,21.2432750000007,
-0.373734879150391,0.309330854492188,-0.021356278808593,0.485612425787247,21.2462750000004,
-0.388100089111328,0.290177241210938,-0.0476924970703116,0.486928213150371,21.2492080000002,
-0.41922471069336,0.309330854492188,0.0648349809570323,0.525012866844706,21.2522080000008,
-0.390494290771485,0.290177241210938,0.0313161577148442,0.487513409226799,21.2551480000002,
-0.390494290771485,0.261446821289062,-0.0261446821289049,0.470663123572371,21.2580379999999,
-0.359369669189453,0.328484467773438,0.0121625444335951,0.487028266314015,21.2610540000005,
-0.38091748413086,0.232716401367187,-0.00459686718749985,0.446403611510724,21.2639730000001,
-0.404859500732422,0.297359846191406,0.0552581743164069,0.505358842100408,21.266979,
-0.373734879150391,0.318907661132813,0.0337103593750001,0.492459383657119,21.2699170000005,
-0.395282694091797,0.254264216308594,0.0313161577148442,0.471040764347963,21.2729010000003,
-0.416830509033203,0.280600434570313,0.0289219560546883,0.50330980189537,21.2760029999999,
-0.431195718994141,0.280600434570313,-0.0429040937499998,0.516243269419012,21.2790150000001,
-0.378523282470703,0.299754047851563,-0.0452982954101557,0.484958039569258,21.2820700000002,
-0.404859500732422,0.297359846191406,-0.0189620771484371,0.502686436886919,21.2849840000008,
-0.392888492431641,0.27581203125,0.000191536132813752,0.480035082836191,21.2879120000007,
-0.424013114013672,0.302148249511719,-0.00220266552734216,0.520658753190602,21.2908930000003,
-0.414436307373047,0.299754047851563,0.0289219560546883,0.512295248479266,21.2938610000001,
-0.383311685791016,0.280600434570313,0.0337103593750001,0.476236118615745,21.296859,
-0.378523282470703,0.278206232910156,0.0217393510742188,0.470267139812665,21.2998050000006,
-0.368946475830078,0.282994636230469,0.0121625444335951,0.465140187093901,21.3027310000007,
-0.366552274169922,0.297359846191406,0.00976834277343741,0.472100485433618,21.3057170000002,
-0.404859500732422,0.278206232910156,0.0432871660156255,0.493136595787648,21.3086630000007,
-0.383311685791016,0.302148249511719,0.0169509477539069,0.488373573995054,21.3116669999999,
-0.38091748413086,0.311725056152344,0.00497993945312558,0.492235147207838,21.3146310000002,
-0.404859500732422,0.311725056152344,0.0169509477539069,0.511244619136714,21.3176370000001,
-0.431195718994141,0.285388837890625,0.0313161577148442,0.518032082602474,21.3205700000008,
-0.397676895751953,0.330878669433594,-0.0189620771484371,0.517674770170267,21.3234750000001,
-0.376129080810547,0.285388837890625,0.0313161577148442,0.473181335174972,21.3264870000003,
-0.388100089111328,0.302148249511719,0.000191536132813752,0.49184883911351,21.3294260000002,
-0.395282694091797,0.299754047851563,0.0169509477539069,0.496375092124516,21.3324130000001,
-0.395282694091797,0.280600434570313,-0.021356278808593,0.48522273521968,21.3353440000001,
-0.383311685791016,0.290177241210938,0.0265277543945324,0.481491849914365,21.3382740000006,
-0.371340677490235,0.232716401367187,0.000191536132813752,0.438236076687315,21.3412820000003,
-0.373734879150391,0.299754047851563,0.0265277543945324,0.479827021800743,21.3442360000008,
-0.431195718994141,0.280600434570313,0.0121625444335951,0.514601087685424,21.3472410000004,
-0.421618912353516,0.306936652832031,-0.0165678754882812,0.521773045110695,21.3501580000002,
-0.335427652587891,0.290177241210938,0.00976834277343741,0.443632688108026,21.3530900000005,
-0.38091748413086,0.299754047851563,-0.0357214887695303,0.486031525397162,21.3560750000006,
-0.409647904052735,0.299754047851563,0.0169509477539069,0.50788899291868,21.359015,
-0.414436307373047,0.27581203125,-0.00938527050781168,0.497913459100839,21.3619920000001,
-0.390494290771485,0.309330854492188,0.0265277543945324,0.498873822142642,21.3649380000006,
-0.412042105712891,0.290177241210938,0.014556746093751,0.50417598817669,21.3678630000004,
-0.416830509033203,0.259052619628906,-0.0189620771484371,0.491136939526301,21.370844,
-0.407253702392578,0.261446821289062,0.014556746093751,0.484171371862748,21.3737840000003,
-0.421618912353516,0.302148249511719,-0.0261446821289049,0.519364627540978,21.376784,
-0.388100089111328,0.273417829589844,-0.021356278808593,0.47522108470731,21.3797039999999,
-0.390494290771485,0.292571442871094,0.0600465776367187,0.491619193883519,21.3826170000002,
-0.373734879150391,0.244687409667969,-0.0429040937499998,0.448765472829725,21.3856070000002,
-0.409647904052735,0.292571442871094,0.00258573779296967,0.503404549560695,21.388543,
-0.383311685791016,0.299754047851563,-0.0548751020507812,0.489685219801896,21.3915300000008,
-0.414436307373047,0.261446821289062,0.0337103593750001,0.491170318281096,21.3944680000004,
-0.402465299072266,0.285388837890625,-0.0165678754882812,0.493659397001703,21.3973780000006,
-0.368946475830078,0.311725056152344,0.014556746093751,0.483224493912979,21.4003860000003,
-0.397676895751953,0.271023627929688,0.0169509477539069,0.481547562490805,21.4033200000003,
-0.383311685791016,0.302148249511719,-0.0285388837890626,0.488912958546684,21.4063120000001,
-0.388100089111328,0.292571442871094,0.0121625444335951,0.486176568582849,21.409283,
-0.388100089111328,0.304542451171875,0.0289219560546883,0.494170277612914,21.4123680000002,
-0.412042105712891,0.259052619628906,0.0480755693359374,0.489078947598326,21.4153820000001,
-0.40007109741211,0.29496564453125,0.0217393510742188,0.497528103551341,21.4184010000008,
-0.409647904052735,0.259052619628906,0.00258573779296967,0.484692016719206,21.4214070000007,
-0.397676895751953,0.263841022949219,0.0217393510742188,0.477735908416908,21.424336,
-0.43837832397461,0.282994636230469,-0.0237504804687489,0.522327104780615,21.4273250000006,
-0.40007109741211,0.29496564453125,-0.0333272871093744,0.498168969832863,21.4302770000004,
-0.390494290771485,0.27581203125,0.0289219560546883,0.478951508244212,21.433223,
-0.38091748413086,0.273417829589844,-0.00938527050781168,0.468981366961108,21.4362200000005,
-0.385705887451172,0.299754047851563,0.0169509477539069,0.488783035147138,21.4391580000001,
-0.424013114013672,0.297359846191406,-0.021356278808593,0.518330097165019,21.4421600000005,
-0.404859500732422,0.299754047851563,0.0169509477539069,0.504034759879176,21.4450980000001,
-0.409647904052735,0.29496564453125,0.0672291826171882,0.509250331118115,21.4480320000002,
-0.378523282470703,0.278206232910156,0.014556746093751,0.469989874634863,21.4510530000007,
-0.390494290771485,0.273417829589844,0.00976834277343741,0.476800294864931,21.4540080000006,
-0.404859500732422,0.297359846191406,0.0169509477539069,0.502614591998719,21.4570090000007,
-0.414436307373047,0.299754047851563,0.0073741411132815,0.511531348041899,21.459938,
-0.352187064208985,0.282994636230469,0.000191536132813752,0.451798327816127,21.4628640000001,
-0.40007109741211,0.280600434570313,-0.00220266552734216,0.488669968998509,21.4658509999999,
-0.371340677490235,0.263841022949219,0.0313161577148442,0.456603422987408,21.4687720000002,
-0.385705887451172,0.273417829589844,0.0193451494140628,0.473181335174972,21.4717880000007,
-0.34261025756836,0.304542451171875,0.0408929643554696,0.460217478688728,21.4747230000003,
-0.428801517333985,0.306936652832031,0.0217393510742188,0.52778163051094,21.4776420000007,
-0.412042105712891,0.268629426269531,-0.0285388837890626,0.492701667772838,21.4806140000001,
-0.402465299072266,0.280600434570313,-0.0357214887695303,0.491925752119452,21.4835600000006,
-0.390494290771485,0.285388837890625,0.0217393510742188,0.484154086322541,21.4865540000001,
-0.404859500732422,0.304542451171875,0.0384987626953137,0.50807428062061,21.4894950000007,
-0.385705887451172,0.261446821289062,-0.00699106884765577,0.466017539391259,21.4923800000006,
-0.392888492431641,0.282994636230469,0.0265277543945324,0.484923760372329,21.495398,
-0.43837832397461,0.290177241210938,-0.0405098920898439,0.527275485495684,21.4983240000001,
-0.407253702392578,0.29496564453125,-0.00699106884765577,0.502900770142412,21.5013220000001,
-0.424013114013672,0.263841022949219,-0.021356278808593,0.49985527594596,21.5042320000002,
-0.409647904052735,0.278206232910156,-0.0165678754882812,0.49546403282484,21.5072530000007,
-0.404859500732422,0.282994636230469,-0.021356278808593,0.494422157789345,21.5101710000008,
-0.368946475830078,0.297359846191406,-0.0189620771484371,0.474240382637534,21.5130750000008,
-0.385705887451172,0.3141192578125,-0.0285388837890626,0.498251349853764,21.5160620000006,
-0.414436307373047,0.316513459472656,-0.021356278808593,0.521914086359916,21.5189829999999,
-0.385705887451172,0.292571442871094,0.00258573779296967,0.484121644670122,21.5219800000004,
-0.385705887451172,0.27581203125,0.0169509477539069,0.474477231093867,21.5249180000001,
-0.409647904052735,0.280600434570313,-0.0237504804687489,0.497103705979289,21.5278170000001,
-0.388100089111328,0.321301862792969,0.0169509477539069,0.504126869778043,21.5308240000004,
-0.390494290771485,0.266235224609375,0.0384987626953137,0.474182602672219,21.533743,
-0.443166727294922,0.299754047851563,-0.0357214887695303,0.536213821292029,21.536744,
-0.366552274169922,0.326090266113281,0.0073741411132815,0.490662622695199,21.5396820000005,
-0.383311685791016,0.285388837890625,-0.021356278808593,0.478362548597883,21.5425760000007,
-0.383311685791016,0.306936652832031,0.0289219560546883,0.491908972125647,21.5455780000002,
-0.352187064208985,0.309330854492188,0.0289219560546883,0.469635800678611,21.5485850000005,
-0.426407315673828,0.292571442871094,-0.0261446821289049,0.517788366465929,21.5516660000003,
-0.397676895751953,0.338061274414063,0.00976834277343741,0.522041913254012,21.5546980000008,
-0.368946475830078,0.254264216308594,0.0696233842773442,0.453452543669885,21.5576740000006,
-0.416830509033203,0.285388837890625,0.0193451494140628,0.505538027114967,21.5606780000007,
-0.428801517333985,0.302148249511719,0.0169509477539069,0.524834869821622,21.5636140000006,
-0.402465299072266,0.328484467773438,0.0456813676757815,0.521504697848885,21.5666090000004,
-0.390494290771485,0.311725056152344,0.0241335527343765,0.50024067220278,21.5695700000006,
-0.388100089111328,0.263841022949219,-0.0716345136718743,0.474726519280435,21.5724550000004,
-0.412042105712891,0.268629426269531,-0.0237504804687489,0.492447510767094,21.5754560000005,
-0.383311685791016,0.278206232910156,-0.021356278808593,0.474112483635014,21.5784010000007,
-0.409647904052735,0.27581203125,-0.00699106884765577,0.493895289429533,21.5813930000004,
-0.426407315673828,0.285388837890625,0.0217393510742188,0.513558747406613,21.5843530000002,
-0.41922471069336,0.282994636230469,-0.0381156904296862,0.507235771656612,21.5872590000008,
-0.397676895751953,0.271023627929688,-0.0333272871093744,0.482401729243532,21.5902830000005,
-0.402465299072266,0.287783039550781,-0.0333272871093744,0.495891220810054,21.5932240000002,
-0.41922471069336,0.287783039550781,0.0289219560546883,0.509318088674501,21.596243,
-0.38091748413086,0.27581203125,0.00976834277343741,0.470389016473997,21.5991780000004,
-0.409647904052735,0.302148249511719,-0.0548751020507812,0.511972896551056,21.6021559999999,
-0.416830509033203,0.273417829589844,-0.00938527050781168,0.498591081048393,21.605082,
-0.378523282470703,0.273417829589844,-0.0452982954101557,0.469136569110832,21.6079800000007,
-0.440772525634766,0.297359846191406,-0.0117794721679676,0.531828970107856,21.6109670000005,
-0.376129080810547,0.280600434570313,0.0672291826171882,0.474056380937764,21.6139120000007,
-0.40007109741211,0.299754047851563,0.0384987626953137,0.50138959594012,21.6168990000006,
-0.409647904052735,0.280600434570313,-0.00938527050781168,0.496624699827094,21.6198290000002,
-0.371340677490235,0.290177241210938,0.0289219560546883,0.472158034579235,21.6227470000003,
-0.340216055908203,0.287783039550781,-0.00699106884765577,0.445662335849074,21.6257310000001,
-0.378523282470703,0.278206232910156,-0.00459686718749985,0.469786882096973,21.6286570000002,
-0.354581265869141,0.261446821289062,-0.0165678754882812,0.440859171352613,21.6316310000002,
-0.40007109741211,0.280600434570313,-0.021356278808593,0.489131452178377,21.6345570000003,
-0.409647904052735,0.278206232910156,-0.0285388837890626,0.496008650340681,21.6374560000004,
-0.388100089111328,0.306936652832031,-0.0117794721679676,0.494944990867175,21.6404390000007,
-0.38091748413086,0.302148249511719,-0.0237504804687489,0.486781038786512,21.6433670000006,
-0.38091748413086,0.263841022949219,0.0073741411132815,0.463427009425036,21.646377,
-0.395282694091797,0.29496564453125,0.0193451494140628,0.49358623816721,21.649332,
-0.359369669189453,0.318907661132813,-0.0237504804687489,0.481053781593113,21.6522400000003,
-0.395282694091797,0.302148249511719,0.000191536132813752,0.497535938016095,21.6552550000006,
-0.373734879150391,0.271023627929688,0.0432871660156255,0.463686688973698,21.6581900000001,
-0.359369669189453,0.287783039550781,0.014556746093751,0.460627328589242,21.6611950000006,
-0.407253702392578,0.292571442871094,0.0600465776367187,0.505033878845785,21.6641310000005,
-0.385705887451172,0.309330854492188,0.0480755693359374,0.496755341714951,21.6670440000007,
-0.421618912353516,0.268629426269531,-0.00220266552734216,0.499929122623882,21.6700180000007,
-0.41922471069336,0.311725056152344,-0.0189620771484371,0.522763262920125,21.6729560000003,
