X,Y,Z,Magnitude,Seconds,
-0.356975467529297,0.484107575683594,-1.21127450390625,1.35239696578532,0.0,
0.473812508544922,-0.657926616210938,0.239611702148439,0.845446327911405,0.00302800000008574,
0.447476290283203,-0.58610056640625,0.660991194335939,0.990281911021803,0.0060990000001766,
0.291853182373047,-0.320344182128906,-0.397245939453125,0.587880099592688,0.00914000000011583,
0.346919820556641,0.153707746582031,0.447907246582032,0.587026690019351,0.0122730000002775,
-0.165439334716797,0.917458076171875,0.359321785156251,0.999105420009525,0.0152500000003783,
-0.0984016882324221,0.776200178222656,-0.244017033203125,0.819581552631054,0.0182180000001608,
0.212844527587891,0.251870014648437,0.0576523759765628,0.334761248741337,0.021284000000378,
0.0715866296386717,0.0339976635742187,0.162997249023439,0.181241799430317,0.0243020000007164,
0.248757552490234,-0.2221819140625,-0.279930058105467,0.435437665215514,0.0273710000001302,
0.370861837158203,-0.104866032714844,-0.0572693037109371,0.389634649672284,0.0304100000003018,
0.0476446130371092,0.338061274414063,0.172574055664063,0.382540506480371,0.0334170000005543,
0.016519991455078,0.512837995605469,0.0456813676757815,0.515133484843531,0.0364810000000944,
0.0667982263183592,0.385945307617188,-0.0285388837890626,0.392721595279569,0.0394310000001497,
0.0859518395996092,0.206380183105469,0.0552581743164069,0.23029104311281,0.0425300000006246,
0.287064779052734,-0.0282515795898438,-0.0764229169921862,0.298403755612276,0.0455010000005132,
0.198479317626953,0.0411802685546875,-0.100364933593749,0.226192338374169,0.0484290000003966,
0.0213083947753905,0.259052619628906,-0.0117794721679676,0.260194280085206,0.051527000000533,
0.0883460412597654,0.366791694335938,0.00497993945312558,0.377314152712374,0.0545060000004014,
0.0979228479003904,0.366791694335938,-0.0548751020507812,0.383583508508688,0.0575580000004265,
0.157777889404297,0.187226569824219,-0.00699106884765577,0.244941882651069,0.0605070000001433,
0.260728560791015,0.0818816967773438,0.052863972656251,0.278349769686077,0.0635490000004211,
0.119470662841797,0.144130939941406,0.00258573779296967,0.187226208550474,0.0665480000006937,
0.102711251220703,0.227927998046875,0.00976834277343741,0.250192313913753,0.0694920000005368,
0.133835872802734,0.311725056152344,-0.0189620771484371,0.339770675385376,0.0725090000005366,
0.126653267822265,0.287783039550781,-0.0429040937499998,0.317334034360725,0.0755160000007891,
0.167354696044922,0.282994636230469,0.0624407792968764,0.334652669708019,0.0786350000007587,
0.186508309326172,0.105823713378906,0.0408929643554696,0.21830309730919,0.0816279999999097,
0.133835872802734,0.153707746582031,0.0361045610351578,0.206982249325243,0.0845859999999448,
0.160172091064453,0.18004396484375,-0.208104008300781,0.318399444571545,0.0876490000000558,
0.045250411376953,0.263841022949219,0.136661030761719,0.300559349296489,0.0905800000000454,
0.0979228479003904,0.3141192578125,-0.0572693037109371,0.333975396424848,0.0937050000002273,
0.133835872802734,0.163284553222656,-0.153037370117186,0.260757210489713,0.0967030000001614,
0.124259066162109,0.129765729980469,0.141449434082032,0.228664388576294,0.0997370000004594,
0.243969149169922,0.153707746582031,0.0552581743164069,0.293599187558147,0.102802000000338,
0.25115175415039,0.227927998046875,-0.145854765136718,0.369190991790918,0.105812000000697,
0.045250411376953,0.278206232910156,0.100748005859376,0.299326691834331,0.108926000000793,
0.0213083947753905,0.249475812988281,0.0384987626953137,0.253326634373762,0.111947000000328,
0.112288057861328,0.211168586425781,-0.0620577070312489,0.247086905426629,0.114916000000449,
0.184114107666015,0.156101948242188,0.0289219560546883,0.243109651039791,0.118089999999938,
0.205661922607422,0.115400520019531,0.088776997558595,0.251983058412422,0.121036000000458,
0.102711251220703,0.213562788085938,-0.021356278808593,0.237938555570365,0.124107999999978,
0.0691924279785154,0.201591779785156,0.00976834277343741,0.21335945792734,0.127099000000271,
0.138624276123047,0.220745393066406,0.0552581743164069,0.266455783047513,0.130094000000099,
0.121864864501953,0.232716401367187,0.0241335527343765,0.263799918561315,0.133166999999958,
0.167354696044922,0.206380183105469,0.0265277543945324,0.267028268204233,0.136124999999993,
0.102711251220703,0.18004396484375,0.0193451494140628,0.208181808066489,0.139162000000397,
-0.000239420166015747,0.445800349121094,-0.255988041503906,0.514069923251216,0.142125000000306,
0.0284909997558592,0.611000263671875,-0.358938712890625,0.709203820411148,0.14506000000074,
0.119470662841797,0.163284553222656,0.1486320390625,0.251050926381197,0.148122999999941,
0.13623007446289,-0.140779057617187,0.546069514648439,0.580145922230028,0.151190000000497,
0.555215364990234,-0.495120903320313,0.368898591796876,0.830358345207465,0.154261000000588,
0.516908138427734,-0.420900651855469,-0.0668461103515625,0.66994013521681,0.157302999999956,
0.0811634362792967,0.725921943359375,-0.299083671386718,0.789304259287554,0.160339000000022,
-0.218111771240235,1.02040874755859,0.349744978515625,1.1005127472431,0.163352999999915,
-0.294726224365235,0.955765302734375,0.28988993701172,1.04133905949032,0.16631899999993,
0.0691924279785154,0.0890643017578125,-0.251199638183593,0.275356678075431,0.169388000000254,
0.301429989013672,-0.346680400390625,-0.133883756835937,0.478510395536284,0.172407000000021,
0.334948812255859,-0.349074602050781,0.146237837402344,0.505400128330649,0.175485000000663,
0.311006795654297,0.0100556469726562,-0.0788171186523439,0.320996076567689,0.178449000000001,
0.117076461181641,0.52480900390625,-0.0740287153320303,0.542781391572701,0.181407000000036,
-0.119949503173828,0.666066901855469,0.0863827958984373,0.682271931480566,0.184518000000025,
0.035673604736328,0.395522114257813,0.0384987626953137,0.398989352829025,0.187462000000778,
0.181719906005859,0.0986411083984375,0.0073741411132815,0.206897487809807,0.190553000000364,
0.272699569091797,-0.112048637695313,-0.0500866987304676,0.299046199745029,0.193538000000444,
0.267911165771484,0.0435744702148437,-0.0237504804687489,0.27246873677917,0.196521000000757,
0.107499654541016,0.321301862792969,-0.0165678754882812,0.339213144289641,0.199582000000191,
-0.0409408483886721,0.438617744140625,0.014556746093751,0.440764764243505,0.202534000000014,
0.0811634362792967,0.328484467773438,0.0384987626953137,0.340546184365839,0.205599000000802,
0.150595284423828,0.115400520019531,-0.0261446821289049,0.191519618094579,0.208558000000266,
0.253545955810547,0.0196324536132812,0.00976834277343741,0.254492446770628,0.211556000000201,
0.191296712646484,0.134554133300781,-0.0812113203124998,0.247577312378528,0.21463600000061,
0.0117315881347655,0.2375048046875,-0.0237504804687489,0.238977504657463,0.217620000000352,
0.0021547814941405,0.299754047851563,0.167785652343751,0.343524609626592,0.22071700000015,
0.184114107666015,0.306936652832031,-0.0117794721679676,0.35811572076347,0.223684000000503,
0.224815535888672,0.172861359863281,-0.200921403320311,0.347552133100772,0.226660000000265,
0.0380678063964842,0.153707746582031,0.299466743652344,0.338755900017852,0.229710999999952,
0.0691924279785154,0.206380183105469,-0.095576530273437,0.237729352851763,0.232684000000518,
0.0955286462402342,0.306936652832031,-0.172190983398437,0.364671860537585,0.235771000000568,
0.119470662841797,0.235110603027344,0.00497993945312558,0.26377079962099,21.9289360000002,
0.143412679443359,0.194409174804688,-0.00938527050781168,0.241764776540893,21.9337510000005,
0.150595284423828,0.242293208007813,-0.00938527050781168,0.285434794024687,21.9366930000006,
0.143412679443359,0.213562788085938,-0.00699106884765577,0.257342449129162,21.939617,
0.160172091064453,0.194409174804688,0.0911711992187509,0.267884702010369,21.942634,
0.152989486083984,0.220745393066406,-0.00938527050781168,0.268742245869139,21.9455610000005,
0.131441671142578,0.208774384765625,0.0073741411132815,0.246815790832308,21.9485709999999,
0.148201082763672,0.227927998046875,0.0456813676757815,0.275683732887363,21.9515060000003,
0.157777889404297,0.235110603027344,0.0361045610351578,0.285437203896579,21.9543970000004,
0.143412679443359,0.232716401367187,0.0169509477539069,0.273882191316218,21.9574040000007,
0.129047469482422,0.213562788085938,-0.021356278808593,0.250436428019979,21.9603390000002,
0.13623007446289,0.208774384765625,0.0241335527343765,0.250455196172914,21.9633460000005,
0.131441671142578,0.206380183105469,0.00497993945312558,0.244733513619114,21.9662880000005,
0.0979228479003904,0.194409174804688,-0.0117794721679676,0.217996714089269,21.9691900000007,
0.141018477783203,0.172861359863281,0.0504697709960951,0.228723541845768,21.9722010000005,
0.102711251220703,0.213562788085938,0.0241335527343765,0.238203891550798,21.9751390000001,
0.13623007446289,0.194409174804688,0.0169509477539069,0.237993476940356,21.9781310000008,
0.131441671142578,0.199197578125,0.00976834277343741,0.238855622843923,21.9810590000006,
0.114682259521484,0.223139594726563,-0.00220266552734216,0.250894701257545,21.9839740000007,
0.102711251220703,0.196803376464844,0.0384987626953137,0.225307178856679,21.9869880000006,
0.145806881103515,0.206380183105469,0.00976834277343741,0.252879115540056,21.9899210000003,
0.138624276123047,0.232716401367187,-0.0333272871093744,0.272918158908496,21.9929179999999,
0.121864864501953,0.199197578125,0.0169509477539069,0.234132558523373,21.9958590000006,
0.117076461181641,0.225533796386719,0.00497993945312558,0.254159774300299,21.9988510000003,
0.129047469482422,0.215956989746094,-0.0500866987304676,0.256513836253968,22.0017780000007,
0.152989486083984,0.194409174804688,-0.00699106884765577,0.247486535278414,22.004696,
0.129047469482422,0.199197578125,0.0504697709960951,0.242652266206356,22.0077010000005,
0.129047469482422,0.261446821289062,0.0552581743164069,0.296750999275072,22.0106220000007,
0.152989486083984,0.242293208007813,0.0193451494140628,0.287203788806504,22.0136220000004,
0.124259066162109,0.182438166503906,-0.0261446821289049,0.222278079271007,22.016552,
0.124259066162109,0.21835119140625,-0.0261446821289049,0.252588801643362,22.0194650000003,
0.157777889404297,0.192014973144531,0.0624407792968764,0.256246879426405,22.022481,
0.126653267822265,0.215956989746094,-0.0381156904296862,0.253241539892618,22.0254920000007,
0.150595284423828,0.18004396484375,-0.00699106884765577,0.234826838353251,22.0285910000002,
0.0979228479003904,0.230322199707031,0.0073741411132815,0.250382862384723,22.0316270000003,
0.150595284423828,0.232716401367187,0.00497993945312558,0.277237556894704,22.034592,
0.145806881103515,0.184832368164063,-0.00459686718749985,0.235465033680608,22.0375830000003,
0.160172091064453,0.2375048046875,0.0456813676757815,0.290086915179463,22.0405300000002,
0.131441671142578,0.199197578125,0.00258573779296967,0.238669801364884,22.0435360000001,
0.157777889404297,0.194409174804688,0.00497993945312558,0.250426814518875,22.0464950000005,
0.129047469482422,0.206380183105469,0.00497993945312558,0.243456010719432,22.0494020000006,
0.129047469482422,0.215956989746094,-0.0189620771484371,0.252289974374319,22.0523940000003,
0.152989486083984,0.225533796386719,0.0121625444335951,0.27279883367043,22.0553580000005,
0.129047469482422,0.199197578125,0.0121625444335951,0.237657004941536,22.0583640000004,
0.119470662841797,0.232716401367187,0.0241335527343765,0.262702476411501,22.0613030000004,
0.152989486083984,0.232716401367187,-0.0117794721679676,0.278749820236877,22.0642200000002,
0.129047469482422,0.220745393066406,0.014556746093751,0.256112625219251,22.067258,
0.114682259521484,0.232716401367187,0.0193451494140628,0.260159910286153,22.070189,
0.148201082763672,0.206380183105469,0.0504697709960951,0.259043507340697,22.0732010000002,
0.143412679443359,0.208774384765625,-0.00699106884765577,0.253382744880194,22.0761090000005,
0.150595284423828,0.247081611328125,-0.0452982954101557,0.292882566763988,22.0790100000004,
0.129047469482422,0.201591779785156,0.0265277543945324,0.240824037026996,22.0819950000005,
0.150595284423828,0.223139594726563,0.0313161577148442,0.271018302259182,22.0849020000005,
0.143412679443359,0.201591779785156,0.0169509477539069,0.247979388118905,22.0878860000003,
0.124259066162109,0.208774384765625,0.0456813676757815,0.247212148994491,22.0907960000004,
0.126653267822265,0.211168586425781,0.0241335527343765,0.247417967235009,22.0937800000002,
0.162566292724609,0.175255561523438,0.0121625444335951,0.239353794334282,22.0967030000002,
0.17453730102539,0.196803376464844,0.0217393510742188,0.263945899423194,22.0996010000008,
0.145806881103515,0.225533796386719,0.0073741411132815,0.268662460807049,22.1025730000001,
0.152989486083984,0.247081611328125,0.000191536132813752,0.290611669061713,22.1054940000004,
0.172143099365234,0.220745393066406,-0.0261446821289049,0.281149994883038,22.1084530000007,
0.121864864501953,0.194409174804688,-0.0452982954101557,0.233875838887613,22.1113770000002,
0.143412679443359,0.211168586425781,0.014556746093751,0.255678054152139,22.114286,
0.13623007446289,0.213562788085938,-0.0381156904296862,0.25616499272956,22.1172850000003,
0.148201082763672,0.203985981445313,-0.0237504804687489,0.253254668034033,22.1202310000008,
0.157777889404297,0.223139594726563,0.00976834277343741,0.273460347473173,22.1232530000007,
0.157777889404297,0.220745393066406,0.00497993945312558,0.27138015907924,22.12619,
0.162566292724609,0.215956989746094,-0.0620577070312489,0.277338024714236,22.1291040000006,
0.129047469482422,0.220745393066406,0.00497993945312558,0.255747097220703,22.1321090000001,
0.121864864501953,0.220745393066406,-0.0117794721679676,0.252424899177315,22.1350410000005,
0.121864864501953,0.203985981445313,-0.0117794721679676,0.237907716963622,22.1380420000005,
0.141018477783203,0.232716401367187,-0.0141736738281235,0.272477572602539,22.1409860000003,
0.129047469482422,0.194409174804688,0.00497993945312558,0.23339446528359,22.1439070000006,
0.145806881103515,0.220745393066406,0.00258573779296967,0.264565419465793,22.1469110000007,
0.13623007446289,0.215956989746094,-0.0381156904296862,0.258164405883714,22.1498350000002,
0.164960494384765,0.242293208007813,0.00976834277343741,0.293280384401894,22.1528510000007,
0.124259066162109,0.199197578125,-0.021356278808593,0.235745798051408,22.1557740000007,
0.112288057861328,0.225533796386719,0.00258573779296967,0.251953938827733,22.1587010000003,
0.148201082763672,0.235110603027344,-0.0141736738281235,0.278283038681828,22.161717,
0.186508309326172,0.220745393066406,0.0217393510742188,0.289804205271209,22.1647630000007,
0.15538368774414,0.232716401367187,0.0193451494140628,0.280491084863877,22.1678470000006,
0.145806881103515,0.199197578125,0.0289219560546883,0.248547382303716,22.1708790000002,
0.131441671142578,0.194409174804688,0.00976834277343741,0.234877118258745,22.1738060000007,
0.157777889404297,0.208774384765625,0.000191536132813752,0.261688063933436,22.1767980000004,
0.133835872802734,0.239899006347656,0.0337103593750001,0.276766982179331,22.1797230000002,
0.13623007446289,0.203985981445313,-0.00459686718749985,0.24533659531817,22.1827400000002,
0.143412679443359,0.208774384765625,-0.021356278808593,0.254185033005367,22.1856970000008,
0.100317049560547,0.201591779785156,0.088776997558595,0.242041548922905,22.1886970000005,
0.126653267822265,0.268629426269531,0.052863972656251,0.301657783776512,22.1916200000005,
0.164960494384765,0.165678754882813,0.00497993945312558,0.233850837766603,22.194555,
0.150595284423828,0.211168586425781,0.014556746093751,0.259774922655352,22.1975660000007,
0.117076461181641,0.201591779785156,-0.00220266552734216,0.233132998898029,22.2005100000006,
0.133835872802734,0.21835119140625,0.014556746093751,0.256517411678499,22.2035330000008,
0.15538368774414,0.2375048046875,0.0768059892578137,0.29402684002058,22.206494,
0.157777889404297,0.213562788085938,0.0073741411132815,0.265626250203311,22.2094139999999,
0.138624276123047,0.235110603027344,-0.0141736738281235,0.273303089291552,22.2124270000004,
0.114682259521484,0.203985981445313,0.0217393510742188,0.235021064290605,22.2153860000008,
0.109893856201172,0.182438166503906,-0.0117794721679676,0.213305180885572,22.2183940000004,
0.13623007446289,0.192014973144531,0.0169509477539069,0.236041771154208,22.2213400000001,
0.133835872802734,0.225533796386719,0.052863972656251,0.26752968763574,22.22426,
0.133835872802734,0.211168586425781,0.0720175859375001,0.260174451909094,22.2272600000006,
0.129047469482422,0.215956989746094,-0.00459686718749985,0.251618365760432,22.2301910000006,
0.141018477783203,0.189620771484375,-0.00459686718749985,0.236354351012544,22.2332050000005,
0.121864864501953,0.251870014648437,-0.0165678754882812,0.280292782599336,22.2361410000003,
0.160172091064453,0.242293208007813,-0.0141736738281235,0.29079544431174,22.2390700000005,
0.131441671142578,0.208774384765625,-0.0141736738281235,0.247112423153521,22.2420780000002,
0.150595284423828,0.235110603027344,-0.0165678754882812,0.27969703224162,22.2450150000004,
0.138624276123047,0.211168586425781,-0.0405098920898439,0.255831806429209,22.2480220000007,
0.126653267822265,0.213562788085938,0.0408929643554696,0.251639323713277,22.250978,
0.0883460412597654,0.194409174804688,0.0169509477539069,0.21421317626203,22.2538950000007,
0.114682259521484,0.182438166503906,0.0073741411132815,0.215615591280915,22.2568920000003,
0.148201082763672,0.211168586425781,-0.021356278808593,0.258866420128099,22.2598379999999,
0.152989486083984,0.215956989746094,-0.0548751020507812,0.270285924712183,22.262839,
0.145806881103515,0.208774384765625,-0.00699106884765577,0.254745491334062,22.2657820000004,
0.160172091064453,0.213562788085938,0.000191536132813752,0.266953553819927,22.2687050000004,
0.126653267822265,0.194409174804688,0.014556746093751,0.232481991464148,22.2716970000001,
0.112288057861328,0.225533796386719,-0.00220266552734216,0.251950298643007,22.2746139999999,
0.13623007446289,0.203985981445313,0.0313161577148442,0.247284483031979,22.2776320000003,
0.114682259521484,0.189620771484375,-0.0117794721679676,0.221916231023868,22.2805590000007,
0.143412679443359,0.18004396484375,-0.0429040937499998,0.23414479956277,22.283555,
0.133835872802734,0.21835119140625,0.0361045610351578,0.258636468745109,22.2864980000004,
0.143412679443359,0.220745393066406,-0.00699106884765577,0.263333629126245,22.2894190000006,
0.126653267822265,0.242293208007813,-0.0357214887695303,0.275722820340804,22.2924190000003,
0.150595284423828,0.208774384765625,0.0121625444335951,0.257708383472595,22.2953740000003,
0.15538368774414,0.203985981445313,-0.0141736738281235,0.256817569634482,22.2983590000003,
0.129047469482422,0.194409174804688,0.0265277543945324,0.234844413136171,22.3013940000001,
0.129047469482422,0.220745393066406,-0.0165678754882812,0.256234799428286,22.3043860000007,
0.162566292724609,0.211168586425781,0.0241335527343765,0.267586247387396,22.3074919999999,
0.160172091064453,0.2375048046875,0.00976834277343741,0.286634002738939,22.3104880000001,
0.133835872802734,0.194409174804688,0.0552581743164069,0.242405515460956,22.3134920000002,
0.162566292724609,0.208774384765625,0.0241335527343765,0.265700906344091,22.3164230000002,
0.162566292724609,0.201591779785156,0.0432871660156255,0.262565846881948,22.3193650000003,
0.121864864501953,0.175255561523438,0.052863972656251,0.219909428288047,22.3223940000007,
0.172143099365234,0.220745393066406,0.0744117875976578,0.28965304996252,22.3253410000007,
0.164960494384765,0.206380183105469,-0.00938527050781168,0.264372517461286,22.3283390000006,
0.133835872802734,0.220745393066406,0.00497993945312558,0.258196377212905,22.3313040000003,
0.126653267822265,0.182438166503906,0.014556746093751,0.222568267514045,22.3342170000005,
0.169748897705078,0.206380183105469,0.0289219560546883,0.268782342784576,22.3372490000002,
0.138624276123047,0.21835119140625,0.0456813676757815,0.262641809451385,22.3401890000005,
0.138624276123047,0.215956989746094,-0.0429040937499998,0.260182383360869,22.3432210000001,
0.179325704345703,0.206380183105469,-0.0165678754882812,0.273906886945043,22.3461830000006,
0.0907402429199217,0.21835119140625,-0.00699106884765577,0.236558469553148,22.3491020000001,
0.164960494384765,0.182438166503906,-0.0405098920898439,0.249272342352905,22.3521170000004,
0.117076461181641,0.215956989746094,-0.00220266552734216,0.24566068248386,22.3550580000001,
0.143412679443359,0.227927998046875,-0.00220266552734216,0.269301356576987,22.3580580000007,
0.172143099365234,0.223139594726563,0.0361045610351578,0.284126846182026,22.3610060000001,
0.179325704345703,0.184832368164063,0.0121625444335951,0.257815127654134,22.3639149999999,
0.152989486083984,0.227927998046875,-0.0237504804687489,0.275537729664005,22.3669100000006,
0.129047469482422,0.225533796386719,-0.0237504804687489,0.260926863344729,22.3698430000004,
0.157777889404297,0.215956989746094,-0.0405098920898439,0.270503854246478,22.3728719999999,
0.141018477783203,0.196803376464844,0.107930610839844,0.265078850194648,22.3758130000006,
0.15538368774414,0.223139594726563,0.0169509477539069,0.272438440352052,22.3788060000006,
0.148201082763672,0.223139594726563,-0.0333272871093744,0.269936191966046,22.3817349999999,
0.167354696044922,0.172861359863281,-0.0165678754882812,0.24117035166095,22.3846600000006,
0.148201082763672,0.184832368164063,0.00497993945312558,0.236962792544351,22.3876680000003,
0.109893856201172,0.203985981445313,0.0265277543945324,0.233218056784177,22.3905950000008,
0.121864864501953,0.213562788085938,-0.0309330854492185,0.247824464955595,22.3935760000004,
0.133835872802734,0.235110603027344,0.0552581743164069,0.276120448959387,22.396538,
0.143412679443359,0.223139594726563,0.0313161577148442,0.267093948066742,22.3994560000001,
0.121864864501953,0.244687409667969,0.0073741411132815,0.273454478126174,22.4024600000002,
0.148201082763672,0.192014973144531,0.00976834277343741,0.242752407536072,22.4053940000003,
0.13623007446289,0.230322199707031,-0.021356278808593,0.268445598791637,22.408394,
0.164960494384765,0.192014973144531,-0.00938527050781168,0.253317583128108,22.411341,
0.150595284423828,0.213562788085938,0.0384987626953137,0.264140415072746,22.4142830000001,
0.15538368774414,0.215956989746094,0.00976834277343741,0.266227219415488,22.4172880000006,
0.145806881103515,0.211168586425781,-0.0189620771484371,0.257315718213988,22.4202190000005,
0.15538368774414,0.213562788085938,0.052863972656251,0.269346903596474,22.4232330000004,
0.143412679443359,0.215956989746094,0.0337103593750001,0.26142112840111,22.4261800000004,
0.141018477783203,0.177649763183594,-0.0141736738281235,0.227258756630552,22.4290840000003,
0.152989486083984,0.201591779785156,0.0432871660156255,0.256746581809482,22.4320950000001,
0.117076461181641,0.201591779785156,-0.0141736738281235,0.233553069921055,22.435015,
0.179325704345703,0.242293208007813,-0.0189620771484371,0.302031897745226,22.4380500000007,
0.145806881103515,0.2375048046875,-0.00699106884765577,0.27877778582666,22.4410750000006,
0.157777889404297,0.223139594726563,-0.0141736738281235,0.273653127424839,22.4440910000003,
0.152989486083984,0.2375048046875,0.0648349809570323,0.289858396217167,22.4471980000008,
0.129047469482422,0.215956989746094,0.0289219560546883,0.253233391048733,22.4501600000003,
0.109893856201172,0.2375048046875,0.014556746093751,0.262101298618014,22.4531569999999,
0.0907402429199217,0.206380183105469,0.0121625444335951,0.225775328924381,22.4560950000005,
0.105105452880859,0.230322199707031,0.0241335527343765,0.254318501628881,22.4589980000001,
0.0907402429199217,0.189620771484375,-0.00220266552734216,0.210225308654599,22.4620300000006,
0.119470662841797,0.227927998046875,-0.0476924970703116,0.261723109125496,22.4649680000002,
0.162566292724609,0.208774384765625,0.014556746093751,0.265002720969666,22.4679960000003,
0.13623007446289,0.21835119140625,0.0361045610351578,0.259883464853451,22.4709360000006,
0.152989486083984,0.227927998046875,0.0193451494140628,0.275193004910645,22.4739300000001,
0.179325704345703,0.239899006347656,-0.0189620771484371,0.300114647852214,22.4768800000002,
0.138624276123047,0.165678754882813,-0.0740287153320303,0.228355841711721,22.4798300000002,
0.114682259521484,0.227927998046875,0.0121625444335951,0.255442988609413,22.4828610000004,
0.107499654541016,0.215956989746094,-0.00459686718749985,0.241277285160812,22.4857980000006,
0.129047469482422,0.220745393066406,-0.0357214887695303,0.258181724178476,22.4887940000008,
0.119470662841797,0.215956989746094,-0.0333272871093744,0.249040897778103,22.4917450000003,
0.112288057861328,0.206380183105469,0.014556746093751,0.2354002692729,22.4946640000007,
0.162566292724609,0.196803376464844,-0.00459686718749985,0.255304719318163,22.49766,
0.145806881103515,0.251870014648437,-0.0452982954101557,0.294533676212423,22.5005740000006,
0.133835872802734,0.206380183105469,0.0073741411132815,0.246087786744233,22.5035980000002,
0.150595284423828,0.189620771484375,0.0289219560546883,0.243867702271237,22.506523,
0.148201082763672,0.225533796386719,0.0384987626953137,0.272600823502059,22.5094520000002,
0.133835872802734,0.182438166503906,-0.0237504804687489,0.227507825730618,22.5124480000004,
0.152989486083984,0.208774384765625,-0.00220266552734216,0.258838517848353,22.5153909999999,
0.143412679443359,0.235110603027344,0.0265277543945324,0.276672936938584,22.5184100000006,
0.172143099365234,0.184832368164063,0.00258573779296967,0.252592432626432,22.5213540000004,
0.13623007446289,0.21835119140625,0.0217393510742188,0.258279839247708,22.524273,
0.179325704345703,0.2375048046875,-0.0285388837890626,0.298966065593832,22.5272840000007,
0.133835872802734,0.203985981445313,-0.00459686718749985,0.244015271372545,22.5302180000008,
0.129047469482422,0.213562788085938,0.0217393510742188,0.25046938579392,22.5332290000006,
0.119470662841797,0.187226569824219,0.000191536132813752,0.222096970744969,22.5361920000005,
0.169748897705078,0.189620771484375,-0.00220266552734216,0.254510465375874,22.5391050000007,
0.119470662841797,0.223139594726563,-0.0764229169921862,0.26439549968974,22.5421050000004,
0.121864864501953,0.206380183105469,-0.0429040937499998,0.243484263227082,22.5450500000006,
0.150595284423828,0.203985981445313,-0.0333272871093744,0.255734097028479,22.5480460000008,
0.160172091064453,0.182438166503906,0.0073741411132815,0.242885078402163,22.5509940000002,
0.152989486083984,0.196803376464844,0.0456813676757815,0.253424819607186,22.5539100000005,
0.119470662841797,0.184832368164063,-0.0357214887695303,0.222962481958076,22.5568990000002,
0.102711251220703,0.172861359863281,0.0073741411132815,0.201208918336797,22.559843,
0.157777889404297,0.206380183105469,0.00258573779296967,0.25979478132452,22.5628510000006,
0.13623007446289,0.153707746582031,0.0169509477539069,0.206087455167088,22.5657770000007,
0.133835872802734,0.189620771484375,0.100748005859376,0.253018257269787,22.5687660000003,
0.141018477783203,0.206380183105469,0.0073741411132815,0.250066729118644,22.5716970000003,
0.129047469482422,0.211168586425781,-0.00699106884765577,0.247576849314535,22.5745990000005,
0.105105452880859,0.223139594726563,0.0121625444335951,0.246954170742517,22.5776780000006,
0.150595284423828,0.230322199707031,0.0073741411132815,0.27528464055544,22.5807010000008,
0.114682259521484,0.220745393066406,-0.0548751020507812,0.254738740740546,22.5837740000006,
0.131441671142578,0.189620771484375,0.0193451494140628,0.231532254117943,22.5867930000004,
0.167354696044922,0.227927998046875,0.052863972656251,0.287668848134353,22.5897060000007,
0.124259066162109,0.225533796386719,-0.021356278808593,0.258383241485658,22.5927030000003,
0.148201082763672,0.232716401367187,0.0241335527343765,0.276952907125384,22.5956430000006,
0.119470662841797,0.194409174804688,0.0169509477539069,0.228813245153889,22.598669,
0.124259066162109,0.259052619628906,0.00976834277343741,0.287478687524167,22.6015830000006,
0.126653267822265,0.184832368164063,-0.0668461103515625,0.233821421260601,22.6045080000004,
0.15538368774414,0.215956989746094,-0.0764229169921862,0.276806745002281,22.6075049999999,
0.121864864501953,0.215956989746094,-0.0740287153320303,0.258783147275831,22.6104490000007,
0.131441671142578,0.211168586425781,-0.0333272871093744,0.25095775116917,22.6134609999999,
0.143412679443359,0.213562788085938,-0.0117794721679676,0.25751702282513,22.6164120000003,
0.150595284423828,0.232716401367187,0.0361045610351578,0.279534259945948,22.6193760000006,
0.133835872802734,0.208774384765625,-0.0165678754882812,0.248542308433253,22.622394,
0.117076461181641,0.199197578125,0.0504697709960951,0.236503214942377,22.6253460000007,
0.126653267822265,0.232716401367187,0.0504697709960951,0.269713128156103,22.6283630000007,
0.129047469482422,0.21835119140625,0.000191536132813752,0.253634636543268,22.6313020000007,
0.148201082763672,0.220745393066406,-0.0500866987304676,0.270556402404533,22.6342190000005,
0.188902510986328,0.225533796386719,-0.00938527050781168,0.294342887245557,22.637221,
0.129047469482422,0.177649763183594,-0.00220266552734216,0.219584925426198,22.6401700000006,
