X,Y,Z,Magnitude,Seconds,
0.234392342529297,0.201591779785156,0.0696233842773442,0.316901296228887,0.0,
0.210450325927734,0.144130939941406,-0.0141736738281235,0.25546812044024,0.0038379999996323,
0.203267720947266,0.10342951171875,0.0337103593750001,0.230546781809389,0.00784800000019459,
0.181719906005859,0.175255561523438,-0.0668461103515625,0.261160943773771,0.0117819999995845,
0.234392342529297,0.139342536621094,0.0193451494140628,0.273368519684005,0.0158799999999246,
0.229603939208984,0.144130939941406,-0.0117794721679676,0.271349318615751,0.0197689999995418,
0.246363350830078,0.122583125,-0.0309330854492185,0.276908611174153,0.0237040000001798,
0.210450325927734,0.1608903515625,-0.0452982954101557,0.268750777628754,0.0275769999998374,
0.160172091064453,0.129765729980469,-0.0357214887695303,0.209213451272223,0.031503000000157,
0.227209737548828,0.148919343261719,-0.0452982954101557,0.275414544281116,0.0356139999994411,
0.239180745849609,0.139342536621094,-0.0165678754882812,0.277305366329921,0.0396819999996296,
0.200873519287109,0.144130939941406,0.0480755693359374,0.251863373609893,0.043840999999702,
0.215238729248047,0.122583125,-0.00220266552734216,0.247707861882712,0.048041999999441,
0.17453730102539,0.175255561523438,0.0265277543945324,0.248759930550199,0.0520239999996193,
0.212844527587891,0.215956989746094,-0.00938527050781168,0.30336166146501,0.0559469999998328,
0.215238729248047,0.139342536621094,-0.0237504804687489,0.257503666775468,0.0598300000001473,
0.215238729248047,0.158496149902344,-0.0189620771484371,0.267970708234993,0.0638200000003053,
0.176931502685547,0.158496149902344,-0.0476924970703116,0.242281572665429,0.0677559999994628,
0.188902510986328,0.163284553222656,0.0217393510742188,0.250636396724798,0.071657999999843,
0.210450325927734,0.177649763183594,0.000191536132813752,0.275406635229376,0.0754989999995814,
0.220027132568359,0.146525141601563,0.0361045610351578,0.266805351361538,0.0794020000003002,
0.236786544189453,0.192014973144531,-0.0141736738281235,0.305186025975412,0.083466000000044,
0.229603939208984,0.148919343261719,0.0169509477539069,0.274193862673,0.0873129999999946,
0.217632930908203,0.148919343261719,0.000191536132813752,0.263706465789685,0.091378999999506,
0.224815535888672,0.132159931640625,0.0744117875976578,0.27119252725996,0.0952719999995679,
0.260728560791015,0.158496149902344,-0.0189620771484371,0.305712237759308,0.0991180000000895,
0.200873519287109,0.158496149902344,-0.0141736738281235,0.256265669402753,0.102971999999681,
0.217632930908203,0.177649763183594,-0.059663505371093,0.287198998689146,0.106883999999809,
0.220027132568359,0.134554133300781,-0.0429040937499998,0.261452701487454,0.110859999999775,
0.255940157470703,0.139342536621094,0.0432871660156255,0.294610735479536,0.114803999999822,
0.227209737548828,0.187226569824219,0.0361045610351578,0.296616912216232,0.118816000000152,
0.176931502685547,0.153707746582031,-0.00938527050781168,0.234561103562369,0.122707999999875,
0.210450325927734,0.153707746582031,0.0408929643554696,0.263794703465011,0.126580999999533,
0.243969149169922,0.172861359863281,-0.0117794721679676,0.299233606810857,0.130457000000206,
0.227209737548828,0.129765729980469,0.0121625444335951,0.261937658616455,0.134264000000258,
0.210450325927734,0.148919343261719,0.0289219560546883,0.259427812739152,0.138042999999925,
0.208056124267578,0.148919343261719,-0.0189620771484371,0.256561653433499,0.142036999999618,
0.19369091430664,0.153707746582031,-0.00459686718749985,0.247312298182294,0.145881999999801,
0.217632930908203,0.14173673828125,0.00258573779296967,0.259730786843293,0.149698000000171,
0.234392342529297,0.163284553222656,0.0432871660156255,0.288921086629477,0.153618000000279,
0.224815535888672,0.170467158203125,-0.0476924970703116,0.286139216954897,0.157559000000219,
0.164960494384765,0.172861359863281,0.000191536132813752,0.238941522401485,0.161549999999806,
0.217632930908203,0.165678754882813,0.00976834277343741,0.273695018142006,0.165506999999707,
0.241574947509765,0.189620771484375,0.0384987626953137,0.309510334192165,0.169449999999415,
0.234392342529297,0.136948334960938,-0.00938527050781168,0.271629711164757,0.173240999999507,
0.229603939208984,0.14173673828125,0.0193451494140628,0.270520806380476,0.177102999999988,
0.215238729248047,0.177649763183594,0.0408929643554696,0.282062729656505,0.181035999999949,
0.212844527587891,0.168072956542969,0.0720175859375001,0.280602644908191,0.184917999999925,
0.215238729248047,0.127371528320313,-0.021356278808593,0.251012564306085,0.188838999999462,
0.227209737548828,0.136948334960938,0.0121625444335951,0.26556927302058,0.192802999999913,
0.160172091064453,0.170467158203125,0.0169509477539069,0.234523954877885,0.196729999999661,
0.243969149169922,0.108217915039063,-0.0524809003906235,0.272004242224102,0.20060199999989,
0.176931502685547,0.153707746582031,0.0361045610351578,0.237137865659268,0.204443999999967,
0.239180745849609,0.172861359863281,0.0361045610351578,0.297307951872296,0.208305000000109,
0.243969149169922,0.146525141601563,-0.0357214887695303,0.28682152574025,0.212109000000055,
0.19369091430664,0.170467158203125,0.0073741411132815,0.258127100994743,0.216139999999541,
0.222421334228516,0.146525141601563,0.00258573779296967,0.26635981881899,0.219992000000275,
0.203267720947266,0.14173673828125,0.0121625444335951,0.248102794915338,0.2238669999997,
0.210450325927734,0.139342536621094,-0.00699106884765577,0.252496647975222,0.227850000000217,
0.217632930908203,0.139342536621094,0.0289219560546883,0.260032526176486,0.231738999999834,
0.208056124267578,0.153707746582031,-0.0141736738281235,0.259064307140829,0.235703999999714,
0.224815535888672,0.192014973144531,-0.0429040937499998,0.298751629868549,0.239666999999827,
0.205661922607422,0.211168586425781,-0.00459686718749985,0.294805239932372,0.24359000000004,
0.203267720947266,0.151313544921875,0.0265277543945324,0.254788690897254,0.247456000000057,
0.208056124267578,0.158496149902344,0.0073741411132815,0.261653890351874,0.251315999999861,
0.205661922607422,0.132159931640625,0.000191536132813752,0.244464947646745,0.25530499999968,
0.220027132568359,0.151313544921875,0.0241335527343765,0.268123397544231,0.25921500000004,
0.234392342529297,0.177649763183594,-0.0357214887695303,0.296268853164604,0.26315699999941,
0.212844527587891,0.153707746582031,-0.0285388837890626,0.264089629049237,0.267198999999891,
0.241574947509765,0.168072956542969,-0.0381156904296862,0.296748681281606,0.271087999999509,
0.191296712646484,0.175255561523438,0.0313161577148442,0.261322876626345,0.274996000000101,
0.220027132568359,0.165678754882813,-0.0189620771484371,0.27608141780199,0.278859000000011,
0.224815535888672,0.132159931640625,-0.00938527050781168,0.26095278502187,0.282712000000174,
0.215238729248047,0.134554133300781,0.0313161577148442,0.255760096752131,0.286611999999877,
0.203267720947266,0.18004396484375,0.0504697709960951,0.276189777942905,0.290565000000242,
0.188902510986328,0.113006318359375,-0.0189620771484371,0.220939238289317,0.294425999999476,
0.241574947509765,0.158496149902344,0.0576523759765628,0.294623965851312,0.298385000000053,
0.234392342529297,0.148919343261719,-0.0165678754882812,0.278192802804221,0.302396999999473,
0.107499654541016,0.0818816967773438,-0.277535856445311,0.30868582670153,0.306268000000273,
0.327766207275391,0.290177241210938,0.536492708007813,0.692429017079759,0.310225000000173,
0.291853182373047,0.0316034619140625,-0.251199638183593,0.386365522646362,0.314135999999962,
0.117076461181641,0.101035310058594,-0.255988041503906,0.299073417465441,0.317116000000169,
0.119470662841797,0.148919343261719,0.0624407792968764,0.20087075694725,0.320060000000012,
0.215238729248047,0.25665841796875,0.265947920410158,0.427702642560252,0.323056999999608,
0.303824190673828,0.165678754882813,-0.220075016601562,0.410111694042371,0.326046000000133,
0.311006795654297,0.165678754882813,-0.0405098920898439,0.354705128409223,0.329069999999774,
0.114682259521484,0.0507570751953125,0.124690022460939,0.17684994496082,0.332045999999536,
0.15538368774414,0.136948334960938,0.0768059892578137,0.220902912727318,0.335074999999961,
0.236786544189453,0.153707746582031,-0.141066361816405,0.315584627801524,0.338120999999774,
0.196085115966797,0.21835119140625,-0.00459686718749985,0.293509363871377,0.341128000000026,
0.255940157470703,0.153707746582031,0.177362458984376,0.347259092641847,0.344160999999986,
0.25115175415039,0.156101948242188,0.00497993945312558,0.295752974042158,0.34711999999945,
0.208056124267578,0.105823713378906,-0.0429040937499998,0.237332615582131,0.350077000000056,
0.19369091430664,0.144130939941406,-0.0261446821289049,0.242844482204058,0.353114999999889,
0.152989486083984,0.201591779785156,0.0600465776367187,0.260097327966035,0.356119000000035,
0.227209737548828,0.170467158203125,-0.0668461103515625,0.291807675245169,0.359175999999934,
0.234392342529297,0.158496149902344,0.0265277543945324,0.284190994796552,0.362110999999459,
0.227209737548828,0.163284553222656,0.0337103593750001,0.281819975316374,0.365050999999767,
0.191296712646484,0.120188923339844,0.00976834277343741,0.226131002039707,0.368134999999711,
0.198479317626953,0.110612116699219,-0.0668461103515625,0.236849070835154,0.371047999999973,
0.198479317626953,0.153707746582031,-0.0476924970703116,0.255528247287435,0.374133999999685,
0.212844527587891,0.177649763183594,-0.0165678754882812,0.277734992000458,0.377093000000059,
0.217632930908203,0.158496149902344,-0.0189620771484371,0.269897540780468,0.38012499999968,
0.263122762451172,0.136948334960938,0.052863972656251,0.301302230614892,0.38306300000022,
0.169748897705078,0.139342536621094,0.00497993945312558,0.219672097866449,0.386035999999876,
0.198479317626953,0.158496149902344,0.0480755693359374,0.25850789045308,0.38909700000022,
0.186508309326172,0.122583125,-0.00699106884765577,0.223295425448228,0.392036000000189,
0.236786544189453,0.151313544921875,-0.0141736738281235,0.281361954456878,0.395018999999593,
0.19369091430664,0.158496149902344,0.000191536132813752,0.250274322504125,0.39803800000027,
0.208056124267578,0.170467158203125,0.0313161577148442,0.270789779358668,0.40099999999984,
0.234392342529297,0.14173673828125,-0.0189620771484371,0.274569906553435,0.404039000000012,
0.188902510986328,0.115400520019531,0.0169509477539069,0.222010750432211,0.407043000000158,
0.236786544189453,0.165678754882813,0.0337103593750001,0.290953098725369,0.410111999999572,
0.236786544189453,0.144130939941406,0.0313161577148442,0.278966480229432,0.413015000000087,
0.217632930908203,0.153707746582031,-0.0405098920898439,0.26950179096279,0.416016000000127,
0.217632930908203,0.122583125,0.0265277543945324,0.251186060329145,0.419076999999561,
0.191296712646484,0.168072956542969,-0.0117794721679676,0.254915097542304,0.422069999999621,
0.191296712646484,0.122583125,0.00258573779296967,0.227217386755616,0.425158999999439,
0.164960494384765,0.124977326660156,-0.0117794721679676,0.20729219196907,0.428167999999459,
0.241574947509765,0.115400520019531,-0.0309330854492185,0.269504343305507,0.431131000000278,
0.212844527587891,0.136948334960938,0.00976834277343741,0.25328454333659,0.434201999999459,
0.198479317626953,0.165678754882813,-0.00459686718749985,0.258581941622224,0.437183999999434,
0.215238729248047,0.129765729980469,-0.0548751020507812,0.257251107035056,0.440289000000121,
0.243969149169922,0.177649763183594,0.0504697709960951,0.305986244609592,0.443322999999509,
0.184114107666015,0.156101948242188,0.052863972656251,0.247104072187531,0.446286999999757,
0.196085115966797,0.165678754882813,0.0696233842773442,0.265981650046506,0.449348999999529,
0.253545955810547,0.156101948242188,-0.0117794721679676,0.29798007637667,0.452346999999463,
0.191296712646484,0.1608903515625,0.014556746093751,0.250383778132878,0.455453999999918,
0.210450325927734,0.134554133300781,-0.0524809003906235,0.255241844878979,0.458362999999736,
0.220027132568359,0.120188923339844,0.0313161577148442,0.252661865135731,0.461314999999558,
0.236786544189453,0.144130939941406,-0.00699106884765577,0.277291309638816,0.464313999999831,
0.224815535888672,0.151313544921875,-0.0285388837890626,0.27249271906174,0.46728499999972,
0.200873519287109,0.146525141601563,-0.0237504804687489,0.249767638405465,0.470336999999745,
0.179325704345703,0.134554133300781,0.0456813676757815,0.228799716739634,0.473331000000144,
0.196085115966797,0.124977326660156,-0.00699106884765577,0.232631854926328,0.476411999999982,
0.229603939208984,0.148919343261719,-0.0357214887695303,0.275990877489993,0.479409999999916,
0.229603939208984,0.1608903515625,-0.00459686718749985,0.280401150700434,0.48237700000027,
0.236786544189453,0.117794721679687,-0.0500866987304676,0.269169354411856,0.485429999999724,
0.188902510986328,0.14173673828125,-0.0452982954101557,0.240469119020745,0.488385999999991,
0.205661922607422,0.168072956542969,-0.0620577070312489,0.272757225630509,0.491412000000309,
0.217632930908203,0.14173673828125,-0.0357214887695303,0.262162965260568,0.494413999999779,
0.248757552490234,0.158496149902344,-0.021356278808593,0.295732041042813,0.497433999999885,
0.191296712646484,0.170467158203125,-0.0309330854492185,0.258089790713638,0.500489999999445,
0.17453730102539,0.170467158203125,0.0073741411132815,0.244083386227403,0.503423000000112,
0.241574947509765,0.151313544921875,-0.0285388837890626,0.286476372549458,0.50650399999995,
0.229603939208984,0.196803376464844,0.000191536132813752,0.302406307100788,0.509441000000152,
0.220027132568359,0.163284553222656,0.000191536132813752,0.273996023827841,0.512383999999656,
0.212844527587891,0.122583125,0.000191536132813752,0.245620545038415,0.515486999999666,
0.222421334228516,0.172861359863281,-0.021356278808593,0.282503788113233,0.51843000000008,
0.205661922607422,0.153707746582031,0.0480755693359374,0.261216688090332,0.521488999999747,
0.215238729248047,0.151313544921875,0.000191536132813752,0.263103660429171,0.524429000000055,
0.188902510986328,0.163284553222656,-0.0644519086914048,0.257876040980986,0.52738700000009,
0.215238729248047,0.165678754882813,-0.0644519086914048,0.279161617923736,0.530453999999736,
0.196085115966797,0.124977326660156,-0.0189620771484371,0.233298661060484,0.533402000000024,
0.205661922607422,0.115400520019531,0.00976834277343741,0.236028657056508,0.536444000000301,
0.220027132568359,0.129765729980469,-0.021356278808593,0.256334106954515,0.539412000000084,
0.263122762451172,0.153707746582031,-0.0141736738281235,0.305058277234118,0.542435999999725,
0.227209737548828,0.194409174804688,0.00258573779296967,0.299041599322203,0.545495000000301,
0.220027132568359,0.165678754882813,0.00497993945312558,0.275474479185877,0.54844200000025,
0.184114107666015,0.110612116699219,0.0792001909179696,0.228922946083999,0.551489999999831,
0.253545955810547,0.165678754882813,-0.00699106884765577,0.30295853935982,0.554407999999967,
0.222421334228516,0.120188923339844,-0.00220266552734216,0.25282697433029,0.557396999999582,
0.172143099365234,0.189620771484375,0.0265277543945324,0.257474281027475,0.560465999999906,
0.231998140869141,0.132159931640625,-0.0309330854492185,0.268786608061862,0.563501999999971,
0.239180745849609,0.156101948242188,0.0073741411132815,0.28570898723586,0.566593999999895,
0.220027132568359,0.136948334960938,0.0504697709960951,0.264034057082085,0.569582000000082,
0.234392342529297,0.158496149902344,-0.0452982954101557,0.28655319809296,0.572642000000087,
0.184114107666015,0.151313544921875,0.0217393510742188,0.239303975946087,0.575649999999769,
0.234392342529297,0.146525141601563,-0.021356278808593,0.277246240736064,0.578649000000041,
0.186508309326172,0.187226569824219,0.00497993945312558,0.264317872443024,0.581820999999763,
0.19369091430664,0.151313544921875,0.0121625444335951,0.24608918433947,0.584765999999945,
0.229603939208984,0.156101948242188,-0.0333272871093744,0.279636362462682,0.587786000000051,
0.236786544189453,0.18004396484375,0.0408929643554696,0.300259773062625,0.590809999999692,
0.231998140869141,0.134554133300781,-0.00220266552734216,0.268202915514517,0.593788000000131,
0.236786544189453,0.168072956542969,0.0073741411132815,0.290466459660039,0.596878999999717,
0.186508309326172,0.165678754882813,-0.0644519086914048,0.257660334163393,0.599803000000065,
0.191296712646484,0.120188923339844,0.0241335527343765,0.227205277074555,0.602837999999792,
0.198479317626953,0.158496149902344,-0.0333272871093744,0.256175285938355,0.605821000000105,
0.203267720947266,0.151313544921875,0.0169509477539069,0.253970253938676,0.608763000000181,
0.243969149169922,0.151313544921875,0.0337103593750001,0.289055570700015,0.611817999999403,
0.234392342529297,0.146525141601563,-0.0117794721679676,0.276673351304901,0.614854999999807,
0.246363350830078,0.151313544921875,-0.00459686718749985,0.289157086541188,0.617913000000044,
0.208056124267578,0.124977326660156,-0.0333272871093744,0.244984471121,0.620911999999407,
0.19369091430664,0.115400520019531,-0.0357214887695303,0.228274998774794,0.623845999999503,
0.239180745849609,0.0914585034179687,-0.0261446821289049,0.257401692761045,0.626909999999953,
0.200873519287109,0.136948334960938,-0.0644519086914048,0.251513549800656,0.629887999999482,
0.227209737548828,0.158496149902344,0.0193451494140628,0.277704031617703,0.632974999999533,
0.222421334228516,0.163284553222656,-0.0429040937499998,0.279237992582715,0.635964000000058,
0.224815535888672,0.148919343261719,-0.0285388837890626,0.271170543869237,0.638925999999628,
0.172143099365234,0.134554133300781,-0.0141736738281235,0.218949661970918,0.641953000000285,
0.196085115966797,0.156101948242188,0.0408929643554696,0.253947682569651,0.644913000000088,
0.234392342529297,0.124977326660156,-0.0381156904296862,0.26835034613807,0.64800699999978,
0.224815535888672,0.148919343261719,0.0121625444335951,0.269938740201386,0.650950000000194,
0.184114107666015,0.127371528320313,-0.109941740234374,0.249416713782513,0.653916000000208,
0.203267720947266,0.113006318359375,0.0361045610351578,0.235354485183047,0.656997999999476,
0.179325704345703,0.148919343261719,0.0384987626953137,0.236255865039694,0.659959999999955,
0.239180745849609,0.151313544921875,0.00497993945312558,0.283068927752511,0.662983000000168,
0.205661922607422,0.124977326660156,0.0193451494140628,0.241434035288219,0.665946000000076,
0.203267720947266,0.136948334960938,0.00497993945312558,0.245147736323682,0.66895199999999,
0.224815535888672,0.182438166503906,-0.00938527050781168,0.289678775675268,0.671940999999606,
0.236786544189453,0.1608903515625,-0.00938527050781168,0.286429146627213,0.674864999999954,
0.234392342529297,0.148919343261719,-0.0357214887695303,0.2799870814766,0.677955000000111,
0.243969149169922,0.10342951171875,-0.00220266552734216,0.264997096920891,0.680914999999914,
0.210450325927734,0.122583125,0.0408929643554696,0.246957884570695,0.683960999999726,
0.208056124267578,0.175255561523438,-0.00938527050781168,0.272194683990423,0.686958000000232,
0.19369091430664,0.139342536621094,0.0313161577148442,0.240651645602028,0.689926000000014,
0.198479317626953,0.170467158203125,-0.0165678754882812,0.262159466832127,0.692962999999509,
0.231998140869141,0.117794721679687,0.0265277543945324,0.261538631134196,0.695947999999589,
0.215238729248047,0.158496149902344,-0.0381156904296862,0.270002862872066,0.699018000000251,
0.184114107666015,0.153707746582031,-0.0189620771484371,0.240590183446379,0.702017999999953,
0.160172091064453,0.151313544921875,-0.00699106884765577,0.220453538589011,0.705009000000246,
0.186508309326172,0.144130939941406,-0.0189620771484371,0.236471219529742,0.708107999999811,
0.203267720947266,0.151313544921875,0.0384987626953137,0.256311743751608,0.711118999999599,
0.222421334228516,0.168072956542969,0.0265277543945324,0.280041943991082,0.71419700000024,
0.227209737548828,0.156101948242188,-0.0261446821289049,0.276903642962016,0.717155999999704,
0.217632930908203,0.168072956542969,0.0241335527343765,0.276034490063058,0.720153000000209,
0.203267720947266,0.165678754882813,0.00258573779296967,0.262247787862068,0.723277999999482,
0.227209737548828,0.124977326660156,-0.0740287153320303,0.269673594758251,0.726206000000275,
0.215238729248047,0.148919343261719,0.0241335527343765,0.262844268975754,0.729255000000194,
0.19369091430664,0.139342536621094,0.0217393510742188,0.239593639694528,0.732205000000249,
0.241574947509765,0.110612116699219,0.00258573779296967,0.265706946964059,0.73523699999987,
0.210450325927734,0.144130939941406,0.0169509477539069,0.255637247210258,0.738271999999597,
0.203267720947266,0.158496149902344,-0.0285388837890626,0.259332342373425,0.741218000000117,
0.196085115966797,0.115400520019531,-0.00938527050781168,0.22771634993341,0.744260999999824,
0.220027132568359,0.124977326660156,-0.00699106884765577,0.253140566265082,0.747229999999945,
0.239180745849609,0.139342536621094,0.0193451494140628,0.277485146454776,0.750168999999914,
0.258334359130859,0.156101948242188,-0.0141736738281235,0.302167755365036,0.75327599999946,
0.241574947509765,0.134554133300781,0.0313161577148442,0.278287570305774,0.756300999999439,
0.205661922607422,0.156101948242188,-0.00699106884765577,0.258289604318913,0.759379000000081,
0.212844527587891,0.124977326660156,-0.0524809003906235,0.252341772223788,0.762367000000268,
0.208056124267578,0.1608903515625,-0.00459686718749985,0.263047880164601,0.765392999999676,
0.212844527587891,0.115400520019531,0.00976834277343741,0.242312800869929,0.768399999999929,
0.255940157470703,0.122583125,0.0193451494140628,0.284440189753042,0.771329000000151,
0.181719906005859,0.168072956542969,-0.0883939252929675,0.262838598741836,0.774403999999777,
0.231998140869141,0.134554133300781,-0.0620577070312489,0.275280059497666,0.777409999999691,
0.215238729248047,0.196803376464844,-0.0333272871093744,0.293547249386445,0.780447999999524,
0.210450325927734,0.172861359863281,0.00258573779296967,0.272354686864035,0.783408000000236,
0.217632930908203,0.153707746582031,0.0313161577148442,0.268273863261112,0.786384999999427,
0.215238729248047,0.165678754882813,-0.0452982954101557,0.275370833522541,0.789412000000084,
0.167354696044922,0.175255561523438,0.0696233842773442,0.25212996999844,0.792360999999801,
0.210450325927734,0.124977326660156,0.0456813676757815,0.248988873676996,0.795446000000084,
0.188902510986328,0.148919343261719,0.0768059892578137,0.252507998765015,0.798407999999654,
0.253545955810547,0.18004396484375,0.0337103593750001,0.312790296067082,0.801360999999815,
0.231998140869141,0.146525141601563,0.0193451494140628,0.275076333576605,0.804377999999815,
0.227209737548828,0.184832368164063,-0.0237504804687489,0.293856009774582,0.807326000000103,
0.17453730102539,0.146525141601563,-0.00459686718749985,0.227934239987162,0.810378999999557,
0.172143099365234,0.170467158203125,-0.0429040937499998,0.246034672242404,0.813304999999673,
0.181719906005859,0.122583125,0.00258573779296967,0.219215494008699,0.816211999999723,
0.17453730102539,0.139342536621094,-0.0261446821289049,0.224862527702706,0.819292000000132,
0.246363350830078,0.124977326660156,0.0480755693359374,0.280402377269377,0.822326999999859,
0.215238729248047,0.189620771484375,0.0337103593750001,0.288825441877677,0.82538999999997,
0.241574947509765,0.115400520019531,0.0600465776367187,0.274374428055908,0.828340999999455,
0.220027132568359,0.136948334960938,-0.0357214887695303,0.261615768398503,0.831275999999889,
0.239180745849609,0.163284553222656,0.00258573779296967,0.289613467480764,0.834308999999848,
0.176931502685547,0.144130939941406,-0.0500866987304676,0.233638956256604,0.837312999999995,
0.184114107666015,0.14173673828125,-0.0165678754882812,0.232941628135582,0.840390000000298,
0.200873519287109,0.132159931640625,0.0289219560546883,0.242183603540935,0.843431999999666,
0.179325704345703,0.168072956542969,-0.0165678754882812,0.246334572194754,0.846415999999408,
0.212844527587891,0.165678754882813,0.0289219560546883,0.271272413425436,0.84957200000008,
0.212844527587891,0.151313544921875,-0.0165678754882812,0.261673606424362,0.852568999999676,
0.210450325927734,0.139342536621094,-0.0189620771484371,0.253111126908466,0.855649999999514,
0.188902510986328,0.14173673828125,-0.0548751020507812,0.242455642253652,0.858651999999893,
0.227209737548828,0.163284553222656,-0.0261446821289049,0.281015399154123,0.861817999999403,
0.229603939208984,0.168072956542969,0.000191536132813752,0.284546172540535,0.864802000000054,
0.227209737548828,0.151313544921875,-0.0189620771484371,0.273641396874842,0.867779000000155,
0.215238729248047,0.120188923339844,0.0384987626953137,0.249510004991734,0.870868999999402,
0.19369091430664,0.144130939941406,-0.0429040937499998,0.245215536607786,0.87384800000018,
0.246363350830078,0.165678754882813,0.0720175859375001,0.305501036227389,0.876924000000145,
0.215238729248047,0.148919343261719,-0.0117794721679676,0.261998926200799,0.879899999999907,
0.198479317626953,0.14173673828125,0.0552581743164069,0.250073605830465,0.882837999999538,
0.196085115966797,0.192014973144531,0.000191536132813752,0.274443362647919,0.885916000000179,
0.200873519287109,0.146525141601563,0.0073741411132815,0.248745182524818,0.888866999999664,
0.231998140869141,0.144130939941406,-0.0788171186523439,0.284269244568927,0.891907999999603,
0.186508309326172,0.127371528320313,-0.00938527050781168,0.226046320423191,0.894967000000179,
0.229603939208984,0.1608903515625,0.0265277543945324,0.281615688269323,0.897950999999921,
0.19369091430664,0.177649763183594,-0.0716345136718743,0.272409823965905,0.901071999999658,
0.231998140869141,0.134554133300781,0.0744117875976578,0.278325468271484,0.904034000000138,
0.203267720947266,0.1608903515625,0.0504697709960951,0.264103520213947,0.907129000000168,
0.212844527587891,0.151313544921875,0.0193451494140628,0.261864118593573,0.910108000000037,
0.19369091430664,0.165678754882813,-0.0285388837890626,0.256476291287103,0.913074000000051,
0.229603939208984,0.136948334960938,-0.0117794721679676,0.267603384345961,0.916158999999425,
0.17453730102539,0.153707746582031,0.0384987626953137,0.235736071778639,0.919162000000142,
0.203267720947266,0.153707746582031,-0.0237504804687489,0.255945156353696,0.922182999999677,
0.169748897705078,0.182438166503906,-0.0357214887695303,0.251742721104916,0.92516599999999,
0.224815535888672,0.148919343261719,-0.0261446821289049,0.270929031995528,0.928167999999459,
0.229603939208984,0.165678754882813,0.0169509477539069,0.283645471230474,0.931190999999671,
0.203267720947266,0.136948334960938,0.000191536132813752,0.245097224614557,0.934164000000237,
0.205661922607422,0.1608903515625,-0.0333272871093744,0.263236091185378,0.937238999999863,
0.179325704345703,0.148919343261719,0.0313161577148442,0.235192220897302,0.94021900000007,
0.198479317626953,0.127371528320313,0.00976834277343741,0.236035942756294,0.943123999999443,
0.222421334228516,0.124977326660156,0.014556746093751,0.255543501102944,0.946163999999953,
0.203267720947266,0.136948334960938,0.00976834277343741,0.24529173110443,0.949120000000221,
0.222421334228516,0.148919343261719,0.0265277543945324,0.268983163916836,0.95217700000012,
0.172143099365234,0.170467158203125,0.00976834277343741,0.242461789165752,0.955103000000236,
0.198479317626953,0.14173673828125,0.000191536132813752,0.243892146635267,0.958136000000195,
0.210450325927734,0.151313544921875,0.00497993945312558,0.259248776963114,0.961113999999725,
0.231998140869141,0.163284553222656,0.00258573779296967,0.283710536864238,0.964068000000225,
0.188902510986328,0.132159931640625,-0.0117794721679676,0.230844454455268,0.967114999999467,
0.188902510986328,0.156101948242188,-0.0381156904296862,0.248001578137878,0.970103999999992,
0.172143099365234,0.175255561523438,-0.00459686718749985,0.245700813372491,0.973113000000012,
0.19369091430664,0.156101948242188,0.0313161577148442,0.250728319628976,0.976098000000093,
0.200873519287109,0.144130939941406,0.0169509477539069,0.247812899641923,0.979062999999769,
0.181719906005859,0.189620771484375,-0.0381156904296862,0.265388332588378,0.982159000000138,
0.231998140869141,0.134554133300781,-0.0117794721679676,0.268452431763279,0.985173000000032,
0.231998140869141,0.14173673828125,0.0169509477539069,0.272396356391015,0.988241000000016,
0.234392342529297,0.153707746582031,-0.0165678754882812,0.280785213453081,0.991258999999445,
0.220027132568359,0.201591779785156,-0.0285388837890626,0.299776004094936,0.994214000000284,
0.255940157470703,0.127371528320313,-0.0548751020507812,0.291101609851035,0.997260000000097,
0.184114107666015,0.146525141601563,-0.0405098920898439,0.238764890886709,1.00026900000012,
0.224815535888672,0.151313544921875,0.0217393510742188,0.271864696933719,1.00338099999954,
0.229603939208984,0.129765729980469,-0.00459686718749985,0.263776884441352,1.00631799999974,
0.220027132568359,0.146525141601563,-0.0500866987304676,0.269054332017399,1.0092709999999,
0.217632930908203,0.120188923339844,0.0552581743164069,0.254682028690813,1.01233899999988,
0.227209737548828,0.144130939941406,-0.0836055219726557,0.281758541999565,1.01534600000014,
0.239180745849609,0.163284553222656,-0.0429040937499998,0.292762763627492,1.01839099999961,
0.224815535888672,0.134554133300781,-0.0572693037109371,0.268191374046166,1.02131399999962,
0.263122762451172,0.158496149902344,-0.00699106884765577,0.307251513743113,1.02426999999989,
0.229603939208984,0.132159931640625,0.0241335527343765,0.266020008268402,1.02732300000025,
0.205661922607422,0.105823713378906,0.0648349809570323,0.24020628526244,1.0302759999995,
