X,Y,Z,Magnitude,Seconds,
-0.787931766357422,0.94618849609375,0.00497993945312558,1.23131390732511,0.0,
-0.773566556396485,0.972524714355469,-0.00938527050781168,1.2426977188801,0.00296900000012101,
-0.696952103271485,0.998860932617188,-0.0141736738281235,1.21805840992672,0.00602400000025227,
-0.68737529663086,0.9270348828125,-0.145854765136718,1.16325065436587,0.00901100000010047,
-0.615549246826172,0.864785639648438,-0.0788171186523439,1.06440932728114,0.0120890000007421,
-0.658644876708985,0.821690009765625,-0.126701151855467,1.0606793708021,0.0150680000006105,
-0.594001431884766,0.764229169921875,-0.141066361816405,0.978153180067799,0.0179920000000493,
-0.632308658447266,0.747469758300781,-0.0620577070312489,0.981007868532962,0.0210500000002867,
-0.59160723022461,0.759440766601563,-0.138672160156249,0.972614703175314,0.0240340000000288,
-0.632308658447266,0.795353791503906,-0.117124345214844,1.02280008088044,0.0270550000004732,
-0.603578238525391,0.886333454589844,-0.124306950195312,1.07951188071898,0.0300460000007661,
-0.570059415283203,0.929429084472656,-0.107547538574218,1.09561518475698,0.0330170000006547,
-0.627520255126953,1.01083194091797,-0.0764229169921862,1.19222621411215,0.036062000000129,
-0.61076084350586,1.03716815917969,-0.117124345214844,1.20932407179307,0.0390260000003764,
-0.632308658447266,1.05871597412109,-0.0572693037109371,1.23449322661329,0.0420450000001438,
-0.62991445678711,1.0419565625,-0.0572693037109371,1.21891159406815,0.0450080000000526,
-0.644279666748047,1.04435076416016,-0.0261446821289049,1.2273745768878,0.0479629999999815,
-0.632308658447266,0.986889924316406,-0.0836055219726557,1.17505567764636,0.0509820000006584,
-0.637097061767578,0.960553706054688,-0.0907881269531234,1.15620005722363,0.0539560000006531,
-0.59160723022461,0.970130512695313,-0.124306950195312,1.14306804013732,0.0570340000003853,
-0.615549246826172,0.955765302734375,-0.0788171186523439,1.13956146274427,0.0600330000006579,
-0.59160723022461,0.936611689453125,-0.181767790039062,1.12262197607652,0.0630730000002586,
-0.603578238525391,0.931823286132813,-0.121912748535156,1.11689929933551,0.06602600000042,
-0.586818826904297,0.955765302734375,-0.167402580078125,1.13396087822159,0.0689800000000105,
-0.548511600341797,0.972524714355469,-0.0812113203124998,1.11949299876712,0.0720070000006672,
-0.59160723022461,1.03237975585938,-0.0836055219726557,1.1928105291565,0.0750080000007074,
-0.582030423583985,1.05632177246094,0.00258573779296967,1.20606044085373,0.0780960000001869,
-0.594001431884766,1.03237975585938,0.0600465776367187,1.1925817594091,0.0811010000006718,
-0.634702860107422,0.994072529296875,0.0073741411132815,1.17944151702761,0.08408800000052,
-0.658644876708985,0.991678327636719,0.052863972656251,1.19165161801776,0.0871720000004643,
-0.682586893310547,0.919852277832031,0.014556746093751,1.14554134748989,0.0901550000007774,
-0.673010086669922,0.903092866210938,0.0552581743164069,1.12764035383154,0.0932410000004893,
-0.66822168334961,0.879150849609375,0.0313161577148442,1.10472038824378,0.0962660000004689,
-0.665827481689453,0.895910261230469,0.0361045610351578,1.11681913078104,0.0992860000005749,
-0.641885465087891,0.883939252929687,0.0624407792968764,1.09419577959348,0.102331000000049,
-0.641885465087891,0.864785639648438,0.00258573779296967,1.07697624805433,0.105276000000231,
-0.64906807006836,0.809719001464844,0.052863972656251,1.03910000506231,0.108359000000746,
-0.689769498291016,0.812113203125,0.105536409179688,1.07072300298683,0.111352000000807,
-0.663433280029297,0.766623371582031,-0.00459686718749985,1.01384231618836,0.114300000000185,
-0.620337650146485,0.802536396484375,0.0289219560546883,1.01475117512295,0.117340000000695,
-0.68737529663086,0.814507404785156,0.014556746093751,1.06588883553823,0.120276999999987,
-0.673010086669922,0.812113203125,0.0624407792968764,1.0565837791527,0.123361000000841,
-0.732865128173828,0.790565388183594,-0.0476924970703116,1.07905491211704,0.126309000000219,
-0.696952103271485,0.812113203125,-0.059663505371093,1.07183479268853,0.129323000000113,
-0.718499918212891,0.838449421386719,-0.00938527050781168,1.10423170032297,0.132457000000613,
-0.661039078369141,0.859997236328125,-0.100364933593749,1.08933054190104,0.135456000000886,
-0.72568252319336,0.795353791503906,-0.095576530273437,1.08089668852626,0.138547000000472,
-0.72568252319336,0.819295808105469,-0.0165678754882812,1.09459364156095,0.141519000000699,
-0.732865128173828,0.804930598144531,-0.0309330854492185,1.08901855801357,0.144517000000633,
-0.696952103271485,0.814507404785156,-0.059663505371093,1.07364998047667,0.147580000000744,
-0.68737529663086,0.8504204296875,-0.00699106884765577,1.09350289468838,0.150576000000001,
-0.680192691650391,0.838449421386719,-0.0548751020507812,1.08105078827195,0.153683000000456,
-0.641885465087891,0.883939252929687,-0.0572693037109371,1.09391285133164,0.156659000000218,
-0.644279666748047,0.919852277832031,-0.0716345136718743,1.12532484446348,0.159687000000304,
-0.615549246826172,0.986889924316406,-0.021356278808593,1.16331796540329,0.162684000000809,
-0.579636221923828,0.989284125976562,-0.0931823286132811,1.15036697537835,0.165688000000046,
-0.582030423583985,0.996466730957031,-0.0572693037109371,1.1554155672437,0.168719000000237,
-0.562876810302735,0.982101520996094,-0.0117794721679676,1.13203023682408,0.171785000000455,
-0.594001431884766,0.960553706054688,-0.0907881269531234,1.13302409828397,0.174854000000778,
-0.601184036865235,0.965342109375,-0.0812113203124998,1.14013284877731,0.177867000000333,
-0.653856473388672,0.989284125976562,-0.105153336914062,1.19049090461273,0.180817000000388,
-0.646673868408203,0.974918916015625,-0.165008378417967,1.18147439660588,0.183906000000206,
-0.682586893310547,1.00843773925781,-0.107547538574218,1.22247209126921,0.18686500000058,
-0.64906807006836,1.02998555419922,-0.167402580078125,1.22889512378321,0.189926000000014,
-0.641885465087891,0.982101520996094,-0.155431571777344,1.18351143692789,0.192884000000049,
-0.670615885009766,0.922246479492188,-0.165008378417967,1.1521683900851,0.195888000000195,
-0.639491263427735,0.941400092773438,-0.169796781738281,1.15065814113616,0.199016000000483,
-0.617943448486328,0.900698664550781,-0.198527201660156,1.11019153286708,0.202006000000438,
-0.605972440185547,0.943794294433594,-0.15064316845703,1.13165526229175,0.205094000000827,
-0.589213028564453,0.917458076171875,-0.102759135253905,1.09519895655594,0.20809300000019,
-0.584424625244141,0.924640681152344,-0.0883939252929675,1.0974178866149,0.21102400000018,
-0.601184036865235,0.924640681152344,-0.0333272871093744,1.10340080817875,0.214139000000614,
-0.558088406982422,0.955765302734375,-0.0500866987304676,1.10790733426078,0.21710400000029,
-0.61076084350586,0.924640681152344,-0.00938527050781168,1.10818648272949,0.220221000000492,
-0.617943448486328,0.924640681152344,0.0504697709960951,1.11326622716826,0.223196000000826,
-0.699346304931641,0.900698664550781,0.0576523759765628,1.14178243768279,0.226203000000169,
-0.682586893310547,0.886333454589844,0.0792001909179696,1.12150993303045,0.22929700000077,
-0.699346304931641,0.879150849609375,0.0768059892578137,1.12600649668476,0.232288000000153,
-0.704134708251953,0.879150849609375,0.0456813676757815,1.12729707312965,0.23536200000035,
-0.450349332275391,1.14730143554688,0.921959175292969,1.539195837441,23.4885960000001,
-1.98263839477539,0.769017573242188,-0.971854337890624,2.33810690227578,23.4930600000007,
-0.708923111572266,1.53516210449219,-0.423582157714844,1.74319147242193,23.4959700000009,
0.157777889404297,0.989284125976562,0.0815943925781255,1.00510426782214,23.4988920000005,
-0.124737906494141,-0.159932670898438,0.0193451494140628,0.203745525946219,23.5019300000004,
-1.34817495483398,-0.449631071777344,0.675356404296876,1.57348342297403,23.5049450000006,
-2.16938612426758,-0.147961662597656,-0.22725762158203,2.18626961656848,23.5080270000008,
-1.57562411254883,1.07786958740234,-0.53371543408203,1.9822326695092,23.5110020000002,
-0.0289698400878908,1.94935899169922,0.160603047363281,1.95617817925047,23.5139700000009,
0.672531246337891,2.53833260009766,0.639443379394532,2.70265027361492,23.5170270000008,
0.437899483642578,2.05230966308594,0.771124470703127,2.23570209560387,23.5200040000009,
-0.926795462646485,0.737892951660156,0.227640693847658,1.20633996998661,23.5230770000007,
-1.80786167358398,0.529597407226563,-1.10353542919922,2.1832607924966,23.5260680000001,
-1.61153713745117,1.271799921875,-0.818625431640625,2.21012999255573,23.5289750000002,
-0.282755216064453,1.63093017089844,-0.00938527050781168,1.65528602297638,23.5319550000004,
0.0644040246582029,0.496078583984375,0.0432871660156255,0.502111161618402,23.5349550000001,
-0.474291348876953,-0.612436784667969,0.1486320390625,0.788747476617096,23.5379800000001,
-1.6426617590332,-0.638773002929688,0.0504697709960951,1.76321178581765,23.5409110000001,
-1.99700360473633,0.199197578125,-0.617512492187499,2.09976778489155,23.543799,
-1.04411134399414,1.26701151855469,-0.373303922851562,1.68369905435142,23.5467910000007,
0.306218392333984,2.18877915771484,0.332985566894532,2.2350398861789,23.5497610000002,
0.629435616455078,2.57663982666016,0.85731573046875,2.78751722027015,23.5527630000006,
-0.163045133056641,1.70275622070313,0.747182454101564,1.86661299745659,23.5557420000005,
-1.32902134155273,0.680432111816406,-0.526532829101562,1.58320005217763,23.5588150000003,
-1.72167041381836,0.790565388183594,-1.192120890625,2.23836879550174,23.5617560000001,
-0.890882437744141,1.74106344726563,-0.378092326171874,1.99196567550635,23.5647270000009,
0.0596156213378904,1.50882588623047,0.416782625000002,1.56646651217591,23.5677380000006,
-0.0768538732910158,0.0292092602539062,0.184545063964844,0.20203113462583,23.5706960000007,
-0.948343277587891,-0.667503422851563,0.242005903808595,1.18468673038188,23.5737080000008,
-1.95151377319336,-0.406535441894531,-0.425976359374999,2.03841431785252,23.5766820000008,
-1.7360356237793,0.60142345703125,-0.61032988720703,1.93598358281168,23.579608,
-0.421618912353516,1.38911580322266,-0.155431571777344,1.45998773814107,23.5826140000008,
0.421140072021484,2.06906907470703,0.313831953613281,2.13468880431786,23.5855470000006,
0.332554610595703,2.15765453613281,0.728028840820313,2.30132389276024,23.5885640000006,
-0.64906807006836,1.33404916503906,0.455089851562501,1.55180002169057,23.5914820000007,
-1.24522428344727,1.02759135253906,-0.459495182617188,1.67858968385613,23.5943490000009,
-1.46309663452148,1.35080857666016,-0.737222575195313,2.12340120987635,23.5973880000001,
-0.586818826904297,1.89908075683594,-0.0812113203124998,1.98933640572448,23.6003430000001,
-0.230082779541016,1.36517378662109,0.261159517089844,1.40884415266036,23.6033570000009,
-0.548511600341797,-0.207816704101563,-0.00699106884765577,0.586601767178372,23.606264,
-1.1614272253418,-0.868616362304688,0.170179854003907,1.46026325275183,23.6091650000008,
-2.04488763793945,-0.54779333984375,-0.600753080566406,2.2005788463004,23.6121660000008,
-1.34578075317383,0.651701691894531,-0.334996696289062,1.53233929576837,23.6150870000001,
0.0620098229980467,1.58304613769531,0.244400105468751,1.6030008433477,23.6180980000008,
0.581551583251953,2.29412403076172,0.570011531250001,2.434362433628,23.6210730000003,
0.0667982263183592,2.04033865478516,0.881257747070313,2.22352401516629,23.6240470000002,
-0.941160672607422,1.02280294921875,0.0169509477539069,1.39003475468176,23.6270700000005,
-1.48225024780273,0.991678327636719,-0.967065934570313,2.02872083452159,23.6300410000003,
-1.09678378051758,1.6548721875,-0.56005165234375,2.06281227247184,23.633057,
-0.234871182861328,1.75064025390625,-0.0189620771484371,1.76642727886132,23.6359790000006,
-0.198958157958985,0.646913288574219,0.103142207519532,0.684630898020492,23.6389680000002,
-0.91721865600586,-0.447236870117188,0.268342122070313,1.05513903131038,23.6420000000007,
-1.8892645300293,-0.703416447753906,0.0983538041992187,2.01836285989363,23.6449860000002,
-2.05446444458008,-0.04979939453125,-0.813837028320313,2.21034722213607,23.6480500000007,
-0.62991445678711,0.962947907714844,-0.325419889648437,1.19580893140192,23.6510750000007,
0.349314022216797,1.95175319335938,0.383263801757813,2.01946823585905,23.6541440000001,
0.459447298583984,2.11934730957031,0.763941865722657,2.29920247324216,23.6571510000003,
-0.471897147216797,1.25504051025391,0.488608674804688,1.42707814678248,23.6600900000003,
-1.34338655151367,0.7738059765625,-0.868903666503906,1.77720474279571,23.663184,
-1.45830823120117,1.57346933105469,-0.818625431640625,2.29621780985332,23.6661780000004,
-0.582030423583985,2.191173359375,-0.15064316845703,2.27215612778146,23.6692140000005,
-0.141497318115235,1.42742302978516,0.191727668945314,1.4471756963251,23.6721730000008,
-0.294726224365235,-0.124019645996094,0.318620356933595,0.451401541616856,23.6751790000008,
-1.37211697143555,-0.830309135742188,0.342562373535158,1.63995951900053,23.6782450000001,
-2.07361805786133,-0.384987626953125,-0.701309550292969,2.22259812114735,23.6811540000008,
-1.25001268676758,0.484107575683594,-0.557657450683593,1.45185181551599,23.6841420000001,
0.0380678063964842,1.50164328125,0.0648349809570323,1.50352428539176,23.6870930000005,
0.409169063720703,2.09779949462891,0.759153462402345,2.26814814812632,23.6900510000005,
-0.127132108154297,1.60219975097656,0.725634639160157,1.76344896282887,23.6930610000009,
-1.07044756225586,0.833661018066406,-0.354150309570311,1.40223789648967,23.6960860000008,
-1.3146561315918,1.33883756835938,-0.832990641601562,2.05296862805503,23.6991150000003,
-0.57245361694336,2.02357924316406,-0.356544511230467,2.13300259854613,23.7021050000003,
-0.0433350500488283,1.90865756347656,0.0672291826171882,1.91033279408966,23.7050510000008,
-0.41922471069336,0.350032282714844,0.0744117875976578,0.551188779940207,23.7080990000004,
-1.47027923950195,-0.43287166015625,0.531704304687501,1.62228492685474,23.7110650000004,
-2.23881797241211,-0.794396110839844,-0.445129972656249,2.41692196544901,23.7140930000005,
-1.81504427856445,0.0316034619140625,-0.665396525390625,1.93342624580211,23.7171100000005,
-0.321062442626953,1.10181160400391,-0.00459686718749985,1.14764586609772,23.7200670000002,
0.548032760009765,2.16004873779297,0.732817244140627,2.34588396324174,23.7231180000008,
0.416351668701172,2.20075016601563,0.960266401855469,2.43695744069947,23.7260450000003,
-0.799902774658203,1.05871597412109,0.0672291826171882,1.32862474979222,23.7291020000002,
-1.37690537475586,0.915063874511719,-1.31901357861328,2.1149484925251,23.7320020000006,
-1.04889974731445,1.81049529541016,-0.777924003417969,2.23231934313003,23.7349600000007,
-0.328245047607422,2.22708638427734,-0.279930058105467,2.26848394566575,23.7380400000002,
-0.0265756384277346,0.998860932617188,0.174968257324219,1.01441772378927,23.740984,
-0.627520255126953,-0.459207878417969,0.67296220263672,1.02836358957977,23.7440400000005,
-1.85574570678711,-1.34027408935547,0.0863827958984373,2.29076160922163,23.7469590000001,
-2.18135713256836,-0.543004936523438,-0.842567448242187,2.40064433136877,23.7499560000006,
-0.658644876708985,0.800142194824219,-0.272747453125,1.07164909309871,23.7529360000008,
0.490571920166015,2.15765453613281,0.615501362792969,2.29673155456833,23.7558590000008,
0.550426961669922,2.48087176025391,0.938718586914064,2.70903804262259,23.758914,
-0.541328995361328,1.02040874755859,0.409600020019532,1.22557874888275,23.7618930000008,
-1.47506764282227,0.658884296875,-1.24718752880859,2.04093846050913,23.7649330000004,
-1.51098066772461,1.84161991699219,-0.993402152832031,2.58098321074569,23.7679010000002,
-0.550905802001953,2.56227461669922,-0.442735770996093,2.65796226026256,23.7708260000009,
0.035673604736328,1.70754462402344,0.40481161669922,1.75523607931266,23.7738900000004,
-0.297120426025391,-0.195845695800781,0.859709932128908,0.930450026345474,23.7768190000006,
-1.57801831420898,-1.19422778808594,0.402417415039062,2.0194706201731,23.7799130000003,
-2.26515419067383,-0.772848295898438,-0.998190556152343,2.59318383119902,23.7828870000003,
-1.35535755981445,0.680432111816406,-0.38048652783203,1.56357026436256,23.7859240000007,
-0.0840364782714846,1.90386916015625,0.502973884765625,1.97098012101354,23.7890080000007,
0.315795198974609,2.21750957763672,0.78788388232422,2.37441284250071,23.7920220000005,
-0.297120426025391,1.17603185546875,0.246794307128907,1.23783637960355,23.7950840000003,
-1.20452285522461,1.09702320068359,-0.672579130371092,1.7625827351382,23.7980230000003,
-1.11593739379883,2.12652991455078,-0.579205265624999,2.4704097806003,23.8010180000001,
-0.26599580444336,2.39707470214844,-0.299083671386718,2.43026170157694,23.8041560000001,
0.394803853759765,1.10181160400391,0.0576523759765628,1.1718287802051,23.8070970000008,
-0.558088406982422,-0.382593425292969,0.653808589355469,0.940907046737653,23.8101710000001,
-1.59717192749023,-1.16789156982422,0.0193451494140628,1.97871249039248,23.8131510000003,
-2.24360637573242,-0.868616362304688,-1.038891984375,2.62060308121799,23.8161130000008,
-1.08720697387695,0.752258161621094,0.0672291826171882,1.32379420937229,23.8191490000008,
0.406774862060547,1.87753294189453,0.917170771972657,2.12880200142344,23.8221010000007,
0.488177718505859,1.92062857177734,0.830979512207032,2.14887378533056,23.8251180000007,
-0.471897147216797,1.03237975585938,0.189333467285158,1.15080060813932,23.8280770000001,
-1.28353151000977,1.24546370361328,-0.727645768554687,1.93082918423707,23.8309570000001,
-1.1231199987793,2.28933562744141,-0.639060307128906,2.62885036144666,23.8340210000006,
-0.62991445678711,2.39228629882813,-0.660608122070311,2.56051343471879,23.8370520000008,
-0.333033450927735,0.94618849609375,-0.215286613281249,1.02592995639814,23.8400920000004,
-1.05129394897461,-0.226970317382813,0.364110188476563,1.13547819066503,23.8430970000009,
-1.78631385864258,-0.784819304199219,-0.095576530273437,1.95345678604913,23.8461080000006,
-1.92996595825195,-0.0545877978515625,-0.41879375439453,1.97563575499269,23.8491000000004,
-0.665827481689453,0.979707319335938,0.232429097167969,1.20713543239508,23.8520350000008,
0.275093770751953,1.30771294677734,0.687327412597657,1.5027337442088,23.8551100000004,
0.196085115966797,0.912669672851563,0.467060859863283,1.04382045930463,23.8580890000003,
-0.797508572998047,0.848026228027344,-0.155431571777344,1.17444769186748,23.8610930000004,
-1.12072579711914,1.78894748046875,-0.583993668945311,2.19029861105102,23.8640340000002,
-0.586818826904297,2.66283108642578,-0.375698124511718,2.75248520635561,23.866978,
-0.249236392822266,2.32764285400391,-0.555263249023437,2.40590051976772,23.8700190000009,
-0.275572611083985,0.778594379882813,0.44311884326172,0.937285325617739,23.8729270000003,
-1.24283008178711,-0.365834013671875,0.273130525390625,1.32403225853994,23.8760020000009,
-1.8725051184082,-0.523851323242187,-0.670184928710936,2.05665832505032,23.8789790000001,
-1.05368815063477,0.551145222167969,-0.0285388837890626,1.18946805026222,23.8819210000002,
-0.146285721435547,1.34123177001953,0.984208418457031,1.67002047417609,23.884943,
0.100317049560547,0.898304462890625,0.605924556152344,1.08819069387225,23.8878950000008,
-0.651462271728516,-0.0282515795898438,-0.411611149414062,0.771119304360204,23.8909350000004,
-1.37690537475586,0.611000263671875,-0.682155937011718,1.65364036466186,23.8938690000005,
-1.43676041625977,1.84161991699219,-0.509773417480469,2.39075581136237,23.8967730000004,
-0.488656558837891,2.8807034375,-0.3110546796875,2.93836562413106,23.8998350000002,
-0.146285721435547,2.34200806396484,-0.550474845703125,2.41027463989566,23.9027950000009,
-0.684981094970703,0.699585725097656,0.565223127929688,1.13052928824259,23.9058550000009,
-1.20691705688477,0.0818816967773438,-0.176979386718749,1.22256905645034,23.9087960000006,
-1.45830823120117,0.213562788085938,-0.399640141113281,1.52708356157519,23.9117610000003,
-0.926795462646485,0.977313117675781,0.227640693847658,1.36598354494434,23.9147900000007,
-0.345004459228516,0.9270348828125,0.610712959472657,1.16249390093308,23.9177680000003,
-0.47668555053711,-0.0138863696289063,0.0432871660156255,0.478848330992186,23.9208580000004,
-1.01538092407227,-0.557370146484375,-0.816231229980469,1.41700152503704,23.9238680000008,
-1.37211697143555,0.8504204296875,-0.593570475585937,1.7199551738399,23.9268360000005,
-0.244447989501953,2.61494705322266,0.21327548388672,2.63499323391096,23.92994,
0.284670577392578,2.44735293701172,-0.126701151855467,2.46710902025314,23.9329290000005,
-0.167833536376953,1.3867216015625,0.36650439013672,1.44412269705948,23.9360130000005,
-1.31705033325195,0.426646735839844,-0.272747453125,1.41104223562162,23.9389460000002,
-1.49900965942383,0.376368500976563,-0.856932658203124,1.76720592695598,23.9420030000001,
-0.795114371337891,1.09702320068359,0.1486320390625,1.36299605626062,23.9450360000001,
-0.220505972900391,0.929429084472656,0.842950520507813,1.27398072480427,23.9479660000006,
-0.517386978759766,-0.274854350585938,0.234823298828125,0.631170485288008,23.9510070000006,
-1.12551420043945,-0.780030900878906,-0.770741398437499,1.57139197050965,23.9540100000004,
-1.17339823364258,0.704374128417969,-0.493014005859374,1.45467148781902,23.9570560000002,
-0.711317313232422,2.36595008056641,0.273130525390625,2.48561710400788,23.9600200000004,
-0.148679923095703,2.44017033203125,0.227640693847658,2.45527131990595,23.962939,
-0.366552274169922,1.45854765136719,0.26355371875,1.52682100577469,23.9659620000002,
-1.32423293823242,0.668461103515625,-0.275141654785156,1.50868686340503,23.9688940000005,
-1.47267344116211,0.797747993164063,-0.746799381835936,1.83381521468551,23.9719050000003,
-1.02016932739258,1.34123177001953,-0.327814091308593,1.71671494311747,23.9749250000004,
-0.148679923095703,1.53755630615234,0.74239405078125,1.71386523412898,23.9779610000005,
-0.292332022705078,0.235110603027344,0.455089851562501,0.589781129021524,23.9810280000002,
-1.18776344360352,-0.77763669921875,-0.562445854003906,1.52703836645282,23.9839760000004,
-1.39366478637695,0.0507570751953125,-0.703703751953125,1.56207451422216,23.9870100000007,
-0.890882437744141,1.20236807373047,-0.0812113203124998,1.49865132073947,23.9899770000002,
-0.40007109741211,1.51361428955078,-0.0812113203124998,1.56769907158987,23.9929090000005,
-0.275572611083985,1.07547538574219,0.476637666503906,1.20820984702461,23.9959790000003,
-1.08002436889648,1.0802637890625,-0.138672160156249,1.53383586454755,23.9989380000006,
-1.1829750402832,1.35320277832031,-0.452312577636718,1.85342234071871,24.0019770000008,
-0.471897147216797,1.6931794140625,-0.124306950195312,1.76209978821383,24.0048890000007,
0.0308852014160155,1.98527201660156,0.718452034179688,2.11149998839325,24.0078710000007,
-0.325850845947266,1.25982891357422,0.368898591796876,1.35256564953863,24.0109080000002,
-0.900459244384766,-0.097683427734375,-0.351756107910155,0.971648734010404,24.0138770000003,
-1.54210528930664,0.242293208007813,-0.646242912109374,1.68950425374008,24.0169430000005,
-1.32183873657227,1.28855933349609,-0.0189620771484371,1.84607756115843,24.0198800000007,
-0.115161099853516,1.08744639404297,0.119901619140625,1.10008096843327,24.0228380000008,
0.0308852014160155,0.321301862792969,0.368898591796876,0.490178491705274,24.0258740000008,
-1.11354319213867,0.316513459472656,0.0241335527343765,1.15790398529123,24.0288000000001,
-1.63547915405273,0.848026228027344,-0.715674760253906,1.97639340952853,24.0318580000003,
-0.414436307373047,1.6548721875,0.222852290527344,1.72047160779343,24.0347890000003,
-0.0720654699707033,2.28933562744141,0.629866572753906,2.37549635792341,24.0377910000007,
-0.512598575439453,1.38432739990234,0.131872627441407,1.48206276504446,24.0407950000008,
-0.608366641845703,0.156101948242188,-0.368515519531249,0.728204282664563,24.0438010000007,
-1.31705033325195,0.90788126953125,-0.181767790039062,1.60994084033558,24.0468250000004,
-1.00580411743164,1.76739966552734,0.440724641601562,2.08076469358345,24.0497880000003,
0.0835576379394529,0.725921943359375,0.280313130371095,0.782636568125407,24.0528160000003,
-0.206140762939453,-0.332315190429688,-0.059663505371093,0.395584546979209,24.0557590000008,
-1.5444994909668,-0.181480485839844,-0.737222575195313,1.72102032809464,24.0587400000004,
-1.70251680053711,0.529597407226563,-0.473860392578125,1.84487954661179,24.0618240000003,
-0.615549246826172,1.56149832275391,0.0863827958984373,1.68066649715485,24.0648540000002,
-0.0505176550292971,2.08104008300781,0.409600020019532,2.12156829655678,24.0679210000008,
-0.565271011962891,1.30771294677734,0.0504697709960951,1.42554960135347,24.070925,
-0.919612857666016,0.599029255371094,-0.536109635742188,1.22144889304085,24.0739230000008,
-1.39605898803711,1.425028828125,-0.253593839843749,2.01096934205204,24.0769670000009,
-1.02735193237305,2.09540529296875,0.265947920410158,2.34880898140368,24.0799800000004,
0.392409652099609,0.385945307617188,0.265947920410158,0.611283413731429,24.0831490000001,
-0.481473953857422,-0.344286198730469,-0.325419889648437,0.675461515897224,24.0860910000001,
-1.27395470336914,-0.109654436035156,-0.471466190917969,1.36281511980064,24.0890560000007,
-1.26916630004883,0.632548078613281,-0.373303922851562,1.46637511836274,24.092122,
-0.670615885009766,1.39869260986328,0.321014558593751,1.58401926406933,24.0951250000007,
-0.546117398681641,1.42024042480469,-0.236834428222656,1.53994078580436,24.0981570000004,
-0.622731851806641,0.895910261230469,-0.483437199218749,1.19338245379302,24.1010920000008,
-0.833421597900391,1.14251303222656,-0.52174442578125,1.50736353760073,24.104002,
-1.03932294067383,2.31567184570313,0.258765315429688,2.55136978120821,24.1070820000004,
-0.53414639038086,2.30848924072266,0.716057832519532,2.47531286111508,24.1099960000001,
0.28945898071289,0.654095893554688,0.457484053222657,0.849069843083289,24.1130660000008,
-0.306697232666016,-0.487938298339844,-0.334996696289062,0.666610652507415,24.1160910000008,
-1.35056915649414,-0.253306535644531,-0.720463163574218,1.55153743671911,24.1190430000006,
-1.0081983190918,0.424252534179688,0.0217393510742188,1.09404143557844,24.1221370000003,
-0.991438907470703,0.86957404296875,0.194121870605469,1.33296414959259,24.1250630000004,
-0.900459244384766,0.941400092773438,0.165391450683595,1.31316994994214,24.1281100000006,
-0.752018741455078,0.630153876953125,-0.351756107910155,1.04228520837189,24.1310530000001,
-0.816662186279297,1.75303445556641,-0.270353251464844,1.95273085945788,24.1340870000004,
-0.64906807006836,2.93816427734375,0.462272456542969,3.04430525807112,24.1370740000002,
-0.301908829345703,2.32524865234375,0.325802961914063,2.36729335031704,24.139999,
-0.0385466467285158,0.63973068359375,0.265947920410158,0.693880024122202,24.1430290000008,
-0.926795462646485,-0.1455674609375,-0.346967704589844,1.00026311703184,24.1459960000002,
-1.47267344116211,0.177649763183594,-0.773135600097655,1.67274180876841,24.1490130000002,
-0.584424625244141,0.433829340820313,0.15581464404297,0.744337452266496,24.1519520000002,
-0.766383951416016,0.625365473632813,0.189333467285158,1.00711146276578,24.1549190000005,
-1.25001268676758,0.4290409375,-0.2344402265625,1.34222578687844,24.1579440000005,
-0.82145058959961,0.306936652832031,-0.502590812499999,1.01073671389471,24.1609160000007,
-0.845392606201172,1.731486640625,-0.184161991699218,1.93562658704335,24.1639220000006,
-0.330639249267578,2.69395570800781,0.189333467285158,2.72076585389084,24.1668680000003,
0.38522704711914,2.05230966308594,0.265947920410158,2.10501855749505,24.1698270000006,
-0.143891519775391,0.886333454589844,0.189333467285158,0.917681275837455,24.1728640000001,
-1.52534587768555,0.567904633789063,-0.569628458984374,1.72443390738419,24.175776,
-1.50858646606445,0.584664045410156,-0.425976359374999,1.67305739003018,24.1788160000006,
-0.627520255126953,0.733104548339844,0.119901619140625,0.972419841253615,24.1817870000004,
-0.586818826904297,0.7738059765625,0.340168171875002,1.02900262882558,24.1847310000003,
-0.558088406982422,0.203985981445313,0.0456813676757815,0.595952798455645,24.187801,
-0.881305631103516,0.393127912597656,-0.330208292968749,1.01994445330297,24.1907660000006,
-1.06087075561523,1.68360260742188,0.0265277543945324,1.99014276412286,24.1937980000002,
-0.512598575439453,1.87035033691406,0.26355371875,1.95714798750735,24.1967730000006,
0.0117315881347655,1.07786958740234,-0.275141654785156,1.11249422821198,24.1997490000003,
-0.565271011962891,0.611000263671875,-0.117124345214844,0.840577629618263,24.2028380000002,
-1.5061922644043,0.785776984863281,-0.449918375976562,1.75740921595784,24.2058110000007,
