X,Y,Z,Magnitude,Seconds,
0.323217224121094,6.38533582763672,8.46829127197266,10.6107935646981,0.0,
0.311246215820313,6.35421120605469,8.45871446533203,10.5840788292619,0.00391499999999922,
0.313640417480469,6.34702860107422,8.48744488525391,10.6028233529826,0.00786599999999993,
0.270544787597656,6.33505759277344,8.44674345703125,10.5618949159113,0.0117019999999997,
0.251391174316406,6.29675036621094,8.37970581054688,10.4848334354063,0.0155130000000021,
0.256179577636719,6.29435616455078,8.37012900390625,10.4758582963044,0.0193690000000011,
0.260967980957031,6.32548078613281,8.40604202880859,10.5233718005645,0.0232899999999994,
0.234631762695313,6.30393297119141,8.28872614746094,10.4162183212979,0.0271439999999998,
0.2681505859375,6.28956776123047,8.2743609375,10.3969041682548,0.0311030000000017,
0.2681505859375,6.28717355957031,8.26717833251953,10.3897398276655,0.0350000000000001,
0.32561142578125,6.205770703125,8.2743609375,10.3480752676229,0.0387930000000019,
0.349553442382813,6.18182868652344,8.16183345947266,10.244643426629,0.0426090000000023,
0.320823022460938,6.17704028320313,8.21929429931641,10.2866686954927,0.0463450000000023,
0.371101257324219,6.11000263671875,8.19535228271485,10.2290589695092,0.0500770000000017,
0.392649072265625,6.07408961181641,8.27914934082031,10.2758479802853,0.0539810000000003,
0.399831677246094,6.12915625,8.29112034912109,10.3183864218517,0.0577980000000018,
0.445321508789063,6.10282003173828,8.32463917236328,10.3316185051531,0.0615780000000008,
0.452504113769531,6.06930120849609,8.33900438232422,10.3237672978837,0.0654420000000009,
0.476446130371094,6.05972440185547,8.37252320556641,10.3463232874938,0.0694090000000003,
0.481234533691406,5.98550415039063,8.38210001220703,10.3110352159908,0.073240000000002,
0.474051928710938,5.97832154541016,8.37491740722656,10.300693923678,0.0771750000000004,
0.486022937011719,5.93522591552734,8.37012900390625,10.2723991601612,0.0812020000000011,
0.476446130371094,5.86339986572266,8.36534060058594,10.2266994804929,0.0850550000000005,
0.462080920410156,5.88255347900391,8.34379278564453,10.2194340479364,0.088871000000001,
0.445321508789063,5.82509263916016,8.31985076904297,10.1661168751954,0.0928080000000016,
0.428562097167969,5.87058247070313,8.25281312255859,10.1368796210832,0.0966750000000012,
0.428562097167969,5.95437952880859,8.22647690429688,10.1643112556215,0.100547000000002,
0.433350500488281,5.96635053710938,8.3126681640625,10.2413662854991,0.104607000000001,
0.454898315429688,6.00705196533203,8.350975390625,10.297106184089,0.108618,
0.454898315429688,6.04775339355469,8.35815799560547,10.326715773475,0.112542000000001,
0.435744702148438,6.14352145996094,8.31027396240234,10.3437605687986,0.116414000000002,
0.490811340332031,6.09803162841797,8.39885942382813,10.3907519041796,0.120256000000001,
0.486022937011719,6.16506927490234,8.5425115234375,10.5460324571712,0.124113000000001,
0.469263525390625,6.14830986328125,8.52814631347656,10.5238396973371,0.127992000000003,
0.490811340332031,6.1674634765625,8.54011732177734,10.5457150244188,0.131981,
0.464475122070313,6.18661708984375,8.57842454833984,10.5867528490529,0.135823000000002,
0.411802685546875,6.15549246826172,8.61194337158203,10.5936413765044,0.139742999999999,
0.351947644042969,6.14830986328125,8.71968244628906,10.6751320030804,0.143589000000002,
0.265756384277344,6.14112725830078,8.69334622802734,10.6469873250036,0.147532000000002,
0.263362182617188,6.10521423339844,8.73883605957031,10.6635011206906,0.151340000000001,
0.215478149414063,6.04535919189453,8.72925925292969,10.6203938578923,0.155253000000002,
0.225054956054688,6.06930120849609,8.68137521972656,10.5949677960048,0.159068000000001,
0.215478149414063,6.06211860351563,8.68616362304688,10.5945812226019,0.162894000000001,
0.167594116210938,6.11957944335938,8.72925925292969,10.6619560802056,0.166848999999999,
0.148440502929688,6.19619389648438,8.76996068115234,10.7390438929496,0.170722000000001,
0.131681091308594,6.24886633300781,8.81545051269531,10.806379509317,0.174559000000002,
0.160411511230469,6.22013591308594,8.82981572265625,10.8019196593135,0.178592000000002,
0.148440502929688,6.20816490478516,8.83699832763672,10.8007354152655,0.182391000000003,
0.1915361328125,6.14591566162109,8.82023891601563,10.7520035316925,0.186237000000002,
0.177170922851563,6.15070406494141,8.7508070678711,10.6976247068914,0.190004000000002,
0.193930334472656,6.11718524169922,8.78432589111328,10.7061639076363,0.193776,
0.220266552734375,6.07648381347656,8.74841286621094,10.653961731083,0.197595,
0.24899697265625,6.02620557861328,8.69813463134766,10.5846445019732,0.201385999999999,
0.258573779296875,5.91846650390625,8.6191259765625,10.4587015808395,0.205248000000001,
0.2681505859375,5.9376201171875,8.62870278320313,10.4776786128238,0.209137000000002,
0.24899697265625,5.89213028564453,8.51856950683594,10.3607540863683,0.213107000000001,
0.253785375976563,5.92086070556641,8.46829127197266,10.3360028820985,0.216920000000002,
0.244208569335938,5.93043751220703,8.42040723876953,10.3020864381081,0.220824,
0.215478149414063,6.03817658691406,8.46350286865234,10.3988887932951,0.224644000000001,
0.215478149414063,6.07408961181641,8.48026228027344,10.4334003942856,0.228511000000001,
0.213083947753906,6.12676204833984,8.45153186035156,10.4408337192154,0.232278000000001,
0.239420166015625,6.22013591308594,8.49941589355469,10.5350597209872,0.236186,
0.237025964355469,6.25365473632813,8.50181009521484,10.5567586769839,0.240090000000002,
0.244208569335938,6.30153876953125,8.57124194335938,10.6412037449175,0.243914,
0.162805712890625,6.358999609375,8.5975781616211,10.6949395499631,0.247818000000002,
0.155623107910156,6.37336481933594,8.5592709350586,10.6726340053336,0.25169,
0.177170922851563,6.36378801269531,8.6957404296875,10.7770630984016,0.255669000000001,
0.067037646484375,6.29196196289063,8.69334622802734,10.7316144185703,0.259513000000002,
-0.105344873046875,6.21055910644531,8.68855782470703,10.680504624324,0.263306,
0.0837970581054688,6.27999095458984,8.76038387451172,10.7791295550931,0.267106000000002,
0.21068974609375,6.33505759277344,8.81784471435547,10.8596376679589,0.271008999999999,
0.244208569335938,6.27759675292969,8.80587370605469,10.8171747949599,0.274840000000001,
0.275333190917969,6.27041414794922,8.82263311767578,10.8274076806008,0.278711000000001,
0.237025964355469,6.22971271972656,8.86094034423828,10.8342865783701,0.282610000000002,
0.208295544433594,6.09563742675781,8.85854614257813,10.7551858390503,0.286626000000002,
0.205901342773438,6.00465776367188,8.81305631103516,10.6662210629284,0.290525000000002,
0.15322890625,5.92086070556641,8.82502731933594,10.6283196122179,0.294346000000001,
0.155623107910156,5.88734188232422,8.75798967285156,10.554022744947,0.298204000000002,
0.117315881347656,5.87297667236328,8.76277807617188,10.5494975056814,0.302033000000002,
0.196324536132813,5.79157381591797,8.71010563964844,10.4616829832752,0.305883000000001,
0.225054956054688,5.75566079101563,8.72686505126953,10.4564073417952,0.309616000000002,
0.339976635742188,5.76763179931641,8.75798967285156,10.4920705199265,0.312542000000001,
0.40222587890625,5.80354482421875,8.7124998413086,10.4761907041243,0.315412000000002,
0.378283862304688,5.81312163085938,8.76996068115234,10.5284230597276,0.318359000000001,
0.414196887207031,5.88494768066406,8.72207664794922,10.5298997772166,0.321262000000001,
0.375889660644531,5.94240852050781,8.6957404296875,10.5389474655719,0.324187000000002,
0.36391865234375,6.00705196533203,8.83699832763672,10.6915690870132,0.327090999999999,
0.380678063964844,5.97592734375,8.79869110107422,10.6430065535207,0.329940000000001,
0.392649072265625,6.05972440185547,8.84657513427734,10.7301595853374,0.332883000000002,
0.390254870605469,6.16028087158203,8.83699832763672,10.7793273780633,0.335743000000001,
0.464475122070313,6.16267507324219,8.85375773925781,10.7973759452401,0.338722000000001,
0.512359155273438,6.33266339111328,8.90882437744141,10.9422250624465,0.341550000000002,
0.55545478515625,6.30153876953125,9.08360109863281,11.0693147846351,0.34441,
0.577002600097656,6.41406624755859,9.13866773681641,11.1798222630111,0.347404000000001,
0.627280834960938,6.49307490234375,9.32302126464844,11.3785863987774,0.350263999999999,
0.605733020019531,6.59841977539063,9.39724151611328,11.4984435527584,0.353198000000003,
0.588973608398438,6.63672700195313,9.5001921875,11.6037358988077,0.356039000000003,
0.526724365234375,6.74925447998047,9.63426748046875,11.7749303385492,0.358886999999999,
0.509964953613281,6.79953271484375,9.75637176513672,11.9029617916593,0.361830000000001,
0.55545478515625,6.78756170654297,9.75876596679688,11.9001276099542,0.364668999999999,
0.5746083984375,6.80432111816406,9.81143840332031,11.9537978999478,0.367637999999999,
0.588973608398438,6.75883128662109,9.80425579833985,11.9227564779156,0.370501000000001,
0.524330163574219,6.64630380859375,9.68215151367188,11.7555235685298,0.373439000000001,
0.529118566894531,6.48110389404297,9.68215151367188,11.6631356022688,0.376325000000001,
0.529118566894531,6.39251843261719,9.66060369873047,11.5961856743115,0.379183000000001,
0.507570751953125,6.23210692138672,9.64145008544922,11.4914900904123,0.382126,
0.490811340332031,6.06930120849609,9.34456907958985,11.1533978775294,0.384988,
0.541089575195313,5.95198532714844,9.41400092773438,11.1508887865658,0.387917000000002,
0.565031591796875,5.81791003417969,9.22007059326172,10.916823696033,0.39086,
0.579396801757813,5.61919129638672,9.08599530029297,10.6988934977511,0.393727000000002,
0.696712683105469,5.44202037353516,8.91600698242188,10.4688191702487,0.396740000000001,
0.790086547851563,5.37977113037109,8.70292303466797,10.2619220185901,0.399653000000001,
1.53707746582031,4.28083256835938,8.34139858398438,9.50089811287099,0.402640000000002,
2.14041628417969,5.30076247558594,7.37892951660156,9.33424156014485,0.405536000000001,
2.02070620117188,4.89614239501953,7.5465236328125,9.21984180148226,0.408441,
1.7238251953125,4.95120903320313,7.70932934570313,9.32307905978415,0.411476,
1.52031805419922,5.29357987060547,7.94396110839844,9.66643020582834,0.414345000000001,
1.35990654296875,5.41807835693359,7.80509741210938,9.59814901426301,0.417294000000002,
1.4173673828125,5.48511600341797,7.74763657226563,9.59798418027038,0.420202,
1.3407529296875,5.68862314453125,7.77876119384766,9.72970592617642,0.423107999999999,
1.24498486328125,5.87297667236328,7.91762489013672,9.93632860793338,0.426109,
1.07739074707031,6.17464608154297,8.03015236816406,10.1867743722003,0.428968000000001,
1.21625444335938,6.29914456787109,8.06127698974609,10.3025571516659,0.431916000000001,
1.26174427490234,6.39491263427734,8.12592043457031,10.4171727990015,0.434794,
1.20667763671875,6.41885465087891,8.26717833251953,10.5358437502531,0.437642,
1.24259066162109,6.50744011230469,8.32224497070313,10.6372256589758,0.440655,
1.23780225830078,6.52419952392578,8.42280144042969,10.7257129349779,0.443595999999999,
1.10612116699219,6.512228515625,8.51617530517578,10.7776558724183,0.446571000000002,
1.01753570556641,6.44519086914063,8.61673177490234,10.8085119573588,0.449484000000002,
0.778115539550781,6.37336481933594,8.60954916992188,10.7400921701139,0.452335000000001,
0.749385119628906,6.37336481933594,8.70771143798828,10.8169124830121,0.455321000000001,
0.596156213378906,6.33505759277344,8.75320126953125,10.8215936626465,0.458203000000001,
0.521935961914063,6.31590397949219,8.80826790771484,10.8512047147118,0.461188,
0.47884033203125,6.29914456787109,8.75320126953125,10.794769234006,0.464109000000001,
0.397437475585938,6.20098229980469,8.75798967285156,10.7383667817441,0.467076000000002,
0.311246215820313,6.06690700683594,8.75798967285156,10.6586405299284,0.469971000000001,
0.0311246215820313,5.95677373046875,8.80587370605469,10.6314408122821,0.472850000000001,
0.1915361328125,5.89691868896484,8.83939252929688,10.6275677556732,0.475850000000001,
0.301669409179688,5.95437952880859,8.9423432006836,10.7476109868353,0.4787,
0.40222587890625,5.88494768066406,8.85375773925781,10.6387697111688,0.481679,
0.442927307128906,5.82030423583984,8.77953748779297,10.5428840692051,0.484581000000002,
0.476446130371094,5.88973608398438,8.84657513427734,10.6385094661117,0.487474000000002,
0.548272180175781,5.9376201171875,8.86333454589844,10.6824451466928,0.490423,
0.624886633300781,5.98310994873047,8.97346782226563,10.8032963821378,0.493316,
0.744596716308594,5.99268675537109,9.03092866210938,10.8639031346034,0.496296000000001,
0.897825622558594,6.00705196533203,9.01177504882813,10.8675136849881,0.499168000000001,
1.05823713378906,6.03817658691406,9.11233151855469,10.9824418063622,0.502016000000001,
1.19231242675781,6.01662877197266,9.01177504882813,10.9010788563982,0.505012000000001,
1.30483990478516,5.97592734375,9.01656345214844,10.8955372185826,0.507950000000001,
1.38863696289063,5.91846650390625,9.03571706542969,10.890396744796,0.510946000000001,
1.38384855957031,5.87297667236328,8.96867941894531,10.809445052812,0.513828,
1.44609780273438,5.80593902587891,8.92318958740234,10.7435301107235,0.516712000000002,
1.455674609375,5.81551583251953,8.79150849609375,10.6409508317421,0.519646000000002,
1.47003981933594,5.7843912109375,8.72925925292969,10.5745054662837,0.522560000000002,
1.42215578613281,5.68383474121094,8.69813463134766,10.487423444797,0.525543000000003,
1.41018477783203,5.71017095947266,8.65264479980469,10.4624536092458,0.528438000000001,
1.44130939941406,5.69101734619141,8.58321295166016,10.3988747368664,0.531314999999999,
1.455674609375,5.65510432128906,8.53054051513672,10.3377616016926,0.534376000000002,
1.46046301269531,5.65749852294922,8.48026228027344,10.2983052047826,0.537303000000001,
1.44370360107422,5.65271011962891,8.38449421386719,10.2145560357111,0.540307000000002,
1.43173259277344,5.65749852294922,8.21929429931641,10.0803743250515,0.543206000000001,
1.42215578613281,5.67425793457031,8.13070883789063,10.0163943809446,0.546172000000002,
1.36708914794922,5.57370146484375,8.03015236816406,9.87007739653407,0.549182000000002,
1.33835872802734,5.51863482666016,7.93677850341797,9.75904644149371,0.55208,
0.830787976074219,5.39174213867188,7.62074388427734,9.37213045688492,0.555067000000001,
-0.263362182617188,5.43244356689453,7.08204851074219,8.92951364046398,0.558017,
0.318428820800781,5.74129558105469,6.87614716796875,8.96355240619027,0.560995999999999,
1.50116444091797,5.80354482421875,7.14190355224609,9.32423796108713,0.563877000000002,
2.13323367919922,5.62637390136719,7.55610043945313,9.65926617601769,0.566734,
2.01352359619141,5.439626171875,7.81228001708984,9.73013510839332,0.569692,
1.51792385253906,5.32949289550781,7.99902774658203,9.73098310737227,0.572559000000002,
1.09893856201172,5.22175382080078,8.25281312255859,9.82768046712953,0.575497000000002,
0.86191259765625,5.10443793945313,8.37731160888672,9.847716983957,0.578496000000001,
0.768538732910156,5.02064088134766,8.57124194335938,9.96311573229206,0.581362000000002,
0.924161840820313,4.96557424316406,8.62870278320313,9.99827557098023,0.584402000000001,
1.18034141845703,4.89614239501953,8.69813463134766,10.0510179723987,0.587282000000002,
1.47243402099609,4.94402642822266,8.63109698486328,10.0552123016507,0.590258000000002,
1.75973822021484,4.98951625976563,8.56645354003906,10.068568784281,0.593154000000002,
1.94169754638672,5.03740029296875,8.47547387695313,10.0488431429772,0.596015000000001,
2.09492645263672,5.03500609130859,8.33900438232422,9.96388464756062,0.599024,
2.31519300537109,4.6351744140625,7.81946262207031,9.38024286459864,0.601928000000001,
2.21463653564453,4.54180054931641,7.19457598876953,8.79172854863943,0.604875,
2.08534964599609,4.77403811035156,7.07486590576172,8.78600310776492,0.607764,
2.07098443603516,5.14274516601563,7.44836136474609,9.28519743445013,0.610644000000001,
2.28167418212891,5.23611903076172,7.90086547851563,9.74918739625507,0.613588,
2.42532628173828,5.26963785400391,8.14507404785156,9.99967609126548,0.616482000000001,
2.52348854980469,5.20260020751953,8.33900438232422,10.1476124023684,0.619484,
2.55461317138672,5.23611903076172,8.38449421386719,10.2099331134979,0.622344999999999,
2.58813199462891,5.29118566894531,8.39885942382813,10.2584556647724,0.625203000000003,
2.528276953125,5.31512768554688,8.48744488525391,10.3285762496867,0.628140000000002,
2.55221896972656,5.40610734863281,8.57124194335938,10.4501677874557,0.631019999999999,
2.55940157470703,5.47314499511719,8.74601866455078,10.6300844323486,0.633979,
2.49475812988281,5.54975944824219,8.81784471435547,10.7134510530667,0.636851,
2.45884510498047,5.5545478515625,8.86812294921875,10.7490709239471,0.639704999999999,
2.40138426513672,5.51863482666016,8.92797799072266,10.7671151076647,0.642694000000002,
2.42532628173828,5.49708701171875,8.91600698242188,10.7515279703814,0.645637000000001,
2.36068283691406,5.33188709716797,8.91600698242188,10.6534982040662,0.648621000000002,
2.37744224853516,5.26245524902344,8.87530555419922,10.5885181009192,0.651486000000002,
2.33913502197266,5.133168359375,8.89206496582031,10.5304220909267,0.654418,
2.35350023193359,5.01106407470703,8.83699832763672,10.4279559811684,0.657292000000002,
2.41096107177734,4.76924970703125,8.77474908447266,10.2739815822833,0.660198000000001,
2.46123930664063,4.59447298583984,8.74601866455078,10.1813419264278,0.663218000000001,
2.51630594482422,4.40054265136719,8.64067379150391,10.0178747649211,0.666164000000002,
2.62883342285156,4.17788189697266,8.68616362304688,9.99074075314219,0.669139000000001,
2.64080443115234,4.06774862060547,8.62152017822266,9.89196831108612,0.672078000000003,
2.66235224609375,3.96240374755859,8.71728824462891,9.93880663263413,0.674975,
2.68390006103516,3.88339509277344,8.68855782470703,9.88812995755412,0.677973000000001,
2.71263048095703,3.86184727783203,8.67898101806641,9.87911635904107,0.68092,
2.71502468261719,3.74931979980469,8.73644185791016,9.88707106908172,0.683977000000002,
2.65995804443359,3.72298358154297,8.73883605957031,9.86424042806297,0.686844000000001,
2.63841022949219,3.72537778320313,8.7508070678711,9.86996821199416,0.689715,
2.53785375976563,3.74931979980469,8.71010563964844,9.81651877811067,0.692720000000001,
2.46602770996094,3.77086761474609,8.74841286621094,9.84050115146181,0.695631000000002,
2.32955821533203,3.80678063964844,8.76277807617188,9.833854784837,0.698598,
2.24097275390625,3.92409652099609,8.78432589111328,9.8785056436248,0.701468000000002,
2.15956989746094,3.94325013427734,8.79390269775391,9.87652208123189,0.704305000000002,
2.09492645263672,4.060566015625,8.71968244628906,9.84427626457767,0.707285000000002,
1.98958157958984,4.10126744384766,8.72925925292969,9.8477813040637,0.710152000000001,
1.93212073974609,4.21858332519531,8.810662109375,9.95777598814862,0.713162000000001,
1.86268889160156,4.28801517333984,8.7508070678711,9.92135617608759,0.71612,
1.80283385009766,4.35984122314453,8.68376942138672,9.88262499267777,0.718996000000001,
1.81241065673828,4.36462962646484,8.70531723632813,9.90542136155675,0.722003000000001,
1.79325704345703,4.41251365966797,8.67658681640625,9.89793950291168,0.724861000000001,
1.80762225341797,4.44603248291016,8.71489404296875,9.94907439063134,0.727855000000002,
1.77170922851563,4.50349332275391,8.72207664794922,9.97471938207775,0.73075,
1.82677586669922,4.4819455078125,8.7891142944336,10.0336172780694,0.733635,
1.86268889160156,4.50828172607422,8.7508070678711,10.0185247600459,0.736627000000002,
1.86747729492188,4.55137735595703,8.77953748779297,10.0639349055391,0.739512000000001,
1.92733233642578,4.56813676757813,8.80826790771484,10.1078220698829,0.742467000000001,
1.89141931152344,4.52982954101563,8.87530555419922,10.1423799654253,0.745323000000003,
1.88184250488281,4.60883819580078,8.86812294921875,10.1698734196015,0.748308000000002,
1.85790048828125,4.61362659912109,8.84418093261719,10.1467670215366,0.751176000000001,
1.84592947998047,4.65432802734375,8.7891142944336,10.1152733582338,0.754098000000003,
2.00394678955078,4.65672222900391,8.88009395751953,10.2253084720132,0.757087000000002,
2.06619603271484,4.61362659912109,8.83460412597656,10.1786515071716,0.759976999999999,
2.17632930908203,4.62559760742188,8.84418093261719,10.2152875072719,0.762880000000003,
2.21463653564453,4.57771357421875,8.90643017578125,10.2559531506665,0.765810000000002,
2.26491477050781,4.50349332275391,8.85854614257813,10.192405544617,0.768678000000001,
2.2601263671875,4.44603248291016,8.85375773925781,10.1619093747295,0.771657000000001,
2.35350023193359,4.32392819824219,8.82502731933594,10.1052672202318,0.774501000000001,
2.33434661865234,4.26407315673828,8.79869110107422,10.0522862630425,0.777497,
2.4516625,4.1754876953125,8.73883605957031,9.99062571532228,0.780386,
2.46602770996094,4.06296021728516,8.72447084960938,9.93505561127973,0.783270000000002,
2.52588275146484,4.01986458740234,8.67658681640625,9.89052848728691,0.786258,
2.51630594482422,3.92649072265625,8.69334622802734,9.8652619652709,0.789146000000002,
2.54982476806641,3.75889660644531,8.61433757324219,9.73846609438895,0.792095,
2.59292039794922,3.76368500976563,8.58081875,9.72208884258867,0.795003000000001,
2.62165081787109,3.72058937988281,8.66222160644531,9.78518888441654,0.797890000000002,
2.57855518798828,3.7158009765625,8.58321295166016,9.70194147212148,0.800889000000002,
2.66474644775391,3.63679232177734,8.68137521972656,9.78230073797765,0.803775000000002,
2.63841022949219,3.66073433837891,8.61673177490234,9.72678008982866,0.806834000000002,
2.61446821289063,3.65115753173828,8.67658681640625,9.76982876720055,0.809727000000002,
2.66714064941406,3.60327349853516,8.65025059814453,9.74289764698893,0.812637000000002,
2.63362182617188,3.62242711181641,8.65982740478516,9.74938730302471,0.815613000000003,
2.65756384277344,3.68707055664063,8.72207664794922,9.83523034406231,0.818572,
2.60489140625,3.68946475830078,8.75559547119141,9.85180498671416,0.821584000000001,
2.63362182617188,3.74213719482422,8.74841286621094,9.87290648116657,0.824451,
2.61686241455078,3.82114584960938,8.80108530273438,9.94526153535856,0.827314000000001,
2.59292039794922,3.87621248779297,8.98783303222656,10.1256803255784,0.830339000000002,
2.66714064941406,3.93606752929688,8.98304462890625,10.1637275467155,0.833249000000002,
2.71023627929688,3.96240374755859,9.01177504882813,10.2106862491688,0.836212,
2.7198130859375,4.05577761230469,9.0189576538086,10.256135355196,0.839074,
2.70305367431641,4.14675727539063,9.13627353515625,10.3910340763774,0.842003000000002,
2.67911165771484,4.22337172851563,9.15303294677734,10.4303652935322,0.844903000000002,
2.7198130859375,4.290409375,9.19134017333984,10.5017012911992,0.847778999999999,
2.74375510253906,4.28083256835938,9.25837781982422,10.5627306789319,0.850835,
2.73178409423828,4.32632239990234,9.25837781982422,10.5781505803256,0.853730000000002,
2.78685073242188,4.29519777832031,9.29189664306641,10.6091754715019,0.856688999999999,
2.86346518554688,4.33111080322266,9.38766470947266,10.7278237474387,0.8596,
2.95683905029297,4.2521021484375,9.44033714599609,10.7676940558393,0.862476000000001,
3.06218392333984,4.19703551025391,9.50258638916016,10.8301073650331,0.865451,
3.20104761962891,4.16591088867188,9.50258638916016,10.8582073787038,0.868300000000001,
3.25372005615234,4.12999786376953,9.54807622070313,10.8999695446779,0.871308000000003,
3.34469971923828,4.01747038574219,9.48822117919922,10.8329786142867,0.874220000000001,
3.42849677734375,3.907337109375,9.56962403564453,10.8903433197554,0.877081,
3.42849677734375,3.85705887451172,9.51216319580078,10.8218640712796,0.880048000000002,
3.39018955078125,3.76607921142578,9.43315454101563,10.7079943225444,0.882940000000001,
3.41173736572266,3.67988795166016,9.38048210449219,10.6383726059083,0.885889000000002,
3.40216055908203,3.68467635498047,9.40202991943359,10.6559702944711,0.888766,
3.32554610595703,3.61763870849609,9.22725319824219,10.4541268555784,0.891665,
3.29920988769531,3.54820686035156,9.20091697998047,10.3986264034922,0.894635000000001,
3.24653745117188,3.56017786865234,9.0572648803711,10.2590895790761,0.897501000000002,
3.16034619140625,3.53623585205078,9.0021982421875,10.1750835496574,0.90044,
3.08373173828125,3.57214887695313,8.94473740234375,10.1132574489967,0.903317000000001,
3.01669409179688,3.49553442382813,8.85375773925781,9.98540085610574,0.906193999999999,
3.02148249511719,3.4859576171875,8.77474908447266,9.91349980948105,0.909146,
3.04063610839844,3.48356341552734,8.8872765625,10.0182017703807,0.912024000000002,
3.04063610839844,3.46201560058594,8.8489693359375,9.97673685484182,0.915034000000002,
3.02387669677734,3.46919820556641,8.88248815917969,10.0038873626599,0.917972000000002,
3.07415493164063,3.49314022216797,9.04768807373047,10.174139601705,0.920859,
3.10049114990234,3.49792862548828,8.99262143554688,10.1348798869395,0.923806000000003,
3.16034619140625,3.57454307861328,9.17697496337891,10.3432110946689,0.926680000000001,
3.16513459472656,3.61045610351563,9.12669672851563,10.3126167121854,0.929639000000002,
3.1794998046875,3.70143576660156,9.22725319824219,10.4380097397328,0.932535000000001,
3.19625921630859,3.78283862304688,9.32302126464844,10.5567355999352,0.935513,
3.21062442626953,3.89536610107422,9.39005891113281,10.6609189389331,0.938476000000001,
3.24653745117188,4.05577761230469,9.53610521240235,10.8594033024076,0.941382000000001,
3.17231719970703,4.13478626708984,9.49061538085938,10.8273650625384,0.944400000000002,
3.12443316650391,4.24252534179688,9.66060369873047,11.0040159810709,0.947300000000002,
3.07894333496094,4.35265861816406,9.74679495849609,11.1097048146719,0.950257000000001,
3.11485635986328,4.44603248291016,9.883264453125,11.2760122043246,0.953227999999999,
3.09091434326172,4.53701214599609,9.85453403320313,11.2805173508069,0.956189999999999,
3.064578125,4.62559760742188,9.93833109130859,11.3823643058236,0.959137999999999,
3.04781871337891,4.66869323730469,9.9981861328125,11.4476906579468,0.962043000000001,
3.03584770507813,4.69502945556641,10.0221281494141,11.4761807898073,0.965045,
3.03824190673828,4.74530769042969,10.1226846191406,11.5852321020901,0.967961000000003,
3.01190568847656,4.77403811035156,10.1777512573242,11.6382832243992,0.970839000000002,
2.97599266357422,4.81713374023438,10.1657802490234,11.6363395394079,0.973794000000002,
2.97838686523438,4.86980617675781,10.2447889038086,11.7278088406057,0.976641000000001,
2.95923325195313,4.80516273193359,10.3190091552734,11.761317964686,0.979633,
2.92571442871094,4.83628735351563,10.4028062133789,11.8392507109723,0.982486000000002,
2.94247384033203,4.76685550537109,10.4722380615234,11.8763981798921,0.985393000000002,
2.93050283203125,4.63038601074219,10.5895539428711,11.9233793098264,0.988430000000001,
2.88501300048828,4.29280357666016,10.7044756225586,11.8885348514745,0.991318,
3.00711728515625,4.10845004882813,10.802637890625,11.9423239600326,0.994327999999999,
3.22738383789063,4.12281525878906,10.7882726806641,11.9916820975018,0.997189000000002,
3.27047946777344,4.20421811523438,10.8289741088867,12.0680638944502,1.000082,
3.294421484375,4.32392819824219,10.7523596557617,12.0483528395842,1.003081,
3.25132585449219,4.35744702148438,10.7643306640625,12.0594062458485,1.005982,
