X,Y,Z,Magnitude,Seconds,
-0.826717833251953,6.71635814916992,-2.07749666455078,7.07876553891691,0.0,
-0.996706151123047,6.5918596628418,-2.09186187451172,6.9872686414881,0.00294299999998771,
-1.15951186401367,6.46257277319336,-2.00327641308594,6.86457799131418,0.00604299999997693,
-1.25767413208008,6.27821924536133,-1.96736338818359,6.6983803875634,0.0090059999999994,
-1.37020161010742,6.14893235571289,-1.96257498486328,6.59837268867749,0.0120669999999734,
-1.40611463500977,6.04358748266602,-1.87638372509766,6.48250907529155,0.0151299999999992,
-1.47075807983398,5.88078176977539,-1.84525910351562,6.33653728089931,0.01808699999998,
-1.54258412963867,5.8472629465332,-1.8955373383789,6.33743730257758,0.0212249999999869,
-1.54737253295898,5.74670647680664,-1.91229675,6.25106998412175,0.0241909999999734,
-1.60243917114258,5.6940340402832,-1.92905616162109,6.22182389848863,0.0272859999999753,
-1.61919858276367,5.6174195871582,-2.00806481640625,6.18138586204592,0.0302829999999972,
-1.62398698608398,5.61502538549805,-2.06791985791016,6.20017228385605,0.0332679999999925,
-1.57849715454102,5.53122832739258,-2.17805313427734,6.15061424025109,0.03637599999999,
-1.5521609362793,5.49292110083008,-2.25945599072266,6.13893534467242,0.0393849999999816,
-1.48991169311523,5.40672984106445,-2.295369015625,6.05980885386904,0.0424309999999934,
-1.41090303833008,5.36363421118164,-2.36958926708984,6.03110044930728,0.0454019999999957,
-1.31274077026367,5.33250958959961,-2.45338632519531,6.0148193084863,0.0484229999999854,
-1.18584808227539,5.28223135473633,-2.59225002148437,6.00232987539685,0.0514439999999752,
-1.16190606567383,5.20801110327148,-2.71196010449219,5.98566061229719,0.0544819999999788,
-1.0374075793457,5.16730967504883,-2.84364119580078,5.98862246380521,0.0575549999999794,
-0.932062706298828,5.11703144018555,-3.00884111035156,6.0088165619914,0.0605659999999943,
-0.797987413330078,5.10266623022461,-3.13333959667969,6.04084460957478,0.0635979999999847,
-0.69503674194336,4.99253295385742,-3.21713665478515,5.97983525053707,0.0665729999999769,
-0.592086070556641,4.95183152563477,-3.42543219921875,6.05018901561448,0.0695389999999918,
-0.467587584228516,4.87042866918945,-3.5595074921875,6.05060386717939,0.0726049999999816,
-0.417309349365235,4.86085186254883,-3.69358278515625,6.11919779983575,0.0755639999999858,
-0.390973131103516,4.82493883764649,-3.83723488476562,6.17715681662175,0.0786219999999958,
-0.319147081298828,4.87761127416992,-3.89230152294922,6.24843642417556,0.0816089999999861,
-0.304781871337891,4.87761127416992,-4.04074202587891,6.34126011536427,0.0845959999999764,
-0.237744224853516,4.94943732397461,-4.08862605908203,6.42419763016431,0.0876379999999983,
-0.194648594970703,4.94704312231445,-4.2490375703125,6.52421980036617,0.0906149999999855,
-0.223379014892578,5.03562858374023,-4.33044042675781,6.64531170881957,0.0936539999999866,
-0.201831199951172,5.10506043188477,-4.41902588818359,6.75501055860803,0.0966319999999996,
-0.288022459716797,5.07393581030273,-4.41663168652344,6.73308376591118,0.0996099999999842,
-0.352665904541016,5.1361850534668,-4.58183160107422,6.89187572176717,0.102731999999975,
-0.441251365966797,5.11463723852539,-4.65844605419922,6.93219564709208,0.105765999999988,
-0.474770189208985,5.17928068334961,-4.65605185253906,6.98062848051752,0.108884999999987,
-0.642364305419922,5.17209807836914,-4.69914748242187,7.01749367614245,0.111900999999989,
-0.757285985107422,5.25350093481445,-4.76618512890625,7.13367190290831,0.114885999999984,
-0.881784471435547,5.22477051489258,-4.75181991894531,7.11727218317813,0.117968999999988,
-1.0541669909668,5.27744295141602,-4.69914748242187,7.14455451458287,0.12097,
-1.18345388061523,5.26307774145508,-4.61295622265625,7.09788105791342,0.124101999999993,
-1.39653782836914,5.20801110327148,-4.56507218945312,7.06495446926471,0.127070999999972,
-1.54497833129883,5.22955891821289,-4.50761134960937,7.07487134882113,0.130028999999979,
-1.66947681762695,5.13857925512695,-4.44536210644531,6.99667019826108,0.133148999999975,
-1.79397530395508,5.14576186010742,-4.3855070649414,6.99498997345871,0.136192999999992,
-1.8801665637207,5.07872421362305,-4.33522883007812,6.93705088308533,0.139237999999978,
-1.92326219360352,5.02605177709961,-4.4022664765625,6.95270336359151,0.142206999999985,
-1.99269404174805,5.02844597875977,-4.27537378857422,6.89455724012434,0.145152999999993,
-2.05254908325195,4.96859093725586,-4.35438244335937,6.91812836712184,0.148223999999999,
-2.06452009155273,4.87521707250977,-4.35917084667969,6.85801393867479,0.151209999999992,
-2.06452009155273,4.8129678293457,-4.32086362011719,6.7894598429031,0.154336999999998,
-2.11719252807617,4.79381421606445,-4.39747807324219,6.84112361704779,0.157371999999981,
-2.05733748657227,4.77944900610352,-4.43099689648437,6.83443515092897,0.160429999999991,
-2.00705925170898,4.76747799780274,-4.46451571972656,6.83293742918003,0.163448999999986,
-1.98072303344727,4.75790119116211,-4.5554953828125,6.87847553335158,0.166436999999974,
-1.88495496704102,4.76987219946289,-4.65844605419922,6.928625813743,0.169521999999972,
-1.86819555541992,4.84169824926758,-4.63450403759765,6.95778874677584,0.172489999999982,
-1.74848547241211,4.92310110571289,-4.7853387421875,7.08474366662537,0.175553999999977,
-1.72214925415039,5.0045039621582,-4.83082857373047,7.16573531953272,0.178566999999987,
-1.66229421264648,5.09308942358398,-4.79491554882812,7.18985375695603,0.181535999999994,
-1.56413194458008,5.16012707006836,-4.88350101025391,7.27475100855411,0.184603999999979,
-1.49948849975586,5.27744295141602,-4.87631840527344,7.34018739923983,0.187604999999991,
-1.4204798449707,5.38278782446289,-4.90504882519531,7.41968137662958,0.190662999999972,
-1.36301900512695,5.46658488256836,-4.95772126171875,7.50468994666404,0.193613999999997,
-1.2457031237793,5.54798773901367,-4.97208647167969,7.55338256059493,0.196631999999994,
-1.1906364855957,5.65333261206055,-5.00799949658203,7.64577293811325,0.199723999999975,
-1.05895539428711,5.73712967016602,-5.00081689160156,7.68402322762734,0.202672999999976,
-0.967975731201172,5.75628328344727,-4.96250966503906,7.66148004181274,0.205712999999974,
-0.843477244873047,5.85444555151367,-5.05588352978515,7.78125599405454,0.208669999999984,
-0.774045396728516,5.85444555151367,-5.08221974804687,7.79118967547784,0.211656999999974,
-0.728555565185547,5.83768613989258,-5.09419075634765,7.78204035851233,0.214701999999988,
-0.616028087158203,5.80656151831055,-5.1684110078125,7.79795611784076,0.217669999999998,
-0.596874473876953,5.75388908178711,-5.12292117626953,7.72708354305462,0.22077299999998,
-0.611239683837891,5.65333261206055,-5.11573857128906,7.64882766856858,0.223805999999996,
-0.613633885498047,5.56714135229492,-5.06067193310547,7.54851043560152,0.226775999999973,
-0.649546910400391,5.46179647924805,-5.053489328125,7.46932971283303,0.229882999999973,
-0.659123717041016,5.3277211862793,-4.96729806835937,7.3138982227689,0.232870999999989,
-0.766862791748047,5.24152992651367,-5.03194151318359,7.30630891107175,0.235891999999978,
-2.15789395629883,9.60855375463867,-2.59225002148437,10.1833477676203,15.152043,
-2.20817219116211,9.66601459448242,-2.59464422314453,10.2489043907759,15.156342,
-2.2249316027832,9.64686098120117,-2.59943262646484,10.2356874418485,15.159302,
-2.2249316027832,9.57264072973633,-2.53957758496094,10.1506268519588,15.162242,
-2.27520983764648,9.60615955297852,-2.53478918164062,10.1921556776752,15.165268,
-2.26563303100586,9.57024652807617,-2.42944430859375,10.130395416167,15.168228,
-2.19380698120117,9.57503493139649,-2.42465590527344,10.1179562791706,15.171262,
-2.15310555297852,9.57742913305664,-2.3336762421875,10.0900474292413,15.174232,
-2.13874034301758,9.52954509985352,-2.29776321728515,10.0332525069243,15.177175,
-2.06930849487305,9.48405526831055,-2.28339800732422,9.97212356718342,15.180229,
-2.02621286499023,9.46969005834961,-2.22833136914062,9.937103655802,15.183214,
-1.88495496704102,9.49602627661133,-2.22114876416016,9.93282800145032,15.18626,
-1.78679269897461,9.56785232641602,-2.24748498242187,9.98937510735407,15.18924,
-1.71736085083008,9.58461173803711,-2.26663859570312,9.99758775827517,15.192193,
-1.68384202758789,9.65404358618164,-2.24509078076172,10.0536716751457,15.195235,
-1.58328555786133,9.69235081274414,-2.25945599072266,10.0773805529536,15.198206,
-1.50667110473633,9.81684929907227,-2.22354296582031,10.1776584389236,15.201248,
-1.49948849975586,9.89346375219727,-2.28339800732422,10.2636736715853,15.20424,
-1.36301900512695,9.9461361887207,-2.10622708447266,10.2576624249525,15.20729,
-1.31513497192383,9.98204921362305,-2.1636879243164,10.2981761458718,15.210417,
-1.2289437121582,10.0634520700684,-2.19720674755859,10.3735764182722,15.213478,
-1.25527993041992,10.0873940866699,-2.10143868115234,10.3801392906907,15.216533,
-1.23133791381836,10.2334403879395,-1.97454599316406,10.4946808960843,15.219512,
-1.21457850219727,10.2837186228027,-1.82849969189453,10.5153925639625,15.222548,
-1.17387707397461,10.3411794626465,-1.66090557568359,10.539287803016,15.225528,
-1.14514665405273,10.410611310791,-1.51725347607422,10.5827334292383,15.228529,
-1.15711766235352,10.3842750925293,-1.27783331005859,10.5263929458362,15.23157,
-1.22654951049805,10.2956896311035,-1.01686532910156,10.4182370763601,15.234536,
-1.23373211547852,10.1209129099121,-0.810963986328122,10.2280318561251,15.237577,
-1.31513497192383,9.91979997045899,-0.708013314941404,10.0316147405305,15.240565,
-1.38935522338867,9.68995661108399,-0.478169955566404,9.80072515520428,15.243536,
-1.48033488647461,9.37871039526367,-0.300999032714842,9.4995894896588,15.246597,
-1.58328555786133,9.04591636450195,-0.0400310517578113,9.18351776371132,15.249591,
-1.71257244750977,8.67242090551758,0.161081887695314,8.84136506004426,15.252648,
-1.87777236206055,8.26780082495117,0.376560037109376,8.48671650205953,15.25561,
-2.04776067993164,7.94697780249023,0.568096169921876,8.22620892354592,15.258566,
-2.27281563598633,7.53996352026367,0.752449697753908,7.91093681871754,15.261579,
-2.46435176879883,7.17365066625977,0.857794570800783,7.63348577306635,15.264525,
-2.69419512817383,6.77621319067383,1.08763793017578,7.37283587646535,15.267525,
-2.82348201782227,6.5535524362793,1.1139741484375,7.22232917024799,15.270467,
-2.88333705932617,6.1920279855957,1.2073480131836,6.93631980210129,15.273388,
-3.06529638549805,5.9789440378418,1.21931902148438,6.82865672110885,15.276403,
-3.16824705688477,5.78980210668945,1.32945229785157,6.73253601998143,15.279348,
-3.20416008178711,5.5958717722168,1.24326103808594,6.5670480986234,15.282354,
-3.21373688842773,5.48573849584961,1.28156826464844,6.48566487338357,15.28529,
-3.20655428344727,5.43067185766602,1.17382918994141,6.41498730828816,15.288213,
-3.15148764526367,5.38518202612305,1.11157994677735,6.33779692091864,15.291205,
-3.04853697387695,5.43306605932617,0.972716250488283,6.30539145414945,15.294137,
-2.95516310913086,5.5192573190918,0.87934238574219,6.32205926793471,15.29713,
-2.83305882446289,5.62220799047852,0.644710623046876,6.32859358614037,15.300073,
-2.70856033813477,5.7107934519043,0.57288457324219,6.34646812722546,15.303007,
-2.60082126342773,5.78501370336914,0.460357095214846,6.35944836032035,15.306003,
-2.47632277709961,5.96697302954102,0.220936929199221,6.46419018581107,15.308934,
-2.35900689575195,6.09625991918945,0.12516886279297,6.53796342760756,15.311944,
-2.29436345092773,6.17766277563477,-0.0687614716796858,6.59032238622695,15.314879,
-2.14352874633789,6.25427722875977,-0.260297604492186,6.61652884702124,15.317895,
-2.06930849487305,6.3237090769043,-0.279451217773435,6.65953655440006,15.320866,
-1.8801665637207,6.4003235300293,-0.509294577148436,6.69018299919313,15.323829,
-1.82509992553711,6.40990033666992,-0.578726425292967,6.68974860062537,15.326845,
-1.74130286743164,6.48412058813477,-0.712801718261717,6.75159549789201,15.32982,
-1.53061312133789,6.4601785715332,-0.887578439453122,6.69809519113386,15.332827,
-1.38696102172852,6.48172638647461,-1.05517255566406,6.71191678636901,15.335797,
-1.26964514038086,6.44581336157227,-1.08150877392578,6.65809055982229,15.338743,
-1.11162783081055,6.42665974829102,-1.11981600048828,6.61752671543426,15.341775,
-1.05656119262695,6.33568008520508,-1.24910289013672,6.54350225230934,15.344775,
-0.972764134521485,6.22315260717773,-1.28262171337891,6.42798700164098,15.347896,
-0.956004722900391,6.20399899389648,-1.41190860302734,6.43405272357781,15.350937,
-0.900938084716797,5.99809765112305,-1.41669700634765,6.22863510511696,15.353944,
-0.874601866455078,5.82332092993164,-1.42387961132812,6.05833543354464,15.35695,
-0.932062706298828,5.70361084692383,-1.46697524121094,5.96254425056503,15.359924,
-0.956004722900391,5.50968051245117,-1.46458103955078,5.78061605721256,15.362955,
-1.01346556274414,5.3492690012207,-1.529224484375,5.65511439476701,15.365952,
-0.999100352783204,5.16730967504883,-1.57950271923828,5.49491761838755,15.368889,
-1.03261917602539,4.95661992895508,-1.58429112255859,5.30512599697952,15.371923,
-1.03501337768555,4.74353598120117,-1.58429112255859,5.10708964655568,15.374885,
-1.08768581420898,4.55678825170898,-1.64175196240234,4.96414434796133,15.377921,
-1.13556984741211,4.3532811105957,-1.60823313916015,4.77775984496017,15.3809,
-1.1906364855957,4.13301455786133,-1.65851137402344,4.6097813998161,15.383864,
-1.2840103503418,3.95823783666992,-1.74709683544922,4.51316703700039,15.386926,
-1.3438653918457,3.76430750219727,-1.71118381054687,4.34788859056634,15.389924,
-1.43963345825195,3.6422032175293,-1.83807649853515,4.32628177380606,15.392951,
-1.4755464831543,3.5105221262207,-1.80934607861328,4.21600951787676,15.395934,
-1.51145950805664,3.39320624487305,-1.90990254833984,4.17685123135781,15.39887,
-1.50667110473633,3.27110196020508,-1.99609380810547,4.11759108492598,15.401905,
-1.63356379272461,3.22800633032227,-2.11580389111328,4.19108358770754,15.40486,
-1.67665942260742,3.1059020456543,-2.16847632763672,4.14247557870154,15.4079,
-1.73412026245117,3.09393103735352,-2.24987918408203,4.20018317356621,15.410852,
-1.81312891723633,3.0675948190918,-2.42226170361328,4.3087035411396,15.413869,
-1.79636950561523,3.10350784399414,-2.47732834179687,4.35842403300867,15.41684,
-1.8203115222168,3.20885271704102,-2.63773985302734,4.53518922756542,15.419797,
-1.8035521105957,3.2974381784668,-2.7766035493164,4.67283918260848,15.422809,
-1.81791732055664,3.36687002661133,-3.00405270703125,4.86466543835189,15.425787,
-1.91607958862305,3.45545548803711,-3.16207001660156,5.06065414839171,15.428802,
-1.8801665637207,3.52488733618164,-3.22910766308594,5.13682716663772,15.431787,
-1.93283900024414,3.61107859594727,-3.44937421582031,5.35480510455229,15.434745,
-1.90650278198242,3.72121187231445,-3.4828930390625,5.44175657098981,15.437793,
-1.93762740356445,3.79064372045898,-3.8108986665039,5.71369656324697,15.440764,
-1.93044479858398,3.88641178686524,-3.93779135449219,5.85977938569178,15.443822,
-1.89453177368164,4.00612186987305,-4.1939709321289,6.10144698061916,15.446786,
-1.86580135375977,4.08991892797852,-4.26100857861328,6.19393619890814,15.449749,
-1.8586187487793,4.20244640600586,-4.39987227490234,6.36190973561554,15.452778,
-1.84904194213867,4.25272464086914,-4.54352437451172,6.49216733584599,15.455767,
-1.75566807739258,4.35806951391602,-4.69435907910156,6.64169763310878,15.458795,
-1.73412026245117,4.45862598364258,-4.80928075878906,6.78348731579231,15.461777,
-1.70299564086914,4.54960564672852,-4.84998218701172,6.86450529229123,15.464728,
-1.67187101928711,4.65255631811524,-4.91462563183594,6.97100983355101,15.467784,
-1.6287753894043,4.83930404760742,-5.03912411816406,7.1738793419308,15.47076,
-1.54258412963867,4.90873589575195,-5.1133443696289,7.25407089389623,15.473805,
-1.5737087512207,4.98774455053711,-5.08940235302734,7.29768259422685,15.476774,
-1.48033488647461,5.04759959204102,-5.1133443696289,7.33593509105022,15.479736,
-1.38456682006836,5.03084018041992,-5.12052697460937,7.31068907134368,15.482778,
-1.36780740844727,5.04999379370117,-5.05109512646484,7.27233775340643,15.485856,
-1.28161614868164,4.9661967355957,-5.06546033642578,7.20864331126917,15.488982,
-1.22176110717773,4.8512750559082,-5.13728638623047,7.17072390245491,15.492057,
-1.23133791381836,4.6597389230957,-5.03912411816406,6.97295717523651,15.49502,
-1.18584808227539,4.53763463842773,-5.09419075634765,6.92438757206392,15.498057,
-1.15711766235352,4.37722312719727,-4.99602848828125,6.74235153677995,15.501015,
-1.14035825073242,4.24554203588867,-5.00321109326172,6.66011751865148,15.504069,
-1.1523292590332,4.06837111303711,-4.96250966503906,6.51966321294474,15.507061,
-1.17866547729492,3.93669002172852,-4.92659664013672,6.41546062953785,15.510093,
-1.17148287231445,3.88162338354492,-4.89068361523437,6.35280713040549,15.513049,
-1.1523292590332,3.77149010717773,-4.83322277539062,6.23795180698907,15.516023,
-1.20021329223633,3.74515388891602,-4.77815613720703,6.18849462066929,15.51905,
-1.20500169555664,3.74275968725586,-4.78294454052734,6.19167486554343,15.522047,
-1.25527993041992,3.71163506567383,-4.72787790234375,6.140422788695,15.525073,
-1.33189438354492,3.7786727121582,-4.79012714550781,6.24480809830521,15.528085,
-1.35104799682617,3.80979733374023,-4.74463731396484,6.23309470928926,15.531028,
-1.3989320300293,3.87683498022461,-4.7087242890625,6.25771082097457,15.534062,
-1.37738421508789,3.93908422338867,-4.747031515625,6.32043352985061,15.537026,
-1.38696102172852,4.05879430639648,-4.73027210400391,6.38536970545545,15.540061,
-1.39653782836914,4.13540875952148,-4.77576193554687,6.46991696850983,15.543012,
-1.3989320300293,4.2766666574707,-4.73027210400391,6.52858045073208,15.545964,
-1.38935522338867,4.3700405222168,-4.79012714550781,6.63120503171973,15.548988,
-1.40372043334961,4.48735640356445,-4.80928075878906,6.72576984177074,15.551953,
-1.41090303833008,4.60467228491211,-4.81167496044922,6.80778011983501,15.554982,
-1.41329723999023,4.76268959448242,-4.86674159863281,6.95455210993621,15.557954,
-1.42766244995117,4.85845766088867,-4.81167496044922,6.98534514814139,15.560892,
-1.37259581176758,5.01886917211914,-4.81406916210937,7.08860556999063,15.563928,
-1.40372043334961,5.09069522192383,-4.84998218701172,7.16993278293822,15.566894,
-1.37977841674805,5.26786614477539,-4.87392420361328,7.3081693563547,15.569943,
-1.36301900512695,5.41630664770508,-4.85237638867187,7.39863197676785,15.572915,
-1.33668278686523,5.49770950415039,-4.90504882519531,7.48805947106974,15.575868,
-1.30076976196289,5.55277614233399,-4.89307781689453,7.51448836466568,15.578899,
-1.25288572875977,5.64136160375977,-4.93138504345703,7.59692318248227,15.581901,
-1.18345388061523,5.82332092993164,-4.92180823681641,7.71594621938988,15.58493,
-1.1307814440918,5.86641655981445,-4.92180823681641,7.74065283083807,15.587912,
-1.07810900756836,5.95500202124023,-4.92899084179687,7.80508288384517,15.590849,
-1.0541669909668,6.06513529760742,-4.86674159863281,7.84743958313732,15.593878,
-1.01107136108398,6.10583672583008,-4.87871260693359,7.8806943933103,15.596832,
-0.98234094116211,6.14893235571289,-4.82125176708984,7.87520358095479,15.599869,
-0.956004722900391,6.19681638891602,-4.72069529736328,7.84853123066308,15.602811,
-0.972764134521485,6.24948882543945,-4.60816781933594,7.8254451178107,15.605827,
-0.927274302978516,6.17287437231445,-4.47169832470703,7.67856116447141,15.608778,
-0.929668504638672,6.18005697729492,-4.39987227490234,7.64305330392135,15.611716,
-0.891361278076172,6.14653815405273,-4.29931580517578,7.55371250445196,15.61473,
-0.903332286376953,6.06992370092773,-4.11975068066406,7.39136852183188,15.617698,
-0.896149681396485,5.94542521459961,-4.03834782421875,7.24288743411329,15.6207,
-0.855448253173828,5.87599336645508,-3.92582034619141,7.11836744956684,15.623713,
-0.915303294677735,5.7706484934082,-3.83005227978515,6.98623393693696,15.62674,
-0.891361278076172,5.70600504858399,-3.71752480175781,6.86826100219,15.62986,
-0.898543883056641,5.70600504858399,-3.56908429882812,6.7900101219649,15.632874,
-0.893755479736328,5.74670647680664,-3.46852782910156,6.77156698921174,15.635903,
-0.898543883056641,5.74191807348633,-3.39670177929687,6.73161104416216,15.638844,
-0.939245311279297,5.8257151315918,-3.25065547802734,6.73705422169415,15.641791,
-0.941639512939453,5.93106000463867,-3.09503237011719,6.7559886858273,15.644831,
-0.951216319580078,6.03161647436523,-2.99447590039062,6.80088933143966,15.647813,
-0.953610521240235,6.0771063059082,-2.78378615429687,6.75204113082735,15.650842,
-1.02064816772461,6.10583672583008,-2.76223833935547,6.77885871280559,15.653799,
-1.06134959594727,6.25906563208008,-2.70956590283203,6.90247150905336,15.656742,
-1.18345388061523,6.39074672338867,-2.72871951611328,7.04897985297616,15.659798,
-1.30076976196289,6.5152452097168,-2.65689346630859,7.15538293927641,15.662755,
-1.40850883666992,6.67086831762695,-2.65210506298828,7.3156026764187,15.665822,
-1.4587870715332,6.86240445043945,-2.6233746430664,7.49017683899168,15.668807,
-1.50188270141602,7.02281596166992,-2.61140363476562,7.64166373402845,15.671779,
-1.54497833129883,7.24787091772461,-2.57788481152344,7.84627816137462,15.674807,
-1.63595799438477,7.45377226049805,-2.55154859326172,8.04645758669847,15.677786,
-1.68384202758789,7.67164461157227,-2.6233746430664,8.28079401615696,15.680807,
-1.71975505249023,7.90388217260742,-2.65928766796875,8.51473556489207,15.683778,
-1.76045648071289,8.03316906225586,-2.61379783642578,8.62919181227146,15.686719,
-1.86101295043945,8.20794578344727,-2.66886447460937,8.82930239427471,15.689748,
-1.92086799194336,8.42102973120117,-2.65449926464844,9.03603020813154,15.692708,
-2.03100126831055,8.49285578100586,-2.67365287792969,9.13246873416523,15.695763,
-2.08606790649414,8.60777746069336,-2.69759489453125,9.25864624760696,15.698736,
-2.19141277954102,8.75142956030274,-2.64252825634765,9.40067895978115,15.701752,
-2.27042143432617,8.86874544165039,-2.60900943310547,9.51926412178356,15.704705,
-2.3949199206543,8.98366712133789,-2.63534565136719,9.66369303504277,15.70765,
-2.46914017211914,9.0818293894043,-2.57788481152344,9.75816418950324,15.710669,
-2.5864560534668,9.14407863256836,-2.47972254345703,9.82104642325029,15.713635,
-2.68222411987305,9.19435686743164,-2.33846464550781,9.85895234460569,15.71664,
-2.78278058959961,9.21590468237305,-2.2570617890625,9.88792672121329,15.719602,
-2.89770226928711,9.21351048071289,-2.22114876416016,9.91054769688175,15.722538,
-2.96713411743164,9.06746417944336,-1.988911203125,9.74569439753943,15.725566,
-3.0461427722168,8.95254249975586,-1.86680691845703,9.63908559301465,15.728511,
-3.12515142700195,8.84959182836914,-1.75188523876953,9.54730060594348,15.731553,
-3.18979487182617,8.5838354440918,-1.51725347607422,9.28219157129578,15.7345,
-3.24725571166992,8.34441527807617,-1.37838977978515,9.05946435364587,15.737438,
-3.33344697143555,8.0858414987793,-1.28262171337891,8.83955993895541,15.740455,
-3.37654260131836,7.83205612280273,-1.10066238720703,8.59962794194387,15.743409,
-3.38851360961914,7.59024175512695,-0.897155246093748,8.36054315935516,15.746418,
-3.41724402954102,7.40588822729492,-0.810963986328122,8.19648703895397,15.749372,
-3.5058294909668,7.32687957250977,-0.657735080078123,8.149025716327,15.752302,
-3.50822369262695,7.20956369116211,-0.530842392089841,8.03537402612173,15.755331,
-3.51061789428711,7.16167965795899,-0.502111972167967,7.99163374758296,15.75827,
-3.53216570922852,7.08267100317383,-0.502111972167967,7.93048167321781,15.761294,
-3.54653091918945,7.13773764135742,-0.494929367187497,7.98562053168832,15.764329,
-3.5273773059082,7.18322747290039,-0.454227938964841,8.01545199013776,15.767356,
-3.54174251586914,7.20956369116211,-0.48774676220703,8.04733779393419,15.770459,
-3.63032797729492,7.26702453100586,-0.492535165527341,8.13827485688781,15.773451,
-3.49864688598633,7.31251436254883,-0.473381552246092,8.12019004884194,15.77646,
-3.49146428100586,7.27181293432617,-0.530842392089841,8.08402002858806,15.779413,
-3.61117436401367,7.37236940405274,-0.530842392089841,8.22643328316483,15.782333,
-3.65426999389648,7.36758100073242,-0.492535165527341,8.23878206289781,15.785403,
-3.65187579223633,7.42504184057617,-0.648158273437499,8.29985254589827,15.788348,
-3.66863520385742,7.5495403269043,-0.664917685058592,8.42000943790682,15.79136,
-3.60638596069336,7.65249099829102,-0.796598776367185,8.4971293850877,15.794317,
-3.52498310424805,7.84163292944336,-0.806175583007811,8.6351972737166,15.797326,
-3.42682083618164,7.95655460913086,-0.937856674316404,8.71374990649433,15.800312,
-3.39569621459961,8.01162124731445,-0.947433480957029,8.75296852462665,15.803257,
-3.32865856811523,8.05950528051758,-0.988134909179685,8.77564834234584,15.806312,
-3.29992814819336,8.06668788549805,-1.069537765625,8.78093903050112,15.809277,
-3.2759861315918,7.94458360083008,-1.04320154736328,8.65660228919991,15.812278,
-3.29513974487305,7.8559981394043,-1.07193196728515,8.58625010391927,15.815248,
-3.27119772827148,7.78177788793945,-1.18924784863281,8.52473531085568,15.818177,
-3.27359192993164,7.5710881418457,-1.18206524365234,8.33277012856836,15.821203,
-3.19458327514648,7.52799251196289,-1.14136381542969,8.25704214117787,15.824149,
-3.21373688842773,7.36279259741211,-1.17248843701172,8.11871595484618,15.827173,
-3.11796882202148,7.14731444799805,-1.17967104199219,7.88653644897268,15.830118,
-3.10839201538086,7.09464201147461,-1.17727684033203,7.83466827319741,15.833058,
-3.06290218383789,7.01084495336914,-1.14854642041015,7.73643817449461,15.836061,
-3.02459495727539,6.92225949194336,-1.13178700878906,7.63850724701099,15.839019,
-2.8929138659668,6.87198125708008,-1.11023919384765,7.53828283504396,15.842034,
-2.82348201782227,6.8217030222168,-1.15572902539062,7.47284366278446,15.844993,
-2.75883857299805,6.77860739233398,-1.06714356396484,7.39591129188138,15.847918,
-2.6846183215332,6.72593495581055,-1.09347978222656,7.32400673103488,15.850945,
-2.5696966418457,6.66607991430664,-1.03841314404297,7.21929803462613,15.853884,
-2.48111118041992,6.61819588110352,-0.961798690917966,7.13312597197833,15.856904,
-2.44040975219727,6.44581336157227,-0.925885666015624,6.954234243781,15.859868,
-2.38055471069336,6.31413227026367,-0.995317514160154,6.8209943564691,15.862806,
-2.32309387084961,6.18005697729492,-0.957010287597654,6.6712621044266,15.86581,
-2.30394025756836,6.04119328100586,-0.971375497558592,6.53817461728973,15.868774,
