X,Y,Z,Magnitude,Seconds,
-0.686178195800781,-0.0707726010742187,-0.0505655390624984,0.691669105277883,0.0,
-0.686178195800781,-0.0731668027343749,-0.00986411083984251,0.690138535438681,0.00370000000020809,
-0.690966599121094,-0.0276769711914062,-0.0122583124999984,0.69162932417636,0.00743799999963812,
-0.717302817382813,-0.0947146176757813,-0.000287304199217076,0.723529041000078,0.0111409999999523,
-0.667024582519531,-0.0731668027343749,-0.0050757075195289,0.671044661341218,0.0148360000002867,
-0.669418784179688,-0.0803494077148437,-0.0266235224609357,0.674749099948244,0.0185249999994994,
-0.702937607421875,-0.0779552060546874,0.00689530078125244,0.707280594426203,0.0225679999994099,
-0.667024582519531,-0.0588015927734374,-0.0721133540039052,0.67348330107267,0.0264209999995728,
-0.73166802734375,-0.0324653745117187,-0.000287304199217076,0.732388001897207,0.0301699999999983,
-0.698149204101563,-0.0827436093749999,-0.0338061274414052,0.703847760764096,0.0339069999999992,
-0.676601389160156,-0.0707726010742187,-0.0290177241210916,0.680911322559283,0.0376409999998941,
-0.700543405761719,-0.0324653745117187,0.0332315190429711,0.70208218732305,0.0414209999999002,
-0.671812985839844,-0.0659841977539062,-0.00268150585937299,0.675050955684048,0.0452649999997448,
-0.688572397460938,-0.0492247861328126,-0.0577481440429679,0.692740842058076,0.0490469999995184,
-0.7125144140625,-0.0468305844726562,-0.0314119257812475,0.714742333271344,0.0528029999995852,
-0.667024582519531,-0.0995030209960938,-0.0745075556640611,0.678508674022475,0.056601999999657,
-0.695755002441406,-0.0899262143554688,-0.0553539423828102,0.703722819288864,0.0603350000001228,
-0.69336080078125,-0.0755610043945312,0.0212605107421897,0.697789849999372,0.0640960000000632,
-0.652659372558594,-0.111474029296875,-0.0242293208007798,0.662553979523725,0.0678280000001905,
-0.659841977539063,-0.0971088193359375,-0.0362003291015611,0.667931150600526,0.0716769999999087,
-0.690966599121094,-0.0947146176757813,0.0428083256835947,0.698740475892353,0.0754099999994651,
-0.690966599121094,-0.0635899960937499,-0.0553539423828102,0.696090933457327,0.0791330000001835,
-0.707726010742188,-0.0803494077148437,0.035625720703127,0.713162902552281,0.082843000000139,
-0.698149204101563,-0.0659841977539062,-0.0266235224609357,0.701765657102925,0.0865450000001147,
-0.738850632324219,-0.0564073911132812,-0.0553539423828102,0.743065346786825,0.0903019999996104,
-0.698149204101563,-0.0875320126953125,-0.0290177241210916,0.704213172801607,0.0943769999994402,
-0.667024582519531,-0.0875320126953125,0.0260489140625015,0.673247497474505,0.0982189999995171,
-0.659841977539063,-0.0899262143554688,-0.0338061274414052,0.666799080385952,0.10200900000018,
-0.6742071875,-0.0947146176757813,-0.0050757075195289,0.680846497593219,0.105781999999635,
-0.714908615722656,-0.0947146176757813,0.0140779057617202,0.72129284972651,0.10960999999952,
-0.676601389160156,-0.0444363828125001,0.00689530078125244,0.678094076882977,0.113467000000128,
-0.695755002441406,-0.0540131894531251,-0.0529597407226543,0.69985511514495,0.117318999999952,
-0.676601389160156,-0.0827436093749999,-0.0529597407226543,0.683696335256572,0.121126000000004,
-0.667024582519531,-0.0803494077148437,-0.0338061274414052,0.672696569976439,0.124939999999697,
-0.667024582519531,-0.0851378110351562,-0.0146525141601543,0.672595671056859,0.128733999999895,
-0.702937607421875,-0.0611957944335937,-0.0074699091796866,0.705635886791128,0.132496999999603,
-0.647870969238281,-0.111474029296875,-0.0050757075195289,0.657410841708786,0.13624499999969,
-0.717302817382813,-0.0779552060546874,-0.0170467158203103,0.721727744025826,0.139970000000176,
-0.690966599121094,-0.0707726010742187,0.00928950244140836,0.694643719484593,0.143825000000106,
-0.700543405761719,-0.0683783994140624,-0.040988732421873,0.705065064407682,0.147544999999809,
-0.683783994140625,-0.0899262143554688,-0.0457771357421866,0.691189424707852,0.151259000000209,
-0.676601389160156,-0.10189722265625,0.0212605107421897,0.684561533476377,0.154985000000124,
-0.690966599121094,-0.0635899960937499,-0.0122583124999984,0.693994809007619,0.158707999999933,
-0.688572397460938,-0.0611957944335937,-0.0577481440429679,0.693694255376149,0.162589999999909,
-0.688572397460938,-0.118656634277344,-0.0649307490234357,0.701731676334961,0.166581999999835,
-0.707726010742188,-0.0635899960937499,-0.0577481440429679,0.712919800555898,0.170366999999715,
-0.688572397460938,-0.0803494077148437,-0.0146525141601543,0.693399358260767,0.174148999999488,
-0.719697019042969,-0.0564073911132812,-0.0529597407226543,0.723844131791474,0.177897999999914,
-0.667024582519531,-0.0683783994140624,-0.0290177241210916,0.67114784325434,0.181703999999627,
-0.719697019042969,-0.0540131894531251,-0.0218351191406239,0.722051242144295,0.185504999999466,
-0.695755002441406,-0.0588015927734374,-0.0266235224609357,0.698742772902277,0.189217999999528,
-0.707726010742188,-0.0659841977539062,-0.0481713374023425,0.712425784472606,0.193081999999777,
-0.705331809082031,-0.0444363828125001,-0.0481713374023425,0.708369981554498,0.196839999999611,
-0.638294162597656,-0.0731668027343749,-0.0266235224609357,0.643025373509353,0.200560999999652,
-0.681389792480469,-0.0731668027343749,-0.0242293208007798,0.685735000058634,0.204248999999436,
-0.700543405761719,-0.135416045898437,0.00928950244140836,0.713571905065359,0.207972999999583,
-0.688572397460938,-0.0827436093749999,-0.0122583124999984,0.693634426526577,0.211699999999837,
-0.690966599121094,-0.0875320126953125,0.0140779057617202,0.696631094466862,0.215506999999889,
-0.719697019042969,-0.0635899960937499,-0.0697191523437475,0.725856905337456,0.219237999999677,
-0.678995590820313,-0.0875320126953125,-0.0362003291015611,0.685570805553284,0.222952000000078,
-0.683783994140625,-0.0803494077148437,0.00210689746093884,0.688491842348145,0.226685999999972,
-0.671812985839844,-0.0683783994140624,0.0835097539062524,0.68042793332355,0.230429999999615,
-0.686178195800781,-0.092320416015625,-0.0194409174804662,0.692633759557095,0.234387999999853,
-0.707726010742188,-0.0348595761718749,-0.0529597407226543,0.710560363705537,0.238298999999643,
-0.657447775878906,-0.0396479794921876,-0.0194409174804662,0.658929047438657,0.242103999999927,
-0.678995590820313,-0.0899262143554688,-0.00268150585937299,0.684929870027147,0.245895999999448,
-0.705331809082031,-0.0707726010742187,-0.0601423457031238,0.711420286267137,0.249676999999792,
-0.695755002441406,-0.0564073911132812,0.0523851323242202,0.70000072805896,0.253545999999915,
-0.695755002441406,-0.0588015927734374,-0.0122583124999984,0.698342979459436,0.257337000000007,
-0.686178195800781,-0.0971088193359375,-0.0314119257812475,0.693727142518239,0.261131000000205,
-0.714908615722656,-0.128233440917969,-0.0218351191406239,0.726646349080508,0.265061999999489,
-0.710120212402344,-0.092320416015625,0.00689530078125244,0.716129402027673,0.26889299999948,
-0.657447775878906,-0.118656634277344,0.00689530078125244,0.668105171390711,0.272678000000269,
-0.748427438964844,-0.0492247861328126,0.0643561406250015,0.752800387753248,0.27643100000023,
-0.683783994140625,-0.00134075292968738,-0.0625365473632797,0.686639037644558,0.280195999999705,
-0.657447775878906,-0.0707726010742187,-0.0338061274414052,0.662109653549558,0.283902999999555,
-0.683783994140625,-0.240760918945313,-0.0721133540039052,0.728509922073811,0.287707999999839,
-0.652659372558594,0.144705548339844,0.0859039555664083,0.674005520667945,0.291473000000224,
-0.65505357421875,0.104004120117188,-0.076901757324217,0.667701971224934,0.295207999999548,
-0.76997525390625,-0.434691253417969,-0.21576545361328,0.910150047189486,0.298893999999564,
-0.860954916992188,0.00105344873046875,-0.0194409174804662,0.861175027575542,0.302601999999752,
-0.57843912109375,0.192589581542969,0.109845972167971,0.61947453646791,0.305789000000004,
-0.418027609863281,-0.0755610043945312,-0.0984495722656238,0.436060622244663,0.308753999999681,
-0.532949289550781,-0.195271087402344,-0.0170467158203103,0.567852386917793,0.311794000000191,
-1.14347071289063,0.111186725097656,-0.0242293208007798,1.14911914920212,0.314796999999999,
-0.839407102050781,-0.259914532226562,0.0523851323242202,0.880286344960814,0.317842999999812,
-0.57843912109375,-0.214424700683594,-0.13196839550781,0.630860861432903,0.32085300000017,
-0.291134921875,0.135128741699219,-0.0338061274414052,0.32274165182226,0.323809999999867,
-0.760398447265625,0.149493951660156,-0.0290177241210916,0.775497432942309,0.32685599999968,
-1.05249104980469,-0.252731927246094,0.0452025273437524,1.08335317669113,0.32988000000023,
-0.801099875488281,-0.257520330566406,-0.0362003291015611,0.842251859593929,0.332899999999427,
-0.276769711914063,0.0106302553710937,0.00450109912109475,0.277010352975382,0.335925999999745,
-0.504218869628906,0.1854069765625,0.0284431157226575,0.537979020297178,0.33891500000027,
-1.02854903320313,-0.0516189877929687,-0.110420580566405,1.03574627115741,0.342000999999982,
-0.925598361816406,-0.267097137207031,-0.040988732421873,0.964237151476212,0.344992999999704,
-0.391691391601563,-0.204847894042969,0.0140779057617202,0.442247660682613,0.348022999999557,
-0.528160886230469,0.135128741699219,-0.0266235224609357,0.545822783076335,0.351020000000062,
-0.918415756835938,0.154282354980469,-0.0625365473632797,0.933381683567321,0.354016000000229,
-0.750821640625,-0.300615960449219,0.0571735356445338,0.810784746332662,0.357046000000082,
-0.573650717773438,-0.31258696875,0.0308373173828134,0.654015824867917,0.360012000000097,
-0.659841977539063,0.209348993164063,-0.0625365473632797,0.695075000282406,0.363062999999784,
-0.736456430664063,0.135128741699219,0.00689530078125244,0.748782609488581,0.366055999999844,
-0.676601389160156,-0.382018816894531,0.0332315190429711,0.777709553839256,0.369090999999571,
-0.753215842285156,-0.118656634277344,-0.040988732421873,0.763605643059896,0.372075999999652,
-0.662236179199219,0.187801178222656,-0.038594530761717,0.689431343490354,0.375047999999879,
-0.588015927734375,-0.0611957944335937,0.0212605107421897,0.591573888743152,0.378091999999924,
-0.753215842285156,-0.281462347167969,-0.108026378906247,0.811310579545365,0.381051000000298,
-0.813070883789063,-0.0276769711914062,-0.0218351191406239,0.813834780055352,0.384078000000045,
-0.568862314453125,0.099215716796875,0.0332315190429711,0.578405070104323,0.387074000000212,
-0.583227524414063,-0.149781255859375,-0.0840843623046865,0.607995846881501,0.390016999999716,
-0.8657433203125,-0.161752264160156,-0.0290177241210916,0.881202201506452,0.393051999999443,
-0.736456430664063,0.0106302553710937,-0.0218351191406239,0.736856735752338,0.396047000000181,
-0.513795676269531,-0.0181001645507812,0.0236547124023456,0.514658292781597,0.399104000000079,
-0.736456430664063,-0.173723272460937,-0.0840843623046865,0.761326493460706,0.402075999999397,
-0.860954916992188,-0.0803494077148437,-0.0074699091796866,0.86472839432755,0.405026999999791,
-0.645476767578125,-0.0181001645507812,0.0523851323242202,0.647851893204378,0.408077000000048,
-0.549708701171875,-0.0611957944335937,0.0236547124023456,0.553610085546918,0.411049999999705,
-0.762792648925781,-0.109079827636719,-0.0864785639648424,0.775389950978144,0.414076000000023,
-0.80828248046875,-0.0755610043945312,-0.0290177241210916,0.81232509620902,0.417038999999932,
-0.607169541015625,-0.00612915624999988,-0.0122583124999984,0.607324200340156,0.419979999999669,
-0.631111557617188,-0.0947146176757813,-0.0242293208007798,0.638638956646029,0.423020999999608,
-0.793917270507813,-0.0851378110351562,0.0164721074218761,0.798639098467731,0.426002000000153,
-0.734062229003906,-0.0635899960937499,0.00689530078125244,0.736843666476309,0.429040999999415,
-0.580833322753906,-0.0611957944335937,-0.0505655390624984,0.586233014950867,0.431996000000254,
-0.664630380859375,-0.0683783994140624,-0.0266235224609357,0.668668797399681,0.434943000000203,
-0.774763657226563,-0.0516189877929687,0.00210689746093884,0.776484181085977,0.438038999999662,
-0.650265170898438,-0.0899262143554688,-0.0122583124999984,0.656568185900922,0.441095999999561,
-0.638294162597656,-0.0252827695312499,-0.0649307490234357,0.642086176934341,0.444212999999763,
-0.707726010742188,-0.0133117612304687,-0.0505655390624984,0.70965497462414,0.447261000000253,
-0.738850632324219,-0.0947146176757813,-0.0218351191406239,0.745216671925188,0.450205000000096,
-0.652659372558594,-0.1210508359375,-0.0194409174804662,0.664074928560194,0.453217999999652,
-0.671812985839844,-0.0420421811523437,-0.00268150585937299,0.673132545203964,0.456189999999879,
-0.719697019042969,-0.0611957944335937,-0.0290177241210916,0.722876720325715,0.45925299999999,
-0.695755002441406,-0.144992852539062,-0.0266235224609357,0.711200929876982,0.462234999999964,
-0.628717355957031,-0.0324653745117187,0.0332315190429711,0.630431477705301,0.465261000000282,
-0.690966599121094,-0.0348595761718749,-0.0050757075195289,0.691863999611684,0.468219999999747,
-0.719697019042969,-0.0707726010742187,0.0116837041015643,0.723262794026956,0.471209999999701,
-0.659841977539063,-0.104291424316406,-0.0194409174804662,0.668315857795614,0.474255000000085,
-0.650265170898438,-0.0516189877929687,0.0332315190429711,0.653156678173199,0.477246999999807,
-0.6742071875,-0.0420421811523437,0.0332315190429711,0.676333653258959,0.48030800000015,
-0.714908615722656,-0.0995030209960938,0.0547793339843761,0.723875649164693,0.48330900000019,
-0.714908615722656,-0.0707726010742187,0.0499909306640642,0.720140391205739,0.486275999999634,
-0.698149204101563,-0.0444363828125001,0.00689530078125244,0.699595917996931,0.48932700000023,
-0.657447775878906,-0.0971088193359375,-0.0170467158203103,0.664799436914021,0.492290000000139,
-0.6742071875,-0.0611957944335937,-0.0122583124999984,0.677089745276331,0.495327999999972,
-0.695755002441406,-0.0971088193359375,-0.0290177241210916,0.703098268045249,0.49828400000024,
-0.724485422363281,-0.123445037597656,-0.0529597407226543,0.736832775235874,0.501231999999618,
-0.695755002441406,-0.0995030209960938,-0.000287304199217076,0.702834231631679,0.504264999999577,
-0.611957944335938,-0.0444363828125001,-0.0362003291015611,0.614636137548377,0.507230000000163,
-0.662236179199219,-0.0300711728515624,-0.0649307490234357,0.666090860653254,0.510271999999532,
-0.767581052246094,-0.092320416015625,-0.0290177241210916,0.773657391416696,0.513245999999526,
-0.734062229003906,-0.149781255859375,0.00689530078125244,0.749219144062576,0.516200000000026,
-0.614352145996094,-0.0851378110351562,0.00689530078125244,0.620261679721332,0.519250999999713,
-0.645476767578125,-0.0300711728515624,-0.0146525141601543,0.646342965530675,0.522219999999834,
-0.734062229003906,-0.0540131894531251,-0.0529597407226543,0.737949534062116,0.525254000000132,
-0.796311472167969,-0.0995030209960938,-0.040988732421873,0.803550177698455,0.528220000000147,
-0.6742071875,-0.0396479794921876,-0.0074699091796866,0.675413276074454,0.531162999999651,
-0.595198532714844,-0.0276769711914062,0.0140779057617202,0.596007965979373,0.534216000000015,
-0.69336080078125,-0.0372537778320312,0.0643561406250015,0.697336903411055,0.537212000000181,
-0.758004245605469,-0.0611957944335937,-0.0314119257812475,0.761118959620348,0.540234000000055,
-0.681389792480469,-0.0971088193359375,0.0739329472656269,0.692234247044148,0.543219999999565,
-0.643082565917969,-0.116262432617187,-0.076901757324217,0.658016732390034,0.546159999999873,
-0.700543405761719,-0.0228885678710937,0.0452025273437524,0.702373275668772,0.549191999999493,
-0.774763657226563,-0.0468305844726562,-0.0601423457031238,0.778504290256517,0.552146999999422,
-0.69336080078125,-0.125839239257812,-0.0433829340820289,0.706021807854805,0.555171999999402,
-0.588015927734375,-0.0899262143554688,-0.038594530761717,0.59610317320271,0.558121000000028,
-0.73166802734375,0.00584185205078125,-0.00986411083984251,0.731757835731971,0.561162999999397,
-0.736456430664063,-0.0635899960937499,-0.0553539423828102,0.741266362926967,0.564127999999982,
-0.640688364257813,-0.135416045898437,-0.00986411083984251,0.654917083503538,0.56708400000025,
-0.65505357421875,-0.0396479794921876,-0.0697191523437475,0.659945382268944,0.570110999999997,
-0.722091220703125,0.0226012636718751,-0.0601423457031238,0.724943894299944,0.573112000000037,
-0.678995590820313,-0.111474029296875,-0.0170467158203103,0.688296492858539,0.576148999999532,
-0.688572397460938,-0.0971088193359375,-0.0649307490234357,0.698411104942259,0.579200000000128,
-0.667024582519531,-0.0324653745117187,-0.0146525141601543,0.667974917492232,0.582228999999643,
-0.705331809082031,-0.104291424316406,-0.0170467158203103,0.713204215221092,0.585344000000077,
-0.698149204101563,-0.10189722265625,-0.0242293208007798,0.705962049376006,0.588324000000284,
-0.724485422363281,-0.0492247861328126,-0.0745075556640611,0.729968206593792,0.591341000000284,
-0.633505759277344,-0.0276769711914062,-0.0170467158203103,0.634339146113617,0.594323999999688,
-0.671812985839844,-0.0947146176757813,-0.0146525141601543,0.678614944512519,0.597260999999889,
-0.73166802734375,-0.10189722265625,-0.0721133540039052,0.742240851777807,0.600343000000066,
-0.686178195800781,-0.0300711728515624,-0.0433829340820289,0.688205544004587,0.603390999999647,
-0.667024582519531,-0.0348595761718749,0.0188663090820338,0.668201258121097,0.606426999999712,
-0.695755002441406,-0.0683783994140624,0.0140779057617202,0.699248751417767,0.609448999999586,
-0.73166802734375,-0.116262432617187,0.0571735356445338,0.74305038096569,0.612392,
-0.676601389160156,-0.0324653745117187,-0.038594530761717,0.678478428662516,0.61544799999956,
-0.676601389160156,-0.116262432617187,-0.0792959589843729,0.691081935925669,0.618400999999722,
-0.688572397460938,-0.092320416015625,-0.0290177241210916,0.695339509931349,0.621454999999514,
-0.698149204101563,-0.0659841977539062,-0.00986411083984251,0.701329826988367,0.624439999999595,
-0.669418784179688,-0.0492247861328126,0.0571735356445338,0.673656738525289,0.627392999999756,
-0.690966599121094,-0.0588015927734374,-0.0505655390624984,0.695305215106535,0.630428999999822,
-0.678995590820313,-0.0659841977539062,-0.0122583124999984,0.682304325746217,0.633390999999392,
-0.6742071875,-0.10189722265625,-0.040988732421873,0.683094760518092,0.636418000000049,
-0.678995590820313,-0.0588015927734374,-0.0912669672851543,0.687620752292678,0.639355000000251,
-0.726879624023438,-0.0731668027343749,0.0523851323242202,0.732428543225516,0.642347999999402,
-0.683783994140625,-0.0683783994140624,-0.0122583124999984,0.687303733712165,0.645403999999871,
-0.688572397460938,-0.0851378110351562,-0.0218351191406239,0.69415932309582,0.648347999999714,
-0.690966599121094,-0.0803494077148437,-0.0457771357421866,0.697127258524478,0.651372000000265,
-0.688572397460938,-0.0324653745117187,-0.000287304199217076,0.689337384472214,0.65430699999979,
-0.690966599121094,-0.0755610043945312,0.0236547124023456,0.695488211190469,0.657320999999683,
-0.695755002441406,-0.111474029296875,0.00928950244140836,0.704689844886054,0.660291999999572,
-0.705331809082031,-0.0971088193359375,-0.0146525141601543,0.712136068365424,0.66321599999992,
-0.700543405761719,-0.0564073911132812,0.0332315190429711,0.703595900347876,0.666309999999612,
-0.688572397460938,-0.0851378110351562,-0.0481713374023425,0.695486068271746,0.669350999999551,
-0.690966599121094,-0.0564073911132812,0.0236547124023456,0.693668638682775,0.672389000000294,
-0.705331809082031,-0.0851378110351562,0.0212605107421897,0.710769594937634,0.67535399999997,
-0.676601389160156,-0.0635899960937499,0.0452025273437524,0.681084720056851,0.678302999999687,
-0.695755002441406,-0.0420421811523437,-0.0170467158203103,0.697232499915592,0.681325999999899,
-0.702937607421875,-0.0851378110351562,-0.0625365473632797,0.710830884635697,0.684293999999682,
-0.681389792480469,-0.0252827695312499,-0.0218351191406239,0.682208208804051,0.687351999999919,
-0.707726010742188,-0.0588015927734374,-0.0194409174804662,0.710430631987548,0.690343000000212,
-0.714908615722656,-0.0899262143554688,0.0188663090820338,0.720789144258686,0.693336999999701,
-0.652659372558594,-0.0468305844726562,-0.0577481440429679,0.656880665243722,0.696455000000242,
-0.657447775878906,-0.0564073911132812,0.0547793339843761,0.662133028335016,0.699472000000242,
-0.652659372558594,-0.0851378110351562,-0.0457771357421866,0.659778939958827,0.702538999999888,
-0.676601389160156,-0.0683783994140624,0.00689530078125244,0.680082782088141,0.705516999999418,
-0.676601389160156,-0.0659841977539062,-0.0601423457031238,0.682466450393976,0.708529999999882,
-0.664630380859375,-0.0324653745117187,0.0140779057617202,0.665571732523325,0.7115960000001,
-0.710120212402344,-0.0635899960937499,-0.0266235224609357,0.713458629223714,0.714522999999645,
-0.724485422363281,-0.0995030209960938,-0.00268150585937299,0.731291439084258,0.717583999999988,
-0.683783994140625,-0.0995030209960938,-0.0577481440429679,0.693394728831034,0.720580999999584,
-0.724485422363281,-0.0971088193359375,-0.0362003291015611,0.731860446968398,0.723560999999791,
-0.676601389160156,-0.092320416015625,-0.0362003291015611,0.683829629991135,0.726587999999538,
-0.69336080078125,-0.0851378110351562,0.0212605107421897,0.698891734279991,0.729526000000078,
-0.707726010742188,-0.0564073911132812,-0.000287304199217076,0.709970409662938,0.732562999999573,
-0.705331809082031,-0.0683783994140624,0.0212605107421897,0.708957386396657,0.735563000000184,
-0.695755002441406,-0.0516189877929687,-0.0481713374023425,0.699328264172229,0.738515000000007,
-0.707726010742188,-0.0779552060546874,0.00928950244140836,0.712067001965186,0.741681999999855,
-0.65505357421875,-0.0420421811523437,0.0260489140625015,0.656918013161948,0.744666999999936,
-0.69336080078125,-0.0707726010742187,0.00450109912109475,0.696977920034864,0.747781000000032,
-0.681389792480469,-0.0659841977539062,-0.0074699091796866,0.684617968792053,0.750750000000153,
-0.657447775878906,-0.0875320126953125,0.0236547124023456,0.663670834581007,0.753811999999925,
-0.690966599121094,-0.0181001645507812,-0.0074699091796866,0.691243992090267,0.756803999999647,
-0.73166802734375,-0.0468305844726562,-0.0050757075195289,0.733182766222699,0.759774000000107,
-0.702937607421875,-0.0540131894531251,-0.0146525141601543,0.705161967730891,0.762864000000263,
-0.671812985839844,-0.0611957944335937,0.035625720703127,0.675534458910145,0.76585999999952,
-0.69336080078125,-0.0875320126953125,0.0188663090820338,0.699118724484538,0.768892000000051,
-0.707726010742188,-0.0635899960937499,0.0332315190429711,0.711353728985909,0.771856000000298,
-0.688572397460938,-0.0635899960937499,-0.0194409174804662,0.691775674204282,0.774852999999894,
-0.6742071875,-0.0659841977539062,-0.0242293208007798,0.677861568475713,0.777880999999979,
-0.688572397460938,-0.0971088193359375,-0.0074699091796866,0.695426393575248,0.780861999999615,
-0.69336080078125,-0.0971088193359375,-0.0912669672851543,0.706051685197525,0.783954999999878,
-0.7125144140625,-0.0348595761718749,0.0236547124023456,0.713758730746286,0.786925999999767,
-0.710120212402344,-0.0899262143554688,-0.0673249506835916,0.718950686121937,0.789880000000267,
-0.690966599121094,-0.0995030209960938,-0.0457771357421866,0.69959362378818,0.792913999999655,
-0.678995590820313,-0.0683783994140624,0.00689530078125244,0.682464770543299,0.795895000000201,
-0.695755002441406,-0.111474029296875,-0.0074699091796866,0.704668207153604,0.798948999999993,
-0.7125144140625,-0.0827436093749999,-0.0362003291015611,0.718215677193343,0.801891000000069,
-0.690966599121094,-0.0851378110351562,-0.00268150585937299,0.696197154865274,0.804857999999513,
-0.678995590820313,-0.0588015927734374,-0.0673249506835916,0.684854209778013,0.807945999999902,
-0.686178195800781,-0.0324653745117187,0.0811155522460947,0.69171833122362,0.810964999999669,
-0.695755002441406,-0.0372537778320312,0.00450109912109475,0.696766192691851,0.814048999999613,
-0.678995590820313,-0.0947146176757813,0.00689530078125244,0.685604416794232,0.817050999999992,
-0.700543405761719,-0.10189722265625,-0.0290177241210916,0.708509799264946,0.819993000000068,
-0.6742071875,-0.116262432617187,-0.0745075556640611,0.688203211824647,0.823038999999881,
-0.667024582519531,-0.0420421811523437,-0.0146525141601543,0.668508814341752,0.826039999999921,
-0.671812985839844,-0.0396479794921876,-0.0553539423828102,0.675254551379092,0.829114000000118,
-0.700543405761719,-0.0540131894531251,0.0212605107421897,0.702944163720097,0.832171999999446,
-0.702937607421875,-0.0611957944335937,0.0452025273437524,0.707042766501865,0.835138999999799,
-0.671812985839844,-0.0683783994140624,-0.0194409174804662,0.675563648164966,0.838254000000234,
-0.705331809082031,-0.0611957944335937,-0.0050757075195289,0.707999752094669,0.841233999999531,
-0.683783994140625,-0.0635899960937499,-0.0266235224609357,0.687250354815723,0.844309999999496,
-0.724485422363281,-0.0468305844726562,-0.0050757075195289,0.726015146994728,0.847350000000006,
-0.671812985839844,-0.0635899960937499,-0.00268150585937299,0.674821136316819,0.850500999999895,
-0.698149204101563,-0.0492247861328126,-0.0697191523437475,0.703346394716712,0.853454999999485,
-0.688572397460938,-0.0372537778320312,0.0212605107421897,0.689907095067793,0.856450999999652,
-0.657447775878906,-0.109079827636719,-0.0122583124999984,0.666548012547277,0.85953999999947,
-0.695755002441406,-0.0635899960937499,0.0571735356445338,0.7009903880964,0.862557999999808,
-0.686178195800781,-0.0851378110351562,0.0499909306640642,0.693244586281734,0.865592000000106,
-0.714908615722656,-0.0851378110351562,-0.0290177241210916,0.720544796675065,0.868535999999949,
-0.690966599121094,-0.0420421811523437,-0.0074699091796866,0.692284757625191,0.871473000000151,
-0.7125144140625,-0.0468305844726562,0.0164721074218761,0.714241712735819,0.874547999999777,
-0.700543405761719,-0.0252827695312499,0.0140779057617202,0.701140834085446,0.8774999999996,
-0.698149204101563,-0.0588015927734374,0.0739329472656269,0.704511191672439,0.880591000000095,
-0.690966599121094,-0.0995030209960938,-0.0625365473632797,0.700889800214298,0.88360399999965,
-0.683783994140625,-0.0803494077148437,-0.00986411083984251,0.688559277510436,0.886566999999559,
-0.678995590820313,-0.0779552060546874,-0.0242293208007798,0.683885287523369,0.889658999999483,
-0.700543405761719,-0.0779552060546874,0.0475967290039083,0.706472594032584,0.892628999999943,
-0.640688364257813,-0.0827436093749999,-0.0481713374023425,0.64780287336109,0.895682999999735,
-0.667024582519531,-0.0564073911132812,-0.040988732421873,0.670659126265433,0.898645000000215,
-0.6742071875,-0.0875320126953125,-0.0074699091796866,0.679906599810816,0.901613999999427,
-0.681389792480469,-0.0635899960937499,-0.0457771357421866,0.685879933411481,0.904693999999836,
-0.717302817382813,-0.0683783994140624,-0.0457771357421866,0.722007259997092,0.90766799999983,
-0.671812985839844,-0.0971088193359375,-0.0266235224609357,0.679317026640797,0.910702000000128,
-0.695755002441406,-0.0899262143554688,0.0499909306640642,0.703321292581994,0.913689999999406,
-0.700543405761719,-0.0659841977539062,-0.0984495722656238,0.7104979211713,0.916647000000012,
-0.698149204101563,-0.10189722265625,0.0140779057617202,0.705686575331668,0.919684999999845,
-0.698149204101563,-0.109079827636719,-0.00986411083984251,0.706688064613774,0.9226979999994,
-0.681389792480469,-0.0372537778320312,0.0164721074218761,0.682606199490052,0.925774999999703,
-0.738850632324219,-0.0348595761718749,0.00928950244140836,0.73973085767216,0.928758000000016,
-0.698149204101563,-0.10189722265625,-0.0242293208007798,0.705962049376006,0.931690999999773,
-0.705331809082031,-0.109079827636719,-0.0122583124999984,0.713821851672765,0.934723999999733,
-0.702937607421875,-0.0276769711914062,-0.0840843623046865,0.708489572715439,0.937675000000127,
-0.698149204101563,-0.0731668027343749,-0.0481713374023425,0.703623599630617,0.940719999999601,
-0.6742071875,-0.0300711728515624,-0.0601423457031238,0.677551997163319,0.943661999999676,
-0.681389792480469,-0.109079827636719,-0.0553539423828102,0.692282107981387,0.946718000000146,
-0.700543405761719,-0.0468305844726562,-0.0505655390624984,0.703925451123171,0.949705999999424,
-0.667024582519531,-0.0803494077148437,-0.0146525141601543,0.67200633715516,0.952701000000161,
-0.686178195800781,-0.0588015927734374,0.0595677373046897,0.691264391555582,0.955726000000141,
-0.7125144140625,-0.0468305844726562,0.0667503422851574,0.717164905781135,0.958717999999863,
-0.702937607421875,-0.0947146176757813,-0.0218351191406239,0.709625895213347,0.961720000000241,
-0.681389792480469,-0.0947146176757813,-0.0146525141601543,0.688097089275387,0.964726999999584,
-0.702937607421875,-0.106685625976563,-0.0074699091796866,0.7110266536925,0.967681999999513,
-0.705331809082031,-0.0683783994140624,0.00928950244140836,0.708699415312987,0.970774999999776,
-0.695755002441406,-0.0372537778320312,-0.0146525141601543,0.696905706359342,0.973774999999478,
-0.688572397460938,-0.0372537778320312,0.0380199223632829,0.690626747964754,0.97692300000017,
-0.6742071875,-0.0875320126953125,0.0332315190429711,0.680677250083368,0.97992400000021,
-0.676601389160156,-0.0851378110351562,0.00928950244140836,0.682000133091571,0.982920999999806,
-0.657447775878906,-0.0731668027343749,-0.0266235224609357,0.662042121755647,0.985960999999406,
-0.681389792480469,-0.0875320126953125,0.0260489140625015,0.687482689576184,0.98904500000026,
-0.678995590820313,-0.0611957944335937,0.00928950244140836,0.681810994679165,0.992134999999507,
-0.645476767578125,-0.0899262143554688,0.0140779057617202,0.651862845192182,0.995108999999502,
-0.69336080078125,-0.0899262143554688,-0.038594530761717,0.70023243419099,0.998061999999663,
-0.698149204101563,-0.0779552060546874,-0.0266235224609357,0.702992273988059,1.00115699999969,
-0.678995590820313,-0.0803494077148437,-0.0457771357421866,0.685263880436077,1.00417000000016,
-0.681389792480469,-0.0731668027343749,-0.0290177241210916,0.685920883653585,1.00719800000024,
-0.690966599121094,-0.0683783994140624,-0.0362003291015611,0.695284769310001,1.01014899999973,
-0.741244833984375,-0.0875320126953125,-0.0266235224609357,0.746869847499043,1.01309299999957,
-0.714908615722656,-0.0659841977539062,-0.000287304199217076,0.717947300107337,1.01617299999998,
-0.719697019042969,-0.0755610043945312,-0.0266235224609357,0.724142304076121,1.01915899999949,
