X,Y,Z,Magnitude,Seconds,
-0.052097828125,0.712131341796875,-0.0773805976562532,0.718215140858502,0.0,
-0.042521021484375,0.676218316894531,-0.0773805976562532,0.681958214457005,0.00374699999997574,
-0.03294421484375,0.683400921875,-0.0678037910156277,0.687545995106773,0.00758699999983037,
-0.0449152231445312,0.6450936953125,-0.0965342109375023,0.653821158179655,0.0113579999999729,
-0.0401268198242187,0.681006720214844,-0.0797747993164091,0.686836467620173,0.015121999999792,
-0.042521021484375,0.688189325195312,-0.0654095893554718,0.692597284834777,0.018858999999793,
-0.0401268198242187,0.681006720214844,-0.0462559760742209,0.683754290640697,0.0226219999999557,
-0.00181959326171871,0.654670501953125,-0.0917458076171904,0.661070397357593,0.026341999999886,
-0.0113963999023437,0.695371930175781,-0.0797747993164091,0.700025726536603,0.0301469999999426,
-0.0281558115234375,0.681006720214844,-0.0462559760742209,0.683156291065888,0.0338789999998426,
-0.0473094248046875,0.678612518554687,-0.0582269843750023,0.682747034943319,0.0375990000000002,
-0.061674634765625,0.683400921875,-0.0678037910156277,0.689520075609959,0.0413069999999607,
-0.0257616098632812,0.731284955078125,-0.0462559760742209,0.73319912806068,0.0451579999999012,
-0.0305500131835937,0.671429913574219,-0.0582269843750023,0.674641989396752,0.0491189999997914,
-0.0664630380859375,0.647487896972656,-0.0749863959960955,0.655195292826627,0.0529389999999239,
0.00296881005859378,0.6450936953125,-0.0127371528320328,0.645226258476333,0.0567399999999907,
-0.0233674082031249,0.685795123535156,-0.0486501777343769,0.687915566784412,0.0605359999999564,
-0.0544920297851562,0.692977728515625,-0.0558327827148464,0.697355585877438,0.0643369999997958,
-0.0209732065429687,0.666641510253906,-0.0941400092773463,0.673582303755853,0.0681659999997919,
-0.03294421484375,0.697766131835937,-0.0223139594726582,0.698899712989142,0.0719309999999496,
-0.0640688364257812,0.673824115234375,-0.0294965644531278,0.677505572956326,0.0757749999997941,
-0.0353384165039062,0.700160333496094,-0.11089942089844,0.709768960886551,0.0795639999998912,
-0.0712514414062499,0.707342938476562,-0.082169000976565,0.715655325723643,0.0833229999998366,
-0.0353384165039062,0.716919745117187,-0.0917458076171904,0.723629751900257,0.0870589999999538,
-0.0640688364257812,0.690583526855469,-0.122870429199221,0.704349036867867,0.0907799999999952,
-0.0377326181640625,0.692977728515625,-0.0127371528320328,0.694121111733721,0.094508999999789,
-0.042521021484375,0.692977728515625,-0.0606211860351582,0.69692259088299,0.0982299999998304,
-0.0449152231445312,0.678612518554687,-0.043861774414065,0.681510222127306,0.102068999999801,
-0.0113963999023437,0.692977728515625,-0.0725921943359396,0.69686271017175,0.105799999999817,
-0.0497036264648437,0.685795123535156,-0.120476227539065,0.698068709619907,0.109520999999859,
-0.042521021484375,0.66424730859375,-0.0965342109375023,0.672570723510503,0.11324599999989,
-0.0161848032226562,0.688189325195312,-0.101322614257814,0.695796498502381,0.117176999999856,
0.0125456166992188,0.700160333496094,-0.0893516059570327,0.70595013604845,0.121077999999898,
-0.0640688364257812,0.695371930175781,-0.0151313544921905,0.69848113429506,0.124910999999884,
-0.0209732065429687,0.709737140136719,-0.0127371528320328,0.710161191944765,0.12869499999988,
-0.00900219824218745,0.666641510253906,-0.0558327827148464,0.669036054628212,0.132432999999992,
-0.0377326181640625,0.700160333496094,-0.0893516059570327,0.706846484437729,0.136241999999811,
-0.0449152231445312,0.683400921875,-0.0606211860351582,0.687552998310699,0.140026999999918,
-0.0353384165039062,0.652276300292969,-0.043861774414065,0.654703773365968,0.143773999999894,
0.0101514150390625,0.716919745117187,-0.0127371528320328,0.717104739371073,0.14760299999989,
-0.0568862314453125,0.688189325195312,-0.043861774414065,0.691928064104629,0.151393999999982,
-0.0353384165039062,0.700160333496094,-0.0558327827148464,0.703271352969853,0.155129999999872,
-0.0568862314453125,0.700160333496094,-0.0989284125976582,0.709399299935166,0.158864999999878,
-0.0233674082031249,0.669035711914063,-0.0606211860351582,0.672182823180418,0.162590999999793,
-0.061674634765625,0.692977728515625,-0.113293622558595,0.704881080540965,0.166313999999829,
-0.0401268198242187,0.74086176171875,-0.0390733710937532,0.742975800396517,0.170041999999967,
-0.0784340463867187,0.695371930175781,-0.0845632026367209,0.704872297759789,0.173880999999938,
-0.0473094248046875,0.695371930175781,-0.0247081611328142,0.69741723249308,0.177581999999802,
-0.0736456430664062,0.704948736816406,-0.0366791694335955,0.709733586461885,0.181280999999899,
-0.0257616098632812,0.690583526855469,-0.0199197578125023,0.69135089850104,0.1850629999999,
-0.0544920297851562,0.688189325195312,-0.0654095893554718,0.693435175775312,0.189071999999896,
-0.0257616098632812,0.688189325195312,-0.0701979926757836,0.692239818293658,0.192868999999973,
-0.0401268198242187,0.704948736816406,-0.101322614257814,0.713322616610668,0.19678399999998,
-0.0664630380859375,0.669035711914063,-0.0917458076171904,0.678559807580216,0.200574999999844,
-0.0544920297851562,0.695371930175781,-0.0390733710937532,0.69859733102491,0.204388999999992,
-0.0449152231445312,0.712131341796875,-0.118082025878909,0.723250848651564,0.208220999999867,
-0.0281558115234375,0.719313946777344,-0.0845632026367209,0.724814623880563,0.212018999999827,
-0.0233674082031249,0.724102350097656,-0.0558327827148464,0.726627517238897,0.21579799999995,
-0.0688572397460937,0.659458905273438,-0.0366791694335955,0.664057775107129,0.219594999999799,
-0.0185790048828124,0.716919745117187,-0.0654095893554718,0.720137149951994,0.223494999999957,
-0.0473094248046875,0.681006720214844,-0.082169000976565,0.687575508125919,0.227229999999963,
-0.0449152231445312,0.681006720214844,-0.0797747993164091,0.68713284658345,0.230966999999964,
-0.0257616098632812,0.681006720214844,-0.137235639160158,0.695174391197075,0.234719999999925,
-0.0305500131835937,0.681006720214844,-0.0294965644531278,0.682329468510509,0.23845799999981,
-0.0257616098632812,0.685795123535156,-0.0630153876953141,0.689165837149331,0.242203999999901,
-0.0449152231445312,0.70255453515625,-0.0701979926757836,0.707480042343561,0.246011999999837,
-0.0449152231445312,0.685795123535156,-0.0606211860351582,0.689932791604394,0.249770999999782,
-0.0568862314453125,0.690583526855469,-0.0606211860351582,0.695569248233774,0.25349099999994,
-0.0257616098632812,0.695371930175781,-0.00794874951172098,0.695894362987616,0.257378999999901,
-0.0401268198242187,0.676218316894531,-0.103716815917972,0.685301796055607,0.261294999999791,
-0.03294421484375,0.700160333496094,0.00402225878906037,0.700946497572246,0.265100999999959,
-0.0233674082031249,0.697766131835937,-0.0486501777343769,0.699850305634716,0.268942999999808,
-0.0592804331054687,0.678612518554687,-0.0558327827148464,0.683481104138213,0.272723999999926,
-0.052097828125,0.685795123535156,-0.0223139594726582,0.688133016172956,0.276503999999932,
-0.0664630380859375,0.700160333496094,-0.0893516059570327,0.708960885747637,0.280298999999786,
-0.03294421484375,0.776774786621094,-0.0534385810546905,0.779307431227918,0.284045999999989,
-0.0377326181640625,0.707342938476562,-0.0366791694335955,0.709297641724905,0.287785999999869,
-0.0185790048828124,0.582844452148437,0.0423294853515603,0.584674798629782,0.29157599999985,
-0.0257616098632812,0.508624200683594,-0.134841437500002,0.526824877289256,0.295454999999947,
0.0197282216796875,1.15027024560547,-0.142024042480472,1.15917283840608,0.299197999999933,
-0.0353384165039062,0.748044366699219,0.140491753417967,0.761942984093885,0.302793999999949,
-0.111952869628906,0.197377984863281,-0.0893516059570327,0.243875426014876,0.305745999999999,
-0.123923877929687,0.228502606445312,-0.199484882324221,0.327665663366398,0.308677999999873,
0.0652180532226563,0.980281927734375,-0.158783454101565,0.995197587218337,0.311717999999928,
0.108313683105469,1.756003265625,0.293720659667967,1.7836903175017,0.314685999999938,
-0.042521021484375,0.582844452148437,-0.16836026074219,0.6081618781751,0.317696999999953,
-0.303489002441406,-0.817763519042969,-0.546644123046878,1.02939911839,0.320633999999927,
-0.14786589453125,0.0656968935546874,0.111761333496091,0.196649434916775,0.323559999999816,
0.2160527578125,2.17020015283203,0.315268474609372,2.20359744703816,0.326601999999866,
0.180139732910156,0.836629828125,-0.371867401855472,0.933105115860024,0.329547999999932,
-0.207720936035156,-0.611862176269531,-0.151600849121095,0.663706356358628,0.332540999999992,
-0.176596314453125,0.9515515078125,0.0878193168945298,0.971776086718793,0.33549499999981,
-0.0353384165039062,1.59559175439453,-0.216244293945314,1.61056618772304,0.338419999999815,
-0.0257616098632812,0.317088067871094,0.0231758720703095,0.318975899364185,0.341449999999895,
0.146620909667969,0.113580926757812,-0.132447235839846,0.227904779143927,0.344430999999986,
0.134649901367188,1.08562680078125,-0.108505219238284,1.09931320792333,0.34756799999991,
-0.380103455566406,1.04731957421875,-0.043861774414065,1.11502501439655,0.35063799999989,
-0.119135474609375,0.197377984863281,-0.000766144531251456,0.230546995635453,0.353659999999991,
0.462655528808594,0.77916898828125,-0.230609503906253,0.93505892537758,0.35673399999996,
0.134649901367188,1.09999201074219,0.0207816704101536,1.10839744562132,0.359707999999955,
-0.413622278808594,0.4918647890625,0.0926077202148416,0.649300046272678,0.362752,
-0.104770264648437,0.314693866210938,-0.142024042480472,0.360804471185968,0.365681999999879,
0.0891600698242188,1.01380075097656,-0.149206647460939,1.02859326479335,0.368760999999949,
0.0915542714843751,0.994647137695312,-0.0462559760742209,0.999922361223656,0.371728999999959,
0.0556412465820313,0.221320001464844,0.106972930175779,0.252035114934393,0.374695999999858,
-0.2436339609375,0.4918647890625,-0.113293622558595,0.560467592777711,0.377737999999908,
-0.152654297851562,1.35377738671875,-0.16836026074219,1.3727205559912,0.380680999999868,
0.184928136230469,0.642699493652344,0.068665703613279,0.672291628360312,0.383745999999974,
0.00536301171875003,-0.171329070800781,0.0782425102539044,0.18842585493235,0.386724999999842,
-0.198144129394531,1.08083839746094,-0.204273285644534,1.11767630048573,0.389693999999963,
0.0197282216796875,1.47109326806641,-0.106111017578128,1.4750471701381,0.392745999999988,
0.0221224233398438,0.475105377441406,0.0638773002929671,0.479890436225693,0.395714999999882,
-0.102376062988281,0.218925799804687,-0.180331269042972,0.301543911707319,0.398750999999947,
-0.0736456430664062,1.18378906884766,-0.235397907226565,1.20921148480839,0.401689999999917,
-0.0305500131835937,1.22688469873047,0.00402225878906037,1.22727158601926,0.404624999999896,
-0.0401268198242187,0.118369330078125,-0.0366791694335955,0.130256752004216,0.407639999999901,
-0.0712514414062499,0.527777813964844,-0.113293622558595,0.544482904900078,0.41058699999985,
-0.0856166513671875,1.12153982568359,-0.0414675727539091,1.12556712424263,0.413601999999855,
-0.123923877929687,0.582844452148437,-0.0510443793945328,0.598055441902436,0.416539999999941,
0.0508528432617188,0.487076385742188,-0.0199197578125023,0.49012877284116,0.41949899999986,
0.053247044921875,0.937186297851562,-0.082169000976565,0.942287190507818,0.422551999999996,
-0.0975876596679687,0.77916898828125,-0.0558327827148464,0.787238822241625,0.425487999999859,
-0.155048499511719,0.381731512695312,-0.000766144531251456,0.412018897579868,0.428520999999819,
0.000574608398437537,0.709737140136719,-0.0534385810546905,0.711746317313549,0.431494999999813,
0.0915542714843751,1.05210797753906,-0.0582269843750023,1.05768793258587,0.43445399999996,
-0.00421379492187496,0.58763285546875,-0.0678037910156277,0.591546687058673,0.437478999999939,
-0.14786589453125,0.384125714355469,-0.0797747993164091,0.419262335299272,0.440433999999868,
-0.0592804331054687,0.827053021484375,-0.0271023627929718,0.829617627684325,0.443475999999919,
-0.0113963999023437,0.8749370546875,0.00402225878906037,0.875020517566153,0.446440999999822,
-0.0497036264648437,0.578056048828125,-0.082169000976565,0.58597866069681,0.449374999999918,
-0.0832224497070312,0.599603863769531,-0.0582269843750023,0.608145666178751,0.452411999999867,
-0.0257616098632812,0.783957391601563,-0.0342849677734396,0.785129487030451,0.455345999999963,
-0.0401268198242187,0.671429913574219,-0.0223139594726582,0.672997922209895,0.458384999999907,
-0.0736456430664062,0.633122687011719,-0.101322614257814,0.645394677473901,0.461326999999983,
-0.0473094248046875,0.750438568359375,-0.115687824218753,0.760775853473997,0.464344999999867,
-0.0233674082031249,0.654670501953125,-0.0606211860351582,0.657886335235805,0.467295999999806,
0.00296881005859378,0.60678646875,-0.0534385810546905,0.609142277662943,0.470255999999836,
-0.00421379492187496,0.831841424804687,-0.0390733710937532,0.832769260009858,0.473285999999916,
-0.12871228125,0.771986383300781,-0.00555454785156506,0.78266255841725,0.476233999999977,
-0.107164466308594,0.527777813964844,-0.0151313544921905,0.538760245045496,0.479243999999881,
0.0915542714843751,0.580450250488281,-0.151600849121095,0.606866950305568,0.48222399999986,
0.0197282216796875,0.846206634765625,-0.0797747993164091,0.850187561693289,0.485234999999875,
-0.126318079589844,0.738467560058594,0.00402225878906037,0.749204093058711,0.48839299999986,
-0.0951934580078125,0.561296637207031,-0.0989284125976582,0.577843006539405,0.491442000000006,
0.014939818359375,0.669035711914063,0.0590888969726535,0.671806132551953,0.494587999999794,
-0.00660799658203121,0.707342938476562,-0.0606211860351582,0.709966637545593,0.497528999999986,
-0.03294421484375,0.671429913574219,-0.0510443793945328,0.674172810784985,0.500468999999839,
-0.0473094248046875,0.757621173339844,-0.043861774414065,0.760362991749955,0.50350299999991,
-0.0856166513671875,0.707342938476562,-0.127658832519533,0.72385151869996,0.506467999999813,
0.014939818359375,0.652276300292969,-0.0558327827148464,0.654831940059568,0.509544999999889,
0.0125456166992188,0.726496551757812,-0.0701979926757836,0.729987938523689,0.512514999999894,
-0.061674634765625,0.707342938476562,-0.0701979926757836,0.713488297985216,0.515449999999873,
-0.116741272949219,0.60678646875,-0.0462559760742209,0.619643412609605,0.518480999999838,
-0.0401268198242187,0.716919745117187,-0.170754462402346,0.738065829745838,0.521441999999979,
0.00775721337890628,0.762409576660156,-0.0294965644531278,0.763019386553882,0.524496999999883,
-0.0233674082031249,0.640305291992187,-0.00794874951172098,0.640780840333208,0.527486999999837,
-0.0904050546875,0.570873443847656,-0.0606211860351582,0.581157888185166,0.530438000000004,
-0.0353384165039062,0.781563189941406,-0.0678037910156277,0.78529432547834,0.533461999999872,
0.0388818349609376,0.752832770019531,-0.0606211860351582,0.756269730256024,0.536427000000003,
-0.0856166513671875,0.604392267089844,0.0183874687499976,0.610703137798033,0.539476999999806,
-0.0975876596679687,0.62594008203125,-0.0127371528320328,0.633629681024355,0.542411999999786,
-0.061674634765625,0.788745794921875,-0.106111017578128,0.798237582197105,0.545337999999902,
-0.0497036264648437,0.695371930175781,-0.0845632026367209,0.702256012434445,0.54834599999981,
0.0125456166992188,0.628334283691406,0.0112048637695281,0.628559395389529,0.551301999999851,
-0.0401268198242187,0.704948736816406,-0.0199197578125023,0.706370780794025,0.554305999999997,
-0.0784340463867187,0.712131341796875,-0.0510443793945328,0.718253768712552,0.557243999999855,
-0.0161848032226562,0.681006720214844,-0.113293622558595,0.690555968582985,0.560248000000001,
0.00775721337890628,0.659458905273438,-0.0486501777343769,0.661296500744888,0.563205999999809,
-0.052097828125,0.695371930175781,-0.0749863959960955,0.701341047248924,0.566147000000001,
-0.0473094248046875,0.760015375,-0.0486501777343769,0.763038918866743,0.569176999999854,
0.000574608398437537,0.700160333496094,-0.0678037910156277,0.703435979213648,0.572161999999935,
-0.102376062988281,0.604392267089844,-0.0606211860351582,0.615991719901567,0.575185999999803,
-0.10955866796875,0.709737140136719,-0.144418244140628,0.732520674832593,0.578141999999843,
0.053247044921875,0.795928399902344,-0.0486501777343769,0.799189655437058,0.581109999999853,
0.0293050283203126,0.654670501953125,-0.043861774414065,0.656792285328597,0.584182999999939,
-0.102376062988281,0.611574872070312,-0.0965342109375023,0.627553612293106,0.587138999999979,
-0.121529676269531,0.755226971679688,-0.0773805976562532,0.768846537262338,0.590185999999903,
0.0867658681640626,0.762409576660156,-0.0893516059570327,0.772515623109645,0.593157999999903,
0.0628238515625,0.628334283691406,-0.0701979926757836,0.635357038650591,0.596124999999802,
-0.145471692871094,0.640305291992187,-0.101322614257814,0.66439382337588,0.599154999999882,
-0.135894886230469,0.733679156738281,-0.115687824218753,0.755073637341588,0.602109999999811,
0.04367023828125,0.709737140136719,-0.0486501777343769,0.712741704683103,0.605153999999857,
0.0771890615234376,0.630728485351562,-0.0510443793945328,0.637481060205335,0.608129999999846,
-0.0927992563476562,0.681006720214844,-0.106111017578128,0.695443314014825,0.611060999999836,
-0.119135474609375,0.738467560058594,-0.0510443793945328,0.749755378264849,0.614086999999927,
-0.0449152231445312,0.678612518554687,-0.00555454785156506,0.6801199751596,0.61702699999978,
0.0388818349609376,0.676218316894531,0.0159932670898417,0.677524017128404,0.620101999999861,
-0.042521021484375,0.695371930175781,-0.0175255561523464,0.696891170601921,0.623046999999815,
-0.107164466308594,0.726496551757812,-0.0414675727539091,0.735527716775716,0.625980999999911,
-0.0473094248046875,0.728890753417969,-0.0462559760742209,0.73188764671645,0.629000999999789,
0.00296881005859378,0.690583526855469,-0.0582269843750023,0.693040260812248,0.631959999999935,
0.0269108266601563,0.731284955078125,-0.0390733710937532,0.732822356675735,0.635001999999986,
-0.123923877929687,0.690583526855469,0.00402225878906037,0.701625907197729,0.637961999999789,
-0.131106482910156,0.678612518554687,-0.11089942089844,0.700001815537514,0.640891999999894,
0.0364876333007813,0.683400921875,-0.0247081611328142,0.68482016663505,0.643933999999945,
0.0269108266601563,0.688189325195312,-0.0510443793945328,0.690604277840853,0.646904999999833,
-0.111952869628906,0.678612518554687,-0.0941400092773463,0.694197908887676,0.649934999999914,
-0.119135474609375,0.695371930175781,-0.101322614257814,0.712742348080167,0.652876999999989,
-0.0568862314453125,0.719313946777344,-0.0893516059570327,0.727071046627185,0.655873999999812,
0.0747948598632813,0.66424730859375,-0.0342849677734396,0.669323701247187,0.658837999999832,
-0.00900219824218745,0.683400921875,-0.0678037910156277,0.686815268954384,0.661769999999933,
-0.114347071289062,0.683400921875,-0.082169000976565,0.697756273675467,0.664783999999827,
-0.0544920297851562,0.688189325195312,-0.0630153876953141,0.693213435897831,0.667732999999998,
0.0197282216796875,0.66424730859375,-0.0606211860351582,0.667299496403971,0.670770999999831,
0.00296881005859378,0.690583526855469,-0.0725921943359396,0.694394735057668,0.673745999999937,
-0.0880108530273437,0.714525543457031,-0.0965342109375023,0.726368719304798,0.676673999999821,
-0.0209732065429687,0.678612518554687,-0.0175255561523464,0.67916269836489,0.679692999999816,
0.0245166250000001,0.654670501953125,-0.0534385810546905,0.657305266199873,0.682655999999952,
-0.0377326181640625,0.671429913574219,-0.0869574042968768,0.678088098610976,0.685677999999825,
-0.042521021484375,0.678612518554687,-0.0678037910156277,0.683315696939052,0.6886149999998,
-0.0353384165039062,0.681006720214844,-0.101322614257814,0.689409333283804,0.691539999999804,
-0.0473094248046875,0.637911090332031,-0.0941400092773463,0.646553232294674,0.694556999999804,
-0.0233674082031249,0.676218316894531,-0.0271023627929718,0.677164519107998,0.697497999999996,
-0.0353384165039062,0.731284955078125,-0.163571857421877,0.750188137566212,0.700513000000001,
-0.03294421484375,0.690583526855469,-0.120476227539065,0.701787325518104,0.703453999999965,
-0.0281558115234375,0.681006720214844,-0.0941400092773463,0.68805904110553,0.706372999999985,
-0.0185790048828124,0.683400921875,-0.00316034619140915,0.683660725235906,0.709393999999975,
-0.0975876596679687,0.683400921875,-0.0725921943359396,0.694139609889522,0.712419999999838,
-0.0568862314453125,0.683400921875,-0.0630153876953141,0.688653615712602,0.715543999999909,
-0.0185790048828124,0.688189325195312,-0.0390733710937532,0.6895480078021,0.718586999999843,
-0.03294421484375,0.714525543457031,-0.0654095893554718,0.718269091583293,0.721573999999919,
-0.052097828125,0.700160333496094,-0.137235639160158,0.715382622763791,0.724590999999918,
-0.0880108530273437,0.70255453515625,-0.106111017578128,0.715952745068193,0.727531999999883,
-0.0305500131835937,0.673824115234375,-0.0247081611328142,0.674968691720935,0.730547999999999,
-0.0544920297851562,0.678612518554687,-0.0989284125976582,0.687947063710817,0.733521999999994,
-0.0904050546875,0.685795123535156,-0.0606211860351582,0.694379545762949,0.736449999999877,
-0.0688572397460937,0.685795123535156,-0.0510443793945328,0.691130812218515,0.739472999999862,
-0.03294421484375,0.700160333496094,-0.0294965644531278,0.701555315857253,0.742420999999922,
-0.0137906015624999,0.731284955078125,-0.0845632026367209,0.736287173224721,0.745432999999821,
-0.0927992563476562,0.7217081484375,-0.108505219238284,0.735695409868589,0.748390999999856,
-0.0209732065429687,0.688189325195312,-0.108505219238284,0.697006316547721,0.751395000000002,
-0.042521021484375,0.704948736816406,-0.0175255561523464,0.706447382276678,0.754374999999982,
-0.0401268198242187,0.707342938476562,-0.113293622558595,0.717481455644892,0.757322999999815,
-0.00181959326171871,0.652276300292969,-0.0725921943359396,0.656305804882166,0.76034199999981,
-0.0401268198242187,0.700160333496094,-0.108505219238284,0.70965346252415,0.763292999999976,
-0.0401268198242187,0.712131341796875,-0.101322614257814,0.720421738843756,0.766296999999895,
-0.052097828125,0.649882098632813,-0.043861774414065,0.653440724988488,0.769243999999844,
-0.00900219824218745,0.66424730859375,-0.0630153876953141,0.667290390784719,0.772172999999839,
-0.052097828125,0.70255453515625,-0.0558327827148464,0.706692548559584,0.775192999999945,
-0.0281558115234375,0.712131341796875,-0.0366791694335955,0.71363096847201,0.778134999999793,
-0.0401268198242187,0.678612518554687,-0.0534385810546905,0.68189500214731,0.781162999999879,
-0.0185790048828124,0.695371930175781,-0.0414675727539091,0.69685497794658,0.784118999999919,
-0.099981861328125,0.688189325195312,0.0183874687499976,0.695657256782712,0.787069999999858,
-0.0832224497070312,0.671429913574219,-0.0462559760742209,0.678147270362494,0.790091999999959,
-0.0497036264648437,0.704948736816406,-0.0127371528320328,0.706813558928428,0.793039999999792,
-0.0353384165039062,0.678612518554687,-0.0151313544921905,0.679700457487641,0.796068999999989,
-0.0688572397460937,0.695371930175781,-0.0462559760742209,0.700302117706652,0.799022999999806,
-0.0209732065429687,0.724102350097656,-0.00794874951172098,0.7244496334656,0.801946999999927,
-0.0640688364257812,0.714525543457031,-0.0917458076171904,0.723234997264962,0.804961999999932,
-0.0233674082031249,0.700160333496094,-0.082169000976565,0.705352587780735,0.807919999999967,
-0.0473094248046875,0.678612518554687,-0.0678037910156277,0.683630372416686,0.810952999999927,
-0.00181959326171871,0.707342938476562,-0.103716815917972,0.714908750426555,0.81388899999979,
-0.0473094248046875,0.666641510253906,-0.0582269843750023,0.670849809255668,0.816817999999785,
-0.0233674082031249,0.678612518554687,-0.103716815917972,0.686890212486268,0.819833999999901,
-0.0736456430664062,0.700160333496094,-0.0342849677734396,0.704857171602341,0.822773999999981,
-0.080828248046875,0.697766131835937,-0.0797747993164091,0.706947522115742,0.825794999999971,
-0.0664630380859375,0.652276300292969,-0.0390733710937532,0.656816896618933,0.82874199999992,
-0.0281558115234375,0.70255453515625,-0.0701979926757836,0.706614026726662,0.831666999999925,
-0.0473094248046875,0.697766131835937,-0.0318907661132837,0.700094834558811,0.834686999999803,
-0.00900219824218745,0.659458905273438,-0.103716815917972,0.667625842236349,0.837624000000005,
-0.0353384165039062,0.709737140136719,-0.0534385810546905,0.712622827108135,0.84064699999999,
-0.0353384165039062,0.692977728515625,-0.0175255561523464,0.69409947487239,0.843582999999853,
-0.0137906015624999,0.709737140136719,-0.0534385810546905,0.711879674331303,0.846582999999782,
-0.0233674082031249,0.700160333496094,-0.120476227539065,0.710834052201734,0.849559999999883,
-0.00900219824218745,0.683400921875,-0.0749863959960955,0.687561502105284,0.852594999999837,
-0.0640688364257812,0.676218316894531,-0.0271023627929718,0.679787147549575,0.855715999999802,
-0.052097828125,0.661853106933594,-0.0271023627929718,0.664453351953284,0.858754999999974,
-0.0568862314453125,0.716919745117187,0.0183874687499976,0.719408134005986,0.861783999999943,
-0.0592804331054687,0.666641510253906,-0.00555454785156506,0.669295096310003,0.864735999999994,
-0.052097828125,0.666641510253906,-0.0366791694335955,0.669679362351334,0.867671999999857,
-0.0664630380859375,0.669035711914063,-0.0893516059570327,0.678240244113448,0.870702999999821,
-0.00900219824218745,0.688189325195312,-0.0247081611328142,0.688691571106062,0.873679999999922,
-0.0640688364257812,0.669035711914063,-0.043861774414065,0.673526135255389,0.876703999999791,
-0.0688572397460937,0.692977728515625,-0.00316034619140915,0.696397472333276,0.879639999999881,
-0.080828248046875,0.647487896972656,-0.082169000976565,0.657666729529392,0.882564000000002,
-0.00660799658203121,0.683400921875,-0.000766144531251456,0.683433297854202,0.885582999999997,
-0.0233674082031249,0.692977728515625,-0.0151313544921905,0.693536679544474,0.888525999999956,
-0.0377326181640625,0.683400921875,-0.0175255561523464,0.684666134412652,0.891568000000007,
-0.080828248046875,0.678612518554687,-0.000766144531251456,0.683409645087707,0.894527999999809,
-0.0568862314453125,0.697766131835937,-0.0630153876953141,0.702911486000711,0.897457999999915,
-0.0544920297851562,0.690583526855469,-0.0390733710937532,0.693831187828044,0.900478999999905,
-0.0281558115234375,0.683400921875,-0.0893516059570327,0.689792200035086,0.903419999999869,
-0.061674634765625,0.714525543457031,-0.0917458076171904,0.723026836321702,0.906436999999869,
-0.052097828125,0.695371930175781,-0.0917458076171904,0.703330362054038,0.909371999999848,
-0.0209732065429687,0.690583526855469,-0.0582269843750023,0.693351184225021,0.912296999999853,
-0.0592804331054687,0.700160333496094,-0.0534385810546905,0.70469450423263,0.915319999999838,
-0.042521021484375,0.671429913574219,-0.043861774414065,0.674203249298836,0.918257999999923,
-0.0209732065429687,0.704948736816406,-0.0773805976562532,0.709493025917366,0.921285999999782,
-0.0568862314453125,0.692977728515625,-0.0869574042968768,0.700725171310961,0.924228999999968,
-0.0497036264648437,0.649882098632813,-0.0869574042968768,0.657555155685967,0.927150999999867,
-0.0377326181640625,0.712131341796875,-0.0271023627929718,0.713645105435394,0.930170999999973,
-0.0377326181640625,0.661853106933594,-0.0582269843750023,0.665480027754833,0.933117999999922,
-0.080828248046875,0.669035711914063,-0.0893516059570327,0.679798278157414,0.936141999999791,
-0.0305500131835937,0.712131341796875,-0.0678037910156277,0.716003984172593,0.939090999999962,
-0.0473094248046875,0.709737140136719,-0.0773805976562532,0.715508732761828,0.942087999999785,
-0.052097828125,0.681006720214844,-0.0558327827148464,0.68527486186114,0.94504599999982,
-0.0281558115234375,0.7217081484375,-0.0462559760742209,0.723736842067755,0.947986999999785,
-0.0473094248046875,0.673824115234375,-0.0462559760742209,0.677064793996348,0.951008999999885,
-0.0401268198242187,0.688189325195312,-0.0630153876953141,0.69223236566082,0.95394599999986,
-0.061674634765625,0.66424730859375,-0.103716815917972,0.675118823209423,0.956955999999991,
-0.0449152231445312,0.690583526855469,-0.0366791694335955,0.693013958232155,0.959903999999824,
-0.061674634765625,0.666641510253906,-0.0917458076171904,0.675745482398819,0.96282999999994,
-0.0544920297851562,0.676218316894531,-0.0989284125976582,0.685585460925822,0.965851999999813,
-0.0497036264648437,0.700160333496094,-0.0701979926757836,0.705423774238455,0.968789999999899,
-0.0640688364257812,0.688189325195312,-0.0869574042968768,0.69661391981196,0.971810000000005,
-0.0185790048828124,0.697766131835937,-0.108505219238284,0.706396586034835,0.974749999999858,
-0.0736456430664062,0.726496551757812,-0.0678037910156277,0.733360944238748,0.977673999999979,
-0.0281558115234375,0.692977728515625,-0.0390733710937532,0.694649271409572,0.980696999999964,
-0.03294421484375,0.731284955078125,-0.0654095893554718,0.734943141470779,0.983631999999943,
-0.00660799658203121,0.676218316894531,-0.000766144531251456,0.676251036745929,0.986651999999822,
-0.0497036264648437,0.654670501953125,-0.00316034619140915,0.656562186239326,0.989665999999943,
-0.0353384165039062,0.681006720214844,-0.0941400092773463,0.688390367455502,0.992696999999907,
-0.0688572397460937,0.719313946777344,-0.0486501777343769,0.724238022536401,0.995821999999862,
-0.052097828125,0.678612518554687,0.00162805712890446,0.680611331528129,0.998835999999983,
-0.0401268198242187,0.659458905273438,-0.0486501777343769,0.662467394825762,1.00186199999985,
0.00536301171875003,0.6450936953125,-0.0534385810546905,0.647325512838611,1.00482499999998,
-0.0688572397460937,0.688189325195312,-0.134841437500002,0.704647486368395,1.00776099999985,
-0.0664630380859375,0.692977728515625,-0.0749863959960955,0.700184566549971,1.01082499999984,
-0.0592804331054687,0.695371930175781,-0.0654095893554718,0.700952712674125,1.01377099999991,
