X,Y,Z,Magnitude,Seconds,
0.0373974299316408,-0.0159932670898438,-0.00991199487304506,0.041864065737364,0.0,
0.011061211669922,-0.0279642753906251,0.00205901342773629,0.0301428372590428,0.00379799999996067,
0.0302148249511721,-0.00641646044921884,-0.000335188232421402,0.0308904348088128,0.00754200000005767,
0.0230322199707033,-0.0135990654296876,-0.0314598098144518,0.0412933090330779,0.011257999999998,
0.0421858332519533,-0.00162805712890635,-0.0625844313964823,0.0754924244570115,0.0150730000000294,
0.0326090266113283,0.000766144531249902,-0.048219221435545,0.0582153666125294,0.0188020000000506,
0.0230322199707033,0.0055545478515624,0.0236068283691413,0.033445754652336,0.0225120000000061,
-0.00809240161132796,-0.00641646044921884,0.0307894333496108,0.0324753311688355,0.0261709999999766,
0.00866701000976578,-0.0112048637695313,0.0714908615722667,0.0728807884352806,0.0298559999998815,
0.0254264216308596,0.0223139594726561,0.00684741674804812,0.0345152548943077,0.0335539999998673,
-0.00569819995117171,-0.00162805712890635,0.064308256591799,0.0645807395325818,0.0373729999998886,
0.0134554133300783,-0.0135990654296876,0.0403662399902363,0.0446700801364126,0.0414089999999305,
-0.00569819995117171,-0.0662715019531251,0.0307894333496108,0.0732964573482016,0.045116999999891,
0.00627280834960953,-0.00162805712890635,-0.00512359155273323,0.00826134886112147,0.0488519999998971,
0.0469742365722658,-0.0255700737304688,-0.00272938989257732,0.05355237755053,0.052590999999893,
0.020638018310547,0.00316034619140615,0.0810676682128921,0.0837130958531075,0.056374999999889,
0.0445800349121095,-0.00641646044921884,0.0355778366699226,0.0573962798408833,0.0601409999999305,
0.0158496149902345,0.000766144531249902,-0.0218830031738264,0.027030780615571,0.063944999999876,
0.0230322199707033,-0.0112048637695313,0.0140300217285176,0.0292040003865104,0.0676670000000286,
-0.0104866032714842,-0.0303584770507814,0.0116358200683599,0.034161356613571,0.0713869999999588,
0.011061211669922,-0.0375410820312502,-0.00991199487304506,0.0403724025300346,0.0750869999999395,
0.020638018310547,0.0390733710937499,-0.0242772048339823,0.0504186354730817,0.0787940000000162,
-0.00330399829101546,0.00316034619140615,0.047548844970704,0.0477681572891881,0.0824979999999869,
0.0134554133300783,0.0175255561523436,-0.02667140649414,0.034634624160049,0.0862829999998667,
0.00866701000976578,-0.0447236870117189,-0.0147003981933587,0.0478688515579273,0.0899899999999434,
0.00148440502929703,-0.0351468803710939,0.00684741674804812,0.0358384398967427,0.0936899999999241,
0.0373974299316408,0.0055545478515624,-0.0314598098144518,0.0491847578106141,0.0974039999998695,
0.020638018310547,0.0151313544921874,-0.0793438430175772,0.0833686458649333,0.101124000000027,
0.0373974299316408,-0.00881066210937509,0.0379720383300786,0.054019174625669,0.104822999999897,
0.011061211669922,-0.00402225878906259,-0.0170945998535146,0.0207546214979891,0.108743999999888,
0.0445800349121095,-0.0303584770507814,0.0523372482910176,0.0751545354604987,0.112678999999844,
0.0182438166503908,-0.0183874687500001,-0.0194888015136705,0.0324152624151734,0.116402999999991,
0.0254264216308596,-0.0231758720703126,-0.00751779321288915,0.0352156382586132,0.120136999999886,
-0.0152750065917967,-0.0375410820312502,0.0595198532714853,0.0720088300135173,0.123873000000003,
0.0254264216308596,-0.0327526787109377,0.0307894333496108,0.0516452329424728,0.127674999999954,
0.00627280834960953,-0.00641646044921884,0.00205901342773629,0.00920644478519906,0.131441999999879,
0.020638018310547,-0.00402225878906259,0.0283952316894549,0.0353326413992853,0.135264000000006,
0.0350032282714846,0.00316034619140615,-0.0386424147949214,0.0522345670859628,0.139046000000008,
0.0134554133300783,-0.0207816704101563,0.0547314499511735,0.0600704385424097,0.142824000000019,
0.0158496149902345,-0.0159932670898438,0.047548844970704,0.052610717022236,0.146565999999893,
0.00866701000976578,0.00316034619140615,0.0762792648925803,0.0768350903110769,0.150307999999995,
0.049368438232422,-0.0375410820312502,0.0116358200683599,0.0631028354533199,0.154037000000017,
0.0158496149902345,-0.0279642753906251,0.0355778366699226,0.0479478201336941,0.157764999999927,
-0.0344286198730467,0.0055545478515624,0.0355778366699226,0.0498193268753175,0.161589999999933,
0.039791631591797,-0.0159932670898438,0.0140300217285176,0.0451220572076125,0.165314999999964,
0.020638018310547,0.0103429511718749,0.0212126267089854,0.0313509165834912,0.169028000000026,
-0.0128808049316405,-0.00881066210937509,0.0188184250488295,0.0244474134380503,0.172688999999991,
-0.000909796630859216,0.000766144531249902,0.0690966599121108,0.0691068963155066,0.176488999999947,
0.0134554133300783,-0.00402225878906259,-0.0314598098144518,0.0344520877046794,0.180449999999837,
-0.00569819995117171,0.0103429511718749,-0.0290656081542959,0.0313728497112774,0.184270999999853,
-0.0200634099121092,0.0342849677734374,-0.0290656081542959,0.0492220378479603,0.188073999999915,
0.0230322199707033,0.0271023627929686,-0.0194888015136705,0.040556560630554,0.191843999999946,
0.0134554133300783,-0.00402225878906259,-0.0314598098144518,0.0344520877046794,0.195625999999947,
0.039791631591797,0.0055545478515624,-0.0314598098144518,0.0510288798636035,0.199432999999999,
0.00866701000976578,-0.0183874687500001,0.0427604416503922,0.0473462927765015,0.203193999999939,
0.00387860668945328,-0.00881066210937509,0.0140300217285176,0.0170150776183868,0.207018000000062,
-0.00330399829101546,0.0151313544921874,0.0212126267089854,0.0262649923923467,0.210777000000007,
0.020638018310547,-0.0351468803710939,0.0331836350097667,0.052558392594027,0.214516999999887,
0.0158496149902345,0.0223139594726561,-0.0410366164550773,0.0493267368955937,0.218243000000029,
0.00627280834960953,-0.0112048637695313,0.0044532150878922,0.0135914760531635,0.221937000000025,
0.0134554133300783,0.0103429511718749,0.00205901342773629,0.0170957399115287,0.225654999999961,
-0.000909796630859216,-0.00162805712890635,-0.0218830031738264,0.0219623342982981,0.229307999999946,
0.00387860668945328,-0.0255700737304688,-0.0338540114746078,0.0426024219188998,0.233118999999988,
0.039791631591797,-0.00402225878906259,0.0595198532714853,0.0717088937577665,0.236823999999842,
-0.0392170231933592,-0.0327526787109377,0.026001030029299,0.0573303273449131,0.240500999999995,
0.0445800349121095,0.0127371528320311,0.0044532150878922,0.0465773088493792,0.244218000000046,
0.00627280834960953,-0.0375410820312502,0.0499430466308599,0.0627932231330757,0.248088000000052,
-0.0272460148925779,0.0366791694335936,0.0236068283691413,0.0514294579352626,0.251968999999917,
0.00866701000976578,0.0247081611328124,-0.06497863305664,0.0700559279646188,0.255801999999903,
0.058945244873047,0.0127371528320311,0.064308256591799,0.088160812276695,0.259595999999874,
0.0230322199707033,-0.0327526787109377,-0.136804682861326,0.142543826145887,0.263304999999946,
0.020638018310547,0.0103429511718749,0.105009684814455,0.107517153717727,0.267098999999916,
0.0637336481933595,-0.0447236870117189,-0.120045271240233,0.143084077517725,0.270858999999973,
-0.00809240161132796,-0.126126543457031,0.064308256591799,0.14180600760946,0.274586999999883,
-0.0344286198730467,0.199484882324219,-0.00991199487304506,0.20267657927011,0.278303000000051,
0.0421858332519533,0.127658832519531,0.200777751220704,0.241636353706668,0.282191000000012,
0.00627280834960953,-0.22907721484375,-0.112862666259764,0.255448037613178,0.285920999999917,
-0.0272460148925779,-0.241048223144531,0.0547314499511735,0.248680764882249,0.289616000000024,
0.00866701000976578,0.142024042480469,-0.0434308181152332,0.148768886757822,0.293359999999893,
0.0134554133300783,0.625652777832031,0.169653129638673,0.648386174245732,0.297100999999884,
-0.00569819995117171,-0.202740996582031,0.0619140549316413,0.212060678523476,0.300624999999854,
0.0469742365722658,-0.758195781738281,-0.354677033935545,0.83836938204385,0.303553999999849,
0.0230322199707033,-0.0159932670898438,0.0547314499511735,0.0614963361733344,0.306489000000056,
0.0565510432128908,0.814794708984375,0.380342875732424,0.900971221181792,0.309520999999904,
-0.0128808049316405,-0.0495120903320314,-0.14159308618164,0.150552197855679,0.312429999999949,
-0.0966778630371092,-0.808474016601563,-0.163140901123045,0.830416641415937,0.315438999999969,
-0.017669208251953,0.338348578613281,0.140922709716799,0.366948459165322,0.318385000000035,
0.233721966064453,0.637623786132812,0.184018339599611,0.703599885853014,0.321322999999893,
0.0469742365722658,-0.547506035644531,0.0355778366699226,0.550667976580126,0.324335000000019,
-0.185263324462891,-0.6696103203125,0.00684741674804812,0.694800235734109,0.327286999999842,
-0.0511880314941405,0.517913703125,-0.0434308181152332,0.522246162661876,0.330390999999963,
0.231327764404297,0.692690424316406,0.0547314499511735,0.732344242919742,0.333440999999993,
0.0661278498535158,-0.432584355957031,0.026001030029299,0.438381307890281,0.336456999999882,
-0.113437274658203,-0.691158135253906,-0.0506134230957009,0.702231658220421,0.339449999999943,
-0.144561896240234,0.338348578613281,0.026001030029299,0.368854925488036,0.342404999999872,
0.0469742365722658,0.513125299804687,0.047548844970704,0.517460186738309,0.345432999999957,
0.181049529541016,-0.308085869628906,0.00924161840820403,0.35746502307614,0.348385000000007,
0.169078521240235,-0.482862590820313,-0.0194888015136705,0.511980118112929,0.351312000000007,
-0.0679474431152342,0.130053034179687,0.026001030029299,0.149019127254945,0.354329999999891,
-0.190051727783203,0.431722443359375,-0.00751779321288915,0.471763123345139,0.357274999999845,
0.154713311279297,-0.135703350097656,-0.00272938989257732,0.205813161590598,0.360282999999981,
0.281605999267578,-0.427795952636719,0.0451546433105481,0.514150034258826,0.363225999999941,
-0.084706854736328,0.0414675727539061,0.0188184250488295,0.0961714300129736,0.36624699999993,
-0.276242987548828,0.414963031738281,-0.0601902297363264,0.502122863087352,0.369200999999975,
0.183443731201172,0.0821690009765624,0.0571256516113294,0.208965756310725,0.372176999999965,
0.152319109619141,-0.437372759277344,0.0140300217285176,0.463349633886494,0.375178999999889,
-0.230753156005859,-0.274567046386719,-0.0410366164550773,0.360995963770057,0.37809100000004,
-0.0416112248535155,0.477212274902344,-0.0386424147949214,0.480579114790128,0.381098999999949,
0.379768267333985,0.374261603515625,0.100221281494141,0.542531095886928,0.384052999999994,
-0.0871010563964843,-0.49722780078125,-0.00751779321288915,0.504855025834084,0.386932999999999,
-0.331309625732422,-0.411036541015625,-0.000335188232421402,0.527936756159484,0.389917999999852,
0.207385747802735,0.563403534667969,-0.048219221435545,0.60229352029049,0.392871000000014,
0.360614654052735,0.340742780273438,0.0954328781738294,0.505228666311193,0.395896999999877,
-0.20441693774414,-0.614543682128906,0.085856071533204,0.653315763394976,0.398815000000013,
-0.247512567626953,-0.276961248046875,-0.048219221435545,0.374559871541013,0.401701999999887,
0.226539361083985,0.608893366210937,0.102615483154299,0.657724221022015,0.404731999999967,
0.23611616772461,0.201879083984375,0.155287919677736,0.347304401367396,0.407680999999911,
-0.245118365966797,-0.533140825683594,0.0044532150878922,0.586806598863233,0.410663999999997,
-0.0775242497558592,-0.202740996582031,-0.0147003981933587,0.217554643026361,0.413585000000012,
0.269634990966797,0.443693451660156,0.164864726318362,0.544745156365613,0.416533999999956,
0.00387860668945328,0.137235639160156,0.085856071533204,0.161925690564106,0.419562999999926,
-0.240329962646484,-0.253019231445313,-0.0338540114746078,0.350604216346239,0.422461999999996,
0.0757046564941408,-0.212317803222656,0.0188184250488295,0.226194999284929,0.425493999999844,
0.276817595947266,0.137235639160156,0.0523372482910176,0.313370052239195,0.428449000000001,
0.0326090266113283,0.283281940429687,0.100221281494141,0.302252066418867,0.431378999999879,
-0.237935760986328,0.0797747993164062,-0.0242772048339823,0.252124627191925,0.434381999999914,
0.0326090266113283,-0.315268474609375,-0.0530076247558586,0.321352404660862,0.43730800000003,
0.319913225830078,-0.159645366699219,0.0714908615722667,0.364612202837316,0.44032100000004,
0.0733104548339845,0.259339923828125,0.047548844970704,0.273664962202309,0.443283999999949,
-0.288213995849609,0.163571857421875,-0.0386424147949214,0.333640968954988,0.446190999999999,
-0.0296402165527342,-0.231471416503906,-0.0434308181152332,0.237368479495017,0.449170999999978,
0.33188423413086,-0.226683013183594,0.0714908615722667,0.408219642617753,0.452108999999837,
0.0326090266113283,0.149206647460937,0.0355778366699226,0.156817584234621,0.455136999999922,
-0.264271979248047,0.233003705566406,-0.0242772048339823,0.353156889353596,0.458055000000058,
0.0900698664550782,-0.217106206542969,0.0212126267089854,0.236003519665722,0.461055999999871,
0.181049529541016,-0.214712004882813,0.0547314499511735,0.286139317119437,0.463992999999846,
-0.16610971118164,0.19230227734375,0.0331836350097667,0.25626891277114,0.466994999999997,
-0.123014081298828,0.158783454101562,0.0188184250488295,0.201739392820381,0.470100999999886,
0.327095830810547,-0.181193181640625,0.047548844970704,0.376939709058017,0.473136999999952,
0.12119448803711,-0.147674358398438,0.0307894333496108,0.19350402906647,0.47619799999984,
-0.245118365966797,0.15399505078125,-0.0194888015136705,0.29013324935931,0.479129000000057,
-0.0583706364746092,0.0558327827148436,-0.012306196533201,0.081706017533886,0.482044999999971,
0.288788604248047,-0.140491753417969,0.0236068283691413,0.322015641029501,0.48506099999986,
0.087675664794922,-0.0495120903320314,-0.0218830031738264,0.103040453775129,0.48800899999992,
-0.194840131103516,0.110899420898437,0.0188184250488295,0.224978868708513,0.491039999999884,
-0.0679474431152342,0.0821690009765624,-0.0530076247558586,0.119073120516942,0.493954999999914,
0.193020537841797,-0.0830309135742189,-0.0506134230957009,0.21613139345123,0.49688100000003,
0.0757046564941408,-0.135703350097656,0.0379720383300786,0.159963964496895,0.499886999999944,
-0.149350299560547,0.0630153876953123,0.00205901342773629,0.162113203045005,0.502844999999979,
-0.0535822331542967,0.0797747993164062,-0.0170945998535146,0.0976078872833854,0.505848000000015,
0.152319109619141,-0.0327526787109377,-0.00272938989257732,0.155824576646611,0.508812000000034,
0.0900698664550782,-0.118943938476563,-0.0218830031738264,0.150794917591601,0.511729999999943,
-0.0966778630371092,-0.0231758720703126,-0.0218830031738264,0.101796837257094,0.514721000000009,
0.0350032282714846,0.0821690009765624,-0.0242772048339823,0.0925545967819163,0.517669999999953,
0.116406084716797,0.0127371528320311,-0.012306196533201,0.117745717945386,0.520704000000023,
-0.0200634099121092,-0.116549736816406,0.0188184250488295,0.119751888046048,0.523629999999912,
-0.0511880314941405,-0.0327526787109377,0.0044532150878922,0.0609326156964073,0.526537999999846,
0.0757046564941408,0.0534385810546874,0.0762792648925803,0.120022511274288,0.529565000000048,
0.0733104548339845,0.0342849677734374,0.0427604416503922,0.0915332571982879,0.532510999999886,
0.00866701000976578,-0.0710599052734376,-0.00512359155273323,0.0717696202468604,0.535491999999977,
-0.0104866032714842,-0.0207816704101563,-0.000335188232421402,0.0232800134098119,0.538436000000047,
0.0326090266113283,0.0318907661132811,0.0427604416503922,0.0625205962061056,0.541377000000011,
0.0445800349121095,0.0390733710937499,-0.00751779321288915,0.0597547073977152,0.54438499999992,
0.0350032282714846,0.00794874951171864,0.0116358200683599,0.0377332865900779,0.547343999999839,
0.011061211669922,-0.0207816704101563,0.0499430466308599,0.0552135502880899,0.550354999999854,
0.011061211669922,-0.0231758720703126,0.0164242233886736,0.030483217739395,0.55329699999993,
-0.00809240161132796,-0.0351468803710939,0.0427604416503922,0.055939659757596,0.556287999999995,
0.0326090266113283,0.0199197578124999,0.00205901342773629,0.0382672824243186,0.559234999999944,
-0.00330399829101546,-0.0566946953125002,0.0523372482910176,0.0772294790864207,0.562140999999883,
0.0278206232910158,-0.0543004936523439,-0.0362482131347637,0.0709680466594094,0.56514500000003,
0.0134554133300783,0.00316034619140615,0.026001030029299,0.0294463834539539,0.568113000000039,
0.00866701000976578,0.0127371528320311,0.0499430466308599,0.0522652851474872,0.571128000000044,
0.00387860668945328,-0.0471178886718752,-0.0194888015136705,0.0511366053545397,0.574045999999953,
0.0182438166503908,-0.0351468803710939,-0.012306196533201,0.0414678492196886,0.576958999999988,
0.078098858154297,0.0342849677734374,-0.00512359155273323,0.0854467193672752,0.579989999999952,
-0.00809240161132796,-0.0231758720703126,-0.02667140649414,0.0362487507982575,0.582901999999876,
-0.00809240161132796,-0.0279642753906251,0.026001030029299,0.0390325662049813,0.585896000000048,
0.0302148249511721,-0.0207816704101563,0.0188184250488295,0.0412182798426226,0.588835999999901,
0.0733104548339845,0.0223139594726561,0.0523372482910176,0.0927982927320791,0.591776999999865,
0.00387860668945328,0.0103429511718749,0.0499430466308599,0.0511500550886068,0.59479599999986,
-0.0224576115722654,-0.0543004936523439,0.00924161840820403,0.0594835728518542,0.597704999999905,
0.039791631591797,-0.0447236870117189,0.0164242233886736,0.0620752546396754,0.600729000000001,
0.058945244873047,0.0127371528320311,0.0451546433105481,0.0753373663457439,0.60370799999987,
-0.0152750065917967,0.0534385810546874,0.026001030029299,0.0613600956167959,0.60670899999991,
-0.0272460148925779,-0.0255700737304688,0.0044532150878922,0.037629843511862,0.609792999999854,
-0.00330399829101546,-0.0806367119140626,-0.048219221435545,0.0940121748970243,0.612789000000021,
0.0924640681152345,-0.0135990654296876,-0.048219221435545,0.105164783976528,0.615815999999995,
-0.000909796630859216,0.0725921943359373,0.0188184250488295,0.0749972501478183,0.618762999999944,
-0.0344286198730467,-0.0351468803710939,-0.000335188232421402,0.0492010713027053,0.621652999999924,
0.00148440502929703,-0.0566946953125002,-0.0194888015136705,0.059969203090482,0.624659999999949,
0.0302148249511721,0.0271023627929686,-0.00272938989257732,0.0406807483335467,0.62763700000005,
0.0445800349121095,0.0175255561523436,0.0451546433105481,0.0658290698986145,0.630658999999923,
-0.0248518132324217,0.0223139594726561,-0.00751779321288915,0.0342351080482927,0.633587000000034,
-0.00569819995117171,-0.0590888969726564,-0.0338540114746078,0.0683378469155388,0.636495999999852,
0.0637336481933595,-0.0135990654296876,0.0044532150878922,0.0653203155014952,0.639525000000049,
0.00866701000976578,0.0294965644531249,-0.00272938989257732,0.0308644446934079,0.642488999999841,
-0.0200634099121092,0.0486501777343749,0.0236068283691413,0.0576772273652061,0.645538999999872,
0.0302148249511721,-0.0878193168945314,0.0355778366699226,0.0994532580097997,0.648504999999886,
0.049368438232422,-0.0279642753906251,0.0619140549316413,0.083979721300499,0.651519000000008,
0.0182438166503908,-0.00402225878906259,0.0116358200683599,0.0220092644221136,0.654462999999851,
-0.0128808049316405,-0.0207816704101563,0.0499430466308599,0.055606662078348,0.657386999999972,
0.00148440502929703,-0.0303584770507814,0.0283952316894549,0.0415948286428932,0.660409999999956,
0.0302148249511721,-0.0112048637695313,0.0116358200683599,0.0342618873909038,0.663350000000037,
-0.00569819995117171,0.00316034619140615,0.0379720383300786,0.0385270420052465,0.66634699999986,
-0.0128808049316405,-0.0159932670898438,0.0044532150878922,0.0210126355441931,0.669264999999996,
0.0541568415527345,-0.0495120903320314,-0.0362482131347637,0.0818434086012947,0.672184999999899,
0.0661278498535158,0.0271023627929686,0.0188184250488295,0.0739023931718671,0.675225999999839,
0.00866701000976578,0.0055545478515624,0.0738850632324226,0.0745987441798035,0.678169000000025,
0.00387860668945328,-0.00402225878906259,-0.0458250197753891,0.0461644299545924,0.681156999999985,
0.011061211669922,-0.0519062919921877,0.100221281494141,0.113405991095325,0.684105000000045,
0.0158496149902345,0.0342849677734374,0.00924161840820403,0.0388854319940921,0.687040999999908,
0.0158496149902345,0.0103429511718749,-0.0554018264160145,0.0585452756805591,0.690057000000024,
0.011061211669922,-0.0135990654296876,0.0164242233886736,0.0240216589370675,0.693008999999847,
-0.00569819995117171,-0.0231758720703126,0.026001030029299,0.0352936834502654,0.695995000000039,
0.0350032282714846,-0.00641646044921884,-0.00272938989257732,0.0356909865835584,0.698926000000029,
0.0326090266113283,0.0199197578124999,0.0954328781738294,0.102798733476575,0.701879999999846,
0.020638018310547,0.000766144531249902,0.0427604416503922,0.0474865259559576,0.704903999999942,
0.0230322199707033,-0.0327526787109377,-0.0218830031738264,0.0456298909425222,0.707815999999866,
0.0158496149902345,0.0055545478515624,-0.0362482131347637,0.0399499218101515,0.710851999999932,
0.020638018310547,0.0127371528320311,0.0451546433105481,0.051255289234925,0.713801999999987,
0.0326090266113283,0.00316034619140615,0.0427604416503922,0.0538682817131236,0.716723999999886,
0.020638018310547,-0.0351468803710939,-0.0362482131347637,0.0545450635261314,0.719718000000057,
0.020638018310547,0.00794874951171864,0.0595198532714853,0.0634958530303016,0.72267799999986,
0.00387860668945328,-0.00162805712890635,0.00924161840820403,0.010153899283985,0.725685999999996,
0.0254264216308596,0.0055545478515624,-0.0601902297363264,0.0655760602239666,0.728636999999935,
-0.0128808049316405,-0.0207816704101563,-0.012306196533201,0.0273721653114456,0.731530999999904,
0.0158496149902345,-0.0447236870117189,0.0499430466308599,0.0688892327002784,0.734549000000015,
0.00866701000976578,-0.0207816704101563,0.0331836350097667,0.0401017271449393,0.737496999999848,
-0.00569819995117171,-0.0255700737304688,-0.00512359155273323,0.0266936199055951,0.740481999999929,
0.00627280834960953,0.0414675727539061,-0.00991199487304506,0.0430947253971376,0.743504999999914,
0.011061211669922,0.0127371528320311,0.0355778366699226,0.0393747117828821,0.746617999999899,
0.011061211669922,-0.0566946953125002,0.0044532150878922,0.0579350498817691,0.749640999999883,
0.0469742365722658,-0.0207816704101563,0.047548844970704,0.0699953525930944,0.752643999999918,
0.0134554133300783,-0.0159932670898438,0.0236068283691413,0.0315295906370575,0.75565400000005,
0.00866701000976578,-0.0183874687500001,0.026001030029299,0.0330040850823973,0.758593999999903,
0.00866701000976578,0.0055545478515624,-0.00512359155273323,0.0114987501383375,0.761606999999913,
0.039791631591797,-0.0183874687500001,0.0236068283691413,0.0497870997088566,0.764586999999892,
0.0230322199707033,-0.00881066210937509,-0.0458250197753891,0.0520388639480076,0.767491999999947,
-0.0152750065917967,0.0127371528320311,0.0451546433105481,0.0493406799826348,0.770526999999902,
0.00148440502929703,-0.0207816704101563,0.00684741674804812,0.0219309917570734,0.773484999999937,
0.011061211669922,0.0103429511718749,0.0667024582519549,0.0683998902002364,0.776524999999992,
0.020638018310547,-0.00402225878906259,-0.00272938989257732,0.0212027341335585,0.77946699999984,
0.011061211669922,0.0199197578124999,0.0164242233886736,0.0280874040957245,0.782416000000012,
-0.00809240161132796,0.00794874951171864,-0.00751779321288915,0.0136083355863542,0.785441999999875,
0.0230322199707033,-0.0351468803710939,0.00924161840820403,0.0430255025235233,0.788412999999991,
0.0134554133300783,-0.00881066210937509,0.0355778366699226,0.0390443129892244,0.79143699999986,
-0.0200634099121092,-0.0231758720703126,-0.00512359155273323,0.0310791353470468,0.794356999999991,
0.0350032282714846,0.00316034619140615,0.0307894333496108,0.0467247577143565,0.797305999999935,
0.011061211669922,0.00794874951171864,0.0547314499511735,0.0564009276179451,0.800330000000031,
0.039791631591797,-0.0112048637695313,0.0188184250488295,0.0454208766774648,0.803261999999904,
-0.00809240161132796,-0.0303584770507814,0.0116358200683599,0.0335039759035416,0.806258999999955,
0.0254264216308596,0.00316034619140615,0.0116358200683599,0.0281404160179452,0.809213999999884,
0.0254264216308596,-0.0351468803710939,0.0164242233886736,0.0463849246058596,0.81212400000004,
-0.00330399829101546,-0.00402225878906259,0.0236068283691413,0.0241738974127739,0.815137999999934,
0.0182438166503908,-0.0135990654296876,0.0403662399902363,0.0463379407989106,0.818085999999994,
0.0158496149902345,-0.0279642753906251,0.0714908615722667,0.0783846559079415,0.821108999999979,
0.011061211669922,-0.0183874687500001,0.0451546433105481,0.0499939118607643,0.824055999999928,
-0.0272460148925779,0.0055545478515624,-0.00512359155273323,0.0282745383651283,0.826966999999968,
0.00148440502929703,-0.0112048637695313,0.00684741674804812,0.0132151256712227,0.829976999999872,
0.0182438166503908,-0.0183874687500001,0.0236068283691413,0.0350459441113433,0.832912999999962,
0.00148440502929703,-0.00402225878906259,-0.00991199487304506,0.0107995215829436,0.835896999999932,
0.0421858332519533,-0.0207816704101563,0.0164242233886736,0.0498124228091651,0.838855999999851,
0.0278206232910158,-0.00881066210937509,0.0188184250488295,0.0347238818167641,0.841861999999992,
-0.0224576115722654,-0.0351468803710939,-0.0170945998535146,0.0450763004416125,0.844763999999941,
0.0254264216308596,-0.00641646044921884,-0.0290656081542959,0.0391469469949536,0.847672999999986,
0.0134554133300783,-0.0135990654296876,0.0571256516113294,0.0602438611018845,0.85069099999987,
0.00148440502929703,-0.0495120903320314,0.0379720383300786,0.0624141509777967,0.85362699999996,
0.0278206232910158,-0.0375410820312502,-0.0410366164550773,0.0621878107868317,0.856620000000021,
-0.00569819995117171,-0.0231758720703126,0.0523372482910176,0.0575219791695196,0.859549999999899,
0.0565510432128908,0.0055545478515624,0.026001030029299,0.0624894155268398,0.862492999999859,
0.020638018310547,-0.00641646044921884,0.026001030029299,0.0338105357406145,0.865512999999964,
0.00866701000976578,-0.0135990654296876,0.085856071533204,0.0873574075976671,0.868453999999929,
-0.00809240161132796,-0.0207816704101563,-0.0242772048339823,0.0329658529910349,0.871443999999883,
0.0158496149902345,-0.00402225878906259,0.0283952316894549,0.0327670267769702,0.87439100000006,
0.049368438232422,-0.0375410820312502,0.0164242233886736,0.0641586365776781,0.877322000000049,
0.0326090266113283,0.00794874951171864,-0.0601902297363264,0.0689158544244364,0.880357000000004,
-0.00809240161132796,-0.00881066210937509,0.026001030029299,0.028621116212145,0.883389999999963,
0.0158496149902345,0.0127371528320311,-0.02667140649414,0.0335381764856237,0.886504999999943,
0.0182438166503908,-0.00641646044921884,0.0403662399902363,0.0447598161481793,0.889548999999988,
-0.0200634099121092,-0.0566946953125002,0.0236068283691413,0.064607362115541,0.892485999999963,
-0.0128808049316405,-0.00162805712890635,0.0762792648925803,0.0773763010117077,0.895488999999998,
0.00866701000976578,-0.00162805712890635,0.0810676682128921,0.0815459040173075,0.898427999999967,
0.0182438166503908,0.0223139594726561,0.0355778366699226,0.0457879033744952,0.901483999999982,
0.0182438166503908,-0.0207816704101563,0.0738850632324226,0.0788905396094394,0.904442000000017,
0.0350032282714846,-0.0279642753906251,-0.0434308181152332,0.0623976173399822,0.907343999999966,
0.049368438232422,-0.0207816704101563,0.0499430466308599,0.0732354314885704,0.910382000000027,
-0.00330399829101546,-0.0399352836914064,0.0595198532714853,0.071752046811776,0.913303999999926,
-0.00809240161132796,0.00316034619140615,0.00205901342773629,0.00892828584803136,0.916318000000047,
0.00148440502929703,-0.0351468803710939,-0.000335188232421402,0.0351798096820057,0.919281999999839,
0.0134554133300783,-0.00162805712890635,0.0403662399902363,0.0425808883050551,0.922227999999905,
0.0302148249511721,-0.0279642753906251,0.0355778366699226,0.0544124876022442,0.925262999999859,
0.0373974299316408,-0.0255700737304688,0.0355778366699226,0.0576036361541985,0.928206999999929,
0.0182438166503908,-0.00162805712890635,-0.0314598098144518,0.036403393379595,0.931198999999879,
0.00387860668945328,0.0127371528320311,0.00205901342773629,0.013472868603738,0.934164999999894,
0.0230322199707033,0.000766144531249902,-0.00991199487304506,0.0250862068991089,0.93716900000004,
0.020638018310547,-0.0231758720703126,-0.0338540114746078,0.045925406246748,0.940092999999933,
-0.00569819995117171,0.0151313544921874,-0.0314598098144518,0.0353715564403555,0.943008999999847,
0.00866701000976578,-0.0423294853515627,0.0164242233886736,0.0462239927587242,0.946017999999867,
0.00148440502929703,0.000766144531249902,0.047548844970704,0.0475781787564616,0.948985999999877,
0.00148440502929703,-0.0159932670898438,-0.0147003981933587,0.0217736023097095,0.951970999999958,
0.0278206232910158,-0.0399352836914064,0.064308256591799,0.0806496486643952,0.954913000000033,
0.0302148249511721,-0.0423294853515627,0.0164242233886736,0.0545387576946815,0.957836000000043,
0.049368438232422,-0.0207816704101563,0.0236068283691413,0.0585354838042271,0.960851999999932,
0.00866701000976578,0.0103429511718749,0.00684741674804812,0.0151321121319735,0.963797999999997,
0.0134554133300783,-0.00641646044921884,-0.0290656081542959,0.032665405094055,0.966789999999946,
0.039791631591797,-0.0135990654296876,0.0307894333496108,0.0521181132744495,0.969728999999916,
0.0230322199707033,-0.00402225878906259,0.0164242233886736,0.0285730088801671,0.972655000000032,
0.0254264216308596,0.0127371528320311,0.00924161840820403,0.0299022656335539,0.975680999999895,
0.0230322199707033,0.0151313544921874,-0.0194888015136705,0.033752843287438,0.978632999999945,
0.0373974299316408,-0.00641646044921884,0.00205901342773629,0.0379997140316078,0.981653999999935,
0.0134554133300783,0.00316034619140615,0.0140300217285176,0.0196946044803002,0.984605999999985,
-0.000909796630859216,-0.0183874687500001,0.0379720383300786,0.0421995548777793,0.987494999999853,
0.0326090266113283,0.00794874951171864,0.083461869873048,0.0899578510083693,0.990532999999914,
0.0254264216308596,0.000766144531249902,-0.00751779321288915,0.0265255934746948,0.993480999999974,
0.00387860668945328,-0.0327526787109377,0.0571256516113294,0.0659630322575635,0.99650900000006,
-0.00330399829101546,-0.0399352836914064,-0.0194888015136705,0.0445595856428153,0.999418999999989,
0.0350032282714846,-0.0135990654296876,-0.0458250197753891,0.0592460379046682,1.00233000000003,
0.0134554133300783,0.000766144531249902,0.0116358200683599,0.0178052642212706,1.00536499999998,
0.0158496149902345,0.0247081611328124,-0.0338540114746078,0.0448084547248235,1.00831799999992,
