X,Y,Z,Magnitude,Seconds,
0.0171424838867188,0.0434787021484374,-0.0196324536132764,0.05069216437672,0.0,
0.000383072265625006,-0.00440533105468754,-0.00766144531249502,0.00884598385361614,0.00374700000065786,
-0.0307415493164062,-0.0355299526367188,-0.0124498486328086,0.0486047232243983,0.00751000000036584,
0.0147482822265625,0.0219308872070312,-0.0339976635742136,0.0430617785376693,0.011279000000286,
-0.018770541015625,-0.00919373437500004,-0.000478840332027275,0.0209066317191673,0.0150720000001456,
0.0243250888671875,-0.00679953271484379,-0.0196324536132764,0.0319902614621114,0.0189900000004855,
-0.0522893642578125,-0.00440533105468754,-0.0100556469726509,0.0534293982019841,0.0227469999999812,
-0.0331357509765625,-0.00440533105468754,-0.0316034619140577,0.0460017797420432,0.0265000000008513,
-0.018770541015625,-0.0020111293945313,-0.0627280834960899,0.0655071775498932,0.0302810000002864,
-0.0115879360351562,0.0339018955078124,-0.0220266552734323,0.0420570127697169,0.0340700000006109,
-0.0355299526367187,-0.00440533105468754,0.00430956298828633,0.0360604604687583,0.0378270000001066,
-0.00919373437499998,0.0339018955078124,-0.0339976635742136,0.0488846028856336,0.041653000000224,
-0.0738371791992187,0.00756567724609369,0.00191536132813042,0.0742484822289782,0.0454480000007607,
-0.00679953271484374,-0.00919373437500004,-0.0100556469726509,0.0152274237130537,0.0491600000004837,
-0.0235589443359375,0.0219308872070312,-0.0962469067382763,0.101486229255982,0.0528830000002927,
-0.0139821376953125,0.0027772739257812,-0.0148440502929645,0.0205805552424992,0.0565920000008191,
0.019536685546875,-0.0020111293945313,-0.0052672436523391,0.0203339759833666,0.0603020000007746,
-0.0259531459960937,0.06742071875,0.0378283862304727,0.0815481815165916,0.0641210000003412,
-0.02834734765625,-0.02834734765625,0.049799394531254,0.0639306181259661,0.0681240000003527,
-0.00679953271484374,0.0530555087890624,0.0306457812500049,0.0616464481250109,0.0719660000004296,
-0.0331357509765625,-0.0020111293945313,0.0761356127929727,0.0830581372869857,0.0757499999999709,
0.0051714755859375,-0.0115879360351563,0.0234631762695354,0.0266748020038783,0.0795720000005531,
-0.0331357509765625,0.0554497104492186,-0.0100556469726509,0.0653740347364421,0.0833680000005188,
-0.0115879360351562,-0.0666545742187501,0.0186747729492236,0.0701844688698489,0.0871950000000652,
-0.0475009609375,0.00517147558593745,0.088106621093754,0.1002290483357,0.0911340000002383,
-0.018770541015625,0.0219308872070312,-0.0746990917968695,0.0800827780423726,0.0949330000003101,
-0.00919373437499998,-0.0451067592773439,-0.0387860668945272,0.0601955436009099,0.0987170000007609,
-0.0139821376953125,0.0650265170898438,-0.0244208569335882,0.0708542613590545,0.102528000000348,
-0.0882023891601562,0.00995987890624994,-0.000478840332027275,0.0887642378970855,0.10630300000048,
0.0051714755859375,0.0219308872070312,-0.0316034619140577,0.0388134870679867,0.110071000000062,
-0.0259531459960937,0.0219308872070312,-0.0172382519531205,0.0381010095821796,0.113925999999992,
0.00277727392578125,-0.0259531459960938,-0.0723048901367136,0.0768718165209825,0.117676000000756,
-0.0115879360351562,0.0362960971679687,-0.0579396801757763,0.0693447436367944,0.121421000000737,
-0.0139821376953125,0.0243250888671874,-0.0052672436523391,0.0285473988065524,0.125135000000228,
0.038690298828125,-0.0115879360351563,0.00191536132813042,0.0404337494425361,0.12884700000086,
-0.0307415493164062,0.0386902988281249,0.00191536132813042,0.0494535204692238,0.132558000000245,
0.0410845004882813,-0.0259531459960938,-0.0770932934570272,0.091131102613309,0.136380000000827,
-0.0139821376953125,0.0291134921874999,-0.000478840332027275,0.032300540087526,0.140450000000783,
0.00277727392578125,-0.037924154296875,0.0258573779296913,0.0459843312769784,0.144224000000577,
-0.100173397460937,0.0410845004882812,-0.0172382519531205,0.109634862473749,0.147986000000856,
0.0362960971679688,0.000383072265624951,-0.0483628735351509,0.0604691735561544,0.151788000000124,
-0.0522893642578125,0.0506613071289062,-0.0172382519531205,0.0748191351520105,0.155582000000322,
-0.0905965908203125,0.0123540805664062,-0.0627280834960899,0.11088362383146,0.159406000000672,
0.0913627353515625,-0.0546835659179689,0.0306457812500049,0.110799845220324,0.163250000000517,
-0.0522893642578125,0.0793917270507812,-0.0244208569335882,0.0981509153903454,0.167030000000523,
0.0051714755859375,-0.0953849941406251,-0.0244208569335882,0.0985972591927068,0.170781000000716,
0.0602381137695312,0.0602381137695312,0.0114921679687541,0.0859612158222767,0.174568000000363,
-0.0642603725585937,0.0362960971679687,-0.0292092602539018,0.0793724324660399,0.178278000000319,
-0.00440533105468749,-0.0475009609375001,-0.0866701000976509,0.0989315646425554,0.181976000000759,
-0.0115879360351562,0.0195366855468749,-0.0842758984374949,0.0872833855963396,0.185762000000068,
-0.0475009609375,-0.0115879360351563,-0.0172382519531205,0.0518437930898197,0.189473000000362,
-0.0211647426757812,-0.02834734765625,-0.000478840332027275,0.0353800471981018,0.19315700000061,
-0.018770541015625,0.0267192905273437,-0.0172382519531205,0.0369243960912446,0.196874000000207,
-0.0451067592773437,0.0123540805664062,0.0354341845703168,0.0586755867061316,0.200582000000395,
0.019536685546875,0.00756567724609369,-0.0651222851562459,0.0684093091495663,0.204314000000522,
-0.0475009609375,0.0458729038085937,-0.0531512768554645,0.0847686429358441,0.208230000000185,
0.0051714755859375,0.0195366855468749,0.0162805712890677,0.0259515557027288,0.212237000000641,
0.00277727392578125,0.0267192905273437,-0.0292092602539018,0.0396839340454495,0.216008000000329,
-0.0451067592773437,-0.018770541015625,0.0210689746093795,0.0532057763181233,0.219775000000482,
0.0171424838867188,-0.0522893642578126,-0.0292092602539018,0.0622994643064673,0.22351400000025,
-0.0235589443359375,0.0410845004882812,0.0186747729492236,0.0509088124326273,0.227334000000155,
0.0243250888671875,-0.0498951625976564,-0.0196324536132764,0.0588784377673235,0.231096000000434,
0.0339018955078125,0.0434787021484374,-0.000478840332027275,0.0551358807637889,0.234945000000153,
-0.037924154296875,0.00995987890624994,-0.0723048901367136,0.0822522814555473,0.23870800000077,
0.00995987890625,-0.018770541015625,-0.0220266552734323,0.0306056520986083,0.242482000000564,
-0.0498951625976562,0.00995987890624994,-0.0507570751953086,0.0718679839765659,0.246227999999974,
-0.00440533105468749,-0.00679953271484379,0.0186747729492236,0.0203565157025135,0.24994500000048,
-0.0115879360351562,0.0027772739257812,-0.0268150585937459,0.0293434980770821,0.25366700000086,
0.0051714755859375,-0.0259531459960938,-0.045968671874995,0.0530417641183008,0.257387000000563,
-0.037924154296875,-0.0115879360351563,-0.0172382519531205,0.043239785742847,0.261198000000149,
0.000383072265625006,-0.00679953271484379,-0.0148440502929645,0.0163317549149191,0.264921000000868,
-0.018770541015625,-0.00679953271484379,-0.0794874951171831,0.0819562611102026,0.268603000000439,
0.0123540805664062,0.0434787021484374,-0.0124498486328086,0.0468830414769951,0.272339000000102,
-0.0235589443359375,-0.0139821376953125,0.028251579589849,0.039353218192113,0.276110000000699,
-0.0259531459960937,-0.00679953271484379,-0.0387860668945272,0.0471609840586637,0.280080000000453,
-0.0115879360351562,0.00756567724609369,-0.0124498486328086,0.0186150064390743,0.283945000000131,
-0.02834734765625,0.0027772739257812,-0.0770932934570272,0.0821867462894988,0.287747000000309,
-0.00679953271484374,0.0027772739257812,-0.0411802685546832,0.0418301495793988,0.291541000000507,
-0.095384994140625,-0.0451067592773439,-0.443406147460934,0.455787152567795,0.295328000000154,
0.235014834960938,1.39859684179688,1.58927106201172,2.13004403876628,0.299170000000231,
-0.844770113769531,-3.94765546533203,-1.16884925048828,4.20283580317517,0.302779000000555,
0.397820547851563,2.98834674414063,0.250912333984379,3.02513379057097,0.305785000000469,
0.0722091220703125,4.434444546875,-0.510443793945308,4.46431018897622,0.308750000000146,
-0.0522893642578125,-5.32432141992188,0.380199223632816,5.33813489993503,0.311792000000423,
0.402608951171875,-2.70506480371094,0.353863005371098,2.75765998382862,0.314736000000266,
-1.36910027734375,5.61239176367188,-0.376368500976557,5.78921671099657,0.317770999999993,
0.790469620117188,0.491194412597656,-0.0172382519531205,0.930812187622061,0.32076700000016,
1.50154751318359,-4.57014789697266,0.167115275878912,4.81340048717988,0.323704000000362,
-2.25495489160156,0.946092728027344,0.128808049316412,2.44877612834508,0.326737000000321,
-0.0546835659179687,3.30916976660156,-0.306936652832027,3.3238238439218,0.329701000000568,
2.25811523779297,-1.75456674462891,0.303584770507817,2.87571775412587,0.332749000000149,
0.110516348632812,-2.98518639794922,-0.108217915039058,2.98919099606425,0.335696000000098,
-2.02511153222656,1.31240558203125,-0.0507570751953086,2.41372355715939,0.338636000000406,
0.728220376953125,1.68350683935547,-0.0268150585937459,1.83445339077715,0.341693000000305,
1.45605768164063,-1.87427682763672,0.188663090820317,2.38088457526158,0.344679000000724,
-1.20868876611328,-0.0594719692382814,0.0138863696289118,1.21023067210966,0.347684000000299,
-0.899836751953125,1.47281709326172,-0.0866701000976509,1.72812270299895,0.350658000000294,
1.46324028662109,-0.667599190917969,0.0258573779296913,1.60854885536583,0.353626000000077,
-0.0810197841796875,-0.734636837402344,-0.0842758984374949,0.74388030983115,0.356659000000036,
-1.20868876611328,0.893420291503906,-0.0962469067382763,1.50611812871901,0.359619000000748,
0.663576932128906,0.129669961914062,0.0378283862304727,0.677185078602008,0.362694000000374,
0.572597269042969,-0.828010702148438,0.0258573779296913,1.00704416952843,0.365665000000263,
-0.94772078515625,0.428945169433594,-0.0411802685546832,1.04108811323338,0.368675000000621,
0.0267192905273438,0.323600296386719,-0.0866701000976509,0.336069603741239,0.371666000000005,
0.764133401855469,-0.492822469726563,0.0402225878906304,0.91016026010545,0.374630000000252,
-0.483245663085938,0.20149601171875,-0.0627280834960899,0.527315679729915,0.377676000000065,
-0.332410958496094,0.232620633300781,-0.0220266552734323,0.406318320911183,0.380651000000398,
0.512742227539063,-0.346776168457031,0.00191536132813042,0.619000784749484,0.383676000000378,
-0.00679953271484374,0.156006180175781,-0.0172382519531205,0.157102893762584,0.386704000000464,
-0.33480516015625,0.237409036621094,-0.0411802685546832,0.412496497506153,0.38977100000011,
0.218255423339844,-0.270161715332031,-0.0244208569335882,0.348165421174721,0.39289700000063,
-0.037924154296875,0.203890213378906,-0.000478840332027275,0.207387776589877,0.395951000000423,
-0.152845833984375,0.129669961914062,0.0306457812500049,0.20276910982099,0.39900200000011,
0.151217776855469,-0.255796505371094,-0.103429511718746,0.314636825707915,0.401964000000589,
-0.00440533105468749,0.0458729038085937,-0.0052672436523391,0.0463839853961148,0.404907000000094,
-0.160028438964844,0.235014834960937,0.0545877978515676,0.289518395967381,0.407973000000311,
0.0722091220703125,-0.128903817382813,-0.0316034619140577,0.151093117814744,0.410943000000771,
0.0674207187500001,-0.0834139858398438,0.0138863696289118,0.108149330150154,0.413993000000119,
-0.152845833984375,0.177553995117187,-0.0531512768554645,0.240233903477048,0.416963000000578,
-0.0115879360351562,0.000383072265624951,0.0234631762695354,0.0261715044766413,0.419933000000128,
0.100939541992188,-0.0953849941406251,-0.000478840332027275,0.138878787195393,0.422967000000426,
-0.0738371791992187,0.115304751953125,-0.0483628735351509,0.145210476177328,0.425941000000421,
-0.0594719692382812,0.0937569370117187,-0.0890643017578086,0.142336672050826,0.429002000000764,
0.0674207187500001,-0.1241154140625,-0.0387860668945272,0.146473712009422,0.431986000000506,
-0.00919373437499998,0.06742071875,0.0138863696289118,0.0694471693447287,0.434955000000627,
-0.0259531459960937,0.0698149204101562,-0.00287304199218319,0.0745382000672129,0.437994000000799,
0.0291134921875,-0.037924154296875,0.00909796630859816,0.0486683664964954,0.440969000000223,
0.019536685546875,0.0410845004882812,-0.00287304199218319,0.0455836882318434,0.444014000000607,
-0.06665457421875,0.0841801303710937,-0.0052672436523391,0.107502885864847,0.446978000000854,
-0.0427125576171875,-0.0475009609375001,0.028251579589849,0.0698488054121833,0.449911000000611,
-0.0139821376953125,-0.02834734765625,0.00909796630859816,0.0328914165798217,0.452918000000864,
-0.0355299526367187,0.0650265170898438,0.0138863696289118,0.0753900306451323,0.455894000000626,
-0.0427125576171875,0.0291134921874999,-0.0507570751953086,0.072444728503428,0.458928000000014,
-0.0139821376953125,-0.0139821376953125,0.0162805712890677,0.025613616506846,0.46188500000062,
-0.0163763393554687,0.00517147558593745,0.0234631762695354,0.0290766107219654,0.464920000000347,
-0.0259531459960937,0.0315076938476562,-0.0172382519531205,0.0443109229094977,0.467885000000024,
0.0267192905273438,-0.018770541015625,-0.000478840332027275,0.0326570510666141,0.470810000000711,
-0.02834734765625,-0.00919373437500004,0.00191536132813042,0.0298624426315005,0.473837000000458,
-0.0163763393554687,0.0482671054687499,-0.0531512768554645,0.0736407237361444,0.476804000000811,
0.057843912109375,0.0147482822265624,0.028251579589849,0.0660422724175434,0.4798380000002,
-0.0331357509765625,0.0291134921874999,-0.00766144531249502,0.0447690871518365,0.48280000000068,
-0.0259531459960937,0.0339018955078124,-0.0148440502929645,0.0452023244448474,0.485765000000356,
0.0267192905273438,0.00517147558593745,-0.0579396801757763,0.0640130548004999,0.488817000000381,
-0.0115879360351562,-0.0020111293945313,-0.00287304199218319,0.0121069927432566,0.491762000000563,
-0.0235589443359375,-0.0259531459960938,0.0186747729492236,0.0397156995409046,0.494790000000648,
-0.00919373437499998,-0.155240035644531,-0.0890643017578086,0.17921061147789,0.497723000000406,
-0.0235589443359375,0.0602381137695312,0.0521935961914117,0.0831133304117152,0.500686000000314,
0.00756567724609375,0.426550967773438,0.0234631762695354,0.427262785907342,0.503741000000446,
-0.095384994140625,-0.387477596679688,-0.0531512768554645,0.402569550844621,0.506671000000097,
0.148823575195313,-0.332410958496094,-0.0435744702148391,0.366802721250416,0.509701000000859,
-0.234248690429688,0.58456827734375,-0.0124498486328086,0.629878971371201,0.512667000000874,
0.0626323154296875,0.0147482822265624,-0.0339976635742136,0.0727747201521491,0.515634000000318,
0.132064163574219,-0.492822469726563,0.0234631762695354,0.510749890463622,0.518679000000702,
-0.241431295410156,0.227832229980469,-0.00766144531249502,0.332047124916894,0.521646000000146,
0.000383072265625006,0.352330716308594,0.0186747729492236,0.352825491629492,0.524717000000237,
0.23980323828125,-0.392266,-0.000478840332027275,0.459759107722988,0.527773000000707,
-0.18157625390625,-0.0738371791992188,-0.0148440502929645,0.196576221460849,0.53079500000058,
-0.037924154296875,0.397820547851562,-0.0100556469726509,0.399750604512475,0.533941000000596,
0.153611978515625,-0.167211043945313,0.00191536132813042,0.227067923251576,0.536973000000216,
-0.0235589443359375,-0.186364657226563,0.0210689746093795,0.189025688763429,0.539982000000236,
-0.102567599121094,0.261351053222656,-0.0172382519531205,0.281285695940011,0.542945000000145,
0.1057279453125,-0.0163763393554688,-0.0435744702148391,0.115521934563062,0.545886000000792,
0.0315076938476563,-0.157634237304688,-0.0890643017578086,0.183776324345206,0.548934000000372,
-0.0451067592773437,0.141640970214844,-0.0268150585937459,0.151049103086687,0.551887000000534,
-0.0331357509765625,0.0985453403320312,-0.0052672436523391,0.104100460852149,0.554915000000619,
0.000383072265625006,-0.152845833984375,-0.0363918652343695,0.157118947189626,0.557888000000275,
-0.0810197841796875,0.0410845004882812,0.0186747729492236,0.09274097666943,0.560923000000003,
0.00756567724609375,0.120093155273437,-0.0292092602539018,0.123825628608548,0.563920000000508,
0.0362960971679688,-0.0690487758789063,0.0234631762695354,0.0814595651882415,0.566895000000841,
-0.0211647426757812,-0.0235589443359375,0.0138863696289118,0.0345803622338836,0.569941000000654,
-0.0403183559570312,0.117698953613281,0.0114921679687541,0.124942720609731,0.572927000000163,
0.04826710546875,-0.00919373437500004,-0.0339976635742136,0.059750141008996,0.575937000000522,
-0.0522893642578125,-0.018770541015625,-0.0268150585937459,0.0616892064456294,0.578891000000112,
-0.0498951625976562,0.0889685336914062,0.0210689746093795,0.104157711807317,0.581844000000274,
0.04826710546875,-0.0259531459960938,0.0234631762695354,0.0596137559467719,0.584893000000193,
-0.00919373437499998,-0.0355299526367188,0.0330399829101609,0.0493816034250535,0.587831000000733,
-0.0403183559570312,0.0602381137695312,-0.0148440502929645,0.0739901750686463,0.590873000000101,
0.0219308872070313,0.0315076938476562,-0.0387860668945272,0.0545715820774137,0.593857000000753,
0.00277727392578125,-0.0498951625976564,-0.0483628735351509,0.0695428503707059,0.596799000000829,
-0.0546835659179687,0.0219308872070312,-0.00287304199218319,0.0589873763230846,0.599844000000303,
0.00995987890625,0.00995987890624994,-0.0363918652343695,0.0390226374158749,0.602827000000616,
0.00756567724609375,-0.018770541015625,-0.000478840332027275,0.0202435661451953,0.605860000000575,
-0.06665457421875,0.0243250888671874,0.049799394531254,0.086686342109694,0.608833000000232,
-0.0211647426757812,-0.00440533105468754,-0.0555454785156204,0.0596041396025702,0.611753000000135,
-0.00679953271484374,-0.0020111293945313,-0.0196324536132764,0.0208737040665816,0.61477400000058,
-0.0211647426757812,0.0554497104492186,-0.0100556469726509,0.0601974480976794,0.617727000000741,
-0.0618661708984375,0.0434787021484374,-0.0363918652343695,0.0839177484051123,0.620765000000574,
-0.00440533105468749,0.0147482822265624,0.00670376464844225,0.0167886637585436,0.623744000000443,
0.00277727392578125,0.0506613071289062,0.0186747729492236,0.0540650389362038,0.626715000000331,
-0.0594719692382812,0.0362960971679687,0.0210689746093795,0.0727888967205601,0.629738999999972,
-0.0307415493164062,0.0267192905273437,0.0138863696289118,0.0430324831043759,0.632711000000199,
0.00277727392578125,0.0147482822265624,-0.0651222851562459,0.0668291635669979,0.635758000000351,
-0.02834734765625,0.0506613071289062,-0.0675164868164018,0.0890427770859771,0.638716000000386,
0.000383072265625006,-0.0139821376953125,-0.0244208569335882,0.0281429417840807,0.641664000000674,
0.00995987890625,0.0027772739257812,-0.00287304199218319,0.0107315799663813,0.644709000000148,
0.0362960971679688,0.0171424838867187,0.0258573779296913,0.0477480409737607,0.647701000000779,
-0.02834734765625,0.0291134921874999,0.00909796630859816,0.0416406116363378,0.650743000000148,
-0.0810197841796875,-0.0163763393554688,-0.0052672436523391,0.0828259245339388,0.653685000000223,
-0.0498951625976562,0.0243250888671874,-0.0890643017578086,0.104946114966916,0.65672000000086,
-0.02834734765625,-0.00679953271484379,0.0354341845703168,0.0458844984765858,0.659676000000218,
-0.00919373437499998,0.0339018955078124,-0.0268150585937459,0.0441917485303163,0.662631000000147,
-0.0235589443359375,0.0362960971679687,-0.0363918652343695,0.0565402368502904,0.665718000000197,
-0.0211647426757812,0.0027772739257812,-0.0507570751953086,0.055063057174235,0.668799000000035,
0.00756567724609375,0.00756567724609369,0.0545877978515676,0.0556264920579011,0.671949000000495,
-0.0331357509765625,-0.0139821376953125,-0.00287304199218319,0.0360795307286596,0.67497800000001,
-0.0403183559570312,0.00756567724609369,-0.0483628735351509,0.0634174805226992,0.677937000000384,
-0.00919373437499998,0.000383072265624951,-0.0363918652343695,0.0375371729270501,0.680967000000237,
-0.00919373437499998,-0.0020111293945313,-0.0723048901367136,0.0729147895209321,0.683914000000186,
0.0171424838867188,0.00756567724609369,0.0402225878906304,0.0443729737860554,0.687005000000681,
-0.0163763393554687,0.0339018955078124,-0.0339976635742136,0.0507283366395304,0.68998400000055,
-0.0115879360351562,-0.00919373437500004,0.0402225878906304,0.0428562899692964,0.692945000000691,
-0.0139821376953125,0.00517147558593745,0.0234631762695354,0.0277986505953421,0.69599400000061,
-0.0235589443359375,0.0123540805664062,-0.0292092602539018,0.0395073164039931,0.698969000000034,
-0.00679953271484374,0.0434787021484374,0.00909796630859816,0.0449377811713613,0.702026000000842,
0.000383072265625006,0.0243250888671874,0.0114921679687541,0.0269058844377826,0.705032000000756,
-0.02834734765625,-0.0115879360351563,0.0426167895507863,0.0524789780037224,0.708006000000751,
-0.0211647426757812,0.0147482822265624,-0.0316034619140577,0.0407950605603138,0.711074000000735,
0.0219308872070313,0.0147482822265624,-0.0124498486328086,0.0292142837204973,0.714077000000543,
-0.0403183559570312,0.0123540805664062,-0.0483628735351509,0.0641651047711771,0.717133000000103,
-0.00679953271484374,0.0291134921874999,0.0330399829101609,0.0445586079584582,0.720124000000396,
-0.018770541015625,-0.00919373437500004,-0.0363918652343695,0.0419669610171362,0.72306000000026,
-0.0235589443359375,0.0147482822265624,-0.00766144531249502,0.0288311191446758,0.726104000000305,
-0.00919373437499998,-0.0211647426757813,-0.0148440502929645,0.0274375092417325,0.72905400000036,
0.0243250888671875,0.0123540805664062,0.0138863696289118,0.030613142872116,0.732128000000557,
-0.037924154296875,0.0458729038085937,-0.0507570751953086,0.07822304945058,0.735097000000678,
-0.0307415493164062,-0.00919373437500004,-0.0507570751953086,0.0600487159605708,0.738043000000289,
-0.018770541015625,-0.0307415493164063,-0.0196324536132764,0.0410220586912669,0.741054000000076,
-0.0498951625976562,0.0195366855468749,-0.0148440502929645,0.0556017550253954,0.744014000000789,
0.000383072265625006,0.0171424838867187,-0.0746990917968695,0.0766418019976321,0.747066000000814,
0.0171424838867188,-0.0115879360351563,0.0258573779296913,0.0331172011009411,0.75003900000047,
0.0458729038085938,-0.0427125576171875,-0.0052672436523391,0.0629001568974765,0.753055000000131,
-0.0211647426757812,0.0434787021484374,0.0354341845703168,0.0599493562034476,0.756046000000424,
-0.0211647426757812,-0.00440533105468754,-0.0124498486328086,0.0249469838901074,0.758978000000752,
-0.0427125576171875,0.0386902988281249,0.0258573779296913,0.0631657010964816,0.7620280000001,
0.00995987890625,-0.0235589443359375,-0.0339976635742136,0.0425448489779477,0.765014000000519,
0.0051714755859375,0.0386902988281249,-0.0770932934570272,0.0864121477524825,0.7680620000001,
-0.02834734765625,-0.02834734765625,0.0402225878906304,0.056789090632868,0.771042000000307,
-0.0115879360351562,-0.00679953271484379,-0.0387860668945272,0.0410472032158324,0.773963000000549,
-0.00919373437499998,-0.00919373437500004,-0.0387860668945272,0.040907315833025,0.776971000000231,
-0.0451067592773437,0.0219308872070312,-0.0052672436523391,0.0504314128483911,0.77993300000071,
-0.0594719692382812,0.00995987890624994,-0.00287304199218319,0.0603686067687095,0.782975000000079,
-0.037924154296875,0.0195366855468749,-0.0268150585937459,0.0503882022766905,0.785937000000558,
-0.0307415493164062,-0.0115879360351563,-0.0411802685546832,0.0526795751137358,0.78886600000078,
-0.00919373437499998,0.0339018955078124,-0.00287304199218319,0.0352436893793703,0.79189100000076,
-0.0475009609375,0.0291134921874999,0.00909796630859816,0.0564509495782835,0.794874000000164,
-0.0139821376953125,-0.00919373437500004,0.0545877978515676,0.0570951188857012,0.797888000000057,
-0.00919373437499998,0.000383072265624951,0.028251579589849,0.0297123416350903,0.800866000000497,
0.0051714755859375,0.0123540805664062,-0.00287304199218319,0.0136975120611756,0.803819000000658,
0.000383072265625006,-0.0020111293945313,0.0641646044921913,0.0641972573825516,0.806969000000208,
-0.00679953271484374,0.0147482822265624,-0.0124498486328086,0.0204632403288046,0.810027000000446,
-0.0259531459960937,0.0195366855468749,0.0545877978515676,0.0635222444781011,0.813180000000102,
-0.0451067592773437,-0.0115879360351563,0.0474051928710981,0.0664541368554669,0.816193000000567,
0.00277727392578125,0.0602381137695312,0.00191536132813042,0.0603325137051914,0.819166000000223,
-0.00919373437499998,-0.00679953271484379,0.0545877978515676,0.0557726283330981,0.822175000000243,
-0.018770541015625,0.0410845004882812,-0.00287304199218319,0.0452606204186342,0.825132000000849,
0.0410845004882813,0.0147482822265624,0.00909796630859816,0.0445894718510806,0.828202000000601,
0.0051714755859375,0.0291134921874999,0.0258573779296913,0.0392803205242327,0.831186000000343,
0.0267192905273438,-0.00440533105468754,0.0258573779296913,0.0374423746760924,0.834136000000399,
-0.0139821376953125,-0.0331357509765625,0.00191536132813042,0.0360159239271845,0.83715200000006,
0.0147482822265625,0.0171424838867187,0.0138863696289118,0.0265369147398772,0.840137000000141,
-0.0427125576171875,0.0219308872070312,-0.0387860668945272,0.0617226488173979,0.843188000000737,
0.0315076938476563,0.0123540805664062,0.00909796630859816,0.035044701014437,0.846185000000332,
0.0123540805664062,0.0339018955078124,-0.0052672436523391,0.0364651296632412,0.849251999999979,
-0.0139821376953125,0.0506613071289062,-0.0124498486328086,0.0540098782216724,0.852225999999973,
-0.0163763393554687,0.000383072265624951,-0.0699106884765577,0.0718041475007709,0.855172000000493,
-0.0498951625976562,-0.00919373437500004,-0.0435744702148391,0.0668788939569765,0.858189000000493,
-0.02834734765625,0.00517147558593745,-0.0675164868164018,0.0734083937360681,0.861156000000847,
-0.00440533105468749,0.0267192905273437,-0.0723048901367136,0.0772096144639268,0.864184000000023,
-0.018770541015625,0.0123540805664062,-0.000478840332027275,0.0224763387749004,0.867149000000609,
0.019536685546875,0.0362960971679687,-0.000478840332027275,0.0412227854450385,0.870112000000518,
-0.0618661708984375,-0.02834734765625,-0.0363918652343695,0.0771709989310459,0.873126000000411,
-0.0211647426757812,-0.02834734765625,-0.0100556469726509,0.0367781795051757,0.876063000000613,
-0.00201112939453124,0.00517147558593745,-0.0627280834960899,0.0629730200980541,0.879113000000871,
-0.0307415493164062,0.0482671054687499,-0.0555454785156204,0.0797499624340583,0.882076000000779,
-0.00440533105468749,0.0027772739257812,-0.00766144531249502,0.00926379708524372,0.88502200000039,
-0.018770541015625,0.00995987890624994,-0.0172382519531205,0.0273621952380595,0.888051000000814,
0.00277727392578125,0.00995987890624994,-0.045968671874995,0.0471172073900496,0.891038000000663,
-0.0163763393554687,0.0315076938476562,-0.0292092602539018,0.0459793447850584,0.894075000000157,
-0.0211647426757812,0.0171424838867187,-0.0052672436523391,0.027740853303955,0.897030000000086,
0.00277727392578125,0.0219308872070312,0.0114921679687541,0.0249147945760828,0.900003000000652,
0.0123540805664062,0.00517147558593745,-0.0172382519531205,0.0218294479265158,0.903062000000318,
0.00995987890625,0.0195366855468749,-0.0387860668945272,0.0445560350023583,0.906042000000525,
0.00277727392578125,0.0219308872070312,-0.0196324536132764,0.0295653563994043,0.909098000000085,
0.0315076938476563,0.0195366855468749,-0.0100556469726509,0.0384126657470383,0.912086000000272,
-0.0235589443359375,-0.0139821376953125,0.0258573779296913,0.0376713156944826,0.915031000000454,
-0.0115879360351562,0.0219308872070312,-0.0244208569335882,0.0348083657848681,0.918055000000095,
-0.00679953271484374,0.0123540805664062,0.00430956298828633,0.0147454835434954,0.921038000000408,
-0.00919373437499998,0.0315076938476562,-0.0842758984374949,0.0904416197378323,0.924063000000388,
-0.00440533105468749,0.0219308872070312,-0.0292092602539018,0.0367906460933902,0.927030000000741,
-0.0115879360351562,-0.00919373437500004,-0.0316034619140577,0.0348938937103073,0.929947999999968,
-0.00679953271484374,0.0171424838867187,-0.0244208569335882,0.0306019060242564,0.93297100000018,
-0.00919373437499998,0.0027772739257812,-0.0411802685546832,0.0422853700522144,0.935933000000659,
-0.0522893642578125,-0.0259531459960938,0.0162805712890677,0.0606036335798372,0.938963000000513,
-0.00919373437499998,0.0267192905273437,0.0210689746093795,0.0352469421245777,0.941938000000846,
0.00277727392578125,0.0171424838867187,-0.0339976635742136,0.0381761592197362,0.94502200000079,
-0.037924154296875,0.0219308872070312,0.0330399829101609,0.0548711742495495,0.948112000000037,
-0.0211647426757812,-0.0020111293945313,0.0402225878906304,0.0454955772640931,0.951152000000548,
-0.0498951625976562,-0.018770541015625,-0.0339976635742136,0.0632273800593637,0.954254000000219,
-0.018770541015625,0.0123540805664062,-0.0555454785156204,0.0599187508230083,0.957238000000871,
-0.0139821376953125,0.00995987890624994,0.0186747729492236,0.0253662473981252,0.960262000000512,
-0.037924154296875,-0.0115879360351563,0.028251579589849,0.0486895624339512,0.963219000000208,
-0.0211647426757812,0.0123540805664062,0.0306457812500049,0.0392394386758583,0.96618000000035,
-0.0427125576171875,-0.00440533105468754,-0.0387860668945272,0.057863015001378,0.96921199999997,
0.00756567724609375,-0.0020111293945313,-0.0244208569335882,0.025644928680041,0.972175000000789,
0.000383072265625006,-0.00440533105468754,-0.00287304199218319,0.00527333446226707,0.975210000000516,
-0.0475009609375,-0.00440533105468754,-0.0292092602539018,0.0559368314821948,0.978160000000571,
-0.0355299526367187,-0.0211647426757813,-0.0148440502929645,0.0439393866138295,0.981089000000793,
-0.0259531459960937,-0.0139821376953125,-0.0196324536132764,0.0354189101540785,0.984119000000646,
-0.0139821376953125,0.0123540805664062,-0.0387860668945272,0.0430404747455076,0.987120000000687,
-0.00919373437499998,0.0195366855468749,-0.0531512768554645,0.057369548240175,0.990182000000459,
0.0315076938476563,0.0195366855468749,-0.0387860668945272,0.0536542248001204,0.99317500000052,
-0.0355299526367187,0.0027772739257812,-0.0770932934570272,0.0849321298501198,0.996122000000469,
-0.00679953271484374,-0.00679953271484379,0.0162805712890677,0.018908312769226,0.999153000000661,
-0.0259531459960937,0.00756567724609369,-0.0507570751953086,0.0575072685985765,1.00211200000012,
-0.0163763393554687,0.0195366855468749,-0.0100556469726509,0.0274040619047894,1.00514700000076,
-0.0475009609375,-0.0163763393554688,-0.0124498486328086,0.0517641237890802,1.00808000000052,
-0.0163763393554687,0.0243250888671874,-0.0483628735351509,0.0565584827913465,1.01103400000011,
-0.0307415493164062,0.0147482822265624,-0.0435744702148391,0.0553289177330559,1.01405800000066,
-0.02834734765625,-0.00440533105468754,-0.0555454785156204,0.0625162318472167,1.01701500000036,
