X,Y,Z,Magnitude,Seconds,
-0.00861912597656256,-0.0300711728515624,-0.00986411083984251,0.0328003879844293,0.0,
-0.032561142578125,-0.0420421811523437,-0.0266235224609357,0.0594691932875116,0.00385799999958181,
-0.00861912597656256,-0.0204943662109374,-0.0505655390624984,0.0552375064577404,0.0075779999997394,
-0.0229843359375,-0.0396479794921876,0.0284431157226575,0.0539374898221382,0.0113279999995939,
0.00574608398437504,-0.0324653745117187,0.0499909306640642,0.0598841479191357,0.0150849999999991,
-0.0158017309570313,-0.0276769711914062,0.0116837041015643,0.0339443423430362,0.0188579999999092,
-0.0229843359375,-0.0348595761718749,-0.0338061274414052,0.0537245195600215,0.0226179999999658,
0.0392649072265625,-0.00852335791015624,0.0475967290039083,0.0622882748311965,0.0265019999997094,
-0.0014365209960937,-0.0204943662109374,0.0284431157226575,0.0350869416018654,0.0302159999996547,
0.0177170922851563,-0.0133117612304687,-0.0074699091796866,0.023385848054978,0.0339739999999438,
-0.0158017309570313,-0.00852335791015624,0.0236547124023456,0.0296965949250197,0.0376790000000256,
0.0129286889648438,-0.0611957944335937,0.0164721074218761,0.0646792592538455,0.041381999999885,
-0.00383072265624995,-0.00852335791015624,-0.0146525141601543,0.0173786719097649,0.045064999999795,
0.0320823022460938,-0.0157059628906249,-0.0218351191406239,0.0418655444920598,0.0488479999999072,
0.0177170922851563,-0.00373495458984374,-0.0338061274414052,0.0383497000954827,0.0525569999999789,
0.015322890625,-0.0324653745117187,-0.0481713374023425,0.0600771942289434,0.0562509999999747,
0.0201112939453125,-0.0300711728515624,0.0260489140625015,0.0445789805251185,0.0599419999998645,
0.0201112939453125,-0.0109175595703124,-0.0194409174804662,0.0300267634554305,0.0636209999997845,
0.00574608398437504,-0.0540131894531251,0.0452025273437524,0.0706661913103951,0.0674059999996643,
-0.00383072265624995,-0.0181001645507812,-0.0242293208007798,0.0304852485523993,0.0713579999996909,
0.0225054956054688,-0.0564073911132812,0.00928950244140836,0.0614376591372375,0.0752589999997326,
0.024899697265625,-0.0109175595703124,0.0308373173828134,0.0411111684856981,0.0790600000000268,
0.00574608398437504,-0.0420421811523437,0.0667503422851574,0.0790959586349875,0.0828179999998611,
0.024899697265625,-0.0492247861328126,0.0260489140625015,0.061005085178012,0.0865999999996347,
0.00814028564453129,-0.0348595761718749,-0.0266235224609357,0.0446124001762431,0.0903949999997167,
0.00814028564453129,-0.0276769711914062,0.0380199223632829,0.0477262347269775,0.0941609999999855,
0.015322890625,-0.0611957944335937,-0.0242293208007798,0.067577927017122,0.0979569999999512,
0.00814028564453129,0.0154186586914062,-0.0457771357421866,0.048985155332766,0.101760999999897,
-0.0349553442382813,-0.0611957944335937,0.0116837041015643,0.0714374571825475,0.105544999999893,
-0.00622492431640631,-0.0372537778320312,0.00928950244140836,0.0388958674040348,0.109246999999868,
-0.00861912597656256,-0.0420421811523437,0.0188663090820338,0.0468804004571758,0.11295599999994,
0.0201112939453125,-0.0348595761718749,0.0236547124023456,0.046681898139163,0.116688999999951,
0.0177170922851563,-0.00612915624999988,-0.0122583124999984,0.022399288844186,0.120480999999927,
0.000957680664062543,-0.00134075292968738,0.00928950244140836,0.00943449131017229,0.124223999999685,
0.000957680664062543,-0.0109175595703124,0.0236547124023456,0.0260702067130915,0.127941999999621,
-0.0301669409179688,-0.0324653745117187,-0.00986411083984251,0.0454020434473502,0.131614999999783,
-0.0253785375976563,-0.0109175595703124,0.00928950244140836,0.0291471805356179,0.135311999999885,
0.0225054956054688,0.00105344873046875,-0.0050757075195289,0.0230948023048326,0.139191999999639,
0.0105344873046875,-0.00852335791015624,0.0308373173828134,0.0336832776939182,0.143113999999969,
0.024899697265625,0.0106302553710937,0.0499909306640642,0.0568514766900009,0.147000999999818,
0.0225054956054688,-0.0348595761718749,0.0140779057617202,0.0438163760934926,0.150735999999597,
-0.0565031591796875,-0.0204943662109374,0.0284431157226575,0.0664953898829505,0.154479999999694,
0.0129286889648438,-0.0252827695312499,0.0619619389648456,0.0681590149122126,0.158266999999796,
-0.0181959326171875,-0.0324653745117187,0.00210689746093884,0.0372764204679888,0.16204499999958,
0.0177170922851563,0.0297838686523437,-0.0050757075195289,0.0350248054636226,0.165805999999975,
0.0392649072265625,-0.0396479794921876,0.00450109912109475,0.0559817390817881,0.169604999999592,
-0.0469263525390625,0.0369664736328126,0.0260489140625015,0.0651701515979624,0.173386999999821,
0.00574608398437504,-0.0564073911132812,-0.0074699091796866,0.0571892542049198,0.17710999999963,
-0.0014365209960937,-0.0157059628906249,0.0428083256835947,0.0456211969453523,0.180817999999817,
-0.00622492431640631,0.0393606752929687,-0.0074699091796866,0.0405439512802621,0.184538999999859,
0.0296881005859375,-0.109079827636719,-0.038594530761717,0.119454300543656,0.188244999999824,
-0.0349553442382813,0.0489374819335937,0.0428083256835947,0.0738194146322651,0.191985999999815,
0.0296881005859375,-0.0468305844726562,0.035625720703127,0.0659065924932289,0.19581799999969,
-0.00622492431640631,-0.0659841977539062,-0.0122583124999984,0.0674012630543316,0.199506999999812,
0.0105344873046875,-0.0133117612304687,-0.0242293208007798,0.0295844282739541,0.203207999999904,
0.0129286889648438,-0.0564073911132812,0.00450109912109475,0.0580448504507873,0.206938999999693,
0.015322890625,0.00105344873046875,-0.000287304199217076,0.0153617471348909,0.210896999999932,
0.0392649072265625,-0.00373495458984374,-0.0122583124999984,0.0413031360873042,0.214722999999594,
0.00814028564453129,-0.0372537778320312,-0.00268150585937299,0.0382269366652202,0.218549999999595,
-0.0469263525390625,0.0297838686523437,0.0619619389648456,0.0832372709475971,0.222372999999607,
0.00814028564453129,-0.0204943662109374,0.00689530078125244,0.0231047282958816,0.226149999999961,
0.0201112939453125,0.0106302553710937,-0.0362003291015611,0.0427543015434794,0.230000999999902,
0.00574608398437504,-0.0348595761718749,-0.0218351191406239,0.0415328780597188,0.233774999999696,
-0.0014365209960937,0.00105344873046875,0.0332315190429711,0.0332792308310047,0.237558999999692,
0.000957680664062543,0.0345722719726562,-0.0362003291015611,0.0500661858809612,0.241428999999698,
0.024899697265625,-0.0516189877929687,0.0380199223632829,0.0687752086234603,0.245247999999719,
-0.0158017309570313,-0.0181001645507812,-0.0266235224609357,0.0358625515856263,0.248967999999877,
0.000957680664062543,-0.0228885678710937,0.0236547124023456,0.0329294565743449,0.252704999999878,
0.03447650390625,-0.0492247861328126,0.0835097539062524,0.102886286204244,0.256467999999586,
-0.0349553442382813,-0.0157059628906249,-0.0745075556640611,0.0837850178264085,0.260163999999804,
0.0943315454101562,-0.0300711728515624,-0.0050757075195289,0.0991386841901823,0.263864999999896,
-0.0134075292968751,0.0513316835937501,0.00450109912109475,0.0532443750617223,0.267700999999761,
-0.00622492431640631,-0.0109175595703124,0.0236547124023456,0.0267859703679742,0.271373999999923,
0.0488417138671875,-0.0444363828125001,0.00210689746093884,0.066064696683283,0.275084999999763,
0.00335188232421879,-0.0157059628906249,0.0188663090820338,0.0247759965251839,0.278880999999728,
0.0272938989257813,-0.0707726010742187,0.0260489140625015,0.0802013959056627,0.282868999999664,
0.015322890625,-0.0228885678710937,-0.0050757075195289,0.0280078618091274,0.286621999999625,
0.0129286889648438,0.0369664736328126,-0.0290177241210916,0.0487411477538525,0.290506999999707,
-0.204943662109375,-0.188088482421875,0.0643561406250015,0.285518641588795,0.294284999999945,
0.53247044921875,-0.0995030209960938,-0.167881420410154,0.567106517153081,0.298089999999775,
-0.738850632324219,0.666641510253906,-0.117603185546873,1.00206869491581,0.301548999999795,
-0.750821640625,-0.614256377929688,-0.0290177241210916,0.970508146370386,0.304484999999659,
1.21960632568359,-0.98296343359375,-0.0457771357421866,1.56708399506428,0.307427999999618,
-0.322259543457031,0.388914117675781,0.16730681201172,0.53206857981109,0.310471999999663,
-0.899262143554688,0.953945709472656,0.0452025273437524,1.31176525641218,0.313433999999688,
1.09989624267578,-0.314981170410156,-0.136756798828124,1.15225314249559,0.316431999999622,
-0.0972045874023437,-0.90634898046875,-0.143939403808591,0.922841133769825,0.319358999999622,
-1.10995188964844,0.273992437988281,0.181672021972657,1.15761382895011,0.322310000000016,
1.17411649414063,0.530172015625,0.119422778808595,1.29379044209768,0.325364999999692,
0.135032973632812,-0.235972515625,-0.108026378906247,0.292551928105263,0.328286999999818,
-1.20332575439453,-0.130627642578125,-0.244495873535154,1.23484196736684,0.331308999999692,
0.87723548828125,-0.200059490722656,0.121816980468752,0.907967663773758,0.334258999999747,
0.39839515625,-0.116262432617187,0.188854626953127,0.455962414989583,0.337195999999949,
-0.832224497070313,0.745650165039063,-0.141545202148436,1.12633335491672,0.34020799999962,
0.0703895288085937,-0.432297051757813,-0.0673249506835916,0.443134376582251,0.343140999999832,
0.745554396972656,-0.662140411132813,0.0787213505859388,1.00023913837565,0.346162999999706,
-0.336624753417969,0.623545880371094,-0.000287304199217076,0.708608334755649,0.349109999999655,
-0.664630380859375,0.39609672265625,-0.13196839550781,0.784883312520534,0.352030000000013,
0.824563051757813,-0.846493938964844,0.035625720703127,1.1822543749143,0.355049999999665,
0.0656011254882812,-0.221607305664063,0.0523851323242202,0.236975753353883,0.357996999999614,
-0.710120212402344,0.860571844726563,0.0116837041015643,1.11579170320448,0.3610249999997,
0.4367023828125,-0.202453692382813,0.0284431157226575,0.482188220040227,0.363972999999987,
0.18770541015625,-0.75312007421875,0.0452025273437524,0.777474395508588,0.366984999999659,
-0.4060566015625,0.558902435546875,-0.0170467158203103,0.691045936716926,0.369917999999871,
-0.0181959326171875,0.226108404785156,-0.0792959589843729,0.240299712420861,0.37284899999986,
0.30262708984375,-0.573554949707031,-0.0362003291015611,0.649506658678565,0.37586199999987,
-0.111569797363281,0.190195379882813,0.00450109912109475,0.220550135129746,0.378827000000001,
-0.140300217285156,0.163859161621094,-0.038594530761717,0.219142678687076,0.381817999999839,
0.266714064941406,-0.214424700683594,-0.038594530761717,0.3443891440007,0.384752999999819,
-0.104387192382812,0.120763531738281,0.0475967290039083,0.166571201422517,0.38769400000001,
-0.0948103857421875,0.070485296875,-0.0050757075195289,0.118249520620437,0.39073499999995,
0.271502468261719,-0.243155120605469,0.0643561406250015,0.370107708356649,0.393783999999869,
-0.0660799658203125,0.0656968935546876,0.0475967290039083,0.104633132025287,0.396915999999692,
-0.125935007324219,0.142311346679687,-0.0170467158203103,0.190795010374474,0.399946,
0.197282216796875,-0.235972515625,0.0260489140625015,0.30867757793289,0.402922999999646,
0.0392649072265625,-0.0109175595703124,0.0380199223632829,0.0557354514020649,0.405937999999878,
-0.152271225585938,0.137522943359375,0.00689530078125244,0.20529644727694,0.408880999999838,
0.0991199487304688,-0.0995030209960938,0.0380199223632829,0.145503023749302,0.411900999999943,
0.0751779321289062,-0.0995030209960938,0.0188663090820338,0.126128943089627,0.414872999999716,
-0.116358200683594,0.113580926757813,0.0332315190429711,0.1659644288617,0.417782999999872,
-0.0110133276367188,-0.0635899960937499,-0.0218351191406239,0.0681304147699255,0.420772999999826,
0.0967257470703125,-0.0731668027343749,-0.0218351191406239,0.12323158522297,0.423722999999882,
0.00574608398437504,0.0465432802734376,-0.0290177241210916,0.0551481888454647,0.426754999999957,
-0.0397437475585938,-0.0204943662109374,0.0164721074218761,0.0476541167089168,0.429703999999674,
0.0320823022460938,-0.0588015927734374,-0.00268150585937299,0.067037988512311,0.432640999999876,
0.00814028564453129,0.0273896669921876,-0.0625365473632797,0.0687552024536123,0.435707999999977,
-0.0277727392578125,-0.0181001645507812,-0.0338061274414052,0.0473476003112336,0.438640999999734,
0.00574608398437504,-0.0683783994140624,0.0404141240234388,0.0796362003624384,0.441663999999946,
-0.032561142578125,-0.0157059628906249,0.0212605107421897,0.0419394157485943,0.444599999999809,
-0.00383072265624995,-0.0204943662109374,0.0332315190429711,0.0392304389519218,0.447513999999956,
0.0847547387695312,-0.0540131894531251,0.0475967290039083,0.111203592525881,0.450539999999819,
-0.0349553442382813,0.00584185205078125,0.00450109912109475,0.0357248263746359,0.453485999999884,
-0.032561142578125,-0.00612915624999988,0.00928950244140836,0.0344106003716708,0.45650599999999,
0.0703895288085937,-0.0755610043945312,-0.0170467158203103,0.104664901811756,0.45943299999999,
-0.0014365209960937,-0.0300711728515624,-0.00986411083984251,0.0316802732295897,0.462419999999838,
-0.0565031591796875,0.00344765039062511,-0.0146525141601543,0.0584738357020865,0.465373999999883,
0.0560243188476562,-0.0181001645507812,-0.038594530761717,0.0703979975839251,0.468309999999747,
0.0272938989257813,-0.0540131894531251,-0.0170467158203103,0.0628726655529123,0.471326999999746,
0.0177170922851563,-0.0204943662109374,-0.0146525141601543,0.0307995223443851,0.474264999999832,
-0.0110133276367188,-0.0181001645507812,0.0499909306640642,0.0542955107818165,0.477261999999882,
0.00335188232421879,-0.0779552060546874,-0.00986411083984251,0.0786482672969016,0.480203999999958,
0.00574608398437504,-0.0611957944335937,-0.0194409174804662,0.0644662082799698,0.483116999999766,
-0.0253785375976563,0.104004120117188,-0.038594530761717,0.11380010973924,0.486145999999735,
-0.116358200683594,-0.0300711728515624,0.0212605107421897,0.122047186038887,0.489081999999598,
0.0392649072265625,-0.149781255859375,0.0380199223632829,0.159441751253654,0.49211299999979,
0.0225054956054688,0.0417548769531251,0.0906923588867201,0.102347794515837,0.495071999999709,
-0.109175595703125,0.123157733398437,-0.00268150585937299,0.164603549374388,0.497988999999961,
0.0656011254882812,-0.0851378110351562,-0.0242293208007798,0.11017719600559,0.500995999999759,
-0.0158017309570313,-0.147387054199219,-0.0338061274414052,0.152037800231871,0.503906999999799,
0.00335188232421879,0.0561200869140626,-0.0074699091796866,0.0567141852935411,0.506945999999971,
0.0416591088867188,0.0345722719726562,0.0116837041015643,0.055382599109465,0.50990899999988,
-0.0828393774414062,-0.0683783994140624,-0.0170467158203103,0.108759176539579,0.512784999999894,
0.0512359155273437,-0.0755610043945312,-0.0170467158203103,0.0928718199740582,0.515809999999874,
0.0775721337890625,-0.0372537778320312,0.0739329472656269,0.113452018909883,0.518754999999601,
-0.0181959326171875,0.0249954653320312,0.0906923588867201,0.0958173742669441,0.521778999999697,
-0.051714755859375,0.0417548769531251,-0.0122583124999984,0.0675881050800582,0.524711999999909,
0.063206923828125,-0.190482684082031,0.0116837041015643,0.201035512028204,0.527646999999888,
0.0368707055664063,0.00344765039062511,0.0164721074218761,0.0405298105731871,0.530758999999762,
-0.142694418945313,0.0728794985351564,0.00689530078125244,0.160376630709528,0.533790999999837,
0.0799663354492187,-0.128233440917969,-0.038594530761717,0.155974254220228,0.536912999999913,
0.0225054956054688,-0.0875320126953125,0.0212605107421897,0.092845893263832,0.539933999999903,
-0.0612915625,0.0776679018554689,0.0499909306640642,0.110851485154604,0.542868999999882,
0.0392649072265625,-0.00852335791015624,0.00450109912109475,0.0404306871432221,0.545886999999766,
0.0799663354492187,-0.113868230957031,0.0284431157226575,0.142019715738602,0.548828999999841,
-0.04213794921875,0.0106302553710937,-0.0266235224609357,0.0509649000964838,0.551872999999887,
-0.00383072265624995,0.0489374819335937,-0.00986411083984251,0.0500684756781212,0.554813999999624,
0.082360537109375,-0.0611957944335937,0.0452025273437524,0.112122485735762,0.557828999999856,
-0.00861912597656256,-0.0276769711914062,0.0308373173828134,0.0423230931088236,0.560757999999623,
-0.00861912597656256,-0.0157059628906249,0.00210689746093884,0.0180390027394103,0.563675999999759,
0.0201112939453125,-0.0396479794921876,-0.000287304199217076,0.0444579460352205,0.566708999999719,
0.0320823022460938,-0.00134075292968738,-0.0122583124999984,0.0343705973351613,0.569653000000017,
-0.0253785375976563,0.00823605371093761,0.0164721074218761,0.031356547549801,0.572721000000001,
-0.00383072265624995,-0.0204943662109374,-0.0146525141601543,0.0254831248804114,0.575651999999991,
-0.0397437475585938,-0.00134075292968738,-0.0338061274414052,0.0521940354926138,0.578556999999819,
0.0296881005859375,0.0130244570312501,-0.0362003291015611,0.048595098769536,0.58159999999998,
0.03447650390625,-0.0204943662109374,0.0116837041015643,0.0417750800061304,0.584559999999783,
0.00335188232421879,-0.0468305844726562,0.00210689746093884,0.0469976358349748,0.587591999999859,
-0.0014365209960937,0.0178128603515626,-0.0218351191406239,0.0282158468659321,0.590528999999606,
0.0368707055664063,0.00823605371093761,0.0188663090820338,0.0422281793127871,0.593478999999661,
-0.0373495458984375,-0.0276769711914062,-0.0050757075195289,0.0467628711690506,0.596464999999625,
-0.0110133276367188,-0.0133117612304687,0.00928950244140836,0.0196160961534057,0.599410999999691,
0.0847547387695312,-0.0731668027343749,0.0475967290039083,0.12166427321993,0.60244799999964,
0.0296881005859375,-0.0109175595703124,0.00450109912109475,0.03195052920798,0.605398999999579,
-0.00383072265624995,-0.0109175595703124,-0.0242293208007798,0.0268500936591947,0.608295999999882,
0.0799663354492187,-0.0803494077148437,-0.00986411083984251,0.113789027625531,0.611319999999978,
0.0201112939453125,-0.00612915624999988,-0.0290177241210916,0.0358337691801945,0.614250999999967,
-0.0014365209960937,-0.0228885678710937,-0.0338061274414052,0.0408510022440871,0.617255999999998,
0.0320823022460938,-0.0300711728515624,-0.0864785639648424,0.0970159346679688,0.620180999999775,
0.0129286889648438,-0.0348595761718749,0.0164721074218761,0.0406653583797099,0.623120999999628,
-0.0445321508789063,0.0273896669921876,0.0404141240234388,0.0660803128051502,0.626146999999946,
0.0177170922851563,-0.0707726010742187,-0.0050757075195289,0.0731328874629947,0.629093000000012,
0.00814028564453129,-0.0635899960937499,0.0811155522460947,0.103390931274298,0.632116999999653,
-0.0277727392578125,-0.0157059628906249,-0.0314119257812475,0.0447740035901496,0.635033999999905,
0.0129286889648438,-0.0157059628906249,0.0308373173828134,0.0369427721217523,0.637960999999905,
0.015322890625,-0.0540131894531251,-0.0074699091796866,0.0566393428206724,0.640964999999596,
-0.00861912597656256,-0.0444363828125001,0.0739329472656269,0.0866888813022805,0.643894999999702,
-0.00861912597656256,-0.0420421811523437,0.00450109912109475,0.0431519897796644,0.646900999999616,
0.015322890625,-0.0324653745117187,-0.0362003291015611,0.0509828926832639,0.649826999999732,
0.0392649072265625,-0.0372537778320312,-0.0314119257812475,0.0625802363654493,0.652826999999888,
-0.0014365209960937,-0.0133117612304687,0.0380199223632829,0.0403085732337339,0.655759999999646,
0.0177170922851563,-0.0228885678710937,0.0188663090820338,0.0345502462597481,0.658698999999615,
0.03447650390625,-0.0133117612304687,-0.0146525141601543,0.0397558609499053,0.661706999999751,
0.0464475122070312,0.00105344873046875,0.0882981572265642,0.0997749753899097,0.664667000000009,
0.00814028564453129,-0.0372537778320312,0.0188663090820338,0.0425446334043641,0.667685999999776,
0.03447650390625,-0.0707726010742187,-0.0314119257812475,0.0847590671591823,0.670726999999715,
0.0105344873046875,-0.0204943662109374,-0.0074699091796866,0.0242238314953147,0.673748999999589,
-0.00622492431640631,-0.00134075292968738,-0.0146525141601543,0.0159763410196758,0.676854999999705,
0.00574608398437504,0.0130244570312501,0.0140779057617202,0.0200210237687848,0.679846999999882,
0.015322890625,-0.0252827695312499,0.00210689746093884,0.029638630690147,0.682868999999755,
0.0225054956054688,0.0130244570312501,0.0332315190429711,0.0421955882920241,0.68582699999979,
-0.0253785375976563,0.0226012636718751,-0.040988732421873,0.0532443750617206,0.688739999999598,
0.00335188232421879,-0.0468305844726562,-0.0194409174804662,0.0508162181753847,0.691777000000002,
0.0560243188476562,0.00584185205078125,0.00689530078125244,0.0567485392815622,0.694734999999582,
-0.0205901342773438,0.00105344873046875,0.0763271489257829,0.0790626147235557,0.6977609999999,
0.0392649072265625,-0.0181001645507812,-0.0481713374023425,0.0647288702466391,0.700712999999723,
-0.0134075292968751,-0.0228885678710937,0.0212605107421897,0.0339949657751702,0.703632999999627,
-0.0277727392578125,-0.00612915624999988,0.0595677373046897,0.0660091427744663,0.706659999999829,
0.0272938989257813,-0.0157059628906249,-0.0697191523437475,0.0765009437355064,0.709610999999768,
0.0368707055664063,-0.0348595761718749,0.00689530078125244,0.0512072666006623,0.712678999999753,
0.00574608398437504,-0.0133117612304687,0.105057568847657,0.106053350915437,0.715635999999904,
-0.00383072265624995,-0.0133117612304687,-0.0074699091796866,0.0157377560750853,0.718533999999636,
-0.0158017309570313,-0.0109175595703124,-0.0457771357421866,0.0496430656282254,0.721536999999898,
0.0272938989257813,0.00823605371093761,0.0380199223632829,0.0475216160900518,0.724500999999691,
0.0129286889648438,-0.0228885678710937,0.0212605107421897,0.0338089759466048,0.727519999999913,
-0.0349553442382813,-0.0300711728515624,-0.0290177241210916,0.0544810044020213,0.730431999999837,
0.00335188232421879,-0.0324653745117187,-0.0194409174804662,0.0379892738780812,0.733344999999645,
0.0320823022460938,-0.0516189877929687,-0.0338061274414052,0.0695460154916505,0.736359999999877,
-0.0158017309570313,0.0130244570312501,0.0188663090820338,0.0278436491964705,0.739330999999765,
-0.0229843359375,-0.0324653745117187,-0.0457771357421866,0.0606450855175635,0.742338999999902,
0.024899697265625,0.00105344873046875,0.0188663090820338,0.0312576758017344,0.745300999999927,
0.0296881005859375,-0.0396479794921876,0.0787213505859388,0.0930075084726387,0.748306999999841,
0.0225054956054688,-0.0157059628906249,-0.0290177241210916,0.0399399914363691,0.751236999999946,
0.0105344873046875,-0.0276769711914062,-0.0266235224609357,0.0398221308486939,0.754165999999714,
0.015322890625,-0.0420421811523437,0.00210689746093884,0.0447970422021712,0.757191999999577,
0.024899697265625,0.0130244570312501,-0.0338061274414052,0.0439600461494661,0.760151999999835,
-0.0158017309570313,-0.0204943662109374,0.0140779057617202,0.0294601625634056,0.763142999999673,
0.0177170922851563,-0.0492247861328126,0.00210689746093884,0.0523585135939972,0.766114000000016,
-0.00861912597656256,-0.0204943662109374,0.0404141240234388,0.0461260208512479,0.769018999999844,
0.024899697265625,0.0130244570312501,0.0236547124023456,0.03673114242324,0.772062000000005,
0.00574608398437504,-0.0204943662109374,-0.0960553706054679,0.0983853177547203,0.774985999999899,
0.00814028564453129,-0.0372537778320312,0.0595677373046897,0.0707278130634153,0.778017999999975,
-0.0014365209960937,0.0106302553710937,-0.0218351191406239,0.0243277280014416,0.780946999999742,
0.0368707055664063,-0.0300711728515624,0.0787213505859388,0.091982473350674,0.783880999999838,
-0.0253785375976563,-0.0228885678710937,-0.0122583124999984,0.0363073399622299,0.786871999999676,
-0.0134075292968751,0.0106302553710937,0.0523851323242202,0.0551086768098027,0.789817999999741,
-0.0397437475585938,0.00344765039062511,-0.0170467158203103,0.0433825112628997,0.792831999999635,
0.00814028564453129,-0.00373495458984374,0.0380199223632829,0.0390605764508515,0.79576999999972,
0.000957680664062543,-0.0372537778320312,-0.000287304199217076,0.0372671927936026,0.798689999999624,
0.0129286889648438,-0.0228885678710937,-0.0050757075195289,0.0267731272802252,0.801706999999624,
0.0105344873046875,-0.0133117612304687,-0.00986411083984251,0.0196336214817932,0.804640999999719,
0.0105344873046875,-0.0276769711914062,0.00450109912109475,0.0299541324427945,0.80773999999974,
-0.0565031591796875,-0.0516189877929687,0.035625720703127,0.0844175270525793,0.810762999999952,
0.00814028564453129,-0.0252827695312499,-0.0242293208007798,0.0359519494883373,0.813784999999825,
0.0225054956054688,-0.0468305844726562,-0.0697191523437475,0.086950337423319,0.816885999999613,
0.0201112939453125,-0.0133117612304687,-0.0290177241210916,0.0377318889585395,0.819819999999709,
0.0368707055664063,-0.0300711728515624,-0.0170467158203103,0.0505402303703849,0.822831999999835,
-0.0134075292968751,0.0106302553710937,0.0308373173828134,0.0352661922309397,0.82578199999989,
0.015322890625,-0.0133117612304687,-0.0481713374023425,0.0522730495694774,0.82871699999987,
0.0105344873046875,-0.0133117612304687,-0.0074699091796866,0.018546642633706,0.831738999999743,
-0.0253785375976563,0.00584185205078125,-0.0529597407226543,0.0590163667416899,0.834678999999596,
0.00335188232421879,-0.0181001645507812,0.0308373173828134,0.0359136633504455,0.837704999999914,
-0.0014365209960937,0.00584185205078125,-0.00986411083984251,0.0115538526308818,0.840643,
0.0177170922851563,-0.0396479794921876,-0.0721133540039052,0.0841795311376003,0.843645999999808,
0.0272938989257813,-0.0181001645507812,-0.0529597407226543,0.0622680256050157,0.846592999999757,
-0.0014365209960937,-0.0252827695312499,-0.0338061274414052,0.042239037398206,0.849529999999959,
0.00814028564453129,0.0202070620117187,0.071538745605471,0.074782228693215,0.852597999999944,
-0.00383072265624995,0.0154186586914062,0.0164721074218761,0.0228853620209297,0.855544999999893,
0.0320823022460938,0.0297838686523437,-0.0146525141601543,0.046163287583569,0.858564999999999,
0.0416591088867188,0.00584185205078125,0.0164721074218761,0.045176751892279,0.861547999999857,
0.03447650390625,-0.0181001645507812,-0.0218351191406239,0.0446432268798781,0.864460999999665,
0.00574608398437504,-0.00852335791015624,-0.0505655390624984,0.0515997950761547,0.867476999999781,
-0.0229843359375,-0.0588015927734374,0.00210689746093884,0.0631691857482106,0.870421999999962,
-0.00383072265624995,-0.0324653745117187,-0.038594530761717,0.0505787779901055,0.873419999999896,
-0.00861912597656256,-0.0133117612304687,0.0260489140625015,0.0304965283842679,0.876352999999654,
-0.00383072265624995,0.0130244570312501,0.035625720703127,0.038124833017932,0.879302999999709,
0.0105344873046875,-0.0252827695312499,0.0332315190429711,0.0430642277980956,0.882337999999891,
-0.0253785375976563,-0.00612915624999988,-0.0338061274414052,0.0427140606769843,0.885247999999592,
0.044053310546875,-0.0348595761718749,0.0212605107421897,0.060065743465314,0.888278999999784,
-0.0014365209960937,0.0130244570312501,0.0763271489257829,0.0774437456265497,0.89121699999987,
0.0201112939453125,-0.0181001645507812,-0.000287304199217076,0.0270585041091153,0.894135000000006,
0.0584185205078125,-0.0300711728515624,0.0619619389648456,0.0903121301668469,0.897168999999849,
-0.00861912597656256,-0.0300711728515624,-0.0505655390624984,0.0594595535633211,0.900079000000005,
0.024899697265625,0.00823605371093761,0.0188663090820338,0.0323073540084615,0.903120999999828,
0.0368707055664063,-0.0707726010742187,-0.0314119257812475,0.0857608248156565,0.906054999999924,
-0.0134075292968751,-0.0181001645507812,-0.038594530761717,0.0446868616410802,0.908961999999974,
0.0296881005859375,-0.0204943662109374,0.0116837041015643,0.037919800953086,0.911988999999721,
0.000957680664062543,-0.0181001645507812,-0.0194409174804662,0.0265797362948162,0.914921999999933,
-0.00622492431640631,-0.0396479794921876,0.0140779057617202,0.0425311578868221,0.917925999999625,
0.0225054956054688,-0.0348595761718749,0.0499909306640642,0.0649675344459815,0.920873000000029,
0.0272938989257813,-0.0300711728515624,0.00689530078125244,0.0411919595079336,0.923804000000018,
-0.0158017309570313,-0.00612915624999988,-0.0553539423828102,0.0578905881374061,0.926785999999993,
-0.0349553442382813,0.00105344873046875,-0.0074699091796866,0.0357601088952094,0.929721999999856,
-0.0014365209960937,-0.0133117612304687,-0.00986411083984251,0.0166303115511985,0.932718999999906,
-0.0134075292968751,-0.0181001645507812,0.071538745605471,0.0750011328008866,0.935655999999653,
0.015322890625,-0.0372537778320312,-0.0242293208007798,0.0470073922519762,0.93866399999979,
0.0296881005859375,-0.0516189877929687,0.0140779057617202,0.0611889748876975,0.941629999999805,
-0.00383072265624995,-0.0228885678710937,-0.0529597407226543,0.0578212340984654,0.944551999999931,
-0.00861912597656256,-0.0348595761718749,-0.0122583124999984,0.037943979875999,0.947654999999941,
0.0320823022460938,-0.0611957944335937,-0.0290177241210916,0.0749414950940809,0.950712999999723,
-0.0349553442382813,-0.00612915624999988,-0.0697191523437475,0.0782317253464624,0.953803999999764,
-0.00861912597656256,-0.0300711728515624,-0.0194409174804662,0.0368308843465738,0.956777999999758,
0.0296881005859375,-0.0133117612304687,-0.0170467158203103,0.0367311424232377,0.959707999999864,
0.024899697265625,-0.0324653745117187,-0.0242293208007798,0.0475505568061303,0.96273199999996,
0.0296881005859375,-0.0204943662109374,-0.000287304199217076,0.0360760988258382,0.965689999999995,
0.015322890625,-0.0276769711914062,0.0116837041015643,0.0337240960289309,0.968772999999601,
-0.00383072265624995,-0.0324653745117187,0.0260489140625015,0.0417997715554864,0.971695999999611,
-0.00383072265624995,0.00105344873046875,0.0428083256835947,0.0429922892869122,0.974660999999742,
-0.00622492431640631,-0.0348595761718749,0.0116837041015643,0.0372887204816771,0.977685999999721,
0.000957680664062543,-0.0300711728515624,0.0188663090820338,0.035512395122009,0.98064899999963,
-0.00861912597656256,-0.0204943662109374,-0.0362003291015611,0.042482610631283,0.983676999999716,
-0.0014365209960937,0.0202070620117187,-0.0122583124999984,0.02367815814343,0.986653999999817,
-0.00383072265624995,-0.0396479794921876,-0.0362003291015611,0.0538247205375315,0.989595000000008,
-0.0014365209960937,-0.0372537778320312,0.0428083256835947,0.0567667182701561,0.992631999999958,
0.044053310546875,0.00823605371093761,0.0643561406250015,0.0784234632429213,0.99560399999973,
-0.00383072265624995,-0.00852335791015624,0.0595677373046897,0.0602962469290937,0.998621999999614,
0.015322890625,-0.00134075292968738,0.00210689746093884,0.0155250640074394,1.00159099999973,
-0.0181959326171875,-0.0133117612304687,0.0452025273437524,0.050513002574871,1.00451699999985,
0.015322890625,-0.0659841977539062,-0.038594530761717,0.0779630882857358,1.00755299999992,
-0.0134075292968751,-0.00612915624999988,-0.040988732421873,0.0435592077950848,1.01048499999979,
