X,Y,Z,Magnitude,Seconds,
-0.671812985839844,-0.0540131894531251,0.00928950244140836,0.674044811146525,0.0,
-0.652659372558594,-0.0396479794921876,-0.0601423457031238,0.656622662274966,0.00374700000065786,
-0.652659372558594,-0.0611957944335937,-0.0457771357421866,0.65711850377363,0.00749900000027992,
-0.678995590820313,-0.0899262143554688,-0.0314119257812475,0.685644547461013,0.0113420000006954,
-0.676601389160156,-0.0420421811523437,-0.0481713374023425,0.679615672683194,0.0151570000007268,
-0.640688364257813,-0.111474029296875,0.0164721074218761,0.650522382109909,0.0188920000000508,
-0.662236179199219,0.00584185205078125,0.0499909306640642,0.664146051275186,0.0226640000000771,
-0.726879624023438,-0.116262432617187,0.0380199223632829,0.737100030901526,0.0264139999999315,
-0.686178195800781,-0.0492247861328126,-0.0242293208007798,0.688368110787174,0.0301450000006298,
-0.650265170898438,0.0297838686523437,-0.000287304199217076,0.650946967009738,0.0339370000001509,
-0.719697019042969,-0.0971088193359375,0.00928950244140836,0.726278332919112,0.0376970000006622,
-0.748427438964844,-0.0181001645507812,0.0787213505859388,0.752773736517365,0.0413930000004257,
-0.6358999609375,-0.0588015927734374,0.0116837041015643,0.638719732413631,0.0451050000001487,
-0.753215842285156,-0.0109175595703124,0.0116837041015643,0.753385563385603,0.0489210000005187,
-0.6358999609375,-0.0875320126953125,0.0739329472656269,0.646139841101126,0.0528709999998682,
-0.645476767578125,-0.113868230957031,-0.0362003291015611,0.656442453937472,0.0566500000004453,
-0.717302817382813,-0.0348595761718749,-0.040988732421873,0.719318148013628,0.060418000000027,
-0.599986936035156,-0.0947146176757813,0.00450109912109475,0.607433487805556,0.0641840000007505,
-0.6742071875,-0.0971088193359375,-0.00268150585937299,0.681170055818042,0.0679509999999937,
-0.762792648925781,-0.0444363828125001,0.00928950244140836,0.764142337675566,0.0717549999999392,
-0.61674634765625,-0.0635899960937499,0.0212605107421897,0.620380330335792,0.0754919999999402,
-0.662236179199219,-0.0659841977539062,-0.0194409174804662,0.665799234503982,0.0792680000004111,
-0.690966599121094,-0.123445037597656,0.00689530078125244,0.701940925991156,0.0830500000001848,
-0.611957944335938,-0.0181001645507812,-0.0577481440429679,0.614943078449574,0.0867590000007112,
-0.664630380859375,-0.0683783994140624,0.0236547124023456,0.668557173386499,0.0905000000002474,
-0.669418784179688,-0.0516189877929687,-0.0577481440429679,0.673884913508078,0.0941920000004757,
-0.657447775878906,-0.0707726010742187,0.0308373173828134,0.661964711456962,0.0979320000005828,
-0.667024582519531,-0.0204943662109374,0.0308373173828134,0.668051459750753,0.101646000000073,
-0.678995590820313,-0.0564073911132812,-0.0266235224609357,0.681854543193679,0.105476000000635,
-0.683783994140625,-0.0779552060546874,-0.0481713374023425,0.689897124607043,0.109164000000419,
-0.671812985839844,-0.0468305844726562,-0.0314119257812475,0.674175422769462,0.112872000000607,
-0.667024582519531,-0.0540131894531251,-0.00268150585937299,0.669213276014402,0.116554000000178,
-0.6742071875,-0.0731668027343749,-0.0553539423828102,0.68042102527505,0.120472000000518,
-0.664630380859375,-0.0276769711914062,-0.0146525141601543,0.665367758511653,0.124313000000257,
-0.659841977539063,-0.0611957944335937,-0.0912669672851543,0.668929009608978,0.128153000000566,
-0.652659372558594,-0.0851378110351562,0.0332315190429711,0.65902734185642,0.131955000000744,
-0.652659372558594,-0.0444363828125001,0.00928950244140836,0.654236305597332,0.135691000000406,
-0.698149204101563,-0.0611957944335937,0.0332315190429711,0.701613547689829,0.139524000000165,
-0.710120212402344,-0.0827436093749999,-0.0170467158203103,0.715127828765607,0.143297999999959,
-0.695755002441406,-0.0564073911132812,0.0188663090820338,0.698292742918632,0.14706600000045,
-0.633505759277344,-0.0468305844726562,0.0667503422851574,0.638731758154235,0.150872000000163,
-0.686178195800781,-0.0516189877929687,0.0260489140625015,0.6886098911699,0.154694000000745,
-0.650265170898438,-0.0851378110351562,0.0571735356445338,0.658302402038401,0.158440000000155,
-0.690966599121094,-0.0396479794921876,0.0619619389648456,0.694871272437612,0.162172000000282,
-0.628717355957031,-0.0947146176757813,-0.0433829340820289,0.637289927311452,0.165918000000602,
-0.659841977539063,-0.0947146176757813,-0.0122583124999984,0.666717751638186,0.169648000000052,
-0.667024582519531,-0.0252827695312499,0.0499909306640642,0.669372919432199,0.173402000000351,
-0.609563742675781,-0.0899262143554688,0.0188663090820338,0.616450012597608,0.177225000000362,
-0.681389792480469,-0.1210508359375,-0.0146525141601543,0.692213876160365,0.180927000000338,
-0.669418784179688,-0.0444363828125001,0.0164721074218761,0.671094204305914,0.184634000000187,
-0.643082565917969,-0.1210508359375,0.00210689746093884,0.65437980598863,0.188426000000618,
-0.702937607421875,-0.0492247861328126,-0.0218351191406239,0.704997256679554,0.192393000000266,
-0.662236179199219,-0.0540131894531251,0.0332315190429711,0.6652657480535,0.196200000000317,
-0.671812985839844,-0.0875320126953125,0.00928950244140836,0.67755504281582,0.200063000000227,
-0.707726010742188,-0.0659841977539062,-0.0218351191406239,0.711130644159119,0.203868000000512,
-0.638294162597656,-0.0779552060546874,0.0188663090820338,0.64331360142286,0.207674000000225,
-0.683783994140625,-0.0803494077148437,0.0260489140625015,0.688981221722964,0.211506999999983,
-0.667024582519531,-0.0707726010742187,0.0404141240234388,0.671985011863172,0.215269000000262,
-0.643082565917969,-0.0827436093749999,0.0332315190429711,0.649234953878752,0.219034000000647,
-0.686178195800781,-0.0635899960937499,0.0164721074218761,0.689315264823387,0.222803999999996,
-0.667024582519531,-0.0659841977539062,-0.0146525141601543,0.670440455379742,0.226692000000185,
-0.683783994140625,-0.0444363828125001,0.0284431157226575,0.68581641391292,0.230421000000206,
-0.7125144140625,-0.0659841977539062,0.0260489140625015,0.716037185154437,0.234148999999888,
-0.676601389160156,-0.0755610043945312,0.0236547124023456,0.681218357516444,0.237879000000248,
-0.645476767578125,-0.0564073911132812,0.0643561406250015,0.651124998822389,0.241587000000436,
-0.662236179199219,-0.0564073911132812,0.0260489140625015,0.665144417954794,0.245316000000457,
-0.667024582519531,-0.0348595761718749,-0.0338061274414052,0.668789830955004,0.249093000000357,
-0.695755002441406,-0.0276769711914062,-0.0050757075195289,0.696323775957273,0.252825000000485,
-0.645476767578125,-0.0635899960937499,-0.0457771357421866,0.650214957720189,0.256530000000566,
-0.6742071875,-0.0157059628906249,0.00210689746093884,0.674393392586177,0.26043000000027,
-0.652659372558594,-0.0707726010742187,0.00928950244140836,0.656551073799287,0.264318999999887,
-0.664630380859375,-0.106685625976563,-0.0122583124999984,0.673250051746479,0.268061000000671,
-0.623928952636719,-0.0635899960937499,-0.0050757075195289,0.62718162309524,0.271876000000702,
-0.652659372558594,-0.0372537778320312,0.0212605107421897,0.65406735881586,0.275634999999966,
-0.667024582519531,-0.0755610043945312,0.00210689746093884,0.671294047409461,0.279405000000224,
-0.659841977539063,-0.0851378110351562,0.00689530078125244,0.665347598901043,0.283202000000529,
-0.643082565917969,-0.0444363828125001,-0.0266235224609357,0.645165552903536,0.28692300000057,
-0.664630380859375,-0.0971088193359375,0.0116837041015643,0.671788787414341,0.290673000000425,
-0.65505357421875,-0.0204943662109374,0.0499909306640642,0.657277945234592,0.29442999999992,
0.106302553710938,1.35138318505859,-2.38251795605469,2.74115460284669,0.298358000000007,
-2.66139456542969,10.4397726870117,-5.69848725537109,12.187888733862,0.301726000000599,
6.28334283691406,-20.6704836850586,9.37480784655762,23.5507179325886,0.304702000000361,
-12.7385893530273,-3.70517072119141,-21.4020559443359,25.1803087237373,0.307585000000472,
-3.52570136474609,18.5555177645264,-0.278014696777342,18.8895500686133,0.310609000000113,
5.42382444091797,14.1651504702148,-6.08395372265625,16.3427002759382,0.313583000000108,
18.739775524292,-20.6704836850586,9.37480784655762,29.4335710479548,0.316634000000704,
-15.9779441992188,-16.0784049008789,-7.81735572460937,23.9775072831818,0.31955999999991,
-18.1063894750977,12.2761253603516,-0.799950658691404,21.8902835692765,0.322495000000345,
-1.51217776855469,18.5555177645264,-3.0768364375,18.8695745467801,0.325496000000385,
18.739775524292,-8.20148143896484,4.09379753466797,20.861511516412,0.32843800000046,
3.59704857421875,-13.7680002988281,0.50010084277344,14.2389146892157,0.331466000000546,
-16.4041120947266,0.104004120117188,0.13618219042969,16.4050070424351,0.334388000000217,
-13.6579627905273,12.941713421875,-2.21013543652344,18.9449885861445,0.337325000000419,
10.7245869165039,-1.45222695898438,1.27582218066406,10.8974056502785,0.340361000000485,
10.4564363305664,-7.44491371435547,-0.474339232910154,12.8447965595904,0.343299000000115,
-3.76033312744141,-0.889589568847656,0.193643030273439,3.86897563361535,0.346320999999989,
-11.5271233129883,6.60186742578125,0.124211182128908,13.2843763044486,0.349255000000085,
-0.101992990722656,-0.154569659179687,0.100269165527346,0.210590254406577,0.352171999999882,
6.82922081542969,-5.07944247412109,-0.744884020507811,8.54364354346619,0.355303000000276,
1.08074262939453,-0.279068145507812,0.298987903320315,1.155542049066,0.358344000000216,
-6.16411159423828,4.28188601708984,0.437851599609377,7.5181469547258,0.361470000000736,
-2.86490170654297,0.168647564941406,-0.0649307490234357,2.87059572066187,0.364413000000241,
3.05356479736328,-3.68122870458984,-0.57968410595703,4.81785599721408,0.367424000000028,
1.59789018798828,-0.568766546386719,0.100269165527346,1.69905925226681,0.370375999999851,
-3.40359708007813,3.20449527001953,0.457005212890627,4.69703276374597,0.37330700000075,
-2.41718599609375,0.530172015625,-0.165487218749998,2.48017268056747,0.376326000000518,
1.42311346679688,-3.02761165136719,-0.266043688476561,3.35595940008981,0.379267000000254,
0.561200869140625,-0.654957806152344,0.0116837041015643,0.862584866726525,0.382284000000254,
-2.31184112304688,2.60833905664063,0.155335803710939,3.48886388735962,0.385239000000183,
-1.28951701416016,0.238079413085938,0.0978749638671896,1.31495834355917,0.388171000000511,
0.599508095703125,-2.29738014501953,-0.258861083496091,2.38838324983498,0.391202000000703,
-0.4060566015625,-0.259914532226562,0.0571735356445338,0.485495974147198,0.394161000000167,
-1.59118642333984,1.87331914697266,0.191248828613283,2.46531437643992,0.397200000000339,
-0.609563742675781,-0.176117474121094,-0.00268150585937299,0.634501782148304,0.400117000000137,
0.0201112939453125,-1.60066746191406,-0.165487218749998,1.60932495393074,0.403065999999853,
-0.848983908691406,0.254838824707031,0.114634375488283,0.893788310417287,0.406113000000005,
-1.13149970458984,1.11914562402344,0.121816980468752,1.59612589916593,0.409067000000505,
-0.322259543457031,-0.542430328125,-0.0553539423828102,0.633360823824973,0.412044000000606,
-0.403662399902344,-0.877618560546875,0.0260489140625015,0.966352014969247,0.414976000000024,
-1.10995188964844,0.400885125976563,0.0643561406250015,1.18188146376848,0.417922999999973,
-0.76997525390625,0.4535575625,0.0523851323242202,0.895165099977407,0.420933000000332,
-0.315076938476563,-0.231184112304688,-0.0050757075195289,0.390826475240219,0.423848000000362,
-0.516189877929688,-0.571160748046875,0.0380199223632829,0.770793165955071,0.426873000000342,
-1.00939541992188,0.132734540039062,0.0739329472656269,1.02076620857571,0.429837000000589,
-0.726879624023438,0.285963446289063,0.0428083256835947,0.782279766568077,0.432781999999861,
-0.346201560058594,-0.298221758789063,-0.0314119257812475,0.458015771217032,0.43577600000026,
-0.676601389160156,-0.341317388671875,-0.0146525141601543,0.757958901124892,0.438709000000017,
-0.939963571777344,0.1854069765625,0.0116837041015643,0.958146007750386,0.441745000000083,
-0.571256516113281,0.0369664736328126,-0.000287304199217076,0.572451403979789,0.444667000000663,
-0.427604416503906,-0.300615960449219,0.0475967290039083,0.524862783308479,0.447587000000567,
-0.810676682128906,-0.130627642578125,-0.0912669672851543,0.826190004339486,0.450590000000375,
-0.853772312011719,0.0920331118164064,0.00928950244140836,0.858768623835347,0.45354800000041,
-0.552102902832031,-0.113868230957031,0.00210689746093884,0.563726909375231,0.456551000000218,
-0.566468112792969,-0.200059490722656,0.00450109912109475,0.600774652039127,0.459475999999995,
-0.815465085449219,0.0178128603515626,-0.0242293208007798,0.816019401464863,0.462470000000394,
-0.746033237304688,0.00344765039062511,0.0212605107421897,0.746344080685006,0.465423999999985,
-0.525766684570313,-0.185694280761719,-0.0050757075195289,0.557618808253895,0.468332000000373,
-0.631111557617188,-0.116262432617187,-0.0338061274414052,0.642620887964781,0.471332000000075,
-0.719697019042969,0.0202070620117187,-0.0074699091796866,0.720019391487225,0.474271000000044,
-0.707726010742188,-0.0755610043945312,0.0236547124023456,0.712141219903047,0.477267000000211,
-0.588015927734375,-0.14020444921875,0.00450109912109475,0.604516566144675,0.480202000000645,
-0.640688364257813,-0.0468305844726562,-0.0481713374023425,0.644201180908986,0.483098000000609,
-0.707726010742188,0.0297838686523437,0.0523851323242202,0.710286834456037,0.486135000000104,
-0.599986936035156,-0.00612915624999988,-0.110420580566405,0.610093922754369,0.489039000000048,
-0.511401474609375,0.192589581542969,-0.297168310058591,0.622037956763587,0.492138999999952,
-0.542526096191406,0.0130244570312501,0.12899958544922,0.557803813697716,0.495179999999891,
-0.9423577734375,-1.52644721044922,1.54636696826172,2.36840242779331,0.498222000000169,
-1.72047331298828,-0.891983770507813,-0.72573040722656,2.06938350518396,0.501279000000068,
-0.554497104492188,3.26435031152344,-1.59721981152344,3.67621559780657,0.504230999999891,
1.74154228759766,0.369760504394531,0.864019495117189,1.97894468291651,0.507282999999916,
-0.652659372558594,-3.89431265234375,0.749097815429689,4.01905247886548,0.510205000000497,
-3.95426346191406,0.197377984863281,-0.529405871093749,3.99442463585005,0.513155000000552,
-0.825041892089844,3.23801409326172,-0.23491906689453,3.34971884788191,0.516175000000658,
2.97455614257813,-0.659746209472656,0.279834290039064,3.05966608245809,0.519121000000268,
-0.360566770019531,-2.64693358740234,-0.0290177241210916,2.67153660653829,0.522127000000182,
-4.26311547607422,0.815082013183594,0.00689530078125244,4.34034097689707,0.525065000000723,
-2.69730759033203,2.07443208642578,-0.17745822705078,3.40737848505323,0.528004000000692,
2.11982614990234,-0.257520330566406,0.0619619389648456,2.13630964711231,0.531042999999954,
0.917936916503906,-1.29899805273438,0.093086560546876,1.59332019112382,0.534061000000293,
-3.21206094726563,0.618757477050781,-0.0170467158203103,3.27115987607996,0.537076000000525,
-1.92637465576172,0.659458905273438,0.0643561406250015,2.03714188876025,0.540013000000727,
1.15496288085938,-0.458633270019531,0.0284431157226575,1.24301759575792,0.54293300000063,
0.161369191894531,-0.336528985351563,-0.0649307490234357,0.378824202293347,0.545945000000756,
-2.05566154541016,0.302722857910156,-0.0529597407226543,2.07850673612495,0.548870999999963,
-1.21769096435547,-0.092320416015625,0.0188663090820338,1.22133135614567,0.551903999999922,
0.367270534667969,-0.348499993652344,-0.0338061274414052,0.507427576569863,0.55483600000025,
-0.331836350097656,0.113580926757813,0.0212605107421897,0.351380135304084,0.557859000000462,
-1.37570827392578,0.0369664736328126,-0.0170467158203103,1.37631041761695,0.560801999999967,
-0.954328781738281,-0.264702935546875,-0.0242293208007798,0.990655403118396,0.563751000000593,
-0.161848032226563,-0.109079827636719,-0.038594530761717,0.198954095553682,0.566733000000568,
-0.46351744140625,0.132734540039062,0.138576392089846,0.501667512454032,0.569702000000689,
-1.12192289794922,-0.0971088193359375,-0.0218351191406239,1.1263293852881,0.572697999999946,
-0.860954916992188,-0.235972515625,-0.0481713374023425,0.894006082177602,0.5756250000004,
-0.355778366699219,-0.00134075292968738,0.0116837041015643,0.355972685428412,0.578543000000536,
-0.530555087890625,0.0369664736328126,0.0164721074218761,0.532096374524759,0.581583000000137,
-0.971088193359375,-0.092320416015625,-0.0170467158203103,0.975615666651336,0.584515999999894,
-0.813070883789063,-0.111474029296875,-0.0553539423828102,0.822541658647468,0.587515000000167,
-0.444363828125,-0.0420421811523437,0.0954807622070337,0.456446418206548,0.590426000000662,
-0.626323154296875,-0.0133117612304687,0.0212605107421897,0.626825259472258,0.593346999999994,
-0.920809958496094,-0.0635899960937499,-0.0122583124999984,0.923084467150287,0.596360000000459,
-0.652659372558594,-0.0875320126953125,-0.117603185546873,0.668921982809537,0.599267999999938,
-0.4060566015625,-0.0611957944335937,-0.0457771357421866,0.413185715006708,0.602257000000463,
-0.700543405761719,-0.0611957944335937,0.0523851323242202,0.705159691631061,0.605191999999988,
-0.899262143554688,-0.0372537778320312,0.0284431157226575,0.900482791409887,0.608125000000655,
-0.619140549316406,-0.109079827636719,-0.0553539423828102,0.63110814250998,0.611115000000609,
-0.470700046386719,-0.125839239257812,0.00210689746093884,0.48723555578627,0.614035000000513,
-0.688572397460938,-0.0396479794921876,0.0164721074218761,0.689909587660466,0.617043000000194,
-0.834618698730469,-0.0492247861328126,0.00928950244140836,0.836120653193049,0.619962000000669,
-0.619140549316406,-0.1210508359375,-0.00986411083984251,0.630940270843168,0.622863999999936,
-0.499430466308594,-0.0971088193359375,-0.0122583124999984,0.508931409617629,0.625860000000102,
-0.729273825683594,0.00584185205078125,-0.040988732421873,0.730448161232623,0.62888699999985,
-0.786734665527344,-0.0276769711914062,-0.0505655390624984,0.788843661581579,0.631984000000557,
-0.595198532714844,-0.161752264160156,-0.00986411083984251,0.616864968197661,0.635008000000198,
-0.621534750976562,-0.0564073911132812,0.0523851323242202,0.626283835439116,0.637994000000617,
-0.734062229003906,0.00105344873046875,-0.0122583124999984,0.734165330174177,0.641007000000172,
-0.6742071875,-0.0611957944335937,0.0499909306640642,0.678822031228862,0.643934000000627,
-0.602381137695312,-0.1210508359375,-0.00986411083984251,0.614502758834269,0.646936000000096,
-0.652659372558594,-0.0635899960937499,-0.0170467158203103,0.655971443518724,0.64986399999998,
-0.719697019042969,-0.0204943662109374,0.0164721074218761,0.720177164723126,0.652861000000485,
-0.681389792480469,-0.142598650878906,-0.0146525141601543,0.69630533582637,0.655784999999923,
-0.650265170898438,-0.0851378110351562,0.0164721074218761,0.65602177530502,0.658739000000423,
-0.683783994140625,-0.0157059628906249,-0.00986411083984251,0.684035473199957,0.661738000000696,
-0.6742071875,-0.0181001645507812,0.0380199223632829,0.675520882082808,0.664690999999948,
-0.633505759277344,-0.0827436093749999,-0.0170467158203103,0.639113951068372,0.667668000000049,
-0.671812985839844,-0.111474029296875,0.0188663090820338,0.681259924528888,0.670657000000574,
-0.69336080078125,-0.0276769711914062,0.0571735356445338,0.696264337714092,0.673585999999887,
-0.667024582519531,-0.0635899960937499,0.00210689746093884,0.670052177300745,0.676593000000139,
-0.652659372558594,-0.104291424316406,0.0164721074218761,0.661144680155138,0.679529000000002,
-0.678995590820313,-0.0803494077148437,-0.0433829340820289,0.685108107267107,0.682525000000169,
-0.695755002441406,-0.0444363828125001,-0.0553539423828102,0.699366623794001,0.685433999999987,
-0.638294162597656,-0.0468305844726562,-0.000287304199217076,0.640009862574005,0.688336000000163,
-0.669418784179688,-0.0899262143554688,-0.038594530761717,0.676533643247425,0.691326000000117,
-0.698149204101563,-0.0635899960937499,0.00689530078125244,0.701073137385617,0.694258000000445,
-0.671812985839844,-0.0540131894531251,0.0332315190429711,0.674799560192394,0.697259000000486,
-0.621534750976562,-0.0683783994140624,0.0475967290039083,0.627093693788893,0.700200000000223,
-0.683783994140625,-0.0899262143554688,-0.0194409174804662,0.689945812324196,0.703099000000293,
-0.710120212402344,-0.0468305844726562,0.0428083256835947,0.712949067221659,0.706130000000485,
-0.664630380859375,-0.0468305844726562,-0.000287304199217076,0.666278267202999,0.709039000000303,
-0.659841977539063,-0.0564073911132812,-0.0505655390624984,0.664176258861719,0.712041000000681,
-0.688572397460938,-0.0492247861328126,-0.0074699091796866,0.690370064282974,0.714955000000373,
-0.695755002441406,-0.0300711728515624,0.0188663090820338,0.696660058046454,0.717875000000276,
-0.650265170898438,-0.0564073911132812,-0.00986411083984251,0.652781653340871,0.72085800000059,
-0.652659372558594,-0.0348595761718749,0.0308373173828134,0.654316732770016,0.723819000000731,
-0.686178195800781,-0.0276769711914062,0.00450109912109475,0.686750894444298,0.726826000000074,
-0.607169541015625,-0.0516189877929687,0.0212605107421897,0.609730580465597,0.729766000000382,
-0.619140549316406,-0.0611957944335937,-0.038594530761717,0.623353417307467,0.732675000000199,
-0.664630380859375,-0.0611957944335937,0.0954807622070337,0.674236638257869,0.735693999999967,
-0.659841977539063,-0.0588015927734374,0.00210689746093884,0.662460188730059,0.738616999999977,
-0.626323154296875,-0.144992852539062,-0.0481713374023425,0.644689148848444,0.741617000000588,
-0.647870969238281,-0.0516189877929687,-0.00268150585937299,0.649929614001543,0.744533000000047,
-0.647870969238281,-0.10189722265625,-0.0194409174804662,0.656123300942201,0.747513000000254,
-0.676601389160156,-0.0492247861328126,-0.0338061274414052,0.679231458072916,0.750430000000051,
-0.671812985839844,-0.0731668027343749,-0.0074699091796866,0.675826803632832,0.753330999999889,
-0.657447775878906,-0.0492247861328126,-0.0218351191406239,0.65964947510464,0.756325000000288,
-0.671812985839844,-0.0707726010742187,-0.0290177241210916,0.676153442140927,0.759238000000551,
-0.662236179199219,-0.0683783994140624,-0.0218351191406239,0.666114956276088,0.762206000000333,
-0.667024582519531,-0.0683783994140624,-0.0290177241210916,0.67114784325434,0.765157000000727,
-0.657447775878906,-0.0659841977539062,0.00450109912109475,0.660766034428712,0.768176000000494,
-0.626323154296875,-0.0635899960937499,0.0691445439453133,0.633328784415327,0.771291000000019,
-0.6742071875,-0.0300711728515624,0.00450109912109475,0.674892485516491,0.774318000000676,
-0.657447775878906,-0.0875320126953125,0.00689530078125244,0.663284988845275,0.777364000000489,
-0.650265170898438,-0.118656634277344,0.0835097539062524,0.66625675856916,0.780279000000519,
-0.650265170898438,-0.0444363828125001,0.0739329472656269,0.655961481561544,0.783196000000316,
-0.6742071875,-0.0564073911132812,0.0164721074218761,0.676763219872198,0.786192000000483,
-0.664630380859375,-0.0564073911132812,-0.0242293208007798,0.667459659395196,0.789134999999987,
-0.662236179199219,-0.0659841977539062,-0.0194409174804662,0.665799234503982,0.792124999999942,
-0.671812985839844,-0.0995030209960938,0.035625720703127,0.680075533382883,0.795052000000396,
-0.667024582519531,-0.0635899960937499,0.0380199223632829,0.671126661506655,0.797965000000659,
-0.643082565917969,-0.0875320126953125,0.0547793339843761,0.651320055937097,0.800982000000658,
-0.65505357421875,-0.0707726010742187,0.0260489140625015,0.659380384970167,0.803907999999865,
-0.662236179199219,-0.10189722265625,-0.0218351191406239,0.670385391736218,0.806929000000309,
-0.671812985839844,-0.0444363828125001,-0.0050757075195289,0.673300113520954,0.809866000000511,
-0.652659372558594,-0.0827436093749999,0.00689530078125244,0.657919681005093,0.812799000000268,
-0.621534750976562,-0.0516189877929687,0.0140779057617202,0.623833434502275,0.815803000000415,
-0.669418784179688,-0.0133117612304687,-0.0218351191406239,0.669907071187902,0.818734000000404,
-0.65505357421875,-0.0468305844726562,0.00928950244140836,0.656791126306088,0.821748000000298,
-0.657447775878906,-0.113868230957031,0.0140779057617202,0.667384251732119,0.824679000000287,
-0.65505357421875,-0.0659841977539062,0.00928950244140836,0.65843404704313,0.827587000000676,
-0.652659372558594,-0.0468305844726562,0.0428083256835947,0.655736161103275,0.830586000000039,
-0.664630380859375,-0.0372537778320312,-0.0338061274414052,0.666531500663413,0.833494999999857,
-0.643082565917969,-0.0755610043945312,-0.000287304199217076,0.647506551717009,0.836501000000681,
-0.664630380859375,-0.0659841977539062,-0.0601423457031238,0.670600148569308,0.839410000000498,
-0.686178195800781,-0.0492247861328126,-0.0433829340820289,0.689308113206135,0.842389000000367,
-0.695755002441406,-0.0755610043945312,-0.0457771357421866,0.701341596487839,0.845303000000058,
-0.645476767578125,-0.0348595761718749,0.00210689746093884,0.646420827751472,0.848230999999942,
-0.678995590820313,-0.0635899960937499,0.0284431157226575,0.682559675624513,0.851227000000108,
-0.724485422363281,-0.0995030209960938,-0.038594530761717,0.732304251120372,0.854151999999885,
-0.6742071875,-0.0947146176757813,0.0116837041015643,0.680927822474352,0.857143000000178,
-0.643082565917969,-0.0516189877929687,-0.040988732421873,0.646451686264303,0.860066000000188,
-0.702937607421875,-0.0635899960937499,-0.0362003291015611,0.706735757803618,0.862968000000365,
-0.659841977539063,-0.0683783994140624,0.0308373173828134,0.664091846789628,0.865975000000617,
-0.667024582519531,-0.0516189877929687,0.00689530078125244,0.669054451266106,0.868893000000753,
-0.686178195800781,-0.0875320126953125,-0.0122583124999984,0.691847263392908,0.871891000000687,
-0.710120212402344,-0.106685625976563,0.0667503422851574,0.721185237679992,0.874829000000318,
-0.659841977539063,-0.0731668027343749,-0.0314119257812475,0.66462886291999,0.877739000000474,
-0.647870969238281,-0.0492247861328126,-0.0050757075195289,0.649758135892422,0.880742000000282,
-0.669418784179688,-0.0995030209960938,0.00450109912109475,0.676788460076897,0.883678000000145,
-0.676601389160156,-0.10189722265625,-0.0290177241210916,0.684846341971452,0.886671000000206,
-0.676601389160156,-0.0468305844726562,-0.0242293208007798,0.678652785628978,0.889589000000342,
-0.69336080078125,-0.0755610043945312,0.0452025273437524,0.698929133691957,0.892493000000286,
-0.669418784179688,-0.0540131894531251,0.0404141240234388,0.672809211194446,0.895500000000538,
-0.667024582519531,-0.104291424316406,0.0380199223632829,0.676198202724475,0.898412999999891,
-0.669418784179688,-0.0659841977539062,0.0475967290039083,0.674344772040022,0.901421999999911,
-0.676601389160156,-0.0779552060546874,-0.0170467158203103,0.681290719505807,0.904401000000689,
-0.662236179199219,-0.0540131894531251,0.0763271489257829,0.668804915755273,0.907422000000224,
-0.678995590820313,-0.0851378110351562,0.0164721074218761,0.684510620475827,0.910533000000214,
-0.664630380859375,-0.0588015927734374,-0.0050757075195289,0.667245781763208,0.913524999999936,
-0.638294162597656,-0.0827436093749999,-0.0170467158203103,0.643860647515364,0.916521000000103,
-0.652659372558594,-0.0516189877929687,-0.00268150585937299,0.654702960863186,0.919431000000259,
-0.678995590820313,-0.0707726010742187,-0.038594530761717,0.683764075702251,0.922336000000541,
-0.643082565917969,-0.0875320126953125,0.0212605107421897,0.649360492447108,0.92539300000044,
-0.659841977539063,-0.092320416015625,-0.0170467158203103,0.666487122948536,0.928305000000364,
-0.647870969238281,-0.0707726010742187,0.035625720703127,0.652698051031392,0.931330000000344,
-0.6742071875,-0.0588015927734374,0.0332315190429711,0.677581945485014,0.934246000000712,
-0.683783994140625,-0.0468305844726562,-0.0218351191406239,0.685733495399519,0.93723300000056,
-0.65505357421875,-0.0492247861328126,-0.00268150585937299,0.656905971308112,0.940160000000105,
-0.657447775878906,-0.0731668027343749,-0.0816901606445288,0.666531500663412,0.943073000000368,
-0.681389792480469,-0.0635899960937499,-0.0050757075195289,0.684369417571098,0.946109000000433,
-0.690966599121094,-0.0755610043945312,0.0499909306640642,0.696881194777661,0.949051000000509,
-0.667024582519531,-0.0516189877929687,-0.000287304199217076,0.669018980395795,0.952016000000185,
-0.676601389160156,-0.0635899960937499,0.0260489140625015,0.680082107793237,0.954971000000114,
-0.671812985839844,-0.0492247861328126,-0.00986411083984251,0.67368617931165,0.957863999999972,
-0.650265170898438,-0.092320416015625,0.0236547124023456,0.657211835800079,0.960883000000649,
-0.667024582519531,-0.0707726010742187,0.0188663090820338,0.671033898075607,0.963796000000002,
-0.681389792480469,-0.0396479794921876,0.0284431157226575,0.683134702973287,0.966808000000128,
-0.669418784179688,-0.0516189877929687,-0.0146525141601543,0.671565875163856,0.969720000000052,
-0.631111557617188,-0.0564073911132812,-0.00986411083984251,0.633704104936097,0.97262899999987,
-0.724485422363281,-0.0635899960937499,0.0475967290039083,0.72882663468892,0.975645000000441,
-0.688572397460938,-0.092320416015625,-0.0290177241210916,0.695339509931349,0.978564000000006,
-0.645476767578125,-0.0755610043945312,0.0140779057617202,0.650036853031312,0.981588999999985,
-0.628717355957031,-0.0588015927734374,-0.038594530761717,0.632639454032872,0.984513000000334,
-0.683783994140625,-0.0252827695312499,0.0332315190429711,0.685057736936078,0.987430000000131,
-0.65505357421875,-0.0971088193359375,-0.0625365473632797,0.665158723648498,0.990434000000278,
-0.638294162597656,-0.0779552060546874,0.00928950244140836,0.643103993933237,0.993366000000606,
-0.719697019042969,-0.0779552060546874,0.0428083256835947,0.725171266748895,0.996372999999949,
-0.638294162597656,-0.0564073911132812,-0.0122583124999984,0.640898976441528,0.999292000000423,
-0.659841977539063,-0.0444363828125001,-0.0146525141601543,0.661498846266064,1.00221899999997,
-0.702937607421875,-0.0707726010742187,0.0140779057617202,0.706631607290133,1.00521900000058,
-0.647870969238281,-0.0683783994140624,0.00928950244140836,0.651535642266628,1.00814300000002,
