X,Y,Z,Magnitude,Seconds,
-0.69336080078125,-0.0588015927734374,0.0140779057617202,0.695992108290996,0.0,
-0.683783994140625,-0.0875320126953125,-0.0122583124999984,0.689472747913031,0.00375600000006671,
-0.690966599121094,-0.0779552060546874,-0.00986411083984251,0.695420129083606,0.00754899999992631,
-0.695755002441406,-0.0516189877929687,-0.00268150585937299,0.697672368520272,0.0113479999999981,
-0.729273825683594,-0.0372537778320312,0.0164721074218761,0.730410492197956,0.0151779999996506,
-0.686178195800781,-0.0899262143554688,-0.0170467158203103,0.692255610985552,0.0190130000000863,
-0.705331809082031,-0.092320416015625,-0.0218351191406239,0.711683070294716,0.0227599999998347,
-0.662236179199219,-0.10189722265625,-0.0122583124999984,0.670141826220976,0.0265159999999014,
-0.683783994140625,-0.118656634277344,-0.000287304199217076,0.694002903484298,0.0302269999992859,
-0.6358999609375,-0.0635899960937499,-0.0697191523437475,0.642863288831341,0.0339340000000448,
-0.669418784179688,-0.0611957944335937,-0.0050757075195289,0.672229273890831,0.0376429999996617,
-0.686178195800781,-0.0659841977539062,-0.0481713374023425,0.691024535376836,0.0414119999995819,
-0.686178195800781,-0.0731668027343749,-0.0074699091796866,0.690108467530967,0.0451309999998557,
-0.659841977539063,-0.0659841977539062,-0.00268150585937299,0.663138401956606,0.0488339999992604,
-0.702937607421875,-0.0635899960937499,0.0188663090820338,0.706060128565246,0.0525549999993018,
-0.686178195800781,-0.0851378110351562,0.00210689746093884,0.691442985557872,0.0562909999998737,
-0.690966599121094,-0.0492247861328126,0.00928950244140836,0.69278006288172,0.0600189999995564,
-0.707726010742188,-0.0516189877929687,-0.0433829340820289,0.710930872273379,0.064010999999482,
-0.688572397460938,-0.0851378110351562,-0.076901757324217,0.698064662973649,0.0678729999999632,
-0.650265170898438,-0.092320416015625,-0.0840843623046865,0.662146533390501,0.0716229999998177,
-0.669418784179688,-0.0564073911132812,-0.0816901606445288,0.676739672792239,0.0753879999992932,
-0.676601389160156,-0.104291424316406,-0.0433829340820289,0.685965174020492,0.0791369999997187,
-0.6742071875,-0.0851378110351562,-0.0122583124999984,0.679672012642764,0.0829579999999623,
-0.7125144140625,-0.0971088193359375,0.00210689746093884,0.719104548766421,0.0867509999998219,
-0.678995590820313,-0.0899262143554688,0.0475967290039083,0.686576423272459,0.090650000000096,
-0.683783994140625,-0.0492247861328126,-0.00986411083984251,0.685624482421236,0.0944329999992988,
-0.671812985839844,-0.0659841977539062,-0.0194409174804662,0.675325515265605,0.0982589999994161,
-0.652659372558594,-0.0803494077148437,-0.0050757075195289,0.657606300696342,0.102019999999357,
-0.643082565917969,-0.0635899960937499,-0.0266235224609357,0.646767103476259,0.105775999999423,
-0.702937607421875,-0.0516189877929687,0.0475967290039083,0.70643559397912,0.109567999999854,
-0.657447775878906,-0.0468305844726562,0.0116837041015643,0.659217104292436,0.113416000000143,
-0.681389792480469,-0.0468305844726562,0.0404141240234388,0.684191825703296,0.11717999999928,
-0.676601389160156,-0.109079827636719,0.0284431157226575,0.68592773631245,0.120906999999534,
-0.643082565917969,-0.0588015927734374,0.0954807622070337,0.652785868299834,0.124616999999489,
-0.681389792480469,-0.0611957944335937,-0.0146525141601543,0.684289171859491,0.128329999999551,
-0.626323154296875,-0.0659841977539062,0.0284431157226575,0.630431295855168,0.132142999999814,
-0.681389792480469,-0.0611957944335937,0.00928950244140836,0.68419534448032,0.136136000000079,
-0.710120212402344,-0.0348595761718749,-0.0505655390624984,0.712771197407635,0.140000999999756,
-0.6742071875,-0.0875320126953125,-0.0314119257812475,0.680590841845847,0.143785999999636,
-0.686178195800781,-0.0755610043945312,-0.0146525141601543,0.690481482697935,0.147546000000148,
-0.650265170898438,-0.0252827695312499,-0.0122583124999984,0.650871936055083,0.151329999999689,
-0.640688364257813,-0.0995030209960938,-0.0601423457031238,0.651152465271671,0.155135999999402,
-0.659841977539063,-0.0516189877929687,-0.0266235224609357,0.662393211900348,0.158910000000105,
-0.678995590820313,-0.0971088193359375,-0.0074699091796866,0.685945285492508,0.162734999999884,
-0.659841977539063,-0.0851378110351562,0.00210689746093884,0.665315204401214,0.166535999999724,
-0.724485422363281,-0.0851378110351562,0.0236547124023456,0.729854176876174,0.170337999999902,
-0.700543405761719,-0.0468305844726562,-0.0553539423828102,0.704285613892261,0.174083999999311,
-0.640688364257813,-0.0492247861328126,-0.0146525141601543,0.642743615943703,0.177807999999459,
-0.719697019042969,-0.0588015927734374,0.0164721074218761,0.722283017144212,0.181533999999374,
-0.657447775878906,-0.0731668027343749,0.0499909306640642,0.663392833982363,0.185337999999319,
-0.6742071875,-0.0588015927734374,-0.040988732421873,0.678006663075596,0.189037000000098,
-0.714908615722656,-0.0611957944335937,-0.0266235224609357,0.718016758884548,0.192759999999907,
-0.664630380859375,-0.0133117612304687,0.0236547124023456,0.665184404182158,0.196470999999292,
-0.667024582519531,-0.0683783994140624,0.0188663090820338,0.670785611660062,0.200156999999308,
-0.695755002441406,-0.0995030209960938,-0.038594530761717,0.703893040464464,0.204028000000108,
-0.659841977539063,-0.0875320126953125,0.0284431157226575,0.666229914820076,0.207977000000028,
-0.647870969238281,-0.0420421811523437,-0.00268150585937299,0.649239191863423,0.211715999999797,
-0.686178195800781,-0.123445037597656,0.0475967290039083,0.698816601342422,0.215454000000136,
-0.664630380859375,-0.0635899960937499,-0.0290177241210916,0.66829578711649,0.219213999999738,
-0.676601389160156,-0.0659841977539062,-0.0481713374023425,0.68151583394211,0.222987000000103,
-0.726879624023438,-0.0228885678710937,-0.038594530761717,0.728263284921299,0.22676599999977,
-0.657447775878906,-0.092320416015625,0.0188663090820338,0.664166074743206,0.230580999999802,
-0.6742071875,-0.0635899960937499,-0.0433829340820289,0.678587575961592,0.234343000000081,
-0.695755002441406,-0.0683783994140624,0.0260489140625015,0.699592148935725,0.238125999999284,
-0.6358999609375,-0.0588015927734374,0.0499909306640642,0.640566531112629,0.241896999999881,
-0.681389792480469,-0.0492247861328126,0.00210689746093884,0.683168769692606,0.245621999999457,
-0.681389792480469,-0.0276769711914062,0.0380199223632829,0.68301067233786,0.249374999999418,
-0.6742071875,-0.0755610043945312,-0.00268150585937299,0.678433480553138,0.253106999999545,
-0.664630380859375,-0.0540131894531251,-0.0266235224609357,0.667352815041943,0.256937999999536,
-0.667024582519531,-0.0683783994140624,-0.0266235224609357,0.671048590744375,0.260639000000083,
-0.681389792480469,-0.0659841977539062,-0.0290177241210916,0.685191938045808,0.264352000000144,
-0.686178195800781,-0.0611957944335937,-0.0314119257812475,0.689617394451489,0.268044999999802,
-0.688572397460938,-0.0659841977539062,-0.0074699091796866,0.691767056487574,0.27179999999953,
-0.69336080078125,-0.0492247861328126,-0.076901757324217,0.699346952455925,0.275779999999941,
-0.678995590820313,-0.0683783994140624,-0.0912669672851543,0.688505829443211,0.279705999999351,
-0.650265170898438,-0.0707726010742187,0.00689530078125244,0.654141497475316,0.283521999999721,
-0.6742071875,-0.00373495458984374,0.0380199223632829,0.675288676092646,0.287363999999798,
-0.611957944335938,-0.259914532226562,0.0284431157226575,0.665475093846818,0.291155999999319,
-0.887291135253906,-0.0971088193359375,-0.0840843623046865,0.896541053983124,0.295019000000138,
-0.602381137695312,0.360183697753906,0.0787213505859388,0.706252350238108,0.298848999999791,
-0.623928952636719,-0.492152093261719,-0.10084377392578,0.801043374343636,0.302459999999883,
-0.856166513671875,-0.578343353027344,-0.0721133540039052,1.03571350717737,0.305403999999726,
-0.599986936035156,0.290751849609375,0.0691445439453133,0.670299880218946,0.308329999999842,
-0.767581052246094,0.436798150878906,0.176883618652345,0.900700344690731,0.311359999999695,
-0.528160886230469,-0.329346380371094,-0.179852428710936,0.647896485652236,0.314305999999306,
-0.738850632324219,-0.470604278320312,-0.227736461914061,0.905114655579289,0.317307999999684,
-0.741244833984375,-0.137810247558594,-0.0266235224609357,0.754416582657694,0.32024199999978,
-0.65505357421875,0.305117059570313,0.143364795410157,0.736712338501663,0.323183999999856,
-0.7125144140625,-0.0468305844726562,0.0236547124023456,0.714443447242479,0.326202999999623,
-0.786734665527344,-0.221607305664063,-0.076901757324217,0.820959872433275,0.329133999999613,
-0.571256516113281,0.00584185205078125,0.00450109912109475,0.571304117200782,0.332174000000123,
-0.585621726074219,-0.0803494077148437,0.107451770507815,0.600795070182452,0.335109999999986,
-0.860954916992188,-0.243155120605469,-0.0625365473632797,0.896815812486491,0.338022999999339,
-0.822647690429688,0.0872447084960939,-0.0864785639648424,0.831768840336838,0.341035999999804,
-0.370143576660156,0.135128741699219,0.0332315190429711,0.395436945711817,0.343997999999374,
-0.681389792480469,-0.221607305664063,0.0739329472656269,0.720324876643618,0.34700199999952,
-0.997424411621094,-0.420326043457031,-0.13915100048828,1.09128018429861,0.349940000000061,
-0.65505357421875,0.106398321777344,-0.000287304199217076,0.663638358232477,0.352866999999605,
-0.410845004882813,0.31948226953125,0.0236547124023456,0.520981846133658,0.355896999999459,
-0.640688364257813,-0.314981170410156,0.0380199223632829,0.714940719434006,0.358824999999342,
-0.992636008300781,-0.417931841796875,-0.0649307490234357,1.07898529718054,0.361836999999468,
-0.700543405761719,0.216531598144531,0.0547793339843761,0.735287543606598,0.364800999999716,
-0.353384165039063,0.309905462890625,0.0332315190429711,0.471196453602647,0.367809999999736,
-0.736456430664063,-0.415537640136719,-0.0146525141601543,0.845727084116417,0.370726000000104,
-1.03094323486328,-0.307798565429688,-0.0745075556640611,1.07848749934432,0.373650999999882,
-0.537737692871094,0.331453277832031,0.0739329472656269,0.635994640237877,0.376674999999523,
-0.34859576171875,0.0465432802734376,0.119422778808595,0.371412280525636,0.379703999999947,
-0.860954916992188,-0.468210076660156,-0.163093017089842,0.993510632657045,0.382771999999932,
-0.966299790039063,-0.133021844238281,-0.0050757075195289,0.975425988007759,0.385815999999977,
-0.458729038085938,0.293146051269531,0.114634375488283,0.556334411843953,0.388812999999573,
-0.5592855078125,-0.0731668027343749,-0.0074699091796866,0.564100575974364,0.391803999999865,
-0.973482395019531,-0.3508941953125,-0.0960553706054679,1.03924075359809,0.39473899999939,
-0.73166802734375,-0.0564073911132812,0.0140779057617202,0.733974170826152,0.39773999999943,
-0.408450803222656,0.130340338378906,0.0595677373046897,0.432861384036,0.400724000000082,
-0.688572397460938,-0.0252827695312499,-0.0242293208007798,0.689462272330213,0.403636999999435,
-0.911233151855469,-0.219213104003906,-0.0242293208007798,0.937543226733544,0.406634999999369,
-0.580833322753906,-0.0803494077148437,0.0308373173828134,0.587174860058601,0.409565999999359,
-0.509007272949219,0.120763531738281,0.0116837041015643,0.523267372816839,0.412596000000121,
-0.750821640625,-0.0540131894531251,-0.038594530761717,0.753750687210588,0.415538999999626,
-0.772369455566406,-0.252731927246094,0.00450109912109475,0.812679680338305,0.418458000000101,
-0.528160886230469,-0.0492247861328126,0.0284431157226575,0.531211833589565,0.421504999999343,
-0.640688364257813,0.0345722719726562,0.0523851323242202,0.643755407102208,0.42447699999957,
-0.758004245605469,-0.0540131894531251,-0.0649307490234357,0.762695131202212,0.427471999999398,
-0.726879624023438,-0.173723272460937,-0.0481713374023425,0.748902023606641,0.430399999999281,
-0.585621726074219,-0.0971088193359375,0.0188663090820338,0.593918232134143,0.433329999999842,
-0.667024582519531,0.00823605371093761,-0.0122583124999984,0.667188048822393,0.436341999999968,
-0.779552060546875,-0.0731668027343749,-0.00268150585937299,0.782982749873152,0.439281999999366,
-0.669418784179688,-0.142598650878906,-0.040988732421873,0.685664611913614,0.442272999999659,
-0.626323154296875,-0.0492247861328126,0.00928950244140836,0.628323219397324,0.445230999999694,
-0.61674634765625,0.00823605371093761,-0.0050757075195289,0.616822221336811,0.44815699999981,
-0.6742071875,-0.133021844238281,-0.0529597407226543,0.689242248312322,0.45116599999983,
-0.73166802734375,-0.0899262143554688,-0.0194409174804662,0.737429844485482,0.454095999999481,
-0.657447775878906,-0.0635899960937499,-0.0338061274414052,0.661380465287499,0.457098999999289,
-0.681389792480469,-0.0707726010742187,-0.0338061274414052,0.685888959389179,0.460023999999976,
-0.669418784179688,-0.0971088193359375,-0.0194409174804662,0.67670494358909,0.463011999999253,
-0.686178195800781,-0.0492247861328126,0.0140779057617202,0.688085593071729,0.465948000000026,
-0.676601389160156,-0.0516189877929687,0.0428083256835947,0.679916548160182,0.468871999999465,
-0.671812985839844,-0.0851378110351562,-0.0122583124999984,0.677297129062461,0.471850999999333,
-0.729273825683594,-0.0420421811523437,-0.0194409174804662,0.730743325043557,0.474793999999747,
-0.69336080078125,-0.0875320126953125,0.035625720703127,0.699771566500187,0.477796000000126,
-0.667024582519531,-0.106685625976563,-0.0146525141601543,0.675661389045267,0.480727000000115,
-0.650265170898438,-0.0803494077148437,-0.0529597407226543,0.657347361705447,0.483625999999276,
-0.710120212402344,-0.0564073911132812,0.0116837041015643,0.712452818631585,0.486640999999508,
-0.676601389160156,-0.106685625976563,-0.0984495722656238,0.69199969716955,0.489555000000109,
-0.7125144140625,-0.154569659179687,0.0571735356445338,0.731325770750525,0.492585999999392,
-0.688572397460938,-0.0468305844726562,0.0763271489257829,0.694370854695308,0.495512999999846,
-0.671812985839844,-0.00612915624999988,0.0595677373046897,0.674476515400635,0.498438999999962,
-0.657447775878906,-0.0635899960937499,-0.0170467158203103,0.660735844442832,0.50142599999981,
-0.659841977539063,-0.125839239257812,-0.00986411083984251,0.671806705937286,0.504363000000012,
-0.652659372558594,-0.130627642578125,0.0380199223632829,0.666688347048758,0.507361999999375,
-0.671812985839844,-0.0492247861328126,0.0140779057617202,0.673761051815481,0.510306000000128,
-0.662236179199219,-0.0468305844726562,-0.0362003291015611,0.664876172312929,0.513205999999627,
-0.719697019042969,-0.0731668027343749,-0.00986411083984251,0.723473897887385,0.516228999999839,
-0.678995590820313,-0.0803494077148437,-0.0074699091796866,0.683773967928514,0.519246999999268,
-0.719697019042969,-0.144992852539062,-0.0074699091796866,0.734195155289043,0.522345999999743,
-0.681389792480469,-0.0444363828125001,-0.0553539423828102,0.68507714919661,0.525362999999743,
-0.650265170898438,-0.0348595761718749,0.0212605107421897,0.651545847850691,0.528338999999505,
-0.676601389160156,-0.0899262143554688,-0.0170467158203103,0.682764054679226,0.531326999999692,
-0.700543405761719,-0.109079827636719,0.0452025273437524,0.710424338428623,0.534281999999621,
-0.690966599121094,-0.0564073911132812,-0.0122583124999984,0.693373565330064,0.537285999999767,
-0.681389792480469,-0.0252827695312499,-0.0146525141601543,0.68201610237806,0.540250999999444,
-0.681389792480469,-0.166540667480469,-0.00268150585937299,0.70145208937966,0.543142999999873,
-0.758004245605469,-0.106685625976563,-0.0840843623046865,0.770079501824398,0.546133999999256,
-0.690966599121094,0.0441490786132812,-0.0122583124999984,0.692484114235641,0.54908499999965,
-0.626323154296875,-0.0564073911132812,-0.0122583124999984,0.628977546185825,0.552087999999458,
-0.707726010742188,-0.147387054199219,-0.0362003291015611,0.723815939209435,0.555038999999852,
-0.722091220703125,-0.113868230957031,-0.0290177241210916,0.731589866900151,0.558052999999745,
-0.638294162597656,-0.0300711728515624,0.0188663090820338,0.639280573036042,0.561014999999315,
-0.590410129394531,-0.0995030209960938,-0.038594530761717,0.599978757860421,0.563938999999664,
-0.714908615722656,-0.14020444921875,-0.0792959589843729,0.732829765720845,0.566925000000083,
-0.698149204101563,-0.0779552060546874,-0.0146525141601543,0.702640748540737,0.569867999999587,
-0.597592734375,-0.0133117612304687,0.0595677373046897,0.600701751697502,0.572868999999628,
-0.717302817382813,-0.0875320126953125,-0.038594530761717,0.72365373133601,0.575799999999617,
-0.724485422363281,-0.0659841977539062,-0.00268150585937299,0.7274889910121,0.578703999999561,
-0.662236179199219,-0.0540131894531251,-0.0122583124999984,0.66454830366244,0.581707999999708,
-0.664630380859375,-0.0755610043945312,0.0284431157226575,0.669516257740169,0.584651999999551,
-0.702937607421875,-0.0635899960937499,0.0308373173828134,0.706481356919319,0.587662999999338,
-0.700543405761719,-0.10189722265625,-0.0122583124999984,0.708021449933993,0.590585999999348,
-0.645476767578125,-0.0899262143554688,0.00450109912109475,0.651726354695518,0.593511000000035,
-0.657447775878906,-0.0348595761718749,-0.0074699091796866,0.65841367513301,0.596498999999312,
-0.671812985839844,-0.0803494077148437,-0.00268150585937299,0.676606167380143,0.599425999999767,
-0.705331809082031,-0.113868230957031,-0.00268150585937299,0.714469121374667,0.602413999999953,
-0.633505759277344,-0.109079827636719,-0.00268150585937299,0.642833684796071,0.605351000000155,
-0.650265170898438,-0.0611957944335937,0.0308373173828134,0.65386593265233,0.608265999999276,
-0.659841977539063,-0.0707726010742187,-0.0146525141601543,0.663788288957168,0.611267999999654,
-0.6742071875,-0.0731668027343749,-0.040988732421873,0.679403259400912,0.614199999999983,
-0.683783994140625,-0.0971088193359375,0.0140779057617202,0.690788578992416,0.617221999999856,
-0.631111557617188,-0.0540131894531251,0.0236547124023456,0.633860211885657,0.620152999999846,
-0.669418784179688,-0.0899262143554688,0.0308373173828134,0.676135469254709,0.623085999999603,
-0.69336080078125,-0.092320416015625,0.0140779057617202,0.699621645394102,0.626083999999537,
-0.717302817382813,-0.0659841977539062,-0.0290177241210916,0.720915580697016,0.629012999999759,
-0.65505357421875,-0.0803494077148437,-0.0242293208007798,0.660407656227086,0.632004000000052,
-0.659841977539063,-0.0899262143554688,0.00210689746093884,0.665944891389579,0.634952999999769,
-0.657447775878906,-0.0468305844726562,-0.0074699091796866,0.659155885351352,0.637848999999733,
-0.640688364257813,-0.0731668027343749,-0.0314119257812475,0.645617278423533,0.640841999999793,
-0.657447775878906,-0.0635899960937499,0.0284431157226575,0.661128033321335,0.643774000000121,
-0.705331809082031,-0.0564073911132812,-0.0314119257812475,0.708280639122957,0.646768999999949,
-0.6742071875,-0.0755610043945312,0.00450109912109475,0.678443112541552,0.64970699999958,
-0.650265170898438,-0.0300711728515624,-0.0242293208007798,0.651410874875995,0.652690999999322,
-0.678995590820313,-0.0659841977539062,-0.000287304199217076,0.682194260640146,0.655671999999868,
-0.702937607421875,-0.0875320126953125,-0.0816901606445288,0.713061298571597,0.658671999999569,
-0.669418784179688,-0.0899262143554688,0.0404141240234388,0.676639885065534,0.6617669999996,
-0.7125144140625,-0.0971088193359375,-0.0242293208007798,0.719509536438618,0.664778999999726,
-0.6358999609375,-0.0779552060546874,-0.00986411083984251,0.640736353857032,0.667762000000039,
-0.657447775878906,-0.0779552060546874,-0.0338061274414052,0.66291586676722,0.67069199999969,
-0.652659372558594,-0.0851378110351562,0.0452025273437524,0.659739321197924,0.673608999999487,
-0.647870969238281,-0.0540131894531251,-0.0314119257812475,0.650877044070488,0.676625000000058,
-0.698149204101563,-0.0851378110351562,0.0188663090820338,0.70357422897224,0.679564999999457,
-0.667024582519531,-0.0540131894531251,-0.0553539423828102,0.671493318848054,0.682552999999643,
-0.652659372558594,-0.113868230957031,0.0452025273437524,0.664058355182829,0.685500999999931,
-0.69336080078125,-0.0635899960937499,-0.0242293208007798,0.696692146970013,0.688415999999961,
-0.686178195800781,-0.0540131894531251,0.0284431157226575,0.688888199825869,0.691430999999284,
-0.690966599121094,-0.0420421811523437,0.0260489140625015,0.692734387785717,0.694380999999339,
-0.7125144140625,-0.0755610043945312,-0.0314119257812475,0.717197995474907,0.697400000000016,
-0.69336080078125,-0.0851378110351562,-0.0074699091796866,0.698608221015919,0.700363999999354,
-0.6358999609375,-0.0611957944335937,0.0547793339843761,0.641182081010102,0.70328199999949,
-0.657447775878906,-0.0588015927734374,-0.038594530761717,0.661199473022726,0.706290000000081,
-0.669418784179688,-0.0851378110351562,0.00689530078125244,0.674846279276498,0.709240000000136,
-0.678995590820313,-0.0827436093749999,-0.00986411083984251,0.684089773296231,0.712236999999732,
-0.765186850585938,-0.0731668027343749,-0.0577481440429679,0.770843139343151,0.715155999999297,
-0.707726010742188,-0.0516189877929687,-0.0218351191406239,0.709941827623719,0.718070999999327,
-0.657447775878906,-0.0588015927734374,-0.0170467158203103,0.66029220489195,0.721068999999261,
-0.657447775878906,-0.0516189877929687,-0.0170467158203103,0.659691358461781,0.723997000000054,
-0.659841977539063,-0.0468305844726562,-0.105632177246092,0.669882598545791,0.726998999999523,
-0.710120212402344,-0.0492247861328126,0.00689530078125244,0.711857668923385,0.729943999999705,
-0.643082565917969,-0.0635899960937499,0.0116837041015643,0.646324518436656,0.732860999999502,
-0.65505357421875,-0.0540131894531251,0.00928950244140836,0.657342303968996,0.735869000000093,
-0.707726010742188,-0.0803494077148437,-0.038594530761717,0.713317370744534,0.738792000000103,
-0.662236179199219,-0.0564073911132812,0.0236547124023456,0.665054957301593,0.7418119999993,
-0.690966599121094,-0.0899262143554688,-0.0050757075195289,0.696812261614346,0.744738999999754,
-0.686178195800781,-0.0468305844726562,0.0284431157226575,0.688362281699454,0.747731999999814,
-0.647870969238281,-0.0611957944335937,-0.0721133540039052,0.654738156719006,0.750658999999359,
-0.688572397460938,-0.0564073911132812,0.0116837041015643,0.69097774874365,0.753608999999415,
-0.73166802734375,-0.0348595761718749,0.00689530078125244,0.732530434494596,0.756609000000026,
-0.688572397460938,-0.0707726010742187,-0.0266235224609357,0.692711714608712,0.759540000000015,
-0.667024582519531,-0.10189722265625,0.0595677373046897,0.677387003859694,0.762544999999591,
-0.686178195800781,-0.0851378110351562,0.0212605107421897,0.691766559308335,0.765485999999328,
-0.707726010742188,-0.0827436093749999,0.0188663090820338,0.712796288424563,0.768403999999464,
-0.659841977539063,-0.0492247861328126,-0.0074699091796866,0.661717699956435,0.77139999999963,
-0.676601389160156,-0.0468305844726562,0.0188663090820338,0.678482483984578,0.7743389999996,
-0.664630380859375,-0.0779552060546874,0.00210689746093884,0.669189805906529,0.777357999999367,
-0.65505357421875,-0.0707726010742187,-0.0338061274414052,0.659732370292799,0.780281999999715,
-0.69336080078125,-0.0707726010742187,0.035625720703127,0.697873307340554,0.783218999999917,
-0.69336080078125,-0.0851378110351562,-0.040988732421873,0.699769764360698,0.786205999999765,
-0.669418784179688,-0.092320416015625,-0.0625365473632797,0.678642311959716,0.78914099999929,
-0.676601389160156,-0.0947146176757813,-0.0218351191406239,0.683547416821107,0.792132999999922,
-0.6742071875,-0.0803494077148437,0.0428083256835947,0.68032632739342,0.795180000000073,
-0.698149204101563,-0.0372537778320312,0.0140779057617202,0.69928416440031,0.798185999999987,
-0.705331809082031,-0.0444363828125001,0.00689530078125244,0.706763820659528,0.8012949999993,
-0.652659372558594,-0.0588015927734374,-0.0362003291015611,0.65630202477848,0.804258000000118,
-0.676601389160156,-0.0731668027343749,-0.00268150585937299,0.680551255460967,0.807264000000032,
-0.659841977539063,-0.0348595761718749,-0.0218351191406239,0.661122831099811,0.810190000000148,
-0.686178195800781,-0.0635899960937499,0.0284431157226575,0.689705165144956,0.813110000000052,
-0.690966599121094,-0.0611957944335937,-0.0457771357421866,0.695180057621108,0.816140999999334,
-0.652659372558594,-0.0372537778320312,-0.0529597407226543,0.655863426857106,0.819072999999662,
-0.669418784179688,-0.0444363828125001,-0.0362003291015611,0.671867966610354,0.822065999999722,
-0.683783994140625,-0.0851378110351562,-0.0433829340820289,0.690428183434258,0.825003999999353,
-0.664630380859375,-0.0492247861328126,-0.000287304199217076,0.666450827349477,0.827892999999676,
-0.662236179199219,-0.0755610043945312,-0.0314119257812475,0.667272756454793,0.830915999999888,
-0.714908615722656,-0.0779552060546874,0.0619619389648456,0.721810657212677,0.833866999999373,
-0.683783994140625,-0.0875320126953125,0.0140779057617202,0.689507499103552,0.836909999999989,
-0.678995590820313,-0.0348595761718749,-0.0050757075195289,0.679908791832502,0.839840999999979,
-0.710120212402344,-0.0588015927734374,-0.0170467158203103,0.712754469572308,0.842829999999594,
-0.6742071875,-0.0971088193359375,0.00689530078125244,0.681199676777921,0.845777999999882,
-0.690966599121094,-0.0803494077148437,-0.00986411083984251,0.695692582326244,0.848691999999573,
-0.686178195800781,-0.0707726010742187,-0.0266235224609357,0.690331869033622,0.851676999999654,
-0.669418784179688,-0.0635899960937499,-0.000287304199217076,0.672432359988361,0.85460299999977,
-0.652659372558594,-0.0803494077148437,0.00210689746093884,0.657590087307902,0.857599999999366,
-0.664630380859375,-0.1210508359375,0.0452025273437524,0.677074675734301,0.860538999999335,
-0.710120212402344,-0.0707726010742187,0.0523851323242202,0.715558298962276,0.86345799999981,
-0.698149204101563,-0.0444363828125001,0.0164721074218761,0.699755838580874,0.866481000000022,
-0.659841977539063,-0.0755610043945312,0.071538745605471,0.667996027555984,0.869413999999779,
-0.643082565917969,-0.0540131894531251,-0.0074699091796866,0.645390122922323,0.87241399999948,
-0.678995590820313,-0.0875320126953125,-0.0122583124999984,0.68472412826281,0.875334999999723,
-0.647870969238281,-0.0707726010742187,0.0236547124023456,0.652154198992384,0.878267000000051,
-0.686178195800781,-0.0588015927734374,0.0236547124023456,0.689099186709683,0.881269999999859,
-0.681389792480469,-0.0683783994140624,-0.0242293208007798,0.685240625466319,0.884201999999277,
-0.65505357421875,-0.0540131894531251,0.0236547124023456,0.657702178155506,0.88721600000008,
-0.669418784179688,-0.0707726010742187,-0.0194409174804662,0.673430188622328,0.890152999999373,
-0.690966599121094,-0.0755610043945312,0.0284431157226575,0.695667533609334,0.893075999999382,
-0.700543405761719,-0.0348595761718749,0.00210689746093884,0.701413353468568,0.896089999999276,
-0.647870969238281,-0.0588015927734374,-0.0170467158203103,0.650757259363814,0.899008999999751,
-0.676601389160156,-0.0516189877929687,-0.0050757075195289,0.678586562290359,0.902003999999579,
-0.643082565917969,-0.0683783994140624,-0.000287304199217076,0.646707719636754,0.904920999999376,
-0.664630380859375,-0.0731668027343749,0.0667503422851574,0.671969145406867,0.907852999999704,
-0.657447775878906,-0.0827436093749999,0.0236547124023456,0.663056278395251,0.9108499999993,
-0.626323154296875,-0.0995030209960938,0.00689530078125244,0.634215334069273,0.913794999999482,
-0.695755002441406,-0.0157059628906249,-0.0074699091796866,0.695972341573798,0.916787999999542,
-0.707726010742188,-0.0875320126953125,0.0667503422851574,0.716235692857267,0.91974399999981,
-0.65505357421875,-0.0827436093749999,-0.000287304199217076,0.660258867818422,0.92264299999988,
-0.671812985839844,-0.0803494077148437,-0.00986411083984251,0.676672753955583,0.925637999999708,
-0.7125144140625,-0.0683783994140624,0.0260489140625015,0.716261782923738,0.928564999999253,
-0.669418784179688,-0.0516189877929687,0.00689530078125244,0.671441414932268,0.931628999999703,
-0.688572397460938,-0.0995030209960938,-0.00986411083984251,0.695794580616372,0.934639000000061,
-0.659841977539063,-0.0947146176757813,0.00210689746093884,0.666608380641169,0.937727999999879,
-0.664630380859375,-0.0755610043945312,0.00928950244140836,0.668976310045429,0.940741999999773,
-0.65505357421875,-0.0683783994140624,0.0140779057617202,0.658763218488877,0.94366699999955,
-0.686178195800781,-0.0803494077148437,0.0260489140625015,0.691357425386013,0.946662999999717,
-0.686178195800781,-0.0683783994140624,0.00689530078125244,0.689611243434813,0.949599999999919,
-0.676601389160156,-0.0468305844726562,-0.00986411083984251,0.678291857638115,0.952581999999893,
-0.6742071875,-0.10189722265625,-0.0146525141601543,0.682021313327473,0.955524999999398,
-0.7125144140625,-0.109079827636719,-0.0170467158203103,0.721017190893769,0.958423999999468,
-0.69336080078125,-0.0947146176757813,-0.0290177241210916,0.70040137576582,0.961425999999847,
-0.678995590820313,-0.0635899960937499,-0.0338061274414052,0.68280418438174,0.964355000000069,
-0.722091220703125,-0.0707726010742187,0.00928950244140836,0.725610630389983,0.967392999999902,
-0.667024582519531,-0.0731668027343749,-0.0338061274414052,0.671876498294374,0.970311999999467,
-0.669418784179688,-0.0659841977539062,-0.0362003291015611,0.673636316414799,0.973258999999416,
-0.700543405761719,-0.0588015927734374,0.100269165527346,0.710121536234799,0.976289999999608,
-0.683783994140625,-0.0755610043945312,-0.0146525141601543,0.68810225417392,0.979228999999577,
-0.702937607421875,-0.0492247861328126,-0.0314119257812475,0.705358822571248,0.982224999999744,
-0.690966599121094,-0.0707726010742187,-0.000287304199217076,0.694581661655045,0.98515899999984,
-0.669418784179688,-0.0635899960937499,0.00210689746093884,0.672435599319909,0.988084999999955,
-0.686178195800781,-0.0683783994140624,0.0116837041015643,0.689675743259379,0.991095999999743,
-0.662236179199219,-0.0971088193359375,0.035625720703127,0.670265672557395,0.994023999999627,
-0.681389792480469,-0.0540131894531251,0.00928950244140836,0.683590351590106,0.997037000000091,
-0.626323154296875,-0.0588015927734374,0.0308373173828134,0.629832724669375,0.999973999999384,
-0.6742071875,-0.0396479794921876,0.00928950244140836,0.675435850995549,1.00291199999992,
-0.6742071875,-0.0755610043945312,0.0595677373046897,0.681038260591408,1.00592499999948,
-0.678995590820313,-0.0204943662109374,-0.0577481440429679,0.681754999644462,1.00885699999981,
