X,Y,Z,Magnitude,Seconds,
0.00814028564453129,-0.00134075292968738,-0.0505655390624984,0.0512341254387549,0.0,
0.00814028564453129,-0.0228885678710937,-0.0457771357421866,0.0518237102716778,0.00393099999973856,
-0.0110133276367188,-0.00612915624999988,-0.0146525141601543,0.019327599778145,0.00786599999992177,
0.0272938989257813,-0.00852335791015624,0.00689530078125244,0.0294134275714227,0.0119030000000748,
-0.0229843359375,-0.0468305844726562,-0.000287304199217076,0.0521676708723068,0.0157759999997324,
0.0105344873046875,0.00344765039062511,0.0380199223632829,0.0396027298616984,0.0196789999999964,
-0.0229843359375,-0.0779552060546874,-0.0242293208007798,0.0848077463206265,0.0234409999998206,
0.0177170922851563,-0.0109175595703124,-0.0433829340820289,0.0481161868353855,0.0272589999999582,
0.0416591088867188,-0.0133117612304687,0.0332315190429711,0.0549273902365282,0.0311710000000858,
-0.00622492431640631,-0.0133117612304687,0.0859039555664083,0.0871518344715557,0.0350979999998344,
-0.0134075292968751,-0.0611957944335937,0.071538745605471,0.0950919513997348,0.0389259999997194,
0.0105344873046875,0.0249954653320312,0.0308373173828134,0.0410693176630165,0.0428750000000946,
0.0464475122070312,-0.0252827695312499,0.0212605107421897,0.0569964835968972,0.0468949999999495,
0.024899697265625,-0.0300711728515624,0.0571735356445338,0.0692320990486717,0.050836999999774,
-0.0373495458984375,0.0249954653320312,0.0116837041015643,0.0464356630997898,0.0547759999999471,
-0.00622492431640631,-0.0157059628906249,-0.00986411083984251,0.0195634259711169,0.0586399999997411,
0.00335188232421879,-0.0468305844726562,-0.0194409174804662,0.0508162181753847,0.0625989999998637,
0.0225054956054688,-0.0157059628906249,0.0140779057617202,0.030844157200438,0.0664379999998346,
0.0201112939453125,-0.0420421811523437,-0.0290177241210916,0.054900250030114,0.0704149999996844,
0.000957680664062543,-0.0252827695312499,-0.0481713374023425,0.0544115183996453,0.0743279999996957,
0.0105344873046875,-0.0420421811523437,0.00689530078125244,0.0438869638011454,0.0782489999996869,
-0.0110133276367188,-0.0564073911132812,-0.0362003291015611,0.0679231255530966,0.0822259999999915,
0.0320823022460938,-0.0228885678710937,0.0667503422851574,0.0775162489532682,0.086301999999705,
0.0201112939453125,0.00344765039062511,0.0380199223632829,0.0431493329482716,0.0902900000000955,
-0.0134075292968751,-0.0396479794921876,-0.0050757075195289,0.0421602529224303,0.0941640000000916,
0.0129286889648438,-0.0157059628906249,-0.00986411083984251,0.0226081611665358,0.09800499999983,
0.03447650390625,-0.0228885678710937,-0.0290177241210916,0.0505424986912511,0.101909999999862,
-0.00383072265624995,-0.0133117612304687,-0.0050757075195289,0.0147526346782505,0.105814999999893,
0.0105344873046875,-0.0276769711914062,-0.0505655390624984,0.0585991800094814,0.109786999999869,
0.0272938989257813,-0.0468305844726562,-0.0074699091796866,0.0547161777153167,0.113692999999785,
-0.0253785375976563,-0.00373495458984374,-0.000287304199217076,0.0256535104827144,0.11769699999968,
0.0488417138671875,-0.0252827695312499,0.0523851323242202,0.0759534958858417,0.121587999999974,
-0.0014365209960937,-0.0324653745117187,-0.0266235224609357,0.0420104282647335,0.125580999999784,
0.024899697265625,-0.0181001645507812,0.0499909306640642,0.0587086367525632,0.129485999999815,
0.024899697265625,-0.0540131894531251,0.00210689746093884,0.059513515907984,0.133405000000039,
-0.0110133276367188,0.0273896669921876,-0.0314119257812475,0.0431068013759227,0.137377000000015,
0.00574608398437504,-0.0731668027343749,0.0284431157226575,0.0787109225936204,0.141319999999723,
0.0272938989257813,-0.00134075292968738,0.0619619389648456,0.0677202806939877,0.145348000000013,
-0.0110133276367188,-0.0683783994140624,0.0332315190429711,0.0768194815783478,0.149270999999771,
-0.0110133276367188,-0.0157059628906249,-0.00268150585937299,0.0193690766333672,0.153207999999722,
-0.04213794921875,-0.0396479794921876,-0.0314119257812475,0.0658352346655002,0.157148999999663,
0.0560243188476562,0.0273896669921876,0.071538745605471,0.094903689512532,0.161113999999998,
-0.0158017309570313,-0.0252827695312499,0.0835097539062524,0.0886723865354459,0.1649910000001,
-0.00861912597656256,0.00584185205078125,-0.000287304199217076,0.0104162906874741,0.168842999999924,
0.00814028564453129,-0.0228885678710937,-0.0050757075195289,0.0248176065805715,0.172685000000001,
0.0296881005859375,-0.0204943662109374,-0.0290177241210916,0.0462971994396695,0.176576999999725,
0.0105344873046875,-0.0109175595703124,0.0452025273437524,0.0476805726476374,0.180473999999776,
0.0464475122070312,0.00584185205078125,0.0212605107421897,0.0514150556026569,0.184318999999959,
-0.0876277807617187,-0.0659841977539062,0.0380199223632829,0.116095033532708,0.188323999999739,
0.0368707055664063,0.1087925234375,0.035625720703127,0.120268258740537,0.192454999999882,
0.151792385253906,-0.106685625976563,0.0164721074218761,0.186263472892565,0.196312999999918,
-0.152271225585938,0.070485296875,-0.0194409174804662,0.168916110804987,0.200258999999733,
0.123061965332031,-0.0827436093749999,-0.00986411083984251,0.148620499549845,0.204124999999749,
-0.113963999023438,0.0393606752929687,-0.0529597407226543,0.131688230189123,0.207974999999806,
-0.145088620605469,-0.0444363828125001,-0.0912669672851543,0.177073316070169,0.211817999999766,
0.0991199487304688,-0.0420421811523437,0.00928950244140836,0.108067590368187,0.215803999999935,
-0.0660799658203125,0.12794613671875,0.00928950244140836,0.144302011904463,0.219775999999911,
0.07278373046875,-0.1210508359375,0.0547793339843761,0.151497695473849,0.223642999999811,
0.03447650390625,0.099215716796875,0.0811155522460947,0.132710664971977,0.227638999999726,
-0.0660799658203125,-0.092320416015625,-0.0146525141601543,0.114474089938838,0.231475000000046,
0.106302553710938,0.00823605371093761,-0.0266235224609357,0.109894847260571,0.235437999999704,
-0.106781394042969,0.0273896669921876,-0.0050757075195289,0.110354985290772,0.239361999999801,
0.101514150390625,-0.10189722265625,0.0116837041015643,0.144307573107307,0.243215999999848,
-0.0732625708007812,0.0441490786132812,-0.0122583124999984,0.086410714891666,0.247022999999899,
-0.0445321508789063,-0.0348595761718749,-0.0266235224609357,0.0625069153055273,0.250894999999673,
0.0560243188476562,-0.00852335791015624,-0.0433829340820289,0.0713684166979634,0.254705999999715,
-0.0445321508789063,0.00584185205078125,0.0140779057617202,0.0470683240398547,0.258546000000024,
-0.0158017309570313,-0.0803494077148437,-0.00268150585937299,0.0819323653694829,0.262573999999859,
0.0751779321289062,0.00823605371093761,0.0547793339843761,0.0933827044568731,0.266579999999976,
-0.070868369140625,0.0273896669921876,-0.0074699091796866,0.0763434289624692,0.27054999999973,
0.103908352050781,-0.0324653745117187,0.0260489140625015,0.111935213815541,0.274449000000004,
-0.070868369140625,0.0321780703125001,-0.0601423457031238,0.0983608443455125,0.278340999999728,
0.024899697265625,-0.109079827636719,0.00450109912109475,0.111976174316119,0.282183999999688,
-0.0732625708007812,0.118369330078125,0.0164721074218761,0.14017857506196,0.286103999999796,
-0.0110133276367188,-0.0779552060546874,-0.0194409174804662,0.0810941231480111,0.290028999999777,
0.0512359155273437,-0.118656634277344,0.0332315190429711,0.133449802382228,0.293904999999995,
-0.04213794921875,0.104004120117188,-0.0529597407226543,0.124085445976243,0.297743999999966,
0.101514150390625,0.0130244570312501,0.0164721074218761,0.103663347106907,0.301666999999725,
-0.125935007324219,-0.379624615234375,0.0882981572265642,0.409598631749674,0.305540999999721,
0.199676418457031,0.688189325195313,0.140970593750001,0.730306735353601,0.309418999999707,
-0.295923325195313,-0.652563604492188,-0.0529597407226543,0.718480762748661,0.313180999999986,
0.259531459960938,0.187801178222656,0.0499909306640642,0.324229786416876,0.316152999999758,
0.0129286889648438,0.276386639648438,0.0380199223632829,0.279288811217018,0.319118999999773,
-0.288740720214844,-0.444268060058594,-0.0625365473632797,0.533531753932728,0.322153000000071,
0.451067592773438,0.156676556640625,0.119422778808595,0.492210642661811,0.325112999999874,
-0.181001645507813,-0.0181001645507812,0.0404141240234388,0.186339778506585,0.328154999999697,
-0.303105930175781,0.0513316835937501,-0.124785790527342,0.33178251937953,0.33113800000001,
0.68569935546875,0.070485296875,0.102663367187501,0.696915741053459,0.334190999999919,
-0.334230551757813,-0.583131756347656,-0.0577481440429679,0.674601775219901,0.33724600000005,
-0.298317526855469,0.685795123535156,-0.00268150585937299,0.747873979202003,0.340242999999646,
0.422337172851563,-0.0372537778320312,-0.0290177241210916,0.42496889280061,0.343277999999827,
-0.090021982421875,-0.812975115722656,-0.040988732421873,0.818970434319202,0.346211000000039,
-0.0636857641601563,0.776774786621094,0.0906923588867201,0.784640076498356,0.349224999999933,
-0.109175595703125,-0.0803494077148437,-0.10084377392578,0.168952078285093,0.352289999999812,
0.173340200195313,-0.63819839453125,0.0404141240234388,0.662553633456642,0.355324999999993,
0.135032973632812,0.630728485351563,0.0308373173828134,0.645757900722372,0.358416000000034,
-0.485065256347656,-0.183300079101562,-0.110420580566405,0.53016971483373,0.361366000000089,
0.350511123046875,-0.458633270019531,0.105057568847657,0.586719367773529,0.364348999999947,
0.30262708984375,0.66424730859375,0.071538745605471,0.733434001532614,0.367461999999705,
-0.602381137695312,-0.317375372070313,-0.13915100048828,0.69494831662848,0.370443999999679,
0.312203896484375,-0.33174058203125,0.148153198730471,0.47903283503381,0.37361699999974,
0.132638771972656,0.393702520996094,-0.0122583124999984,0.415626015901846,0.376606999999694,
-0.341413156738281,0.0297838686523437,-0.0649307490234357,0.348806571891418,0.379613000000063,
0.501345827636719,-0.405960833496094,0.0739329472656269,0.649321120796923,0.382656999999654,
-0.420421811523438,0.183012774902344,-0.0290177241210916,0.459445539422544,0.385663000000022,
-0.051714755859375,0.314693866210938,0.0332315190429711,0.32064151206961,0.388756999999714,
0.508528432617187,-0.417931841796875,0.0859039555664083,0.663812986276841,0.391729999999825,
-0.204943662109375,-0.0492247861328126,0.0260489140625015,0.212375917025586,0.394734999999855,
-0.298317526855469,0.372154706054687,-0.0673249506835916,0.481689859818911,0.397746000000097,
0.300232888183594,-0.231184112304688,0.0260489140625015,0.379821572390253,0.400701000000026,
0.178128603515625,-0.111474029296875,-0.0457771357421866,0.215062327604966,0.403813999999784,
-0.46351744140625,0.0680910952148439,-0.0122583124999984,0.468652410599477,0.406874999999673,
0.197282216796875,0.115975128417969,-0.0721133540039052,0.239939240853901,0.409957999999733,
0.240377846679688,-0.29343335546875,0.035625720703127,0.380990597327061,0.412988000000041,
-0.3294421484375,-0.00612915624999988,-0.0218351191406239,0.330221846871672,0.415905999999723,
0.082360537109375,0.647487896972656,0.0236547124023456,0.653133508723795,0.419010000000071,
0.0512359155273437,-0.915925787109375,0.0284431157226575,0.917798549445283,0.42196899999999,
0.0967257470703125,0.192589581542969,0.100269165527346,0.237698385818575,0.425069999999778,
-0.178607443847656,0.635516888671875,-0.0266235224609357,0.660674766230104,0.42807300000004,
0.0201112939453125,-0.669323016113281,-0.0529597407226543,0.671716084503375,0.431024999999863,
0.326569106445312,-0.00373495458984374,0.0906923588867201,0.338949015532891,0.43408700000009,
-0.291134921875,0.424827142578125,0.0547793339843761,0.517917386499072,0.437074999999822,
0.273896669921875,-0.377230413574219,-0.0266235224609357,0.466937878810337,0.440135999999711,
0.190099611816406,-0.116262432617187,0.0475967290039083,0.227860185777783,0.443095999999969,
-0.238462485351563,0.209348993164063,-0.0577481440429679,0.32253093804976,0.446087999999691,
0.0847547387695312,-0.156963860839844,0.0236547124023456,0.179946005158434,0.449192999999923,
0.180522805175781,-0.0468305844726562,0.0523851323242202,0.193715742569389,0.452170999999908,
1.1262324609375,2.37131309228516,-2.38251795605469,3.54512582973233,0.455235999999786,
-2.00298910888672,0.494258990722656,6.08337911425781,6.42368731866809,0.458224999999857,
-5.63738722900391,-16.1909323789063,-4.08958373974609,17.6252977629442,0.461146999999983,
13.1092117700195,18.5555177645264,-3.12232626904297,22.9326752488938,0.464231999999811,
-6.48014621337891,5.97219238916016,4.29012207080078,9.80125115800445,0.467181999999866,
-12.0706070898438,-20.6704836850586,-3.82622155712891,24.2406357733434,0.470238999999765,
17.2583632470703,9.69757017236328,2.74825620166016,19.9861672505186,0.473259999999755,
2.41910135742188,15.5585758364258,3.01640678759766,16.0318446644033,0.476325999999972,
-19.0856179541016,-14.7831418027344,-5.43751927441406,24.7460847430316,0.479272999999921,
11.7516994287109,1.04731957421875,2.48728822070313,12.05760840491,0.482277999999951,
6.87949905029297,9.5491296694336,1.46256991015625,11.8597004755067,0.485337000000072,
-11.3499523901367,-9.67630966162109,-2.86135828808594,15.1868284766356,0.488315000000057,
3.04638219238281,3.98979341455078,1.29497579394531,5.18419311559323,0.491371999999956,
3.48452109619141,4.0161296328125,0.650935547363282,5.35676222957289,0.494416000000001,
-3.86328379882813,-7.54307598242188,-1.51581695507812,8.6093355160651,0.497395999999753,
1.76787850585938,3.594750140625,0.658118152343752,4.05964807433445,0.500540999999885,
-0.216914670410156,2.80226939111328,0.459399414550782,2.84794900528418,0.503562999999758,
-1.17938373779297,-4.55750651220703,-0.675452172363279,4.75584348427598,0.50667999999996,
2.23714203125,1.2580093203125,0.346871936523439,2.58992510670213,0.509696000000076,
-1.45950533203125,1.63629318261719,-0.0577481440429679,2.19338688831851,0.512741000000005,
-0.6358999609375,-1.59827326025391,-0.0553539423828102,1.72102011426371,0.515836999999919,
1.81097413574219,0.499047394042969,0.24392126513672,1.89424739815425,0.518846999999823,
-1.08600987304688,-0.362865203613281,-0.115208983886717,1.15080915460245,0.521913999999924,
-0.178607443847656,0.192589581542969,-0.0122583124999984,0.262947964704116,0.52493400000003,
0.716823977050781,0.499047394042969,0.145758997070315,0.885511491062042,0.527965999999651,
-0.487459458007813,-1.05239528173828,-0.108026378906247,1.16482713342618,0.530989999999747,
0.24516625,0.467922772460938,0.0691445439453133,0.532765594876394,0.533961999999974,
-0.171424838867188,0.333847479492188,0.0428083256835947,0.377721018334644,0.537017999999989,
-0.149877023925781,-0.664534612792969,-0.155910412109373,0.698840060746996,0.539987999999994,
0.520499440917969,0.173435968261719,0.126605383789064,0.563052951583751,0.542965999999979,
-0.410845004882813,0.0920331118164064,-0.076901757324217,0.427992513938413,0.5461150000001,
-0.130723410644531,-0.0540131894531251,-0.0362003291015611,0.14600170736159,0.549089000000095,
0.484586416015625,-0.116262432617187,0.0763271489257829,0.504149562618151,0.552198999999746,
-0.257616098632813,-0.0779552060546874,0.0380199223632829,0.271824544370684,0.555168999999751,
-0.209732065429688,0.2620214296875,-0.0050757075195289,0.335661334817861,0.558160999999927,
0.34093431640625,-0.204847894042969,0.0978749638671896,0.409607588246653,0.561255999999958,
0.015322890625,-0.247943523925781,0.00450109912109475,0.248457324156762,0.564234999999826,
-0.171424838867188,0.269204034667969,0.0428083256835947,0.322009068831899,0.567344999999932,
0.175734401855469,-0.202453692382813,0.0308373173828134,0.269853696840162,0.57035999999971,
0.178128603515625,-0.137810247558594,0.0140779057617202,0.225653830353538,0.573399999999765,
-0.2528276953125,0.187801178222656,0.0475967290039083,0.318522486915319,0.576379999999972,
0.0296881005859375,-0.0683783994140624,0.0523851323242202,0.0911108715327422,0.579387999999653,
0.214041628417969,-0.200059490722656,-0.0074699091796866,0.293075788947462,0.582433999999921,
-0.154665427246094,0.120763531738281,-0.0050757075195289,0.196293117021314,0.585411000000022,
-0.070868369140625,0.0776679018554689,0.105057568847657,0.148632841241305,0.588498000000072,
0.158974990234375,-0.171329070800781,0.0284431157226575,0.235447889889655,0.59149699999989,
-0.0158017309570313,0.0345722719726562,0.0284431157226575,0.047475757209361,0.594456999999693,
-0.090021982421875,0.0728794985351564,0.0212605107421897,0.117759874078223,0.597511999999824,
0.108696755371094,-0.137810247558594,0.0619619389648456,0.186134174295446,0.600484000000051,
0.024899697265625,-0.0516189877929687,-0.0362003291015611,0.0677862718531692,0.603564000000006,
-0.0828393774414062,0.0226012636718751,-0.0266235224609357,0.089899897233942,0.606510999999955,
0.0272938989257813,-0.0348595761718749,0.0332315190429711,0.055357753091657,0.609496999999919,
0.118273562011719,-0.0540131894531251,-0.0745075556640611,0.149858052692781,0.612584999999854,
-0.0588973608398438,0.0106302553710937,0.0571735356445338,0.0827690438584994,0.615632000000005,
-0.0014365209960937,-0.0300711728515624,0.0499909306640642,0.0583560808990806,0.618693999999778,
0.0751779321289062,-0.0659841977539062,0.00689530078125244,0.100265552435864,0.621691999999712,
-0.0349553442382813,0.00344765039062511,-0.0888727656249984,0.0955621831786435,0.624645999999757,
0.024899697265625,-0.0324653745117187,0.0236547124023456,0.0472603521457851,0.627698999999666,
0.0703895288085937,-0.0396479794921876,0.0164721074218761,0.0824498536483031,0.63072800000009,
0.024899697265625,0.0752737001953125,-0.0170467158203103,0.0810969505300414,0.633827999999994,
0.063206923828125,0.163859161621094,-0.0864785639648424,0.195763842658453,0.636877999999797,
-0.0277727392578125,-0.0396479794921876,0.0475967290039083,0.0678876714548883,0.6398650000001,
-0.283952316894531,-0.789033099121094,0.526437061035159,0.990120259872378,0.642961000000014,
0.297838686523437,-0.286250750488281,-0.474339232910154,0.629003245796795,0.645960999999716,
0.345722719726562,2.05288427148438,0.0906923588867201,2.08376657402011,0.649065999999948,
-1.08122146972656,-1.71798334326172,-0.0649307490234357,2.03094131783543,0.652121000000079,
0.889206496582031,-0.549612933105469,0.0691445439453133,1.04763712121989,0.655201000000034,
0.465432802734375,1.92359738183594,0.21279664355469,1.99051174143118,0.65827999999965,
-1.40443869384766,-1.49292838720703,-0.29237990673828,2.07045145414457,0.661250999999993,
1.087925234375,0.135128741699219,0.210402441894534,1.11629309770252,0.664365000000089,
0.0703895288085937,0.726496551757813,0.0332315190429711,0.730654678586123,0.667386999999962,
-0.801099875488281,-0.968598223632813,-0.175064025390624,1.26909059657613,0.670396999999866,
0.812592043457031,0.788745794921875,0.164912610351564,1.14438714041603,0.673381000000063,
-0.295923325195313,-0.180905877441406,-0.0194409174804662,0.347383793749763,0.676304999999957,
-0.200155258789062,-0.513699908203125,-0.038594530761717,0.552665596100872,0.679364999999962,
0.479798012695313,0.661853106933594,0.0739329472656269,0.820805548735755,0.682334999999966,
-0.372537778320313,-0.283856548828125,-0.0194409174804662,0.468761011455657,0.685392999999749,
0.261925661621094,0.0656968935546876,0.0428083256835947,0.273411204573288,0.688491999999769,
0.0296881005859375,0.1087925234375,0.0236547124023456,0.115224745133749,0.691483000000062,
-0.166636435546875,-0.224001507324219,-0.0146525141601543,0.279569442368982,0.69455999999991,
0.135032973632812,0.187801178222656,0.0691445439453133,0.241421114377643,0.697546999999759,
-0.0612915625,-0.106685625976563,-0.0266235224609357,0.125886021352374,0.700603999999657,
0.0536301171875,-0.0995030209960938,0.0212605107421897,0.11501760723434,0.703590000000077,
0.0703895288085937,0.156676556640625,0.0763271489257829,0.187957609129818,0.706612999999834,
-0.121146604003906,-0.156963860839844,0.00210689746093884,0.198289163315447,0.709684999999808,
0.168551796875,-0.0300711728515624,-0.0194409174804662,0.172313472888634,0.712654999999813,
0.0368707055664063,0.0656968935546876,0.0140779057617202,0.0766401864711748,0.715709000000061,
-0.181001645507813,-0.0851378110351562,-0.0194409174804662,0.200967638730409,0.718654999999671,
0.144609780273437,0.0345722719726562,0.0499909306640642,0.156864029301629,0.721642999999858,
0.0512359155273437,-0.0611957944335937,-0.0314119257812475,0.0857715184520501,0.724644999999782,
-0.0924161840820312,-0.0659841977539062,0.00450109912109475,0.11364385300934,0.727650999999696,
0.0536301171875,0.0393606752929687,0.0164721074218761,0.0685330763353093,0.730737999999747,
0.0560243188476562,-0.128233440917969,-0.0290177241210916,0.142914547843016,0.733701999999994,
-0.00383072265624995,-0.0803494077148437,-0.0074699091796866,0.0807867643822183,0.736614999999802,
-0.0181959326171875,0.0944273134765625,0.00210689746093884,0.0961875694210075,0.739681999999902,
0.00574608398437504,-0.0659841977539062,-0.0194409174804662,0.0690281182335458,0.742649999999685,
0.0488417138671875,-0.0372537778320312,-0.0074699091796866,0.0618801787278877,0.74570199999971,
0.0296881005859375,0.0154186586914062,0.0595677373046897,0.0683186188373516,0.748683999999685,
-0.0972045874023437,-0.0396479794921876,-0.0050757075195289,0.10510212603319,0.751639999999952,
0.0656011254882812,-0.0276769711914062,-0.0146525141601543,0.0726926307879463,0.754707999999937,
-0.0134075292968751,0.0130244570312501,-0.0792959589843729,0.0814693036306117,0.757718999999724,
-0.032561142578125,-0.0324653745117187,0.0475967290039083,0.0661791293388681,0.760764999999992,
0.07278373046875,-0.00612915624999988,-0.0314119257812475,0.0795094149052247,0.763752999999724,
-0.0110133276367188,-0.0157059628906249,-0.0170467158203103,0.0256624468087869,0.766745999999785,
0.0129286889648438,-0.0420421811523437,-0.0553539423828102,0.0707018736082406,0.769761000000017,
0.03447650390625,0.0154186586914062,0.0667503422851574,0.0766940190146886,0.772766999999931,
-0.00383072265624995,0.00584185205078125,0.0332315190429711,0.0339578493040368,0.775851999999759,
-0.0014365209960937,-0.0228885678710937,0.00928950244140836,0.0247435847720336,0.778853999999683,
0.0105344873046875,-0.0252827695312499,0.035625720703127,0.0449375770770981,0.781958000000031,
-0.0158017309570313,-0.00373495458984374,0.0547793339843761,0.0571351032098343,0.784955999999966,
-0.00861912597656256,-0.092320416015625,0.0284431157226575,0.0969863875907872,0.78793399999995,
0.0560243188476562,-0.0204943662109374,0.0547793339843761,0.0809908561536652,0.791022999999768,
-0.00383072265624995,0.0465432802734376,0.0308373173828134,0.0559633051029801,0.794067999999697,
-0.0110133276367188,-0.0276769711914062,0.0571735356445338,0.0644679866139809,0.797156000000086,
0.00574608398437504,-0.0659841977539062,0.0547793339843761,0.0859517729087301,0.800143999999818,
0.00574608398437504,0.0226012636718751,0.0332315190429711,0.0405976410475345,0.803129999999783,
-0.0205901342773438,-0.00852335791015624,0.0308373173828134,0.0380465688727911,0.806205999999747,
0.0129286889648438,-0.00134075292968738,-0.0074699091796866,0.0149916029803655,0.809236000000055,
0.0225054956054688,0.00823605371093761,0.0380199223632829,0.0449426791556454,0.812289999999848,
0.0560243188476562,-0.0204943662109374,-0.0194409174804662,0.0627430683120786,0.815241999999671,
-0.0205901342773438,0.00105344873046875,0.0140779057617202,0.0249649917769393,0.818220999999994,
-0.0229843359375,-0.0324653745117187,-0.0074699091796866,0.0404731983394787,0.821269999999913,
-0.00622492431640631,-0.0635899960937499,0.0116837041015643,0.0649534158261213,0.824220999999852,
-0.0205901342773438,-0.0683783994140624,-0.0553539423828102,0.0903527424780652,0.827319999999872,
0.000957680664062543,0.0178128603515626,0.0140779057617202,0.0227244928831088,0.830398000000059,
0.00814028564453129,0.0154186586914062,-0.00268150585937299,0.0176405714162124,0.833403000000089,
0.0416591088867188,-0.0588015927734374,-0.0242293208007798,0.0760274203981416,0.836489999999685,
-0.00861912597656256,-0.0204943662109374,0.0236547124023456,0.0324631144196849,0.839485999999852,
0.0225054956054688,0.0130244570312501,0.0236547124023456,0.0351522294064592,0.842576999999892,
0.0464475122070312,-0.00612915624999988,-0.0050757075195289,0.0471243117019552,0.845552999999654,
-0.0014365209960937,0.0202070620117187,-0.0122583124999984,0.02367815814343,0.848556999999801,
0.03447650390625,0.00823605371093761,-0.00268150585937299,0.0355478884886427,0.851658999999927,
-0.0014365209960937,-0.0324653745117187,0.0284431157226575,0.0431865137140156,0.854621999999836,
-0.0014365209960937,-0.0109175595703124,-0.00268150585937299,0.0113334537197356,0.857650999999805,
-0.0349553442382813,0.0273896669921876,-0.00986411083984251,0.0454903355826309,0.860646999999972,
0.0177170922851563,-0.0372537778320312,-0.0242293208007798,0.0478413974322049,0.863669999999729,
0.0129286889648438,-0.0372537778320312,0.0260489140625015,0.047260352145785,0.866677999999865,
0.0177170922851563,-0.0133117612304687,-0.0170467158203103,0.0279586992965726,0.869678999999905,
0.044053310546875,-0.0228885678710937,0.0260489140625015,0.0560635945437381,0.872761000000082,
0.015322890625,0.00823605371093761,-0.0697191523437475,0.0718566890509564,0.875732999999855,
0.015322890625,-0.0133117612304687,-0.0362003291015611,0.0415025034332154,0.878737000000001,
-0.00861912597656256,-0.00612915624999988,0.0523851323242202,0.0534420992997358,0.881732999999713,
-0.0110133276367188,-0.0276769711914062,0.0284431157226575,0.0411863928012169,0.884692000000086,
0.0272938989257813,0.0226012636718751,-0.0218351191406239,0.0416238689458539,0.887760000000071,
-0.0612915625,-0.0348595761718749,-0.00268150585937299,0.0705622856648508,0.890693999999712,
-0.00622492431640631,-0.0588015927734374,0.00450109912109475,0.0593012385092932,0.893790000000081,
-0.0253785375976563,-0.0396479794921876,-0.0362003291015611,0.0593843100108936,0.896789999999783,
0.0320823022460938,-0.0396479794921876,-0.000287304199217076,0.051003126756362,0.899774999999863,
0.00574608398437504,-0.00134075292968738,0.0811155522460947,0.0813298709931528,0.902893999999833,
0.00814028564453129,0.0130244570312501,-0.00268150585937299,0.0155913823956471,0.905872999999701,
0.0225054956054688,-0.0276769711914062,0.0667503422851574,0.075684346214811,0.908931999999822,
0.0201112939453125,0.00584185205078125,-0.0529597407226543,0.0569502020799641,0.911969999999656,
-0.0158017309570313,-0.0252827695312499,0.0188663090820338,0.035282442585336,0.914945999999873,
0.0296881005859375,-0.0324653745117187,0.00450109912109475,0.0442226610674303,0.918119999999817,
0.0296881005859375,-0.0276769711914062,0.0284431157226575,0.0495621718929181,0.921116999999867,
0.024899697265625,-0.0540131894531251,0.0140779057617202,0.0611196121507232,0.924239999999827,
-0.0014365209960937,-0.0276769711914062,-0.000287304199217076,0.0277157152280982,0.927221999999801,
0.00335188232421879,0.0345722719726562,0.0308373173828134,0.0464480058542354,0.930233999999928,
-0.0134075292968751,-0.0372537778320312,0.00689530078125244,0.0401889409846645,0.933328999999958,
0.00814028564453129,-0.0300711728515624,-0.00268150585937299,0.0312686769901919,0.936401999999816,
-0.0158017309570313,-0.0324653745117187,0.0571735356445338,0.0676203255058812,0.939462999999705,
0.00335188232421879,-0.0468305844726562,-0.0266235224609357,0.053973611194675,0.942435999999816,
0.00574608398437504,-0.0204943662109374,0.0164721074218761,0.0269140641758417,0.945439999999962,
0.0177170922851563,-0.00852335791015624,0.0547793339843761,0.0582006737149768,0.948567999999796,
0.00335188232421879,-0.00852335791015624,-0.040988732421873,0.0419995110772963,0.951552999999876,
0.0129286889648438,-0.0300711728515624,0.0116837041015643,0.0347553647161287,0.954623000000083,
0.00814028564453129,0.00344765039062511,0.0428083256835947,0.0437115921858636,0.957586999999876,
0.0512359155273437,-0.0588015927734374,-0.0122583124999984,0.0789494305107129,0.960631999999805,
0.0105344873046875,-0.0324653745117187,-0.0194409174804662,0.0392800870345405,0.963594999999714,
-0.00861912597656256,-0.0109175595703124,-0.00268150585937299,0.0141659067215984,0.966559999999845,
0.000957680664062543,-0.0228885678710937,0.0571735356445338,0.061592344244563,0.969716000000062,
-0.0158017309570313,-0.0588015927734374,-0.0290177241210916,0.0674488719483088,0.972652999999809,
0.00335188232421879,-0.0252827695312499,0.035625720703127,0.0438137595499738,0.975723000000016,
-0.0181959326171875,0.00344765039062511,-0.0194409174804662,0.0268500936591942,0.978689000000031,
-0.0134075292968751,-0.0420421811523437,-0.0146525141601543,0.0464973441080947,0.981637999999748,
-0.0588973608398438,-0.0540131894531251,-0.0553539423828102,0.0972130787811878,0.984686999999667,
0.000957680664062543,-0.0109175595703124,-0.00986411083984251,0.0147448615417825,0.987656999999672,
0.015322890625,-0.0348595761718749,-0.0218351191406239,0.0438947998728061,0.990741000000071,
0.0608127221679687,-0.0204943662109374,0.00450109912109475,0.0643309110549857,0.993731000000025,
0.015322890625,-0.0133117612304687,-0.0050757075195289,0.020922637763593,0.996673999999985,
0.0201112939453125,-0.0252827695312499,0.0475967290039083,0.0575250483806537,0.999719999999797,
-0.00383072265624995,-0.0157059628906249,0.0739329472656269,0.0756798017820658,1.00270199999977,
-0.00383072265624995,-0.00373495458984374,-0.00268150585937299,0.00598454639309891,1.00569099999984,
0.00574608398437504,0.00344765039062511,-0.000287304199217076,0.00670718406444587,1.00871499999994,
-0.00383072265624995,-0.0588015927734374,0.00450109912109475,0.0590978987956441,1.01168999999982,
0.0320823022460938,-0.00134075292968738,-0.0433829340820289,0.053973611194674,1.0147549999997,
0.03447650390625,-0.0133117612304687,0.0164721074218761,0.0404618663876558,1.01771999999983,
0.0225054956054688,-0.0133117612304687,0.00450109912109475,0.0265322485440398,1.02076299999999,
-0.0014365209960937,-0.00612915624999988,0.071538745605471,0.0718151952703147,1.02371999999968,
-0.00622492431640631,-0.0324653745117187,0.0284431157226575,0.0436091854652621,1.02667500000007,
-0.0014365209960937,-0.0204943662109374,0.035625720703127,0.0411251092956291,1.02968499999997,
0.000957680664062543,-0.0109175595703124,-0.0218351191406239,0.0244311826793317,1.03267099999994,
