X,Y,Z,Magnitude,Seconds,
-0.00919373437499998,0.00756567724609369,-0.0268150585937459,0.0293395908515463,0.0,
-0.0355299526367187,0.00756567724609369,-0.0579396801757763,0.068385843165313,0.00404299999991053,
-0.00919373437499998,0.0123540805664062,-0.0483628735351509,0.0507554489190699,0.00789499999973486,
-0.0211647426757812,0.0315076938476562,-0.0339976635742136,0.0509560814097305,0.0117300000001705,
-0.00440533105468749,-0.00679953271484379,-0.0172382519531205,0.0190472548479009,0.0156319999996413,
-0.0211647426757812,0.000383072265624951,-0.0172382519531205,0.0272992748491968,0.0195979999998599,
-0.00679953271484374,0.0339018955078124,0.0186747729492236,0.0392978282970944,0.0235750000001644,
-0.0307415493164062,0.0267192905273437,-0.0124498486328086,0.0425906336139471,0.0274909999998272,
-0.0211647426757812,-0.00919373437500004,0.0521935961914117,0.0570670006893848,0.031369000000268,
0.000383072265625006,0.0554497104492186,0.0306457812500049,0.0633559866286212,0.0352249999996275,
-0.0451067592773437,0.0362960971679687,0.0593762011718795,0.0829310536996508,0.0391369999997551,
-0.00201112939453124,-0.00440533105468754,0.0521935961914117,0.0524177743378626,0.0430699999997159,
-0.00440533105468749,0.0386902988281249,-0.00766144531249502,0.0396868228683949,0.046926999999414,
-0.00440533105468749,0.0195366855468749,0.00430956298828633,0.0204856378228473,0.050890999999865,
-0.00201112939453124,0.0147482822265624,0.00909796630859816,0.0174450411586867,0.055025999999998,
-0.00201112939453124,-0.0020111293945313,0.0330399829101609,0.0331621735353221,0.0588799999995899,
-0.018770541015625,0.0362960971679687,-0.0555454785156204,0.0689567985275936,0.0627169999997932,
0.0051714755859375,0.0362960971679687,0.0258573779296913,0.0448637361658774,0.0665669999998499,
0.00756567724609375,0.0219308872070312,-0.0316034619140577,0.0392043631606596,0.0704100000002654,
-0.0211647426757812,0.0195366855468749,-0.0651222851562459,0.0712077273802563,0.0742760000002818,
0.00995987890625,-0.00440533105468754,-0.0483628735351509,0.049573921229872,0.0782079999999041,
-0.0115879360351562,0.0362960971679687,-0.0555454785156204,0.0673571608272702,0.0821930000001885,
0.019536685546875,0.0339018955078124,0.0928950244140676,0.100799336119194,0.0862239999996746,
-0.00919373437499998,0.0147482822265624,-0.0196324536132764,0.0262196455977163,0.0901539999995293,
-0.0235589443359375,0.0147482822265624,-0.0507570751953086,0.0578689585982014,0.094108000000233,
-0.0259531459960937,0.0291134921874999,-0.0148440502929645,0.0417313676213258,0.0980250000002343,
0.019536685546875,0.0027772739257812,-0.0268150585937459,0.0332932831063914,0.101983999999902,
-0.0259531459960937,0.0147482822265624,-0.0675164868164018,0.0738210918895017,0.105878000000303,
0.000383072265625006,0.00517147558593745,-0.0220266552734323,0.0226288410359713,0.109934999999496,
0.00995987890625,0.0458729038085937,0.049799394531254,0.0684361175647709,0.113863999999921,
0.00277727392578125,-0.018770541015625,0.00191536132813042,0.0190713153582909,0.117836999999781,
0.00756567724609375,-0.0235589443359375,-0.0316034619140577,0.0401377893682395,0.121734999999717,
-0.0163763393554687,0.000383072265624951,-0.0387860668945272,0.0421033278992636,0.125640999999632,
-0.0235589443359375,0.0243250888671874,0.0306457812500049,0.0456716292138076,0.129654000000301,
0.0315076938476563,0.0195366855468749,-0.0124498486328086,0.0391077432835872,0.133487999999488,
-0.0690487758789062,0.0027772739257812,-0.0220266552734323,0.0725301333472431,0.137291000000005,
-0.0259531459960937,0.0171424838867187,-0.0363918652343695,0.0478727312374955,0.141157000000021,
0.00756567724609375,0.0147482822265624,-0.0244208569335882,0.029514903933389,0.14501300000029,
-0.0307415493164062,0.0243250888671874,-0.00287304199218319,0.0393065792591832,0.148862999999437,
0.0051714755859375,-0.00919373437500004,-0.0483628735351509,0.0494998631116391,0.15293500000007,
-0.00919373437499998,-0.0115879360351563,-0.0124498486328086,0.0193340048694723,0.15681399999994,
-0.0546835659179687,-0.00440533105468754,-0.00766144531249502,0.0553931138994964,0.160767999999734,
0.0051714755859375,-0.00679953271484379,0.0641646044921913,0.064730783051926,0.164689999999609,
-0.0355299526367187,-0.00679953271484379,-0.000478840332027275,0.0361779002648203,0.168593999999757,
-0.0115879360351562,0.000383072265624951,-0.0244208569335882,0.0270334100565642,0.172461999999541,
-0.0522893642578125,0.0219308872070312,0.0306457812500049,0.0644539008640817,0.176510999999664,
0.038690298828125,0.0195366855468749,-0.0483628735351509,0.0649429660713467,0.180645999999797,
0.00756567724609375,0.0434787021484374,0.0138863696289118,0.0462651950625452,0.184661999999662,
-0.00440533105468749,0.0147482822265624,-0.0651222851562459,0.0669165958063254,0.188681999999972,
-0.0139821376953125,-0.0235589443359375,-0.0220266552734323,0.0351524903141883,0.192669999999453,
-0.0163763393554687,-0.0115879360351563,-0.0172382519531205,0.0264503701796328,0.196603999999752,
-0.0139821376953125,0.00756567724609369,0.00430956298828633,0.0164715506213819,0.200487999999496,
-0.0163763393554687,0.0195366855468749,0.0928950244140676,0.0963293939238339,0.204447999999502,
-0.0211647426757812,0.0147482822265624,-0.0292092602539018,0.0389697196005635,0.208384999999907,
-0.00679953271484374,0.00756567724609369,-0.0339976635742136,0.0354868179164842,0.212303000000247,
-0.0259531459960937,-0.0020111293945313,0.0114921679687541,0.0284548827647938,0.216164999999819,
-0.0115879360351562,0.0027772739257812,-0.0316034619140577,0.0337753211230773,0.220126000000164,
-0.02834734765625,0.0027772739257812,-0.0124498486328086,0.0310851105930632,0.224142000000029,
-0.0355299526367187,-0.0139821376953125,-0.0292092602539018,0.0480734707866857,0.228218000000197,
-0.0403183559570312,0.0027772739257812,-0.0292092602539018,0.0498644558991359,0.232129999999415,
-0.018770541015625,0.00756567724609369,-0.0339976635742136,0.0395653106991052,0.236041000000114,
-0.02834734765625,-0.0020111293945313,-0.00766144531249502,0.0294332211091855,0.239888000000064,
-0.00679953271484374,0.00756567724609369,-0.0268150585937459,0.0286796179318748,0.243830999999773,
-0.0139821376953125,-0.0020111293945313,0.0306457812500049,0.0337447584729152,0.247822000000269,
0.0051714755859375,0.0362960971679687,-0.00766144531249502,0.0374546201908246,0.251725999999508,
-0.02834734765625,0.0291134921874999,0.0785298144531303,0.0884200164246705,0.25584600000002,
0.0219308872070313,0.000383072265624951,-0.0435744702148391,0.0487836551782676,0.25976399999945,
-0.02834734765625,0.0219308872070312,0.0114921679687541,0.037637824823625,0.263667999999598,
-0.00201112939453124,-0.0115879360351563,-0.0100556469726509,0.0154738792497229,0.267466999999669,
-0.018770541015625,-0.0235589443359375,0.00430956298828633,0.0304290880802082,0.271292999999787,
-0.0451067592773437,-0.018770541015625,-0.0292092602539018,0.0569221734221706,0.275102999999945,
-0.0235589443359375,0.00995987890624994,0.0521935961914117,0.0581239583084558,0.279093000000103,
-0.00919373437499998,0.0171424838867187,-0.0531512768554645,0.0565990082680845,0.282949999999801,
-0.0403183559570312,0.0123540805664062,0.0689530078125049,0.0808251843184443,0.286916999999448,
0.00995987890625,0.0602381137695312,0.0330399829101609,0.0694224027893149,0.291107000000011,
-0.00679953271484374,0.0482671054687499,-0.0483628735351509,0.0686652361246115,0.295063999999911,
-0.0163763393554687,0.0147482822265624,-0.0124498486328086,0.0253119546914034,0.299063999999817,
0.0243250888671875,0.0219308872070312,0.00430956298828633,0.0330340142161697,0.30307300000004,
-0.270161715332031,-0.0690487758789063,-0.0220266552734323,0.279714603523047,0.884181999999782,
0.287687271484375,0.0817859287109375,-0.0770932934570272,0.308862882530883,0.888589999999567,
-0.174393648925781,-0.102567599121094,-0.0244208569335882,0.20378821219218,0.891939999999522,
-0.18157625390625,0.0554497104492186,-0.0363918652343695,0.193310564188214,0.894878999999491,
0.27811046484375,0.0650265170898438,-0.0794874951171831,0.296466086526683,0.897836999999527,
0.0530555087890625,-0.0403183559570313,-0.0124498486328086,0.0677897895772218,0.900862999999845,
-0.274950118652344,0.0147482822265624,-0.0148440502929645,0.275745218280703,0.903838999999607,
0.0650265170898438,0.0267192905273437,0.0905008227539117,0.114598286768412,0.906874000000244,
0.196707608398438,-0.018770541015625,-0.0172382519531205,0.198351641642442,0.909805999999662,
-0.109750204101563,0.06742071875,-0.0675164868164018,0.14542742729324,0.912728999999672,
-0.116932809082031,0.000383072265624951,-0.0172382519531205,0.118197233108795,0.915735999999924,
0.16318878515625,-0.00440533105468754,0.0234631762695354,0.164925762642255,0.918687999999747,
-0.0259531459960937,0.0147482822265624,-0.0387860668945272,0.0489431976976948,0.921701999999641,
-0.157634237304688,0.0123540805664062,-0.0579396801757763,0.168398879497885,0.924648000000161,
0.0219308872070313,-0.0259531459960938,0.0426167895507863,0.0545043149887979,0.927590000000237,
0.0458729038085938,0.0434787021484374,-0.0411802685546832,0.0754356372186307,0.930623000000196,
-0.107356002441406,0.0267192905273437,-0.0172382519531205,0.111966017509256,0.933563999999933,
-0.0498951625976562,-0.0427125576171875,-0.0651222851562459,0.0924921718461596,0.936553999999887,
0.0506613071289063,-0.00440533105468754,-0.00766144531249502,0.0514263816147619,0.939491000000089,
0.00277727392578125,0.0219308872070312,0.0210689746093795,0.0305381524529076,0.942444000000251,
-0.0642603725585937,-0.0235589443359375,-0.0579396801757763,0.0896739977834395,0.945416999999907,
0.00995987890625,0.0171424838867187,-0.0124498486328086,0.0234107384038484,0.948370999999497,
0.0291134921875,0.0123540805664062,-0.0220266552734323,0.0385407871809529,0.951404999999795,
-0.0163763393554687,0.0386902988281249,0.00191536132813042,0.0420570127697198,0.954359000000295,
-0.076231380859375,-0.0139821376953125,-0.00766144531249502,0.0778808150094368,0.957335999999486,
0.0123540805664062,0.00517147558593745,-0.0268150585937459,0.0299735689193534,0.960280999999668,
0.0315076938476563,0.0267192905273437,-0.0531512768554645,0.0673180027128588,0.963244999999915,
-0.0594719692382812,-0.0020111293945313,-0.0363918652343695,0.0697519004884966,0.966341000000284,
-0.00919373437499998,0.0171424838867187,-0.0387860668945272,0.0433906498074321,0.969390999999632,
0.0267192905273438,0.0458729038085937,-0.0483628735351509,0.0718137265896576,0.972506999999496,
0.0267192905273438,0.0195366855468749,0.0545877978515676,0.0638390965061825,0.975521999999728,
-0.0235589443359375,0.000383072265624951,-0.00766144531249502,0.0247763667001609,0.978444999999738,
-0.018770541015625,0.0267192905273437,-0.0363918652343695,0.0488939827743698,0.981464999999844,
0.0315076938476563,0.0458729038085937,-0.0387860668945272,0.0678337457360042,0.984443999999712,
-0.0355299526367187,0.0027772739257812,0.00430956298828633,0.0358979542310743,0.987495000000308,
-0.00919373437499998,0.0410845004882812,-0.0172382519531205,0.0454930573003056,0.990428000000065,
-0.0235589443359375,0.0147482822265624,-0.0148440502929645,0.0315100224683861,0.993359000000055,
0.00995987890625,0.0291134921874999,-0.0579396801757763,0.0656033623684795,0.996398000000227,
0.000383072265625006,0.00756567724609369,-0.0579396801757763,0.0584328054728164,0.999386999999842,
-0.037924154296875,0.0195366855468749,-0.00766144531249502,0.0433430652534751,1.00242400000025,
-0.00919373437499998,0.0123540805664062,-0.000478840332027275,0.0154070550872932,1.00540799999999,
-0.00679953271484374,0.0243250888671874,-0.0507570751953086,0.0566941291133307,1.00834699999996,
-0.0307415493164062,0.0482671054687499,-0.00287304199218319,0.0572975627317019,1.01135499999964,
-0.0115879360351562,0.0123540805664062,-0.0387860668945272,0.0423233098108226,1.01429600000029,
-0.00440533105468749,0.0434787021484374,-0.045968671874995,0.0634265187139014,1.01730599999973,
-0.0139821376953125,0.0171424838867187,0.0354341845703168,0.0417725551588643,1.02026000000023,
-0.0259531459960937,0.000383072265624951,-0.00766144531249502,0.0270630795685118,1.02318099999957,
-0.00440533105468749,-0.0139821376953125,0.0761356127929727,0.0775341128252174,1.02621099999942,
-0.0211647426757812,-0.0115879360351563,0.0450109912109422,0.0510706953533866,1.02915899999971,
-0.0475009609375,0.0147482822265624,0.0234631762695354,0.0549943066078256,1.03220099999999,
0.00756567724609375,-0.00440533105468754,0.00191536132813042,0.00896186492370604,1.0351499999997,
-0.0211647426757812,0.000383072265624951,0.0689530078125049,0.0721291228512041,1.0380839999998,
-0.0594719692382812,0.0147482822265624,-0.000478840332027275,0.0612752498303922,1.04108900000028,
-0.00440533105468749,0.00756567724609369,0.00191536132813042,0.00896186492370597,1.04404900000009,
-0.00201112939453124,0.0339018955078124,-0.045968671874995,0.0571533197147387,1.04705699999977,
-0.00440533105468749,-0.0020111293945313,-0.00766144531249502,0.00906362661517418,1.04997999999978,
0.0147482822265625,0.0339018955078124,-0.0292092602539018,0.0471172073900517,1.05300399999942,
-0.0259531459960937,-0.00919373437500004,0.0306457812500049,0.0411977480850079,1.05595199999971,
-0.0211647426757812,0.0027772739257812,-0.0244208569335882,0.0324351327477111,1.05887499999972,
-0.00919373437499998,0.0243250888671874,0.0354341845703168,0.0439524303801041,1.06191599999966,
-0.00679953271484374,0.0362960971679687,0.0258573779296913,0.0450804204524064,1.0648629999996,
-0.00440533105468749,-0.0163763393554688,-0.0292092602539018,0.033775321123078,1.06784599999992,
-0.00679953271484374,-0.00919373437500004,-0.0268150585937459,0.0291514281688619,1.07079400000021,
0.00277727392578125,-0.00440533105468754,-0.0675164868164018,0.0677170302375228,1.07383200000004,
0.0123540805664062,0.0291134921874999,-0.0124498486328086,0.0339884901837772,1.07698999999957,
0.038690298828125,-0.00679953271484379,-0.0196324536132764,0.0439158980715104,1.08003999999983,
0.0147482822265625,-0.0020111293945313,-0.00287304199218319,0.0151595131968258,1.08308800000032,
-0.0475009609375,0.00517147558593745,-0.0244208569335882,0.0536606345759406,1.08604500000001,
-0.0211647426757812,0.0171424838867187,-0.0986411083984322,0.102332200955563,1.08899399999973,
-0.0355299526367187,0.0386902988281249,-0.0531512768554645,0.0747286758155349,1.09206300000005,
-0.0139821376953125,-0.0139821376953125,-0.0579396801757763,0.0612209677147675,1.09502400000019,
-0.0115879360351562,0.0506613071289062,-0.0363918652343695,0.063444591233617,1.09807000000001,
0.00277727392578125,0.00517147558593745,-0.0842758984374949,0.0844800832601492,1.1010669999996,
-0.00679953271484374,0.0530555087890624,-0.0723048901367136,0.0899395229901111,1.10403299999962,
0.0147482822265625,0.0219308872070312,-0.0339976635742136,0.0430617785376693,1.10710999999992,
-0.00679953271484374,0.0243250888671874,-0.0770932934570272,0.0811253319844554,1.11010600000009,
-0.0259531459960937,0.0123540805664062,-0.00287304199218319,0.0288867350876602,1.11315999999988,
-0.00201112939453124,0.000383072265624951,-0.0435744702148391,0.043622538214851,1.11616200000026,
-0.0139821376953125,0.0027772739257812,0.0138863696289118,0.0199008715000189,1.1191259999996,
-0.0475009609375,0.0123540805664062,-0.045968671874995,0.0672464377538179,1.12217099999998,
0.0123540805664062,0.0458729038085937,0.00670376464844225,0.0479779852738258,1.12518099999943,
-0.018770541015625,-0.0115879360351563,-0.00287304199218319,0.022245625229761,1.12819500000023,
0.0458729038085938,0.00517147558593745,-0.0316034619140577,0.0559450289884789,1.13119000000006,
-0.0331357509765625,0.0291134921874999,-0.0196324536132764,0.0482804997386091,1.13414999999986,
-0.018770541015625,0.0219308872070312,-0.0316034619140577,0.0428027549190479,1.13717300000008,
0.0339018955078125,-0.018770541015625,0.028251579589849,0.0479564748325341,1.14012699999967,
0.00995987890625,0.00517147558593745,0.00670376464844225,0.0130722533644668,1.1431990000001,
-0.00919373437499998,0.0291134921874999,-0.0914585034179645,0.0964198010087321,1.1461589999999,
-0.037924154296875,0.0267192905273437,-0.0411802685546832,0.0620320601274341,1.14916100000028,
0.0267192905273438,0.0315076938476562,0.0306457812500049,0.051437526829207,1.15212900000006,
0.0291134921875,-0.0139821376953125,0.0258573779296913,0.0413726914193553,1.15506899999946,
-0.0642603725585937,0.0219308872070312,-0.0268150585937459,0.0730027853060609,1.15808099999958,
0.00277727392578125,-0.0115879360351563,0.0258573779296913,0.028470994106504,1.16104399999949,
0.0123540805664062,0.0195366855468749,0.0474051928710981,0.052740474968896,1.16408299999966,
-0.0618661708984375,0.0482671054687499,-0.0124498486328086,0.0794489477774624,1.16705000000002,
-0.037924154296875,-0.0115879360351563,-0.0220266552734323,0.0453618262774183,1.16999099999975,
-0.0115879360351562,0.0291134921874999,-0.0483628735351509,0.0576267578949527,1.17304199999944,
0.00277727392578125,0.0147482822265624,0.0114921679687541,0.018902248641768,1.17603799999961,
-0.0355299526367187,0.0171424838867187,-0.0052672436523391,0.0397993234096636,1.17908399999942,
-0.0211647426757812,0.00517147558593745,-0.00766144531249502,0.0230951994263815,1.18205399999988,
-0.018770541015625,0.0171424838867187,-0.0148440502929645,0.0294371159070608,1.18499999999949,
0.00756567724609375,-0.0259531459960938,0.0521935961914117,0.0587790502022512,1.18803800000023,
-0.02834734765625,0.0171424838867187,-0.0100556469726509,0.0346201228910195,1.19099399999959,
0.00277727392578125,0.0243250888671874,-0.00287304199218319,0.0246511169958734,1.19402999999966,
0.0219308872070313,0.000383072265624951,-0.0148440502929645,0.0264850219397357,1.19701400000031,
-0.0235589443359375,0.0291134921874999,-0.0292092602539018,0.0474952647129752,1.19994899999983,
-0.018770541015625,0.0362960971679687,0.0162805712890677,0.0439863260700902,1.20298999999977,
0.0315076938476563,-0.0020111293945313,0.0114921679687541,0.0335983531986501,1.20594600000004,
-0.0403183559570312,0.0291134921874999,-0.0411802685546832,0.0645676371928331,1.20897400000013,
-0.0259531459960937,-0.00679953271484379,-0.0411802685546832,0.0491488957197475,1.21194500000001,
-0.0163763393554687,0.0243250888671874,-0.0435744702148391,0.0525226512429251,1.21497900000031,
-0.0235589443359375,-0.0403183559570313,-0.0507570751953086,0.0689700976342928,1.21806399999969,
-0.0163763393554687,0.00517147558593745,0.0138863696289118,0.0220852872268437,1.22111399999994,
-0.0163763393554687,-0.00679953271484379,-0.0292092602539018,0.034170148088732,1.2241210000002,
-0.037924154296875,0.00756567724609369,0.0474051928710981,0.0611778821345693,1.22708599999987,
-0.018770541015625,0.0362960971679687,-0.0675164868164018,0.078919046317573,1.23002699999961,
0.0147482822265625,-0.0020111293945313,0.0138863696289118,0.0203565157025128,1.23307199999999,
-0.00919373437499998,-0.0115879360351563,-0.00287304199218319,0.015068489758492,1.2360149999995,
0.0171424838867188,0.0171424838867187,-0.0196324536132764,0.0311955564542496,1.23905999999988,
-0.00201112939453124,0.00517147558593745,-0.0962469067382763,0.0964067210201859,1.24201799999992,
-0.0211647426757812,0.0171424838867187,-0.0052672436523391,0.027740853303955,1.24504499999966,
0.000383072265625006,-0.0139821376953125,-0.0411802685546832,0.0434909351144258,1.24801399999978,
0.00995987890625,0.0291134921874999,-0.0124498486328086,0.0331932726039273,1.25097499999993,
-0.0163763393554687,-0.00919373437500004,0.0330399829101609,0.0380046012102121,1.25402200000008,
0.00277727392578125,0.0171424838867187,0.0354341845703168,0.0394608596007298,1.25702999999976,
-0.0451067592773437,-0.0115879360351563,-0.0052672436523391,0.0468683672614293,1.26001699999961,
0.0051714755859375,0.0386902988281249,0.0114921679687541,0.040690948720417,1.26299399999971,
-0.0355299526367187,0.0410845004882812,-0.0148440502929645,0.0563086098553242,1.26592600000004,
-0.00201112939453124,0.0315076938476562,-0.0172382519531205,0.0359713322444198,1.26896099999976,
-0.0139821376953125,-0.00440533105468754,-0.00287304199218319,0.014938590513195,1.27189099999941,
-0.0403183559570312,-0.00679953271484379,-0.0603338818359322,0.0728833367074419,1.27489700000024,
0.0051714755859375,-0.00440533105468754,0.0162805712890677,0.0176410913192965,1.27785899999981,
0.000383072265625006,-0.0475009609375001,0.00430956298828633,0.0476975928899626,1.28080799999952,
-0.0139821376953125,0.0123540805664062,-0.0316034619140577,0.0367001673855206,1.28384199999982,
0.000383072265625006,0.0123540805664062,0.0138863696289118,0.0185903553616575,1.28682200000003,
-0.00919373437499998,-0.018770541015625,-0.0220266552734323,0.0303649716665756,1.28981099999964,
0.0171424838867188,0.00756567724609369,-0.0723048901367136,0.0746933823285617,1.29278199999953,
-0.0451067592773437,0.0315076938476562,-0.045968671874995,0.0716970940697935,1.2957150000002,
-0.0211647426757812,0.0362960971679687,0.00909796630859816,0.0429898359279382,1.29874899999959,
-0.037924154296875,0.0147482822265624,-0.0651222851562459,0.0767897475691835,1.30169000000024,
-0.00440533105468749,-0.0235589443359375,0.0402225878906304,0.0468218685716908,1.30469900000026,
0.019536685546875,0.0123540805664062,-0.0794874951171831,0.0827802347713688,1.30767699999979,
-0.0331357509765625,0.0482671054687499,0.049799394531254,0.0768613762483582,1.31065799999942,
-0.00201112939453124,-0.0235589443359375,-0.0339976635742136,0.0414114673510945,1.31365000000005,
-0.018770541015625,-0.0115879360351563,0.00909796630859816,0.0238618201846909,1.3165939999999,
-0.0139821376953125,0.000383072265624951,-0.0723048901367136,0.0736453939942858,1.31962000000021,
-0.0307415493164062,-0.0331357509765625,-0.0124498486328086,0.0468830414769952,1.32254499999999,
-0.00919373437499998,0.00756567724609369,-0.0172382519531205,0.0209504547528061,1.32547900000009,
0.0123540805664062,-0.0163763393554688,-0.0507570751953086,0.0547456708764167,1.32849600000009,
0.0147482822265625,0.0386902988281249,0.0186747729492236,0.0454224415542472,1.33146599999964,
-0.0115879360351562,-0.00679953271484379,-0.0244208569335882,0.0278727852943671,1.33446000000004,
0.00277727392578125,-0.0163763393554688,0.00430956298828633,0.0171601303693855,1.3374130000002,
0.0123540805664062,-0.0451067592773439,-0.0675164868164018,0.0821323263470289,1.34042200000022,
0.00756567724609375,-0.018770541015625,-0.10103531005859,0.103042256190588,1.34336499999972,
-0.0810197841796875,0.0410845004882812,-0.0483628735351509,0.10291311454558,1.34629799999948,
-0.0498951625976562,0.0267192905273437,-0.045968671874995,0.072914789520934,1.34931299999971,
-0.00201112939453124,0.0027772739257812,-0.0124498486328086,0.0129134280065449,1.35235699999976,
-0.0451067592773437,0.0147482822265624,-0.0363918652343695,0.0598038411506743,1.35545000000002,
0.0051714755859375,-0.0115879360351563,-0.0124498486328086,0.0177770400311938,1.35849400000006,
-0.00440533105468749,0.00756567724609369,-0.0148440502929645,0.0172334628845602,1.36148599999979,
0.0051714755859375,-0.00679953271484379,-0.0148440502929645,0.0171266936089906,1.36450799999966,
0.00277727392578125,0.0147482822265624,-0.0148440502929645,0.021108550594326,1.36747000000014,
-0.00440533105468749,0.0123540805664062,0.0210689746093795,0.0248179761349174,1.37051100000008,
-0.0307415493164062,-0.00679953271484379,0.00191536132813042,0.0315427504908904,1.37347399999999,
-0.00679953271484374,-0.00679953271484379,-0.0675164868164018,0.0681978246156709,1.37637699999959,
-0.0139821376953125,-0.0427125576171875,-0.000478840332027275,0.0449454340372392,1.37938800000029,
0.0123540805664062,0.0123540805664062,0.00430956298828633,0.0179949700314426,1.38237699999991,
-0.0139821376953125,-0.00440533105468754,-0.00287304199218319,0.014938590513195,1.38536099999965,
-0.0139821376953125,0.0243250888671874,-0.0292092602539018,0.0405017407960128,1.38833100000011,
-0.00679953271484374,0.0123540805664062,-0.0890643017578086,0.0901737589290114,1.39125899999999,
-0.0427125576171875,-0.0211647426757813,0.0402225878906304,0.0623711911650971,1.394319,
-0.00201112939453124,-0.00919373437500004,0.0928950244140676,0.0933705250820077,1.39726100000007,
0.0147482822265625,-0.00440533105468754,0.0162805712890677,0.0224048158179029,1.40029799999957,
-0.00919373437499998,0.0315076938476562,-0.0555454785156204,0.0645179022201198,1.4032559999996,
0.0171424838867188,0.00517147558593745,-0.0100556469726509,0.0205359428705123,1.40621099999953,
0.00756567724609375,-0.0307415493164063,0.0402225878906304,0.0511872923994285,1.40923999999995,
-0.0235589443359375,0.00517147558593745,-0.0723048901367136,0.0762218154837706,1.41219399999954,
-0.0235589443359375,0.00995987890624994,-0.00287304199218319,0.0257386366449315,1.4152180000001,
-0.037924154296875,-0.0020111293945313,0.00430956298828633,0.0382211780787136,1.41815399999996,
-0.00440533105468749,-0.0020111293945313,-0.0124498486328086,0.0133585296392525,1.42105900000024,
-0.00679953271484374,0.0171424838867187,-0.0507570751953086,0.0540035098982358,1.42409899999984,
-0.0139821376953125,0.0123540805664062,0.028251579589849,0.0338566866437563,1.42706699999962,
0.0051714755859375,0.00517147558593745,-0.0435744702148391,0.0441839651228338,1.43010799999956,
0.0267192905273438,0.00756567724609369,0.0210689746093795,0.0348577344296405,1.43308900000011,
-0.00440533105468749,-0.0139821376953125,-0.0651222851562459,0.0667519223708462,1.43607199999951,
0.038690298828125,0.0123540805664062,-0.00766144531249502,0.041331105408968,1.43904599999951,
-0.0139821376953125,0.0123540805664062,0.0402225878906304,0.0443393736738739,1.44200999999975,
0.0219308872070313,0.00756567724609369,-0.0603338818359322,0.0646403943619763,1.44504599999982,
-0.00679953271484374,-0.0115879360351563,0.0857124194335981,0.0867590499709174,1.44801199999984,
0.0051714755859375,0.0147482822265624,0.0162805712890677,0.0225679637953604,1.45105400000011,
-0.0259531459960937,0.0315076938476562,-0.0411802685546832,0.0579837483863195,1.45399799999996,
-0.00919373437499998,-0.0020111293945313,-0.0842758984374949,0.0847997432227632,1.45691799999986,
0.00277727392578125,0.00756567724609369,-0.0172382519531205,0.0190291895006105,1.4599619999999,
-0.018770541015625,0.0362960971679687,-0.000478840332027275,0.0408652562418182,1.4629189999996,
0.00277727392578125,-0.00440533105468754,0.00430956298828633,0.00675962464270216,1.46596399999999,
-0.00679953271484374,0.0027772739257812,-0.0244208569335882,0.0255014734666418,1.46891499999947,
-0.00440533105468749,0.0123540805664062,-0.0148440502929645,0.0198084849860536,1.47184899999957,
-0.00919373437499998,-0.00679953271484379,0.0162805712890677,0.0198951099116517,1.47486299999946,
-0.0115879360351562,0.0243250888671874,0.0474051928710981,0.0545274474104322,1.47783600000002,
-0.00440533105468749,-0.0115879360351563,0.0162805712890677,0.0204632403288111,1.48084500000004,
0.0219308872070313,0.0339018955078124,-0.0627280834960899,0.0745996969953806,1.48381599999993,
0.0315076938476563,0.00995987890624994,-0.0100556469726509,0.0345405558070999,1.48676900000009,
-0.0139821376953125,0.0482671054687499,-0.0675164868164018,0.0841646578849547,1.4898290000001,
0.0147482822265625,-0.00440533105468754,-0.0746990917968695,0.0762684278428032,1.49286699999993,
0.0051714755859375,0.00756567724609369,-0.0148440502929645,0.0174450411586808,1.49600699999974,
-0.0163763393554687,0.00756567724609369,-0.0148440502929645,0.0233617163748213,1.49905099999978,
0.00277727392578125,0.0386902988281249,0.00670376464844225,0.0393648692914143,1.50203400000009,
-0.0115879360351562,0.0147482822265624,0.00430956298828633,0.0192448544639656,1.5050540000002,
0.0291134921875,0.0386902988281249,-0.0316034619140577,0.0578213927168356,1.50802899999962,
-0.0235589443359375,-0.00440533105468754,-0.0268150585937459,0.0359649574907467,1.51104899999973,
-0.0403183559570312,0.0171424838867187,-0.0363918652343695,0.0569543890856605,1.5140220000003,
-0.0355299526367187,0.0362960971679687,-0.0699106884765577,0.0864134744542794,1.51695399999971,
-0.00201112939453124,0.0267192905273437,-0.0124498486328086,0.0295459618003204,1.51998600000024,
-0.00201112939453124,0.00995987890624994,0.00430956298828633,0.0110370359435275,1.52296899999965,
-0.018770541015625,0.0339018955078124,-0.0699106884765577,0.0799323219499358,1.52600900000016,
0.0123540805664062,-0.0163763393554688,0.0186747729492236,0.0277408533039592,1.5289759999996,
0.00995987890625,0.0219308872070312,0.00909796630859816,0.0257475434258703,1.53204399999959,
-0.0163763393554687,0.00995987890624994,0.00191536132813042,0.0192627175530851,1.5350269999999,
-0.0139821376953125,0.0027772739257812,0.00909796630859816,0.0169111328994213,1.53797299999951,
0.00277727392578125,0.0219308872070312,0.0354341845703168,0.0417643209008554,1.54101900000023,
0.00756567724609375,0.0171424838867187,-0.0292092602539018,0.0347028112777429,1.54399300000023,
-0.00679953271484374,0.0027772739257812,-0.0292092602539018,0.0301185620536443,1.54700599999978,
0.0147482822265625,0.00995987890624994,-0.0387860668945272,0.0426739967850241,1.54998299999988,
-0.0211647426757812,-0.00679953271484379,-0.0555454785156204,0.0598287569752332,1.55289900000025,
-0.018770541015625,-0.0259531459960938,-0.0387860668945272,0.0503016697760677,1.55591000000004,
-0.0451067592773437,0.0315076938476562,-0.0124498486328086,0.0564123500226831,1.55885599999965,
0.00995987890625,0.00756567724609369,-0.0746990917968695,0.0757389792332611,1.56191599999966,
0.0051714755859375,0.0219308872070312,-0.00766144531249502,0.0237992797727121,1.56488699999954,
0.00756567724609375,-0.018770541015625,0.0450109912109422,0.0493514134752272,1.56783799999994,
-0.00201112939453124,0.00517147558593745,-0.0148440502929645,0.0158472278420409,1.57085899999947,
-0.0235589443359375,0.00756567724609369,-0.00287304199218319,0.024910192707097,1.57382400000006,
-0.0139821376953125,0.000383072265624951,0.00909796630859816,0.0166859195084885,1.57684700000027,
-0.00919373437499998,0.0171424838867187,-0.0124498486328086,0.0230951994263811,1.57980299999963,
-0.00201112939453124,0.0171424838867187,-0.00287304199218319,0.0174975359847267,1.58272599999964,
-0.0451067592773437,-0.0115879360351563,0.00909796630859816,0.0474517964360834,1.5857390000001,
0.000383072265625006,-0.0020111293945313,-0.0363918652343695,0.0364494065937808,1.58869899999991,
0.000383072265625006,-0.00440533105468754,-0.0363918652343695,0.0366595354757613,1.59171999999944,
-0.0163763393554687,0.00995987890624994,-0.0148440502929645,0.0242431332053573,1.59466199999952,
0.00756567724609375,0.0147482822265624,-0.045968671874995,0.0488658377066981,1.597624,
-0.0307415493164062,-0.0163763393554688,-0.000478840332027275,0.034834704435693,1.60061899999982,
-0.00201112939453124,-0.0307415493164063,-0.0363918652343695,0.0476807650006908,1.60354499999994,
