X,Y,Z,Magnitude,Seconds,
-0.0158017309570313,-0.0252827695312499,0.0404141240234388,0.0502216542637794,0.0,
0.024899697265625,-0.0204943662109374,-0.000287304199217076,0.0322505273446912,0.00299700000005032,
0.0296881005859375,-0.0396479794921876,-0.0122583124999984,0.0510255996492083,0.00607399999989866,
-0.0014365209960937,-0.0276769711914062,-0.0146525141601543,0.0313492344103595,0.00904200000013589,
0.0296881005859375,-0.0228885678710937,0.00928950244140836,0.0386207808206843,0.01213400000006,
0.0105344873046875,-0.0181001645507812,0.00689530078125244,0.0220485045389006,0.0151460000001862,
-0.00861912597656256,-0.0276769711914062,0.0404141240234388,0.0497353545027245,0.0180789999999433,
0.0129286889648438,-0.0588015927734374,-0.0242293208007798,0.0648986771630204,0.0211639999997715,
0.0129286889648438,0.0249954653320312,0.0116837041015643,0.0304702022810378,0.0242210000001251,
0.00574608398437504,-0.0396479794921876,0.0236547124023456,0.0465244578453753,0.0273240000001351,
0.0272938989257813,-0.0157059628906249,0.0212605107421897,0.0379953089987595,0.0303309999999328,
0.00814028564453129,-0.0133117612304687,-0.0314119257812475,0.035073869457449,0.0333350000000792,
-0.00383072265624995,-0.0133117612304687,-0.0146525141601543,0.0201636701604554,0.0363409999999931,
-0.00861912597656256,-0.0181001645507812,0.0212605107421897,0.0292218173011874,0.0393669999998565,
0.0105344873046875,-0.0181001645507812,-0.0170467158203103,0.0270033683046467,0.0424699999998666,
-0.0397437475585938,0.0130244570312501,0.0452025273437524,0.0615830368626198,0.0455489999999372,
-0.0253785375976563,-0.00852335791015624,0.00210689746093884,0.0268543631012018,0.0485499999999774,
-0.0181959326171875,-0.0276769711914062,0.0428083256835947,0.054126328583896,0.0516529999999875,
0.00574608398437504,-0.0611957944335937,-0.0170467158203103,0.0637850551287099,0.0546880000001693,
0.00814028564453129,-0.0204943662109374,-0.0146525141601543,0.0264760168449882,0.0577830000001995,
0.0129286889648438,-0.0372537778320312,-0.0362003291015611,0.0535299802743224,0.0608299999998962,
-0.0014365209960937,-0.0444363828125001,-0.0649307490234357,0.0786934424127936,0.0639489999998659,
0.0105344873046875,-0.0348595761718749,-0.040988732421873,0.0548292044371179,0.0669490000000224,
-0.0181959326171875,-0.0755610043945312,-0.0050757075195289,0.0778865852104417,0.0699039999999513,
0.0129286889648438,-0.0204943662109374,-0.0481713374023425,0.0539226092828231,0.0730349999998907,
0.0320823022460938,-0.0133117612304687,0.0523851323242202,0.0628544285877517,0.0760930000001281,
0.0392649072265625,-0.0228885678710937,0.00928950244140836,0.0463887306822374,0.0791469999999208,
0.0272938989257813,-0.0468305844726562,0.0212605107421897,0.0582243065878858,0.0821249999999054,
0.03447650390625,-0.0300711728515624,0.0428083256835947,0.0626534716204851,0.085128000000168,
0.0105344873046875,-0.0204943662109374,-0.0553539423828102,0.0599587642174195,0.0881819999999607,
0.0296881005859375,-0.0133117612304687,-0.0433829340820289,0.0542279012411823,0.0911989999999605,
0.00814028564453129,-0.0133117612304687,-0.0218351191406239,0.026837281257922,0.094380000000001,
-0.0158017309570313,-0.0109175595703124,-0.0553539423828102,0.0585913538461879,0.0973629999998593,
0.00814028564453129,-0.00852335791015624,0.035625720703127,0.0375247099396704,0.100403999999799,
0.0320823022460938,-0.0372537778320312,-0.0290177241210916,0.0570889340707622,0.103462000000036,
-0.00861912597656256,0.00105344873046875,0.0332315190429711,0.0343472407149531,0.106511999999839,
-0.0445321508789063,0.00584185205078125,0.0428083256835947,0.0620466956825068,0.109587999999803,
0.0177170922851563,-0.0635899960937499,0.00689530078125244,0.066371139323563,0.112630999999965,
0.000957680664062543,-0.0444363828125001,0.0452025273437524,0.0633938305198231,0.115654000000177,
-0.0110133276367188,0.00823605371093761,0.0164721074218761,0.021458245251674,0.118755999999848,
0.0105344873046875,-0.0276769711914062,-0.0146525141601543,0.0330406768743632,0.121731000000182,
0.024899697265625,0.00344765039062511,-0.0697191523437475,0.0741123567339915,0.124874000000091,
-0.0397437475585938,-0.0109175595703124,-0.0074699091796866,0.0418874458534453,0.127810999999838,
-0.0134075292968751,-0.0420421811523437,0.0499909306640642,0.0666813316195195,0.130815999999868,
0.0201112939453125,-0.0396479794921876,0.0978749638671896,0.107498534752672,0.13394500000004,
-0.0110133276367188,-0.0252827695312499,0.0787213505859388,0.0834120066829608,0.136931999999888,
0.015322890625,-0.0252827695312499,0.0236547124023456,0.0378623141278197,0.140017000000171,
-0.0014365209960937,-0.0252827695312499,0.0308373173828134,0.0399026586972708,0.143004999999903,
-0.00622492431640631,0.00344765039062511,-0.0649307490234357,0.0653195081480667,0.145989999999983,
-0.0205901342773438,-0.0276769711914062,-0.00986411083984251,0.0358785318338094,0.149038000000019,
-0.0134075292968751,-0.0181001645507812,0.00689530078125244,0.0235568030826736,0.151992000000064,
-0.032561142578125,0.00105344873046875,0.0595677373046897,0.067894426043831,0.155126999999993,
-0.00861912597656256,-0.0372537778320312,-0.0218351191406239,0.0440330072019097,0.158160999999836,
0.03447650390625,-0.0157059628906249,-0.0050757075195289,0.03822393750967,0.161208999999872,
-0.0229843359375,-0.0157059628906249,-0.0840843623046865,0.0885727777197674,0.164212000000134,
-0.0181959326171875,-0.00373495458984374,0.0116837041015643,0.0219442655637033,0.167182000000139,
0.00814028564453129,-0.0300711728515624,-0.00268150585937299,0.0312686769901919,0.170266000000083,
0.0225054956054688,-0.0635899960937499,-0.0146525141601543,0.0690281182335462,0.173288999999841,
0.00335188232421879,-0.0276769711914062,-0.0194409174804662,0.033988220340695,0.176380999999765,
-0.00383072265624995,-0.0420421811523437,0.00689530078125244,0.0427757478599677,0.179427000000032,
0.00335188232421879,-0.0851378110351562,0.0284431157226575,0.0898259028064057,0.182467999999972,
-0.00622492431640631,-0.0109175595703124,-0.0314119257812475,0.0338327041633226,0.185586999999941,
0.0225054956054688,-0.0204943662109374,0.0332315190429711,0.0450649557498854,0.188615000000027,
-0.00861912597656256,-0.0300711728515624,0.00689530078125244,0.0320329508808092,0.191702999999961,
0.00574608398437504,0.00823605371093761,-0.0338061274414052,0.035266192230938,0.194833000000017,
-0.0014365209960937,-0.0252827695312499,-0.0290177241210916,0.0385137681993115,0.19778499999984,
-0.0277727392578125,-0.0420421811523437,0.0428083256835947,0.0661167360791626,0.200859999999921,
-0.0134075292968751,-0.0324653745117187,-0.0146525141601543,0.0380586199860983,0.20387699999992,
0.0320823022460938,0.0106302553710937,-0.000287304199217076,0.0337988016114073,0.207005000000208,
0.0392649072265625,-0.0157059628906249,0.0164721074218761,0.0453843644083518,0.21002499999986,
0.00335188232421879,-0.0228885678710937,-0.0362003291015611,0.042960277947965,0.212996000000203,
0.312203896484375,0.601998065429688,0.100269165527346,0.685512107345059,0.79310200000009,
-0.537737692871094,-0.391595623535156,-0.0481713374023425,0.666955348170584,0.796688999999787,
0.364876333007813,-0.0659841977539062,0.124211182128908,0.391046123249311,0.799742000000151,
0.233195241699219,-0.0875320126953125,0.0140779057617202,0.249479581185085,0.802700000000186,
-0.0588973608398438,-0.192876885742188,0.0236547124023456,0.203051563860861,0.805609000000004,
0.324174904785156,-0.0492247861328126,0.0811155522460947,0.337775341430477,0.80863700000009,
0.135032973632812,-0.0204943662109374,0.0188663090820338,0.137876251156197,0.811587000000145,
-0.274375510253906,0.00105344873046875,-0.0290177241210916,0.275907699592612,0.814597000000049,
0.00335188232421879,-0.0133117612304687,0.0116837041015643,0.0180262875741327,17.4358040000002,
-0.00861912597656256,-0.0468305844726562,-0.0146525141601543,0.0498205695056165,17.4401069999999,
0.00335188232421879,-0.0588015927734374,-0.0074699091796866,0.0593688636488972,17.443045,
-0.0014365209960937,-0.0133117612304687,-0.0074699091796866,0.0153318662524167,17.4459649999999,
-0.0014365209960937,0.0106302553710937,-0.0122583124999984,0.0162890192207666,17.448989,
0.0129286889648438,-0.0181001645507812,-0.0050757075195289,0.0228151213439428,17.451935,
0.0296881005859375,-0.0588015927734374,0.0404141240234388,0.0772807353075513,17.4549689999999,
0.0272938989257813,0.00344765039062511,-0.0481713374023425,0.0554736059664149,17.4579349999999,
-0.00383072265624995,-0.0181001645507812,-0.0050757075195289,0.0191847126550873,17.4608440000002,
0.00574608398437504,0.00344765039062511,0.0452025273437524,0.0456965234195573,17.4638909999999,
-0.0110133276367188,-0.0133117612304687,0.0140779057617202,0.0222864040016912,17.4668149999998,
0.00574608398437504,-0.0133117612304687,0.0332315190429711,0.0362567831738538,17.469846,
0.00574608398437504,-0.0252827695312499,0.0140779057617202,0.0295029379377997,17.4728009999999,
-0.0277727392578125,-0.0133117612304687,0.0188663090820338,0.036117387105358,17.4757159999999,
-0.032561142578125,-0.0372537778320312,-0.0242293208007798,0.0550920316853393,17.478728,
0.0177170922851563,-0.0372537778320312,0.0116837041015643,0.0428747975310904,17.4817969999999,
-0.00383072265624995,-0.00852335791015624,0.0308373173828134,0.0322220764306413,17.484903,
-0.0397437475585938,-0.0468305844726562,-0.0457771357421866,0.0766042770921467,17.4879299999998,
-0.0253785375976563,-0.0181001645507812,0.0140779057617202,0.0342034144201553,17.4908879999998,
0.00814028564453129,0.00584185205078125,-0.0433829340820289,0.0445249419463231,17.4939180000001,
0.00335188232421879,0.0345722719726562,0.0236547124023456,0.0420240707607486,17.496877,
0.00335188232421879,-0.0588015927734374,0.0404141240234388,0.0714294326478271,17.4998850000002,
-0.00861912597656256,0.00344765039062511,0.0212605107421897,0.0231988133928138,17.5028649999999,
0.015322890625,-0.00373495458984374,0.0284431157226575,0.0325230947928759,17.5058640000002,
-0.0253785375976563,-0.0540131894531251,0.0332315190429711,0.0683068712751373,17.5087910000002,
-0.0181959326171875,-0.00373495458984374,0.00210689746093884,0.0186944073591097,17.511704,
-0.0349553442382813,-0.00852335791015624,-0.0673249506835916,0.0763359201518486,17.514674,
-0.0181959326171875,-0.0444363828125001,-0.00986411083984251,0.0490202485094576,17.517613,
-0.00861912597656256,0.00344765039062511,0.0404141240234388,0.0414665774618273,17.5206400000002,
-0.0205901342773438,-0.0348595761718749,-0.00268150585937299,0.0405750434887708,17.5235870000001,
0.00335188232421879,-0.0109175595703124,0.0212605107421897,0.0241337427496336,17.5265239999999,
0.0129286889648438,-0.0300711728515624,-0.0050757075195289,0.0331238470266063,17.5295209999999,
-0.0253785375976563,0.00823605371093761,0.0188663090820338,0.0326778268816018,17.5324959999998,
0.0392649072265625,0.00344765039062511,-0.0218351191406239,0.0450598675165804,17.5355260000001,
0.00574608398437504,-0.0276769711914062,0.00689530078125244,0.0290960029617362,17.5384789999998,
0.0320823022460938,-0.0300711728515624,-0.00268150585937299,0.0440538310224219,17.5413990000002,
0.0512359155273437,-0.0611957944335937,-0.0170467158203103,0.0816127123464364,17.5443989999999,
-0.00622492431640631,-0.0348595761718749,-0.0170467158203103,0.0393005121326192,17.5473109999998,
-0.00861912597656256,-0.0468305844726562,-0.0194409174804662,0.051432890713363,17.5502929999998,
-0.0301669409179688,-0.0492247861328126,0.0164721074218761,0.0600371070013136,17.553242,
0.0225054956054688,0.00105344873046875,0.0499909306640642,0.054833386137779,17.5561809999999,
0.0320823022460938,-0.0348595761718749,-0.0122583124999984,0.0489359826062589,17.5591789999999,
0.00335188232421879,-0.0228885678710937,-0.0218351191406239,0.031810282648702,17.5621179999998,
-0.00861912597656256,0.0154186586914062,0.00210689746093884,0.0177894177912838,17.565153,
0.0177170922851563,-0.0300711728515624,-0.0170467158203103,0.0388427768828092,17.568092,
-0.0158017309570313,-0.00852335791015624,-0.0601423457031238,0.0627649908625587,17.5710039999999,
-0.0134075292968751,-0.00852335791015624,0.0236547124023456,0.0284948221743683,17.5740070000002,
0.000957680664062543,-0.0348595761718749,-0.0960553706054679,0.102189732484682,17.5769839999998,
0.015322890625,-0.0133117612304687,-0.00986411083984251,0.022567557396037,17.5799959999999,
-0.0205901342773438,-0.0444363828125001,0.0164721074218761,0.0516708435187188,17.5829480000002,
0.000957680664062543,-0.0109175595703124,0.0236547124023456,0.0260702067130915,17.5858920000001,
-0.00383072265624995,-0.0348595761718749,0.00450109912109475,0.0353570980179337,17.5888960000002,
0.00814028564453129,-0.00852335791015624,0.0547793339843761,0.0560329127585833,17.5918550000001,
-0.0158017309570313,0.00344765039062511,-0.0242293208007798,0.029131443165787,17.594877,
0.0464475122070312,-0.0157059628906249,0.0140779057617202,0.0510121171015267,17.597831,
-0.0253785375976563,-0.0133117612304687,0.0188663090820338,0.0343105053304596,17.6008229999998,
-0.0181959326171875,0.00584185205078125,0.00689530078125244,0.0203166033592327,17.6037839999999,
0.015322890625,0.00584185205078125,-0.00986411083984251,0.019136846530963,17.6067349999998,
0.0392649072265625,-0.0348595761718749,0.00689530078125244,0.0529572295655394,17.6097519999998,
-0.00383072265624995,-0.0157059628906249,-0.0218351191406239,0.027168440041269,17.6126800000002,
-0.00622492431640631,-0.0396479794921876,-0.00986411083984251,0.0413281096013187,17.6156590000001,
-0.00622492431640631,-0.0324653745117187,-0.000287304199217076,0.0330580212449873,17.6186739999998,
-0.00383072265624995,0.00344765039062511,0.0188663090820338,0.0195575649727648,17.6217149999998,
0.0272938989257813,-0.0516189877929687,0.035625720703127,0.068400795280162,17.6248500000002,
-0.00622492431640631,-0.0181001645507812,0.0619619389648456,0.0648509639079759,17.6278579999998,
-0.04213794921875,-0.0228885678710937,-0.038594530761717,0.0615551062729059,17.6308600000002,
-0.0158017309570313,-0.00373495458984374,-0.0074699091796866,0.0178730000329928,17.6337789999998,
-0.0253785375976563,-0.00612915624999988,-0.0218351191406239,0.0340354103077634,17.636688,
-0.0110133276367188,-0.0516189877929687,-0.0122583124999984,0.0541856024396886,17.6397040000002,
0.0105344873046875,0.0130244570312501,0.00689530078125244,0.0181151063092504,17.6426980000001,
0.0105344873046875,-0.0564073911132812,-0.0314119257812475,0.0654177214236777,17.6456840000001,
0.000957680664062543,-0.0300711728515624,0.0835097539062524,0.0887641345725045,17.6486399999999,
0.0129286889648438,-0.0109175595703124,-0.00268150585937299,0.0171328508717856,17.6515749999999,
-0.032561142578125,-0.0157059628906249,-0.000287304199217076,0.0361522865116103,17.6545970000002,
-0.0110133276367188,-0.0396479794921876,0.0284431157226575,0.0500226598199168,17.6575389999998,
0.0129286889648438,0.00105344873046875,0.0164721074218761,0.0209664273421875,17.6606200000001,
-0.00861912597656256,-0.0109175595703124,-0.0840843623046865,0.0852271225828783,17.6635350000001,
0.0488417138671875,-0.0181001645507812,-0.038594530761717,0.0648279783347182,17.666463,
-0.051714755859375,-0.0635899960937499,0.0212605107421897,0.084676519140885,17.6694469999998,
0.00574608398437504,-0.0181001645507812,-0.038594530761717,0.0430136169443814,17.6723750000001,
-0.0110133276367188,-0.0252827695312499,-0.00986411083984251,0.029288436343798,17.675334,
0.00335188232421879,-0.0540131894531251,-0.0170467158203103,0.0567384373266748,17.6782669999998,
0.0105344873046875,0.00105344873046875,0.0236547124023456,0.0259158367767285,17.6812,
-0.0181959326171875,-0.0348595761718749,-0.0146525141601543,0.0419640106032002,17.6841559999998,
-0.0134075292968751,-0.0324653745117187,-0.0074699091796866,0.0359104709964306,17.6870749999998,
0.0416591088867188,-0.00612915624999988,0.0667503422851574,0.0789218354117419,17.6901090000001,
0.00335188232421879,-0.0564073911132812,-0.0266235224609357,0.0624647167251244,17.6930339999999,
0.00335188232421879,-0.00612915624999988,0.0571735356445338,0.0575987399996657,17.6960389999999,
-0.0110133276367188,-0.0396479794921876,-0.0122583124999984,0.0429362537815569,17.69895,
0.0201112939453125,-0.0444363828125001,0.0212605107421897,0.0532077586319193,17.701877,
0.00814028564453129,-0.0109175595703124,-0.0218351191406239,0.0257338257014211,17.7048749999999,
-0.0134075292968751,-0.0133117612304687,0.00928950244140836,0.0210537332678199,17.7078019999999,
0.0272938989257813,-0.0420421811523437,-0.0601423457031238,0.0782917854010962,17.7107879999999,
0.0177170922851563,-0.0204943662109374,0.0380199223632829,0.046684353930828,17.7137520000001,
0.0464475122070312,-0.0181001645507812,0.0284431157226575,0.057393363544927,17.7167089999998,
-0.0181959326171875,-0.0372537778320312,0.0164721074218761,0.0446124001762447,17.7197139999998,
0.015322890625,-0.0276769711914062,0.0140779057617202,0.0346264803592788,17.7226740000001,
-0.0205901342773438,-0.00612915624999988,0.0571735356445338,0.061076455070614,17.7256750000001,
-0.0014365209960937,-0.00612915624999988,0.102663367187501,0.102856196270253,17.7286119999999,
-0.0110133276367188,-0.00134075292968738,-0.00986411083984251,0.0148455948588421,17.731522,
-0.0014365209960937,-0.00612915624999988,0.00450109912109475,0.00773886569253212,17.7345249999999,
0.00814028564453129,-0.00134075292968738,-0.0338061274414052,0.0347982200892166,17.737474,
0.024899697265625,-0.0252827695312499,0.00210689746093884,0.0355478884886428,17.7405020000001,
0.000957680664062543,-0.0300711728515624,0.0332315190429711,0.0448277419331624,17.743461,
-0.0110133276367188,-0.00612915624999988,0.0452025273437524,0.0469268411491048,17.7463699999998,
0.0201112939453125,-0.0252827695312499,-0.0194409174804662,0.0377045335710091,17.7493829999999,
-0.0181959326171875,-0.0324653745117187,0.00689530078125244,0.0378502005128021,17.7523209999999,
0.00814028564453129,-0.0276769711914062,-0.0242293208007798,0.0376741153999877,17.7553589999998,
-0.0253785375976563,-0.0228885678710937,0.035625720703127,0.0493674861158893,17.7584109999998,
-0.0205901342773438,-0.00612915624999988,0.105057568847657,0.107231585636305,17.7614290000001,
-0.0253785375976563,-0.0300711728515624,0.0595677373046897,0.0713909023256095,17.764541,
-0.0301669409179688,-0.0228885678710937,0.00689530078125244,0.0384899472122504,17.7675169999998,
-0.0134075292968751,-0.0659841977539062,0.0332315190429711,0.0750866835928749,17.770516,
0.0296881005859375,-0.0324653745117187,0.00450109912109475,0.0442226610674303,17.773475,
0.0177170922851563,-0.0468305844726562,-0.0074699091796866,0.0506240905522667,17.7764029999998,
0.0368707055664063,-0.0396479794921876,0.0140779057617202,0.0559428157801645,17.7794560000002,
0.0129286889648438,0.0249954653320312,0.0116837041015643,0.0304702022810378,17.7824179999998,
0.00335188232421879,-0.0540131894531251,-0.0194409174804662,0.0575031218500082,17.7854299999999,
0.00574608398437504,-0.0444363828125001,-0.0050757075195289,0.0450929307701146,17.7883820000002,
0.000957680664062543,0.00823605371093761,-0.0122583124999984,0.0147991877591774,17.7914040000001,
0.0392649072265625,0.0178128603515626,-0.0146525141601543,0.0455381939104787,17.7943839999998,
0.0560243188476562,-0.0348595761718749,-0.038594530761717,0.0764424761369209,17.7973320000001,
-0.0134075292968751,-0.0133117612304687,-0.0218351191406239,0.0288745087713854,17.800354,
0.0129286889648438,-0.00612915624999988,-0.0242293208007798,0.0281385419159146,17.8033220000002,
0.0201112939453125,0.0154186586914062,0.00210689746093884,0.0254290817157787,17.8063569999999,
0.0105344873046875,-0.0540131894531251,-0.0290177241210916,0.0622127669440894,17.8092969999998,
0.0177170922851563,-0.0252827695312499,0.00928950244140836,0.0322398611941797,17.8122360000002,
-0.0110133276367188,-0.0157059628906249,-0.00268150585937299,0.0193690766333672,17.8152249999998,
0.044053310546875,-0.0348595761718749,-0.0146525141601543,0.0580566998048948,17.8181669999999,
-0.0134075292968751,-0.00134075292968738,0.0404141240234388,0.0426011840310445,17.8211839999999,
0.0320823022460938,-0.0396479794921876,-0.0266235224609357,0.0575330195926703,17.8241240000002,
-0.0253785375976563,-0.0109175595703124,-0.0290177241210916,0.0400660902851121,17.8270499999999,
0.03447650390625,-0.0396479794921876,0.00689530078125244,0.052991855716464,17.8300840000002,
0.024899697265625,-0.00612915624999988,-0.0218351191406239,0.0336798739329874,17.833032,
0.0392649072265625,-0.0420421811523437,-0.0433829340820289,0.0720510715057223,17.8360499999999,
0.024899697265625,-0.0516189877929687,0.0475967290039083,0.0744980767306238,17.8390140000001,
-0.00383072265624995,-0.0133117612304687,-0.0314119257812475,0.0343305476858835,17.8419199999998,
-0.0205901342773438,-0.0372537778320312,0.0619619389648456,0.075173662093852,17.8449380000002,
0.0177170922851563,0.00105344873046875,-0.0218351191406239,0.0281385419159151,17.8479040000002,
0.0320823022460938,-0.0181001645507812,0.0308373173828134,0.0480398815313218,17.8509410000001,
0.00335188232421879,-0.00134075292968738,0.0260489140625015,0.0262978831347595,17.8539169999999,
-0.0253785375976563,-0.0635899960937499,0.0308373173828134,0.0750912639204265,17.856835,
-0.0014365209960937,-0.00852335791015624,0.0499909306640642,0.0507326755779362,17.8598390000002,
-0.0301669409179688,-0.0252827695312499,0.0284431157226575,0.0485620591772116,17.8627769999998,
0.0201112939453125,-0.0181001645507812,0.0571735356445338,0.0632526147998396,17.8658009999999,
0.0392649072265625,-0.0947146176757813,0.0763271489257829,0.127821850260895,17.8687559999999,
0.0129286889648438,-0.0348595761718749,0.00689530078125244,0.0378138363842702,17.8717069999998,
0.0296881005859375,-0.0133117612304687,0.0763271489257829,0.0829724048500246,17.8747290000001,
0.000957680664062543,-0.0204943662109374,0.00928950244140836,0.0225217906537483,17.8776889999999,
0.00814028564453129,-0.00134075292968738,0.0164721074218761,0.0184226000258067,17.8807270000002,
0.0368707055664063,-0.0707726010742187,-0.0290177241210916,0.084913122101021,17.8836729999998,
0.015322890625,0.00344765039062511,-0.0074699091796866,0.0173918605524095,17.8867019999998,
-0.0014365209960937,0.00105344873046875,0.0212605107421897,0.0213350102840076,17.8896690000001,
-0.00861912597656256,-0.0133117612304687,-0.0433829340820289,0.0461905974114054,17.892574,
-0.00383072265624995,-0.0252827695312499,-0.0146525141601543,0.0294718347317049,17.89563,
-0.00622492431640631,-0.0372537778320312,0.0691445439453133,0.0787880803352175,17.8986719999998,
-0.0565031591796875,-0.0444363828125001,-0.00268150585937299,0.0719332300707956,17.9017490000001,
-0.00622492431640631,-0.0564073911132812,0.0404141240234388,0.0696695405147296,17.9047810000002,
-0.0158017309570313,-0.0109175595703124,-0.040988732421873,0.045265483469876,17.9076890000001,
-0.0110133276367188,-0.0420421811523437,0.0164721074218761,0.0464776150915473,17.9107009999998,
-0.00861912597656256,-0.0348595761718749,-0.040988732421873,0.0544936287012941,17.9136229999999,
-0.0277727392578125,-0.00612915624999988,0.0380199223632829,0.0474805865457601,17.9166559999999,
0.0201112939453125,-0.0133117612304687,0.00210689746093884,0.0242096292438089,17.9196320000001,
-0.00383072265624995,-0.0348595761718749,-0.0146525141601543,0.0380073763651923,17.92254,
-0.0229843359375,0.00584185205078125,0.00210689746093884,0.0238085268503111,17.925565,
-0.00383072265624995,-0.0181001645507812,0.00928950244140836,0.0207023005591986,17.9285089999999,
-0.00622492431640631,-0.00373495458984374,-0.000287304199217076,0.00726512988432204,17.9315080000001,
0.0105344873046875,-0.0396479794921876,0.0619619389648456,0.0743116382598903,17.934475,
-0.0181959326171875,0.0369664736328126,-0.000287304199217076,0.0412030906651133,17.937437,
-0.0181959326171875,-0.0348595761718749,0.0188663090820338,0.0436144429411956,17.9404709999999,
-0.0301669409179688,-0.0181001645507812,-0.0266235224609357,0.04411884211243,17.9434040000001,
-0.0134075292968751,0.00823605371093761,-0.0314119257812475,0.0351326558042886,17.9464330000001,
-0.0158017309570313,-0.0372537778320312,0.0595677373046897,0.0720128737907137,17.9493699999998,
0.024899697265625,-0.0157059628906249,-0.038594530761717,0.048540807563931,17.9522849999998,
-0.00622492431640631,-0.0300711728515624,-0.00268150585937299,0.0308255671981454,17.9552760000001,
0.00574608398437504,0.00344765039062511,-0.0242293208007798,0.0251388894113994,17.958243,
-0.0301669409179688,-0.0181001645507812,0.00928950244140836,0.0363861943149116,17.9612590000002,
0.00574608398437504,-0.00852335791015624,-0.0050757075195289,0.0114642015877215,17.9641940000001,
-0.0205901342773438,-0.00612915624999988,-0.0050757075195289,0.0220744873716189,17.9671229999999,
0.00574608398437504,0.0202070620117187,-0.0146525141601543,0.025613258432196,17.970163,
-0.0301669409179688,0.00584185205078125,-0.0242293208007798,0.0391309538115101,17.9731109999998,
0.00814028564453129,-0.00612915624999988,-0.0074699091796866,0.0126344904869267,17.9761229999999,
-0.0373495458984375,-0.00612915624999988,0.0332315190429711,0.0503675390808381,17.9790800000001,
-0.0014365209960937,-0.0300711728515624,-0.0290177241210916,0.0418134827825731,17.982066,
0.0201112939453125,-0.0276769711914062,-0.0242293208007798,0.0419230111627468,17.9850150000002,
0.0129286889648438,0.00584185205078125,-0.0649307490234357,0.0664626241016504,17.9879639999999,
-0.0158017309570313,-0.0779552060546874,-0.040988732421873,0.0894806405755964,17.9909619999999,
0.015322890625,-0.0468305844726562,-0.0266235224609357,0.056006308282052,17.993927,
0.00574608398437504,-0.0276769711914062,0.0188663090820338,0.03398484712139,17.996948,
0.0320823022460938,-0.0252827695312499,-0.00986411083984251,0.0420213426158745,17.999898,
0.000957680664062543,-0.00852335791015624,-0.0314119257812475,0.0325618467474673,18.0028240000001,
0.00335188232421879,0.00823605371093761,0.0164721074218761,0.0187189214102385,18.00587,
0.000957680664062543,-0.0204943662109374,-0.0553539423828102,0.0590338473755676,18.0087990000002,
0.0177170922851563,-0.0228885678710937,0.0332315190429711,0.0440694424304841,18.0118349999998,
0.0296881005859375,-0.0228885678710937,0.0452025273437524,0.0587242567756553,18.0147849999998,
-0.00622492431640631,-0.00852335791015624,-0.0074699091796866,0.0129304623259331,18.017699,
0.0201112939453125,-0.0109175595703124,0.0260489140625015,0.034672801660115,18.0207169999999,
0.03447650390625,0.0202070620117187,-0.0122583124999984,0.041799771555485,18.0236890000001,
-0.0253785375976563,0.00823605371093761,0.0164721074218761,0.031356547549801,18.0267210000002,
0.00574608398437504,-0.0588015927734374,0.00450109912109475,0.0592528875848813,18.0296899999998,
0.00814028564453129,-0.00612915624999988,0.0523851323242202,0.0533669644568391,18.0326359999999,
0.015322890625,-0.0300711728515624,-0.0481713374023425,0.0588178898032272,18.0357519999998,
0.0272938989257813,-0.0181001645507812,-0.0362003291015611,0.0488163569144345,18.0387900000001,
0.0129286889648438,-0.0468305844726562,0.0116837041015643,0.0499676253381444,18.0419339999999,
-0.032561142578125,0.00584185205078125,-0.0529597407226543,0.0624426887536641,18.0449269999999,
0.00814028564453129,-0.0109175595703124,0.0643561406250015,0.0657812297961269,18.0478750000002,
0.000957680664062543,-0.0683783994140624,-0.0146525141601543,0.06993724923027,18.0508869999999,
0.00335188232421879,0.00584185205078125,0.0404141240234388,0.0409714994975839,18.0538620000002,
0.0296881005859375,-0.0372537778320312,0.0332315190429711,0.0580823651125058,18.0569249999999,
0.015322890625,0.00105344873046875,-0.0266235224609357,0.0307361786753231,18.0598909999999,
0.0272938989257813,-0.0396479794921876,0.0140779057617202,0.0501508387469199,18.0628430000002,
-0.0445321508789063,-0.0372537778320312,-0.0792959589843729,0.0982792223000943,18.0658319999998,
0.024899697265625,-0.00134075292968738,0.00210689746093884,0.0250246190630177,18.0687790000002,
-0.0110133276367188,0.0273896669921876,-0.0074699091796866,0.0304513839870934,18.0718280000001,
-0.0277727392578125,0.0178128603515626,-0.0505655390624984,0.0603779494556395,18.0747919999999,
0.0201112939453125,-0.0252827695312499,0.0284431157226575,0.0430429252181766,18.0778399999999,
0.0177170922851563,-0.0228885678710937,0.0188663090820338,0.0345502462597481,18.0808059999999,
-0.00383072265624995,-0.0204943662109374,-0.000287304199217076,0.0208512835614503,18.0837150000002,
-0.0301669409179688,-0.00373495458984374,0.0763271489257829,0.0821573360892078,18.0867360000002,
-0.0541089575195313,-0.0181001645507812,0.0906923588867201,0.107147091426009,18.0896819999998,
0.0368707055664063,-0.0372537778320312,0.0332315190429711,0.0620614755675879,18.0926960000002,
-0.0205901342773438,-0.00612915624999988,-0.00986411083984251,0.0236393923051473,18.0956209999999,
-0.0253785375976563,-0.0588015927734374,0.035625720703127,0.0732863524737453,18.0985409999998,
-0.00383072265624995,0.00584185205078125,0.0212605107421897,0.0223788066811233,18.1015790000001,
0.0392649072265625,-0.00373495458984374,-0.0218351191406239,0.0450827600439901,18.1045210000002,
0.015322890625,-0.00612915624999988,-0.0697191523437475,0.071645779617318,18.1075489999998,
0.0201112939453125,-0.0204943662109374,-0.000287304199217076,0.0287152526411603,18.11049,
-0.0158017309570313,-0.0204943662109374,-0.0529597407226543,0.0589444474487392,18.1134029999998,
-0.0014365209960937,-0.0157059628906249,-0.0146525141601543,0.0215275877447388,18.116387,
0.0129286889648438,-0.0228885678710937,0.0428083256835947,0.0502353489623796,18.1193589999998,
0.000957680664062543,-0.0228885678710937,-0.0816901606445288,0.0848415348610155,18.12237,
-0.0253785375976563,-0.0276769711914062,0.0188663090820338,0.0420240707607487,18.1253120000001,
-0.0205901342773438,-0.0204943662109374,0.0212605107421897,0.0359997499014344,18.1282270000002,
-0.04213794921875,-0.0228885678710937,-0.0505655390624984,0.0696876391064633,18.1312320000002,
-0.0229843359375,-0.0300711728515624,0.00450109912109475,0.0381158107411389,18.1341739999998,
-0.0253785375976563,-0.0252827695312499,0.00689530078125244,0.0364805945487446,18.1371789999998,
0.0201112939453125,-0.0372537778320312,-0.0266235224609357,0.0500111992971679,18.140128,
0.000957680664062543,0.0321780703125001,-0.0050757075195289,0.0325900010450187,18.1430879999998,
0.0129286889648438,-0.0540131894531251,0.00450109912109475,0.055721051017966,18.1461119999999,
0.000957680664062543,-0.0468305844726562,-0.0170467158203103,0.0498458756023337,18.1490659999999,
