X,Y,Z,Magnitude,Seconds,
-0.0161848032226562,-0.0468305844726563,-0.0917458076171904,0.10427053616788,0.0,
-0.0951934580078125,-0.0372537778320313,-0.0366791694335955,0.108604787558293,0.00395900000000893,
-0.0257616098632812,-0.0204943662109376,-0.0917458076171904,0.0974729337019587,0.00783200000000761,
-0.0281558115234375,-0.0181001645507813,-0.0510443793945328,0.0610401044157175,0.0117009999999595,
-0.0473094248046875,-0.0109175595703126,-0.134841437500002,0.143316391419086,0.0155369999999948,
-0.119135474609375,-0.00134075292968756,-0.118082025878909,0.167745115471321,0.0194500000000062,
0.0484586416015626,-0.118656634277344,0.0973961235351535,0.160977146463623,0.0232369999999946,
0.15859191796875,0.0537258852539062,0.121338140136716,0.206786874446034,0.0271639999999707,
-0.0377326181640625,-0.0516189877929688,-0.0725921943359396,0.0967362240982788,0.0310259999999971,
-0.116741272949219,0.0130244570312499,-0.156389252441409,0.195590796230154,0.0348510000000033,
-0.03294421484375,0.0393606752929687,-0.108505219238284,0.120033189798229,0.0387419999999565,
0.0293050283203126,-0.113868230957031,-0.0103429511718769,0.118032772334983,0.042761999999982,
-0.03294421484375,-0.0731668027343751,0.0351468803710908,0.0876014013236197,0.0467380000000048,
-0.052097828125,0.0848505068359374,0.00162805712890446,0.0995813374868629,0.0506379999999922,
-0.00181959326171871,-0.0588015927734376,-0.0462559760742209,0.0748368462384017,0.0545299999999997,
-0.0640688364257812,-0.0372537778320313,-0.0247081611328142,0.0781226791032986,0.0583239999999705,
-0.042521021484375,0.0321780703124999,-0.103716815917972,0.116621796338735,0.0621499999999742,
-0.0640688364257812,-0.0228885678710938,-0.0510443793945328,0.0850542827135482,0.0660489999999641,
0.0173340200195313,-0.0276769711914063,-0.0606211860351582,0.0688579057238652,0.0700219999999945,
-0.0305500131835937,0.0106302553710937,-0.043861774414065,0.054499182466554,0.0738609999999653,
-0.080828248046875,-0.0181001645507813,-0.0247081611328142,0.0864367680195044,0.0777499999999804,
-0.0353384165039062,-0.0540131894531251,-0.00794874951172098,0.0650339214156952,0.0816069999999627,
0.0245166250000001,-0.0109175595703126,-0.0342849677734396,0.0435398326086326,0.0854669999999942,
-0.0856166513671875,-0.00134075292968756,-0.0342849677734396,0.0922359345644353,0.0892649999999549,
-0.0784340463867187,-0.0181001645507813,-0.0917458076171904,0.122052483812046,0.0931129999999598,
0.0963426748046876,-0.0731668027343751,-0.0247081611328142,0.1234738240983,0.0969329999999786,
-0.0257616098632812,-0.00612915625000006,-0.0366791694335955,0.0452392370561577,0.100786999999968,
-0.138289087890625,0.0872447084960937,-0.0725921943359396,0.178899797844202,0.104569999999967,
0.0125456166992188,-0.0779552060546876,-0.13005303417969,0.152145319838424,0.108414999999979,
0.105919481445313,-0.0851378110351563,-0.0965342109375023,0.166692043297897,0.112398999999982,
-0.119135474609375,0.0273896669921875,-0.0582269843750023,0.135402499525491,0.11637300000001,
-0.042521021484375,0.0249954653320312,-0.0701979926757836,0.0857937569462302,0.120359000000008,
0.110707884765625,-0.137810247558594,-0.0845632026367209,0.195956207662883,0.12426099999999,
-0.123923877929687,0.0417548769531249,-0.0462559760742209,0.13870909340444,0.128138999999976,
-0.0784340463867187,0.104004120117187,-0.000766144531251456,0.130266433172123,0.13196499999998,
0.0987368764648438,-0.185694280761719,-0.0271023627929718,0.212051585116942,0.135807,
-0.0137906015624999,-0.10189722265625,-0.0558327827148464,0.11700651393062,0.139771999999994,
-0.150260096191406,0.05133168359375,0.00402225878906037,0.158837076319686,0.143803999999989,
0.0604296499023438,-0.0372537778320313,-0.0893516059570327,0.114119656664306,0.14776999999998,
0.014939818359375,-0.106685625976563,-0.0462559760742209,0.117237520807978,0.151690999999971,
-0.150260096191406,0.113580926757812,-0.0175255561523464,0.18917153207886,0.155586999999969,
0.00296881005859378,-0.0564073911132813,-0.00316034619140915,0.0565738048342185,0.159492999999998,
-0.00660799658203121,-0.0540131894531251,-0.0318907661132837,0.063072269794415,0.163359999999955,
-0.0305500131835937,0.0345722719726562,-0.000766144531251456,0.0461425213042355,0.167313999999976,
-0.0209732065429687,-0.0396479794921876,-0.0678037910156277,0.0812969356531836,0.171230999999977,
0.014939818359375,-0.0564073911132813,-0.0366791694335955,0.0689228076557841,0.175149999999974,
-0.0377326181640625,0.00823605371093744,-0.0366791694335955,0.053262975175846,0.179011000000003,
0.0245166250000001,-0.0276769711914063,0.00402225878906037,0.037192179305423,0.182957999999985,
-0.042521021484375,-0.0659841977539063,-0.0247081611328142,0.0822948652582067,0.186915999999997,
-0.0449152231445312,0.0202070620117187,-0.0558327827148464,0.074451341498671,0.190764000000001,
-0.0137906015624999,-0.00134075292968756,-0.0558327827148464,0.0575263238488028,0.194814000000008,
-0.00421379492187496,-0.0683783994140626,-0.0630153876953141,0.0930822252659628,0.198634999999967,
-0.0401268198242187,0.0010534487304687,-0.0630153876953141,0.0747141921580083,0.202427999999998,
0.014939818359375,-0.0300711728515626,-0.0486501777343769,0.0591127177760093,0.206177999999966,
-0.0305500131835937,-0.0444363828125001,0.0159932670898417,0.0562466000322136,0.210094999999967,
-0.0161848032226562,-0.0252827695312501,-0.0462559760742209,0.0551432825746283,0.213944999999967,
-0.0377326181640625,0.0130244570312499,-0.0223139594726582,0.0457307308253569,0.217814999999973,
0.00775721337890628,-0.0348595761718751,-0.0797747993164091,0.0874035640935882,0.221744999999999,
-0.0401268198242187,0.00584185205078119,-0.0534385810546905,0.0670818220513371,0.225576999999987,
-0.0712514414062499,-0.0420421811523438,0.00402225878906037,0.0828280837897445,0.229382999999984,
-0.0185790048828124,0.0202070620117187,-0.0965342109375023,0.100361141179777,0.233178000000009,
-0.0185790048828124,-0.0540131894531251,-0.106111017578128,0.120507892309178,0.236896000000002,
-0.00900219824218745,-0.0420421811523438,-0.108505219238284,0.116713183364974,0.240726999999993,
-0.0449152231445312,-0.00612915625000006,-0.0462559760742209,0.064765416304065,0.244593000000009,
-0.0449152231445312,-0.0300711728515626,-0.0558327827148464,0.0777106963839267,0.248403999999994,
-0.080828248046875,-0.0204943662109376,-0.0486501777343769,0.0965404812620158,0.252190999999982,
0.0173340200195313,-0.0611957944335938,0.0375410820312485,0.0738561192215859,0.256118999999956,
-0.0377326181640625,-0.0324653745117188,-0.0271023627929718,0.0566770595978917,0.260135999999989,
-0.0904050546875,-0.0204943662109376,-0.0414675727539091,0.101551231157178,0.264041999999961,
-0.00900219824218745,-0.0779552060546876,-0.0223139594726582,0.0815841069790426,0.267980999999963,
0.0197282216796875,-0.0588015927734376,-0.0342849677734396,0.0708681103075415,0.271886999999992,
-0.0880108530273437,0.0130244570312499,0.00641646044921629,0.0892004355160665,0.275721999999973,
-0.0185790048828124,-0.0540131894531251,-0.0558327827148464,0.0798742992646446,0.279532999999958,
0.0197282216796875,-0.0157059628906251,-0.000766144531251456,0.0252282971761344,0.283496999999954,
0.0221224233398438,-0.0540131894531251,-0.0175255561523464,0.0609423610288894,0.287380999999982,
-0.0856166513671875,0.0273896669921875,-0.0749863959960955,0.117061370373649,0.291384999999991,
0.0747948598632813,-0.0971088193359376,0.0734541069335908,0.142898214405216,0.295365000000004,
0.00536301171875003,-0.0204943662109376,0.00402225878906037,0.0215629197199647,0.299290999999982,
-0.162231104492187,0.101609918457031,-0.0725921943359396,0.204726972996004,0.303157999999996,
-0.430381690429688,-1.28463284277344,0.820445024902341,1.58386867482007,0.306998999999962,
1.59032451074219,-15.9610890195313,-1.08294529492188,16.076637249458,0.310459999999978,
2.68686887109375,9.07986614404297,-0.0486501777343769,9.46919217061223,0.313452999999981,
-6.00168895361328,19.4916506136475,-2.63678217236328,20.5644677578808,0.316387999999961,
-0.26278757421875,3.77670946679688,1.23224771044922,3.98133471660752,0.319488999999976,
3.03881651513672,-17.0265087583008,4.37822869189453,17.8411124313393,0.322463999999968,
1.26710728662109,-17.5652041318359,-4.9998592109375,18.3068443265919,0.325525999999968,
-0.7799351328125,0.314693866210938,-3.98711190869141,4.07484875955598,0.328497999999968,
-1.74958680517578,15.7740539858398,4.43090112841797,16.477703661216,0.331498000000011,
0.0987368764648438,7.43504960351563,3.29365533984375,8.13251972485731,0.334524999999985,
0.383646874023438,-6.41301279882813,-2.71339662548828,6.97398303189021,0.337508999999955,
0.685316283203125,-8.85988689550781,-2.14836503369141,9.14235891480981,0.34056499999997,
0.182533934570313,-0.353288396972656,0.77016679003906,0.866768834917533,0.343547999999998,
-1.06484513037109,6.12781549707031,1.0909898125,6.31460819756768,0.346513999999956,
-0.358555640625,3.30505173974609,-0.273705133789065,3.33569237941468,0.349693000000002,
0.795449559570313,-2.8025566953125,-0.290464545410158,2.92770109205189,0.352675999999974,
0.453078722167969,-4.24386609472656,-0.163571857421877,4.27111642442482,0.35575799999998,
-0.662619251464844,0.640305291992187,-0.216244293945314,0.946475955335865,0.358713999999964,
-0.53093816015625,3.57080812402344,0.253019231445311,3.61892038044263,0.361771999999974,
0.409983092285156,0.654670501953125,0.133309148437498,0.783869205380838,0.364891999999998,
0.493780150390625,-2.80973930029297,-0.295252948730472,2.86803557792867,0.367850999999973,
-0.370526648925781,-1.28223864111328,-0.295252948730472,1.36696753219023,0.37087299999996,
-0.480659925292969,1.94275099511719,0.200346794921872,2.01133145728071,0.373900999999989,
0.165774522949219,1.31786436181641,0.0806367119140603,1.33069528740171,0.376966999999979,
0.386041075683594,-1.24393141455078,-0.165966059082034,1.31298812218103,0.379922999999962,
-0.107164466308594,-1.34927628759766,-0.247368915527346,1.37594407716364,0.382836999999995,
-0.471083118652344,0.755226971679688,-0.00794874951172098,0.890140587800876,0.385874000000001,
-0.0449152231445312,1.23885570703125,0.152462761718748,1.24900990141189,0.388846000000001,
0.443501915527344,-0.480181084960938,-0.0294965644531278,0.654322451659137,0.391851999999972,
-0.0353384165039062,-1.04521267675781,-0.335954376953127,1.098446032689,0.394858999999997,
-0.451929505371094,0.202166388183594,0.0590888969726535,0.498601067068258,0.397888999999964,
-0.0784340463867187,0.827053021484375,0.20274099658203,0.855144731419251,0.40091799999999,
0.249571581054688,-0.0971088193359376,-0.0606211860351582,0.274574261465392,0.403888999999992,
0.163380321289063,-0.710024444335938,-0.233003705566409,0.764930433272695,0.406927999999994,
-0.234057154296875,-0.00612915625000006,0.0543004936523417,0.240351537637636,0.409882999999979,
-0.346584632324219,0.611574872070312,0.0351468803710908,0.703832391064061,0.412829999999985,
0.0580354482421875,-0.0228885678710938,-0.0869574042968768,0.107021446233509,0.415888999999993,
0.3692816640625,-0.583131756347656,-0.106111017578128,0.698334547853203,0.418855000000008,
0.00536301171875003,0.00344765039062495,-0.0390733710937532,0.0395901062961641,0.421922999999992,
-0.471083118652344,0.408067730957031,0.0279642753906231,0.62387545105234,0.424883999999963,
-0.202932532714844,-0.0659841977539063,-0.0749863959960955,0.22618241923671,0.427819,
0.323791832519531,-0.247943523925781,-0.101322614257814,0.420218293299005,0.430864999999983,
0.328580235839844,0.0776679018554687,0.0447236870117163,0.340584031544522,0.433810999999992,
-0.284335389160156,0.113580926757812,0.0112048637695281,0.306386666524695,0.436892999999998,
-0.511784546875,-0.152175457519531,-0.173148664062502,0.561303173123008,0.439851999999973,
0.168168724609375,-0.154569659179688,-0.0175255561523464,0.229084361304122,0.442816999999991,
0.448290318847656,0.0633026918945312,0.00162805712890446,0.452740644678211,0.445882999999981,
-0.162231104492187,0.115975128417969,-0.0103429511718769,0.199690105701968,0.448819999999955,
-0.461506312011719,-0.0635899960937501,-0.0989284125976582,0.47625475792789,0.451876999999968,
0.0508528432617188,-0.195271087402344,0.0112048637695281,0.202094923773925,0.454813000000001,
0.307032420898438,-0.106685625976563,-0.0582269843750023,0.330213736816283,0.45772199999999,
0.0125456166992188,0.163859161621094,-0.0199197578125023,0.165541578151352,0.460814999999968,
-0.26278757421875,0.111186725097656,-0.0582269843750023,0.291221871965558,0.463841000000002,
-0.0473094248046875,-0.192876885742188,-0.0917458076171904,0.218762354952322,0.466866999999979,
0.144226708007813,-0.235972515625,-0.0223139594726582,0.277456815055081,0.469792999999981,
0.0604296499023438,0.144705548339844,0.030358477050779,0.159728129759593,0.47283299999998,
-0.190961524414062,0.240473614746094,-0.0941400092773463,0.321179396198346,0.47575599999999,
-0.145471692871094,-0.128233440917969,-0.082169000976565,0.210612377409142,0.478746999999998,
0.105919481445313,-0.224001507324219,0.0112048637695281,0.248034595984632,0.481829000000005,
0.115496288085938,-0.00852335791015631,0.00402225878906037,0.115880191393787,0.484850999999992,
-0.171807911132812,0.171041766601562,-0.163571857421877,0.292453409606465,0.487876999999969,
-0.169413709472656,-0.133021844238281,-0.0199197578125023,0.216316002073698,0.490936999999974,
0.12028469140625,-0.247943523925781,-0.0366791694335955,0.278010358644727,0.493967999999995,
0.0963426748046876,0.1087925234375,0.0590888969726535,0.156873266970079,0.497086999999965,
-0.14786589453125,0.527777813964844,0.104578728515623,0.557987861997893,0.500070999999991,
-0.267575977539062,-0.343711590332031,0.0830309135742162,0.443428341103191,0.503217000000006,
0.072400658203125,-0.252731927246094,-0.709449835937502,0.75659391490384,0.506175999999982,
0.295061412597656,0.252444623046875,0.509198809082029,0.640369387213318,0.50918999999999,
-0.0640688364257812,-0.214424700683594,-0.170754462402346,0.281495745073556,0.512229999999988,
-0.33940202734375,-0.0372537778320313,-0.0654095893554718,0.347649240625458,0.515221999999994,
0.127467296386719,0.139917145019531,0.0782425102539044,0.204808714485953,0.518327999999997,
0.103525279785156,-0.183300079101563,-0.0845632026367209,0.226864139505152,0.521276999999998,
-0.0640688364257812,-0.322163775390625,-0.182725470703128,0.375876191875163,0.524179000000004,
-0.121529676269531,0.0585142885742187,-0.0558327827148464,0.145981792725008,0.527259999999956,
0.000574608398437537,0.1854069765625,0.0279642753906231,0.187504874152598,0.530230999999958,
-0.080828248046875,-0.212030499023438,-0.0606211860351582,0.234872447074501,0.53324699999996,
-0.0473094248046875,-0.166540667480469,-0.11089942089844,0.20560315453757,0.536284999999964,
0.0340934316406251,0.099215716796875,0.0255700737304672,0.107981244719318,0.539254999999969,
-0.126318079589844,-0.0276769711914063,-0.0797747993164091,0.151941734133744,0.542348000000004,
-0.10955866796875,-0.154569659179688,-0.000766144531251456,0.189460993989408,0.545285999999976,
0.0221224233398438,0.0249954653320312,-0.000766144531251456,0.0333880499435772,0.548392999999976,
0.0771890615234376,0.0393606752929687,0.0112048637695281,0.0873668298067478,0.551389999999969,
-0.0736456430664062,-0.133021844238281,-0.0223139594726582,0.153676298024665,0.554327999999998,
-0.0712514414062499,-0.0995030209960938,-0.0342849677734396,0.1270947603367,0.557398999999975,
0.0101514150390625,0.0944273134765624,-0.0318907661132837,0.10018278155945,0.560391999999979,
-0.00660799658203121,0.12794613671875,0.00641646044921629,0.128277240712363,0.563468999999998,
-0.0880108530273437,-0.0971088193359376,-0.0223139594726582,0.13294339333253,0.566372000000001,
-0.0832224497070312,-0.130627642578125,-0.0606211860351582,0.166326442086239,0.569437999999991,
-0.0305500131835937,0.0178128603515624,-0.0654095893554718,0.074357351210714,0.572385999999995,
-0.00181959326171871,0.137522943359375,0.00162805712890446,0.137544616179184,0.575408999999979,
-0.042521021484375,-0.0611957944335938,-0.0989284125976582,0.123853919370869,0.578445999999985,
-0.0449152231445312,-0.207242095703125,-0.11089942089844,0.239301786573263,0.581403999999964,
-0.0185790048828124,0.0178128603515624,-0.0558327827148464,0.0614798913631366,0.584396999999967,
-0.0257616098632812,0.154282354980469,-0.0271023627929718,0.158748995807939,0.587389999999971,
-0.00181959326171871,0.120763531738281,0.0112048637695281,0.121295879936767,0.590350999999998,
-0.0257616098632812,-0.183300079101563,-0.0342849677734396,0.188249936405335,0.593407999999954,
-0.0377326181640625,-0.0923204160156251,-0.0342849677734396,0.105462167159787,0.596314000000007,
-0.0592804331054687,0.0800621035156249,-0.00316034619140915,0.0996699451016612,0.599398000000008,
0.00296881005859378,0.099215716796875,-0.106111017578128,0.145300104418914,0.602365999999961,
0.0221224233398438,-0.0492247861328126,-0.0247081611328142,0.059354649445629,0.605335999999966,
-0.111952869628906,-0.180905877441406,-0.0893516059570327,0.230746811458128,0.608406000000002,
-0.0904050546875,0.0609084902343749,0.00641646044921629,0.109197477353541,0.611417999999958,
0.0604296499023438,0.106398321777344,-0.0630153876953141,0.137634605207941,0.614467999999988,
-0.00181959326171871,-0.0995030209960938,-0.0199197578125023,0.101493639496748,0.617426999999964,
-0.0784340463867187,-0.0995030209960938,-0.0701979926757836,0.144846501496075,0.62037399999997,
-0.0664630380859375,-0.00612915625000006,-0.0510443793945328,0.084026368811955,0.623457999999971,
0.0340934316406251,0.0561200869140625,-0.0510443793945328,0.0831706372709077,0.626465999999994,
-0.0161848032226562,-0.0181001645507813,-0.0103429511718769,0.0263920528012751,0.629568000000006,
-0.052097828125,-0.166540667480469,-0.108505219238284,0.205483235866409,0.632542000000001,
-0.0353384165039062,-0.0468305844726563,-0.0797747993164091,0.0990248753042764,0.635493999999994,
-0.0113963999023437,0.0800621035156249,-0.113293622558595,0.139195054734463,0.638552000000004,
0.0101514150390625,0.0130244570312499,-0.11089942089844,0.112122117639043,0.641571999999996,
-0.0473094248046875,-0.0875320126953126,-0.0869574042968768,0.132142442401725,0.644678999999996,
-0.052097828125,-0.0779552060546876,-0.0845632026367209,0.126262160153191,0.647597999999959,
-0.0353384165039062,0.0441490786132812,-0.0247081611328142,0.0617125437003721,0.650545999999963,
-0.0137906015624999,-0.0133117612304688,-0.0127371528320328,0.0230134469556214,0.653605999999968,
0.0101514150390625,-0.0899262143554688,-0.00555454785156506,0.0906676803355879,0.656635999999992,
-0.0233674082031249,0.0178128603515624,0.00162805712890446,0.0294276116946434,0.659714000000008,
-0.00900219824218745,0.0393606752929687,-0.0294965644531278,0.0500034963502321,0.662644999999998,
-0.0449152231445312,-0.0324653745117188,-0.0318907661132837,0.0639405878578025,0.665626999999972,
0.00296881005859378,-0.0444363828125001,-0.0366791694335955,0.057695471407741,0.668630000000007,
-0.0305500131835937,-0.00134075292968756,-0.00794874951172098,0.031595625373401,0.671550999999965,
-0.0544920297851562,0.0106302553710937,-0.0342849677734396,0.0652521467431288,0.674665000000005,
-0.00421379492187496,-0.0372537778320313,-0.0965342109375023,0.103558939313456,0.677655999999956,
-0.00421379492187496,-0.0396479794921876,-0.0223139594726582,0.0456906022372651,0.680641999999978,
-0.042521021484375,0.00823605371093744,-0.0486501777343769,0.0651360855623869,0.683662999999967,
-0.0257616098632812,0.0130244570312499,-0.0103429511718769,0.0306638820544727,0.686602999999991,
-0.0401268198242187,-0.0252827695312501,-0.0175255561523464,0.050562092745699,0.689661999999998,
-0.0473094248046875,-0.0683783994140626,-0.0247081611328142,0.0867426101079772,0.692580999999961,
-0.0305500131835937,-0.00612915625000006,-0.0414675727539091,0.0518693498316242,0.695635999999979,
-0.061674634765625,0.0249954653320312,-0.0366791694335955,0.0759861522316824,0.698626999999988,
-0.052097828125,0.0010534487304687,-0.0869574042968768,0.101374965408725,0.701574999999991,
0.00296881005859378,-0.0755610043945313,-0.0366791694335955,0.0840454679837812,0.704630000000009,
-0.104770264648437,-0.0588015927734376,-0.0749863959960955,0.141624133719081,0.707605000000001,
-0.052097828125,0.0345722719726562,0.00641646044921629,0.0628537719583296,0.710666000000003,
-0.0305500131835937,0.0130244570312499,-0.0318907661132837,0.0460430315006385,0.713587999999959,
-0.0209732065429687,-0.0228885678710938,-0.0199197578125023,0.0368857517639595,0.716563000000008,
-0.0712514414062499,-0.106685625976563,-0.0103429511718769,0.128707293233224,0.719610999999986,
-0.0544920297851562,-0.0204943662109376,-0.0797747993164091,0.0987593993626314,0.722543999999971,
-0.03294421484375,0.0345722719726562,-0.082169000976565,0.0950384553878545,0.725570000000005,
-0.0209732065429687,-0.0157059628906251,-0.122870429199221,0.125633176488603,0.728495000000009,
0.00536301171875003,-0.0995030209960938,0.0231758720703095,0.102307058056929,0.731457999999975,
-0.0688572397460937,-0.0731668027343751,-0.0510443793945328,0.112695293404805,0.734465999999998,
-0.0640688364257812,0.0249954653320312,-0.0989284125976582,0.120484106450647,0.737397999999985,
0.0125456166992188,0.0010534487304687,-0.0462559760742209,0.0479386855803363,0.740498000000002,
0.0125456166992188,-0.0492247861328126,-0.113293622558595,0.124160851239972,0.743521999999984,
-0.0592804331054687,-0.0707726010742188,-0.0486501777343769,0.104354063675398,0.746466999999996,
-0.080828248046875,0.00344765039062495,-0.0558327827148464,0.098297464876905,0.74948999999998,
-0.0113963999023437,-0.0109175595703126,-0.043861774414065,0.0466146574851279,0.752438999999981,
0.04367023828125,-0.0468305844726563,-0.0558327827148464,0.0849558295779342,0.755458999999973,
-0.0664630380859375,-0.0157059628906251,-0.0917458076171904,0.114373536787427,0.758456999999964,
-0.0640688364257812,-0.0204943662109376,-0.0462559760742209,0.0816360837492859,0.761481000000003,
-0.0137906015624999,0.0106302553710937,-0.0749863959960955,0.076981443252212,0.764516999999955,
-0.03294421484375,-0.0420421811523438,0.00162805712890446,0.0534370363861304,0.767464999999959,
-0.0305500131835937,-0.00852335791015631,-0.0247081611328142,0.0402050265781218,0.770562999999981,
-0.0736456430664062,-0.0252827695312501,-0.0390733710937532,0.0871184682284127,0.773550999999998,
-0.03294421484375,-0.00373495458984381,-0.0773805976562532,0.0841844883045463,0.776589000000001,
-0.00900219824218745,-0.0204943662109376,-0.0151313544921905,0.0270188176711712,0.779562999999996,
-0.0473094248046875,-0.00373495458984381,-0.0486501777343769,0.0679630146088667,0.782608999999979,
-0.0401268198242187,0.0130244570312499,-0.0678037910156277,0.07985707373962,0.785683000000006,
-0.0113963999023437,-0.0157059628906251,-0.000766144531251456,0.019420148776428,0.788624999999968,
-0.03294421484375,0.00823605371093744,-0.0749863959960955,0.0823171516567711,0.791708999999969,
-0.042521021484375,-0.0204943662109376,-0.0678037910156277,0.0826160419685766,0.794672999999989,
-0.0233674082031249,0.0106302553710937,-0.0294965644531278,0.0391035217074327,0.797676999999965,
-0.03294421484375,0.0178128603515624,-0.0678037910156277,0.0774594949742531,0.800725,
-0.0233674082031249,-0.0300711728515626,-0.0797747993164091,0.0883986980038358,0.803638999999976,
-0.0305500131835937,-0.0731668027343751,-0.0342849677734396,0.0863836983644165,0.806677999999977,
-0.0568862314453125,0.0154186586914062,-0.0534385810546905,0.0795579053836289,0.809631999999965,
-0.00421379492187496,-0.0181001645507813,-0.0941400092773463,0.0959568307685692,0.812574999999981,
-0.0473094248046875,-0.0133117612304688,0.0112048637695281,0.0504076743611632,0.81570099999999,
0.00775721337890628,-0.0683783994140626,-0.0271023627929718,0.0739615977031109,0.818659999999966,
-0.0712514414062499,-0.0492247861328126,-0.0294965644531278,0.0914871290774114,0.821766999999966,
-0.0568862314453125,-0.00852335791015631,-0.0845632026367209,0.102272313938296,0.824708999999984,
-0.03294421484375,-0.0133117612304688,-0.000766144531251456,0.0355402765348124,0.827671000000009,
-0.0185790048828124,-0.0827436093750001,-0.043861774414065,0.0954753348754981,0.83072599999997,
-0.0449152231445312,-0.0755610043945313,-0.0725921943359396,0.114002058462732,0.833643999999993,
-0.0473094248046875,-0.00852335791015631,-0.0271023627929718,0.0551848473258454,0.836724000000004,
-0.0161848032226562,0.00584185205078119,-0.0247081611328142,0.0301092729454636,0.83972799999998,
-0.0185790048828124,-0.0540131894531251,-0.0606211860351582,0.083291849863261,0.842645000000005,
-0.0951934580078125,-0.0276769711914063,-0.0127371528320328,0.0999502088246025,0.845667999999989,
-0.042521021484375,-0.0300711728515626,-0.0294965644531278,0.0598528196435285,0.848658,
-0.0449152231445312,0.022601263671875,-0.0630153876953141,0.0806172033506459,0.85167100000001,
-0.061674634765625,-0.0564073911132813,-0.0247081611328142,0.0871553071949439,0.854637999999966,
0.00536301171875003,-0.0659841977539063,-0.0773805976562532,0.101835323643424,0.857693999999981,
-0.0377326181640625,-0.0635899960937501,-0.0127371528320328,0.075031147791998,0.860664999999983,
-0.0401268198242187,0.00584185205078119,0.0112048637695281,0.0420694411263356,0.863615999999979,
-0.0161848032226562,-0.0252827695312501,-0.0366791694335955,0.0473975501567836,0.866610999999978,
-0.0281558115234375,-0.0276769711914063,-0.0941400092773463,0.102083817540353,0.869560999999976,
-0.03294421484375,-0.0516189877929688,0.0112048637695281,0.0622526317880257,0.872583999999961,
-0.0353384165039062,-0.00134075292968756,-0.082169000976565,0.0894558327942273,0.875493000000006,
-0.0281558115234375,0.0130244570312499,0.0183874687499976,0.0360622407863731,0.878484999999955,
-0.0185790048828124,-0.0181001645507813,0.00162805712890446,0.025989342993156,0.881521999999961,
-0.0209732065429687,-0.0420421811523438,-0.0318907661132837,0.0567841646238868,0.884455000000003,
-0.042521021484375,-0.0181001645507813,-0.0271023627929718,0.0535741662912444,0.887498999999991,
-0.0401268198242187,0.0393606752929687,0.00641646044921629,0.056573804834218,0.890504999999962,
-0.0209732065429687,-0.0611957944335938,-0.0510443793945328,0.0824034545199757,0.893415000000005,
-0.0281558115234375,-0.0300711728515626,-0.0199197578125023,0.0457582988158502,0.896443999999974,
-0.00900219824218745,0.0154186586914062,-0.0247081611328142,0.0304838946920965,0.899448000000007,
-0.0113963999023437,-0.0204943662109376,-0.0271023627929718,0.0358390156963612,0.902526999999964,
-0.0592804331054687,-0.00612915625000006,-0.00316034619140915,0.0596801817487047,0.905546999999956,
-0.0233674082031249,-0.0444363828125001,-0.0510443793945328,0.0715971825658212,0.908496999999954,
-0.0544920297851562,-0.0181001645507813,-0.0318907661132837,0.0656811862725079,0.911549999999977,
-0.0449152231445312,-0.00134075292968756,0.0231758720703095,0.0505598253038996,0.914524999999969,
-0.0209732065429687,-0.0372537778320313,-0.0247081611328142,0.0493782602165921,0.917556999999988,
-0.0377326181640625,-0.0181001645507813,-0.0462559760742209,0.0623777344319205,0.920547999999997,
-0.0497036264648437,-0.0133117612304688,-0.00794874951172098,0.052065690138649,0.923547999999982,
-0.042521021484375,-0.0204943662109376,0.00641646044921629,0.0476364070765109,0.926566999999977,
-0.0305500131835937,-0.00852335791015631,-0.0103429511718769,0.0333605691577078,0.929507999999998,
-0.0377326181640625,-0.0420421811523438,-0.043861774414065,0.0715202819087828,0.932550999999989,
-0.0497036264648437,-0.0181001645507813,-0.0271023627929718,0.0594357174557853,0.935542999999996,
-0.0185790048828124,-0.00612915625000006,-0.0869574042968768,0.0891310054965329,0.938462999999956,
-0.0353384165039062,-0.0133117612304688,-0.0294965644531278,0.0479171574970603,0.94145599999996,
-0.0473094248046875,-0.0348595761718751,-0.0606211860351582,0.0844292598720514,0.944389000000001,
-0.0544920297851562,-0.0228885678710938,-0.0654095893554718,0.0881571450816522,0.947442999999964,
-0.0161848032226562,-0.0396479794921876,-0.0845632026367209,0.094788424258177,0.950366999999972,
-0.0353384165039062,-0.00373495458984381,-0.0534385810546905,0.0641750380750216,0.953427999999974,
0.000574608398437537,-0.0611957944335938,-0.0366791694335955,0.0713485592111616,0.956456000000003,
-0.0353384165039062,-0.0492247861328126,-0.0103429511718769,0.0614724319493586,0.95939199999998,
-0.0353384165039062,-0.0109175595703126,-0.0199197578125023,0.0420094458340457,0.96244999999999,
-0.0449152231445312,-0.0348595761718751,0.00641646044921629,0.0572165910003571,0.96542199999999,
-0.0377326181640625,-0.00612915625000006,-0.0390733710937532,0.0546630163683088,0.968442999999979,
-0.0233674082031249,-0.0276769711914063,-0.0223139594726582,0.0425436633096968,0.971401999999955,
-0.052097828125,-0.0300711728515626,-0.0199197578125023,0.0633660467704854,0.974355000000003,
-0.0209732065429687,-0.0109175595703126,-0.0893516059570327,0.0924271496193959,0.977422999999987,
-0.0233674082031249,-0.0109175595703126,-0.0869574042968768,0.0907018138470962,0.980343000000005,
-0.0161848032226562,-0.00134075292968756,-0.0534385810546905,0.0558518345169905,0.983362999999997,
-0.0233674082031249,0.0130244570312499,-0.0893516059570327,0.0932704762193868,0.986331000000007,
-0.0544920297851562,-0.0204943662109376,-0.0534385810546905,0.0790258331283707,0.989252999999962,
-0.0305500131835937,-0.0133117612304688,-0.0510443793945328,0.0609592893687891,0.992237999999986,
-0.0137906015624999,-0.0276769711914063,-0.0223139594726582,0.0381327708556957,0.995224000000007,
-0.052097828125,-0.0348595761718751,-0.0151313544921905,0.064485127238714,0.998252999999977,
-0.0497036264648437,-0.0109175595703126,0.0135990654296858,0.0526742647911569,1.00121099999996,
-0.0161848032226562,-0.0444363828125001,-0.0606211860351582,0.0768860726602966,1.00410699999998,
-0.0401268198242187,-0.0157059628906251,-0.043861774414065,0.0614873498719642,1.00712299999998,
-0.00181959326171871,-0.0181001645507813,-0.0342849677734396,0.0388121874110342,1.010042,
-0.061674634765625,-0.0252827695312501,-0.0366791694335955,0.076081144043593,1.01306899999997,
-0.0640688364257812,-0.0348595761718751,-0.0725921943359396,0.102905940209218,1.015985,
-0.0401268198242187,-0.0516189877929688,0.00402225878906037,0.0655046573591691,1.01897099999996,
-0.0185790048828124,-0.0109175595703126,-0.000766144531251456,0.0215629197199651,1.02207099999998,
-0.0257616098632812,-0.0109175595703126,-0.0271023627929718,0.0389537125147411,1.025036,
