X,Y,Z,Magnitude,Seconds,
0.465911643066406,-0.380438643798828,0.0605254179687496,0.604541600769229,0.0,
0.456334836425781,-0.378044442138672,0.0557370146484359,0.595202232833181,0.00384400000075402,
0.480276853027344,-0.344525618896484,-0.0328484467773453,0.59198207581441,0.00767600000108359,
0.504218869628906,-0.344525618896484,0.0222181914062478,0.611087733959063,0.0115480000004027,
0.461123239746094,-0.38522704711914,0.0772848295898427,0.60581141038346,0.0153680000003078,
0.489853659667969,-0.34691982055664,0.0317949980468732,0.60109973522366,0.0191620000005059,
0.494642062988281,-0.342131417236328,0.0294007963867173,0.602153704601752,0.0230750000009721,
0.441969626464844,-0.373256038818359,0.00785298144531055,0.578548952595566,0.0268690000011702,
0.453940634765625,-0.392409652099609,0.12277466113281,0.612471266565731,0.0306340000006458,
0.475488449707031,-0.344525618896484,0.0222181914062478,0.587606003977296,0.0343800000009651,
0.458729038085938,-0.356496627197265,0.0677080229492173,0.58489875359584,0.0381330000000162,
0.465911643066406,-0.368467635498047,0.00545877978515463,0.594030180909272,0.0418690000005881,
0.446758029785156,-0.38522704711914,0.0413718046874987,0.591357963701131,0.0456759999997303,
0.473094248046875,-0.351708223876953,0.0437660063476546,0.591127994252803,0.0494140000009793,
0.456334836425781,-0.322977803955078,-0.0256658417968758,0.559656037418102,0.0531090000004042,
0.485065256347656,-0.356496627197265,-0.00890643017578263,0.602044410834549,0.0568440000006376,
0.485065256347656,-0.325372005615234,0.0461602080078105,0.585906144153671,0.0607560000007652,
0.444363828125,-0.354102425537109,0.0246123930664055,0.568729733185829,0.0647050000006857,
0.458729038085938,-0.363679232177734,0.0365834013671869,0.586543484795653,0.068543999999747,
0.439575424804688,-0.366073433837891,0.017429788085936,0.572311200804952,0.0723390000002837,
0.456334836425781,-0.356496627197265,0.0413718046874987,0.580554006412729,0.0761190000011993,
0.494642062988281,-0.363679232177734,0.00785298144531055,0.613999204976903,0.0799370000004274,
0.429998618164063,-0.349314022216797,0.0677080229492173,0.558124962810276,0.0837600000013481,
0.465911643066406,-0.337343013916015,0.05334281298828,0.577684536646327,0.0875250000008236,
0.477882651367188,-0.387621248779297,0.0509486113281241,0.617428394212008,0.0912700000008044,
0.477882651367188,-0.366073433837891,0.0581312163085919,0.604781634765073,0.0951679999998305,
0.4826710546875,-0.375650240478515,0.05334281298828,0.613946175085579,0.0989200000003621,
0.516189877929687,-0.34691982055664,0.0389776030273428,0.623156966991363,0.102652999999918,
0.497036264648438,-0.34691982055664,0.0341891997070292,0.607097448229961,0.106399000000238,
0.480276853027344,-0.368467635498047,0.017429788085936,0.605589012017301,0.11014299999988,
0.432392819824219,-0.390015450439453,0.0892558378906241,0.589102883047254,0.113869000000705,
0.461123239746094,-0.315795198974609,0.0270065947265614,0.559544999162776,0.117658000001029,
0.46351744140625,-0.380438643798828,0.0126413847656242,0.599784782061099,0.121396000000459,
0.461123239746094,-0.344525618896484,0.0198239897460919,0.575956191805759,0.125105000000985,
0.461123239746094,-0.34691982055664,-0.0113006318359385,0.577161769704887,0.128815000000031,
0.465911643066406,-0.322977803955078,0.0581312163085919,0.569883812107345,0.132809000000634,
0.473094248046875,-0.342131417236328,0.0796790312499986,0.589254463043017,0.136662000000797,
0.437181223144531,-0.366073433837891,0.0365834013671869,0.571380369007901,0.140448000000106,
0.485065256347656,-0.354102425537109,-0.0041180268554708,0.6005778790732,0.144351000000825,
0.485065256347656,-0.325372005615234,0.0341891997070292,0.585084734316581,0.148153000000093,
0.497036264648438,-0.406774862060547,0.0222181914062478,0.642654249818215,0.151992000000973,
0.434787021484375,-0.356496627197265,-0.0113006318359385,0.562367587556548,0.155784000000494,
0.487459458007813,-0.315795198974609,0.0701022246093732,0.585027907703441,0.159582000000228,
0.480276853027344,-0.339737215576172,0.0198239897460919,0.588625706005737,0.163389999999708,
0.461123239746094,-0.354102425537109,0.0653138212890614,0.585054754067153,0.167262000000846,
0.475488449707031,-0.34691982055664,0.0509486113281241,0.590794709434768,0.171057999999903,
0.473094248046875,-0.337343013916015,0.0198239897460919,0.581387536108603,0.174822000000859,
0.458729038085938,-0.322977803955078,-0.0280600434570317,0.561724450482356,0.178568000001178,
0.487459458007813,-0.344525618896484,0.000670376464842803,0.596921330396126,0.182321000000229,
0.437181223144531,-0.354102425537109,-0.0328484467773453,0.563555649512181,0.186051000000589,
0.446758029785156,-0.382832845458984,-0.0184832368164081,0.588638560394193,0.189846000001126,
0.473094248046875,-0.361285030517578,0.0509486113281241,0.597445229127649,0.193590000000768,
0.4826710546875,-0.418745870361328,0.0413718046874987,0.640336690500326,0.197319000000789,
0.473094248046875,-0.325372005615234,0.00306457812499872,0.574190300520831,0.201151000001119,
0.468305844726563,-0.32776620727539,-0.00651222851562672,0.571649770363807,0.205128999999943,
0.413239206542969,-0.342131417236328,0.0677080229492173,0.54074478717422,0.208937000001242,
0.477882651367188,-0.354102425537109,0.0317949980468732,0.595626794351797,0.212736000001314,
0.46351744140625,-0.392409652099609,0.00545877978515463,0.607341379971327,0.216652000000977,
0.511401474609375,-0.303824190673828,0.0437660063476546,0.596452907095667,0.22047399999974,
0.489853659667969,-0.34691982055664,0.0270065947265614,0.600865480739141,0.224292000000787,
0.461123239746094,-0.370861837158203,0.000670376464842803,0.591754673744868,0.228062000000136,
0.492247861328125,-0.356496627197265,0.0413718046874987,0.609187514980601,0.231835000000501,
0.434787021484375,-0.401986458740234,0.0701022246093732,0.596277778352465,0.235634000000573,
0.444363828125,-0.397198055419922,0.0485544096679682,0.597982472714273,0.239485000000059,
0.446758029785156,-0.330160408935547,-0.0232716401367199,0.556003778800697,0.243221000000631,
0.4826710546875,-0.356496627197265,0.0724964262695291,0.604414529985856,0.246947999999975,
0.453940634765625,-0.351708223876953,0.0437660063476546,0.575913394483687,0.250697999999829,
0.475488449707031,-0.382832845458984,0.0222181914062478,0.610855057600723,0.254420000001119,
0.470700046386719,-0.337343013916015,0.0485544096679682,0.581133696669368,0.258147000000463,
0.437181223144531,-0.373256038818359,-0.0136948334960945,0.57500873110676,0.261849000000439,
0.475488449707031,-0.380438643798828,0.0557370146484359,0.611497704249335,0.265708000000814,
0.434787021484375,-0.337343013916015,-0.0232716401367199,0.550800900801595,0.269416000001002,
0.429998618164063,-0.351708223876953,0.0485544096679682,0.557633407413768,0.273352000000159,
0.470700046386719,-0.356496627197265,0.00306457812499872,0.590472497675014,0.27724500000113,
0.432392819824219,-0.358890828857422,0.0222181914062478,0.562369830007684,0.281007999999929,
0.46351744140625,-0.339737215576172,-0.00651222851562672,0.574727938467834,0.284789000001183,
0.441969626464844,-0.373256038818359,0.0150355864257801,0.578691014351366,0.288642999999865,
0.420421811523438,-0.284670577392578,-0.078338278320313,0.51373993721324,0.292484000001423,
0.573650717773438,-0.208056124267578,0.115592056152343,0.621066840438895,0.296325999999681,
0.245645090332031,-0.998142672119141,0.05334281298828,1.02930838916569,0.300102000001061,
0.978270798339844,0.352187064208985,0.0868616362304682,1.04335728632586,0.303713999999673,
0.439575424804688,-0.763510909423828,-0.308181637695315,0.93335490822837,0.30666200000087,
-0.237983645019531,-0.536061751708984,0.276003567382812,0.648210140425252,0.309613000001264,
1.32782424072266,-0.351708223876953,0.0820732329101546,1.37606391732132,0.312631000000692,
0.152271225585938,0.40007109741211,-0.363248275878908,0.561420269544102,0.315593000001172,
0.00622492431640626,-1.64936552368164,0.225725332519531,1.66475142472785,0.318645999999717,
1.25599819091797,0.538934793701172,0.0988326445312495,1.37031020541919,0.321598000000449,
0.192972653808594,-0.15538368774414,-0.0855208833007826,0.262099898922998,0.324515000000247,
0.0158017309570313,-1.78583501831055,0.108409451171873,1.78919228045195,0.327570999999807,
1.06685625976563,1.42478940795898,-0.147770126464845,1.78606918855588,0.330509000001257,
0.427604416503906,-1.47219460083008,0.297551382324217,1.56164634435903,0.333566999999675,
-0.0177170922851563,-0.150595284423828,-0.0424252534179708,0.157457096306624,0.33646299999964,
0.688572397460938,0.462320340576172,-0.0711556733398453,0.832427278327673,0.339402999999947,
0.762792648925781,-0.876038387451172,0.0341891997070292,1.16209499737322,0.342436000000816,
0.00622492431640626,-0.105105452880859,0.0509486113281241,0.116968657786177,0.345389000000068,
0.683783994140625,-0.516908138427734,-0.0136948334960945,0.857287654571217,0.348399000000427,
0.619140549316406,-0.129047469482422,0.0461602080078105,0.634128562667668,0.351350000000821,
0.154665427246094,-0.600705196533203,0.0485544096679682,0.622194228698254,0.354287000000113,
0.623928952636719,-0.294247384033203,0.0796790312499986,0.694418900210582,0.357312000000093,
0.571256516113281,-0.217632930908203,-0.0328484467773453,0.612190428113069,0.360242000000653,
0.281558115234375,-0.560003768310547,0.0581312163085919,0.629490612388987,0.363274999999703,
0.549708701171875,-0.21284452758789,0.0461602080078105,0.591280994004971,0.366229000001113,
0.611957944335938,-0.397198055419922,0.0341891997070292,0.730361364149173,0.369237000000794,
0.319865341796875,-0.361285030517578,0.0270065947265614,0.483290871336966,0.372186000000511,
0.492247861328125,-0.368467635498047,0.0246123930664055,0.615371534346601,0.375165999999808,
0.564073911132813,-0.337343013916015,0.0365834013671869,0.658268965935811,0.378286000001026,
0.355778366699219,-0.397198055419922,0.00785298144531055,0.533297488047817,0.381321000000753,
0.473094248046875,-0.382832845458984,-0.0304542451171894,0.609349338346173,0.38439500000095,
0.516189877929687,-0.351708223876953,0.0270065947265614,0.625203983495364,0.387355000000753,
0.456334836425781,-0.401986458740234,-0.0160890351562522,0.608353066071437,0.390274999999747,
0.418027609863281,-0.330160408935547,-0.0113006318359385,0.532804544384136,0.393289999999979,
0.54013189453125,-0.342131417236328,0.0677080229492173,0.642946923565039,0.396249000001262,
0.475488449707031,-0.368467635498047,0.0437660063476546,0.603136077121855,0.399289000000863,
0.434787021484375,-0.339737215576172,0.0222181914062478,0.552227107020354,0.402233000000706,
0.523372482910156,-0.390015450439453,0.0126413847656242,0.652832759638963,0.405163000001266,
0.487459458007813,-0.368467635498047,0.017429788085936,0.611301005334943,0.408198000000993,
0.477882651367188,-0.354102425537109,0.0294007963867173,0.595503789305467,0.411151000000245,
0.489853659667969,-0.358890828857422,0.101226846191405,0.615634720689085,0.414182000000437,
0.4826710546875,-0.356496627197265,0.0317949980468732,0.600892764257459,0.417155000001003,
0.473094248046875,-0.32776620727539,0.0294007963867173,0.576292686917772,0.420109000000593,
0.499430466308594,-0.375650240478515,0.0270065947265614,0.625518385027579,0.423135000000912,
0.418027609863281,-0.368467635498047,-0.0352426484375012,0.558352509877424,0.426054000001386,
0.470700046386719,-0.325372005615234,0.017429788085936,0.572476439007982,0.429088000000775,
0.513795676269531,-0.351708223876953,0.0557370146484359,0.625133015043891,0.432026000000405,
0.465911643066406,-0.382832845458984,0.0701022246093732,0.607082340874979,0.434960000000501,
0.487459458007813,-0.370861837158203,-0.00651222851562672,0.612533782400504,0.43796199999997,
0.477882651367188,-0.34691982055664,0.0796790312499986,0.595880808881879,0.440910000001168,
0.46351744140625,-0.375650240478515,0.0653138212890614,0.600189484172076,0.44393300000047,
0.461123239746094,-0.34691982055664,0.0198239897460919,0.57739154366724,0.446882000000187,
0.509007272949219,-0.361285030517578,-0.0352426484375012,0.625185829542047,0.449808000001212,
0.473094248046875,-0.356496627197265,0.0365834013671869,0.593503460810177,0.452828000001318,
0.46351744140625,-0.368467635498047,0.0413718046874987,0.593572609813171,0.455785000000105,
0.494642062988281,-0.390015450439453,0.0461602080078105,0.63159606305147,0.458819999999832,
0.432392819824219,-0.368467635498047,0.00785298144531055,0.568149292319053,0.461772000000565,
0.453940634765625,-0.363679232177734,0.0605254179687496,0.584797409389864,0.464788000001136,
0.504218869628906,-0.387621248779297,0.0198239897460919,0.636301729971345,0.467740000000049,
0.489853659667969,-0.306218392333984,0.00785298144531055,0.577743871461474,0.470688000001246,
0.487459458007813,-0.366073433837891,0.0940442412109359,0.616823152506515,0.473729999999705,
0.461123239746094,-0.361285030517578,0.0317949980468732,0.586662115199901,0.47667999999976,
0.449152231445313,-0.38522704711914,-0.00890643017578263,0.591791288667645,0.479676000000836,
0.441969626464844,-0.378044442138672,0.0557370146484359,0.584261384785383,0.482631000000765,
0.50182466796875,-0.38522704711914,0.0294007963867173,0.633318468104517,0.485572999999931,
0.456334836425781,-0.366073433837891,0.000670376464842803,0.585022812634015,0.488602000001265,
0.444363828125,-0.34691982055664,0.0653138212890614,0.567519575778964,0.491550000000643,
0.492247861328125,-0.392409652099609,0.0150355864257801,0.629697833013753,0.494579000000158,
0.492247861328125,-0.380438643798828,0.0413718046874987,0.623500717642494,0.49753100000089,
0.453940634765625,-0.382832845458984,0.0198239897460919,0.594151561491758,0.500460999999632,
0.461123239746094,-0.313400997314453,0.0198239897460919,0.557895884481218,0.503485999999612,
0.449152231445313,-0.428322677001953,0.0270065947265614,0.621230552053863,0.506429000000935,
0.441969626464844,-0.418745870361328,0.0341891997070292,0.609798455261037,0.509452000000238,
0.506613071289062,-0.318189400634765,-0.00890643017578263,0.59831481945187,0.512378000001263,
0.439575424804688,-0.339737215576172,0.0581312163085919,0.55859392052652,0.515406000000439,
0.439575424804688,-0.38522704711914,0.0365834013671869,0.585631946857364,0.518523000000641,
0.487459458007813,-0.25115175415039,0.0126413847656242,0.548501350429405,0.521572999999989,
0.458729038085938,-0.387621248779297,0.0150355864257801,0.60075671594052,0.524649000000863,
0.489853659667969,-0.337343013916015,-0.0136948334960945,0.59493232001004,0.527579999999944,
0.492247861328125,-0.299035787353515,0.0868616362304682,0.582473435401894,0.530518999999913,
0.475488449707031,-0.397198055419922,0.0557370146484359,0.622062839137722,0.533542000001034,
0.468305844726563,-0.320583602294922,0.0389776030273428,0.568861550645854,0.536536999999953,
0.480276853027344,-0.378044442138672,0.103621047851561,0.619936107468862,0.539566999999806,
0.446758029785156,-0.363679232177734,0.0246123930664055,0.576594390353701,0.542509000000791,
0.473094248046875,-0.421140072021484,0.017429788085936,0.633625224647835,0.54545700000017,
0.46351744140625,-0.380438643798828,0.0581312163085919,0.602462628295568,0.548463000000993,
0.444363828125,-0.375650240478515,0.0294007963867173,0.582611982150766,0.551438000000417,
0.535343491210938,-0.375650240478515,0.0150355864257801,0.654164983480963,0.554471000001286,
0.453940634765625,-0.330160408935547,0.00545877978515463,0.56133572289375,0.557446000000709,
0.475488449707031,-0.378044442138672,0.103621047851561,0.616233874105109,0.560465000000477,
0.461123239746094,-0.370861837158203,0.0724964262695291,0.596178560765266,0.563421000000744,
0.465911643066406,-0.342131417236328,0.0341891997070292,0.57904789713942,0.566366000000926,
0.4826710546875,-0.332554610595703,0.00785298144531055,0.58619585923067,0.569395000000441,
0.456334836425781,-0.382832845458984,0.0341891997070292,0.596633364701115,0.572341000000961,
0.453940634765625,-0.370861837158203,0.0820732329101546,0.591892403830376,0.575349000000642,
0.4826710546875,-0.390015450439453,0.00545877978515463,0.620574892250223,0.578295999999682,
0.418027609863281,-0.315795198974609,0.0150355864257801,0.524118077500278,0.581237000000328,
0.465911643066406,-0.373256038818359,0.0413718046874987,0.598419047058423,0.584270000001197,
0.46351744140625,-0.349314022216797,0.0461602080078105,0.582236609471096,0.587233000000197,
0.465911643066406,-0.375650240478515,0.0389776030273428,0.599754963175931,0.590258000000176,
0.470700046386719,-0.380438643798828,0.0605254179687496,0.60823960869401,0.593204000000696,
0.475488449707031,-0.334948812255859,0.09165003955078,0.5887951276854,0.596133000000918,
0.468305844726563,-0.375650240478515,0.0820732329101546,0.60593686382077,0.599159000001237,
0.446758029785156,-0.373256038818359,0.0461602080078105,0.583989359916096,0.602109000001292,
0.470700046386719,-0.380438643798828,0.0365834013671869,0.606325358713903,0.605133000000933,
0.473094248046875,-0.354102425537109,0.0341891997070292,0.591925330327153,0.608076000000437,
0.473094248046875,-0.342131417236328,0.0461602080078105,0.58566444232043,0.611011000000872,
0.494642062988281,-0.363679232177734,0.0341891997070292,0.614900199846525,0.614043000001402,
0.504218869628906,-0.34691982055664,0.0605254179687496,0.615023053718473,0.616982999999891,
0.477882651367188,-0.358890828857422,0.0365834013671869,0.59875938470415,0.620014000000083,
0.458729038085938,-0.358890828857422,0.0629196196289055,0.585827479686181,0.622961000000942,
0.429998618164063,-0.390015450439453,0.0605254179687496,0.583673015844303,0.625896000001376,
0.437181223144531,-0.363679232177734,0.0413718046874987,0.570176842751997,0.628924000000552,
0.470700046386719,-0.366073433837891,0.0653138212890614,0.599861807320405,0.631870000001072,
0.427604416503906,-0.375650240478515,0.0629196196289055,0.572640828722035,0.634892000000036,
0.465911643066406,-0.363679232177734,0.0365834013671869,0.592177835044353,0.637842000000092,
0.465911643066406,-0.370861837158203,0.0246123930664055,0.596001620213948,0.640779999999722,
0.485065256347656,-0.38522704711914,-0.0376368500976572,0.620568056890639,0.643781000000672,
0.489853659667969,-0.344525618896484,-0.0328484467773453,0.599777900911489,0.64672100000098,
0.52097828125,-0.330160408935547,-0.0304542451171894,0.617536821742922,0.649736999999732,
0.487459458007813,-0.358890828857422,0.0222181914062478,0.605733438294934,0.652733000000808,
0.473094248046875,-0.354102425537109,0.0605254179687496,0.594028636958349,0.65583400000105,
0.461123239746094,-0.354102425537109,0.0748906279296868,0.586201139675539,0.658873000000312,
0.477882651367188,-0.354102425537109,-0.0232716401367199,0.595232665000544,0.661885000001348,
0.477882651367188,-0.332554610595703,0.0246123930664055,0.582726494505482,0.66492400000061,
0.489853659667969,-0.378044442138672,-0.0520020600585944,0.620949613392568,0.667854000001171,
0.4826710546875,-0.370861837158203,0.0317949980468732,0.609525037380994,0.670868000001065,
0.465911643066406,-0.361285030517578,-0.0328484467773453,0.590490942247728,0.673824000001332,
0.46351744140625,-0.354102425537109,0.0677080229492173,0.587214886247575,0.676781000000119,
0.468305844726563,-0.368467635498047,0.0629196196289055,0.599197497615625,0.679803000000902,
0.489853659667969,-0.373256038818359,-0.00172382519531311,0.61585684211331,0.682746000000407,
0.446758029785156,-0.358890828857422,0.0246123930664055,0.573586204600439,0.68579200000022,
0.470700046386719,-0.351708223876953,-0.00651222851562672,0.587622002252621,0.68874500000129,
0.513795676269531,-0.363679232177734,0.0341891997070292,0.630410566414665,0.691684999999779,
0.465911643066406,-0.34691982055664,0.0270065947265614,0.58151214707744,0.694749000000229,
0.475488449707031,-0.34691982055664,0.00545877978515463,0.588619083938493,0.697722000000795,
0.458729038085938,-0.354102425537109,0.0629196196289055,0.582906284653682,0.700754999999845,
0.449152231445313,-0.34691982055664,0.0557370146484359,0.570261083810981,0.70370400000138,
0.422816013183594,-0.339737215576172,0.0485544096679682,0.544566145982399,0.706646000000546,
0.513795676269531,-0.351708223876953,0.0437660063476546,0.624179569521118,0.709679999999935,
0.489853659667969,-0.394803853759765,-0.0232716401367199,0.629577842739337,0.712611000000834,
0.446758029785156,-0.373256038818359,0.0892558378906241,0.588964695282701,0.715642000001026,
0.441969626464844,-0.38522704711914,0.0246123930664055,0.586807292424064,0.718593999999939,
0.456334836425781,-0.366073433837891,0.101226846191405,0.593715517977648,0.721529000000373,
0.475488449707031,-0.394803853759765,0.0437660063476546,0.619576316574465,0.724567000001116,
0.46351744140625,-0.358890828857422,0.0317949980468732,0.587079183267951,0.727523000001383,
0.456334836425781,-0.330160408935547,0.0222181914062478,0.563685219420908,0.730550000000221,
0.461123239746094,-0.368467635498047,0.0150355864257801,0.59044822762256,0.733498999999938,
0.465911643066406,-0.337343013916015,0.0294007963867173,0.575967338493211,0.73642800000016,
0.499430466308594,-0.342131417236328,0.0701022246093732,0.609425154742189,0.739444000000731,
0.497036264648438,-0.366073433837891,0.0724964262695291,0.621538847667134,0.742392000000109,
0.46351744140625,-0.318189400634765,-0.0304542451171894,0.56304562355973,0.745397000000594,
0.470700046386719,-0.337343013916015,0.0509486113281241,0.581338630836335,0.748357000000397,
0.42521021484375,-0.344525618896484,0.0294007963867173,0.548056599003832,0.751394000000801,
0.451546433105469,-0.34691982055664,0.017429788085936,0.569694076376123,0.754345999999714,
0.461123239746094,-0.375650240478515,0.0222181914062478,0.595181815443705,0.757274000001416,
0.449152231445313,-0.32776620727539,0.0748906279296868,0.561049926295067,0.760308000000805,
0.513795676269531,-0.366073433837891,0.0150355864257801,0.631048195286459,0.763252000000648,
0.46351744140625,-0.356496627197265,0.000670376464842803,0.584755259143026,0.766257000001133,
0.458729038085938,-0.349314022216797,0.0126413847656242,0.576725602959777,0.769212000001062,
0.4826710546875,-0.358890828857422,0.017429788085936,0.601728985161785,0.772141000001284,
0.477882651367188,-0.337343013916015,0.0222181914062478,0.585376618550005,0.775166000001263,
0.499430466308594,-0.354102425537109,0.0317949980468732,0.613049949310237,0.778109000000768,
0.473094248046875,-0.358890828857422,0.0198239897460919,0.59414963194675,0.781133000000409,
0.432392819824219,-0.363679232177734,0.0294007963867173,0.565765447319911,0.784073000000717,
0.461123239746094,-0.34691982055664,-0.00890643017578263,0.577119856379471,0.786987000001318,
0.468305844726563,-0.378044442138672,0.0150355864257801,0.602041554459629,0.790017000001171,
0.46351744140625,-0.342131417236328,0.0341891997070292,0.57712323339521,0.793052000000898,
0.468305844726563,-0.356496627197265,0.0701022246093732,0.59271791883093,0.796170999999958,
0.468305844726563,-0.356496627197265,0.0724964262695291,0.59300585261019,0.799208000000363,
0.427604416503906,-0.320583602294922,0.0389776030273428,0.535853185687826,0.802193999999872,
0.480276853027344,-0.370861837158203,0.0294007963867173,0.607510300029867,0.805221000000529,
0.473094248046875,-0.380438643798828,0.05334281298828,0.60942364979383,0.80816600000071,
0.470700046386719,-0.387621248779297,0.0222181914062478,0.610165890724027,0.811180000000604,
0.451546433105469,-0.349314022216797,-0.0280600434570317,0.571578370310108,0.81413799999973,
0.470700046386719,-0.351708223876953,0.0126413847656242,0.587721884074375,0.817062000000078,
0.480276853027344,-0.368467635498047,0.0461602080078105,0.607095559831148,0.8200850000012,
0.4826710546875,-0.394803853759765,0.0150355864257801,0.623752754571772,0.823046000001341,
0.494642062988281,-0.30861259399414,0.0389776030273428,0.584321621358351,0.826062000000093,
0.497036264648438,-0.373256038818359,0.0868616362304682,0.627622547984597,0.829026999999769,
0.458729038085938,-0.370861837158203,0.0964384428710918,0.597721679301502,0.831959000001007,
0.461123239746094,-0.392409652099609,0.0653138212890614,0.609004000435341,0.835011000001032,
0.470700046386719,-0.382832845458984,0.0772848295898427,0.611630988517924,0.837969000000157,
0.4826710546875,-0.363679232177734,0.0294007963867173,0.605060606698786,0.840992999999798,
0.420421811523438,-0.358890828857422,0.0389776030273428,0.554144728550559,0.843949000000066,
0.42521021484375,-0.378044442138672,0.0557370146484359,0.571688675628027,0.846959000000425,
0.477882651367188,-0.342131417236328,0.0461602080078105,0.589539226804456,0.849911999999676,
0.434787021484375,-0.349314022216797,0.0557370146484359,0.560505713593047,0.852847000000111,
0.475488449707031,-0.339737215576172,0.017429788085936,0.584648987825145,0.855876999999964,
0.487459458007813,-0.330160408935547,0.0389776030273428,0.590035483990171,0.85881800000061,
0.449152231445313,-0.356496627197265,-0.00651222851562672,0.573471866211037,0.861812000001009,
0.477882651367188,-0.390015450439453,0.0605254179687496,0.619796100568174,0.864786000000095,
0.456334836425781,-0.375650240478515,0.05334281298828,0.593464440219306,0.86772000000019,
0.441969626464844,-0.322977803955078,0.0270065947265614,0.548070404896892,0.870752000000721,
0.465911643066406,-0.334948812255859,0.0341891997070292,0.574833251780946,0.873702000000776,
0.465911643066406,-0.351708223876953,-0.00651222851562672,0.583793407814579,0.87672399999974,
0.473094248046875,-0.358890828857422,0.0509486113281241,0.59600046608142,0.879680000000008,
0.489853659667969,-0.303824190673828,0.0246123930664055,0.576950185562986,0.882612999999765,
0.441969626464844,-0.320583602294922,0.0509486113281241,0.548367356590567,0.885643999999957,
0.461123239746094,-0.373256038818359,-0.0041180268554708,0.593272004137637,0.888585000000603,
0.465911643066406,-0.373256038818359,0.0557370146484359,0.599583475807273,0.891615000000456,
0.485065256347656,-0.380438643798828,0.0988326445312495,0.624331447418876,0.894570000000385,
0.468305844726563,-0.363679232177734,0.00306457812499872,0.592943791401453,0.897506000001158,
0.497036264648438,-0.315795198974609,0.0892558378906241,0.595599077122054,0.900535000000673,
0.489853659667969,-0.332554610595703,0.00785298144531055,0.592124012548167,0.903474000000642,
0.477882651367188,-0.375650240478515,0.0605254179687496,0.610858623471578,0.906499000000622,
0.451546433105469,-0.334948812255859,0.0509486113281241,0.564518067982015,0.909440000001268,
0.477882651367188,-0.358890828857422,-0.0041180268554708,0.597654928584114,0.912363000001278,
0.461123239746094,-0.361285030517578,0.0701022246093732,0.589979522869399,0.915398000001005,
0.485065256347656,-0.342131417236328,-0.0328484467773453,0.594492413771143,0.918326000000889,
0.46351744140625,-0.358890828857422,0.0294007963867173,0.586954386944963,0.92135700000108,
0.470700046386719,-0.370861837158203,0.0222181914062478,0.599658806287527,0.924302999999782,
0.475488449707031,-0.363679232177734,0.017429788085936,0.598878658189539,0.927236999999877,
0.4826710546875,-0.34691982055664,-0.0184832368164081,0.594698527803295,0.930270000000746,
0.4060566015625,-0.370861837158203,0.0581312163085919,0.552991595091969,0.933313999999882,
0.446758029785156,-0.406774862060547,-0.00172382519531311,0.604203191943898,0.936412000000928,
0.446758029785156,-0.354102425537109,0.05334281298828,0.572561543108058,0.939448000000993,
0.465911643066406,-0.315795198974609,0.0653138212890614,0.566627004379098,0.942468999999619,
0.50182466796875,-0.378044442138672,0.0150355864257801,0.628467713150845,0.945416000000478,
0.473094248046875,-0.366073433837891,0.0317949980468732,0.599031592153288,0.948347999999896,
0.475488449707031,-0.370861837158203,0.05334281298828,0.605370319525707,0.951379000000088,
0.468305844726563,-0.375650240478515,0.0294007963867173,0.601072270367548,0.954372000000149,
0.497036264648438,-0.337343013916015,0.0772848295898427,0.605655266879059,0.957381000000169,
0.492247861328125,-0.363679232177734,0.0820732329101546,0.617500248145556,0.960338000000775,
0.458729038085938,-0.366073433837891,0.0772848295898427,0.591958642330564,0.963284999999814,
0.489853659667969,-0.368467635498047,0.0461602080078105,0.614699740607516,0.966312000000471,
0.499430466308594,-0.363679232177734,0.000670376464842803,0.617813745395172,0.969282000000021,
0.489853659667969,-0.320583602294922,0.00785298144531055,0.585484520092608,0.972334000000046,
0.4826710546875,-0.344525618896484,0.0677080229492173,0.596869856401578,0.975307000000612,
0.468305844726563,-0.344525618896484,0.0413718046874987,0.582854949798117,0.978243000001385,
0.441969626464844,-0.40438066040039,0.0557370146484359,0.601637335963493,0.981270000000222,
0.432392819824219,-0.349314022216797,0.017429788085936,0.556136345031987,0.984225000000151,
0.465911643066406,-0.337343013916015,0.0198239897460919,0.575557954294989,0.987252000000808,
0.470700046386719,-0.382832845458984,0.0246123930664055,0.607227544766488,0.990193999999974,
0.480276853027344,-0.366073433837891,0.000670376464842803,0.603884147763723,0.993121999999858,
0.480276853027344,-0.406774862060547,0.00785298144531055,0.629438887641847,0.996151000001191,
0.4826710546875,-0.366073433837891,0.017429788085936,0.606040348085611,0.999095000001034,
0.487459458007813,-0.356496627197265,0.0341891997070292,0.604876408682719,1.00213000000076,
0.461123239746094,-0.334948812255859,0.0724964262695291,0.57452683217357,1.00508000000082,
0.475488449707031,-0.351708223876953,0.0126413847656242,0.591563813257935,1.00800700000036,
0.475488449707031,-0.351708223876953,-0.0113006318359385,0.591536680880711,1.01102400000127,
0.473094248046875,-0.366073433837891,0.0102471831054682,0.598274962921314,1.0139650000001,
