X,Y,Z,Magnitude,Seconds,
-0.00627280834960947,-0.00191536132812502,-0.0248518132324236,0.0257027110349759,0.0,
-0.00866701000976572,0.0220266552734375,0.0302148249511696,0.0383826295591385,0.00394700000015291,
0.0440054265136718,-0.0617704028320313,0.0254264216308577,0.0799910191561011,0.00803100000030099,
0.00809240161132801,0.0244208569335937,0.0182438166503882,0.0315388976215571,0.0120190000006914,
-0.00148440502929698,0.0292092602539062,0.0182438166503882,0.0344705843995197,0.0161710000002131,
-0.0158496149902345,-0.01149216796875,0.0565510432128882,0.0598439696914115,0.0202420000005077,
0.00330399829101552,-0.0138863696289063,0.0541568415527323,0.0560063492217212,0.0241650000007212,
0.00330399829101552,-0.00909796630859377,0.00866701000976278,0.0129925539509624,0.0280880000000252,
0.0128808049316406,0.00047884033203123,0.0230322199707,0.0263937034258035,0.031966000000466,
0.0200634099121093,-0.0282515795898438,-0.00569819995117449,0.035116401428765,0.0358219999998255,
0.0248518132324218,0.0220266552734375,-0.0200634099121118,0.0387985383845249,0.0397890000003827,
-0.0182438166503907,-0.00191536132812502,-0.000909796630862658,0.0183666323777626,0.0436829999998736,
-0.0182438166503907,-0.021068974609375,0.00387860668945095,0.0281386234012081,0.0475020000003497,
0.00569819995117177,0.00766144531249998,-0.0248518132324236,0.0266229195975803,0.0514149999999063,
0.0224576115722656,0.0292092602539062,-0.0128808049316422,0.039031273842884,0.0555000000003929,
-0.00627280834960947,-0.00909796630859377,-0.0080924016113304,0.013697009870125,0.0593290000006164,
0.0511880314941405,0.00047884033203123,0.00627280834960686,0.0515731711348023,0.0632990000003701,
0.0104866032714843,-0.0258573779296875,0.0613394465332,0.0673876883604973,0.067337000000407,
-0.0134554133300782,-0.0138863696289063,0.0110612116699187,0.0222762163070976,0.0711740000006102,
-0.058945244873047,0.036391865234375,0.00387860668945095,0.0693826587717121,0.0750330000000758,
0.0344286198730468,-0.0474051928710938,-0.034428619873049,0.0679552208728017,0.0789670000003753,
-0.0373974299316407,-0.00909796630859377,0.0350032282714814,0.0520246743946535,0.082937000000129,
0.0248518132324218,-0.0234631762695313,0.0254264216308577,0.0425985466717401,0.0868060000002515,
-0.0230322199707032,0.00526724365234373,0.0421858332519509,0.0483515412332784,0.0908630000003541,
-0.0230322199707032,0.0244208569335937,0.0421858332519509,0.0539120203415836,0.0947900000001027,
0.0152750065917968,0.0100556469726562,-0.0559764348144558,0.0588880558089257,0.0986380000003919,
-0.00866701000976572,-0.00191536132812502,-0.0224576115722677,0.0241480845836167,0.102463000000171,
-0.020638018310547,-0.0713472094726563,-0.0176692082519558,0.0763449606691401,0.106209999999919,
0.0176692082519531,-0.00909796630859377,-0.0152750065917999,0.0250659078746956,0.11000200000035,
0.00569819995117177,-0.0569819995117188,0.00148440502929503,0.0572854362759685,0.114016000000447,
-0.00148440502929698,-0.00909796630859377,0.00387860668945095,0.0100010019045475,0.117865000000165,
-0.011061211669922,-0.0162805712890625,0.0709162531738254,0.073597026905434,0.121677000000091,
0.00809240161132801,-0.01149216796875,0.0110612116699187,0.0178859523668083,0.12560300000041,
-0.030214824951172,-0.0162805712890625,0.0158496149902323,0.0378048005373234,0.129552000000331,
-0.0469742365722657,-0.0330399829101563,0.0661278498535136,0.0875848839612147,0.13349400000061,
-0.00387860668945322,0.0292092602539062,0.0110612116699187,0.031473399531011,0.137392000000546,
-0.0134554133300782,0.0220266552734375,0.00866701000976278,0.0272275366665335,0.141422000000603,
-0.00627280834960947,-0.00430956298828127,0.00148440502929503,0.00775396131225134,0.145229000000654,
0.0128808049316406,-0.0138863696289063,-0.034428619873049,0.0392947358245413,0.149073000000499,
0.0200634099121093,-0.0162805712890625,0.00387860668945095,0.0261273995769006,0.153014000000439,
-0.0373974299316407,-0.00670376464843752,0.00866701000976278,0.0389695430876851,0.156867000000602,
0.0320344182128905,0.00766144531249998,0.00387860668945095,0.0331654230240812,0.160759000000326,
-0.030214824951172,0.0100556469726562,0.0421858332519509,0.0528554274415604,0.164764000000105,
-0.0326090266113282,-0.0186747729492188,-0.0128808049316422,0.0397241852896973,0.168677000000571,
-0.0278206232910157,-0.0545877978515625,0.0373974299316373,0.0717800983565457,0.17256499999985,
0.0104866032714843,-0.01149216796875,-0.0200634099121118,0.025388564159812,0.176387000000432,
-0.0182438166503907,-0.00670376464843752,0.0230322199707,0.0301373599244099,0.180234000000382,
-0.0230322199707032,-0.01149216796875,0.0709162531738254,0.0754431444573656,0.184056000000055,
0.00569819995117177,-0.0138863696289063,-0.0272460148925813,0.0311070100086927,0.187945000000582,
-0.00627280834960947,-0.03064578125,0.0326090266113255,0.045186952204723,0.191925000000083,
-0.011061211669922,0.00287304199218748,0.0350032282714814,0.0368216072886712,0.195802000000185,
0.000909796630859272,-0.03064578125,-0.0104866032714863,0.0324030937798526,0.199794000000111,
-0.00866701000976572,-0.0330399829101563,-0.0559764348144558,0.0655752909848658,0.203649000000041,
-0.0158496149902345,0.0124498486328125,0.00866701000976278,0.0219391451252763,0.207632999999987,
-0.0182438166503907,-0.0426167895507813,-0.0224576115722677,0.0515108912281617,0.211510000000089,
0.00330399829101552,-0.0138863696289063,-0.0368228215332049,0.0394926303485081,0.215447000000495,
-0.0278206232910157,-0.00191536132812502,-0.000909796630862658,0.0279013157257397,0.219297000000552,
-0.0326090266113282,-0.00909796630859377,-0.0320344182128931,0.0466082134149031,0.223157000000356,
-0.020638018310547,-0.00191536132812502,-0.000909796630862658,0.0207466657252021,0.22714200000064,
-0.00866701000976572,-0.03064578125,-0.0272460148925813,0.0419121259119481,0.231025000000045,
-0.0134554133300782,0.0100556469726562,0.00866701000976278,0.01890188473225,0.234989000000496,
0.000909796630859272,-0.0378283862304688,0.0565510432128882,0.0680428910553997,0.239064000000326,
-0.00866701000976572,-0.01149216796875,-0.0463996281738304,0.0485809888927866,0.242936000000554,
0.0416112248535155,-0.00670376464843752,0.0373974299316373,0.0563471584000754,0.246837000000596,
0.0200634099121093,-0.0186747729492188,0.0206380183105441,0.0343105721577556,0.250703000000613,
-0.020638018310547,-0.0545877978515625,0.0350032282714814,0.0680513149284785,0.254577000000609,
0.0344286198730468,-0.0282515795898438,0.0278206232910136,0.0525116053457188,0.258474000000206,
-0.0230322199707032,-0.00430956298828127,0.0421858332519509,0.0482566059425052,0.262346999999863,
0.00330399829101552,-0.0282515795898438,-0.0176692082519558,0.033485356116955,0.266301999999996,
-0.0134554133300782,-0.0186747729492188,-0.0224576115722677,0.0321580411424417,0.270215000000462,
0.000909796630859272,0.0244208569335937,0.116406084716795,0.118943610767347,0.274206000000049,
0.00569819995117177,0.0914585034179687,-0.0487938298339863,0.103816979150841,0.278086000000258,
0.0224576115722656,-0.121625444335938,0.142742302978514,0.188871538583914,0.282036999999946,
-0.0469742365722657,-0.0545877978515625,-0.118225677978518,0.138433079534158,0.285861000000295,
-0.0469742365722657,0.271023627929687,0.0493684382324187,0.27945952925464,0.289745000000039,
0.0727358464355468,-0.169509477539063,0.0278206232910136,0.186542095551009,0.293548000000555,
-0.0350032282714844,-0.179086284179688,-0.0871010563964862,0.202197223512335,0.297461000000112,
-0.0900698664550782,0.304542451171875,0.116406084716795,0.338244086375657,0.30134100000032,
-0.0373974299316407,0.0962469067382812,-0.0152750065917999,0.104380844260616,0.305166000000099,
0.0224576115722656,-0.231758720703125,-0.0080924016113304,0.232984840501091,0.30909900000006,
0.0871010563964843,0.0124498486328125,0.00148440502929503,0.087998842121101,0.312827000000652,
-0.0828872614746095,0.27581203125,0.0326090266113255,0.289837753430345,0.3158540000004,
-0.106829278076172,0.00526724365234373,0.0326090266113255,0.111819439841681,0.31880000000001,
0.0320344182128905,-0.296402165527344,-0.051188031494144,0.302490763904921,0.321905000000697,
0.156532904541016,-0.0833182177734375,-0.0080924016113304,0.177510457666098,0.324878000000353,
-0.0924640681152345,0.33327287109375,0.0493684382324187,0.349367504489181,0.32796800000051,
-0.0924640681152345,0.045968671875,-0.0463996281738304,0.113206219710049,0.330920000000333,
0.0775242497558593,-0.35625720703125,-0.00569819995117449,0.364639104245005,0.333897000000434,
-0.0326090266113282,-0.0809240161132813,0.00148440502929503,0.0872596611197403,0.336917999999969,
-0.0278206232910157,0.309330854492188,-0.0296402165527372,0.3119905560405,0.339894000000641,
0.0823126530761717,0.0842758984375,0.0469742365722627,0.12682420437532,0.34294300000056,
0.0511880314941405,-0.248518132324219,-0.0823126530761744,0.266752412395093,0.345938999999817,
-0.125982891357422,-0.162326872558594,-0.0966778630371117,0.227086573074791,0.348872000000483,
-0.039791631591797,0.194409174804687,0.0876756647949186,0.216945438740269,0.351958000000195,
0.146956097900391,0.213562788085938,0.078098858154295,0.270748205552969,0.354983000000175,
0.065553241455078,-0.1455674609375,0.00148440502929503,0.159653739722405,0.358033000000432,
-0.111617681396484,-0.248518132324219,-0.0392170231933626,0.275241246549993,0.360951000000568,
-0.133165496337891,0.0531512768554687,0.0852814631347627,0.166826363626045,0.363949000000503,
0.0535822331542968,0.239899006347656,0.0493684382324187,0.250718630440385,0.367030000000341,
0.123014081298828,-0.0713472094726563,-0.0368228215332049,0.146897272551249,0.370034000000487,
-0.0637336481933595,-0.236547124023438,-0.0535822331542999,0.250773953004686,0.373121000000538,
-0.161895916259766,0.0818816967773437,0.0541568415527323,0.189335320148391,0.376172000000224,
-0.020638018310547,0.263841022949219,0.0230322199707,0.265647315716638,0.379249000000527,
0.0894952580566406,-0.2221819140625,0.0445800349121068,0.243642327324021,0.382278000000042,
-0.00627280834960947,-0.104866032714844,0.0230322199707,0.107548668512076,0.385252000000037,
-0.133165496337891,0.168072956542969,0.0733104548339814,0.226618602334355,0.3883679999999,
-0.0350032282714844,-0.0162805712890625,0.078098858154295,0.0871189682900835,0.39137699999992,
0.0966778630371094,-0.147961662597656,-0.0320344182128931,0.179625907792621,0.394416000000092,
0.0272460148925781,0.0435744702148437,0.0110612116699187,0.0525683382430683,0.397434999999859,
-0.0900698664550782,0.0675164868164062,0.0350032282714814,0.117882495836706,0.400454000000536,
-0.039791631591797,-0.097683427734375,0.0254264216308577,0.10849852033841,0.403525000000627,
0.0320344182128905,-0.04979939453125,-0.00330399829101857,0.059305143542736,0.406501999999819,
-0.020638018310547,0.0292092602539062,0.0373974299316373,0.0517462699125127,0.409555000000182,
-0.00627280834960947,-0.00430956298828127,-0.0080924016113304,0.0111088893045145,0.412479000000531,
-0.011061211669922,-0.0665588061523438,-0.000909796630862658,0.0674777949398291,0.415434000000459,
-0.0158496149902345,0.00526724365234373,-0.0200634099121118,0.0261054509314289,0.41847400000006,
0.000909796630859272,0.0411802685546875,0.00148440502929503,0.0412170560137027,0.421517000000676,
-0.00148440502929698,-0.0378283862304688,0.00148440502929503,0.0378865902580784,0.424668000000565,
0.0703416447753905,-0.0426167895507813,0.0134554133300764,0.0833377818831651,0.427695000000313,
-0.0326090266113282,0.0435744702148437,0.0637336481933577,0.0838096711786731,0.430662000000666,
-0.0709162531738282,0.0316034619140625,0.0158496149902323,0.079240797979997,0.433719000000565,
-0.0134554133300782,-0.040222587890625,-0.00330399829101857,0.0425419925392471,0.436687000000347,
0.000909796630859272,-0.0234631762695313,0.0230322199707,0.0328912074473305,0.439730000000054,
-0.020638018310547,-0.0138863696289063,-0.000909796630862658,0.0248915003799813,0.4427110000006,
0.00330399829101552,-0.0162805712890625,0.0302148249511696,0.0344805605092942,0.44570400000066,
0.00330399829101552,-0.0569819995117188,-0.0176692082519558,0.0597500258854466,0.448769000000539,
-0.011061211669922,-0.0282515795898438,0.0182438166503882,0.0354025281427906,0.451700999999957,
-0.0134554133300782,-0.01149216796875,0.0565510432128882,0.0592548610746085,0.454765000000407,
-0.030214824951172,-0.03064578125,0.0541568415527323,0.0691741501011799,0.457706000000144,
0.0272460148925781,-0.00909796630859377,0.0158496149902323,0.0328074475358491,0.460657000000538,
-0.0134554133300782,0.00766144531249998,-0.0128808049316422,0.0201410284704305,0.463744000000588,
0.0104866032714843,-0.040222587890625,0.0134554133300764,0.0436906577276625,0.466719000000012,
0.0128808049316406,0.00526724365234373,0.00148440502929503,0.0139950866260673,0.469774000000143,
0.0200634099121093,-0.0186747729492188,0.0517626398925763,0.0585718230094876,0.472730000000411,
0.00809240161132801,-0.01149216796875,0.0445800349121068,0.0467433032767866,0.475768000000244,
-0.0373974299316407,-0.021068974609375,-0.0320344182128931,0.0535599981966113,0.47872499999994,
-0.0421858332519532,-0.00430956298828127,0.0158496149902323,0.0452705992411208,0.481660000000375,
0.0128808049316406,0.0220266552734375,0.0493684382324187,0.0555727574601977,0.484712999999829,
0.00809240161132801,-0.0330399829101563,0.0158496149902323,0.0375278260745415,0.487716999999975,
-0.0254264216308595,-0.0330399829101563,-0.0248518132324236,0.0485361309602745,0.49077699999998,
0.0104866032714843,0.0196324536132812,-0.0128808049316422,0.0257160887138414,0.493779000000359,
0.000909796630859272,-0.0521935961914063,0.0541568415527323,0.0752194303373061,0.496758000000227,
0.0224576115722656,-0.0234631762695313,0.0350032282714814,0.0477502978798173,0.499815000000126,
0.0152750065917968,-0.0450109912109375,0.0206380183105441,0.0518193299450783,0.502779000000373,
0.0104866032714843,-0.0186747729492188,0.0637336481933577,0.0672361056643904,0.505872000000636,
0.00330399829101552,-0.00670376464843752,0.0589452448730441,0.0594171587869346,0.508861000000252,
-0.0158496149902345,-0.00191536132812502,0.0493684382324187,0.0518856588843592,0.51188700000057,
-0.00148440502929698,0.00766144531249998,-0.0631590397949235,0.0636393393301986,0.514962000000196,
0.00809240161132801,0.0292092602539062,0.0517626398925763,0.0599836539156126,0.5179990000006,
-0.0230322199707032,-0.0258573779296875,0.0469742365722627,0.0583580847160396,0.521083000000544,
-0.00627280834960947,-0.0617704028320313,0.00148440502929503,0.0621058310379416,0.524094000000332,
0.0392170231933593,0.00047884033203123,0.0158496149902323,0.0423014715057367,0.52712800000063,
-0.020638018310547,-0.021068974609375,-0.0080924016113304,0.0305829438530045,0.530279000000519,
-0.0182438166503907,-0.00430956298828127,0.0278206232910136,0.0335469262291425,0.533234000000448,
-0.0230322199707032,-0.040222587890625,0.0326090266113255,0.0566717597215407,0.536310000000412,
-0.00866701000976572,-0.00430956298828127,0.0206380183105441,0.0227951134115559,0.539287999999942,
0.0296402165527343,0.0220266552734375,-0.0224576115722677,0.0432210631215694,0.542326000000685,
-0.0326090266113282,-0.00670376464843752,0.0278206232910136,0.0433852066642588,0.545402000000649,
0.00569819995117177,-0.0330399829101563,0.0110612116699187,0.0353052454600403,0.548368000000664,
0.00330399829101552,0.017238251953125,-0.0176692082519558,0.0249053137976102,0.551411000000371,
0.00330399829101552,0.0244208569335937,0.00387860668945095,0.0249467081581827,0.554438000000118,
0.0248518132324218,-0.01149216796875,-0.0128808049316422,0.0302588446780137,0.557362999999896,
-0.0134554133300782,-0.0186747729492188,-0.0080924016113304,0.0243984068419883,0.560394000000088,
-0.0158496149902345,-0.03064578125,0.0278206232910136,0.0443211155552521,0.563454000000092,
-0.00148440502929698,-0.0450109912109375,0.00866701000976278,0.0458618561616451,0.566493000000264,
0.0128808049316406,0.00766144531249998,0.0206380183105441,0.0255056989661087,0.569540000000416,
0.000909796630859272,-0.0426167895507813,-0.0272460148925813,0.0505901552582305,0.572548000000097,
-0.0373974299316407,-0.0186747729492188,-0.0200634099121118,0.0463665324075272,0.575505000000703,
0.00809240161132801,-0.0282515795898438,0.0278206232910136,0.0404675894199394,0.578499000000193,
-0.030214824951172,0.00766144531249998,-0.00569819995117449,0.0316875823279397,0.581570000000283,
-0.00866701000976572,-0.03064578125,-0.051188031494144,0.0602867774821122,0.584561000000576,
-0.020638018310547,-0.0689530078125,-0.0176692082519558,0.0741123876718875,0.587598000000071,
0.0511880314941405,0.0124498486328125,-0.00569819995117449,0.0529875719570979,0.590597000000344,
-0.0158496149902345,0.00287304199218748,-0.0440054265136745,0.0468608816421324,0.593542000000525,
-0.00387860668945322,0.017238251953125,0.0134554133300764,0.0222092113352565,0.596666000000369,
-0.0182438166503907,0.0220266552734375,0.0541568415527323,0.0612451947133461,0.599603999999999,
-0.0373974299316407,-0.0426167895507813,0.00148440502929503,0.0567182684449953,0.602705000000242,
-0.0158496149902345,-0.040222587890625,0.0230322199707,0.048985202140406,0.60567600000013,
-0.0230322199707032,0.017238251953125,-0.0631590397949235,0.0694024840693401,0.60863800000061,
0.0344286198730468,-0.0138863696289063,-0.0463996281738304,0.0594229469355322,0.611660999999913,
0.036822821533203,-0.03064578125,0.0230322199707,0.0531560650431133,0.614638000000014,
-0.0326090266113282,0.0244208569335937,-0.00569819995117449,0.0411363142806077,0.617694999999912,
0.0104866032714843,-0.0162805712890625,0.0565510432128882,0.059774964141668,0.620664000000033,
0.0224576115722656,-0.00670376464843752,0.0493684382324187,0.0546491305649096,0.623610999999983,
0.00330399829101552,0.0100556469726562,0.0373974299316373,0.0388664406170342,0.626713000000564,
0.000909796630859272,-0.00430956298828127,0.00866701000976278,0.00972199185192082,0.629683000000114,
0.00569819995117177,-0.021068974609375,0.0350032282714814,0.0412504201578536,0.632768000000397,
-0.0134554133300782,-0.0258573779296875,0.0565510432128882,0.0636213221314041,0.63574299999982,
-0.00866701000976572,0.045968671875,0.078098858154295,0.091036627252252,0.638726000000133,
-0.00627280834960947,0.00047884033203123,0.0493684382324187,0.0497676612486728,0.64177699999982,
-0.011061211669922,-0.0186747729492188,0.00866701000976278,0.0233712346875602,0.644749000000047,
0.00569819995117177,-0.0138863696289063,-0.000909796630862658,0.0150375687550772,0.647832000000562,
0.0224576115722656,-0.0258573779296875,0.0302148249511696,0.0456714786027261,0.650834000000032,
-0.0350032282714844,-0.059376201171875,0.0278206232910136,0.0743286373837777,0.653849000000264,
-0.030214824951172,-0.00191536132812502,-0.0607648381347676,0.0678893939389044,0.656938000000082,
0.000909796630859272,-0.00191536132812502,-0.0392170231933626,0.0392743077224226,0.659932000000481,
-0.00627280834960947,0.0316034619140625,-0.00569819995117449,0.0327199696244983,0.66301999999996,
-0.00387860668945322,-0.0258573779296875,0.0158496149902323,0.0305754456809506,0.665979000000334,
-0.0158496149902345,-0.0354341845703125,-0.0416112248535185,0.0569059378739312,0.669026000000486,
-0.011061211669922,-0.0330399829101563,0.0709162531738254,0.0790133269678245,0.672077000000172,
-0.0326090266113282,0.0411802685546875,-0.0080924016113304,0.0531474373663825,0.675021000000015,
-0.00627280834960947,-0.0162805712890625,0.0421858332519509,0.045651392675915,0.678075000000717,
0.00809240161132801,-0.01149216796875,0.0206380183105441,0.0249696753732872,0.681081000000631,
-0.0254264216308595,-0.0186747729492188,0.00387860668945095,0.0317851168238621,0.68414600000051,
0.0416112248535155,0.0244208569335937,-0.000909796630862658,0.0482566059425071,0.687146000000212,
-0.0182438166503907,0.00766144531249998,0.0373974299316373,0.0423096012240865,0.690118000000439,
0.0224576115722656,-0.0665588061523438,0.00627280834960686,0.0705249396919056,0.69318900000053,
0.0296402165527343,0.0100556469726562,-0.0416112248535185,0.052068728687589,0.696183000000019,
0.0200634099121093,-0.0330399829101563,-0.0104866032714863,0.040051838112355,0.699242000000595,
-0.00387860668945322,-0.00909796630859377,0.0182438166503882,0.0207521908910062,0.70225500000015,
0.0176692082519531,-0.03064578125,0.0206380183105441,0.04095476319624,0.705302000000302,
-0.0254264216308595,-0.04979939453125,0.0469742365722627,0.0730278132917606,0.708376000000499,
-0.00866701000976572,0.0148440502929687,-0.0272460148925813,0.032215030950417,0.711365000000114,
-0.0254264216308595,0.0292092602539062,0.0254264216308577,0.0463269545565086,0.714445000000524,
-0.00866701000976572,-0.0330399829101563,0.0469742365722627,0.058080430738414,0.717403000000559,
-0.0254264216308595,-0.0138863696289063,-0.0176692082519558,0.0339342761624855,0.720313000000715,
0.0104866032714843,-0.0234631762695313,0.0469742365722627,0.0535450127497931,0.723415999999816,
-0.0182438166503907,-0.0186747729492188,-0.0080924016113304,0.0273325987516191,0.726402000000235,
0.0104866032714843,0.0220266552734375,-0.0463996281738304,0.0524220171815056,0.729479999999967,
-0.0278206232910157,-0.00909796630859377,-0.0679474431152371,0.0739838840366691,0.732391000000462,
0.00569819995117177,-0.0354341845703125,-0.0128808049316422,0.038130906814991,0.735376000000542,
-0.0445800349121095,-0.00191536132812502,0.0493684382324187,0.0665454041635507,0.738412000000608,
-0.00627280834960947,0.0100556469726562,-0.0128808049316422,0.0175036937906443,0.741353000000345,
-0.0230322199707032,0.00047884033203123,-0.0463996281738304,0.051803840972578,0.74444399999993,
-0.00387860668945322,0.0220266552734375,0.0493684382324187,0.0541983378517687,0.747420000000602,
-0.0278206232910157,-0.03064578125,-0.0176692082519558,0.0450039099298543,0.750347000000147,
0.000909796630859272,-0.0138863696289063,-0.0152750065917999,0.0206636109564535,0.753380000000107,
-0.0134554133300782,0.017238251953125,0.0206380183105441,0.0300688090563796,0.75636300000042,
0.0152750065917968,-0.0689530078125,-0.000909796630862658,0.0706305234489994,0.759436000000278,
0.0104866032714843,-0.0186747729492188,0.0685220515136695,0.0717912775796639,0.762397999999848,
-0.0421858332519532,-0.00430956298828127,0.0326090266113255,0.0534936022048404,0.765385000000606,
-0.00387860668945322,0.0148440502929687,0.0158496149902323,0.0220590052878695,0.768421000000671,
0.00569819995117177,-0.03064578125,0.0421858332519509,0.0524526254659173,0.771450000000186,
0.0344286198730468,-0.0521935961914063,0.0804930598144509,0.101924648775687,0.774527999999918,
-0.0158496149902345,-0.0186747729492188,-0.034428619873049,0.0422526603470887,0.777464000000691,
0.000909796630859272,-0.0162805712890625,-0.000909796630862658,0.0163313337274486,0.780477000000246,
0.0224576115722656,-0.0186747729492188,0.00627280834960686,0.0298737273674801,0.783441999999923,
0.00330399829101552,0.0411802685546875,0.0493684382324187,0.064373702833155,0.786474999999882,
0.00569819995117177,-0.00191536132812502,-0.0152750065917999,0.0164153561667221,0.78954800000065,
-0.020638018310547,0.02681505859375,-0.0679474431152371,0.0759067203419507,0.792551000000458,
-0.0373974299316407,0.0411802685546875,-0.0152750065917999,0.0576862904866285,0.795643000000382,
0.000909796630859272,0.02681505859375,0.039791631591795,0.0479921768836641,0.798719000000347,
-0.00866701000976572,-0.00670376464843752,-0.00330399829101857,0.0114443841109111,0.801691000000574,
0.00330399829101552,-0.00909796630859377,0.0302148249511696,0.0317273547981731,0.804791000000478,
-0.00627280834960947,0.00526724365234373,0.00387860668945095,0.00906286765519277,0.807800999999927,
-0.020638018310547,-0.0186747729492188,-0.000909796630862658,0.0278478486494177,0.810958000000028,
-0.011061211669922,-0.021068974609375,0.0685220515136695,0.0725363608015958,0.813912000000528,
-0.0134554133300782,-0.0354341845703125,-0.0272460148925813,0.0466794913379846,0.816867999999886,
0.0104866032714843,-0.00430956298828127,0.0134554133300764,0.0175951507298649,0.819961000000148,
-0.0373974299316407,-0.0282515795898438,0.0445800349121068,0.0646846119844428,0.822946000000229,
-0.0373974299316407,-0.0186747729492188,0.00866701000976278,0.0426899516596842,0.8260250000003,
0.0200634099121093,-0.0162805712890625,0.0421858332519509,0.0494696062846773,0.828974000000017,
-0.0230322199707032,-0.021068974609375,0.0469742365722627,0.056400033239496,0.831903000000239,
0.0200634099121093,-0.021068974609375,-0.051188031494144,0.0588783209393516,0.834957000000031,
-0.0326090266113282,-0.0426167895507813,0.0661278498535136,0.0851612112079363,0.837921000000279,
0.00569819995117177,-0.0138863696289063,-0.0272460148925813,0.0311070100086927,0.840957000000344,
0.0248518132324218,-0.0354341845703125,-0.0128808049316422,0.045156496684189,0.844001000000389,
-0.0182438166503907,0.0100556469726562,0.0445800349121068,0.049207036029174,0.84697099999994,
0.00330399829101552,-0.0545877978515625,-0.0224576115722677,0.0591192726318663,0.850123000000167,
0.00330399829101552,-0.00191536132812502,-0.0463996281738304,0.0465565302443602,0.85308299999997,
0.0200634099121093,0.00766144531249998,0.0685220515136695,0.0718088414139912,0.856203000000278,
0.0200634099121093,-0.00191536132812502,0.00866701000976278,0.0219391451252762,0.859201000000212,
0.000909796630859272,-0.03064578125,-0.00330399829101857,0.0308367968997986,0.862241000000722,
-0.011061211669922,-0.0186747729492188,0.00148440502929503,0.0217554822194933,0.865258000000722,
0.0272460148925781,-0.0258573779296875,0.00866701000976278,0.038549531559211,0.868238000000019,
0.0128808049316406,-0.0330399829101563,0.0661278498535136,0.0750363120938072,0.871302000000469,
-0.0182438166503907,0.0124498486328125,0.0565510432128882,0.0607112515553663,0.874286000000211,
-0.0230322199707032,0.0196324536132812,0.0134554133300764,0.0331204550020029,0.877368999999817,
-0.0182438166503907,0.0100556469726562,0.0134554133300764,0.0247992142999524,0.880326000000423,
-0.0230322199707032,-0.00670376464843752,0.0326090266113255,0.0404817518615318,0.883303999999953,
0.00330399829101552,-0.0234631762695313,0.0158496149902323,0.0285069700371808,0.886414999999943,
-0.0230322199707032,0.00287304199218748,-0.00330399829101857,0.0234446994387812,0.88941000000068,
0.0104866032714843,0.0100556469726562,-0.000909796630862658,0.0145572186258819,0.892460000000028,
0.0248518132324218,-0.00191536132812502,-0.051188031494144,0.056934135614778,0.895419999999831,
-0.030214824951172,-0.01149216796875,0.0158496149902323,0.0360029980250329,0.898383000000649,
0.00569819995117177,-0.0450109912109375,0.0373974299316373,0.0587964844014194,0.901453999999831,
-0.00148440502929698,-0.0258573779296875,0.0852814631347627,0.0891276354791015,0.904379999999946,
-0.011061211669922,-0.0378283862304688,0.0421858332519509,0.0577319819127123,0.907490000000507,
-0.0182438166503907,-0.0258573779296875,0.0469742365722627,0.056639383302775,0.910478000000694,
-0.00387860668945322,-0.00909796630859377,0.00866701000976278,0.0131504236932924,0.913432000000284,
-0.0182438166503907,-0.0162805712890625,-0.0128808049316422,0.0276370943327684,0.916495000000396,
-0.00627280834960947,0.0196324536132812,-0.0248518132324236,0.0322861267483084,0.919472999999925,
-0.030214824951172,0.0148440502929687,-0.0392170231933626,0.0516841985918219,0.922510000000329,
0.0248518132324218,0.02681505859375,-0.0248518132324236,0.0442071556341808,0.925500000000284,
-0.0350032282714844,0.00766144531249998,0.0589452448730441,0.0689816325324735,0.928515999999945,
0.0104866032714843,-0.0162805712890625,-0.0224576115722677,0.0296541762185801,0.931610000000546,
-0.00148440502929698,-0.03064578125,0.0158496149902323,0.03453371775602,0.934635999999955,
-0.039791631591797,-0.0545877978515625,0.0302148249511696,0.0740009274661485,0.93773500000043,
-0.0254264216308595,-0.0354341845703125,0.0421858332519509,0.0606772517528161,0.940722000000278,
0.0176692082519531,-0.00430956298828127,0.0254264216308577,0.0312614166401812,0.943701000000146,
-0.00148440502929698,-0.021068974609375,-0.0200634099121118,0.0291315218737867,0.946746999999959,
-0.0182438166503907,-0.0282515795898438,-0.0200634099121118,0.039160298933943,0.949709000000439,
-0.00148440502929698,-0.0162805712890625,-0.0248518132324236,0.0297468163124815,0.952815999999984,
0.0272460148925781,-0.0282515795898438,0.00866701000976278,0.0401947028768368,0.955780000000232,
-0.0182438166503907,0.0148440502929687,-0.0104866032714863,0.025751728548717,0.958803999999873,
0.0272460148925781,-0.0186747729492188,-0.0368228215332049,0.0494672887663931,0.961814000000231,
-0.00627280834960947,-0.0138863696289063,0.0206380183105441,0.0256535998613819,0.96483200000057,
-0.0230322199707032,-0.0234631762695313,0.0565510432128882,0.0654142513975349,0.96787200000017,
-0.00148440502929698,0.00766144531249998,0.00627280834960686,0.0100124585970843,0.970843000000059,
0.00809240161132801,-0.0186747729492188,0.0421858332519509,0.0468388581810584,0.973863000000165,
-0.011061211669922,0.0411802685546875,0.0134554133300764,0.0447125605364555,0.976880000000165,
-0.030214824951172,0.0148440502929687,0.00627280834960686,0.0342436797164243,0.979828000000452,
0.00569819995117177,-0.0330399829101563,0.00866701000976278,0.0346298572895743,0.982950999999957,
0.00330399829101552,-0.021068974609375,-0.0368228215332049,0.0425527705497983,0.985985000000255,
-0.030214824951172,-0.021068974609375,0.00627280834960686,0.0373655651972689,0.989057000000685,
-0.0230322199707032,0.00047884033203123,-0.0176692082519558,0.0290329703112414,0.99206200000026,
0.000909796630859272,0.0100556469726562,-0.0224576115722677,0.0246229178506339,0.995042999999896,
-0.00148440502929698,-0.00191536132812502,0.0206380183105441,0.0207797946836496,0.998120000000199,
0.000909796630859272,-0.00430956298828127,-0.0080924016113304,0.00921341559350003,1.00107000000025,
-0.0350032282714844,-0.0138863696289063,0.00387860668945095,0.0378563183728649,1.0041540000002,
0.00330399829101552,-0.0162805712890625,0.0134554133300764,0.0213780624493539,1.00719000000026,
0.00330399829101552,0.0100556469726562,0.0230322199707,0.0253478913822124,1.01017400000001,
-0.0254264216308595,0.0100556469726562,0.0541568415527323,0.0606678039816563,1.0132220000005,
0.0128808049316406,0.00526724365234373,0.0373974299316373,0.0399027161590769,1.01622899999984,
-0.00866701000976572,0.0100556469726562,0.0110612116699187,0.0172795689227138,1.01929199999995,
-0.0134554133300782,0.00047884033203123,0.00148440502929503,0.0135455119592366,1.02223800000047,
-0.0326090266113282,-0.00909796630859377,0.0230322199707,0.0409463644817135,1.02521700000034,
0.036822821533203,-0.00430956298828127,0.0900698664550763,0.0974016086214769,1.0283100000006,
0.000909796630859272,-0.01149216796875,-0.0272460148925813,0.0295845057768124,1.03127800000038,
