X,Y,Z,Magnitude,Seconds,
-0.0520020600585938,-0.00497993945312492,-0.0188184250488259,0.0555260944836989,0.0,
0.000670376464843747,0.00220266552734383,0.00991199487304861,0.0101758922160815,0.00385099999948579,
0.00306457812499999,0.0213562788085938,0.02188300317383,0.0307302475021024,0.00770499999998719,
-0.0328484467773437,-0.0289219560546874,-0.0427604416503886,0.0611878694501577,0.0114690000000337,
0.012641384765625,-0.00258573779296867,0.0147003981933604,0.0195599681945017,0.0152570000000196,
-0.025665841796875,0.00459686718750008,0.115256867919923,0.118169421703723,0.0191740000000209,
0.0437660063476563,-0.062440779296875,0.0266714064941418,0.0807816696732612,0.0229719999997542,
-0.0687614716796875,-0.00737414111328116,0.02188300317383,0.0725353966875546,0.0267109999995228,
0.0102471831054687,-0.00019153613281242,-0.0403662399902327,0.0416470260479213,0.0304319999995641,
-0.0017238251953125,-0.00258573779296867,-0.0236068283691395,0.0238105010213559,0.0341529999996055,
-0.05439626171875,-0.00737414111328116,0.0170945998535164,0.0574939700341277,0.0378609999997934,
-0.0017238251953125,0.0189620771484376,-0.0499430466308581,0.0534494139337314,0.0416660000000775,
0.00785298144531249,-0.0121625444335937,-0.00924161840820226,0.0171756896654075,0.045404999999846,
-0.0113006318359375,-0.0169509477539062,-0.0283952316894514,0.0349475048085651,0.0490959999997358,
-0.025665841796875,-0.0193451494140624,-0.0116358200683582,0.0341813187232122,0.05279900000005,
-0.01608903515625,0.00459686718750008,-0.0140300217285141,0.0218364317117321,0.0567110000001776,
-0.00890643017578124,-0.0289219560546874,-0.0499430466308581,0.0583961638061731,0.0605839999998352,
-0.05439626171875,0.0237504804687501,-0.0379720383300768,0.0704621480400083,0.0643579999996291,
-0.0113006318359375,0.0165678754882813,0.0147003981933604,0.0248656486971475,0.0682550000001356,
0.00306457812499999,-0.0265277543945311,0.0170945998535164,0.0317070770720455,0.0720240000000558,
-0.0232716401367187,0.0237504804687501,0.0170945998535164,0.0373882321232398,0.0758299999997689,
-0.0136948334960937,0.00938527050781257,-0.0403662399902327,0.0436470514232016,0.079635999999482,
0.00306457812499999,-0.0145567460937499,0.000335188232423178,0.0148796117917534,0.0833999999995285,
0.000670376464843747,-0.0193451494140624,0.0506134230957045,0.0541885855870202,0.0871609999994689,
0.00306457812499999,0.0117794721679688,-0.0571256516113259,0.0584079418885716,0.091019999999844,
-0.063973068359375,-0.0313161577148436,0.0075177932128927,0.0716224296161896,0.0948069999994914,
-0.00411802685546875,-0.0169509477539062,0.00991199487304861,0.0200634099121102,0.0985259999997652,
0.00545877978515624,-0.00737414111328116,-0.00924161840820226,0.0130224323651243,0.102276999999958,
0.0270065947265625,-0.00976834277343741,0.0673728347167977,0.0732384839892327,0.106030999999348,
-0.0113006318359375,0.00220266552734383,0.0482192214355486,0.0495746843778881,0.109767999999349,
-0.0280600434570312,0.00699106884765632,0.0386424147949231,0.0482646589506861,0.113572000000204,
0.00785298144531249,0.00938527050781257,0.0386424147949231,0.0405337987520061,0.117335999999341,
-0.025665841796875,-0.0121625444335937,0.0410366164550791,0.0499065808518538,0.121022999999695,
-0.0232716401367187,0.00220266552734383,0.0123061965332045,0.0264171051251295,0.124804999999469,
0.00545877978515624,0.00220266552734383,0.0362482131347672,0.0367230577108128,0.128811999999925,
0.0102471831054687,-0.00737414111328116,0.0170945998535164,0.0212510720413684,0.132643999999345,
0.0341891997070313,-0.0456813676757812,-0.0379720383300768,0.0685387804405506,0.136467999999695,
-0.0208774384765625,0.0213562788085938,0.019488801513674,0.0356619049734086,0.14040599999953,
-0.0400310517578125,0.00220266552734383,0.0266714064941418,0.048152889473403,0.144248999999945,
0.0629196196289062,0.00938527050781257,-0.0379720383300768,0.0740866893017354,0.148130999999921,
-0.0520020600585938,-0.0313161577148436,-0.00205901342773274,0.0607384188191801,0.151944999999614,
-0.0304542451171875,0.0644519086914063,-0.0475488449707022,0.085687818490559,0.155772999999499,
0.122774661132812,-0.0217393510742186,-0.01642422338867,0.125761567719737,0.159591999999975,
-0.126222311523438,-0.0648349809570312,-0.0188184250488259,0.143142515708425,0.163457999999991,
-0.133404916503906,0.0476924970703125,-0.0236068283691395,0.14362704609462,0.167262999999366,
0.268820962402344,-0.0265277543945311,0.0123061965332045,0.270406867614809,0.171042999999372,
-0.178894748046875,0.0141736738281251,-0.0116358200683582,0.179832189046356,0.174817999999505,
-0.0184832368164062,-0.0480755693359375,-0.0355778366699209,0.0625993040879645,0.17855899999995,
0.13713987109375,0.033327287109375,0.00272938989257909,0.141157719869892,0.182319999999891,
-0.073549875,0.0452982954101563,-0.0403662399902327,0.0953464892407186,0.186036000000058,
0.012641384765625,-0.0720175859375,-0.114586491455077,0.135927926921005,0.189873999999691,
0.0653138212890625,0.0405098920898438,0.0266714064941418,0.0813529995322,0.193631000000096,
-0.0855208833007812,0.0500866987304688,-0.0690966599121072,0.120817412988658,0.19747499999994,
-0.0280600434570312,-0.00737414111328116,-0.0786734665527327,0.0838525988589084,0.201417999999649,
0.122774661132812,-0.0600465776367187,0.0075177932128927,0.136878508601428,0.205200999999761,
-0.133404916503906,-0.00258573779296867,0.00272938989257909,0.13345788607847,0.208985999999641,
-0.0591846650390625,0.04290409375,-0.00924161840820226,0.0736817029329374,0.212864000000081,
0.113197854492187,0.0117794721679688,0.0242772048339859,0.116369639084865,0.216717999999673,
-0.0400310517578125,-0.117507417480469,0.000335188232423178,0.124139399945855,0.220542000000023,
-0.126222311523438,-0.00258573779296867,-0.0236068283691395,0.128436911796818,0.224293999999645,
0.0581312163085937,0.105153336914062,0.0386424147949231,0.126212910571232,0.228095999999823,
0.0437660063476563,-0.107930610839844,0.0290656081542977,0.120038700614694,0.231902999999875,
-0.0783382783203125,-0.0959596025390624,0.0554018264160163,0.135700013043021,0.235727999999654,
-0.025665841796875,0.107547538574219,-0.00445321508788865,0.11065730709327,0.239472000000205,
-0.05439626171875,0.0764229169921876,0.0290656081542977,0.0982050156964945,0.243230999999469,
0.0533428129882813,-0.136661030761719,0.0123061965332045,0.147217986331399,0.24697500000002,
-0.0400310517578125,0.0213562788085938,-0.0571256516113259,0.0729514620923093,0.250697999999829,
-0.0208774384765625,0.121912748535156,0.0170945998535164,0.124863169256954,0.254444999999578,
-0.00890643017578124,-0.0863827958984374,-0.0571256516113259,0.103945427978944,0.258140999999341,
0.00785298144531249,-0.0384987626953125,-0.0188184250488259,0.0435655502429234,0.261972999999671,
-0.0591846650390625,0.0668461103515625,0.019488801513674,0.0913840272113168,0.265717999999652,
-0.00890643017578124,-0.0696233842773437,0.000335188232423178,0.0701915414267125,0.269655999999486,
0.0174297880859375,0.00938527050781257,-0.0260010300292954,0.0326792652581087,0.273537000000033,
-0.0184832368164062,0.00699106884765632,0.0601902297363299,0.0633511550214848,0.277318999999807,
-0.006512228515625,-0.00258573779296867,-0.0427604416503886,0.043330711167831,0.281071999999767,
0.0270065947265625,0.00459686718750008,-0.0212126267089836,0.0346476965837412,0.284915999999612,
0.0198239897460938,0.0117794721679688,-0.0355778366699209,0.0423972758101361,0.288770000000113,
-0.0998860932617188,-0.00737414111328116,0.0673728347167977,0.120709189550855,0.29256499999974,
-0.0352426484375,0.00699106884765632,0.239755354248048,0.242432566300671,0.296328999999787,
0.228119534179688,-0.807037495605469,-2.03234202124023,2.19858184575565,0.300089999999727,
-0.478169955566406,1.80024811230469,1.07293753198242,2.14958943051912,0.303774999999405,
0.390925247070313,1.23761072216797,-1.96051597143555,2.35119665759289,0.306737999999314,
0.350223818847656,-1.78387177294922,1.1016679519043,2.12568283190749,0.309680999999728,
-0.221990377929687,-1.87006303271484,0.486358125244141,1.94498321334941,0.312702999999601,
-0.74392633984375,-0.893228755371094,-1.17282362524414,1.65130229348412,0.315625999999611,
0.467539700195313,3.90714557324219,-0.442592118896483,3.95983177489575,0.318670999999995,
0.321493398925781,2.66216070996094,2.24130794213867,3.49484176218416,0.321640000000116,
0.218542727539063,-2.5619873125,0.524665351806641,2.62427392711919,0.32458299999962,
0.106015249511719,-4.54678048876953,-2.4393563034668,5.16090217127272,0.32761599999958,
-1.12221020214844,1.34056139355469,0.958015852294924,1.9935533504132,0.330573999999615,
-0.025665841796875,3.03326196728516,0.376224848876955,3.05661283687127,0.33360999999968,
0.857794570800781,0.0548751020507813,-0.296545817626951,0.909264661400858,0.336580999999569,
0.477116506835938,-0.921959175292969,0.280456782470704,1.07531618086777,0.339552999999796,
-0.487746762207031,-1.08955329150391,-0.480899345458983,1.28696832110713,0.342595999999503,
-1.04320154736328,-0.514944893066406,0.0649786330566418,1.16518665203058,0.345543999999791,
0.218542727539063,1.34295559521484,-0.0427604416503886,1.36129317556844,0.348597000000154,
0.977504653808594,1.17057307568359,0.414532075439455,1.58037764958283,0.351584000000003,
0.309522390625,-0.969843208496094,0.13680468286133,1.02718814275526,0.354545999999573,
-0.880395834472656,-1.05603446826172,-0.559908000244139,1.48452099757835,0.357554999999593,
-0.822934994628906,0.222469218261719,0.170323506103516,0.869324252043076,0.360502999999881,
0.809910537597656,0.581599467285156,0.160746699462893,1.00997649509596,0.363553999999567,
0.735690286132813,0.63666610546875,0.141593086181642,0.983174719476333,0.366548999999395,
-0.468593148925781,-0.297072541992187,0.0242772048339859,0.555356657563796,0.369651999999405,
-0.28423962109375,-0.833373713867188,-0.210354557861328,0.905291637638028,0.372663000000102,
0.139534072753906,0.63666610546875,0.139198884521486,0.66647566854617,0.375731000000087,
0.240090542480469,0.746799381835938,0.146381489501955,0.797985166383383,0.378802000000178,
0.161081887695313,-0.294678340332031,-0.164864726318358,0.374116394706718,0.381746000000021,
-0.0998860932617188,-0.491002876464844,-0.0116358200683582,0.501195020558368,0.384728999999425,
-0.24593239453125,-0.232429097167969,0.0458250197753927,0.3414761489879,0.387673000000177,
-0.186077353027344,0.21528661328125,-0.0379720383300768,0.287080098339669,0.39064099999996,
0.13713987109375,0.327814091308594,-0.00205901342773274,0.355350055917239,0.393678999999793,
0.321493398925781,-0.0217393510742186,0.0554018264160163,0.326955604491206,0.396630000000187,
-0.0520020600585938,-0.253976912109375,-0.0619140549316395,0.266536744808345,0.399641999999403,
-0.339306259277344,-0.136661030761719,-0.0882502731933581,0.376288566970007,0.402562999999645,
-0.025665841796875,0.208104008300781,0.00272938989257909,0.209698505657955,0.405544000000191,
0.247273147460938,0.186556193359375,0.057796028076174,0.31509935512051,0.408614999999372,
0.108409451171875,-0.0361045610351562,-0.00924161840820226,0.114636625655727,0.411567999999534,
-0.128616513183594,-0.139055232421875,-0.0571256516113259,0.197843132808359,0.414584000000104,
-0.109462899902344,-0.00497993945312492,-0.0690966599121072,0.129542559272992,0.417493999999351,
0.0844674345703125,0.107547538574219,0.115256867919923,0.178844530693487,0.420465000000149,
0.0772848295898438,0.0381156904296875,0.0075177932128927,0.0865001037944741,0.423509999999624,
0.0198239897460938,-0.0576523759765625,-0.00924161840820226,0.0616619374979328,0.426443999999719,
-0.09270348828125,0.0141736738281251,-0.0260010300292954,0.0973184634685642,0.42947599999934,
-0.138193319824219,-0.0169509477539062,0.0266714064941418,0.141760686363216,0.432415999999648,
-0.00890643017578124,0.00459686718750008,-0.00205901342773274,0.0102320683496136,0.435339999999997,
0.0820732329101563,0.00459686718750008,-0.0116358200683582,0.0830213168826385,0.438392999999451,
-0.0208774384765625,-0.00258573779296867,0.0123061965332045,0.0243720321350209,0.441334999999526,
-0.128616513183594,0.0213562788085938,-0.0595198532714836,0.143321006979141,0.444354000000203,
-0.063973068359375,0.0548751020507813,-0.00924161840820226,0.0847893732209394,0.447301000000152,
0.0270065947265625,0.0237504804687501,-0.0403662399902327,0.0540636181934796,0.450251000000208,
0.0270065947265625,0.0165678754882813,-0.0283952316894514,0.0425457382074587,0.453286999999364,
0.012641384765625,-0.00258573779296867,-0.0236068283691395,0.0269030294646639,0.456233999999313,
-0.0711556733398437,-0.00737414111328116,-0.00684741674804457,0.0718637246580396,0.459232000000156,
-0.0615788666992187,0.00220266552734383,-0.0260010300292954,0.0668794596417302,0.462174999999661,
0.0341891997070313,0.0237504804687501,0.00272938989257909,0.0417185362673411,0.465231000000131,
0.0270065947265625,0.0141736738281251,0.0314598098144554,0.0438174488311743,0.468191999999362,
-0.00890643017578124,0.033327287109375,0.00512359155273501,0.0348752599265732,0.471121999999923,
-0.00411802685546875,-0.0480755693359375,-0.0212126267089836,0.052708576570152,0.474127999999837,
-0.00411802685546875,-0.00737414111328116,0.0697670363769554,0.070276421843776,0.4770639999997,
0.012641384765625,-0.00737414111328116,-0.00205901342773274,0.0147791103333977,0.480061999999634,
-0.0304542451171875,0.00220266552734383,-0.01642422338867,0.0346708507972334,0.483024999999543,
-0.0472136567382813,0.00459686718750008,0.000335188232423178,0.0474380956794317,0.485975999999937,
0.0102471831054687,-0.0193451494140624,-0.0307894333496073,0.0377786814677181,0.489004000000023,
-0.00411802685546875,0.0261446821289063,0.0721612380371113,0.0768618684644899,0.49197599999934,
-0.0496078583984375,0.107547538574219,-0.0403662399902327,0.125127319156136,0.495003999999426,
0.0270065947265625,0.0979707319335938,-0.0714908615722649,0.124252017137243,0.497972000000118,
-0.006512228515625,-0.136661030761719,0.0314598098144554,0.140386488248182,0.500907999999981,
-0.157346933105469,-0.134266829101562,0.0625844313964858,0.216107495954922,0.503928999999516,
-0.0711556733398437,0.279930058105469,-0.0762792648925767,0.298734821425172,0.506956999999602,
0.218542727539063,0.114730143554687,0.0625844313964858,0.25463845085437,0.510099999999511,
0.247273147460938,-0.256371113769531,0.0769496413574231,0.364405549814632,0.513149999999769,
-0.4183149140625,-0.0744117875976562,-0.0954328781738258,0.435467468012406,0.516117999999551,
-0.236355587890625,0.13867216015625,0.00991199487304861,0.274211924561801,0.519163999999364,
0.400502053710938,0.0405098920898438,0.0625844313964858,0.407381587012755,0.522127999999611,
0.110803652832031,0.0500866987304688,-0.0188184250488259,0.123045763811504,0.525163999999677,
-0.231567184570313,-0.0839885942382812,-0.01642422338867,0.246874867181463,0.528115000000071,
-0.159741134765625,-0.107930610839844,-0.0786734665527327,0.208220463047932,0.531017999999676,
0.0533428129882813,0.0548751020507813,0.000335188232423178,0.0765300259619554,0.534068999999363,
0.13713987109375,0.102759135253906,0.057796028076174,0.180851223338751,0.53704899999957,
-0.006512228515625,-0.0408929643554687,0.0458250197753927,0.061762254585082,0.540051999999378,
-0.083126681640625,-0.043287166015625,-0.052337248291014,0.107345291004875,0.542997999999898,
-0.0567904633789063,-0.0169509477539062,-0.0116358200683582,0.0603977124501397,0.545913999999357,
0.00785298144531249,0.0692403120117189,-0.0140300217285141,0.0710825691345155,0.548995000000104,
-0.00411802685546875,0.0309330854492188,-0.05473144995117,0.0630027422764157,0.551953999999569,
0.02221819140625,-0.0935654008789062,0.000335188232423178,0.0961677941004489,0.555003999999826,
-0.0711556733398437,-0.0289219560546874,0.0075177932128927,0.0771759457685335,0.557944999999563,
-0.044819455078125,0.0117794721679688,0.000335188232423178,0.0463427650146943,0.560975999999755,
0.0246123930664063,-0.00497993945312492,0.0362482131347672,0.0440965151103303,0.563943999999537,
-0.0113006318359375,0.0237504804687501,0.0075177932128927,0.0273551972608442,0.566886999999952,
0.00785298144531249,-0.00737414111328116,0.0242772048339859,0.0265599312742016,0.569924999999785,
-0.0520020600585938,-0.0456813676757812,-0.033183635009765,0.076760375425924,0.572844999999688,
-0.0376368500976562,-0.00497993945312492,0.00512359155273501,0.0383090520977679,0.575858999999582,
0.0174297880859375,0.00459686718750008,-0.0212126267089836,0.02783710172692,0.578854999999749,
0.0294007963867188,0.00699106884765632,-0.00445321508788865,0.0305468983110391,0.581816999999319,
-0.0017238251953125,-0.0121625444335937,-0.0283952316894514,0.0309384589645437,0.58483299999989,
-0.0424252534179688,-0.0313161577148436,-0.0355778366699209,0.0636112122484032,0.587748999999349,
0.0174297880859375,-0.0241335527343749,-0.0212126267089836,0.0365540888574483,0.590779000000111,
0.0270065947265625,0.0117794721679688,-0.0116358200683582,0.0316781380757132,0.593751999999768,
0.050948611328125,0.0165678754882813,0.0266714064941418,0.0598466324769848,0.596716000000015,
-0.0136948334960937,-0.0408929643554687,-0.0307894333496073,0.0529884157552693,0.599714999999378,
-0.0208774384765625,-0.0265277543945311,0.0386424147949231,0.0513110651978899,0.602659000000131,
-0.01608903515625,0.00938527050781257,0.0147003981933604,0.0237285073657662,0.605697999999393,
0.0653138212890625,0.0740287153320314,-0.00924161840820226,0.0991541903093024,0.608664999999746,
0.00306457812499999,0.00459686718750008,0.0290656081542977,0.0295860170418886,0.61162400000012,
-0.063973068359375,-0.0480755693359375,-0.00445321508788865,0.0801476447994999,0.61461700000018,
-0.0280600434570312,0.0237504804687501,0.0625844313964858,0.0725827969599436,0.617573999999877,
-0.00411802685546875,0.0237504804687501,-0.0427604416503886,0.0490866462270048,0.620602999999392,
0.0102471831054687,0.0357214887695313,-0.0667024582519513,0.0763560571163943,0.623572999999851,
-0.0017238251953125,-0.00497993945312492,-0.0283952316894514,0.0288801065260917,0.626486000000114,
-0.044819455078125,-0.0480755693359375,0.0147003981933604,0.06735091408079,0.629509999999755,
-0.0136948334960937,-0.0121625444335937,-0.0427604416503886,0.0465180752151372,0.632429999999658,
0.00785298144531249,0.0309330854492188,0.0913148513183604,0.0967312109108707,0.635478000000148,
-0.0232716401367187,-0.0313161577148436,0.0817380446777349,0.0905725064046109,0.638404999999693,
-0.0352426484375,-0.0121625444335937,-0.0379720383300768,0.0532151054770089,0.641302999999425,
0.00306457812499999,-0.0361045610351562,-0.00684741674804457,0.0368757112846241,0.644362000000001,
-0.0232716401367187,-0.0217393510742186,-0.0379720383300768,0.0495584938705959,0.647368999999344,
-0.025665841796875,-0.0169509477539062,-0.00205901342773274,0.0308270920002756,0.650463999999374,
0.00785298144531249,-0.0217393510742186,-0.0140300217285141,0.0270390497690124,0.653497999999672,
0.000670376464843747,-0.0289219560546874,0.00272938989257909,0.0290581918883402,0.656532999999399,
-0.0280600434570312,-0.0361045610351562,0.0290656081542977,0.0541822382680061,0.659469999999601,
0.0102471831054687,-0.0504697709960937,-0.05473144995117,0.0751514082353256,0.66240899999957,
0.02221819140625,-0.0217393510742186,-0.01642422338867,0.0351568276215848,0.665430000000015,
0.0102471831054687,0.00459686718750008,-0.0451546433105463,0.0465303961087716,0.668423000000075,
-0.025665841796875,-0.00258573779296867,0.0697670363769554,0.0743832026730472,0.671425999999883,
-0.0136948334960937,-0.00497993945312492,0.00272938989257909,0.0148255802796462,0.674363999999514,
-0.01608903515625,-0.0169509477539062,-0.0571256516113259,0.0617214043426856,0.677278999999544,
0.00545877978515624,-0.00019153613281242,-0.00205901342773274,0.00583733664684391,0.680322999999589,
0.0102471831054687,0.0213562788085938,-0.00924161840820226,0.0254264216308591,0.683293999999478,
-0.0136948334960937,-0.0217393510742186,-0.0212126267089836,0.0333185140951476,0.686329999999543,
-0.0352426484375,-0.00737414111328116,-0.00924161840820226,0.037172970514214,0.689272999999957,
0.00785298144531249,-0.0408929643554687,0.00991199487304861,0.0428036387906613,0.692215000000033,
-0.0017238251953125,-0.0289219560546874,-0.0307894333496073,0.0422781305325007,0.695216999999502,
-0.0280600434570312,0.00699106884765632,-0.00445321508788865,0.0292587116439216,0.698166999999557,
-0.01608903515625,0.0165678754882813,-0.0379720383300768,0.044443528723483,0.701191000000108,
-0.0352426484375,0.00938527050781257,0.00272938989257909,0.0365729017249076,0.704154999999446,
0.00545877978515624,0.0117794721679688,0.000335188232423178,0.0129871703018763,0.70710599999984,
0.0270065947265625,0.00938527050781257,0.0147003981933604,0.0321487350960029,0.710150999999314,
0.012641384765625,-0.0145567460937499,-0.0188184250488259,0.0269413545863744,0.713074999999662,
0.00785298144531249,0.00699106884765632,-0.0307894333496073,0.0325351128352585,0.716142999999647,
-0.01608903515625,-0.00258573779296867,0.00512359155273501,0.0170819870797367,0.719083999999384,
-0.0352426484375,0.00220266552734383,0.0362482131347672,0.0506046337777291,0.722028999999566,
0.0102471831054687,0.0165678754882813,0.0147003981933604,0.0244049373454543,0.725080999999591,
-0.006512228515625,-0.00258573779296867,0.000335188232423178,0.00701480657786519,0.728005999999368,
-0.0280600434570312,-0.0169509477539062,-0.0260010300292954,0.0418420151420849,0.731006999999408,
-0.0113006318359375,-0.0145567460937499,0.0530076247558604,0.0561196170602349,0.733956999999464,
-0.00411802685546875,0.00699106884765632,0.0865264479980485,0.0869060377187571,0.73689800000011,
-0.0136948334960937,-0.0408929643554687,-0.0212126267089836,0.0480599472550486,0.7398919999996,
0.00545877978515624,0.0285388837890626,0.0075177932128927,0.0300130534844468,0.742881999999554,
-0.0352426484375,0.00699106884765632,0.0338540114746113,0.0493661159647486,0.745912999999746,
0.00785298144531249,-0.0217393510742186,0.00991199487304861,0.0251498776353265,0.748872000000119,
-0.0280600434570312,-0.00258573779296867,-0.0571256516113259,0.0636976620509972,0.75186500000018,
-0.025665841796875,-0.00497993945312492,0.0649786330566418,0.0700411163960762,0.754805999999917,
0.0102471831054687,-0.0241335527343749,0.0123061965332045,0.0289633492934383,0.757756999999401,
-0.0136948334960937,-0.0384987626953125,-0.00924161840820226,0.0418940413944339,0.760761999999886,
-0.0208774384765625,0.00699106884765632,-0.0260010300292954,0.034070457049468,0.763718000000154,
0.000670376464843747,0.00938527050781257,0.000335188232423178,0.00941515046404399,0.766752999999881,
0.0150355864257813,0.0237504804687501,0.02188300317383,0.0356233071116294,0.769725999999537,
0.0174297880859375,0.00220266552734383,0.00991199487304861,0.0201716853661111,0.77266999999938,
0.0150355864257813,-0.0576523759765625,-0.00205901342773274,0.0596163136331461,0.775681999999506,
-0.00411802685546875,-0.00258573779296867,0.0170945998535164,0.0177727186797122,0.778620000000046,
0.00545877978515624,0.0189620771484376,-0.0355778366699209,0.0406834254781686,0.781662999999753,
-0.006512228515625,0.0189620771484376,-0.0379720383300768,0.0429400184555601,0.784690999999839,
-0.00890643017578124,0.00938527050781257,-0.0236068283691395,0.026920069588151,0.78771499999948,
-0.01608903515625,-0.0384987626953125,0.00512359155273501,0.0420388269547128,0.790842999999768,
-0.00411802685546875,-0.0121625444335937,0.0075177932128927,0.0148796117917544,0.793845000000147,
-0.0352426484375,-0.0265277543945311,-0.0236068283691395,0.0500304743906731,0.796849999999722,
0.00306457812499999,-0.0145567460937499,-0.0595198532714836,0.0613506595676124,0.799794999999904,
-0.00411802685546875,0.0165678754882813,-0.0451546433105463,0.0482741592974981,0.802729999999428,
0.0294007963867188,0.04290409375,-0.0212126267089836,0.0561706651249277,0.805828999999903,
-0.0184832368164062,-0.0313161577148436,-0.0379720383300768,0.0525757308287116,0.808747000000039,
0.00545877978515624,-0.00737414111328116,0.019488801513674,0.0215404182489755,0.81179499999962,
0.00306457812499999,-0.0313161577148436,0.0314598098144554,0.0444950896916378,0.814766999999847,
0.0389776030273438,-0.0169509477539062,-0.052337248291014,0.0674223681443192,0.817686999999751,
-0.0113006318359375,0.00699106884765632,-0.0260010300292954,0.0291998781865335,0.820751999999629,
0.0198239897460938,0.0165678754882813,0.00512359155273501,0.0263388735151616,0.823726999999963,
0.00545877978515624,0.0213562788085938,-0.0260010300292954,0.0340872774488891,0.826798999999482,
0.000670376464843747,-0.00258573779296867,0.0266714064941418,0.0268048385355024,0.829775000000154,
-0.0304542451171875,0.0213562788085938,-0.00205901342773274,0.0372530700279012,0.832712999999785,
0.0341891997070313,0.0357214887695313,0.0314598098144554,0.0586058509884527,0.835767999999916,
-0.0328484467773437,0.0141736738281251,0.0506134230957045,0.0619809009529133,0.838716000000204,
-0.0280600434570312,0.0141736738281251,0.0530076247558604,0.0616284621814845,0.841755999999805,
0.0270065947265625,0.0285388837890626,0.02188300317383,0.0449743246147873,0.844725999999355,
0.00785298144531249,-0.00258573779296867,0.0147003981933604,0.0168658549904167,0.847741999999926,
0.00545877978515624,0.0117794721679688,0.0075177932128927,0.0150023816806065,0.850717999999688,
-0.0328484467773437,0.0309330854492188,-0.0379720383300768,0.0589724675253925,0.853642000000036,
-0.0208774384765625,0.0117794721679688,0.00991199487304861,0.0259397579838738,0.856695999999829,
0.012641384765625,0.00938527050781257,-0.00924161840820226,0.018256380312105,0.859660999999505,
0.0174297880859375,-0.00258573779296867,0.00272938989257909,0.0178306792310442,0.862677999999505,
-0.0136948334960937,-0.0337103593749999,-0.00445321508788865,0.0366574401492572,0.865603999999621,
-0.0208774384765625,-0.0337103593749999,0.0242772048339859,0.0464934236326559,0.868548999999803,
-0.00890643017578124,0.00220266552734383,-0.00684741674804457,0.0114482902663593,0.871577999999317,
0.000670376464843747,-0.00019153613281242,0.00272938989257909,0.00281703033006428,0.874535999999352,
-0.0376368500976562,-0.0217393510742186,-0.0260010300292954,0.0506476596990019,0.877547999999479,
-0.0136948334960937,-0.0217393510742186,0.0554018264160163,0.0610697160615985,0.880495999999766,
0.012641384765625,0.06205770703125,0.000335188232423178,0.0633330558391129,0.883464999999887,
0.0102471831054687,-0.0313161577148436,0.0170945998535164,0.0371205043038185,0.886488000000099,
0.00785298144531249,0.033327287109375,0.0530076247558604,0.0631045613716572,0.889460999999756,
0.00306457812499999,-0.0145567460937499,0.000335188232423178,0.0148796117917534,0.892487999999503,
-0.0017238251953125,0.0141736738281251,-0.00684741674804457,0.0158351419068941,0.895427999999811,
-0.0017238251953125,0.0165678754882813,-0.0188184250488259,0.0251316372888331,0.898365999999442,
-0.0232716401367187,0.0165678754882813,-0.00445321508788865,0.0289118463171609,0.901396000000204,
-0.0328484467773437,-0.00737414111328116,0.0482192214355486,0.0588089425911828,0.904330999999729,
-0.0208774384765625,-0.0121625444335937,0.0123061965332045,0.0271152613403531,0.907345999999961,
-0.0136948334960937,-0.0169509477539062,-0.00445321508788865,0.0222421720805407,0.910264000000097,
-0.025665841796875,0.00938527050781257,0.0075177932128927,0.0283431817627952,0.913206000000173,
-0.0232716401367187,0.00220266552734383,0.019488801513674,0.0304340985494506,0.916244999999435,
-0.00411802685546875,-0.0121625444335937,-0.0116358200683582,0.0173285296821372,0.919159000000036,
0.02221819140625,0.0237504804687501,-0.0283952316894514,0.0431743272623774,0.922241000000213,
-0.00890643017578124,0.00938527050781257,0.019488801513674,0.0233927592519623,0.925295000000006,
-0.01608903515625,-0.0576523759765625,-0.0307894333496073,0.0673100491308086,0.928289999999834,
0.0102471831054687,-0.0145567460937499,0.00991199487304861,0.0203752609995124,0.931415999999444,
-0.025665841796875,0.0165678754882813,-0.033183635009765,0.0451041413375613,0.93437399999948,
0.000670376464843747,-0.00497993945312492,-0.0212126267089836,0.0217996498470983,0.937391999999818,
-0.0400310517578125,-0.00497993945312492,0.0314598098144554,0.0511566665778289,0.94032900000002,
0.00306457812499999,0.0117794721679688,0.00272938989257909,0.0124738595801738,0.943373000000065,
-0.0136948334960937,0.0189620771484376,-0.00684741674804457,0.0243720321350196,0.9463310000001,
0.00306457812499999,-0.0145567460937499,-0.0116358200683582,0.0188860478815802,0.949263999999857,
-0.00890643017578124,-0.00258573779296867,-0.01642422338867,0.0188617510409556,0.952268000000004,
0.00306457812499999,-0.00737414111328116,0.0242772048339859,0.0255568439130132,0.95524099999966,
0.0341891997070313,-0.00497993945312492,-0.0260010300292954,0.0432406606812197,0.958248999999341,
0.00306457812499999,-0.00976834277343741,-0.00445321508788865,0.0111643756763464,0.961217000000033,
-0.00890643017578124,0.0261446821289063,-0.0475488449707022,0.0549887403033157,0.964164999999412,
0.000670376464843747,-0.0217393510742186,0.00512359155273501,0.0223450213723775,0.967240999999376,
-0.044819455078125,0.0189620771484376,0.0530076247558604,0.0719593788573906,0.970188999999664,
-0.0184832368164062,0.0213562788085938,0.00991199487304861,0.0299327300813857,0.973231999999371,
0.000670376464843747,-0.00737414111328116,0.0266714064941418,0.0276801605150503,0.97617899999932,
-0.0232716401367187,0.0165678754882813,-0.0260010300292954,0.0386279341336351,0.979110999999648,
-0.0184832368164062,-0.0265277543945311,-0.0116358200683582,0.0343619572360354,0.982114999999794,
-0.01608903515625,-0.0217393510742186,0.0314598098144554,0.0414870590780894,0.985045999999784,
0.012641384765625,-0.0289219560546874,-0.01642422338867,0.035581445512272,0.98806599999989,
-0.006512228515625,0.00699106884765632,-0.0140300217285141,0.0169742650378438,0.991015999999945,
0.00545877978515624,-0.0241335527343749,-0.0403662399902327,0.0473461717066411,0.993956999999682,
-0.00890643017578124,0.0357214887695313,-0.0379720383300768,0.0528887979947421,0.996999999999389,
0.000670376464843747,-0.00258573779296867,-0.0236068283691395,0.0237574786159772,0.999944000000141,
0.0294007963867188,-0.0145567460937499,0.0170945998535164,0.0369936620134185,1.0029999999997,
-0.0208774384765625,-0.00258573779296867,-0.052337248291014,0.0564069236526146,1.00592099999994,
-0.00411802685546875,-0.00019153613281242,-0.00684741674804457,0.00799261830653359,1.00884099999985,
0.00306457812499999,-0.0169509477539062,-0.05473144995117,0.0573782004126768,1.01186799999959,
0.0341891997070313,-0.00976834277343741,-0.0786734665527327,0.0863356023698832,1.01482200000009,
