X,Y,Z,Magnitude,Seconds,
-0.0424252534179688,-0.0169509477539062,0.0649786330566418,0.0794321062999353,0.0,
0.00306457812499999,-0.0241335527343749,0.0170945998535164,0.0297329001414077,0.00390300000071875,
-0.0184832368164062,-0.0169509477539062,0.0075177932128927,0.0261817090305203,0.00774900000033085,
-0.0352426484375,-0.0121625444335937,-0.0643082565917954,0.0743338659149688,0.0115840000007665,
-0.025665841796875,0.0141736738281251,-0.01642422338867,0.03360630266556,0.0155840000006719,
-0.0376368500976562,0.00459686718750008,-0.0427604416503886,0.0571499697580782,0.0194880000008197,
-0.0208774384765625,0.0309330854492188,0.0338540114746113,0.0503866778590774,0.0235390000007101,
-0.006512228515625,0.0189620771484376,0.0147003981933604,0.0248610377310838,0.0274859999999535,
0.0365834013671875,-0.00258573779296867,-0.00445321508788865,0.0369440444475929,0.0313700000006065,
-0.00411802685546875,-0.0313161577148436,0.019488801513674,0.0371143269323681,0.0352240000001984,
-0.0304542451171875,-0.0289219560546874,0.0290656081542977,0.0510759254939759,0.0392170000004626,
0.00785298144531249,0.00938527050781257,-0.0283952316894514,0.0309199256594006,0.0431790000002366,
0.0341891997070313,0.00938527050781257,0.00991199487304861,0.0368134801597924,0.0472440000003189,
-0.006512228515625,-0.00019153613281242,0.0362482131347672,0.036829047799168,0.0511700000006385,
-0.0113006318359375,0.033327287109375,-0.00924161840820226,0.036384335321192,0.0550840000005337,
-0.0113006318359375,-0.0169509477539062,0.0170945998535164,0.0265944402798574,0.0589580000005299,
0.00545877978515624,-0.0361045610351562,0.0170945998535164,0.0403182706528442,0.0627910000002885,
-0.006512228515625,0.00938527050781257,-0.0355778366699209,0.0373667617657204,0.0666120000005321,
-0.00411802685546875,0.0213562788085938,-0.0140300217285141,0.0258822390730658,0.0705880000004981,
0.012641384765625,-0.00019153613281242,-0.00684741674804457,0.0143780531020076,0.0744819999999891,
0.000670376464843747,-0.00737414111328116,0.0386424147949231,0.039345439163213,0.0783330000003843,
-0.01608903515625,-0.00258573779296867,0.0290656081542977,0.0333219547681737,0.0822090000001481,
0.00306457812499999,-0.0313161577148436,-0.0212126267089836,0.0379482398142506,0.0861979999999676,
-0.0280600434570312,-0.0408929643554687,-0.0283952316894514,0.0571479637020055,0.0901760000006107,
-0.0017238251953125,-0.0169509477539062,0.0242772048339859,0.0296595495180044,0.094122000000425,
-0.0232716401367187,-0.00258573779296867,0.0075177932128927,0.0245921225065821,0.0980720000006841,
0.0198239897460938,-0.0169509477539062,-0.0212126267089836,0.0336199454357614,0.101921000000402,
-0.0017238251953125,-0.0193451494140624,0.000335188232423178,0.0194246938278972,0.105843000000277,
-0.00890643017578124,0.0213562788085938,0.0123061965332045,0.0262079685618767,0.109818000000814,
-0.00411802685546875,-0.00019153613281242,0.0745554396972672,0.0746693271680238,0.113663000000088,
-0.0424252534179688,0.00938527050781257,0.000335188232423178,0.0434522471367689,0.117669000000205,
-0.00411802685546875,-0.00019153613281242,0.0170945998535164,0.0175846573871764,0.121732999999949,
-0.025665841796875,0.0213562788085938,0.0482192214355486,0.0586508260431435,0.12566600000082,
0.0102471831054687,-0.0313161577148436,-0.033183635009765,0.0467638763157981,0.129507999999987,
-0.00411802685546875,-0.0193451494140624,-0.0427604416503886,0.0471131438260179,0.133368000000701,
-0.0113006318359375,0.0213562788085938,0.019488801513674,0.0310420409909075,0.137258000000656,
-0.0304542451171875,-0.00737414111328116,0.00991199487304861,0.0328646716882987,0.141166000000339,
0.0102471831054687,-0.05286397265625,-0.0212126267089836,0.0578755552758886,0.145122000000811,
0.00306457812499999,-0.0121625444335937,0.0362482131347672,0.0383569039632617,0.14913500000057,
-0.0232716401367187,0.00699106884765632,-0.01642422338867,0.0293291560091071,0.15318600000046,
-0.0017238251953125,0.0285388837890626,-0.0355778366699209,0.0456423260071305,0.15714300000036,
-0.0304542451171875,-0.00497993945312492,0.0458250197753927,0.0552466585417585,0.161117000000559,
-0.0184832368164062,-0.00258573779296867,0.0266714064941418,0.0325527265758352,0.165064000000712,
-0.0424252534179688,0.0141736738281251,0.019488801513674,0.0487914802173938,0.168920000000071,
0.00545877978515624,-0.00497993945312492,0.0290656081542977,0.0299901258930135,0.172900000000482,
-0.0304542451171875,0.0476924970703125,0.0075177932128927,0.0570837326849894,0.176920000000791,
-0.0232716401367187,0.0189620771484376,0.0266714064941418,0.040155865434728,0.180833000000348,
0.00545877978515624,0.0141736738281251,-0.0451546433105463,0.0476406666518382,0.184802000000673,
0.0270065947265625,-0.00497993945312492,-0.05473144995117,0.0612346925315953,0.188721000000442,
-0.0687614716796875,-0.00497993945312492,0.00272938989257909,0.0689955748849082,0.192611000000397,
-0.0184832368164062,-0.00737414111328116,-0.00445321508788865,0.0203921338998384,0.196553000000677,
-0.0136948334960937,-0.0145567460937499,-0.0212126267089836,0.0291448598078344,0.200399000000289,
-0.0184832368164062,0.0261446821289063,-0.0451546433105463,0.0553544601575661,0.204211000000214,
-0.0113006318359375,-0.0169509477539062,-0.0283952316894514,0.0349475048085651,0.208094999999958,
-0.0184832368164062,-0.00737414111328116,0.0147003981933604,0.0247408509840162,0.211944000000585,
-0.0113006318359375,-0.00976834277343741,-0.00205901342773274,0.0150786052646243,0.21578800000043,
-0.006512228515625,-0.0145567460937499,-0.0283952316894514,0.032566810709298,0.219815000000381,
-0.0376368500976562,-0.0121625444335937,-0.033183635009765,0.0516295807152633,0.223675000000185,
-0.01608903515625,0.00459686718750008,0.0075177932128927,0.0183440850137143,0.227648000000045,
-0.025665841796875,-0.0193451494140624,-0.0714908615722649,0.0783831201811931,0.231563000000278,
-0.0113006318359375,-0.00737414111328116,0.00512359155273501,0.0144337599900111,0.235449000000699,
-0.006512228515625,-0.0121625444335937,0.00512359155273501,0.0147169221557402,0.239274000000478,
-0.0113006318359375,-0.0169509477539062,0.0721612380371113,0.0749818857104547,0.243232000000717,
-0.01608903515625,-0.0121625444335937,0.0362482131347672,0.0414815319729359,0.247313000000759,
-0.025665841796875,-0.00019153613281242,-0.0283952316894514,0.0382761192381099,0.251255000000128,
-0.0113006318359375,-0.0169509477539062,-0.0355778366699209,0.0409978215489387,0.255272000000332,
-0.0232716401367187,0.0261446821289063,0.0266714064941418,0.0440054265136726,0.259274000000005,
-0.0184832368164062,0.00938527050781257,-0.00205901342773274,0.0208315357573981,0.263237000000117,
-0.0663672700195312,0.00938527050781257,-0.0451546433105463,0.0808185600270931,0.26712100000077,
0.0174297880859375,-0.0169509477539062,-0.0188184250488259,0.0307451665110896,0.271053000000393,
0.0150355864257813,0.00938527050781257,0.0170945998535164,0.024624733619347,0.275025000000824,
-0.0376368500976562,0.0357214887695313,0.0170945998535164,0.0546331638232405,0.278925000000527,
-0.0113006318359375,0.00459686718750008,-0.05473144995117,0.0560746563216249,0.282819000000018,
0.012641384765625,-0.00737414111328116,0.0123061965332045,0.0191213241974769,0.286770000000615,
-0.0328484467773437,-0.0121625444335937,0.0123061965332045,0.0371266806474398,0.290741000000708,
-0.0017238251953125,0.0165678754882813,-0.00445321508788865,0.0172423083175712,0.294770000000426,
-0.0208774384765625,-0.00737414111328116,0.043430818115235,0.04874916775351,0.298786000000291,
0.0246123930664063,-0.00737414111328116,-0.00445321508788865,0.0260764064670128,0.302691000000777,
0.00785298144531249,-0.0337103593749999,-0.377948674072265,0.379530312201483,0.306572000000415,
-0.0903092866210938,0.200921403320313,0.96041005395508,0.985348998731015,0.310507000000143,
-0.0184832368164062,-0.00497993945312492,-1.19915984350586,1.19931261984404,0.314535000000433,
0.0940442412109375,0.40682274609375,0.227784345947267,0.475641434594196,0.317534000000705,
0.201783315917969,0.193738798339844,0.531847956787111,0.600927181698117,0.320537000000513,
-0.502111972167969,-1.05603446826172,-0.332458842529295,1.21567023189973,0.323579000000791,
0.237696340820313,-0.426359431640625,-0.521600773681639,0.714387347657815,0.32658100000026,
0.185023904296875,1.96784222851563,0.725778291259767,2.10556192251725,0.329688000000715,
-0.509294577148438,0.452312577636719,0.00512359155273501,0.681170966345145,0.332643000000644,
-0.0520020600585938,-2.09272378710938,-0.612580436767576,2.18115837455562,0.335575000000063,
0.970322048828125,-0.548463716308594,0.383407453857423,1.17870208374401,0.338685000000623,
-0.482958358886719,1.78827710400391,-0.124163298095702,1.85650216851938,0.341646000000765,
-1.24670868847656,0.332602494628906,0.132016279541016,1.29704867735185,0.344718000000285,
0.776391714355469,-0.804643293945313,0.0410366164550791,1.1188918305632,0.347700000000259,
1.228895828125,-0.328197163574219,-0.267815397705077,1.29985515416493,0.350676000000021,
-0.605062643554688,-0.208487080566406,0.357071235595704,0.732848915314973,0.353722000000744,
-1.17248843701172,0.447524174316406,-0.368371867431639,1.30793916304958,0.356701000000612,
0.149110879394531,0.562445854003906,0.0673728347167977,0.585763170485966,0.35979800000041,
1.1139741484375,-0.35932178515625,0.297216194091799,1.20763736887583,0.362755000000107,
0.173052895996094,-0.656202791015625,-0.248661784423827,0.722760050626882,0.365702000000056,
-1.00489432080078,-0.0217393510742186,-0.121769096435546,1.01247859642045,0.368762000000061,
-0.368036679199219,0.533715434082031,0.155958296142579,0.666802933368665,0.371821000000637,
0.668652639648438,0.354150309570313,0.0170945998535164,0.756842797165781,0.37491399999999,
0.472328103515625,-0.332985566894531,0.02188300317383,0.578318330125066,0.377919000000475,
-0.32254684765625,-0.58916514453125,-0.0978270798339835,0.678765183264697,0.380906000000323,
-0.55239020703125,0.227257621582031,-0.0451546433105463,0.599015783768384,0.383936000000176,
0.115592056152344,0.576811063964844,0.0506134230957045,0.590452576889327,0.386944000000767,
0.376560037109375,0.0548751020507813,0.0386424147949231,0.382494411193262,0.390055000000757,
0.125168862792969,-0.522127498046875,0.0075177932128927,0.536973822122053,0.393045000000711,
-0.140587521484375,-0.253976912109375,-0.00684741674804457,0.290372192535467,0.396133000000191,
-0.39916130078125,0.478648795898438,-0.0212126267089836,0.623605956825541,0.399184000000787,
-0.0017238251953125,0.323025687988281,0.103285859619142,0.339140878501651,0.402211000000534,
0.434020876953125,-0.3018609453125,-0.0355778366699209,0.529867846163765,0.405337000000145,
-0.01608903515625,-0.153420442382812,-0.033183635009765,0.157790502964083,0.408387000000403,
-0.391978695800781,0.284718461425781,-0.0307894333496073,0.485448132599494,0.411464000000706,
-0.157346933105469,0.260776444824219,0.0075177932128927,0.30466199097959,0.414472000000387,
0.266426760742188,-0.146237837402344,-0.00445321508788865,0.303954856931598,0.417494000000261,
0.208965920898438,-0.258765315429688,-0.00924161840820226,0.332733605271786,0.42062900000019,
-0.193259958007813,0.06205770703125,0.0386424147949231,0.206624796654082,0.423639999999978,
-0.262691806152344,0.186556193359375,0.00991199487304861,0.322348330137887,0.426712000000407,
0.0916500395507813,-0.00976834277343741,0.0697670363769554,0.115596667923529,0.429692000000614,
0.170658694335938,-0.146237837402344,0.00991199487304861,0.224962536176415,0.43268800000078,
0.0581312163085937,-0.00497993945312492,0.00512359155273501,0.0585686716331569,0.435782000000472,
-0.186077353027344,0.0500866987304688,0.0075177932128927,0.19284702723706,0.438867000000755,
-0.104674496582031,0.06205770703125,0.0649786330566418,0.137949744438284,0.441937000000507,
0.103621047851562,-0.062440779296875,-0.00445321508788865,0.121061982478712,0.444977000000108,
0.09883264453125,-0.0265277543945311,0.0673728347167977,0.12251821185454,0.447955000000547,
-0.0687614716796875,-0.0145567460937499,0.0147003981933604,0.0718062709757144,0.451053000000684,
-0.107068698242188,0.0189620771484376,0.0386424147949231,0.11539715219295,0.454050000000279,
-0.01608903515625,0.0237504804687501,-0.0355778366699209,0.0457025692589278,0.457162000000608,
0.07967903125,-0.0241335527343749,-0.0451546433105463,0.094710707953346,0.46017700000084,
-0.00890643017578124,-0.00497993945312492,-0.0595198532714836,0.0603882209449143,0.463149000000158,
-0.0663672700195312,0.0476924970703125,0.0314598098144554,0.0875723040704585,0.466225000000122,
-0.0472136567382813,-0.0193451494140624,0.00991199487304861,0.0519770317622697,0.469235000000481,
0.0150355864257813,-0.0121625444335937,-0.052337248291014,0.055795912977041,0.472291000000041,
0.00785298144531249,-0.00497993945312492,-0.00205901342773274,0.00952410892592037,0.47529300000042,
0.00545877978515624,0.0213562788085938,-0.0499430466308581,0.0545911790316466,0.478417000000263,
0.00785298144531249,-0.0121625444335937,-0.0140300217285141,0.0201603153343925,0.481431000000157,
-0.0113006318359375,0.0117794721679688,0.0123061965332045,0.0204426690420114,0.484413000000131,
-0.01608903515625,-0.00019153613281242,0.0386424147949231,0.0418584514707856,0.487481000000116,
0.00306457812499999,-0.00737414111328116,0.02188300317383,0.0232945363583108,0.490484000000833,
0.0102471831054687,-0.0408929643554687,-0.0140300217285141,0.0444306291321338,0.493530000000646,
-0.0496078583984375,0.0141736738281251,-0.0236068283691395,0.056737245177357,0.496509000000515,
0.0246123930664063,-0.0337103593749999,-0.00445321508788865,0.0419760568213109,0.49951400000009,
0.00785298144531249,-0.00019153613281242,0.0290656081542977,0.0301083971850009,0.502619000000777,
-0.0328484467773437,-0.0480755693359375,0.0458250197753927,0.0740959733053939,0.505600000000413,
-0.0280600434570312,-0.00976834277343741,-0.0307894333496073,0.0427875655458424,0.508661000000757,
-0.0136948334960937,0.0117794721679688,-0.0427604416503886,0.0464193903361297,0.511651000000711,
0.0461602080078125,0.00938527050781257,0.0314598098144554,0.0566442207060088,0.514652000000751,
0.0174297880859375,-0.043287166015625,0.0075177932128927,0.0472661979555875,0.51777200000015,
-0.0711556733398437,0.0189620771484376,-0.00445321508788865,0.0737734460551278,0.520813000000089,
-0.0280600434570312,0.04290409375,-0.00445321508788865,0.0514583173446069,0.523936000000504,
0.0820732329101563,-0.00019153613281242,0.02188300317383,0.0849406738513463,0.527037000000746,
-0.025665841796875,-0.0265277543945311,-0.0260010300292954,0.0451498698884405,0.529991000000336,
-0.135799118164062,-0.0337103593749999,-0.0451546433105463,0.147026292328384,0.533077000000048,
-0.0472136567382813,-0.0217393510742186,0.0530076247558604,0.0742397268986524,0.536068000000341,
0.13713987109375,0.0668461103515625,0.0123061965332045,0.153059430241516,0.539259000000129,
0.0341891997070313,0.0141736738281251,0.0075177932128927,0.0377665410275439,0.542296000000533,
-0.121433908203125,-0.043287166015625,0.0170945998535164,0.130046907488418,0.545266000000083,
-0.0855208833007812,-0.0552581743164062,0.0554018264160163,0.115916563439219,0.548345000000154,
0.1179862578125,0.00459686718750008,0.0458250197753927,0.126656309191261,0.551409000000604,
0.0820732329101563,0.0381156904296875,0.0625844313964858,0.110025599159823,0.554522000000361,
-0.0663672700195312,-0.00976834277343741,0.00272938989257909,0.0671378032078087,0.55748500000027,
-0.13101071484375,-0.00019153613281242,-0.0283952316894514,0.134052725718868,0.560404000000744,
0.00545877978515624,0.00938527050781257,-0.0116358200683582,0.0159145809844574,0.563516000000163,
0.115592056152344,-0.00258573779296867,0.0410366164550791,0.122687462177444,0.566514000000097,
-0.073549875,0.00699106884765632,-0.0188184250488259,0.076240358586949,0.569640000000618,
-0.128616513183594,-0.0217393510742186,-0.052337248291014,0.1405489039705,0.572644000000764,
0.070102224609375,-0.00976834277343741,0.0338540114746113,0.0784591391021196,0.575741999999991,
0.0653138212890625,0.0309330854492188,0.0123061965332045,0.0733088910017204,0.578778000000057,
-0.0136948334960937,0.0237504804687501,-0.0283952316894514,0.0394705329287537,0.581775999999991,
-0.0376368500976562,-0.0361045610351562,-0.0858560715332022,0.100455646092836,0.584854000000632,
-0.01608903515625,0.0117794721679688,0.0147003981933604,0.0247732663138787,0.587860000000546,
0.012641384765625,0.0357214887695313,0.0817380446777349,0.0900940470644077,0.590961000000789,
0.00545877978515624,0.0381156904296875,-0.0116358200683582,0.040224326499493,0.594006000000263,
-0.00411802685546875,-0.0265277543945311,-0.0355778366699209,0.044569747144341,0.596949000000677,
0.0102471831054687,0.00459686718750008,0.019488801513674,0.0224933175404586,0.600054000000455,
0.0174297880859375,-0.0217393510742186,-0.0140300217285141,0.0311967691845069,0.603072000000793,
-0.00890643017578124,-0.0480755693359375,0.0266714064941418,0.0556951415280215,0.606117000000268,
-0.0352426484375,-0.00497993945312492,-0.0260010300292954,0.0440783124498923,0.609136000000035,
-0.0208774384765625,0.033327287109375,-0.01642422338867,0.042618430488866,0.612122000000454,
0.0294007963867188,0.0285388837890626,-0.0212126267089836,0.0461394651897223,0.615217000000484,
-0.0232716401367187,-0.0504697709960937,-0.0619140549316395,0.0831992621188983,0.618170000000646,
0.000670376464843747,-0.0480755693359375,-0.033183635009765,0.058419717596377,0.621261000000231,
-0.00411802685546875,0.033327287109375,-0.0188184250488259,0.0384941467313065,0.624273000000358,
0.00306457812499999,0.0261446821289063,0.0290656081542977,0.0392140997612461,0.627258000000438,
0.02221819140625,-0.0265277543945311,0.0075177932128927,0.0354102668356671,0.630343000000721,
-0.05439626171875,-0.0217393510742186,-0.0427604416503886,0.072525912915586,0.633351000000403,
0.00306457812499999,-0.0217393510742186,0.00512359155273501,0.0225442279666352,0.636463000000731,
0.00545877978515624,-0.00737414111328116,-0.00924161840820226,0.0130224323651243,0.639460000000327,
-0.01608903515625,-0.0217393510742186,0.0314598098144554,0.0414870590780894,0.642457000000832,
0.00545877978515624,0.00459686718750008,0.0625844313964858,0.0629900033172232,0.645513000000392,
-0.00890643017578124,0.00220266552734383,0.0075177932128927,0.0118614269248363,0.64853900000071,
0.000670376464843747,0.00459686718750008,-0.0307894333496073,0.0311379157705528,0.65165800000068,
-0.01608903515625,-0.00258573779296867,0.0147003981933604,0.0219464074334819,0.654702000000725,
0.00545877978515624,0.00459686718750008,-0.0714908615722649,0.0718461742407144,0.657710000000407,
-0.01608903515625,0.0141736738281251,-0.0619140549316395,0.06552175425096,0.660825000000841,
0.0102471831054687,0.0237504804687501,-0.00445321508788865,0.0262473085994066,0.663864000000103,
0.00785298144531249,0.0141736738281251,-0.0427604416503886,0.0457276471896684,0.666989000000285,
0.0270065947265625,-0.00737414111328116,-0.00445321508788865,0.0283472263282032,0.670053000000735,
-0.0280600434570312,-0.00258573779296867,0.0649786330566418,0.0708256650703272,0.673193999999967,
0.00785298144531249,0.00699106884765632,0.0123061965332045,0.0161860073621307,0.676209000000199,
-0.0113006318359375,0.0261446821289063,0.0458250197753927,0.0539553623000354,0.679213000000345,
0.0246123930664063,0.0189620771484376,0.0601902297363299,0.067736209060965,0.682348000000275,
0.00306457812499999,-0.0313161577148436,-0.0355778366699209,0.0474960612600325,0.68538400000034,
-0.00411802685546875,-0.0145567460937499,0.0386424147949231,0.0414981110799414,0.688421000000744,
0.012641384765625,0.0405098920898438,0.0625844313964858,0.075615256523699,0.691423000000214,
-0.0136948334960937,0.00938527050781257,0.0530076247558604,0.0555467375211961,0.694405000000188,
-0.0113006318359375,-0.0241335527343749,-0.00445321508788865,0.0270178417364018,0.697451000000001,
0.0174297880859375,0.00699106884765632,0.0482192214355486,0.0517471339515903,0.700487000000066,
0.00785298144531249,0.0285388837890626,-0.0188184250488259,0.0350752095763421,0.7036420000004,
0.012641384765625,-0.0145567460937499,-0.0212126267089836,0.0286649437035059,0.706640000000334,
-0.00890643017578124,-0.00497993945312492,0.0601902297363299,0.0610490626557446,0.709673000000294,
0.00785298144531249,0.00938527050781257,-0.00924161840820226,0.0153349317210107,0.712744000000384,
-0.0208774384765625,0.00459686718750008,-0.0595198532714836,0.0632424822310217,0.715774000000238,
0.02221819140625,-0.0361045610351562,0.0075177932128927,0.0430546695690247,0.71884399999999,
-0.0352426484375,-0.0145567460937499,0.0290656081542977,0.0479453095005789,0.72186899999997,
-0.0208774384765625,0.00938527050781257,-0.00924161840820226,0.0246851828158167,0.724863000000369,
0.0198239897460938,0.033327287109375,-0.0762792648925767,0.0855699999303251,0.727979000000232,
-0.0232716401367187,-0.00019153613281242,-0.0499430466308581,0.055099127284515,0.730932000000394,
-0.0472136567382813,-0.0217393510742186,-0.0714908615722649,0.0883893209390882,0.73402200000055,
-0.0328484467773437,0.00699106884765632,-0.0427604416503886,0.054372335515894,0.736987000000227,
-0.00890643017578124,-0.0145567460937499,0.019488801513674,0.0259043768454938,0.740008000000671,
-0.0017238251953125,0.0548751020507813,-0.00684741674804457,0.0553275294451962,0.743111000000681,
0.00545877978515624,0.0117794721679688,0.079343843017579,0.0803990028924302,0.746149000000514,
0.00545877978515624,0.0309330854492188,0.019488801513674,0.0369657603275096,0.749227000000246,
0.0102471831054687,-0.00258573779296867,0.00991199487304861,0.0144892527031014,0.752226999999948,
0.000670376464843747,-0.0217393510742186,0.0123061965332045,0.024989823185581,0.7552340000002,
0.000670376464843747,-0.00497993945312492,0.0123061965332045,0.0132925420697195,0.758301000000756,
-0.0113006318359375,-0.0313161577148436,-0.0427604416503886,0.0541928167200105,0.761238000000048,
0.0198239897460938,-0.0121625444335937,0.00512359155273501,0.0238153153863565,0.764358000000357,
-0.0472136567382813,0.0381156904296875,-0.052337248291014,0.0801319087393236,0.767405000000508,
0.0150355864257813,-0.00737414111328116,-0.052337248291014,0.0549511999414114,0.770464000000175,
-0.0017238251953125,0.0141736738281251,0.0170945998535164,0.0222730767349711,0.773498000000473,
-0.0113006318359375,0.00220266552734383,0.0554018264160163,0.0565854962472466,0.776483999999982,
-0.0328484467773437,-0.0289219560546874,-0.0499430466308581,0.0664063845159885,0.779543000000558,
-0.006512228515625,-0.0169509477539062,0.000335188232423178,0.0181619410071317,0.782563000000664,
-0.0424252534179688,0.0213562788085938,-0.00924161840820226,0.0483880179686261,0.785656000000017,
-0.00411802685546875,0.00699106884765632,-0.0619140549316395,0.0624434415042373,0.788692000000083,
-0.044819455078125,0.00699106884765632,-0.0379720383300768,0.0591568617497037,0.791769000000386,
0.00306457812499999,0.0452982954101563,0.0530076247558604,0.0697935203898479,0.794912000000295,
0.00785298144531249,-0.00258573779296867,0.0458250197753927,0.0465648772674162,0.797955000000002,
-0.006512228515625,0.00699106884765632,0.0170945998535164,0.0195833987863249,0.801040000000285,
0.000670376464843747,0.0237504804687501,-0.0403662399902327,0.0468398127456777,0.804167000000234,
-0.006512228515625,0.0141736738281251,0.0338540114746113,0.0372746058724826,0.807177000000593,
-0.0400310517578125,-0.0145567460937499,0.0362482131347672,0.0559313589781089,0.810234000000492,
0.0150355864257813,-0.0504697709960937,0.0601902297363299,0.0799758113386633,0.813275000000431,
0.0294007963867188,0.0165678754882813,0.00512359155273501,0.034134330471942,0.816416000000572,
-0.00890643017578124,0.0189620771484376,-0.00684741674804457,0.0220402355790669,0.819430000000466,
0.0389776030273438,-0.00258573779296867,0.0290656081542977,0.0486903394429569,1.3981160000003,
0.0246123930664063,0.00938527050781257,0.00512359155273501,0.0268347607658305,1.40325800000028,
-0.0184832368164062,0.00459686718750008,0.00272938989257909,0.0192408627752651,1.40623600000072,
-0.0663672700195312,0.0285388837890626,0.00991199487304861,0.0729200250969124,1.40927000000011,
-0.0352426484375,-0.0289219560546874,0.0123061965332045,0.0472225188234633,1.41221100000075,
-0.0424252534179688,0.00220266552734383,-0.0379720383300768,0.0569792028545946,1.41514900000038,
-0.0136948334960937,-0.0145567460937499,-0.0236068283691395,0.0309310469750645,1.41816100000051,
0.0102471831054687,-0.0217393510742186,0.0338540114746113,0.0415174450038565,1.42113600000084,
0.00545877978515624,-0.00976834277343741,0.02188300317383,0.0245781330696221,1.42417999999998,
-0.00411802685546875,0.0213562788085938,-0.0188184250488259,0.0287607703487065,1.4271430000008,
0.0150355864257813,0.00459686718750008,0.0338540114746113,0.0373268554800665,1.43011200000001,
-0.0567904633789063,-0.00497993945312492,-0.0140300217285141,0.0587094373797796,1.43310400000064,
0.0246123930664063,0.00699106884765632,0.019488801513674,0.0321629961372901,1.43608300000051,
-0.0328484467773437,-0.00497993945312492,-0.0451546433105463,0.0560603430701547,1.43907600000057,
-0.00890643017578124,-0.00497993945312492,0.00991199487304861,0.0142257491119518,1.44202399999995,
-0.0113006318359375,-0.0408929643554687,-0.00924161840820226,0.0434205748979889,1.44501300000047,
-0.0376368500976562,-0.0241335527343749,-0.0307894333496073,0.054285818211078,1.4479450000008,
-0.00411802685546875,0.0117794721679688,-0.0475488449707022,0.0491589947800622,1.45087600000079,
-0.0472136567382813,-0.00258573779296867,-0.00684741674804457,0.0477776363862387,1.45387700000083,
-0.0184832368164062,0.0165678754882813,-0.00684741674804457,0.0257490127486074,1.45682400000078,
-0.0136948334960937,-0.0337103593749999,-0.0355778366699209,0.050889284292363,1.45981100000063,
0.000670376464843747,-0.00019153613281242,-0.0283952316894514,0.0284037897716557,1.46275800000058,
-0.0136948334960937,-0.0145567460937499,-0.0595198532714836,0.062785828455015,1.46567400000004,
-0.044819455078125,-0.0241335527343749,0.0314598098144554,0.0598408853096662,1.46869400000014,
-0.0113006318359375,-0.0241335527343749,0.0530076247558604,0.0593290900800978,1.47163700000056,
0.0485544096679688,0.0237504804687501,0.00512359155273501,0.054294264992729,1.47469100000035,
-0.00890643017578124,-0.0145567460937499,0.0266714064941418,0.0316636586592535,1.4776180000008,
-0.0376368500976562,-0.0169509477539062,0.0386424147949231,0.056542933565672,1.48054100000081,
-0.0520020600585938,0.0117794721679688,-0.0451546433105463,0.0698706807423272,1.48355600000014,
0.0174297880859375,0.00220266552734383,0.00512359155273501,0.0183002852039332,1.48655099999996,
-0.0376368500976562,-0.0193451494140624,-0.0667024582519513,0.0789935771311766,1.48965200000021,
-0.0591846650390625,0.0357214887695313,-0.0260010300292954,0.0738573144534927,1.4927260000004,
-0.0136948334960937,0.00459686718750008,-0.0212126267089836,0.0256642783713069,1.49577300000055,
-0.0280600434570312,0.0213562788085938,0.0147003981933604,0.0382041671863715,1.49885500000073,
0.00785298144531249,0.0285388837890626,-0.0427604416503886,0.0520056975305815,1.50183500000003,
-0.0208774384765625,0.0117794721679688,-0.0379720383300768,0.0449054461823889,1.50486900000033,
-0.0520020600585938,0.0213562788085938,-0.0140300217285141,0.0579408871574345,1.50783200000023,
0.0174297880859375,0.0285388837890626,-0.105009684814451,0.110205713579091,1.51082300000053,
0.0413718046875,-0.0217393510742186,0.043430818115235,0.0638001690466993,1.5138620000007,
-0.0184832368164062,-0.00976834277343741,0.00512359155273501,0.0215244455015682,1.5168020000001,
-0.006512228515625,-0.0217393510742186,-0.0475488449707022,0.0526868215345709,1.51981200000046,
-0.0136948334960937,-0.0145567460937499,0.0123061965332045,0.0234710416138162,1.52278100000058,
-0.0424252534179688,-0.00019153613281242,-0.00445321508788865,0.0426587615653343,1.52572099999998,
-0.0280600434570312,-0.0169509477539062,-0.0355778366699209,0.0483785399808397,1.52878300000066,
0.00785298144531249,-0.0337103593749999,-0.0403662399902327,0.053174157047584,1.5317440000008,
0.012641384765625,0.0141736738281251,-0.0499430466308581,0.0534322519210142,1.53479000000061,
0.00545877978515624,0.0237504804687501,-0.0188184250488259,0.0307898801647162,1.53776800000014,
-0.0496078583984375,-0.0289219560546874,0.0410366164550791,0.0705791969845929,1.54079000000002,
0.0270065947265625,0.0189620771484376,0.00512359155273501,0.0333941270122061,1.54376200000024,
-0.0232716401367187,-0.0313161577148436,-0.052337248291014,0.0652798477889551,1.54666799999995,
-0.044819455078125,0.0141736738281251,0.0170945998535164,0.0500190156584272,1.5497290000003,
0.00545877978515624,0.00220266552734383,-0.00684741674804457,0.00902979115426157,1.55272200000036,
0.0150355864257813,0.0261446821289063,0.00512359155273501,0.030591901758275,1.55578500000047,
-0.0232716401367187,0.00938527050781257,-0.00445321508788865,0.0254849693305045,1.55872700000054,
0.0174297880859375,0.0189620771484376,0.000335188232423178,0.0257579159416119,1.56168800000069,
-0.0376368500976562,0.0596635053710938,0.0338540114746113,0.0782455139376252,1.56471400000009,
-0.0136948334960937,0.0381156904296875,-0.00924161840820226,0.0415422896843726,1.56766000000061,
0.012641384765625,-0.0480755693359375,0.00512359155273501,0.0499731544548307,1.570694,
-0.00890643017578124,-0.0289219560546874,0.0745554396972672,0.0804631445380938,1.57362600000033,
0.0174297880859375,-0.00019153613281242,0.0266714064941418,0.0318621738615966,1.57657500000005,
-0.0352426484375,-0.0289219560546874,0.0123061965332045,0.0472225188234633,1.5795820000003,
-0.006512228515625,0.0237504804687501,-0.00684741674804457,0.025561329364053,1.58254400000078,
-0.01608903515625,0.0261446821289063,0.00512359155273501,0.0311231850278833,1.58560200000011,
-0.0184832368164062,-0.00019153613281242,0.043430818115235,0.0472006640997788,1.58854800000063,
0.00545877978515624,-0.00019153613281242,0.043430818115235,0.0437729474103769,1.59151100000054,
-0.00890643017578124,0.0117794721679688,-0.0499430466308581,0.0520805949447977,1.59457999999995,
-0.0184832368164062,-0.0121625444335937,0.0554018264160163,0.0596566836200346,1.59765400000015,
0.0198239897460938,0.00220266552734383,0.043430818115235,0.0477920314177709,1.6008410000004,
0.0365834013671875,0.00459686718750008,-0.01642422338867,0.0403637406276126,1.60392400000001,
-0.0280600434570312,-0.0337103593749999,-0.0260010300292954,0.0509883117055904,1.60687300000063,
-0.0184832368164062,0.0309330854492188,0.00991199487304861,0.0373728974122073,1.60992000000078,
-0.025665841796875,-0.00019153613281242,0.019488801513674,0.0322270927275758,1.61288000000059,
