X,Y,Z,Magnitude,Seconds,
-0.00411802685546875,-0.00497993945312492,0.0170945998535164,0.0182752096100426,0.0,
0.0198239897460938,-0.00976834277343741,0.0482192214355486,0.0530424773727912,0.00298999999995431,
0.00545877978515624,0.0213562788085938,0.0170945998535164,0.0278946995940997,0.00612499999988358,
0.0198239897460938,0.0141736738281251,0.0410366164550791,0.0477272195850604,0.0090940000000046,
0.0246123930664063,0.0189620771484376,0.0458250197753927,0.0553648146357749,0.0122269999992568,
0.0102471831054687,-0.0145567460937499,0.0242772048339859,0.0301045892346369,0.0152250000001004,
-0.00890643017578124,-0.00976834277343741,0.00512359155273501,0.0141773131944911,0.0181949999996505,
-0.0113006318359375,0.00459686718750008,0.0123061965332045,0.017328529682139,0.0212869999995746,
-0.0400310517578125,0.00220266552734383,0.00991199487304861,0.0412987225301868,0.0242609999995693,
-0.0136948334960937,0.0261446821289063,0.0266714064941418,0.0397801054860722,0.0273429999997461,
-0.0232716401367187,0.00938527050781257,0.019488801513674,0.031772093440583,0.0303279999998267,
0.000670376464843747,-0.0241335527343749,0.0147003981933604,0.0282662250615611,0.0332929999995031,
0.00545877978515624,0.0189620771484376,0.000335188232423178,0.0197350195763086,0.0364119999994728,
-0.0113006318359375,0.00699106884765632,-0.052337248291014,0.053997841458704,0.0393759999997201,
0.00306457812499999,0.00938527050781257,0.0123061965332045,0.0157771168057697,0.0425089999998818,
-0.0113006318359375,0.0500866987304688,-0.0188184250488259,0.054685599484018,0.0454859999999826,
-0.00411802685546875,0.0285388837890626,-0.0499430466308581,0.0576691766880718,0.0484819999992396,
0.00306457812499999,-0.0193451494140624,-0.00924161840820226,0.0216571917787014,0.0515419999992446,
-0.00411802685546875,-0.00258573779296867,0.00512359155273501,0.0070636658694764,0.0545439999996233,
0.00545877978515624,0.00938527050781257,0.0075177932128927,0.0132060135559321,0.0576750000000175,
-0.01608903515625,0.00220266552734383,-0.0403662399902327,0.0435102530288375,18.3613779999996,
-0.006512228515625,0.0117794721679688,-0.0571256516113259,0.0586899067712179,18.3661589999992,
-0.0208774384765625,0.00699106884765632,-0.0762792648925767,0.0793931277474771,18.3699779999997,
-0.0017238251953125,0.00220266552734383,0.00991199487304861,0.010299075254249,18.3738829999993,
-0.0280600434570312,-0.0169509477539062,-0.0260010300292954,0.0418420151420849,18.3776359999993,
-0.044819455078125,-0.00976834277343741,0.043430818115235,0.0631699298416427,18.3813909999999,
-0.006512228515625,0.0141736738281251,0.00272938989257909,0.0158351419068952,18.3851719999993,
-0.0376368500976562,0.0189620771484376,-0.05473144995117,0.0690769460009211,18.3889339999996,
-0.0280600434570312,0.00220266552734383,0.0075177932128927,0.029133056637223,18.3927009999998,
0.031794998046875,-0.0241335527343749,-0.00445321508788865,0.0401644294494848,18.396522,
0.0174297880859375,-0.0313161577148436,0.000335188232423178,0.0358414787347398,18.4003049999992,
0.00545877978515624,0.0261446821289063,-0.0236068283691395,0.0356458276101761,18.4040500000001,
0.00785298144531249,-0.00258573779296867,0.0266714064941418,0.0279234539749322,18.4077929999994,
0.0246123930664063,-0.0241335527343749,0.057796028076174,0.0672947183768536,18.4115329999995,
-0.00411802685546875,-0.0121625444335937,0.0769496413574231,0.078013671476976,18.4153449999994,
0.00545877978515624,0.0117794721679688,-0.0188184250488259,0.0228623568911226,18.4194309999994,
0.0174297880859375,-0.00019153613281242,0.043430818115235,0.0467981854452658,18.4232439999996,
-0.00411802685546875,0.0165678754882813,-0.0236068283691395,0.0291330566372217,18.4270099999994,
-0.0280600434570312,0.0309330854492188,0.0314598098144554,0.0522871059419132,18.4307849999996,
-0.0352426484375,-0.0121625444335937,-0.00205901342773274,0.0373391388797859,18.434561,
-0.0232716401367187,0.00938527050781257,-0.0595198532714836,0.0645930760268985,18.4383680000001,
0.00306457812499999,-0.00497993945312492,0.02188300317383,0.0226507674030455,18.4421130000001,
-0.0113006318359375,-0.00976834277343741,0.02188300317383,0.0264951057430731,18.4459499999994,
-0.0400310517578125,0.0237504804687501,0.02188300317383,0.0514338045961894,18.44974,
-0.0184832368164062,-0.0217393510742186,0.0290656081542977,0.0407313025291196,18.4535169999999,
-0.025665841796875,0.00220266552734383,-0.0116358200683582,0.0282662250615601,18.4572769999995,
-0.0280600434570312,-0.0145567460937499,0.000335188232423178,0.0316129284755389,18.4610299999995,
0.00306457812499999,0.0381156904296875,0.000335188232423178,0.0382401601352186,18.4648589999997,
-0.0328484467773437,-0.00258573779296867,-0.0116358200683582,0.0349442241905751,18.4685629999994,
-0.00411802685546875,0.0237504804687501,0.0314598098144554,0.0396328538114598,18.4723049999993,
-0.0136948334960937,-0.00258573779296867,-0.05473144995117,0.0564780144673761,18.4760099999994,
-0.01608903515625,-0.00737414111328116,-0.0307894333496073,0.0355137186930282,18.4797169999993,
-0.0136948334960937,-0.00976834277343741,0.0242772048339859,0.0295355998682337,18.4834419999997,
-0.00890643017578124,-0.00737414111328116,0.00991199487304861,0.0152299080101619,18.4874259999997,
-0.0113006318359375,-0.00497993945312492,0.0075177932128927,0.014457568662815,18.4913319999996,
-0.0017238251953125,-0.0265277543945311,-0.0116358200683582,0.0290187118112394,18.4950759999992,
-0.025665841796875,0.06205770703125,-0.00445321508788865,0.0673032358935116,18.4988479999993,
0.0102471831054687,-0.0217393510742186,-0.0140300217285141,0.0278288637286489,18.5026099999996,
0.000670376464843747,0.0237504804687501,-0.00445321508788865,0.0241736602880096,18.5064400000001,
0.00306457812499999,0.0405098920898438,-0.01642422338867,0.043820065154401,18.5102870000001,
-0.0663672700195312,-0.00497993945312492,0.00991199487304861,0.0672879035872385,18.5141610000001,
0.012641384765625,0.00459686718750008,-0.01642422338867,0.0212294821098638,18.5179539999999,
0.012641384765625,0.0285388837890626,-0.033183635009765,0.0455568450310103,18.5217759999996,
-0.00890643017578124,-0.00258573779296867,0.0075177932128927,0.0119384987834262,18.5255589999997,
0.00306457812499999,0.00938527050781257,0.043430818115235,0.0445388695831817,18.5293569999994,
-0.0591846650390625,0.0213562788085938,0.0601902297363299,0.0870734114184611,18.5331159999996,
-0.00411802685546875,0.052480900390625,0.0984974562988299,0.11168237080369,18.5369659999997,
-0.025665841796875,0.0117794721679688,-0.0403662399902327,0.049263827811562,18.540739,
-0.01608903515625,-0.0145567460937499,0.0075177932128927,0.022962428527679,18.5444929999994,
0.0150355864257813,0.00699106884765632,-0.0236068283691395,0.0288483318139857,18.5482669999992,
-0.044819455078125,0.04290409375,-0.0451546433105463,0.0767364752025497,18.5520239999996,
-0.025665841796875,-0.0456813676757812,-0.0236068283691395,0.0574700368324411,18.5557979999994,
-0.01608903515625,-0.0169509477539062,-0.0212126267089836,0.0315621167526734,18.5598569999993,
0.0102471831054687,0.0237504804687501,-0.0451546433105463,0.0520387537955719,18.5637630000001,
-0.0232716401367187,0.0213562788085938,0.0530076247558604,0.0617046850851816,18.5676239999993,
-0.0352426484375,0.0309330854492188,0.0290656081542977,0.0551698252822779,18.5714369999996,
0.0198239897460938,-0.00258573779296867,-0.0283952316894514,0.0347270181859146,18.5753089999998,
0.0198239897460938,0.00938527050781257,0.0601902297363299,0.064061982701679,18.579213,
-0.133404916503906,0.169796781738281,0.079343843017579,0.230050568921031,18.5830459999997,
0.199389114257813,-0.546069514648438,-0.05473144995117,0.583903643871703,18.5869599999996,
-0.164529538085938,0.356544511230469,-0.0930386765136699,0.403546964700221,18.5906319999995,
0.21375432421875,0.3876691328125,0.0625844313964858,0.447096274543897,18.5936509999992,
-0.01608903515625,-0.00737414111328116,-0.01642422338867,0.0241451884096721,18.5965659999993,
0.012641384765625,-0.510156489746094,-0.0595198532714836,0.513772383037769,18.5995919999996,
-0.0113006318359375,-0.143843635742188,-0.109798088134765,0.181312757359961,18.6025439999994,
-0.20762516796875,0.394851737792969,0.0458250197753927,0.448459627669642,18.605595,
0.00785298144531249,0.244017033203125,0.103285859619142,0.265092343548622,18.6085949999997,
0.103621047851562,-0.222852290527344,0.0458250197753927,0.250000794775846,18.6115439999994,
0.0294007963867188,-0.213275483886719,-0.0140300217285141,0.215749114401403,18.6145769999994,
-0.0879150849609375,-0.00019153613281242,0.00272938989257909,0.0879576512815385,18.6175669999993,
-0.0974918916015625,0.203315604980469,0.0338540114746113,0.228008767922525,18.6206109999994,
-0.00890643017578124,0.121912748535156,0.0170945998535164,0.123427177307205,18.6235909999996,
0.09883264453125,-0.16778565234375,-0.00445321508788865,0.194781282165605,18.6265439999997,
0.031794998046875,-0.134266829101562,-0.100221281494139,0.170536824651207,18.6295829999999,
-0.083126681640625,0.0500866987304688,-0.0355778366699209,0.10336587953677,18.6325589999997,
-0.0472136567382813,0.121912748535156,0.043430818115235,0.137760965444335,18.6356189999997,
0.00306457812499999,-0.062440779296875,0.0410366164550791,0.0747813241950592,18.6386050000001,
0.0341891997070313,-0.139055232421875,-0.0283952316894514,0.145984753392971,18.6415619999998,
0.0174297880859375,-0.0552581743164062,-0.00205901342773274,0.05797846908809,18.6446040000001,
-0.0136948334960937,0.0644519086914063,0.0482192214355486,0.081649802904242,18.6475989999999,
-0.0472136567382813,0.0812113203125001,0.0410366164550791,0.102510544918955,18.6506449999997,
0.0174297880859375,0.0237504804687501,0.0697670363769554,0.0757319100514478,18.6536390000001,
0.012641384765625,-0.0792001909179687,-0.0116358200683582,0.0810423787835628,18.6566629999998,
-0.0208774384765625,-0.0265277543945311,-0.00205901342773274,0.0338205370574567,18.6596519999994,
-0.044819455078125,0.0189620771484376,0.0242772048339859,0.0543849850403094,18.6627079999998,
0.000670376464843747,0.033327287109375,-0.00445321508788865,0.0336301738814168,18.6658499999994,
0.0413718046875,0.00459686718750008,-0.0188184250488259,0.0456824970022266,18.6689529999994,
0.0102471831054687,-0.0145567460937499,0.0386424147949231,0.0425457382074609,18.6719889999995,
-0.025665841796875,-0.00019153613281242,0.0266714064941418,0.0370153487840941,18.6749460000001,
-0.006512228515625,0.00938527050781257,-0.0307894333496073,0.0328402440419441,18.6778909999994,
0.00306457812499999,0.0261446821289063,-0.01642422338867,0.0310272647300196,18.6809659999999,
-0.0113006318359375,0.00699106884765632,0.000335188232423178,0.0132925420697183,18.6839679999994,
-0.0328484467773437,-0.0217393510742186,0.0266714064941418,0.0475708289310567,18.6869919999999,
0.050948611328125,0.0476924970703125,-0.00205901342773274,0.069818155299046,18.6899819999999,
-0.0184832368164062,0.0309330854492188,0.0290656081542977,0.0462957384215783,18.6929639999998,
-0.00890643017578124,0.00459686718750008,0.0075177932128927,0.0125288826799279,18.6960159999999,
-0.0017238251953125,0.00220266552734383,-0.01642422338867,0.0166606849394098,18.6989939999994,
-0.0208774384765625,-0.0289219560546874,-0.0283952316894514,0.045592062489753,18.7020259999999,
0.0150355864257813,0.0309330854492188,0.0314598098144554,0.0466116323264645,18.7050479999998,
-0.0280600434570312,0.0237504804687501,-0.0140300217285141,0.0393483528373112,18.7079909999993,
-0.0208774384765625,-0.00258573779296867,0.0242772048339859,0.0321237630396556,18.7110199999997,
0.000670376464843747,-0.00976834277343741,-0.05473144995117,0.0556003735500168,18.713992,
0.0102471831054687,0.00220266552734383,0.0123061965332045,0.0161647446665949,18.7170579999993,
-0.00890643017578124,-0.0384987626953125,-0.0762792648925767,0.0859069582752058,18.7199849999997,
0.00306457812499999,0.0141736738281251,0.0530076247558604,0.0549553723591098,18.7229619999998,
-0.0424252534179688,0.0141736738281251,0.000335188232423178,0.0447315046529412,18.7259829999994,
0.0270065947265625,0.00459686718750008,-0.0403662399902327,0.0487844306886262,18.7289619999992,
-0.006512228515625,0.0357214887695313,0.019488801513674,0.0412097957358545,18.7320279999994,
0.012641384765625,-0.00976834277343741,0.0075177932128927,0.0176562267804805,18.7350120000001,
-0.0208774384765625,-0.0337103593749999,0.0410366164550791,0.0570636456653057,18.7379469999996,
0.0174297880859375,0.00938527050781257,-0.00205901342773274,0.0199027724581549,18.7409950000001,
-0.0184832368164062,-0.0217393510742186,-0.0403662399902327,0.0494334174348542,18.7439379999996,
-0.006512228515625,0.0117794721679688,-0.0403662399902327,0.0425511270796055,18.7469699999992,
0.0270065947265625,0.0309330854492188,-0.0307894333496073,0.0513244692142391,18.7499659999994,
-0.0184832368164062,0.0500866987304688,0.00512359155273501,0.0536335587419608,18.7530109999998,
-0.0136948334960937,-0.0121625444335937,-0.0283952316894514,0.0337900153045614,18.7559519999995,
-0.0615788666992187,-0.0121625444335937,-0.00924161840820226,0.0634451875390255,18.7588929999993,
0.02221819140625,0.0309330854492188,-0.0283952316894514,0.04750571531375,18.7619529999993,
-0.0184832368164062,-0.0313161577148436,-0.0451546433105463,0.0579764916990928,18.7648979999994,
-0.0232716401367187,-0.0408929643554687,-0.0283952316894514,0.0549553723591079,18.7678989999995,
-0.006512228515625,-0.00976834277343741,-0.00445321508788865,0.0125563038111574,18.7708429999993,
0.012641384765625,0.00459686718750008,0.0170945998535164,0.0217522674883317,18.773819,
-0.00411802685546875,-0.00019153613281242,0.0386424147949231,0.0388616913226307,18.776836,
-0.162135336425781,0.0309330854492188,-0.107403886474607,0.196927189395371,18.7797989999999,
0.235302139160156,-0.0265277543945311,0.0984974562988299,0.256461629379332,18.7828609999997,
-0.0591846650390625,0.0189620771484376,-0.00205901342773274,0.0621821878182564,18.7858219999998,
-0.2650860078125,0.033327287109375,0.000335188232423178,0.267173000049014,18.7887809999993,
0.00545877978515624,-0.0313161577148436,-0.0595198532714836,0.0674767585485753,18.7917989999996,
0.21375432421875,-0.0456813676757812,-0.0667024582519513,0.22853209055141,18.7947649999996,
0.151505081054688,0.0237504804687501,0.0266714064941418,0.155657440658196,18.7978229999999,
-0.0496078583984375,-0.0169509477539062,0.0554018264160163,0.0762734332180314,18.8008499999996,
-0.315364242675781,0.0405098920898438,-0.0667024582519513,0.324876707155889,18.8038889999998,
-0.138193319824219,0.0740287153320314,-0.0475488449707022,0.163824714239939,18.8070239999997,
0.220936929199219,0.0405098920898438,0.0482192214355486,0.22973739651385,18.8100719999993,
0.208965920898438,-0.0863827958984374,0.0386424147949231,0.22939481194078,18.8131039999998,
-0.0711556733398437,-0.0289219560546874,-0.00445321508788865,0.0769379003813778,18.8160289999996,
-0.202836764648438,0.0357214887695313,0.0266714064941418,0.207677976148972,18.8189899999998,
-0.0998860932617188,0.0381156904296875,0.0147003981933604,0.107917279390577,18.8220409999994,
0.170658694335938,0.0117794721679688,0.0147003981933604,0.171695217242782,18.8250159999998,
0.158687686035156,-0.0193451494140624,-0.00205901342773274,0.159875751886708,18.8280279999999,
-0.128616513183594,-0.00019153613281242,-0.0499430466308581,0.137973012058039,18.8309759999993,
-0.142981723144531,0.00699106884765632,0.00272938989257909,0.143178552046729,18.8339239999996,
-0.0017238251953125,-0.00258573779296867,-0.01642422338867,0.0167156431871141,18.8369419999999,
0.0270065947265625,0.119518546875,0.184688716064455,0.221639258813445,18.8399219999992,
0.295157180664063,-0.24440010546875,-0.140922709716795,0.40829937908919,18.8429799999994,
-0.281845419433594,-0.220458088867187,-0.0619140549316395,0.363141789939893,18.8459290000001,
-0.250720797851563,0.382880729492188,0.110468464599611,0.470809784480728,18.848962,
0.218542727539063,0.244017033203125,-0.00924161840820226,0.327705117085881,18.8519419999993,
0.070102224609375,-0.170179854003906,-0.0690966599121072,0.196595658688038,18.8548839999994,
0.196994912597656,-0.447907246582031,-0.0379720383300768,0.490784853907489,18.8579,
-0.248326596191406,-0.20609287890625,0.0170945998535164,0.323160329335189,18.8608549999999,
-0.205230966308594,0.495408207519531,-0.01642422338867,0.536487461851249,18.863859,
0.1946007109375,0.344573502929688,0.0889206496582045,0.405594893402584,18.8668439999992,
0.165870291015625,-0.210881282226562,-0.0188184250488259,0.268957248938276,18.8697649999995,
0.050948611328125,-0.342562373535156,-0.033183635009765,0.347916504912839,18.872813,
-0.289028024414062,-0.179756660644531,-0.0834618698730463,0.350450481046145,18.8757419999993,
-0.0998860932617188,0.380486527832031,-0.0116358200683582,0.393551295001588,18.8787689999999,
0.153899282714844,0.191344596679688,0.0386424147949231,0.248577915591548,18.8817609999996,
0.2712151640625,-0.05286397265625,0.0841322463378926,0.28884338264241,18.8847149999992,
-0.0759440766601562,-0.215669685546875,-0.105009684814451,0.251610711116363,18.8877089999996,
-0.145375924804688,-0.05286397265625,-0.0236068283691395,0.15648016316284,18.8906499999994,
-0.09270348828125,0.1578257734375,0.0506134230957045,0.189906898500612,18.8936789999998,
0.108409451171875,0.119518546875,0.0649786330566418,0.173952622585601,18.8966889999992,
0.163476089355469,-0.0696233842773437,-0.0283952316894514,0.179939258117526,18.8996239999997,
-0.0496078583984375,-0.0792001909179687,-0.0499430466308581,0.105961869382784,18.9026349999995,
-0.164529538085938,-0.0217393510742186,-0.0116358200683582,0.166366945624915,18.9055749999998,
-0.0017238251953125,0.0883939252929689,0.00272938989257909,0.0884528528154331,18.9086269999998,
0.0964384428710938,0.0788171186523439,0.103285859619142,0.161803832628662,18.9116129999993,
0.0677080229492188,-0.062440779296875,-0.0236068283691395,0.0950815946255794,18.9145589999998,
-0.05439626171875,-0.0768059892578125,-0.0283952316894514,0.0983076927688956,18.9175619999996,
-0.0615788666992187,0.00938527050781257,-0.0283952316894514,0.068456769637214,18.9205249999995,
0.0198239897460938,0.0548751020507813,0.0123061965332045,0.05962977333221,18.9235859999999,
0.0461602080078125,0.0381156904296875,-0.0212126267089836,0.0635102054173263,18.9265639999994,
-0.006512228515625,-0.0145567460937499,-0.00924161840820226,0.0184313723819049,18.9294839999993,
-0.05439626171875,-0.0121625444335937,-0.0379720383300768,0.0674444695361651,18.9324790000001,
-0.0232716401367187,-0.0121625444335937,0.00272938989257909,0.0263997403573935,18.9354439999997,
0.00306457812499999,0.00699106884765632,-0.0212126267089836,0.0225442279666345,18.9385249999996,
0.031794998046875,0.00220266552734383,0.0147003981933604,0.0350980817605391,18.9415949999993,
-0.025665841796875,0.00699106884765632,0.00991199487304861,0.0283876402883055,18.9447,
-0.0304542451171875,-0.0289219560546874,0.0506134230957045,0.0657697436907869,18.9477309999993,
-0.0017238251953125,-0.00976834277343741,-0.0260010300292954,0.0278288637286484,18.9506799999999,
-0.0136948334960937,0.0405098920898438,-0.0188184250488259,0.0467197275562989,18.9537069999997,
-0.00890643017578124,-0.00737414111328116,-0.0260010300292954,0.028456212295718,18.9566459999996,
0.012641384765625,-0.0265277543945311,0.0410366164550791,0.0504730646195613,18.9596959999999,
-0.0424252534179688,-0.0361045610351562,0.0266714064941418,0.0617641107723243,18.9626629999993,
0.0150355864257813,0.0285388837890626,-0.00684741674804457,0.0329761104925089,18.9656230000001,
0.0581312163085937,0.0237504804687501,0.0506134230957045,0.0806538420007242,18.968691,
0.02221819140625,0.00699106884765632,0.00991199487304861,0.0253134492979676,18.9716789999993,
-0.0376368500976562,-0.0289219560546874,0.00991199487304861,0.0484897893341068,18.9747109999998,
-0.01608903515625,0.0117794721679688,0.00991199487304861,0.0222679289377872,18.977691,
0.012641384765625,0.052480900390625,-0.0236068283691395,0.0589180096426661,18.9806849999995,
-0.044819455078125,0.0357214887695313,-0.05473144995117,0.0792485957425697,18.9837339999995,
0.00785298144531249,-0.0289219560546874,0.0123061965332045,0.0323973970053698,18.9867209999993,
0.00545877978515624,-0.0289219560546874,-0.0762792648925767,0.0817606511185178,18.98974,
-0.0400310517578125,0.0381156904296875,-0.00684741674804457,0.0556971999106763,18.9927129999996,
0.0341891997070313,-0.0121625444335937,-0.052337248291014,0.063686862243179,18.9956519999996,
-0.0017238251953125,-0.0217393510742186,0.0266714064941418,0.034451921322444,18.9986839999992,
0.012641384765625,-0.0265277543945311,0.0075177932128927,0.0303322201099912,19.0016509999996,
-0.01608903515625,0.00220266552734383,-0.0188184250488259,0.0248564259096652,19.0046859999993,
-0.0496078583984375,0.00938527050781257,-0.0451546433105463,0.067734516532466,19.0076449999997,
0.0294007963867188,0.00938527050781257,-0.05473144995117,0.062833285322634,19.01062,
0.0270065947265625,-0.00258573779296867,-0.0212126267089836,0.0344386081390271,19.0136469999998,
-0.01608903515625,0.00699106884765632,-0.0212126267089836,0.0275264895652606,19.0166159999999,
-0.0017238251953125,0.0357214887695313,0.0242772048339859,0.0432247499445289,19.0196509999996,
-0.05439626171875,0.0117794721679688,0.0314598098144554,0.0639330031133561,19.0226249999996,
-0.0017238251953125,0.0261446821289063,0.057796028076174,0.0634578351214997,19.0255749999997,
-0.0232716401367187,0.0285388837890626,0.0482192214355486,0.0606723201998162,19.0286099999994,
0.00545877978515624,-0.0337103593749999,-0.0188184250488259,0.0389912775791298,19.0315609999998,
-0.044819455078125,-0.0863827958984374,0.00512359155273501,0.0974526663110375,19.0345939999997,
-0.0328484467773437,0.143460563476563,0.0386424147949231,0.152161723011669,19.0375749999994,
-0.0136948334960937,0.2344402265625,0.0530076247558604,0.240747952384688,19.0406049999992,
0.0437660063476563,-0.0337103593749999,0.0649786330566418,0.0852881843793408,19.0435749999997,
0.0389776030273438,-0.191727668945312,-0.01642422338867,0.196337738835104,19.0465189999995,
-0.025665841796875,-0.0911711992187499,0.000335188232423178,0.0947155496910532,19.0495439999995,
-0.025665841796875,0.131489555175781,0.0123061965332045,0.134535055017571,19.0525149999994,
-0.025665841796875,0.121912748535156,0.0673728347167977,0.14163528002696,19.0555340000001,
0.00545877978515624,0.0285388837890626,-0.00924161840820226,0.0304905505931144,19.0585209999999,
-0.0304542451171875,-0.112719014160156,-0.00924161840820226,0.117125764499951,19.0614329999999,
-0.0376368500976562,-0.0839885942382812,0.0075177932128927,0.0923424802687685,19.0644589999993,
-0.00890643017578124,0.0405098920898438,-0.033183635009765,0.0531180712005637,19.0674099999997,
0.0389776030273438,0.0668461103515625,0.0482192214355486,0.0911742799408964,19.0704659999992,
0.0294007963867188,0.0117794721679688,0.0506134230957045,0.0597066276906847,19.0734379999994,
-0.0376368500976562,-0.0289219560546874,-0.0260010300292954,0.0541208424720739,19.0763489999999,
-0.0424252534179688,-0.00497993945312492,-0.00205901342773274,0.0427661251556795,19.0794169999999,
0.00545877978515624,0.052480900390625,-0.0595198532714836,0.0795402798336319,19.0824919999995,
0.0341891997070313,0.00220266552734383,-0.033183635009765,0.0476959824774992,19.0856289999992,
0.0102471831054687,-0.0217393510742186,-0.00205901342773274,0.0241214361724322,19.0886679999994,
-0.0328484467773437,-0.0169509477539062,-0.0116358200683582,0.0387523856569224,19.0915849999992,
-0.0280600434570312,-0.043287166015625,-0.0619140549316395,0.0805884295575539,19.0945949999996,
0.0270065947265625,-0.00976834277343741,0.019488801513674,0.0347072047809031,19.0975840000001,
-0.0280600434570312,-0.00019153613281242,-0.0188184250488259,0.0337866222966862,19.1006149999994,
-0.0113006318359375,0.00699106884765632,0.000335188232423178,0.0132925420697183,19.1035779999993,
-0.01608903515625,-0.0361045610351562,-0.0116358200683582,0.0412042314388168,19.1065179999996,
-0.025665841796875,0.0452982954101563,-0.00445321508788865,0.0522542067859326,19.1095619999996,
-0.006512228515625,0.00938527050781257,-0.0834618698730463,0.0842399913666297,19.1125429999993,
0.00785298144531249,-0.00737414111328116,0.00991199487304861,0.014638815426883,19.1155909999998,
0.00545877978515624,0.00699106884765632,0.00991199487304861,0.0133011639618059,19.1185889999997,
0.00306457812499999,-0.00497993945312492,-0.0427604416503886,0.0431583920712682,19.1215509999993,
0.0198239897460938,-0.0121625444335937,-0.00205901342773274,0.0233486100838563,19.1245919999992,
-0.0017238251953125,0.00699106884765632,-0.00445321508788865,0.00846627081752433,19.1275609999993,
-0.0184832368164062,-0.0552581743164062,-0.0427604416503886,0.0722741395115153,19.1305709999997,
-0.0136948334960937,-0.0337103593749999,0.043430818115235,0.0566583864563402,19.1335329999993,
-0.0113006318359375,0.0117794721679688,0.0123061965332045,0.0204426690420114,19.1365659999992,
0.0150355864257813,-0.0217393510742186,0.00272938989257909,0.0265728774031151,19.1395319999992,
0.00545877978515624,-0.0361045610351562,-0.0260010300292954,0.0448262330211727,19.1424689999994,
-0.0352426484375,0.0213562788085938,-0.0140300217285141,0.043531326916856,19.1454949999998,
-0.0184832368164062,0.0285388837890626,-0.0427604416503886,0.0546310653499752,19.1484499999997,
-0.0280600434570312,0.0285388837890626,0.0984974562988299,0.106318308978633,19.1515159999999,
0.0341891997070313,0.00938527050781257,0.0170945998535164,0.0393600053768279,19.1545049999995,
0.012641384765625,0.0213562788085938,0.0362482131347672,0.0439298100247028,19.1574599999994,
0.0341891997070313,0.00699106884765632,0.0554018264160163,0.0654762460016634,19.1605099999997,
0.000670376464843747,-0.0169509477539062,0.0458250197753927,0.0488642657959311,19.1634639999993,
0.0150355864257813,0.0285388837890626,0.0123061965332045,0.0345250520666749,19.1665210000001,
-0.006512228515625,-0.0121625444335937,0.0242772048339859,0.0279234539749324,19.169457,
-0.0017238251953125,0.0117794721679688,-0.0116358200683582,0.0166469170275806,19.1723899999997,
-0.025665841796875,0.00699106884765632,-0.0212126267089836,0.0340233156918836,19.175432,
-0.0017238251953125,-0.00976834277343741,0.0458250197753927,0.0468862936395967,19.1783939999996,
0.00306457812499999,-0.00737414111328116,0.00512359155273501,0.00948792846948529,19.1814299999996,
-0.0136948334960937,0.0141736738281251,-0.00445321508788865,0.0202057570729435,19.1843909999998,
0.070102224609375,-0.00258573779296867,-0.01642422338867,0.0720469503104621,19.1873159999996,
0.000670376464843747,-0.0241335527343749,-0.05473144995117,0.0598198076388155,19.1903349999993,
-0.0328484467773437,0.0261446821289063,0.0410366164550791,0.0587074846113066,19.1933179999996,
0.02221819140625,0.0213562788085938,-0.0379720383300768,0.0489041344760949,19.1963589999996,
0.012641384765625,0.00938527050781257,0.00512359155273501,0.0165571465445182,19.1993389999998,
0.0198239897460938,-0.00019153613281242,0.0075177932128927,0.0212024637798351,19.2022929999994,
0.0270065947265625,-0.0241335527343749,-0.0738850632324208,0.0822847926117972,19.2053029999997,
0.0174297880859375,-0.0169509477539062,0.043430818115235,0.0497731665120371,19.2082839999994,
0.000670376464843747,-0.00497993945312492,-0.05473144995117,0.0549616303917454,19.2112939999997,
-0.0208774384765625,0.00938527050781257,-0.00684741674804457,0.023892213291549,19.2142639999993,
-0.0352426484375,-0.00258573779296867,-0.0212126267089836,0.0412153592816791,19.2172009999995,
0.02221819140625,0.0309330854492188,-0.0978270798339835,0.104979242489256,19.220335,
-0.00411802685546875,-0.00497993945312492,0.0075177932128927,0.00991338271887893,19.2233739999992,
-0.0352426484375,0.0357214887695313,-0.0403662399902327,0.0644011052680777,19.2264999999998,
0.0461602080078125,0.0309330854492188,-0.0427604416503886,0.0701147341781275,19.2294919999995,
0.00306457812499999,-0.0265277543945311,-0.0140300217285141,0.0301654587567199,19.2325109999993,
0.0102471831054687,-0.0289219560546874,-0.0690966599121072,0.0756031263549047,19.235463,
-0.0304542451171875,-0.0169509477539062,0.000335188232423178,0.0348555307887364,19.2384119999997,
-0.0208774384765625,-0.0145567460937499,-0.00924161840820226,0.027077182367879,19.2414439999993,
0.0198239897460938,-0.0265277543945311,-0.033183635009765,0.0468814030840705,19.2444059999998,
-0.0376368500976562,-0.00258573779296867,-0.0307894333496073,0.0486950483231852,19.2473849999997,
0.0150355864257813,0.0692403120117189,-0.00924161840820226,0.0714541613725201,19.2503839999999,
0.00785298144531249,0.0237504804687501,-0.00684741674804457,0.0259353379811851,19.2533329999997,
-0.0376368500976562,-0.0504697709960937,-0.00924161840820226,0.0636328357098315,19.2563659999996,
-0.025665841796875,-0.0289219560546874,0.00991199487304861,0.0399181991018486,19.2593319999996,
0.0485544096679688,-0.0361045610351562,0.0123061965332045,0.0617455463888701,19.2623979999999,
0.0246123930664063,-0.0169509477539062,0.019488801513674,0.0356779750917891,19.2653599999994,
-0.0376368500976562,0.0381156904296875,-0.0427604416503886,0.0685404531086679,19.2683049999996,
-0.0759440766601562,0.0452982954101563,-0.0667024582519513,0.110763966540039,19.2713309999999,
0.00785298144531249,0.033327287109375,0.0482192214355486,0.0591394174768538,19.2743169999994,
0.06052541796875,-0.0384987626953125,0.0601902297363299,0.0936394399015396,19.2773429999997,
0.0461602080078125,-0.043287166015625,0.0601902297363299,0.0873350290587973,19.280315,
-0.0400310517578125,-0.0241335527343749,0.0170945998535164,0.0497708631286555,19.2832419999995,
-0.0615788666992187,0.0261446821289063,0.0075177932128927,0.0673202676938641,19.28629,
0.00545877978515624,0.033327287109375,-0.0667024582519513,0.0747644586663132,19.2892750000001,
0.0389776030273438,0.0237504804687501,-0.0619140549316395,0.0769200172798456,19.2923259999998,
0.0198239897460938,0.0309330854492188,0.0314598098144554,0.0483690601358307,19.2953090000001,
-0.0472136567382813,0.0237504804687501,0.0314598098144554,0.0615055634772858,19.2982579999998,
-0.063973068359375,0.00220266552734383,0.0506134230957045,0.0816034546340007,19.3012869999993,
-0.0232716401367187,-0.00976834277343741,0.00512359155273501,0.0257534647298487,19.3042479999995,
