X,Y,Z,Magnitude,Seconds,
-0.0177170922851563,0.00263362182617222,-0.020877438476564,0.0275081580682304,0.0,
0.0181959326171875,-0.00694318481445277,-0.0807324799804707,0.083048378087558,0.00383099999999104,
-0.0105344873046875,-0.00215478149414028,-0.0448194550781267,0.0460912362555001,0.00753699999950186,
-0.005746083984375,-0.00215478149414028,-0.0304542451171894,0.0310664064561841,0.0112140000001091,
-0.0105344873046875,-0.00215478149414028,-0.0232716401367199,0.0256356732057714,0.0148859999990236,
-0.0201112939453125,-0.0237025964355466,0.0294007963867173,0.0427864937815003,0.0187359999999899,
-0.0368707055664063,-0.00933738647460913,-0.00890643017578263,0.039063540720433,0.0226650000004156,
-0.005746083984375,-0.0237025964355466,-0.00172382519531311,0.0244499924794646,0.0264839999999822,
-0.015322890625,-0.0596156213378904,-0.0352426484375012,0.0709285383572632,0.0302489999994577,
-0.0105344873046875,-0.0308852014160154,-0.0041180268554708,0.0328911725917888,0.0339759999988019,
0.0229843359375,-0.0332794030761716,-0.0113006318359385,0.0419940787193335,0.0377609999995911,
-0.0392649072265625,-0.00694318481445277,-0.0328484467773453,0.0516619899980856,0.0415589999993244,
-0.0464475122070312,0.0193930334472658,-0.0328484467773453,0.0601039232678964,0.0452919999988808,
0.0349553442382813,0.0146046301269533,0.00306457812499872,0.038007406528808,0.0491439999987051,
-0.000957680664062498,-0.0213083947753905,-0.0424252534179708,0.0474854395340008,0.0528899999990244,
0.0110133276367188,0.0241814367675783,-0.0280600434570317,0.0386445508265863,0.0566669999989244,
-0.0272938989257813,-0.0284909997558591,-0.0400310517578131,0.0562065751535871,0.060353999999279,
-0.015322890625,-0.0117315881347655,-0.0256658417968758,0.0321116267481381,0.0640579999999318,
-0.044053310546875,-0.00215478149414028,-0.0807324799804707,0.0919949486505863,0.0677799999994022,
0.00383072265625,0.00742202514648471,-0.0879150849609385,0.0883109452844504,0.0715270000000601,
-0.0296881005859375,-0.0308852014160154,0.0270065947265614,0.0506422268628989,0.0754170000000158,
-0.0416591088867188,-0.00215478149414028,-0.020877438476564,0.0466475280573976,0.0791649999991932,
-0.015322890625,-0.00215478149414028,-0.0304542451171894,0.0341598463996994,0.082868999999846,
-0.0416591088867188,-0.0117315881347655,0.0246123930664055,0.0497883661697641,0.0866119999991497,
0.0158017309570313,-0.0356736047363279,0.00785298144531055,0.0397991217704932,0.0905779999993683,
-0.000957680664062498,-0.0237025964355466,0.00306457812499872,0.0239190691525596,0.0944099999996979,
-0.000957680664062498,-0.0237025964355466,-0.0520020600585944,0.0571571909769748,0.0982109999986278,
0.00383072265625,-0.0308852014160154,-0.0184832368164081,0.0361966869449176,0.101991999999882,
-0.0368707055664063,-0.0524330163574216,-0.0304542451171894,0.0709657042447978,0.105734999999186,
-0.0512359155273438,0.00263362182617222,-0.00172382519531311,0.0513325099440149,0.109565999999177,
0.0229843359375,0.0241814367675783,-0.0328484467773453,0.0468192485876945,0.113374999998996,
-0.0105344873046875,0.00502782348632835,-0.0352426484375012,0.0371254454609181,0.117152999999234,
-0.0201112939453125,-0.0476446130371091,-0.0472136567382826,0.0700257286874689,0.120881999999256,
-0.03447650390625,0.0217872351074222,-0.0400310517578131,0.0571471612598602,0.124826999999641,
-0.0177170922851563,0.00742202514648471,0.017429788085936,0.0259379900731809,0.128622000000178,
-0.0512359155273438,-0.0237025964355466,-0.0472136567382826,0.0735938958087685,0.132338999999774,
-0.005746083984375,-0.026096798095703,-0.0663672700195335,0.0715449151362208,0.136085000000094,
-0.0296881005859375,-0.0141257897949216,-0.0472136567382826,0.0575330395193182,0.13987300000008,
-0.0272938989257813,-0.0380678063964841,-0.00651222851562672,0.0472919012374286,0.143614999999045,
-0.015322890625,0.00263362182617222,0.00785298144531055,0.0174182736977404,0.147431999999753,
-0.0488417138671875,-0.0356736047363279,0.0365834013671869,0.0706856728337551,0.151158999999097,
-0.0105344873046875,0.0122104284667972,-0.0639730683593758,0.0659744152033859,0.15487899999971,
-0.0129286889648438,-0.0404620080566404,0.017429788085936,0.0459142963252835,0.158676999999443,
-0.0560243188476563,-0.0189141931152341,-0.0160890351562522,0.0612807315214443,0.162629000000379,
-0.0177170922851563,-0.0284909997558591,-0.0352426484375012,0.0486587781907686,0.166406000000279,
-0.0177170922851563,-0.016519991455078,-0.0232716401367199,0.0335912892186291,0.170245999999679,
-0.0105344873046875,-0.00215478149414028,0.0150355864257801,0.0184847874001086,0.174017999999705,
-0.03447650390625,-0.0141257897949216,-0.0855208833007826,0.0932844506843131,0.177818999998635,
-0.000957680664062498,-0.00694318481445277,-0.0280600434570317,0.0289221542495105,0.181623999998919,
0.013407529296875,-0.0189141931152341,0.0653138212890614,0.0693065927197866,0.185433999999077,
-0.0416591088867188,-0.0572214196777341,-0.0328484467773453,0.0780307162523512,0.189213999999993,
-0.00814028564453125,-0.0308852014160154,-0.020877438476564,0.0381579264927369,0.192976000000272,
-0.024899697265625,-0.0117315881347655,0.0317949980468732,0.0420540959346913,0.196866999998747,
0.0158017309570313,0.00502782348632835,-0.0424252534179708,0.045550805018431,0.200632000000041,
-0.0129286889648438,0.0265756384277347,0.0294007963867173,0.0416871968878284,0.204359999999724,
0.00383072265625,-0.0237025964355466,0.0198239897460919,0.0311364430098984,0.20810100000017,
-0.0392649072265625,-0.00694318481445277,0.00785298144531055,0.0406400058127284,0.211835000000065,
-0.0368707055664063,-0.0428562097167966,-0.0472136567382826,0.0736561811585087,0.215539999999237,
-0.0201112939453125,0.00502782348632835,-0.00172382519531311,0.0208017962317785,0.219325000000026,
-0.0225054956054688,-0.00694318481445277,0.000670376464842803,0.0235617179428843,0.223061999999118,
-0.0703895288085937,-0.0213083947753905,-0.0591846650390639,0.0944010488796917,0.226746000000276,
0.0158017309570313,0.00742202514648471,-0.0256658417968758,0.0310405636813462,0.230645999999979,
0.00622492431640626,0.00981622680664085,0.0389776030273428,0.0406738433052683,0.234587999999349,
-0.0105344873046875,-0.0237025964355466,-0.0400310517578131,0.0476998281484925,0.238330999998652,
-0.015322890625,-0.0596156213378904,-0.0807324799804707,0.101521163352306,0.242084999999861,
-0.00335188232421875,-0.0117315881347655,-0.00651222851562672,0.0138301986796619,0.245920999999726,
-0.024899697265625,-0.026096798095703,-0.0113006318359385,0.0377987046690636,0.249718999999459,
-0.0368707055664063,0.000239420166015858,-0.0496078583984385,0.0618097554263082,0.253536999998687,
-0.0201112939453125,-0.0117315881347655,-0.056790463378908,0.0613779360610116,0.257271000000401,
-0.00335188232421875,0.00263362182617222,-0.0496078583984385,0.0497906687434325,0.261028999999326,
-0.0368707055664063,-0.0380678063964841,-0.020877438476564,0.0569602866052088,0.264810999999099,
-0.0368707055664063,-0.00694318481445277,-0.0496078583984385,0.062198041441928,0.268643999999767,
-0.015322890625,-0.0117315881347655,-0.0711556733398453,0.0737261892797685,0.272375999998985,
-0.0225054956054688,-0.0117315881347655,-0.0543962617187521,0.0600256676896352,0.276090999999724,
0.00622492431640626,0.0457292517089847,-0.00172382519531311,0.046183175701901,0.279830999999831,
-0.0201112939453125,0.00742202514648471,-0.078338278320313,0.0812184489609389,0.283582000000024,
-0.00814028564453125,-0.0356736047363279,0.0246123930664055,0.0440980749887516,0.287296000000424,
-0.0177170922851563,0.0313640417480472,-0.00651222851562672,0.0366061141621688,0.29110000000037,
-0.0272938989257813,-0.00454898315429664,0.0102471831054682,0.0295068623866692,0.29482199999984,
-0.161369191894531,0.249236392822266,-1.08390297558594,1.12383471030388,0.298593999999866,
1.67498348144531,0.431195718994141,-0.485352560546877,1.79640377399485,0.302639999999883,
-0.573171877441406,-5.05392028442383,2.65584001757812,5.73795455204812,0.305664999999863,
-4.17883957763672,5.20762803100586,-6.27453217480469,9.16252388469467,0.308591999999408,
5.85286537841797,3.67533896850586,1.37494212939453,7.04660311997812,0.311646999998629,
0.796311472167969,-9.15039932495117,8.71077601611328,12.6586546903558,0.314619999999195,
-7.27933072753906,3.14861460327148,-8.20425871289063,11.4110600203868,0.317621999998664,
2.95827557128906,3.93151854614258,-1.32811154492188,5.09628420617448,0.320598000000246,
3.15220590576172,-3.10982853637695,5.54324721972656,7.09471812949533,0.323539999999412,
-5.22031729980469,0.299514627685547,-4.06468404248047,6.62292066146297,0.326557000000321,
3.49697094482422,-2.23833913208008,1.78195641162109,4.51822271607579,0.32951200000025,
3.18572472900391,0.732865128173828,-0.856453817871095,3.37926715239062,0.332572999999684,
-4.29136705566406,4.34332123168945,-0.727166928222658,6.14890577823274,0.335557000000335,
0.609563742675781,-3.71795575805664,1.08763793017578,3.9214435151368,0.338517000000138,
2.23283246826172,-3.16489517456055,-0.174106344726564,3.87716588715964,0.34153200000037,
-2.56275345703125,4.29304299682617,-0.279451217773438,5.00759587399372,0.344485999999961,
0.480276853027344,0.447955130615235,-0.0400310517578131,0.657975789602625,0.347524999999223,
1.98383549560547,-3.18883719116211,0.510635330078124,3.79012326259804,0.350483000000168,
-1.4326902734375,1.22367646850586,-0.351277267578126,1.91660669880248,0.353404999999839,
-0.336145913085938,1.44633722290039,-0.183683151367189,1.49620350799207,0.356427999999141,
1.09319247802734,-1.27587006469727,0.223331130859373,1.69493097500078,0.359387999998944,
-0.860476076660156,-0.263122762451172,-0.188471554687501,0.919333559460719,0.362382999999681,
-0.135032973632813,0.491050760498047,-0.0711556733398453,0.514225517844338,0.365335999998933,
1.20093155273438,-0.0667982263183592,0.0653138212890614,1.20455987507623,0.368361999999252,
-0.759919606933594,0.388100089111328,-0.131010714843752,0.863286334638861,0.37132500000007,
-0.182917006835938,-0.641406624755859,0.0294007963867173,0.66762676436666,0.374254000000292,
0.530555087890625,-0.296641585693359,-0.0136948334960945,0.60800697373779,0.377268000000186,
-0.577960280761719,0.833421597900391,-0.0136948334960945,1.01430626264925,0.380236999999397,
0.0373495458984375,-0.306218392333984,0.0126413847656242,0.308746655028394,0.383261999999377,
0.547314499511719,-0.593522591552734,0.0629196196289055,0.809803128293219,0.386239999999816,
-0.336145913085938,0.637097061767578,-0.0496078583984385,0.722044098800163,0.389196000000084,
-0.127850368652344,0.119949503173828,0.0485544096679682,0.18190967751715,0.392214999999851,
0.291134921875,-0.653377633056641,-0.00172382519531311,0.715307518265511,0.395167999999103,
-0.271502468261719,0.239659586181641,-0.0615788666992199,0.367344884740378,0.39820200000031,
-0.0416591088867188,0.325850845947266,-0.00890643017578263,0.328623766115995,0.401179999998931,
0.257616098632813,-0.332554610595703,-0.0448194550781267,0.423045395739926,0.404133000000002,
-0.211647426757813,-0.0404620080566404,-0.0687614716796894,0.226185647945965,0.407137999998668,
-0.257137258300781,0.18938135131836,-0.020877438476564,0.320032394096212,0.410083999999188,
0.142694418945313,-0.00215478149414028,-0.0041180268554708,0.14277008939764,0.413112999998702,
-0.0416591088867188,-0.107499654541015,-0.0424252534179708,0.122847707374831,0.416071999999986,
-0.101514150390625,-0.0572214196777341,-0.0113006318359385,0.117077401232506,0.418990999998641,
0.123540805664063,0.00742202514648471,-0.0136948334960945,0.124518936655781,0.422035999999935,
-0.0177170922851563,0.0600944616699222,-0.00651222851562672,0.0629892752988811,0.424988999999186,
-0.082360537109375,-0.0739808312988279,-0.0041180268554708,0.110785286106923,0.427981999999247,
0.090021982421875,-0.129047469482422,-0.0376368500976572,0.161783000294389,0.43101999999999,
-0.0464475122070312,0.165439334716797,0.0461602080078105,0.177927821503786,0.434057000000394,
0.00383072265625,-0.105105452880859,-0.0424252534179708,0.113409579793502,0.437171999999919,
0.0397437475585938,-0.0883460412597654,0.00545877978515463,0.0970277627950692,0.440209999998842,
-0.0991199487304688,0.15107412475586,-0.0184832368164081,0.181630904447154,0.443236999999499,
-0.044053310546875,0.00263362182617222,0.0198239897460919,0.048379961797379,0.446212999999261,
0.0349553442382813,-0.157777889404297,-0.0041180268554708,0.161656106042653,0.449157999999443,
-0.0512359155273438,0.0912190832519533,-0.020877438476564,0.106686023576636,0.452197999999044,
-0.0464475122070312,0.0864306799316408,0.00545877978515463,0.0982722346362942,0.455157000000327,
0.00143652099609375,-0.0979228479003904,-0.0232716401367199,0.100660404172387,0.458179999999629,
-0.044053310546875,-0.0572214196777341,0.00306457812499872,0.0722798497449946,0.46115699999973,
-0.082360537109375,0.0577002600097658,-0.0328484467773453,0.105790351799318,0.464176999999836,
-0.00335188232421875,-0.016519991455078,-0.0424252534179708,0.04565136756298,0.467133999998623,
-0.0608127221679688,-0.0476446130371091,-0.0974918916015639,0.124389972493708,0.470040000000154,
-0.0296881005859375,-0.0452504113769528,-0.0328484467773453,0.0633087948224281,0.473125000000437,
-0.005746083984375,0.00742202514648471,-0.00890643017578263,0.0129394140866824,0.476103999999395,
-0.063206923828125,-0.00215478149414028,-0.0472136567382826,0.0789233025519223,0.479089000000386,
-0.0201112939453125,-0.0476446130371091,0.00785298144531055,0.0523081505426355,0.482051999999385,
-0.00335188232421875,-0.00454898315429664,-0.0376368500976572,0.0380586501091014,0.484964999999647,
-0.00814028564453125,0.0265756384277347,0.00545877978515463,0.0283253788140435,0.488008000000264,
0.0181959326171875,-0.0428562097167966,0.0222181914062478,0.0515887071408457,0.490971999999601,
0.0301669409179688,-0.0667982263183592,-0.0136948334960945,0.0745626972963874,0.493983999998818,
-0.0488417138671875,0.0313640417480472,-0.0304542451171894,0.0655490440350988,0.496918999999252,
0.0086191259765625,-0.0332794030761716,-0.020877438476564,0.0402203361379398,0.499852999999348,
0.0158017309570313,-0.0739808312988279,0.0437660063476546,0.0873974908823302,0.502904999999373,
-0.0129286889648438,0.0337582434082033,-0.0448194550781267,0.0575808436014738,0.505855999999767,
0.0445321508789063,0.0337582434082033,-0.114251303222657,0.127185265451564,0.508891999999832,
0.0181959326171875,0.0241814367675783,-0.0735498750000012,0.0795324962544834,0.511870999998791,
0.147482822265625,-0.373256038818359,0.395713650390624,0.56361382744152,0.514822999999524,
-0.415154567871094,-0.176931502685547,-0.310575839355471,0.547827914456862,0.517841999999291,
-0.218830031738281,1.64505596069336,-1.34008255322266,2.13305343253635,0.520794000000024,
1.06446205810547,-2.03243778930664,2.44036186816406,3.34951472427529,0.523804999998902,
-0.771890615234375,0.275572611083985,-1.75906784375,1.94063779845231,0.526770999998917,
-0.261925661621094,1.53731688598633,0.362194827148436,1.60097887336699,0.529704999999012,
0.791523068847656,-1.28305266967773,0.278397769042968,1.53304867486107,0.532737999999881,
-0.810197841796875,-0.102711251220703,-0.602668441894533,1.01497753415296,0.535667000000103,
0.161848032226563,0.546117398681641,0.503452725097654,0.760199740256906,0.538704999999027,
0.722091220703125,-0.0596156213378904,-0.303393234375001,0.785504429006327,0.541650999999547,
-0.604296499023438,-0.0811634362792967,-0.00651222851562672,0.609757469196472,0.544570000000022,
-0.0512359155273438,-0.129047469482422,0.0509486113281241,0.14789905143714,0.547560999999405,
0.446758029785156,-0.0979228479003904,-0.020877438476564,0.45784002528807,0.550514999998995,
-0.498951625976563,0.282755216064453,-0.0520020600585944,0.575853671974616,0.553544999998849,
-0.005746083984375,-0.248757552490234,-0.0615788666992199,0.256330439522986,0.556464999999662,
0.418027609863281,-0.241574947509765,0.146716677734373,0.504610068664673,0.55949099999998,
-0.369664736328125,0.467108743896485,-0.095097689941408,0.603229779222881,0.562439999999697,
-0.044053310546875,-0.169748897705078,0.0150355864257801,0.176015485970398,0.565381000000343,
0.2528276953125,-0.42353427368164,0.0485544096679682,0.495641660071336,0.568447999999989,
-0.261925661621094,0.450349332275391,-0.0879150849609385,0.528345185896708,0.571485999998913,
0.0205901342773438,0.0122104284667972,0.0509486113281241,0.0562921769801637,0.574617000000217,
0.197761057128906,-0.394803853759765,-0.0520020600585944,0.444616388486347,0.577658999998675,
-0.18770541015625,0.22768857788086,-0.00172382519531311,0.295090462524017,0.580625999999029,
-0.0296881005859375,0.0624886633300783,-0.0041180268554708,0.0693049385423795,0.583684999999605,
0.121146604003906,-0.28945898071289,-0.00651222851562672,0.313855715731392,0.586647000000085,
-0.173340200195313,0.0672770666503908,-0.0759440766601571,0.200849524471919,0.589681999999812,
0.0301669409179688,0.096007486572266,0.0126413847656242,0.101426260953782,0.592682999998942,
0.0636857641601563,-0.0715866296386717,-0.109462899902345,0.145473875849646,0.595597999999882,
-0.123061965332031,-0.0500388146972653,0.0126413847656242,0.133446374609736,0.598621999999523,
-0.0105344873046875,-0.026096798095703,-0.0400310517578131,0.0489336632437959,0.601544999999533,
0.0469263525390625,-0.00215478149414028,0.0389776030273428,0.061040799336714,0.604574999999386,
-0.0656011254882813,0.0265756384277347,-0.0687614716796894,0.0986808604073132,0.607530999999653,
0.0158017309570313,-0.0859518395996092,-0.0184832368164081,0.0893254917423171,0.610488000000259,
0.0588973608398438,-0.026096798095703,-0.00890643017578263,0.06503281082056,0.613532999999734,
-0.142215578613281,0.110372696533203,-0.0831266816406266,0.198286278246638,0.616486999999324,
0.0277727392578125,-0.114682259521484,-0.0400310517578131,0.124602691783413,0.619523999999728,
0.0493205541992188,-0.114682259521484,-0.0136948334960945,0.125586966600666,0.62247699999898,
-0.0679953271484375,0.110372696533203,-0.0927034882812521,0.159371996892635,0.625404999998864,
0.0205901342773438,-0.0404620080566404,0.0365834013671869,0.0583049996237661,0.628448999999819,
0.0828393774414063,-0.198479317626953,-0.0615788666992199,0.223714905190738,0.631395999998858,
-0.0943315454101563,0.0337582434082033,-0.056790463378908,0.115166037477491,0.634427999999389,
0.0205901342773438,0.0720654699707033,0.0581312163085919,0.0948505345328833,0.637402000000293,
0.00383072265625,-0.105105452880859,-0.0448194550781267,0.114326786952402,0.640325000000303,
-0.0392649072265625,-0.0213083947753905,-0.0304542451171894,0.0540670109500452,0.643346999999267,
-0.0512359155273438,0.127132108154297,-0.0041180268554708,0.137130048161821,0.646294999998645,
0.0158017309570313,-0.0117315881347655,0.0102471831054682,0.0221885020449593,0.649348999999347,
-0.0560243188476563,-0.00454898315429664,-0.0136948334960945,0.0578529689347719,0.652267999999822,
-0.0225054956054688,-0.0141257897949216,-0.0328484467773453,0.0422499198278787,0.655273000000307,
0.00143652099609375,0.00263362182617222,-0.0113006318359385,0.0116920415833565,0.658253999999943,
-0.0320823022460938,0.00263362182617222,-0.0400310517578131,0.0513682312929861,0.661212999999407,
0.0397437475585938,-0.00933738647460913,-0.0041180268554708,0.0410330403621255,0.664241999998922,
-0.00335188232421875,0.0313640417480472,-0.0304542451171894,0.0438451739139727,0.667224999999235,
-0.0464475122070312,-0.00694318481445277,-0.0400310517578131,0.0617095155581915,0.670205999998871,
-0.0225054956054688,-0.0667982263183592,-0.0304542451171894,0.0767851640447838,0.673152999999729,
-0.000957680664062498,-0.0524330163574216,-0.0496078583984385,0.0721877965550375,0.676065999999992,
-0.024899697265625,0.0505176550292972,-0.0136948334960945,0.0579618569238822,0.679097000000183,
-0.0225054956054688,-0.0620098229980467,-0.131010714843752,0.146681706032374,0.682029999999941,
-0.0129286889648438,-0.016519991455078,-0.00651222851562672,0.0219652051268652,0.685038999999961,
-0.0296881005859375,-0.00215478149414028,0.0677080229492173,0.0739621712186708,0.688025999999809,
-0.00335188232421875,0.00263362182617222,0.0365834013671869,0.0368309154737075,0.690988000000289,
-0.0105344873046875,-0.0763750329589842,0.0150355864257801,0.0785505565952632,0.69399599999997,
-0.0464475122070312,0.00502782348632835,0.00785298144531055,0.0473742516227157,0.69694299999901,
-0.0201112939453125,-0.016519991455078,0.00306457812499872,0.0262062187450772,0.699943999999959,
-0.0177170922851563,-0.0452504113769528,-0.020877438476564,0.0528900985645416,0.702868999998827,
-0.000957680664062498,-0.0284909997558591,-0.0711556733398453,0.0766536631074436,0.705783999999767,
-0.00335188232421875,0.0146046301269533,-0.0352426484375012,0.0382958823524127,0.708870999998908,
-0.0464475122070312,-0.00215478149414028,0.0126413847656242,0.0481852579354138,0.711905999998635,
-0.0105344873046875,-0.00933738647460913,-0.0352426484375012,0.0379500524088985,0.715002999999342,
-0.0272938989257813,-0.0380678063964841,-0.0113006318359385,0.0481852579354141,0.718015999998897,
-0.0105344873046875,0.00502782348632835,-0.0136948334960945,0.0179945240633935,0.720950999999332,
-0.044053310546875,-0.00694318481445277,0.0246123930664055,0.0509379218064725,0.723979999998846,
-0.0272938989257813,-0.026096798095703,0.00785298144531055,0.0385703138047779,0.72692300000017,
-0.0177170922851563,0.0169988317871097,-0.0400310517578131,0.0469610556312771,0.729980000000069,
-0.0392649072265625,0.00263362182617222,-0.0113006318359385,0.0409435365268473,0.732952999998815,
-0.015322890625,-0.0237025964355466,-0.0376368500976572,0.0470439851645842,0.735873999999967,
-0.0320823022460938,0.0241814367675783,-0.0496078583984385,0.0638353790341502,0.73890399999982,
-0.0320823022460938,0.0122104284667972,-0.0543962617187521,0.0643220177678488,0.741880999999921,
0.0086191259765625,0.0146046301269533,-0.111857101562501,0.113135298310071,0.744936999999481,
-0.005746083984375,0.000239420166015858,-0.020877438476564,0.0216550742440219,0.7479000000003,
0.013407529296875,0.00263362182617222,0.00785298144531055,0.0157596676154748,0.75097199999982,
-0.005746083984375,-0.0284909997558591,-0.00890643017578263,0.0303986685024188,0.753903999999238,
-0.0296881005859375,0.000239420166015858,-0.0663672700195335,0.0727052623147892,0.75689599999896,
0.00622492431640626,-0.00933738647460913,0.00785298144531055,0.0136969261698233,0.759946999998647,
-0.044053310546875,0.00742202514648471,-0.020877438476564,0.0493117436799509,0.762917000000016,
-0.0799663354492188,-0.0141257897949216,-0.020877438476564,0.0838452156050064,0.765894999998636,
-0.0416591088867188,0.0241814367675783,0.00306457812499872,0.0482660841219184,0.768872999999076,
-0.00335188232421875,0.000239420166015858,0.0509486113281241,0.0510593128958426,0.771815000000061,
-0.0679953271484375,0.0146046301269533,-0.00890643017578263,0.0701140801383306,0.774825999998939,
-0.0536301171875,0.000239420166015858,0.0413718046874987,0.0677338395092247,0.777781999999206,
0.0181959326171875,-0.0332794030761716,-0.0400310517578131,0.0551461307595758,0.780823999999484,
-0.0105344873046875,-0.0189141931152341,-0.00651222851562672,0.0226082118756158,0.783755000000383,
-0.0129286889648438,-0.0117315881347655,-0.0136948334960945,0.02218850204496,0.786670999999842,
-0.0129286889648438,0.00742202514648471,-0.0687614716796894,0.0703589187181089,0.789689999999609,
-0.0320823022460938,-0.0141257897949216,0.000670376464842803,0.0350608251378178,0.792654999999286,
-0.000957680664062498,0.000239420166015858,-0.0472136567382826,0.0472239754454302,0.795680999999604,
-0.0105344873046875,-0.00454898315429664,-0.0328484467773453,0.0347949583444899,0.798616000000038,
-0.0272938989257813,-0.0380678063964841,-0.0591846650390639,0.0754780721679956,0.801514999999199,
-0.005746083984375,-0.026096798095703,0.00306457812499872,0.0268970628710199,0.804535999999644,
-0.0320823022460938,-0.0644040246582029,-0.0256658417968758,0.0763929836092712,0.807482999998683,
0.00143652099609375,0.000239420166015858,-0.00172382519531311,0.00225665413657245,0.810540999998921,
0.0086191259765625,-0.0284909997558591,-0.00651222851562672,0.0304702399059797,0.813489000000118,
-0.024899697265625,-0.00215478149414028,-0.020877438476564,0.0325654025700586,0.816409999999451,
-0.0177170922851563,-0.00694318481445277,-0.0041180268554708,0.0194694971581387,0.819410000000062,
-0.0225054956054688,-0.00454898315429664,0.0102471831054682,0.0251434950192459,0.822369999999864,
-0.0225054956054688,0.000239420166015858,0.0294007963867173,0.037026497034379,0.825392999999167,
-0.0177170922851563,-0.0524330163574216,-0.0113006318359385,0.0564873511794438,0.828322999999727,
-0.00335188232421875,-0.00215478149414028,-0.0160890351562522,0.0165751395367284,0.831242999998722,
-0.0296881005859375,0.0146046301269533,0.0102471831054682,0.0346364446666059,0.834315000000061,
-0.00814028564453125,0.000239420166015858,0.017429788085936,0.0192384792827056,0.837295999999697,
-0.0105344873046875,-0.0237025964355466,-0.00651222851562672,0.0267431789583578,0.840294999999969,
-0.0320823022460938,0.00263362182617222,-0.0113006318359385,0.0341161891368956,0.843265999999858,
0.00622492431640626,0.0122104284667972,-0.0591846650390639,0.0607508750708494,0.84632099999908,
0.00143652099609375,-0.00215478149414028,0.0126413847656242,0.0129039251645483,0.84937699999864,
-0.0201112939453125,-0.0380678063964841,0.0413718046874987,0.0597096998074475,0.852391999998872,
-0.0679953271484375,0.00502782348632835,-0.095097689941408,0.117013734899903,0.855489999999918,
-0.00814028564453125,-0.0117315881347655,-0.109462899902345,0.110390311466039,0.858463999999003,
-0.00814028564453125,-0.0380678063964841,-0.020877438476564,0.0441734034409561,0.861447999999655,
0.032561142578125,-0.00694318481445277,0.0294007963867173,0.0444166933656012,0.864419999999882,
-0.03447650390625,-0.0189141931152341,-0.0520020600585944,0.065196551083134,0.867363999999725,
-0.0536301171875,-0.0141257897949216,-0.020877438476564,0.059258711125184,0.870391000000382,
-0.0416591088867188,0.00263362182617222,0.0294007963867173,0.0510570675355723,0.873357000000397,
-0.0201112939453125,0.0146046301269533,0.017429788085936,0.0303571553018479,0.876379999999699,
0.00143652099609375,0.0217872351074222,0.0222181914062478,0.0311511674831454,0.879366999999547,
0.0086191259765625,-0.00694318481445277,-0.0615788666992199,0.0625655973513223,0.882301999999981,
-0.0464475122070312,-0.0356736047363279,-0.056790463378908,0.0815790058525915,0.885302999999112,
-0.0105344873046875,-0.00215478149414028,0.0126413847656242,0.0165958764412328,0.888283000000229,
-0.0177170922851563,0.0289698400878908,-0.0376368500976572,0.0506920060663634,0.891325999999026,
-0.0416591088867188,0.000239420166015858,-0.0280600434570317,0.0502285249043001,0.894312000000355,
-0.03447650390625,0.00502782348632835,-0.0184832368164081,0.0394403140684601,0.897272999998677,
0.00143652099609375,-0.0284909997558591,-0.0280600434570317,0.0400145810732924,0.900297999998656,
0.0205901342773438,-0.0284909997558591,-0.0496078583984385,0.0607999203250048,0.903245999999854,
-0.0177170922851563,0.00981622680664085,-0.0256658417968758,0.0326953988032325,0.906278999998904,
-0.024899697265625,0.00502782348632835,-0.020877438476564,0.032880714260371,0.909239999999045,
-0.000957680664062498,0.0146046301269533,-0.00890643017578263,0.0171329177863995,0.912196999999651,
-0.00814028564453125,0.00502782348632835,0.00545877978515463,0.0110155134300245,0.915230999999039,
0.00622492431640626,-0.0213083947753905,-0.0160890351562522,0.0274163167275984,0.918193999999858,
-0.00814028564453125,-0.016519991455078,-0.0543962617187521,0.0574293274993308,0.921201999999539,
-0.00814028564453125,-0.0284909997558591,0.017429788085936,0.034377301089288,0.924159000000145,
-0.03447650390625,-0.0404620080566404,0.0126413847656242,0.054640717659689,0.927095999999437,
-0.0799663354492188,0.0313640417480472,-0.0448194550781267,0.0968870552419179,0.93011800000022,
-0.0392649072265625,0.0265756384277347,-0.0615788666992199,0.0777171430336482,0.933096999999179,
-0.0201112939453125,-0.0404620080566404,0.0150355864257801,0.0476204483315465,0.936131999998906,
-0.0416591088867188,0.00263362182617222,0.0437660063476546,0.0604804152497461,0.939091999998709,
-0.0225054956054688,-0.0117315881347655,-0.0376368500976572,0.045394492814493,0.942079999998896,
-0.005746083984375,-0.0452504113769528,-0.00890643017578263,0.0464751730434115,0.945028000000093,
-0.0272938989257813,-0.0308852014160154,-0.0424252534179708,0.0591502722957185,0.947940000000017,
-0.015322890625,-0.0500388146972653,0.0365834013671869,0.063851540380837,0.950951999999234,
0.00622492431640626,0.0193930334472658,0.0365834013671869,0.0418710482866676,0.953932999998869,
0.00143652099609375,0.0146046301269533,-0.0448194550781267,0.0471608138947744,0.95694899999944,
-0.0272938989257813,0.0122104284667972,0.0222181914062478,0.0372518390321632,0.959924999999203,
-0.0488417138671875,-0.0332794030761716,-0.0232716401367199,0.0635185084620499,0.962826999999379,
-0.0201112939453125,0.00502782348632835,0.0317949980468732,0.037956093765891,0.965876999998727,
-0.005746083984375,-0.0308852014160154,0.0437660063476546,0.0538737084233698,0.968817999999374,
-0.015322890625,-0.00454898315429664,0.0317949980468732,0.0355866003664927,0.971840999998676,
-0.0129286889648438,0.0241814367675783,-0.0041180268554708,0.0277281630779329,0.974790000000212,
-0.0105344873046875,-0.0476446130371091,-0.056790463378908,0.074874169811889,0.977708000000348,
-0.044053310546875,0.00502782348632835,0.0557370146484359,0.071222103177799,0.980733999998847,
0.0181959326171875,0.0146046301269533,-0.0304542451171894,0.0383646742539566,0.983706999999413,
0.0158017309570313,0.0313640417480472,-0.0041180268554708,0.0353603727524757,0.98681199999919,
-0.015322890625,-0.026096798095703,0.017429788085936,0.034923220937855,0.989853999999468,
-0.024899697265625,0.00742202514648471,-0.0591846650390639,0.064636722975264,0.992883999999322,
-0.0368707055664063,0.0217872351074222,-0.0687614716796894,0.0810078547435212,0.996008000000074,
0.0277727392578125,-0.026096798095703,0.0461602080078105,0.0598592743027733,0.998983999999837,
0.0086191259765625,-0.0284909997558591,0.0341891997070292,0.0453313112130605,1.00201600000037,
-0.0416591088867188,-0.0404620080566404,-0.0232716401367199,0.0625637649431691,1.00495799999953,
-0.0129286889648438,-0.016519991455078,-0.0424252534179708,0.047328249952904,1.00790599999891,
-0.0488417138671875,-0.0476446130371091,0.00306457812499872,0.0683001742605705,1.0109109999994,
-0.0177170922851563,0.00742202514648471,0.017429788085936,0.0259379900731809,1.01389099999869,
