X,Y,Z,Magnitude,Seconds,
-0.0113006318359375,0.0500866987304688,0.0242772048339859,0.0567958127343861,0.0,
0.012641384765625,0.00459686718750008,-0.0714908615722649,0.0727453028385808,0.00393799999983457,
-0.00890643017578124,0.00938527050781257,0.057796028076174,0.059226587461737,0.00799199999983102,
-0.044819455078125,0.0357214887695313,-0.0116358200683582,0.0584824813262487,0.0119560000002821,
0.0270065947265625,-0.00737414111328116,0.0266714064941418,0.0386664976466595,0.0159530000000814,
0.00545877978515624,0.00459686718750008,-0.0140300217285141,0.0157407424978913,0.0198829999999361,
0.000670376464843747,0.0213562788085938,-0.0236068283691395,0.0318405778026251,0.0239280000005238,
-0.0113006318359375,0.0285388837890626,-0.00924161840820226,0.0320558836817805,0.0278930000004038,
-0.006512228515625,-0.00976834277343741,0.0410366164550791,0.0426829419189956,0.0318120000001727,
-0.0184832368164062,-0.0313161577148436,-0.00445321508788865,0.036635541511643,0.0357610000000932,
-0.01608903515625,0.0285388837890626,-0.0499430466308581,0.0597296647149198,0.0398430000004737,
-0.0304542451171875,0.00938527050781257,0.019488801513674,0.0373544874493271,0.0439010000000053,
-0.0136948334960937,-0.0504697709960937,-0.00445321508788865,0.0524840678063627,0.0478659999998854,
0.0294007963867188,-0.00258573779296867,0.0266714064941418,0.0397801054860722,0.0517939999999726,
0.000670376464843747,0.0165678754882813,0.0458250197753927,0.0487327029849047,0.0556429999996908,
-0.025665841796875,0.0141736738281251,-0.052337248291014,0.0599901327186692,0.0595640000001367,
0.00785298144531249,0.00220266552734383,0.0170945998535164,0.0189406018161412,0.0635520000005272,
0.0174297880859375,-0.0337103593749999,-0.0307894333496073,0.0488689579170893,0.0674129999997604,
-0.01608903515625,-0.0193451494140624,-0.00924161840820226,0.0268048385355008,0.0713900000000649,
0.0102471831054687,-0.0241335527343749,0.0314598098144554,0.0409530555971293,0.0753389999999854,
0.0270065947265625,0.0381156904296875,-0.0355778366699209,0.0587192002480291,0.0791989999997895,
0.0150355864257813,-0.0265277543945311,0.0745554396972672,0.0805500105576439,0.0830880000003162,
-0.0136948334960937,-0.00258573779296867,0.0290656081542977,0.0322342067034214,0.0868879999998171,
-0.00411802685546875,-0.0169509477539062,-0.0571256516113259,0.0597296647149186,0.0906800000002477,
-0.00890643017578124,0.0309330854492188,0.0147003981933604,0.0353875964276764,0.0946030000004612,
-0.00411802685546875,0.0237504804687501,-0.0427604416503886,0.0490866462270048,0.0985689999997703,
-0.0328484467773437,0.0117794721679688,-0.00924161840820226,0.0360996389323045,0.102425000000039,
0.0102471831054687,0.0357214887695313,-0.00684741674804457,0.0377877842381656,0.10636599999998,
-0.0304542451171875,0.0213562788085938,-0.0571256516113259,0.0681681139699985,0.110396000000037,
-0.0472136567382813,0.0788171186523439,0.0123061965332045,0.0926968718370354,0.11435100000017,
0.127563064453125,-0.170179854003906,0.143987287841798,0.256838192606745,0.118312999999944,
-0.128616513183594,-0.0169509477539062,-0.0930386765136699,0.159642530112362,0.122241000000031,
0.122774661132812,0.0476924970703125,0.0075177932128927,0.131926907444503,0.126134000000093,
-0.0807324799804687,0.0740287153320314,0.0458250197753927,0.118734647238802,0.129963999999745,
0.0294007963867188,-0.0217393510742186,0.0290656081542977,0.0467099110540858,0.133950000000368,
0.06052541796875,0.117124345214844,0.02188300317383,0.133642449432071,0.137904000000162,
0.0868616362304688,-0.0935654008789062,0.0889206496582045,0.155583771730543,0.141813000000184,
-0.0759440766601562,-0.043287166015625,0.0242772048339859,0.0907230080849355,0.145856000000094,
0.129957266113281,0.0596635053710938,0.043430818115235,0.149448522411442,0.149994000000333,
0.0246123930664063,0.143460563476563,0.0075177932128927,0.145750541612235,0.153996000000006,
-0.00411802685546875,-0.0672291826171875,-0.0379720383300768,0.0773213866630593,0.157889000000068,
-0.0879150849609375,-0.0744117875976562,-0.05473144995117,0.127521401776035,0.161756000000423,
-0.0304542451171875,0.0237504804687501,-0.052337248291014,0.0650440921746892,0.16566899999998,
0.0844674345703125,-0.0193451494140624,0.0554018264160163,0.10285108010601,0.169651000000158,
-0.0807324799804687,0.00459686718750008,-0.0116358200683582,0.0816961248799446,0.173649000000296,
-0.0113006318359375,0.0237504804687501,-0.0236068283691395,0.0353422119856397,0.177521999999954,
-0.0184832368164062,0.0117794721679688,0.0075177932128927,0.0231711722310099,0.181524000000536,
0.000670376464843747,-0.0217393510742186,-0.0427604416503886,0.0479739946207217,0.185418000000027,
-0.063973068359375,-0.0313161577148436,-0.0283952316894514,0.0766781871983933,0.189393000000564,
-0.0208774384765625,-0.0169509477539062,0.00991199487304861,0.0286609439736665,0.193261000000348,
-0.00890643017578124,0.0165678754882813,0.019488801513674,0.0270856489881753,0.197227999999996,
0.0198239897460938,0.033327287109375,-0.00684741674804457,0.0393774777207143,0.201076999999714,
-0.0472136567382813,-0.00737414111328116,0.00512359155273501,0.048059947255049,0.204955000000155,
-0.025665841796875,-0.0408929643554687,-0.00924161840820226,0.049156662617825,0.208932999999888,
0.00785298144531249,0.0165678754882813,-0.0116358200683582,0.0217153430651883,0.212905000000319,
0.012641384765625,0.0668461103515625,-0.05473144995117,0.0873140234537573,0.216935999999805,
-0.0304542451171875,0.00220266552734383,-0.0236068283691395,0.0385952733729546,0.221000999999887,
-0.05439626171875,-0.00019153613281242,0.000335188232423178,0.0543976316232249,0.225040000000263,
0.00306457812499999,0.0357214887695313,0.000335188232423178,0.0358542710168138,0.228992999999718,
-0.0184832368164062,0.0309330854492188,0.0314598098144554,0.0478351905210142,0.232877999999801,
0.0150355864257813,-0.05286397265625,0.0314598098144554,0.0633276250757092,0.236786000000393,
0.00785298144531249,-0.00019153613281242,0.0649786330566418,0.065451728453726,0.2407060000005,
-0.025665841796875,0.0452982954101563,0.0338540114746113,0.0621028589932148,0.244606000000203,
0.0198239897460938,0.0141736738281251,0.0458250197753927,0.0519019849009114,0.248521999999866,
-0.01608903515625,-0.00497993945312492,0.0170945998535164,0.0239975455696552,0.252441000000545,
0.02221819140625,-0.0169509477539062,-0.0355778366699209,0.0452411883269216,0.256532999999763,
-0.0472136567382813,0.0548751020507813,0.00272938989257909,0.0724420856744864,0.260430999999699,
-0.0017238251953125,-0.0313161577148436,0.0123061965332045,0.0336914793447662,0.264398999999685,
-0.0017238251953125,-0.0145567460937499,-0.0188184250488259,0.0238537953261148,0.268283000000338,
-0.00890643017578124,0.0213562788085938,-0.0810676682128886,0.0843052902996096,0.272168999999849,
-0.01608903515625,-0.00976834277343741,-0.0116358200683582,0.0221284857471455,0.276123000000553,
-0.0136948334960937,-0.0384987626953125,-0.105009684814451,0.112679798980945,0.280056999999942,
-0.0208774384765625,0.0117794721679688,-0.0595198532714836,0.0641656943807011,0.284048000000439,
-0.0136948334960937,0.0309330854492188,0.0338540114746113,0.047859150983041,0.287967000000208,
-0.0232716401367187,-0.0241335527343749,-0.0188184250488259,0.0384464656835199,0.291971999999987,
-0.00411802685546875,-0.00976834277343741,0.0625844313964858,0.0634758987249741,0.295882000000347,
0.0413718046875,0.210498209960938,-0.0667024582519513,0.224656049454968,0.299848000000566,
-0.159741134765625,-0.218063887207031,-0.0882502731933581,0.284354004295267,0.303740999999718,
-0.0879150849609375,-0.00976834277343741,0.0266714064941418,0.0923896455702909,0.307515000000421,
0.355012222167969,0.251199638183594,0.0745554396972672,0.441240806930479,0.311349999999948,
-0.0687614716796875,0.0381156904296875,-0.0260010300292954,0.0828070009544638,0.314830000000256,
-0.195654159667969,-0.249188508789063,-0.0140300217285141,0.317131368075752,0.31786000000011,
-0.157346933105469,-0.0983538041992187,-0.00445321508788865,0.185610773617196,0.320834000000104,
0.185023904296875,0.203315604980469,0.0338540114746113,0.276978653478488,0.323946000000433,
0.129957266113281,0.0955765302734376,-0.0427604416503886,0.166889842485646,0.326943000000028,
-0.214807772949219,-0.0384987626953125,-0.0188184250488259,0.219040332290178,0.329983000000539,
-0.107068698242188,-0.170179854003906,-0.0451546433105463,0.206067539085054,0.332970999999816,
0.089255837890625,-0.0408929643554687,-0.0212126267089836,0.100443091665031,0.335990000000493,
0.0677080229492188,0.109941740234375,-0.0260010300292954,0.131710349555527,0.339149000000361,
-0.104674496582031,0.0476924970703125,-0.0307894333496073,0.11907692353052,0.342163000000255,
0.0246123930664063,-0.00019153613281242,-0.0355778366699209,0.0432618658943072,0.345263000000159,
0.106015249511719,-0.0720175859375,0.0242772048339859,0.130442126967665,0.348289000000477,
-0.174106344726563,-0.0289219560546874,-0.0762792648925767,0.192270707775849,0.351257999999689,
-0.16931794140625,0.0596635053710938,-0.0188184250488259,0.180506044986131,0.354377999999997,
0.364589028808594,0.0452982954101563,0.0410366164550791,0.369677020363372,0.357479999999669,
0.012641384765625,-0.0193451494140624,-0.0140300217285141,0.0270348094934577,0.360534000000371,
-0.250720797851563,0.0285388837890626,-0.0475488449707022,0.25678060483864,0.36353599999984,
0.0533428129882813,-0.186939265625,0.00272938989257909,0.194420148902069,0.366582000000562,
0.0748906279296875,0.109941740234375,0.0410366164550791,0.139211336778105,0.369682000000466,
0.144322476074219,0.0931823286132813,0.0386424147949231,0.176082820533889,0.37269600000036,
-0.0615788666992187,-0.00258573779296867,-0.052337248291014,0.0808568514262669,0.37572100000034,
-0.255509201171875,-0.0504697709960937,0.000335188232423178,0.260446274726745,0.378681000000142,
0.0653138212890625,-0.0720175859375,0.0123061965332045,0.0979993388179668,0.381769000000531,
0.149110879394531,-0.0241335527343749,-0.00205901342773274,0.151065291373263,0.384745000000294,
-0.0424252534179688,0.119518546875,-0.0283952316894514,0.129964896635161,0.387775000000147,
-0.0903092866210938,-0.00737414111328116,-0.0212126267089836,0.093059769713148,0.390918000000056,
-0.0759440766601562,-0.100748005859375,-0.0714908615722649,0.145012436545108,0.393900000000031,
0.0557370146484375,-0.0600465776367187,0.0721612380371113,0.1091762362552,0.397007000000485,
0.0174297880859375,-0.0241335527343749,-0.0427604416503886,0.0521026031061773,0.399988000000121,
-0.0807324799804687,0.0644519086914063,-0.033183635009765,0.108503158895137,0.402979000000414,
0.0150355864257813,-0.00976834277343741,0.0242772048339859,0.0301806569553715,0.406071999999767,
0.050948611328125,-0.0241335527343749,-0.0307894333496073,0.0642353373917901,0.40906300000006,
0.00785298144531249,-0.062440779296875,0.0075177932128927,0.0633801029627855,0.412170000000515,
-0.063973068359375,0.00938527050781257,0.0865264479980485,0.108016031129537,0.415173000000323,
-0.05439626171875,0.0548751020507813,0.0482192214355486,0.0910786661623285,0.418130000000019,
0.0461602080078125,0.0381156904296875,0.0865264479980485,0.105215953464364,0.421215999999731,
0.0772848295898438,-0.0552581743164062,0.0266714064941418,0.0986801633454732,0.424235999999837,
-0.0352426484375,-0.0408929643554687,0.000335188232423178,0.0539851012207814,0.427254000000175,
-0.0400310517578125,-0.0193451494140624,-0.0140300217285141,0.0466214695220093,0.430261000000428,
-0.006512228515625,0.117124345214844,-0.0403662399902327,0.12405625616306,0.433258000000023,
0.0485544096679688,0.0405098920898438,0.019488801513674,0.0661694449105863,0.436349000000519,
0.0294007963867188,-0.107930610839844,-0.00924161840820226,0.112244514766816,0.439322000000175,
-0.0280600434570312,-0.100748005859375,0.0266714064941418,0.107930026627565,0.442380999999841,
0.02221819140625,-0.0911711992187499,0.895766609130861,0.900668448226178,0.445388000000094,
4.98060982958985,-16.0892266923828,9.38740134729004,19.2819343917718,0.448371999999836,
4.64063319384766,-8.74381599902344,-22.4309401657715,24.5180927354686,0.451375000000553,
-8.90097139599609,18.7098958875732,-7.93644331518555,22.1872627516628,0.454400000000533,
-7.19629981396484,18.7098958875732,3.41446675561524,20.334835095508,0.457500000000437,
-1.10305658886719,4.55118581982422,9.38740134729004,10.490630594007,0.460497000000032,
5.32058646533203,-16.7284785356445,3.18941179956055,17.8416081696626,0.463463000000047,
3.89124807421875,-14.1666827592773,-16.7758358444824,22.2994479810182,0.466535999999905,
0.704565664550781,-9.87148498095703,1.54698946069336,10.0167761728223,0.469492000000173,
0.261638357421875,1.19451509228516,4.80070951684571,4.9540016956905,0.47262899999987,
-2.05834305126953,9.83997728710938,-3.08818495336914,10.5165971413644,0.475618999999824,
-4.134115890625,8.15445931835938,3.08885532983399,9.65024083743717,0.478737000000365,
0.419655666992188,0.399640141113281,0.969986860595705,1.12991045262712,0.481802999999672,
3.84815244433594,-5.320107625,-2.22866655737305,6.93388613984862,0.484840000000077,
0.888919192382813,-5.3584148515625,0.237361152587892,5.4368306363901,0.487935000000107,
-1.68963599560547,-0.213275483886719,-0.557513798583983,1.79197596671505,0.490953000000445,
-0.9546160859375,3.55519792919922,0.302004597412111,3.6934984722037,0.494034000000283,
-0.516477182128906,3.35887339306641,1.15194618676758,3.58828080945703,0.497119000000566,
0.841035159179688,-1.53008639697266,-0.567090605224609,1.83578219724214,0.500119000000268,
1.27677986132813,-3.02646243457031,-0.255844389404295,3.29470757939881,0.503201000000445,
-0.425497519042969,-0.615501362792969,-0.0667024582519513,0.75122518877403,0.506183999999848,
-1.14615221875,1.74996987744141,-0.0690966599121072,2.09304415359754,0.509281999999985,
-0.255509201171875,1.31661937695313,0.318764009033204,1.37854344476583,0.512346999999863,
0.450780288574219,-0.4550898515625,0.215813337646486,0.675932717264337,0.515312999999878,
0.388531045410156,-0.488608674804687,-0.351612455810546,0.716467814645588,0.51835200000005,
0.273609365722656,-0.577194136230469,0.203842329345704,0.670497465426286,0.521335000000363,
-0.470987350585938,0.229651823242188,-0.109798088134765,0.535373387915828,0.524433000000499,
-0.382401889160156,0.241622831542969,0.00991199487304861,0.452450047185832,0.527426999999989,
0.17544709765625,0.0213562788085938,-0.0307894333496073,0.179403912796076,0.530502999999953,
0.220936929199219,0.40682274609375,0.0386424147949231,0.464554743431195,0.533604000000196,
0.113197854492187,-0.299466743652344,0.115256867919923,0.340262002606938,0.536634000000049,
-0.0376368500976562,-0.51255069140625,-0.181624137939451,0.545079876007679,0.539679999999862,
-0.272268612792969,0.0668461103515625,0.0937090529785163,0.295601059861887,0.542690000000221,
-0.0903092866210938,0.414005351074219,0.0721612380371113,0.429841182581598,0.545691000000261,
0.141928274414063,0.172190983398438,0.079343843017579,0.236830773479024,0.548770000000331,
0.089255837890625,-0.141449434082031,0.0338540114746113,0.170647710481587,0.551817000000483,
-0.083126681640625,-0.242005903808594,-0.033183635009765,0.258027239475326,0.55490699999973,
-0.0472136567382813,-0.043287166015625,-0.0116358200683582,0.0651022306294319,0.557862999999998,
-0.044819455078125,0.160219975097656,0.0410366164550791,0.171357018717866,0.560824000000139,
0.0102471831054687,0.150643168457031,-0.0355778366699209,0.155126243513089,0.563939000000573,
0.0940442412109375,-0.0863827958984374,-0.00445321508788865,0.127773776091932,0.566909000000123,
0.012641384765625,-0.112719014160156,-0.0188184250488259,0.114976144844695,0.56998300000032,
-0.0759440766601562,-0.00497993945312492,-0.0260010300292954,0.0804260911601751,0.57299200000034,
-0.0520020600585938,0.0476924970703125,-0.0260010300292954,0.075198684095692,0.576057000000219,
0.0198239897460938,0.0596635053710938,-0.00684741674804457,0.0632424822310223,0.579061000000365,
0.050948611328125,-0.0241335527343749,-0.109798088134765,0.123425319614319,0.582014999999956,
0.00545877978515624,-0.0792001909179687,0.00272938989257909,0.0794349928392471,0.585095999999794,
-0.0376368500976562,-0.00497993945312492,0.0266714064941418,0.046397157311693,0.588085000000319,
-0.063973068359375,0.0500866987304688,-0.00924161840820226,0.0817718678754059,0.591108000000531,
0.0198239897460938,0.00459686718750008,-0.0355778366699209,0.0409866346447755,0.594127000000299,
0.0413718046875,0.00699106884765632,0.0506134230957045,0.065743591810899,0.597162000000026,
-0.00890643017578124,-0.0145567460937499,0.0123061965332045,0.0210396251969427,0.600258999999824,
-0.0017238251953125,-0.0121625444335937,0.00512359155273501,0.0133097802687494,0.603253000000223,
0.0485544096679688,-0.0792001909179687,-0.0236068283691395,0.0958513603727023,0.606316999999763,
0.151505081054688,-0.577194136230469,0.266091572509767,0.653384714731639,0.609312999999929,
0.431626675292969,-1.03209245166016,-0.241479179443358,1.14447743957798,0.612288000000262,
-0.344094662597656,0.504985014160156,-0.567090605224609,0.833668252897123,0.615389999999934,
-1.29698692333984,3.18170247021484,0.495934931884767,3.47150646621166,0.618419999999787,
0.0437660063476563,1.42435845166016,0.24454375756836,1.44586102772465,0.621573999999782,
0.946380032226562,-2.37763378466797,-0.380342875732421,2.58716800430743,0.62462400000004,
0.513029531738281,-3.07913487109375,-0.162470524658202,3.12580670007021,0.627653999999893,
-0.1118571015625,-0.3784753984375,-0.272603801025388,0.479654532685638,0.630756000000474,
-0.447045333984375,2.17613777294922,0.263697370849611,2.23717711433105,0.633770000000368,
-0.583514828613281,2.15698415966797,0.438474092041018,2.27713191310063,0.636921999999686,
0.146716677734375,-0.431147834960938,-0.090644474853514,0.464360484901962,0.640021000000161,
0.6542874296875,-2.04005135058594,-0.260632792724609,2.15820087255983,0.642988000000514,
0.134745669433594,-0.840556318847656,-0.13134590307617,0.861361170961824,0.646091999999953,
-0.439862729003906,1.06522820263672,0.057796028076174,1.15391972204344,0.649129999999786,
-0.28423962109375,1.17057307568359,0.17511190942383,1.21725004355594,0.652240000000347,
0.0964384428710938,-0.0768059892578125,-0.0834618698730463,0.148880545982266,0.655244999999923,
0.25206155078125,-0.828585310546875,-0.145711113037107,0.87824846751863,0.658212999999705,
0.108409451171875,-0.610712959472656,-0.0236068283691395,0.620709441137226,0.661248000000342,
-0.24593239453125,0.423582157714844,0.0314598098144554,0.49080984774941,0.664291000000048,
-0.0783382783203125,0.495408207519531,0.151169892822267,0.523849705949905,0.667341000000306,
0.220936929199219,-0.273130525390625,-0.0619140549316395,0.356716639340272,0.670369999999821,
0.153899282714844,-0.584376741210938,-0.0762792648925767,0.609097439775452,0.673499999999876,
-0.104674496582031,-0.0600465776367187,-0.033183635009765,0.125153886687731,0.676486000000295,
-0.171712143066406,0.461889384277344,0.043430818115235,0.494684848511373,0.679522000000361,
-0.0950976899414063,0.246411234863281,0.0386424147949231,0.266936890519505,0.68257900000026,
0.177841299316406,-0.237217500488281,-0.0260010300292954,0.297616739856883,0.685572999999749,
0.0940442412109375,-0.177362458984375,-0.0643082565917954,0.210801596359708,0.688630000000558,
-0.0711556733398437,0.0309330854492188,0.043430818115235,0.0889169364407807,0.691675000000032,
-0.0663672700195312,0.179373588378906,-0.0140300217285141,0.191771583524445,0.694680999999946,
0.0413718046875,0.0309330854492188,0.0458250197753927,0.0690537068948833,0.697793000000274,
0.0964384428710938,-0.194121870605469,-0.0714908615722649,0.228242452666265,0.700754999999845,
-0.0304542451171875,-0.131872627441406,-0.0355778366699209,0.139941535564211,0.70380699999987,
-0.0472136567382813,0.0309330854492188,-0.0188184250488259,0.0594988930932938,0.70681599999989,
0.012641384765625,0.188950395019531,-0.00684741674804457,0.189496552746879,0.709786999999778,
-0.006512228515625,0.052480900390625,0.0458250197753927,0.0699756133482626,0.712900999999874,
-0.0136948334960937,-0.119901619140625,-0.0451546433105463,0.128852196525833,0.715898999999808,
0.0102471831054687,-0.0744117875976562,-0.033183635009765,0.0821174313257362,0.718966999999793,
-0.01608903515625,0.0237504804687501,0.0769496413574231,0.0821230155303102,0.721972000000278,
0.000670376464843747,0.10036493359375,-0.01642422338867,0.101702135738653,0.724965999999768,
0.00545877978515624,0.0189620771484376,0.00512359155273501,0.0203865111513811,0.728057999999692,
0.000670376464843747,-0.122295820800781,-0.0212126267089836,0.124123699275505,0.731048000000555,
0.0365834013671875,-0.0672291826171875,-0.0379720383300768,0.0854399435036605,0.734081000000515,
-0.006512228515625,0.052480900390625,0.0338540114746113,0.06279130607794,0.737116000000242,
-0.01608903515625,0.052480900390625,0.0386424147949231,0.0671292647006702,0.740107999999964,
0.00785298144531249,-0.0121625444335937,0.0625844313964858,0.0642371221172073,0.743220000000292,
0.00545877978515624,-0.0672291826171875,0.0170945998535164,0.069582947740591,0.746224999999868,
-0.0304542451171875,-0.0169509477539062,0.0338540114746113,0.048588988138636,0.749295000000529,
-0.0136948334960937,0.0309330854492188,-0.00684741674804457,0.0345150888165713,0.752250999999887,
-0.0184832368164062,0.0500866987304688,-0.0571256516113259,0.0781898171435813,0.755269000000226,
0.0174297880859375,0.0261446821289063,0.00512359155273501,0.0318369770352259,0.758373000000574,
-0.0113006318359375,-0.0193451494140624,-0.0188184250488259,0.0292587116439204,0.76136200000019,
0.0174297880859375,-0.0361045610351562,-0.00924161840820226,0.0411429745043408,0.7644650000002,
-0.0232716401367187,0.00938527050781257,0.0266714064941418,0.0366198916100731,0.767523999999867,
-0.00411802685546875,0.0165678754882813,-0.00924161840820226,0.0194128862918521,0.770607999999811,
-0.0304542451171875,-0.0289219560546874,0.0482192214355486,0.0639455542124507,0.773626000000149,
0.02221819140625,0.00938527050781257,0.057796028076174,0.0626267689830114,0.776632000000063,
-0.01608903515625,-0.0289219560546874,0.0075177932128927,0.0339389718329848,0.779735000000073,
-0.0017238251953125,0.0405098920898438,0.019488801513674,0.0449870683071721,0.782795000000078,
0.0102471831054687,-0.0145567460937499,-0.0188184250488259,0.0259043768454905,0.785839000000124,
-0.00890643017578124,-0.0361045610351562,0.000335188232423178,0.0371883876656214,0.788829000000078,
0.00306457812499999,-0.00737414111328116,0.0482192214355486,0.0488759952542481,0.791874000000462,
-0.0136948334960937,0.052480900390625,0.0170945998535164,0.0568684333743095,0.795008000000053,
-0.0232716401367187,-0.0241335527343749,-0.0595198532714836,0.0683125942685148,0.797967999999855,
-0.0017238251953125,0.0285388837890626,0.0266714064941418,0.0390999154168569,0.80103599999984,
-0.0136948334960937,-0.00737414111328116,-0.033183635009765,0.0366480566211309,0.803987000000234,
-0.0184832368164062,-0.00976834277343741,0.0170945998535164,0.0270051089222496,0.806972999999743,
-0.0328484467773437,-0.0384987626953125,0.00272938989257909,0.0506816017302105,0.81000800000038,
0.000670376464843747,0.00938527050781257,-0.0355778366699209,0.0368010213067654,0.813081000000238,
0.012641384765625,0.00699106884765632,-0.0427604416503886,0.045134632185956,0.816241999999875,
-0.0232716401367187,-0.0145567460937499,0.000335188232423178,0.0274514196835427,0.819253000000572,
-0.0280600434570312,0.0213562788085938,0.0147003981933604,0.0382041671863715,0.822259000000486,
-0.0376368500976562,-0.00976834277343741,-0.0260010300292954,0.0467761324651487,0.825300999999854,
0.0341891997070313,-0.00258573779296867,-0.0475488449707022,0.0586214983993853,0.828306000000339,
0.0389776030273438,0.0189620771484376,0.0601902297363299,0.0741732948118976,0.831380999999965,
-0.0232716401367187,-0.0217393510742186,-0.0307894333496073,0.0442962506965429,0.834375000000364,
0.00545877978515624,-0.0313161577148436,-0.0355778366699209,0.0477104021453955,0.837383000000045,
-0.0232716401367187,-0.0145567460937499,0.0123061965332045,0.0300817314096894,0.840468999999757,
-0.0424252534179688,-0.00019153613281242,0.0458250197753927,0.0624489491591666,0.84342100000049,
-0.01608903515625,-0.0241335527343749,0.0290656081542977,0.0410620871025948,0.84651600000052,
-0.0232716401367187,-0.00258573779296867,-0.0140300217285141,0.0272964610213394,0.849460000000363,
-0.0017238251953125,0.0213562788085938,-0.0307894333496073,0.037510684129249,0.852431999999681,
-0.0136948334960937,0.0237504804687501,-0.052337248291014,0.0590831731177115,0.855536000000029,
0.00306457812499999,-0.0361045610351562,-0.0140300217285141,0.0388557907695639,0.858511999999791,
-0.0184832368164062,0.0213562788085938,-0.0140300217285141,0.0315366801909194,0.861585000000559,
-0.0017238251953125,-0.00976834277343741,-0.05473144995117,0.0556230501465066,0.864526000000296,
0.0174297880859375,0.00220266552734383,0.0147003981933604,0.0229074432268072,0.867605000000367,
-0.0232716401367187,-0.00258573779296867,0.02188300317383,0.0320487301229359,0.87059599999975,
-0.0376368500976562,0.00699106884765632,-0.00205901342773274,0.0383359761216758,0.873561000000336,
0.0102471831054687,0.00699106884765632,-0.0260010300292954,0.0288085641400955,0.876642000000174,
0.0270065947265625,-0.00019153613281242,-0.0786734665527327,0.0831799686477394,0.87965499999973,
0.0150355864257813,0.00938527050781257,0.0242772048339859,0.0300588562028441,0.882779000000482,
0.00545877978515624,0.0381156904296875,0.0123061965332045,0.0404233423505338,0.885812000000442,
-0.0232716401367187,0.0381156904296875,0.0482192214355486,0.0657226628145511,0.888799999999719,
0.0198239897460938,-0.00497993945312492,-0.01642422338867,0.0262210884657933,0.891870000000381,
0.0198239897460938,-0.00737414111328116,-0.0355778366699209,0.0413902281791654,0.894838000000163,
0.0270065947265625,0.00220266552734383,0.0242772048339859,0.0363811842674404,0.897985000000517,
-0.0136948334960937,-0.0217393510742186,-0.0283952316894514,0.0382940861271226,0.900955000000067,
-0.0400310517578125,-0.0121625444335937,0.108074262939455,0.115889856768582,0.90400899999986,
0.0174297880859375,0.0189620771484376,-0.0140300217285141,0.0293291560091075,0.907121000000188,
0.000670376464843747,0.0261446821289063,0.000335188232423178,0.0261554231351229,0.910181000000193,
0.0150355864257813,-0.00258573779296867,0.0170945998535164,0.0229124473431575,0.913314999999784,
0.0413718046875,0.0117794721679688,0.00512359155273501,0.0433201267086773,0.916341000000102,
-0.00411802685546875,-0.00258573779296867,0.00272938989257909,0.0055761773915525,0.919354000000567,
-0.0352426484375,0.0213562788085938,-0.01642422338867,0.0443609065209509,0.922553999999764,
-0.00890643017578124,0.0237504804687501,-0.00924161840820226,0.0269966170431661,0.925522999999885,
-0.0136948334960937,-0.00019153613281242,0.0123061965332045,0.0184127027806827,0.928619999999682,
0.0198239897460938,-0.0121625444335937,-0.0236068283691395,0.0331391068407461,0.931612000000314,
-0.0113006318359375,-0.00019153613281242,0.0075177932128927,0.0135741732998143,0.93463200000042,
-0.00890643017578124,-0.0408929643554687,-0.0403662399902327,0.0581463013716502,0.937700000000405,
0.0150355864257813,-0.0408929643554687,0.00272938989257909,0.0436549305592219,0.940685000000485,
-0.006512228515625,0.0213562788085938,0.0147003981933604,0.0267320308213474,0.943737999999939,
-0.0376368500976562,0.0237504804687501,-0.0379720383300768,0.0585020811827301,0.946759000000384,
-0.025665841796875,0.0381156904296875,0.000335188232423178,0.0459527327068276,0.949720999999954,
0.000670376464843747,-0.00737414111328116,0.0242772048339859,0.0253812930386635,0.952823000000535,
0.0174297880859375,-0.0217393510742186,0.0123061965332045,0.0304604558561207,0.955912000000353,
0.00785298144531249,-0.00019153613281242,-0.0260010300292954,0.0271617298096958,0.958991000000424,
0.02221819140625,0.0381156904296875,-0.00445321508788865,0.0443428123929407,0.96205000000009,
0.012641384765625,-0.00737414111328116,0.0673728347167977,0.0689440456002409,0.965089999999691,
-0.0352426484375,0.0117794721679688,-0.00205901342773274,0.0372161224436501,0.968104999999923,
-0.01608903515625,-0.0456813676757812,0.019488801513674,0.0522059171878854,0.97110100000009,
0.00545877978515624,0.0117794721679688,-0.0643082565917954,0.0656056865460227,0.974220000000059,
0.031794998046875,-0.00019153613281242,-0.00205901342773274,0.0318621738615956,0.977241999999933,
-0.0232716401367187,0.0165678754882813,0.0290656081542977,0.0407538134439872,0.980319000000236,
-0.00411802685546875,-0.00497993945312492,0.0170945998535164,0.0182752096100426,0.983291000000463,
0.0198239897460938,-0.00976834277343741,0.0482192214355486,0.0530424773727912,0.986281000000417,
0.00545877978515624,0.0213562788085938,0.0170945998535164,0.0278946995940997,0.989416000000347,
0.0198239897460938,0.0141736738281251,0.0410366164550791,0.0477272195850604,0.992385000000468,
0.0246123930664063,0.0189620771484376,0.0458250197753927,0.0553648146357749,0.99551799999972,
0.0102471831054687,-0.0145567460937499,0.0242772048339859,0.0301045892346369,0.998516000000564,
-0.00890643017578124,-0.00976834277343741,0.00512359155273501,0.0141773131944911,1.00148600000011,
-0.0113006318359375,0.00459686718750008,0.0123061965332045,0.017328529682139,1.00457800000004,
-0.0400310517578125,0.00220266552734383,0.00991199487304861,0.0412987225301868,1.00755200000003,
-0.0136948334960937,0.0261446821289063,0.0266714064941418,0.0397801054860722,1.01063400000021,
-0.0232716401367187,0.00938527050781257,0.019488801513674,0.031772093440583,1.01361900000029,
0.000670376464843747,-0.0241335527343749,0.0147003981933604,0.0282662250615611,1.01658399999997,
0.00545877978515624,0.0189620771484376,0.000335188232423178,0.0197350195763086,1.01970299999994,
-0.0113006318359375,0.00699106884765632,-0.052337248291014,0.053997841458704,1.02266700000018,
0.00306457812499999,0.00938527050781257,0.0123061965332045,0.0157771168057697,1.02580000000034,
-0.0113006318359375,0.0500866987304688,-0.0188184250488259,0.054685599484018,1.02877700000045,
-0.00411802685546875,0.0285388837890626,-0.0499430466308581,0.0576691766880718,1.0317729999997,
0.00306457812499999,-0.0193451494140624,-0.00924161840820226,0.0216571917787014,1.03483299999971,
-0.00411802685546875,-0.00258573779296867,0.00512359155273501,0.0070636658694764,1.03783500000009,
