X,Y,Z,Magnitude,Seconds,
-0.0136948334960937,-0.0241335527343749,-0.05473144995117,0.061363738851426,0.0,
0.00306457812499999,-0.00258573779296867,-0.0236068283691395,0.023944937349432,0.00385399999959191,
0.0246123930664063,0.0213562788085938,0.0290656081542977,0.0436654338623224,0.00774600000022474,
-0.0400310517578125,0.0165678754882813,0.0410366164550791,0.0596739766825802,0.0117159999999785,
0.0174297880859375,0.00699106884765632,0.0266714064941418,0.0326195720500608,0.0156589999996868,
0.012641384765625,-0.0504697709960937,0.0123061965332045,0.053464426175772,0.0194929999997839,
-0.0136948334960937,0.00459686718750008,0.0147003981933604,0.0206102246341131,0.0233790000002045,
0.0413718046875,-0.0313161577148436,0.0170945998535164,0.0546310653499769,0.0275050000000192,
-0.006512228515625,-0.0217393510742186,-0.0379720383300768,0.0442366838755876,0.0313519999999698,
-0.0280600434570312,-0.0337103593749999,-0.00684741674804457,0.0443919078675779,0.0353759999998147,
0.00306457812499999,-0.00258573779296867,0.0170945998535164,0.0175585598261946,0.0393340000000535,
0.00545877978515624,0.00220266552734383,-0.0116358200683582,0.013040027639211,0.0432499999997162,
-0.0017238251953125,-0.0337103593749999,-0.0379720383300768,0.0508058618412921,0.0471010000001115,
0.0294007963867188,0.00220266552734383,-0.0762792648925767,0.0817788775671966,0.0510830000002898,
-0.00411802685546875,-0.0145567460937499,0.0314598098144554,0.034908117044349,0.0550690000000031,
-0.01608903515625,-0.0193451494140624,-0.00924161840820226,0.0268048385355008,0.0589570000001913,
0.012641384765625,-0.00258573779296867,0.019488801513674,0.0233731476948644,0.0630959999998595,
-0.0232716401367187,0.0117794721679688,-0.00924161840820226,0.0276718757949604,0.0670319999999265,
0.000670376464843747,-0.00497993945312492,-0.0714908615722649,0.0716672344234529,0.0709209999995437,
-0.0208774384765625,-0.0241335527343749,0.00991199487304861,0.0334147190215457,0.0748050000001967,
-0.00411802685546875,0.0165678754882813,0.0314598098144554,0.0357934669589195,0.0786509999998088,
-0.0496078583984375,-0.00737414111328116,0.0147003981933604,0.0522629819191497,0.0824569999995219,
-0.00411802685546875,-0.0289219560546874,-0.0379720383300768,0.0479094289483026,0.0864190000002054,
0.00785298144531249,-0.00258573779296867,-0.00205901342773274,0.0085202637171623,0.0903609999995751,
0.0102471831054687,-0.0169509477539062,0.0673728347167977,0.0702241998824451,0.0942290000002686,
-0.0280600434570312,-0.00258573779296867,0.0506134230957045,0.0579290141139072,0.0981780000001891,
0.0198239897460938,-0.00737414111328116,-0.0140300217285141,0.0253812930386612,0.102192999999716,
-0.006512228515625,-0.0241335527343749,0.019488801513674,0.0316962280447052,0.106206999999813,
0.0174297880859375,0.00938527050781257,-0.0140300217285141,0.0242636008236223,0.110125999999582,
0.0198239897460938,-0.0361045610351562,0.0482192214355486,0.0634162693072134,0.11419399999977,
0.00785298144531249,-0.00737414111328116,-0.0116358200683582,0.0158568465781256,0.11807299999964,
0.000670376464843747,-0.00737414111328116,0.057796028076174,0.0582684153134878,0.121992999999748,
0.02221819140625,0.00220266552734383,0.0075177932128927,0.0235587983475798,0.126036999999997,
-0.0113006318359375,0.0141736738281251,-0.00924161840820226,0.0203471084058719,0.129952999999659,
0.0102471831054687,-0.0193451494140624,0.0697670363769554,0.0731209883157552,0.133918999999878,
0.031794998046875,-0.00737414111328116,-0.0116358200683582,0.0346510052757864,0.137971000000107,
0.0294007963867188,-0.00258573779296867,-0.0619140549316395,0.0685889427399588,0.141880000000128,
-0.0304542451171875,-0.00019153613281242,0.0314598098144554,0.0437860407585524,0.145800000000236,
-0.0328484467773437,-0.00737414111328116,0.0290656081542977,0.04447705015198,0.149650000000292,
-0.00890643017578124,0.00938527050781257,0.0625844313964858,0.0639078935203025,0.153510000000097,
-0.01608903515625,-0.0241335527343749,0.0075177932128927,0.0299633548627939,0.157365999999456,
0.000670376464843747,-0.0121625444335937,0.0530076247558604,0.05438920089468,0.161321999999927,
0.012641384765625,-0.00737414111328116,-0.0475488449707022,0.0497501278792229,0.16515999999956,
-0.00411802685546875,-0.00258573779296867,0.0889206496582045,0.0890535014513943,0.169028000000253,
0.00545877978515624,-0.0169509477539062,0.0123061965332045,0.0216466020338607,0.173149999999623,
0.00545877978515624,-0.00258573779296867,0.057796028076174,0.0581108008726322,0.177020999999513,
0.00306457812499999,0.00459686718750008,0.0170945998535164,0.0179651933241918,0.181021999999757,
-0.0520020600585938,-0.00497993945312492,-0.00924161840820226,0.0530511221191145,0.184892999999647,
0.0198239897460938,0.0500866987304688,-0.033183635009765,0.0632678559114443,0.188922999999704,
0.00785298144531249,-0.0145567460937499,0.000335188232423178,0.0165432924646057,0.192817000000105,
-0.0280600434570312,-0.00976834277343741,-0.0762792648925767,0.0818615466009636,0.196756000000278,
-0.01608903515625,0.00459686718750008,-0.052337248291014,0.0549470272068819,0.200748000000203,
0.0198239897460938,-0.00497993945312492,-0.00684741674804457,0.0215563791609682,0.204655999999886,
-0.0352426484375,-0.0313161577148436,-0.00205901342773274,0.0471909476404719,0.208631999999852,
-0.0136948334960937,0.0357214887695313,-0.00684741674804457,0.0388646412632213,0.212644999999611,
0.06052541796875,-0.0145567460937499,0.0314598098144554,0.0697491556270862,0.216609999999491,
-0.0136948334960937,0.0213562788085938,0.0290656081542977,0.0385804184323512,0.220502999999553,
-0.0591846650390625,0.00699106884765632,-0.00205901342773274,0.0596316958983583,0.224326999999903,
0.0102471831054687,-0.0361045610351562,0.00512359155273501,0.0378786916291678,0.22814500000004,
0.050948611328125,0.0165678754882813,0.0649786330566418,0.0842168525199632,0.23208700000032,
0.0365834013671875,0.0213562788085938,-0.00924161840820226,0.0433571610111404,0.235955999999533,
0.0198239897460938,0.0117794721679688,0.019488801513674,0.0301920505836978,0.239929999999731,
-0.0472136567382813,0.00459686718750008,0.0386424147949231,0.0611841220556662,0.243859000000157,
0.0341891997070313,0.0285388837890626,-0.00924161840820226,0.0454838078368083,0.247838000000229,
0.0270065947265625,-0.0313161577148436,-0.00205901342773274,0.0414040750294139,0.251784999999472,
-0.05439626171875,-0.0169509477539062,0.0554018264160163,0.0794710657343968,0.255689999999959,
0.00306457812499999,0.0117794721679688,0.0554018264160163,0.0567230991208219,0.259637999999541,
0.0772848295898438,-0.00019153613281242,0.057796028076174,0.0965057637252991,0.263554999999542,
0.0246123930664063,-0.00497993945312492,0.0410366164550791,0.0481100153761495,0.26744299999973,
-0.0280600434570312,-0.0552581743164062,-0.0403662399902327,0.0739612411911934,0.271353999999519,
0.0389776030273438,0.0117794721679688,0.00272938989257909,0.0408100364064878,0.275260000000344,
0.0461602080078125,-0.0121625444335937,0.0458250197753927,0.0661711774705482,0.279139999999643,
-0.0783382783203125,-0.0217393510742186,-0.01642422338867,0.0829411860853208,0.283048999999664,
-0.0113006318359375,0.00459686718750008,0.0242772048339859,0.0271701700837927,0.287035999999716,
0.0270065947265625,0.0165678754882813,0.000335188232423178,0.0316853753026715,0.290970000000016,
-0.0591846650390625,0.0237504804687501,-0.00205901342773274,0.0638055595898828,0.294799000000239,
-0.0208774384765625,-0.05286397265625,-0.033183635009765,0.0658150489994856,0.2986149999997,
0.0557370146484375,0.00938527050781257,0.0458250197753927,0.072764211957803,0.302467999999863,
0.00785298144531249,0.00699106884765632,-0.212748759521483,0.213008401334649,0.30637200000001,
-0.0663672700195312,0.169796781738281,0.287639387451174,0.340546588342637,0.310196999999789,
0.0246123930664063,-0.491002876464844,-0.217537162841795,0.537598374073493,0.314233000000058,
0.0341891997070313,-0.165391450683594,-0.531177580322264,0.557380350544264,0.317294999999831,
0.244878945800781,0.4642835859375,0.349888630615236,0.63083040518137,0.320295999999871,
-0.365642477539063,0.488225602539063,0.440868293701174,0.752611129831681,0.323406999999861,
-0.16931794140625,-1.11588950976562,-0.543148588623046,1.25255273446279,0.326406000000134,
0.601614993164063,-0.313831953613281,0.0338540114746113,0.679394722677066,0.329531999999745,
0.0102471831054687,1.33577299023438,0.369042243896486,1.38585232401632,0.332588999999643,
-0.51408298046875,-0.646625984375,-0.191200944580077,0.847917611377948,0.335635999999795,
0.374165835449219,-1.00815043505859,0.0338540114746113,1.07587799783208,0.338722999999845,
0.40529045703125,0.449918375976563,0.105680061279298,0.614699255696624,0.341722999999547,
-0.530842392089844,0.763558793457031,0.00512359155273501,0.929968777699351,0.344814999999471,
-0.138193319824219,-0.196516072265625,-0.00924161840820226,0.240419150263763,0.347815000000082,
0.572884573242188,-0.4550898515625,0.079343843017579,0.735934068160226,0.350805000000037,
0.0820732329101563,-0.0121625444335937,0.0075177932128927,0.0833094248102561,0.353865999999471,
-0.600274240234375,0.0165678754882813,0.079343843017579,0.605721968738092,0.356842000000142,
-0.0855208833007812,0.145854765136719,-0.145711113037107,0.223202066424453,0.359934000000067,
0.515423733398437,0.416399552734375,0.134410481201174,0.676103830727576,0.362903000000188,
0.199389114257813,-0.232429097167969,0.139198884521486,0.336386137566425,0.365910999999869,
-0.420709115722656,-0.802249092285156,-0.296545817626951,0.953173220394139,0.369050999999672,
-0.509294577148438,0.260776444824219,0.0314598098144554,0.573040173217835,0.372067000000243,
0.343041213867187,0.909605094726563,0.222995942626955,0.997389539343619,0.375197000000298,
0.656681631347656,-0.198910273925781,0.0482192214355486,0.687838029872221,0.378160999999636,
-0.248326596191406,-0.921959175292969,-0.0978270798339835,0.959815063869986,0.381191999999828,
-0.758291549804688,-0.0145567460937499,-0.128951701416014,0.769315614465297,0.384165999999823,
0.170658694335938,0.646242912109375,0.141593086181642,0.683229751590557,0.387179000000287,
0.678229446289063,0.21528661328125,0.079343843017579,0.715988095638801,0.390290999999706,
-0.05439626171875,-0.440724641601563,-0.0954328781738258,0.454207658720481,0.393261000000166,
-0.509294577148438,-0.416782625,-0.05473144995117,0.660366757513167,0.396289000000252,
-0.0472136567382813,0.275141654785156,0.0506134230957045,0.283714254449753,0.399288999999953,
0.259244155761719,0.490619804199219,0.103285859619142,0.564431832346787,0.402320999999574,
0.113197854492187,-0.119901619140625,-0.0260010300292954,0.166931740830683,0.405332000000271,
-0.063973068359375,-0.450301448242188,-0.0858560715332022,0.462855498815169,0.408327000000099,
-0.164529538085938,0.04290409375,0.019488801513674,0.17114480286506,0.411419999999453,
-0.104674496582031,0.334996696289063,0.0745554396972672,0.358800850539322,0.414413999999852,
0.134745669433594,0.0476924970703125,-0.033183635009765,0.146738281782125,0.417376000000331,
0.25206155078125,-0.170179854003906,-0.0858560715332022,0.316018153133889,0.420438999999533,
-0.0879150849609375,-0.105536409179687,0.0482192214355486,0.14557502925324,0.423428000000058,
-0.238749789550781,0.126701151855469,0.0075177932128927,0.270390756326537,0.426486000000295,
0.0485544096679688,0.0883939252929689,0.0290656081542977,0.104956306643684,0.429476999999679,
0.223331130859375,-0.0265277543945311,0.00272938989257909,0.22491768568374,0.432488999999805,
-0.0352426484375,-0.0384987626953125,-0.0355778366699209,0.0631663000346765,0.435542000000169,
-0.152558529785156,-0.0552581743164062,0.0242772048339859,0.164063870226025,0.438532000000123,
-0.0711556733398437,0.0644519086914063,-0.0188184250488259,0.097833079802949,0.4416140000003,
0.0677080229492188,0.0381156904296875,0.00512359155273501,0.0778680513370084,0.444652000000133,
0.0629196196289062,0.0405098920898438,-0.01642422338867,0.0766138695361223,0.447605999999723,
-0.0113006318359375,0.00220266552734383,-0.0427604416503886,0.0442833082035776,0.450716000000284,
-0.0520020600585938,-0.043287166015625,-0.00684741674804457,0.0680064710753563,0.453703000000132,
-0.0424252534179688,0.0309330854492188,0.0123061965332045,0.0539277329034088,0.456798000000163,
0.070102224609375,0.0309330854492188,0.096103254638674,0.122910590360382,0.459828000000016,
0.050948611328125,-0.0217393510742186,0.0554018264160163,0.0783436197250477,0.462875999999596,
-0.00890643017578124,-0.043287166015625,-0.0283952316894514,0.0525299193111694,0.465930999999728,
-0.0328484467773437,-0.00976834277343741,-0.0355778366699209,0.0493986177775747,0.468914000000041,
-0.00890643017578124,0.0381156904296875,0.043430818115235,0.0584667967103249,0.471986999999899,
0.0365834013671875,0.0213562788085938,0.0625844313964858,0.0755727924147611,0.475085000000036,
0.0102471831054687,0.0261446821289063,0.0170945998535164,0.0328751351232265,0.478184999999939,
-0.0113006318359375,-0.0289219560546874,0.00512359155273501,0.0314711774854378,0.481146000000081,
-0.05439626171875,0.0189620771484376,0.0242772048339859,0.0625131692790355,0.484120000000075,
0.0270065947265625,0.00699106884765632,0.0362482131347672,0.0457401809989967,0.487243999999919,
0.0102471831054687,0.0189620771484376,0.0554018264160163,0.0594468460190337,0.490303999999924,
-0.0520020600585938,-0.0361045610351562,-0.00205901342773274,0.0633402961326713,0.493289000000004,
-0.0759440766601562,0.0189620771484376,0.0338540114746113,0.085282807426058,0.49627799999962,
-0.01608903515625,0.00938527050781257,0.0123061965332045,0.0223244894203142,0.499230000000352,
0.0461602080078125,0.0309330854492188,-0.01642422338867,0.0579428657614906,0.502346000000216,
0.0150355864257813,-0.0480755693359375,0.0147003981933604,0.05247314487607,0.505325999999513,
-0.00890643017578124,0.00938527050781257,0.00512359155273501,0.0139161413969584,0.5084710000001,
-0.0496078583984375,0.00459686718750008,-0.0475488449707022,0.0688691764207095,0.511483000000226,
0.000670376464843747,0.00220266552734383,0.0242772048339859,0.0243861398048414,0.514511000000311,
0.0653138212890625,0.00938527050781257,0.0410366164550791,0.0777044557536161,0.51759200000015,
0.0341891997070313,-0.0193451494140624,0.0242772048339859,0.0461792037286371,0.520596999999725,
0.00306457812499999,-0.0648349809570312,-0.0882502731933581,0.109549427718657,0.523656000000301,
-0.0304542451171875,0.0117794721679688,-0.0595198532714836,0.0678883638311649,0.526633999999831,
-0.0184832368164062,0.0117794721679688,0.0314598098144554,0.0383419566705849,0.529661999999917,
0.0341891997070313,0.0476924970703125,-0.0355778366699209,0.0686240345325208,0.532766999999694,
0.0940442412109375,-0.00497993945312492,0.02188300317383,0.0966849777876772,0.535753999999542,
-0.0400310517578125,-0.0217393510742186,-0.0690966599121072,0.0827613007448179,0.538790999999947,
-0.107068698242188,-0.0217393510742186,-0.0260010300292954,0.112304759876815,0.541758999999729,
-0.0304542451171875,0.0692403120117189,-0.00445321508788865,0.0757727720078718,0.544710000000123,
0.106015249511719,0.033327287109375,0.02188300317383,0.113264323699074,0.547778000000108,
0.0413718046875,-0.0744117875976562,-0.052337248291014,0.0999396213483652,0.550787999999557,
-0.138193319824219,-0.0169509477539062,-0.0140300217285141,0.139934162317488,0.553836000000047,
-0.0496078583984375,0.0261446821289063,-0.0427604416503886,0.0705190710987976,0.556802999999491,
0.0437660063476563,0.00699106884765632,0.00272938989257909,0.0444048187074497,0.559776000000056,
0.050948611328125,-0.0169509477539062,0.0386424147949231,0.0661538498290379,0.562823999999637,
-0.0184832368164062,-0.062440779296875,-0.033183635009765,0.0730864870880637,0.565789999999652,
-0.0304542451171875,0.0405098920898438,0.0362482131347672,0.0623092718481932,0.568857000000207,
0.0772848295898438,0.0165678754882813,0.0338540114746113,0.085985658547513,0.571836999999505,
0.02221819140625,-0.0169509477539062,-0.00924161840820226,0.029434506449459,0.574896000000081,
-0.0208774384765625,-0.0552581743164062,-0.0260010300292954,0.0645398080932173,0.577933999999914,
-0.0184832368164062,0.00699106884765632,0.0147003981933604,0.0246293888248852,0.580903999999464,
-0.0232716401367187,0.0381156904296875,0.057796028076174,0.0730394136953919,0.583985999999641,
0.0246123930664063,-0.00737414111328116,-0.0451546433105463,0.0519527637582115,0.586954999999762,
-0.0663672700195312,-0.0169509477539062,0.103285859619142,0.12393513608685,0.589992999999595,
0.00545877978515624,0.0476924970703125,0.00991199487304861,0.0490165298231927,0.593017000000145,
-0.00411802685546875,0.0357214887695313,0.0386424147949231,0.0527846485853321,0.596054999999978,
-0.0017238251953125,0.0261446821289063,-0.0188184250488259,0.0322590932644398,0.599178999999822,
0.00545877978515624,-0.00019153613281242,0.0673728347167977,0.0675938889294731,0.602200000000266,
0.00306457812499999,0.0237504804687501,-0.0140300217285141,0.0277546117119891,0.605333999999857,
-0.0232716401367187,0.0117794721679688,-0.0140300217285141,0.0296170003361493,0.608338000000003,
0.000670376464843747,0.00459686718750008,0.02188300317383,0.0223706598125756,0.611339999999473,
-0.006512228515625,-0.00019153613281242,0.0625844313964858,0.0629226259746948,0.614422999999988,
-0.0352426484375,-0.00976834277343741,0.00512359155273501,0.036928525286394,0.617459000000053,
0.000670376464843747,-0.0169509477539062,0.0242772048339859,0.0296170003361512,0.620530999999573,
0.0246123930664063,0.0285388837890626,-0.00924161840820226,0.0388026454147617,0.62351899999976,
0.031794998046875,-0.0121625444335937,-0.033183635009765,0.0475394890628962,0.626522999999906,
0.012641384765625,0.00220266552734383,0.0314598098144554,0.0339761089264152,0.629675999999563,
-0.0424252534179688,0.00459686718750008,0.0147003981933604,0.0451346321859583,0.632660000000214,
-0.0113006318359375,0.0285388837890626,-0.00924161840820226,0.0320558836817805,0.635706999999456,
0.012641384765625,-0.0361045610351562,-0.00924161840820226,0.0393541795383504,0.63867399999981,
0.0102471831054687,-0.00019153613281242,-0.0260010300292954,0.0279480770406749,0.641650999999911,
0.0174297880859375,0.0261446821289063,0.0482192214355486,0.057553759496602,0.644737999999961,
-0.01608903515625,-0.00737414111328116,-0.0188184250488259,0.0258334691966819,0.647761999999602,
-0.01608903515625,-0.0337103593749999,0.019488801513674,0.0421314462829141,0.650846999999885,
0.0102471831054687,0.0165678754882813,-0.0116358200683582,0.0226912222776871,0.653873999999632,
0.0389776030273438,0.00699106884765632,0.00991199487304861,0.0408212717067121,0.656871000000137,
-0.0496078583984375,0.0476924970703125,-0.0260010300292954,0.0735633567359832,0.659926999999698,
-0.0352426484375,0.00459686718750008,-0.0571256516113259,0.0672793841295186,0.662921999999526,
-0.0136948334960937,-0.0169509477539062,0.0745554396972672,0.0776749424376628,0.665962999999465,
0.00785298144531249,0.0309330854492188,-0.0451546433105463,0.0552943659470995,0.668993000000228,
-0.0184832368164062,-0.00258573779296867,0.019488801513674,0.026983874213773,0.672061000000213,
0.0389776030273438,-0.0121625444335937,0.02188300317383,0.0463254449818044,0.675067000000126,
0.0270065947265625,-0.0193451494140624,-0.00445321508788865,0.0335174893032905,0.678006000000096,
-0.0208774384765625,-0.00976834277343741,0.000335188232423178,0.0230521215733644,0.681099999999788,
0.00545877978515624,-0.0265277543945311,0.0506134230957045,0.0574041690770295,0.684075000000121,
0.0102471831054687,-0.0145567460937499,-0.0307894333496073,0.0355653317772352,0.687111999999615,
-0.0184832368164062,0.00699106884765632,0.0266714064941418,0.0331944123493665,0.690155999999661,
-0.01608903515625,-0.00258573779296867,-0.0236068283691395,0.0286849339870784,0.693095999999969,
-0.0017238251953125,-0.0145567460937499,-0.0188184250488259,0.0238537953261148,0.696135999999569,
-0.0136948334960937,-0.00976834277343741,0.0075177932128927,0.01842515128342,0.699075999999877,
-0.0208774384765625,-0.0193451494140624,0.00512359155273501,0.0289197758219926,0.702138999999988,
0.00785298144531249,-0.00258573779296867,0.02188300317383,0.0233927592519622,0.705143000000135,
-0.00890643017578124,0.0261446821289063,0.0147003981933604,0.0312885060228349,0.708098000000064,
-0.0280600434570312,0.0213562788085938,0.0697670363769554,0.078172220437853,0.711166000000048,
-0.006512228515625,-0.00019153613281242,0.00512359155273501,0.0082883651421224,0.714167999999518,
-0.0017238251953125,0.0357214887695313,0.0170945998535164,0.0396386386921598,0.717303000000356,
0.012641384765625,-0.0241335527343749,0.0290656081542977,0.0398377026666273,0.720322000000124,
-0.0184832368164062,-0.0289219560546874,-0.0475488449707022,0.0586430067722358,0.723272000000179,
-0.0400310517578125,-0.00258573779296867,0.00991199487304861,0.0413209243257456,0.726332999999613,
0.0294007963867188,0.0237504804687501,-0.0307894333496073,0.0487491677535082,0.72932899999978,
0.0294007963867188,-0.0480755693359375,0.00272938989257909,0.0564191170112892,0.732441000000108,
-0.0113006318359375,-0.0145567460937499,0.000335188232423178,0.0184313723819053,0.735437999999704,
0.00306457812499999,-0.0217393510742186,0.043430818115235,0.0486644324570932,0.738489999999729,
0.031794998046875,0.00220266552734383,0.02188300317383,0.0386605673022524,0.741603999999825,
0.00785298144531249,-0.0337103593749999,0.02188300317383,0.0409502561002726,0.744666999999936,
0.0270065947265625,-0.0169509477539062,-0.00205901342773274,0.0319520003251132,0.747744999999668,
-0.0136948334960937,0.0141736738281251,0.0123061965332045,0.0232354033187647,0.750769000000219,
-0.0184832368164062,0.00459686718750008,0.0338540114746113,0.0388439869744853,0.753802999999607,
0.012641384765625,0.0141736738281251,0.00991199487304861,0.021423008214114,0.756994000000304,
-0.00890643017578124,-0.0241335527343749,0.0075177932128927,0.0268005612040259,0.759938999999576,
0.0294007963867188,0.00220266552734383,0.0410366164550791,0.0505298174712705,0.763033000000178,
-0.0136948334960937,-0.0169509477539062,-0.0307894333496073,0.0377209795767726,0.766013999999814,
0.02221819140625,-0.0169509477539062,-0.0571256516113259,0.0635949898273362,0.769083999999566,
0.012641384765625,-0.0193451494140624,0.0123061965332045,0.0261817090305203,0.772092000000157,
-0.025665841796875,0.0285388837890626,0.019488801513674,0.0430466805631656,0.77505199999996,
0.00545877978515624,0.00220266552734383,0.02188300317383,0.0226608878924466,0.778113999999732,
-0.00411802685546875,-0.0241335527343749,-0.0188184250488259,0.0308791132334381,0.781082999999853,
-0.006512228515625,0.0189620771484376,-0.0140300217285141,0.0244706150254871,0.784098000000085,
-0.0208774384765625,0.00459686718750008,0.0242772048339859,0.0323478175435913,0.787127999999939,
-0.01608903515625,-0.0121625444335937,0.0147003981933604,0.024957689123826,0.790164000000004,
-0.00890643017578124,0.00220266552734383,0.00512359155273501,0.0105084453798206,0.793235999999524,
0.000670376464843747,-0.00258573779296867,0.0123061965332045,0.0125927724370949,0.796287999999549,
0.0102471831054687,-0.00258573779296867,0.0170945998535164,0.0200976651798867,0.799331999999595,
-0.0376368500976562,-0.0384987626953125,0.0147003981933604,0.0558102940449769,0.802310999999463,
-0.0472136567382813,-0.0217393510742186,-0.00205901342773274,0.0520189225573153,0.805256999999983,
0.031794998046875,0.0141736738281251,0.0075177932128927,0.035613651109914,0.808369000000312,
-0.00890643017578124,0.00220266552734383,0.0147003981933604,0.0173285296821389,0.811367999999675,
0.00545877978515624,0.0237504804687501,-0.0236068283691395,0.0339288364800404,0.81446700000015,
-0.0304542451171875,-0.0552581743164062,0.0123061965332045,0.0642835075859581,0.817425000000185,
-0.0328484467773437,-0.0313161577148436,0.019488801513674,0.0493916549038836,0.820380000000114,
0.000670376464843747,0.0117794721679688,0.00272938989257909,0.012110117189618,0.823489000000336,
0.0246123930664063,-0.0121625444335937,0.0075177932128927,0.028464268730221,0.826436999999714,
0.000670376464843747,0.00220266552734383,0.0170945998535164,0.0172489560316503,0.829560000000129,
-0.05439626171875,-0.00019153613281242,-0.01642422338867,0.0568220475606595,0.832516999999825,
0.0294007963867188,-0.00019153613281242,0.0170945998535164,0.034009834730785,0.835516999999527,
0.02221819140625,0.033327287109375,0.0290656081542977,0.049489045988124,0.838603999999577,
0.012641384765625,-0.0145567460937499,0.0314598098144554,0.0368974673818161,0.841567999999825,
-0.0304542451171875,-0.0193451494140624,0.02188300317383,0.0421967022338949,0.844616000000315,
0.012641384765625,0.00938527050781257,0.043430818115235,0.0461965785903676,0.847617999999784,
0.00785298144531249,-0.00019153613281242,0.0913148513183604,0.0916521034944908,0.850569999999607,
0.0270065947265625,-0.0384987626953125,-0.0260010300292954,0.0537360628477664,0.853651999999784,
-0.0208774384765625,0.0261446821289063,-0.00684741674804457,0.0341511194118964,0.856643000000076,
-0.0280600434570312,0.0117794721679688,0.0338540114746113,0.0455216003265433,0.859749999999622,
0.012641384765625,0.0309330854492188,0.0075177932128927,0.0342516802360565,0.862729999999829,
-0.0113006318359375,-0.062440779296875,0.0745554396972672,0.0979033645363902,0.865748999999596,
-0.0232716401367187,-0.0241335527343749,-0.0475488449707022,0.0581798097305557,0.868684999999459,
0.0389776030273438,-0.00019153613281242,0.00991199487304861,0.0402186258617909,0.871705999999904,
-0.0113006318359375,0.0381156904296875,-0.0475488449707022,0.0619790512582361,0.874783000000207,
0.02221819140625,0.00938527050781257,0.0410366164550791,0.0475997397256628,0.877822999999808,
-0.0280600434570312,-0.00019153613281242,0.00272938989257909,0.0281931249436164,0.880887999999686,
-0.0017238251953125,0.0117794721679688,-0.00205901342773274,0.0120816834156309,0.88394900000003,
0.00785298144531249,-0.00497993945312492,-0.052337248291014,0.0531569061666729,0.886931000000004,
0.0102471831054687,0.0165678754882813,0.0530076247558604,0.0564739545458816,0.890072000000146,
-0.0232716401367187,0.0261446821289063,-0.0307894333496073,0.0466165511837201,0.893033000000287,
-0.0136948334960937,0.00699106884765632,-0.00205901342773274,0.0155133182915192,0.896168000000216,
0.000670376464843747,-0.0265277543945311,0.000335188232423178,0.026538340358288,0.899199999999837,
0.000670376464843747,-0.0241335527343749,0.0266714064941418,0.0359755708302623,0.902170000000297,
-0.0017238251953125,0.00459686718750008,0.0410366164550791,0.0413292469242397,0.905256000000008,
0.00306457812499999,-0.0600465776367187,-0.00205901342773274,0.0601599755756458,0.908260000000155,
-0.00890643017578124,-0.0193451494140624,0.0075177932128927,0.022584873679529,0.911379999999554,
-0.0376368500976562,-0.0241335527343749,0.0410366164550791,0.0606874348027461,0.914326999999503,
0.00306457812499999,0.00938527050781257,-0.00445321508788865,0.0108307925013844,0.91729899999973,
-0.0400310517578125,0.0309330854492188,0.0506134230957045,0.0715615782226058,0.920384000000013,
-0.0017238251953125,0.0141736738281251,0.0290656081542977,0.0323832391905018,0.92336400000022,
-0.0687614716796875,-0.0408929643554687,-0.0236068283691395,0.0834125701976873,0.926400000000285,
-0.0328484467773437,-0.00976834277343741,0.00272938989257909,0.0343786350137562,0.929414000000179,
-0.01608903515625,0.00938527050781257,-0.0188184250488259,0.0264777921300501,0.932453000000351,
0.0270065947265625,0.0165678754882813,-0.00205901342773274,0.0317504361106359,0.935558999999557,
-0.0113006318359375,0.00699106884765632,0.0673728347167977,0.0686707956943926,0.938575000000128,
-0.0208774384765625,-0.0408929643554687,-0.0140300217285141,0.0480098269193179,0.941630999999688,
-0.0113006318359375,-0.0193451494140624,0.02188300317383,0.0313178050579803,0.944618999999875,
0.0294007963867188,-0.00737414111328116,-0.0475488449707022,0.0563886286708566,0.947581999999784,
-0.0136948334960937,-0.0217393510742186,0.00272938989257909,0.0258379066257229,0.950678999999582,
-0.01608903515625,0.0165678754882813,0.0458250197753927,0.0513155335923672,0.953700999999455,
-0.0400310517578125,-0.00019153613281242,-0.00684741674804457,0.0406129155201672,0.956771000000117,
-0.0280600434570312,0.033327287109375,-0.00445321508788865,0.0437938948884453,0.959727999999814,
-0.00411802685546875,-0.0217393510742186,0.0458250197753927,0.0508870314296837,0.962797000000137,
0.0150355864257813,0.0141736738281251,0.00512359155273501,0.0212888017359473,0.965814000000137,
0.0174297880859375,0.0117794721679688,0.0506134230957045,0.0548112404050614,0.968812000000071,
-0.00890643017578124,-0.0217393510742186,0.0123061965332045,0.0265210549699301,0.971897999999783,
-0.0017238251953125,-0.0121625444335937,-0.0116358200683582,0.0169201468393847,0.974857999999585,
0.0102471831054687,-0.00737414111328116,0.019488801513674,0.0232205965296969,0.977899999999863,
-0.0136948334960937,-0.0456813676757812,-0.0307894333496073,0.0567655267147725,0.980856000000131,
-0.00411802685546875,-0.00019153613281242,0.0338540114746113,0.0341040895523638,0.983836000000338,
0.00306457812499999,0.00459686718750008,0.019488801513674,0.0202567571803368,0.986941000000115,
0.00785298144531249,-0.0408929643554687,-0.00684741674804457,0.0421994190419662,0.989892999999938,
-0.0280600434570312,-0.0217393510742186,0.0123061965332045,0.037568709014983,0.992954999999711,
0.00306457812499999,-0.0145567460937499,0.0147003981933604,0.0209139236626102,0.995968000000175,
-0.0136948334960937,-0.00258573779296867,0.0410366164550791,0.0433386478157889,0.998978999999963,
0.0198239897460938,-0.0169509477539062,0.0075177932128927,0.0271448413883873,1.00207899999987,
-0.0184832368164062,-0.0193451494140624,-0.0212126267089836,0.0341444048265369,1.00504499999988,
-0.0304542451171875,-0.0241335527343749,0.019488801513674,0.0434707119527617,1.00811199999953,
-0.00411802685546875,0.0261446821289063,-0.00445321508788865,0.0268390326469289,1.01105899999948,
-0.006512228515625,-0.00258573779296867,-0.00924161840820226,0.0115975286581465,1.01405799999975,
0.0174297880859375,-0.0337103593749999,-0.0595198532714836,0.0705889423023979,1.01713599999948,
0.00785298144531249,-0.0265277543945311,-0.0236068283691395,0.0363685773222847,1.02019699999983,
-0.0304542451171875,-0.00976834277343741,0.0242772048339859,0.0401530103572374,1.02327499999956,
0.00785298144531249,0.00938527050781257,-0.01642422338867,0.0204818879502397,1.02632699999958,
-0.0136948334960937,-0.0241335527343749,0.0075177932128927,0.0287488094859666,1.02934499999992,
-0.0424252534179688,0.0189620771484376,-0.0188184250488259,0.0501357718468605,1.03243699999985,
0.0102471831054687,0.0237504804687501,-0.0643082565917954,0.0693155245956465,1.03548200000023,
