X,Y,Z,Magnitude,Seconds,
0.0413718046875,0.00220266552734383,0.00991199487304861,0.0425995962526564,0.0,
-0.0017238251953125,-0.0289219560546874,-0.00924161840820226,0.0304114883906738,0.0038830000003145,
-0.025665841796875,0.0189620771484376,-0.090644474853514,0.0960974329854593,0.00770499999998719,
0.031794998046875,0.00220266552734383,0.02188300317383,0.0386605673022524,0.011543000000529,
0.00785298144531249,-0.00258573779296867,-0.0283952316894514,0.029574389938121,0.015320999999858,
-0.0113006318359375,-0.0241335527343749,0.0123061965332045,0.0293525998948664,0.0191740000000209,
-0.044819455078125,0.00699106884765632,0.0410366164550791,0.0611691301819308,0.0229870000002848,
0.012641384765625,0.0165678754882813,-0.01642422338867,0.0265340200668633,0.0268770000002405,
-0.0424252534179688,0.00938527050781257,-0.052337248291014,0.0680233267986721,0.0306970000001456,
0.0102471831054687,-0.00019153613281242,-0.0427604416503886,0.043971545547359,0.0345100000004095,
0.00785298144531249,-0.0456813676757812,0.0314598098144554,0.0560194279145373,0.0382950000002893,
0.0150355864257813,-0.0361045610351562,-0.0140300217285141,0.041550567943303,0.0420530000001236,
-0.0208774384765625,0.00220266552734383,-0.0355778366699209,0.0413098249194979,0.0458079999998517,
-0.0184832368164062,-0.0193451494140624,0.019488801513674,0.0331010307015225,0.0495460000001913,
-0.0352426484375,-0.0121625444335937,0.0123061965332045,0.0392608485530078,0.0533910000003743,
-0.006512228515625,-0.00737414111328116,-0.0355778366699209,0.0369129996005455,0.0571129999998448,
0.00545877978515624,0.0357214887695313,-0.0307894333496073,0.0474743324612836,0.0608570000003965,
0.000670376464843747,-0.0241335527343749,0.057796028076174,0.0626359212718179,0.0646010000000388,
-0.00890643017578124,0.0261446821289063,0.000335188232423178,0.0276221152928007,0.0684339999997974,
-0.0376368500976562,-0.00258573779296867,0.0386424147949231,0.0540042104505781,0.0724200000004203,
0.00545877978515624,-0.0169509477539062,0.00272938989257909,0.0180161726147425,0.0762919999997393,
-0.025665841796875,0.0285388837890626,0.0338540114746113,0.0511790720508974,0.0801300000002811,
-0.00411802685546875,0.00699106884765632,0.0362482131347672,0.0371452035164507,0.0839190000006056,
-0.0400310517578125,0.0285388837890626,-0.00924161840820226,0.0500235994663029,0.0877639999998792,
0.00306457812499999,-0.0289219560546874,-0.0499430466308581,0.0577942824843908,0.0915810000005877,
-0.0472136567382813,-0.0289219560546874,0.00991199487304861,0.0562481694545952,0.0953509999999369,
-0.00411802685546875,-0.00258573779296867,0.0170945998535164,0.0177727186797122,0.0991220000005342,
-0.025665841796875,-0.0121625444335937,-0.00924161840820226,0.0298675481592343,0.103017999999793,
0.0198239897460938,-0.0337103593749999,-0.01642422338867,0.0424161998836035,0.106788000000051,
-0.0400310517578125,-0.0145567460937499,-0.0499430466308581,0.0656406266609836,0.110510000000431,
0.0246123930664063,-0.00976834277343741,0.0458250197753927,0.0529256350968959,0.114242999999988,
-0.025665841796875,-0.0384987626953125,0.0338540114746113,0.0573322270379872,0.117984000000433,
0.0270065947265625,-0.00019153613281242,-0.00924161840820226,0.0285447080142325,0.121705999999904,
-0.0184832368164062,-0.0313161577148436,-0.00445321508788865,0.036635541511643,0.125490999999784,
-0.00890643017578124,0.00699106884765632,0.0147003981933604,0.018555356346675,0.129245000000083,
-0.0184832368164062,-0.0241335527343749,-0.00205901342773274,0.0304679823271872,0.132959000000483,
-0.063973068359375,0.0189620771484376,-0.0571256516113259,0.087837656600772,0.13669100000061,
0.0294007963867188,-0.0145567460937499,-0.0762792648925767,0.0830351247217892,0.140594000000419,
-0.00890643017578124,0.0237504804687501,0.0721612380371113,0.0764895685438294,0.14449599999989,
-0.05439626171875,0.00938527050781257,-0.0307894333496073,0.0632062164464024,0.148323999999775,
0.108409451171875,0.0261446821289063,-0.0116358200683582,0.112122904955553,0.152170000000297,
-0.0807324799804687,-0.00258573779296867,-0.0834618698730463,0.116147764018237,0.15590500000053,
0.07967903125,-0.0552581743164062,0.079343843017579,0.125290300001712,0.15974499999993,
-0.0376368500976562,0.0381156904296875,-0.0643082565917954,0.0836952221341303,0.163545999999769,
0.0724964262695313,-0.0456813676757812,0.0123061965332045,0.0865676709152866,0.167295000000195,
-0.140587521484375,0.0452982954101563,0.000335188232423178,0.147705447141724,0.171041999999943,
0.0174297880859375,-0.0480755693359375,-0.0379720383300768,0.0636940623185242,0.174947999999858,
0.0557370146484375,-0.0241335527343749,0.0242772048339859,0.0654096769909033,0.178740000000289,
-0.0328484467773437,0.102759135253906,-0.0188184250488259,0.109510700185566,0.18248500000027,
-0.0759440766601562,-0.0289219560546874,0.0123061965332045,0.0821913912457187,0.186228999999912,
-0.073549875,-0.0504697709960937,-0.0283952316894514,0.093611276455411,0.189954000000398,
0.0413718046875,-0.0145567460937499,0.0530076247558604,0.0687992250115992,0.193709000000126,
0.000670376464843747,0.0836055219726564,0.000335188232423178,0.0836088814664812,0.197532000000137,
-0.0472136567382813,-0.0552581743164062,-0.0116358200683582,0.0736069801041029,0.201242000000093,
-0.01608903515625,-0.0337103593749999,0.0338540114746113,0.0504116997766769,0.204968000000008,
0.0772848295898438,0.0596635053710938,0.019488801513674,0.0995614992973545,0.20878200000061,
0.00545877978515624,0.0381156904296875,0.0362482131347672,0.0528822946659666,0.212782000000516,
-0.0113006318359375,-0.0552581743164062,-0.0810676682128886,0.0987579715169805,0.216551000000436,
-0.01608903515625,-0.0289219560546874,-0.0260010300292954,0.042087886106012,0.220331000000442,
0.0557370146484375,0.00220266552734383,-0.0188184250488259,0.0588693439632528,0.224275000000489,
0.0174297880859375,0.0285388837890626,-0.0427604416503886,0.0542837063102972,0.228138999999828,
-0.0232716401367187,-0.0456813676757812,-0.0355778366699209,0.0624030371816502,0.231987000000117,
-0.044819455078125,0.00699106884765632,0.0530076247558604,0.069767233565556,0.235816000000341,
-0.0304542451171875,0.00938527050781257,0.0649786330566418,0.0723724194847198,0.239620000000286,
-0.0352426484375,0.0141736738281251,-0.05473144995117,0.0666218351025602,0.24344100000053,
0.012641384765625,-0.0193451494140624,-0.00924161840820226,0.0248886907138121,0.247301000000334,
-0.0687614716796875,-0.119901619140625,0.0123061965332045,0.138765920647736,0.251076000000467,
0.0844674345703125,0.10036493359375,-0.00924161840820226,0.131503896934542,0.254853000000367,
0.050948611328125,-0.0600465776367187,0.0362482131347672,0.0866907459744715,0.258620999999948,
-0.0615788666992187,0.00220266552734383,-0.0379720383300768,0.0723787555455765,0.262351999999737,
-0.01608903515625,-0.00737414111328116,-0.0738850632324208,0.0759752431932696,0.26605600000039,
-0.0136948334960937,-0.0384987626953125,-0.0260010300292954,0.0484330130813688,0.2698019999998,
0.02221819140625,0.00699106884765632,-0.0355778366699209,0.0425241758898277,0.273541999999907,
-0.044819455078125,-0.00258573779296867,0.0123061965332045,0.0465501027555032,0.277242000000115,
0.00785298144531249,0.0165678754882813,-0.00445321508788865,0.0188678281843622,0.281135000000177,
0.0150355864257813,-0.0480755693359375,0.0170945998535164,0.0531935576014005,0.285101000000395,
-0.0208774384765625,0.0261446821289063,0.043430818115235,0.0548237886607887,0.288848000000144,
-0.0304542451171875,0.0692403120117189,0.0123061965332045,0.0766363120606138,0.29262000000017,
-0.00411802685546875,-0.043287166015625,0.17511190942383,0.180429813802781,0.29650700000002,
1.58802607714844,-5.90908123339844,-5.62125030981445,8.30888216851064,0.300315999999839,
-0.413526510742188,-6.43341139697266,6.95549101098633,9.48359855654466,0.303769000000102,
-3.78456244824219,18.7098958875732,-8.77201969458008,21.0078901027822,0.306722000000264,
0.556125161621094,11.38184315625,2.95956844018555,11.7734733269756,0.309682000000066,
3.80984521777344,-14.3414594804688,9.38740134729004,17.5589203730873,0.312721000000238,
1.08045532519531,-11.1595654741211,-15.0328570358887,18.7534017165528,0.315657000000101,
-2.91067884228516,-2.03286874560547,-2.50639394995117,4.34587359366766,0.318640000000414,
-1.27543910839844,5.09227539501953,9.38740134729004,10.7555249836099,0.321589000000131,
1.60239128710938,6.15051252880859,-4.32359301000976,7.68699672955835,0.324524999999994,
-0.147770126464844,2.23599281445313,0.80718114770508,2.38181470349226,0.327584999999999,
0.139534072753906,-3.04561604785156,1.80556323999024,3.54334664998985,0.330539000000499,
1.228895828125,-4.08948797167969,-3.11930957495117,5.28811772290273,0.333550000000287,
-1.14854642041016,-1.17574455126953,1.04420711206055,1.94728082786094,0.336499000000003,
-1.222766671875,3.04762717724609,-0.0595198532714836,3.28431611728693,0.339429999999993,
1.03975389697266,2.14740735302734,0.560578376708985,2.45085589591461,0.342478999999912,
0.706959866210938,-0.376081196777344,0.02188300317383,0.80106690409127,0.345422000000326,
-0.274662814453125,-1.99934992236328,-0.454563127197265,2.06868736408011,0.348442999999861,
-0.454227938964844,-1.29306043261719,-0.133740104736328,1.37703112475764,0.351415000000088,
-0.262691806152344,1.18493828564453,0.0170945998535164,1.21382780951416,0.354346000000078,
0.235302139160156,1.48181929150391,0.347494428955079,1.54009996023677,0.357383000000482,
0.237696340820313,-0.119901619140625,-0.191200944580077,0.327770880220045,0.360316000000239,
-0.0376368500976562,-1.03927505664063,-0.102615483154295,1.04500675271676,0.363350999999966,
0.0150355864257813,-0.660991194335938,0.0530076247558604,0.663283676967159,0.366318999999748,
-0.281845419433594,0.476254594238281,-0.0834618698730463,0.559661650206152,0.369338999999854,
-0.138193319824219,0.818625431640625,0.0314598098144554,0.830803653462357,0.372311000000082,
0.431626675292969,0.0452982954101563,0.110468464599611,0.447835688687853,0.375266000000011,
0.163476089355469,-0.615501362792969,-0.00924161840820226,0.636907973652208,0.378284000000349,
-0.423103317382813,-0.428753633300781,-0.121769096435546,0.61455171311753,0.381226000000424,
-0.044819455078125,0.239228629882813,0.0530076247558604,0.249096224763375,0.38423899999998,
0.13713987109375,0.497802409179688,0.12962207788086,0.532368731146809,0.387219000000186,
-0.0591846650390625,0.052480900390625,-0.0188184250488259,0.0813093020687978,0.390145000000302,
0.0581312163085937,-0.450301448242188,-0.0738850632324208,0.46001047288881,0.393210000000181,
-0.0711556733398437,-0.246794307128906,-0.00924161840820226,0.257013554876949,0.396214000000327,
-0.119039706542969,0.251199638183594,-0.0116358200683582,0.278221318856172,0.399336000000403,
0.089255837890625,0.263170646484375,-0.00445321508788865,0.277930251849597,0.402393000000302,
0.0485544096679688,-0.0456813676757812,-0.00445321508788865,0.0668142887079841,0.405338000000484,
-0.0567904633789063,-0.155814644042969,-0.0427604416503886,0.17126533624515,0.408346000000165,
-0.0304542451171875,-0.141449434082031,-0.00684741674804457,0.144852651214626,0.411267000000407,
-0.05439626171875,0.0883939252929689,-0.00924161840820226,0.104200992454374,0.414302000000134,
0.0413718046875,0.165008378417969,-0.00684741674804457,0.17025357055683,0.417288000000553,
0.0294007963867188,0.0357214887695313,0.00991199487304861,0.0473146830323145,0.42024500000025,
-0.00890643017578124,-0.081594392578125,-0.0571256516113259,0.100001547341468,0.423235000000204,
-0.0208774384765625,-0.0696233842773437,-0.00445321508788865,0.0728224841665836,0.426167999999961,
0.0389776030273438,0.06205770703125,-0.0212126267089836,0.0762914678822497,0.429229999999734,
0.06052541796875,0.112335941894531,-0.00205901342773274,0.127620255437446,0.432198999999855,
0.00785298144531249,0.00699106884765632,0.00512359155273501,0.0116959630476652,0.435196999999789,
-0.0208774384765625,-0.0313161577148436,-0.00445321508788865,0.0378998719784462,0.438218000000234,
0.0102471831054687,-0.0456813676757812,-0.0140300217285141,0.0488736495877839,0.441163000000415,
-0.0184832368164062,0.0285388837890626,0.0530076247558604,0.0629754413513322,0.444207000000461,
-0.0424252534179688,0.052480900390625,0.0290656081542977,0.0734775925760279,0.447168000000602,
-0.0208774384765625,0.0285388837890626,-0.0188184250488259,0.0400558166386175,0.45010000000002,
0.0533428129882813,-0.081594392578125,-0.00924161840820226,0.0979209278372031,0.453125,
-0.0304542451171875,-0.0480755693359375,0.0314598098144554,0.0650264641987704,0.456065999999737,
-0.0783382783203125,0.0764229169921876,0.0123061965332045,0.110130788451275,0.459114000000227,
-0.00890643017578124,0.0189620771484376,0.0147003981933604,0.0255927055096314,0.462059999999838,
0.0270065947265625,0.00459686718750008,-0.01642422338867,0.0319412344874966,0.465097000000242,
0.0413718046875,-0.0337103593749999,0.0482192214355486,0.0719243204218348,0.468072000000575,
-0.025665841796875,-0.0193451494140624,-0.033183635009765,0.0461965785903665,0.470984000000499,
-0.083126681640625,0.0165678754882813,0.0554018264160163,0.101261552768104,0.474025000000438,
-0.044819455078125,0.0165678754882813,0.0147003981933604,0.0499937972026392,0.476980000000367,
0.0964384428710938,0.0285388837890626,0.0362482131347672,0.106905444701336,0.480007000000114,
0.0557370146484375,-0.0289219560546874,-0.0140300217285141,0.0643423332935011,0.482953000000634,
-0.0998860932617188,-0.0145567460937499,-0.0403662399902327,0.108713218215982,0.485862999999881,
0.00545877978515624,-0.00258573779296867,-0.0236068283691395,0.0243673277633561,0.488892999999734,
0.0437660063476563,-0.347350776855469,-0.128951701416014,0.373090561113258,0.491852000000108,
0.115592056152344,-0.522127498046875,0.13680468286133,0.551991094959878,0.49489100000028,
-0.267480209472656,1.27591794873047,0.0817380446777349,1.3062133754865,0.497846000000209,
-0.236355587890625,1.03649778271484,0.127227876220704,1.07069068828843,0.500786999999946,
0.536971548339844,-1.02012144335938,-0.253450187744139,1.18034876227141,0.503835999999865,
0.187418105957031,-1.38164589404297,0.146381489501955,1.40196236163284,0.506827000000158,
-0.573938021972656,0.454706779296875,-0.354006657470702,0.813316556906351,0.509869000000435,
-0.119039706542969,0.897634086425781,0.297216194091799,0.953024066263648,0.512832000000344,
0.445991885253906,0.342179301269531,0.079343843017579,0.567706686022312,0.515789000000041,
0.106015249511719,-0.467060859863281,-0.138528508056639,0.498573191707755,0.518796000000293,
-0.233961386230469,-0.706481025878906,-0.0499430466308581,0.745887175168314,0.521722999999838,
-0.221990377929687,0.0859997236328126,-0.0379720383300768,0.241075830504069,0.524757000000136,
0.07967903125,0.583993668945313,0.103285859619142,0.598385596573323,0.527729999999792,
0.173052895996094,0.145854765136719,0.0889206496582045,0.243162084341616,0.530681000000186,
0.0174297880859375,-0.347350776855469,-0.109798088134765,0.364708074839135,0.533770000000004,
-0.116645504882813,-0.323408760253906,-0.0571256516113259,0.348515050019871,0.536780000000363,
-0.083126681640625,0.0907881269531251,0.0147003981933604,0.123970282339285,0.539917000000059,
-0.0184832368164062,0.332602494628906,0.0338540114746113,0.334831515197578,0.542930000000524,
0.0868616362304688,0.0668461103515625,0.057796028076174,0.123910157691569,0.545882999999776,
0.0964384428710938,-0.258765315429688,-0.0475488449707022,0.280215549873441,0.548894999999902,
-0.109462899902344,-0.134266829101562,-0.0571256516113259,0.182409012726996,0.551806000000397,
-0.0783382783203125,0.0740287153320314,0.0170945998535164,0.10913002285372,0.55489899999975,
0.0102471831054687,0.1578257734375,0.0314598098144554,0.161256625154763,0.557856000000356,
0.07967903125,0.0309330854492188,-0.00684741674804457,0.0857466670633241,0.560873999999785,
-0.00411802685546875,-0.191727668945312,0.00272938989257909,0.191791310422478,0.56383199999982,
-0.0615788666992187,-0.0792001909179687,0.00272938989257909,0.100359736122553,0.56674699999985,
-0.00411802685546875,0.0955765302734376,-0.00924161840820226,0.0961105550659995,0.569805000000088,
0.00306457812499999,0.0668461103515625,0.0554018264160163,0.086874371816134,0.572780000000421,
0.0294007963867188,-0.081594392578125,-0.0260010300292954,0.0905433889963856,0.575803000000633,
0.0461602080078125,-0.0672291826171875,-0.00445321508788865,0.0816722653250089,0.578766999999971,
-0.114251303222656,0.0692403120117189,0.0266714064941418,0.136231218962216,0.581723000000238,
-0.0136948334960937,0.0285388837890626,0.0075177932128927,0.032535112835261,0.584775000000263,
0.000670376464843747,-0.0504697709960937,0.0290656081542977,0.0582448003377292,0.587733000000298,
0.0246123930664063,0.0165678754882813,-0.0595198532714836,0.0665047165553648,0.590785000000324,
0.02221819140625,0.0357214887695313,-0.0403662399902327,0.0583018534887663,0.593757000000551,
-0.0759440766601562,-0.0384987626953125,-0.0882502731933581,0.122628578347529,0.596671000000242,
-0.025665841796875,-0.0265277543945311,-0.0307894333496073,0.0480671030367827,0.599667000000409,
0.012641384765625,-0.00737414111328116,0.0410366164550791,0.0435681816929789,0.602627000000211,
0.02221819140625,0.0596635053710938,-0.0475488449707022,0.0794624097330252,0.60568400000011,
-0.0280600434570312,0.0117794721679688,-0.0260010300292954,0.040027185336353,0.608637000000272,
-0.05439626171875,-0.0600465776367187,-0.0355778366699209,0.0884891362652433,0.611539000000448,
-0.0184832368164062,0.0117794721679688,0.00272938989257909,0.0220870001800385,0.614591000000473,
0.031794998046875,0.033327287109375,-0.033183635009765,0.0567695657842545,0.617554000000382,
0.00306457812499999,0.0189620771484376,-0.00684741674804457,0.0203921338998381,0.620608000000175,
-0.0855208833007812,-0.0193451494140624,0.0147003981933604,0.0889053316367562,0.62354200000027,
-0.0352426484375,-0.0265277543945311,0.019488801513674,0.0482242615966815,0.626466000000619,
0.012641384765625,0.0141736738281251,-0.00684741674804457,0.0201887284072092,0.629520999999841,
-0.0304542451171875,0.0381156904296875,0.0362482131347672,0.06077992973057,0.632493000000068,
0.0150355864257813,0.00220266552734383,0.0170945998535164,0.0228723837573684,0.635538999999881,
0.012641384765625,-0.0265277543945311,0.043430818115235,0.0524381762093969,0.638488999999936,
-0.006512228515625,-0.00258573779296867,0.00272938989257909,0.0075196229532749,0.641403999999966,
-0.0017238251953125,0.0117794721679688,-0.00684741674804457,0.0137337050347438,0.644422000000304,
0.0485544096679688,-0.0169509477539062,-0.033183635009765,0.06120472988603,0.647364999999809,
-0.0017238251953125,-0.05286397265625,-0.033183635009765,0.062439769464389,0.650371000000632,
-0.0520020600585938,0.00459686718750008,-0.01642422338867,0.0547275118400064,0.653317000000243,
-0.0376368500976562,-0.00976834277343741,-0.0140300217285141,0.0413375678471217,0.656308000000536,
0.031794998046875,0.0189620771484376,0.000335188232423178,0.0370215426709266,0.659284000000298,
-0.00411802685546875,0.0237504804687501,-0.0283952316894514,0.0372469146423763,0.66221300000052,
-0.0136948334960937,-0.0265277543945311,0.019488801513674,0.0356522594254793,0.66523000000052,
-0.0472136567382813,-0.0121625444335937,-0.00205901342773274,0.0487985287277698,0.668158999999832,
-0.006512228515625,0.00459686718750008,0.0123061965332045,0.0146622911338266,0.671213999999964,
-0.0184832368164062,0.033327287109375,-0.00205901342773274,0.0381651365198352,0.674254000000474,
-0.0208774384765625,0.00459686718750008,-0.0403662399902327,0.0456774775598569,0.677276000000347,
-0.0208774384765625,0.0237504804687501,-0.0690966599121072,0.0759888226704989,0.680401999999958,
-0.063973068359375,-0.0145567460937499,-0.00684741674804457,0.0659646833409558,0.68334700000014,
-0.00890643017578124,0.0381156904296875,0.00272938989257909,0.0392374811193781,0.686389999999847,
0.012641384765625,-0.00019153613281242,0.0147003981933604,0.0193892496483516,0.689338000000134,
0.000670376464843747,0.0237504804687501,0.0601902297363299,0.0647101111327532,0.692318000000341,
-0.0136948334960937,-0.00019153613281242,-0.0475488449707022,0.0494820958390384,0.695322999999917,
-0.0208774384765625,-0.0241335527343749,-0.00445321508788865,0.0322199771810053,0.698244000000159,
0.012641384765625,-0.0408929643554687,0.043430818115235,0.0609776607023329,0.701281999999992,
-0.0184832368164062,-0.0337103593749999,0.0338540114746113,0.0512260916460168,0.7042220000003,
0.0294007963867188,0.00699106884765632,-0.0116358200683582,0.0323832391905006,0.707199000000401,
0.000670376464843747,0.0165678754882813,0.000335188232423178,0.0165848199854856,0.710261000000173,
0.0198239897460938,0.00459686718750008,-0.0236068283691395,0.0311673563691686,0.713236999999936,
0.0102471831054687,0.00459686718750008,0.0266714064941418,0.0289395900785113,0.716325000000325,
-0.0208774384765625,-0.0145567460937499,0.0123061965332045,0.0282702806369942,0.71925100000044,
0.00306457812499999,0.0165678754882813,-0.052337248291014,0.0549824853562903,0.722209999999905,
0.00306457812499999,-0.0313161577148436,-0.0786734665527327,0.0847325658323241,0.725242999999864,
0.00306457812499999,-0.0121625444335937,0.000335188232423178,0.0125471700926752,0.72820000000047,
-0.0328484467773437,-0.0337103593749999,-0.0236068283691395,0.0526563493847194,0.731204000000616,
-0.00411802685546875,0.0117794721679688,-0.00205901342773274,0.0126472782065509,0.734156000000439,
-0.006512228515625,0.0261446821289063,-0.00205901342773274,0.0270220846745187,0.737100000000282,
-0.0184832368164062,0.00459686718750008,0.00512359155273501,0.0197233978195981,0.74014200000056,
-0.0232716401367187,-0.00737414111328116,0.00991199487304861,0.026347577387207,0.743089000000509,
-0.025665841796875,-0.0193451494140624,0.0601902297363299,0.0682336720154118,0.74612100000013,
-0.0328484467773437,-0.00497993945312492,0.02188300317383,0.039782987325572,0.749056999999993,
-0.0280600434570312,0.00220266552734383,-0.00445321508788865,0.028496471691331,0.752070000000458,
-0.0184832368164062,-0.0289219560546874,0.0147003981933604,0.0373391388797864,0.755028000000493,
-0.0328484467773437,-0.00258573779296867,-0.0499430466308581,0.0598332215611866,0.757934000000205,
-0.0567904633789063,0.00938527050781257,-0.0427604416503886,0.0717056162614338,0.760967000000164,
0.0341891997070313,-0.00019153613281242,0.0242772048339859,0.0419323352229368,0.763923999999861,
0.0174297880859375,-0.0193451494140624,0.00512359155273501,0.0265383403582882,0.766950000000179,
-0.00890643017578124,-0.0121625444335937,0.00272938989257909,0.0153199724138433,0.769914000000426,
-0.0113006318359375,0.0165678754882813,0.000335188232423178,0.0200576950130804,0.772858000000269,
-0.0113006318359375,0.0213562788085938,-0.00205901342773274,0.0242494218639823,0.775883000000249,
-0.00890643017578124,-0.00019153613281242,-0.0427604416503886,0.0436785594394152,0.778809999999794,
0.0365834013671875,-0.0193451494140624,-0.00205901342773274,0.0414345218114161,0.781829000000471,
0.00545877978515624,0.0213562788085938,-0.0499430466308581,0.0545911790316466,0.784795000000486,
0.000670376464843747,-0.00976834277343741,0.043430818115235,0.0445208477828377,0.787756000000627,
-0.0208774384765625,0.0237504804687501,-0.116980693115233,0.121179351877947,0.7907780000005,
0.0150355864257813,-0.0648349809570312,0.0242772048339859,0.0708450865580461,0.793733999999858,
-0.0208774384765625,-0.00976834277343741,-0.052337248291014,0.0571880714533833,0.796736000000237,
-0.0017238251953125,0.00938527050781257,0.00512359155273501,0.0108307925013855,0.799697999999808,
-0.0017238251953125,-0.0193451494140624,-0.0475488449707022,0.0513624282642893,0.802609000000302,
-0.0136948334960937,0.0237504804687501,-0.0140300217285141,0.0307973261288182,0.805634000000282,
0.000670376464843747,-0.0145567460937499,-0.0140300217285141,0.020228439661652,0.808573000000251,
-0.01608903515625,0.0452982954101563,-0.00684741674804457,0.0485559443883675,0.811674000000494,
-0.0113006318359375,0.033327287109375,0.0841322463378926,0.0911956535138708,0.814722000000074,
0.012641384765625,-0.0289219560546874,0.0554018264160163,0.0637624224841893,0.817767999999887,
-0.01608903515625,-0.0241335527343749,0.019488801513674,0.0349442241905767,0.820846999999958,
-0.0184832368164062,-0.00497993945312492,0.0386424147949231,0.0431238456234024,0.823780000000625,
-0.0472136567382813,0.0261446821289063,-0.00205901342773274,0.054008456027898,0.826799999999821,
-0.0113006318359375,0.00220266552734383,0.0338540114746113,0.0357582173526571,0.829762000000301,
0.00306457812499999,-0.0169509477539062,-0.0140300217285141,0.0222163853617654,0.832736000000295,
0.00545877978515624,-0.00976834277343741,-0.0355778366699209,0.0372961292816529,0.835753000000295,
0.000670376464843747,-0.00976834277343741,0.00272938989257909,0.0101646197336495,0.838717999999972,
-0.0184832368164062,-0.0193451494140624,0.0362482131347672,0.0450532774005096,0.841745000000628,
-0.0017238251953125,-0.0289219560546874,-0.0690966599121072,0.0749252929680136,0.8446670000003,
0.000670376464843747,-0.0145567460937499,0.0290656081542977,0.032513963751313,0.847711000000345,
-0.0280600434570312,0.00938527050781257,-0.0307894333496073,0.042701739394376,0.850666000000274,
0.0270065947265625,-0.0337103593749999,-0.00684741674804457,0.043733643845875,0.853627000000415,
-0.0017238251953125,0.0357214887695313,-0.0571256516113259,0.0673968575323384,0.856674000000567,
0.000670376464843747,0.0141736738281251,-0.0307894333496073,0.0339017940584359,0.859639000000243,
0.0581312163085937,0.00938527050781257,-0.00684741674804457,0.0592807618721515,0.862686999999823,
-0.00411802685546875,-0.00019153613281242,-0.0379720383300768,0.0381951636495166,0.865622000000258,
-0.0113006318359375,-0.0169509477539062,-0.0307894333496073,0.0369192106583682,0.86852700000054,
0.0198239897460938,-0.00258573779296867,-0.0283952316894514,0.0347270181859146,0.871546000000308,
-0.0496078583984375,-0.00019153613281242,-0.00924161840820226,0.0504617063898202,0.874469999999747,
0.000670376464843747,0.00699106884765632,-0.0140300217285141,0.0156896767952646,0.877516000000469,
0.00306457812499999,-0.0384987626953125,0.0506134230957045,0.0636652571314921,0.880474999999933,
-0.0017238251953125,-0.0384987626953125,0.019488801513674,0.0431849474564154,0.883415000000241,
-0.0280600434570312,0.0237504804687501,0.0242772048339859,0.0440548979780712,0.886454999999842,
-0.0017238251953125,-0.0169509477539062,-0.01642422338867,0.023665614654612,0.88937100000021,
0.00545877978515624,-0.0145567460937499,-0.0188184250488259,0.024409634468771,0.892394999999851,
0.0341891997070313,-0.00737414111328116,-0.033183635009765,0.0482123735801003,0.895338000000265,
0.0341891997070313,-0.0289219560546874,-0.0571256516113259,0.0725859558775326,0.898272000000361,
0.00545877978515624,-0.0313161577148436,-0.0260010300292954,0.0410676706589029,0.901297000000341,
-0.00411802685546875,0.0261446821289063,-0.052337248291014,0.058648871323148,0.904245000000628,
0.000670376464843747,0.00220266552734383,-0.0858560715332022,0.0858869382336121,0.90729999999985,
0.00306457812499999,0.0213562788085938,0.00991199487304861,0.0237429974097199,0.910267000000204,
-0.0376368500976562,0.0213562788085938,-0.0427604416503886,0.0608364898721165,0.913196000000426,
-0.0208774384765625,-0.00019153613281242,0.0123061965332045,0.024235234608864,0.916220000000067,
-0.00411802685546875,-0.0169509477539062,-0.05473144995117,0.0574440979448319,0.919138000000203,
-0.025665841796875,0.0285388837890626,-0.0619140549316395,0.0728460947556278,0.922169000000395,
-0.025665841796875,-0.00976834277343741,-0.0116358200683582,0.0298252957126126,0.925100999999813,
-0.01608903515625,-0.00019153613281242,-0.0140300217285141,0.0213479565310546,0.928017000000182,
-0.01608903515625,-0.0121625444335937,0.043430818115235,0.0478854936438668,0.931037000000288,
0.00306457812499999,-0.0384987626953125,-0.00924161840820226,0.0397108785971431,0.933979999999792,
0.012641384765625,-0.0217393510742186,-0.0283952316894514,0.0379301091036966,0.937010999999984,
-0.0017238251953125,0.00459686718750008,0.0242772048339859,0.0247686381497816,0.939978999999767,
-0.0184832368164062,0.00699106884765632,0.0458250197753927,0.0499042836263497,0.942995000000337,
-0.0113006318359375,-0.0193451494140624,0.0458250197753927,0.0510085436290719,0.945931000000201,
-0.0136948334960937,-0.0145567460937499,-0.0140300217285141,0.0244190260048637,0.948871000000509,
0.0174297880859375,0.00699106884765632,-0.0307894333496073,0.0360646885795964,0.952003999999761,
-0.0017238251953125,-0.0456813676757812,0.0362482131347672,0.0583411679819441,0.955045000000609,
-0.01608903515625,-0.0289219560546874,0.0314598098144554,0.0456624159221785,0.958136000000195,
0.0102471831054687,-0.0384987626953125,0.0266714064941418,0.0479429182991893,0.961140000000341,
0.0461602080078125,0.00459686718750008,0.0362482131347672,0.0588712913628327,0.964100000000144,
-0.025665841796875,0.00938527050781257,-0.00445321508788865,0.0276884427562481,0.967121000000589,
0.0102471831054687,-0.0696233842773437,0.0242772048339859,0.0744432876381678,0.970103000000563,
-0.0184832368164062,0.0237504804687501,0.0123061965332045,0.0325139637513129,0.973160999999891,
0.00306457812499999,-0.0169509477539062,0.0410366164550791,0.0445053947170582,0.976118999999926,
0.0102471831054687,-0.00497993945312492,-0.0499430466308581,0.0512260916460144,0.979052000000593,
-0.0400310517578125,-0.00497993945312492,-0.0667024582519513,0.0779519264588552,0.982077000000572,
0.00306457812499999,0.0189620771484376,0.0362482131347672,0.0410229809293649,0.985075000000506,
-0.0280600434570312,-0.0145567460937499,-0.0140300217285141,0.0345847712924484,0.988073000000441,
0.012641384765625,-0.00737414111328116,0.0170945998535164,0.022503508839801,0.991066000000501,
-0.00411802685546875,0.00459686718750008,-0.0427604416503886,0.0432035265141419,0.994026999999733,
0.00306457812499999,-0.0169509477539062,0.00272938989257909,0.0174406375464201,0.997078000000329,
-0.00411802685546875,-0.00258573779296867,0.00512359155273501,0.0070636658694764,1.00001800000064,
0.000670376464843747,0.00938527050781257,-0.0451546433105463,0.046124554410987,1.00308399999994,
-0.0232716401367187,-0.00497993945312492,0.00991199487304861,0.0257801604722133,1.00603200000023,
-0.0017238251953125,0.00459686718750008,-0.00684741674804457,0.00842554908388232,1.00896999999986,
-0.0184832368164062,-0.0121625444335937,-0.00684741674804457,0.023161274715177,1.01197000000047,
0.00306457812499999,0.0237504804687501,-0.00205901342773274,0.0240357337702906,1.01493600000049,
