X,Y,Z,Magnitude,Seconds,
-0.183491615234375,0.178798979980469,-0.038977603027341,0.259147644483088,0.0,
-0.140395985351563,0.162039568359375,-0.00785298144530877,0.21454492241605,0.00390899999990779,
-0.128424977050781,0.178798979980469,-0.0270065947265596,0.221791357205989,0.00785299999995459,
-0.166732203613281,0.19076998828125,-0.077284829589841,0.264888204787038,0.0117369999999255,
-0.149972791992188,0.164433770019531,-0.0533428129882783,0.228857507541856,0.0155679999999165,
-0.178703211914063,0.193164189941406,-0.0198239897460901,0.263894359154521,0.0194960000000037,
-0.138001783691406,0.166827971679687,-0.0437660063476528,0.220888043470875,0.0233629999999039,
-0.195462623535156,0.202740996582031,-0.0892558378906223,0.295425377196812,0.0272279999999228,
-0.152366993652344,0.183587383300781,-0.0102471831054647,0.238799147451322,0.0311669999999822,
-0.185885816894531,0.200346794921875,0.0160890351562539,0.273772226878977,0.034987000000001,
-0.157155396972656,0.183587383300781,-0.0533428129882783,0.247482528276975,0.0388079999999036,
-0.176309010253906,0.154856963378906,-0.0437660063476528,0.238706953219362,0.0426870000000008,
-0.130819178710938,0.145280156738281,-0.0437660063476528,0.200338325769501,0.0464619999999059,
-0.17391480859375,0.145280156738281,-0.0509486113281223,0.232268046847526,0.0503049999999803,
-0.161943800292969,0.15246276171875,-0.0270065947265596,0.224053663935589,0.0543239999999514,
-0.128424977050781,0.166827971679687,-0.0629196196289037,0.219734898000974,0.0582439999999451,
-0.152366993652344,0.193164189941406,-0.0126413847656224,0.246349162042751,0.0622389999999768,
-0.178703211914063,0.157251165039062,-0.022218191406246,0.239074078234989,0.0661359999999149,
-0.128424977050781,0.217106206542969,-0.0485544096679646,0.256876644224765,0.0700219999999945,
-0.13560758203125,0.159645366699219,-0.0270065947265596,0.211199942167641,0.0738900000000058,
-0.149972791992188,0.166827971679687,0.00411802685547258,0.224366594255636,0.0777799999999615,
-0.130819178710938,0.176404778320312,-0.0174297880859342,0.220309102956649,0.0818909999999278,
-0.157155396972656,0.169222173339844,0.0280600434570353,0.232639912281414,0.0858399999999619,
-0.149972791992188,0.181193181640625,-0.0677080229492155,0.244759440640552,0.0898069999999507,
-0.140395985351563,0.162039568359375,-0.077284829589841,0.227905241935458,0.0937539999999899,
-0.178703211914063,0.162039568359375,-0.00306457812499694,0.241248940519081,0.0976419999999507,
-0.13560758203125,0.162039568359375,-0.0629196196289037,0.220465681122257,0.101568999999927,
-0.149972791992188,0.147674358398437,-0.0677080229492155,0.221097107258358,0.105525999999941,
-0.17391480859375,0.150068560058594,-0.09643844287109,0.249133110263692,0.109434999999962,
-0.185885816894531,0.159645366699219,-0.0581312163085901,0.251832123329394,0.113348999999971,
-0.197856825195313,0.138097551757812,-0.0413718046874969,0.244805807326891,0.117299000000003,
-0.17391480859375,0.164433770019531,-0.060525417968746,0.246876794355663,0.121171000000004,
-0.142790187011719,0.140491753417969,-0.0916500395507782,0.220287766421461,0.12515099999996,
-0.152366993652344,0.171616375,-0.0820732329101528,0.243729145739934,0.129206999999951,
-0.169126405273438,0.142885955078125,-0.0629196196289037,0.230171709064231,0.133085999999935,
-0.176309010253906,0.193164189941406,-0.0413718046874969,0.264780848241583,0.137029999999982,
-0.159549598632813,0.130914946777344,-0.0174297880859342,0.207119760588716,0.140883999999915,
-0.106877162109375,0.159645366699219,-0.0437660063476528,0.197040184228254,0.144678999999996,
-0.188280018554688,0.219500408203125,-0.0365834013671833,0.291492949904255,0.148443999999927,
-0.166732203613281,0.157251165039062,-0.132351467773434,0.26465915372355,0.152391999999963,
-0.111665565429688,0.174010576660156,-0.0724964262695273,0.219099546129573,0.156384000000003,
-0.169126405273438,0.147674358398437,-0.0724964262695273,0.235938951661141,0.160195999999928,
-0.159549598632813,0.174010576660156,-0.0270065947265596,0.237623886367125,0.16414599999996,
-0.17391480859375,0.174010576660156,-0.0461602080078087,0.250313416023043,0.168019999999956,
-0.161943800292969,0.159645366699219,-0.0677080229492155,0.237269496424527,0.17187899999999,
-0.181097413574219,0.181193181640625,-0.0246123930664037,0.257357751328339,0.175718999999958,
-0.157155396972656,0.138097551757812,-0.0102471831054647,0.209460634393988,0.179569999999899,
-0.147578590332031,0.159645366699219,-0.0198239897460901,0.218309582937558,0.183390999999915,
-0.159549598632813,0.169222173339844,-0.117986257812497,0.260792974227353,0.187291999999957,
-0.157155396972656,0.147674358398437,-0.038977603027341,0.219145587370087,0.191144000000008,
-0.140395985351563,0.162039568359375,-0.0174297880859342,0.215108465499732,0.194965999999908,
-0.128424977050781,0.171616375,-0.00545877978515286,0.214417707233748,0.198897999999986,
-0.1547611953125,0.154856963378906,-0.0341891997070274,0.221586570121243,0.202970999999934,
-0.197856825195313,0.171616375,-0.10362104785156,0.281667933926396,0.207049999999981,
-0.181097413574219,0.176404778320312,0.00411802685547258,0.252847537387044,0.210954999999899,
-0.123636573730469,0.178798979980469,-0.0581312163085901,0.225020701081882,0.214921000000004,
-0.147578590332031,0.162039568359375,-0.0461602080078087,0.22397996973347,0.218790999999896,
-0.157155396972656,0.142885955078125,0.0232716401367217,0.213672141822172,0.222705999999903,
-0.147578590332031,0.147674358398437,0.00172382519531666,0.2087824897497,0.226719000000003,
-0.133213380371094,0.154856963378906,-0.0246123930664037,0.205748034521073,0.230738999999971,
-0.1547611953125,0.116549736816406,0.013694833496098,0.194222597014388,0.234757999999943,
-0.159549598632813,0.197952593261719,-0.0557370146484342,0.260284303031994,0.238756999999964,
-0.133213380371094,0.193164189941406,-0.0341891997070274,0.237122564009038,0.242737999999918,
-0.193068421875,0.245836626464844,-0.0701022246093714,0.320351969452508,0.246690999999942,
-0.161943800292969,0.162039568359375,-0.0150355864257783,0.229583721170706,0.25057199999992,
-0.166732203613281,0.142885955078125,0.0232716401367217,0.220811216008114,0.254580999999916,
-0.152366993652344,0.159645366699219,-0.0365834013671833,0.22369776288281,0.258499999999913,
-0.114059767089844,0.164433770019531,-0.0365834013671833,0.203436575981356,0.26242400000001,
-0.13560758203125,0.145280156738281,-0.0270065947265596,0.200561951538637,0.266271999999958,
-0.13560758203125,0.154856963378906,0.0208774384765658,0.206896019412266,0.270212999999899,
-0.0973003554687503,0.176404778320312,-0.0748906279296833,0.214929316614291,0.274214999999913,
-0.159549598632813,0.195558391601563,-0.038977603027341,0.255378958583981,0.278098,
-0.145184388671875,0.162039568359375,-0.0844674345703087,0.233388251484534,0.282182999999918,
-0.164338001953125,0.150068560058594,-0.106015249511715,0.246509198069842,0.286070999999993,
-0.181097413574219,0.171616375,-0.0533428129882783,0.255135080043719,0.289968999999928,
-0.1547611953125,0.159645366699219,-0.00545877978515286,0.222412834521357,0.29382499999997,
-0.171520606933594,0.164433770019531,-0.022218191406246,0.238644990215737,0.297736999999984,
-0.1547611953125,0.166827971679687,-0.0557370146484342,0.234284473474518,0.301690000000008,
-0.142790187011719,0.221894609863281,0.116645504882817,0.288500310576239,0.305655000000002,
-0.298413294921875,-0.290464545410156,-0.879342385742184,0.972966175203031,0.309601999999927,
0.0607169541015623,0.315268474609375,0.691253903320316,0.762176304048785,0.313337999999931,
-0.389392958007813,-0.149206647460938,-0.568096169921871,0.704714664011262,0.316279000000009,
-0.102088758789063,0.171616375,-0.0437660063476528,0.204425434207329,0.319216999999981,
-0.140395985351563,0.528352422363281,0.262691806152347,0.606526421468649,0.322243999999955,
-0.027868507324219,0.360758306152344,-0.0653138212890596,0.367680709868994,0.325237999999899,
-0.243346656738281,0.590601665527344,-0.0102471831054647,0.638852821415832,0.32828399999994,
-0.0111090957031252,0.284143853027344,-0.163476089355465,0.328002397874652,0.331221999999912,
-0.0111090957031252,0.166827971679687,-0.00545877978515286,0.167286527905993,0.334136999999942,
-0.157155396972656,0.207529399902344,0.0855208833007843,0.274007467237677,0.337167999999906,
-0.319961109863281,0.214712004882812,0.0639730683593775,0.390600704481,0.340142999999898,
-0.190674220214844,0.00402225878906243,-0.101226846191404,0.215915981831274,0.343155999999908,
-0.118848170410156,-0.130053034179688,-0.194600710937497,0.262503554274154,0.346052999999984,
-0.17391480859375,-0.189908075683594,-0.194600710937497,0.322770622200078,0.34899699999994,
-0.32714371484375,0.0112048637695312,0.0113006318359403,0.327530553404952,0.352125000000001,
-0.248135060058594,0.0878193168945312,0.052002060058598,0.268304779496084,0.35508399999992,
-0.0302627089843752,0.0830309135742187,0.0950976899414098,0.129821164669844,0.358108999999899,
-0.13560758203125,0.162039568359375,-0.0748906279296833,0.224175922369368,0.361066999999935,
-0.140395985351563,0.315268474609375,-0.127563064453122,0.367936922852314,0.36397599999998,
-0.183491615234375,0.427795952636719,0.00411802685547258,0.465505647762581,0.367042999999967,
-0.114059767089844,0.425401750976563,0.20283676464844,0.484890743668676,0.370028999999931,
0.00325611425781225,0.0614830986328125,-0.307128188964841,0.313238723906185,0.373121999999967,
-0.0925119521484377,0.391882927734375,0.432680124023442,0.591052265087379,0.376111999999921,
-0.0589931289062502,-0.0701979926757813,-0.395713650390622,0.406198523556315,0.379156999999964,
-0.312778504882813,0.504410405761719,0.205230966308598,0.62799681534972,0.382197999999903,
-0.11645396875,0.0878193168945312,-0.127563064453122,0.19376814668598,0.385154999999941,
-0.205039430175782,0.365546709472656,0.107068698242191,0.432584408961272,0.388210999999956,
-0.406152369628906,0.195558391601563,-0.297551382324215,0.540129296561497,0.391271999999958,
-0.0996945571289065,0.0519062919921874,0.0208774384765658,0.114320318871362,0.394301999999925,
-0.236164051757813,0.0782425102539062,-0.0150355864257783,0.249241687148572,0.397278999999912,
-0.159549598632813,-0.225821100585938,-0.177841299316404,0.328753359885922,0.40021999999999,
-0.370239344726563,0.145280156738281,0.135799118164066,0.420267649028083,0.40329799999995,
-0.0565989272460939,-0.151600849121094,-0.199389114257809,0.256792279681767,0.406256999999982,
0.0056503159179685,0.01838746875,-0.0533428129882783,0.0567052094124296,0.409301999999911,
-0.128424977050781,0.274567046386719,-0.101226846191404,0.319573015259234,0.412241999999992,
0.00325611425781225,0.262596038085937,0.0496078583984403,0.267260586531892,0.415241999999921,
-0.183491615234375,0.456526372558594,0.0543962617187539,0.495019651116805,0.418263999999908,
-0.0613873305664064,0.22907721484375,-0.220936929199215,0.324126366404552,0.421227999999928,
0.0391691391601561,0.257807634765625,0.00411802685547258,0.260798688936843,0.424373999999943,
-0.224193043457031,0.399065532714844,0.0879150849609402,0.466095357517319,0.427323000000001,
-0.171520606933594,0.296114861328125,-0.110803652832027,0.359695397778681,0.43031899999994,
-0.260106068359375,0.245836626464844,-0.0629196196289037,0.363386422755767,0.433356000000003,
-0.197856825195313,0.0950019218749999,-0.000670376464841027,0.219483798584125,0.436332999999991,
-0.394181361328125,0.15246276171875,-0.393319448730466,0.577342210546778,0.43939499999999,
0.0607169541015623,-0.0941400092773438,-0.618374404785152,0.62843917315481,0.442353999999909,
0.0319865341796873,0.226683013183594,0.116645504882817,0.256932871863817,0.445360999999934,
0.0104387192382811,0.231471416503906,0.368036679199221,0.434901116063929,0.448454999999967,
-0.190674220214844,0.288932256347656,0.576332223632816,0.672307473564167,0.451396999999929,
-0.506708839355469,0.250625029785156,-0.139534072753904,0.582268418253187,0.454428000000007,
-0.353479933105469,0.233865618164062,-0.225725332519527,0.480201120582363,0.457440999999903,
-0.367845143066406,0.367940911132812,-0.24966734912109,0.57708261850444,0.460367999999903,
-0.281653883300782,-0.407780426757813,-1.18340599658203,1.28299007758108,0.463439999999991,
0.0559285507812498,0.367940911132812,1.45021582958985,1.49720889299747,0.466426999999953,
0.0511401474609373,-0.541855719726563,-0.0126413847656224,0.544410452041022,0.469532999999956,
-0.243346656738281,0.202740996582031,0.104674496582035,0.333583958360525,0.472500999999966,
-0.25052926171875,-0.118082025878906,-0.699777261230466,0.752593177718361,0.47547099999997,
0.144514012207031,0.121338140136719,-0.153899282714841,0.243499965495181,0.47845499999994,
0.115783592285156,0.0447236870117187,-0.0724964262695273,0.143742061499863,0.481431999999927,
0.139725608886719,0.341604692871094,0.561967013671879,0.672327253966109,0.484464000000003,
-0.138001783691406,0.466103179199219,-0.000670376464841027,0.486104017023346,0.487420999999927,
-0.195462623535156,0.525958220703125,0.00651222851562849,0.561141779093914,0.490446999999904,
-0.185885816894531,0.401459734375,-0.163476089355465,0.471643813738661,0.493432999999982,
-0.315172706542969,0.664821916992188,0.245932394531254,0.775760761409511,0.496415999999954,
-0.0542047255859377,0.03754108203125,0.147770126464847,0.161813149624376,0.499512999999979,
-0.896963709960938,0.796503008300781,-0.285580374023434,1.23309249014275,0.502453999999943,
0.309713926757812,-0.855496137207031,-0.829064150878903,1.23091174479589,0.505525999999918,
-0.566563880859375,0.849175444824219,1.36163036816407,1.70180222901883,0.508544999999913,
-0.118848170410156,-0.88183235546875,-0.860188772460933,1.23760975878071,0.511530999999991,
-0.183491615234375,0.353575701171875,0.593091635253909,0.714452683617788,0.514634999999998,
0.067899559082031,-0.668748407714844,-1.03017709033203,1.2300811438233,0.517651000000001,
0.156485020507812,0.145280156738281,0.478169955566409,0.523679665436431,0.520770999999968,
-0.291230689941407,0.085425115234375,-0.445991885253903,0.53946411075148,0.523750999999947,
0.0319865341796873,0.322451079589844,0.176500546386722,0.368985473931285,0.526734999999917,
0.134937205566406,0.269778643066406,0.193259958007816,0.358242902330255,0.52983699999993,
-0.106877162109375,0.415824944335938,0.073549875000003,0.43559464669008,0.532856999999922,
-0.279259681640625,0.399065532714844,-0.285580374023434,0.564619712034897,0.535890999999992,
-0.183491615234375,0.466103179199219,-0.10362104785156,0.511525823472085,0.538837999999942,
-0.181097413574219,0.480468389160156,0.394372897460942,0.647438127111128,0.541829000000007,
-0.695850770507813,0.0519062919921874,-0.429232473632808,0.819233223438621,0.544938999999999,
-0.319961109863281,-0.163571857421875,-0.426838271972652,0.557962162503861,0.547864000000004,
-0.0565989272460939,0.367940911132812,0.435074325683598,0.572602498701927,0.550896999999964,
-0.123636573730469,0.174010576660156,-0.240090542480466,0.321261811832615,0.55384099999992,
-0.197856825195313,0.487650994140625,0.368036679199221,0.64218518559579,0.556817999999907,
-0.28883648828125,0.150068560058594,-0.0485544096679646,0.329096673302708,0.559856999999965,
-0.0877235488281252,-0.029496564453125,-0.0844674345703087,0.125300502139565,0.56283899999994,
-0.159549598632813,0.0471178886718749,-0.00785298144530877,0.166546807757961,0.56593799999996,
0.0200155258789061,-0.0223139594726563,-0.0796790312499969,0.0851309701841491,0.568889999999897,
0.0655053574218748,-0.0175255561523438,-0.077284829589841,0.102815572041142,0.571935999999937,
-0.027868507324219,0.2099236015625,0.17171214306641,0.272634613117833,0.574913999999922,
-0.0877235488281252,0.166827971679687,-0.0365834013671833,0.192003485409384,0.577874999999949,
-0.0853293471679689,0.379911919433594,0.0448194550781285,0.391947633708037,0.580916999999999,
-0.1547611953125,0.109367131835937,-0.0796790312499969,0.205574670427831,0.583896999999979,
-0.564169679199219,0.607361077148438,-1.20255960986328,1.4605904697201,0.586937999999918,
0.331261741699219,2.14922694628906,3.28178009960938,3.93687584644992,0.589914999999905,
-0.420517579589844,0.466103179199219,5.13968058789063,5.17787637491892,0.592851999999993,
-0.664726148925782,-1.02069605175781,-0.596826589843747,1.3564229655547,0.595876999999973,
0.80291946875,-2.08132738720703,-5.43790234667969,5.87770238256925,0.598817999999937,
0.63053694921875,0.150068560058594,-4.64063319384765,4.68567752378339,0.601840999999922,
-0.686273963867188,-2.41651561962891,-6.31178595263672,6.79331742268052,0.604826000000003,
1.75820593115234,-0.161177655761719,1.84765330517578,2.55559955180445,0.607790999999906,
-0.44206539453125,-0.951264203613281,-0.285580374023434,1.08714375689025,0.610801999999921,
1.73665811621094,1.55067653125,6.64563343212891,7.04166335686394,0.613750999999979,
0.0439575424804686,0.882694268066406,2.91786144726563,3.04876972922805,0.616790999999921,
-0.743734803710938,1.85234594042969,1.10066238720703,2.27942638220443,0.619749999999954,
-0.810772450195313,1.51476350634766,-1.61915069873046,2.36082812406107,0.622686999999928,
-0.652755140625,0.403853936035156,-3.39325412890625,3.47898848210263,0.625680999999986,
-0.530650855957032,0.162039568359375,-2.97666304003906,3.02793163835919,0.628656999999976,
-0.798801441894532,0.789320403320312,-0.149110879394527,1.13284795847648,0.631765999999971,
-1.09089404443359,0.444555364257813,1.66569397900391,2.04015090612458,0.634723000000008,
-0.63360152734375,0.334422087890625,3.20755984814454,3.28659842508184,0.63765699999999,
-0.389392958007813,-0.343136981933594,1.1078449921875,1.22339298299095,0.640671999999995,
-0.415729176269531,-0.491577484863281,-0.972716250488277,1.16647163514173,0.643577999999934,
-0.331932118164063,-0.347925385253906,-1.7867448149414,1.85032106362462,0.646622999999977,
-0.123636573730469,-0.434116645019531,-1.65745792529296,1.71782130559709,0.649587999999994,
0.3815399765625,-0.522702106445313,-0.568096169921871,0.861117590156872,0.652599000000009,
0.599412327636719,-0.343136981933594,0.866030624511723,1.10772161190686,0.655634999999961,
0.410270396484375,-0.0678037910156251,1.44303322460938,1.50175365477633,0.658660999999938,
0.434212413085937,0.11415553515625,0.897155246093753,1.00322452196817,0.661773999999923,
0.455760228027343,0.154856963378906,-0.477116506835934,0.677744956199451,0.664769999999976,
0.271406700195312,0.245836626464844,-0.85061196582031,0.926087447393179,0.667826999999988,
-0.0230801040039065,0.552294438964844,-0.65189322802734,0.854708499583471,0.670895999999971,
-0.164338001953125,0.643274102050781,-0.0701022246093714,0.667624798184105,0.6738509999999,
-0.298413294921875,0.513987212402344,0.17171214306641,0.618642391996961,0.676898999999935,
-0.401363966308594,0.61214948046875,0.684071298339846,1.00188500393084,0.679879999999912,
-0.71021598046875,0.607361077148438,0.528448190429691,1.07356960972101,0.682941999999912,
-0.784436231933594,0.468497380859375,-0.0844674345703087,0.917586369419881,0.685947999999939,
-0.700639173828125,0.159645366699219,-0.711748269531247,1.01141855539228,0.688864999999964,
-0.626418922363282,0.0255700737304687,-0.649499026367184,0.902720045317083,0.691889999999944,
-0.571352284179688,-0.0318907661132813,-0.194600710937497,0.604425256171529,0.694825999999921,
-0.401363966308594,-0.029496564453125,0.329729452636721,0.520273574863855,0.697846999999911,
-0.188280018554688,-0.0845632026367188,0.406343905761723,0.455758346469732,0.700801999999953,
0.0750821640624998,-0.15399505078125,0.226778781250003,0.284218969547538,0.703838999999903,
0.20915745703125,-0.1731486640625,-0.247273147460934,0.36724829632504,0.706863999999996,
0.259435691894531,-0.0893516059570313,-0.522606338378903,0.590260936052607,0.709884999999986,
0.331261741699219,0.140491753417969,-0.117986257812497,0.378672723238223,0.712941999999998,
0.259435691894531,0.241048223144531,0.0783382783203166,0.362695478273608,0.715957000000003,
0.300137120117187,0.147674358398437,0.207625167968754,0.393698129757664,0.71893799999998,
0.154090818847656,0.308085869628906,0.257903402832035,0.430319705231452,0.721979999999917,
-0.0565989272460939,0.423007549316406,-0.0174297880859342,0.427133027120125,0.72497199999998,
-0.305595899902344,0.411036541015625,-0.129957266113278,0.528421028255737,0.728053999999929,
-0.3079901015625,0.339210491210937,-0.213754324218746,0.505581418893394,0.730980999999929,
-0.410940772949219,0.30569166796875,-0.00785298144530877,0.512231767909018,0.733913999999913,
-0.463613209472657,0.2099236015625,-0.0437660063476528,0.51080386627563,0.736996999999974,
-0.602476905761719,0.288932256347656,0.0328484467773471,0.668983774982658,0.739934999999946,
-0.573746485839844,0.241048223144531,-0.0317949980468715,0.623137382762025,0.743013999999903,
-0.466007411132813,0.118943938476562,-0.0677080229492155,0.485690172952587,0.74597499999993,
-0.348691529785156,0.0590888969726562,-0.232907937499997,0.423465923115261,0.748927999999978,
-0.226587245117188,0.0423294853515625,-0.149110879394527,0.27453163630761,0.751957999999945,
-0.149972791992188,0.07584830859375,-0.0294007963867156,0.17061421711756,0.754877999999962,
0.0655053574218748,0.193164189941406,0.413526510742191,0.461093842089979,0.757950999999935,
-0.0302627089843752,-0.364684796875,-0.570490371582029,0.677768468353784,0.760866999999962,
0.168456028808594,-0.086957404296875,0.0663672700195352,0.20085725860386,0.763866000000007,
0.249858885253906,0.171616375,0.142981723144535,0.335149840909772,0.766879999999901,
0.0990241806640623,0.473285784179687,0.109462899902347,0.495769450771023,0.769863999999984,
0.0822647690429685,0.276961248046875,-0.366983230468747,0.467067143557169,0.772929999999974,
0.103812583984375,0.509198809082031,0.281845419433598,0.591182983702823,0.775922999999921,
-0.0494163222656252,0.269778643066406,-0.077284829589841,0.284948125183764,0.778951000000006,
-0.248135060058594,0.238654021484375,-0.137139871093746,0.370586149558447,0.781918999999903,
-0.360662538085938,0.219500408203125,-0.117986257812497,0.438381857075,0.784877999999935,
-0.351085731445313,0.310480071289063,0.0950976899414098,0.478228644190563,0.787991999999917,
-0.410940772949219,0.214712004882812,-0.0461602080078087,0.46594455541,0.790993999999955,
-0.449247999511719,0.166827971679687,-0.192206509277341,0.516331946918473,0.79410699999994,
-0.398969764648438,0.0806367119140625,-0.120380459472653,0.424465083881806,0.797089999999912,
-0.351085731445313,0.0159932670898437,-0.106015249511715,0.367091553356555,0.800072999999998,
-0.296019093261719,0.0207816704101562,0.052002060058598,0.301269639444244,0.803159999999934,
-0.176309010253906,0.0112048637695312,-0.0533428129882783,0.184542330554017,0.806132999999932,
-0.00153228906250025,0.0231758720703125,-0.0437660063476528,0.049547273059305,0.809241999999927,
0.0200155258789061,0.128520745117187,-0.10362104785156,0.166299503184891,0.812291999999957,
0.067899559082031,0.164433770019531,-0.17305289599609,0.248185655627,0.815255999999977,
0.125360398925781,0.231471416503906,0.00890643017578441,0.263388630687871,0.818332999999939,
0.0655053574218748,0.30569166796875,0.102280294921879,0.328937085847417,0.821318999999903,
-0.0302627089843752,0.315268474609375,0.123828109863284,0.3400638813957,0.824412999999936,
-0.0302627089843752,0.243442424804687,-0.0868616362304646,0.26024025360903,0.827354999999898,
-0.0589931289062502,0.0327526787109375,-0.259244155761715,0.267881428093655,0.830290999999988,
-0.157155396972656,0.145280156738281,0.0687614716796912,0.2247938671919,0.83332299999995,
-0.3846045546875,0.231471416503906,0.013694833496098,0.449096012684572,0.836296999999945,
-0.408546571289063,0.181193181640625,-0.0677080229492155,0.452023944450726,0.839330999999902,
-0.339114723144532,0.162039568359375,-0.022218191406246,0.376496036097127,0.842315999999983,
-0.351085731445313,0.102184526855469,-0.163476089355465,0.400533769043413,0.845326,
-0.434882789550782,0.207529399902344,-0.127563064453122,0.498461460781039,0.848368999999934,
-0.296019093261719,0.22907721484375,-0.0126413847656224,0.374517661192169,0.851354999999899,
-0.133213380371094,0.0782425102539062,-0.09643844287109,0.182121026749046,0.854398999999944,
-0.0613873305664064,0.104578728515625,0.0184832368164098,0.122665173766744,0.857361999999966,
-0.121242372070313,0.217106206542969,-0.0102471831054647,0.248877123228133,0.860360999999898,
-0.0973003554687503,0.272172844726562,-0.00306457812499694,0.289058485812091,0.863357999999948,
0.0702937607421873,0.145280156738281,-0.0365834013671833,0.165486803089467,0.866370999999958,
0.0487459458007811,0.0303584770507812,-0.158687686035153,0.168758958458645,0.869434999999953,
-0.00153228906250025,0.193164189941406,0.166923739746098,0.25530038596977,0.872387000000003,
-0.0494163222656252,0.272172844726562,-0.10362104785156,0.295393554213129,0.875404000000003,
-0.0518105239257815,0.238654021484375,0.073549875000003,0.255048341442646,0.878378999999995,
-0.111665565429688,0.116549736816406,-0.038977603027341,0.166049068628711,0.881280999999944,
-0.126030775390625,0.197952593261719,-0.0796790312499969,0.24782601466662,0.884351999999922,
-0.370239344726563,0.264990239746094,-0.113197854492183,0.469159625080718,0.887310999999954,
-0.343903126464844,0.147674358398437,0.00411802685547258,0.374291376691832,0.890366999999969,
-0.300807496582031,0.104578728515625,-0.0724964262695273,0.326615358303535,0.893284999999992,
-0.243346656738281,0.0566946953124999,-0.127563064453122,0.280542722655477,0.896220999999969,
-0.171520606933594,0.0423294853515625,-1.09242633349609,1.10661935553681,0.899258999999915,
-0.875415895019531,0.686369731933594,0.073549875000003,1.11483899388206,0.9022369999999,
-0.324749513183594,0.415824944335938,0.746320541503909,0.913984125308342,0.905247999999915,
-0.884992701660157,0.705523345214844,1.68963599560547,2.03367772035802,0.908240999999975,
-0.0853293471679689,-0.146812445800781,-0.694988857910152,0.715433088659853,0.911227999999937,
0.417453001464844,-0.501154291503906,-1.46831599414062,1.60666564380208,0.914305999999897,
0.259435691894531,-1.02069605175781,-1.35339431445312,1.71487710308839,0.917271999999912,
0.901081736816406,-0.462847064941406,0.729561129882816,1.2483729988208,0.920354999999972,
0.618565940917969,-0.0678037910156251,1.35684196484375,1.49272947813758,0.923268000000007,
0.4581544296875,0.2865380546875,1.07432616894532,1.20257484403554,0.926298999999972,
-0.463613209472657,1.08859561083984,0.482958358886723,1.27797746003436,0.92934600000001,
-0.5378334609375,0.827627629882812,-0.457962893554685,1.08810033421667,0.932335999999964,
-0.540227662597657,0.432584355957031,-1.2887508696289,1.46282396631438,0.935400999999956,
-0.315172706542969,0.200346794921875,-1.01102347705078,1.07779457427329,0.938416999999959,
-0.662331947265625,0.276961248046875,-0.201783315917965,0.745726255318402,0.941404999999918,
-0.434882789550782,0.233865618164062,1.14136381542969,1.24359459920786,0.944476000000009,
-0.695850770507813,0.315268474609375,1.04080734570313,1.29107801343235,0.947431999999935,
-0.588111695800781,0.0471178886718749,0.0400310517578166,0.591352642063433,0.950579999999945,
-0.552198670898438,0.157251165039062,-0.565701968261715,0.806021102666253,0.953536999999983,
-0.339114723144532,-0.0701979926757813,-1.03257129199218,1.08909596761512,0.95652999999993,
-0.0422337172851565,-0.0725921943359376,-0.481904910156247,0.489168330932134,0.959475999999995,
0.115783592285156,-0.0893516059570313,0.238749789550784,0.279983949075835,0.96244999999999,
0.276195103515625,0.00402225878906243,0.715195919921879,0.766684496807308,0.965553999999997,
0.197186448730469,0.145280156738281,0.473381552246098,0.532990537919538,0.968500999999947,
0.300137120117187,0.0543004936523437,-0.0317949980468715,0.306662283927984,0.971499999999992,
0.213945860351562,0.171616375,-0.395713650390622,0.481470979847366,0.974475999999981,
0.0894473740234373,0.0710599052734375,-0.62076860644531,0.631192526575854,0.977426999999921,
0.0271981308593748,0.262596038085937,-0.108409451171871,0.285392758569767,0.980508999999984,
-0.0350511123046877,0.284143853027344,0.21001936962891,0.355069634447027,0.983564000000001,
-0.252923463378906,0.358364104492187,0.463804745605472,0.638365061514354,0.986611999999923,
-0.413334974609375,0.308085869628906,0.257903402832035,0.576434618575841,0.989623999999935,
-0.523468250976563,0.315268474609375,-0.244878945800778,0.658315212462453,0.992567000000008,
-0.554592872558594,0.233865618164062,-0.472328103515622,0.765088373341744,0.995631000000003,
-0.463613209472657,0.11415553515625,-0.383742642089841,0.612557841809603,0.998585999999932,
-0.473190016113282,0.185981584960938,0.0424252534179725,0.510193927268298,1.00163299999997,
-0.396575562988281,0.214712004882812,0.277057016113284,0.529276876859235,1.00461399999995,
-0.274471278320313,0.138097551757812,0.178894748046879,0.355540078335825,1.00757999999996,
-0.193068421875,0.0997903251953124,-0.077284829589841,0.230665275697535,1.0106199999999,
-0.018291700683594,0.066271501953125,-0.240090542480466,0.249739798337361,1.013553,
-0.0111090957031252,0.166827971679687,-0.122774661132809,0.207433366550263,1.01663199999996,
0.20915745703125,-0.240186310546875,-0.369377432128903,0.487725325333883,1.01956099999995,
0.204369053710937,0.0519062919921874,0.0998860932617216,0.233319962476792,1.02254999999991,
0.13254300390625,0.169222173339844,0.198048361328128,0.292278882677331,1.02563099999998,
-0.00153228906250025,0.513987212402344,0.377613485839847,0.637790833354497,1.02859599999999,
