X,Y,Z,Magnitude,Seconds,
-0.0518105239257815,0.00641646044921873,-0.09643844287109,0.109662548837608,0.0,
0.000861912597656,0.027964275390625,-0.0365834013671833,0.0460552803383189,0.00383799999985968,
-0.0422337172851565,-0.00555454785156256,-0.0317949980468715,0.0531550729315498,0.00769999999988613,
-0.018291700683594,0.027964275390625,-0.0892558378906223,0.0953057795182325,0.0115509999998267,
-0.00871489404296899,-0.00316034619140632,-0.0533428129882783,0.0541423389200369,0.015322999999853,
-0.0709641372070314,-0.0318907661132813,-0.0413718046874969,0.0881167178004877,0.0190529999999853,
-0.0518105239257815,0.0303584770507812,-0.0916500395507782,0.109570512766738,0.0229659999999967,
-0.0302627089843752,0.0566946953124999,-0.0892558378906223,0.109985110943287,0.0268519999999626,
-0.0398395156250002,0.01838746875,-0.0868616362304646,0.0973151060262508,0.0307799999998224,
-0.0398395156250002,-0.00794874951171881,-0.108409451171871,0.115771234455805,0.0347179999998843,
-0.0542047255859377,-0.00316034619140632,-0.0294007963867156,0.0617458248958539,0.0387739999998757,
-0.0206859023437502,0.027964275390625,-0.00306457812499694,0.0349184606330533,0.0426559999998517,
-0.0589931289062502,0.0447236870117187,-0.0294007963867156,0.0796542796480185,0.0466189999999642,
-0.0254743056640627,0.0112048637695312,-0.0317949980468715,0.0422541255022561,0.0505349999998543,
-0.0206859023437502,0.00162805712890618,-0.0437660063476528,0.0484357351282392,0.0543259999999464,
-0.0613873305664064,0.0135990654296875,-0.0365834013671833,0.0727439632562222,0.0582569999999123,
-0.00153228906250025,0.0327526787109375,-0.0198239897460901,0.0383154856678868,0.0621699999999237,
-0.0637815322265627,0.0351468803710937,0.00651222851562849,0.0731149517761435,0.0660499999999047,
-0.037445313964844,0.00402225878906243,-0.139534072753904,0.144527117050689,0.069966999999906,
-0.0326569106445315,0.0159932670898437,-0.0701022246093714,0.0789720222625377,0.0738859999999022,
0.0224097275390623,0.0207816704101562,-0.0413718046874969,0.0514363678394165,0.0778609999999844,
-0.0589931289062502,0.0207816704101562,-0.108409451171871,0.125158604125215,0.0818229999999858,
-0.0206859023437502,0.0231758720703125,-0.0294007963867156,0.0427718883166007,0.0857059999998455,
-0.0398395156250002,-0.000766144531250068,-0.0916500395507782,0.0999374991298892,0.0895160000000033,
-0.0446279189453127,0.0207816704101562,-0.0317949980468715,0.0586041882055056,0.0933909999998832,
0.0104387192382811,0.0159932670898437,-0.10362104785156,0.105366375136463,0.0973159999998643,
-0.0398395156250002,0.01838746875,-0.120380459472653,0.128127830837464,0.101132999999891,
-0.00153228906250025,0.00641646044921873,-0.0509486113281223,0.0513739220882689,0.104968999999983,
-0.00871489404296899,0.0207816704101562,-0.00545877978515286,0.0231867522512173,0.10901100000001,
0.0152271225585936,0.0255700737304687,-0.10362104785156,0.107810089925995,0.11292299999991,
-0.00392649072265649,0.0135990654296875,-0.098832644531246,0.0998410914152868,0.116857999999866,
-0.0470221206054689,-0.0247081611328125,-0.0461602080078087,0.0703728488561069,0.120639999999867,
-0.0326569106445315,0.0159932670898437,-0.0629196196289037,0.0726714313833016,0.124499000000014,
-0.0589931289062502,0.03754108203125,-0.0270065947265596,0.0749591772697055,0.704414999999926,
-0.0135032973632815,0.03754108203125,-0.0677080229492155,0.0785878378087204,0.708677999999964,
0.0200155258789061,0.027964275390625,-0.038977603027341,0.0519795682176069,0.712431999999808,
-0.0230801040039065,-0.000766144531250068,-0.108409451171871,0.110841721755214,0.716109999999844,
-0.0470221206054689,0.0135990654296875,-0.0485544096679646,0.0689459578583163,0.71985699999982,
0.000861912597656,0.0255700737304687,-0.077284829589841,0.0814095599339436,0.723579999999856,
-0.0446279189453127,0.00881066210937498,-0.0820732329101528,0.0938365306078563,0.727246999999807,
-0.0206859023437502,-0.00316034619140632,-0.060525417968746,0.0640407726695744,0.730939999999919,
-0.0230801040039065,0.0327526787109375,-0.0557370146484342,0.0686443294489268,0.734608999999864,
-0.0326569106445315,0.0231758720703125,-0.0461602080078087,0.0611094073149836,0.7382419999999,
-0.027868507324219,-0.000766144531250068,-0.0533428129882783,0.0601888392928892,0.741857999999866,
-0.0254743056640627,0.0495120903320312,-0.0485544096679646,0.0738777235458555,0.745497999999998,
0.0176213242187498,0.0303584770507812,-0.060525417968746,0.0699676669352102,0.749263999999812,
-0.0542047255859377,0.0351468803710937,-0.0485544096679646,0.0808145170985468,0.753232999999909,
0.0176213242187498,-0.00555454785156256,-0.0868616362304646,0.0888048867894732,0.757011999999804,
-0.0206859023437502,0.00641646044921873,-0.0341891997070274,0.0404719519800881,0.760741999999937,
-0.0135032973632815,0.0231758720703125,-0.10362104785156,0.107036356644627,0.764480999999932,
-0.0302627089843752,0.0519062919921874,-0.0653138212890596,0.0887467743347916,0.768219999999928,
-0.0661757338867189,0.0231758720703125,-0.0844674345703087,0.109777485417342,0.771955999999818,
-0.027868507324219,0.00641646044921873,-0.0677080229492155,0.0734996669167142,0.775687999999946,
-0.0446279189453127,0.0303584770507812,-0.0844674345703087,0.100239891166749,0.779411999999866,
-0.0422337172851565,-0.000766144531250068,-0.0413718046874969,0.0591261369976568,0.783080999999811,
-0.0135032973632815,0.01838746875,-0.077284829589841,0.0805815297164567,0.786746999999878,
-0.0661757338867189,0.00402225878906243,-0.060525417968746,0.0897704435853106,0.790374999999813,
-0.0685699355468752,0.00162805712890618,-0.0581312163085901,0.08990953753876,0.794011999999839,
-0.0398395156250002,-0.0175255561523438,-0.0820732329101528,0.0928996646065409,0.797627999999804,
0.0056503159179685,0.01838746875,-0.0485544096679646,0.0522260066940754,0.801506000000018,
-0.00871489404296899,0.0231758720703125,-0.0126413847656224,0.027800630086244,0.805406999999832,
-0.0494163222656252,0.0231758720703125,-0.0916500395507782,0.10667156932444,0.809203000000025,
-0.0302627089843752,0.0159932670898437,-0.0365834013671833,0.0500995149963799,0.812940000000026,
-0.0470221206054689,0.027964275390625,-0.125168862792965,0.136602799155954,0.816663999999946,
-0.0589931289062502,0.0112048637695312,-0.0533428129882783,0.0803193247465741,0.820392999999967,
-0.0589931289062502,0.0399352836914062,-0.060525417968746,0.0934791012042475,0.824236999999812,
-0.0326569106445315,0.0471178886718749,-0.060525417968746,0.083366033047228,0.828043999999863,
-0.0206859023437502,0.00641646044921873,-0.0677080229492155,0.0710876493644505,0.83179599999994,
-0.0302627089843752,0.0207816704101562,-0.00545877978515286,0.0371147902708899,0.835503000000017,
-0.00632069238281274,0.01838746875,-0.000670376464841027,0.0194550652487979,0.839260999999851,
-0.00632069238281274,-0.0318907661132813,-0.0677080229492155,0.0751089108374077,0.842921999999817,
-0.00871489404296899,0.0255700737304687,-0.0437660063476528,0.0514319099429972,0.84667300000001,
-0.0254743056640627,0.03754108203125,-0.0820732329101528,0.0937778686549621,0.85042599999997,
-0.0206859023437502,0.0255700737304687,-0.0485544096679646,0.0586452549193992,0.854147999999896,
-0.0398395156250002,0.0686657036132812,-0.0246123930664037,0.0831139925066578,0.857843000000003,
-0.0901177504882814,0.123732341796875,0.190865756347661,0.244664338034319,0.861521999999923,
0.0511401474609373,-0.340742780273438,-0.170658694335934,0.384506627957496,0.865183999999999,
0.0535343491210936,-0.319194965332031,-0.0916500395507782,0.336379372403831,0.868860999999924,
0.0655053574218748,-0.194696479003906,-0.185023904296871,0.27646250369398,0.87271799999985,
-0.027868507324219,-0.0965342109375001,-0.417261465332027,0.429188347969555,0.876635999999962,
-0.0853293471679689,0.291326458007813,-0.101226846191404,0.319998557830106,0.880441000000019,
-0.0135032973632815,0.588207463867187,0.27945121777344,0.651355005126857,0.883437999999842,
-0.0565989272460939,0.581024858886719,0.138193319824222,0.599908925466007,0.886344999999892,
-0.176309010253906,0.719888555175781,0.260297604492191,0.785543914669421,0.889342999999826,
-0.133213380371094,0.303297466308594,-0.359800625488278,0.489072231762203,0.892264999999952,
-0.114059767089844,0.336816289550781,0.178894748046879,0.398068052290185,0.895266999999876,
-0.0398395156250002,-0.376655805175781,-0.333464407226559,0.504633821166211,0.898228999999901,
0.0415633408203123,-0.261734125488281,-0.0581312163085901,0.27131439706506,0.901157999999896,
-0.0925119521484377,-0.175542865722656,-0.0629196196289037,0.208164928675998,0.904158999999936,
-0.233769850097656,-0.175542865722656,0.052002060058598,0.296930723858514,0.90707899999984,
0.106206785644531,-0.532278913085938,-0.0365834013671833,0.544002819743136,0.910098999999946,
0.307319725097656,-0.649594794433594,-0.230513735839841,0.754688937775135,0.913024999999834,
0.233099473632812,-0.395809418457031,-0.115592056152341,0.473668643455225,0.915964999999915,
-0.0901177504882814,0.0566946953124999,-0.108409451171871,0.151947709864386,0.918965999999955,
-0.195462623535156,0.128520745117187,-0.10362104785156,0.255852576071805,0.92187899999999,
0.154090818847656,-0.0654095893554688,0.0113006318359403,0.167779912721052,0.924894999999879,
0.266618296875,0.0566946953124999,0.198048361328128,0.336931384898854,0.927841999999828,
0.0319865341796873,0.1333091484375,-0.182629702636715,0.228359531684436,0.930760999999848,
-0.286442286621094,0.621726287109375,0.0113006318359403,0.684631626444047,0.933774999999969,
-0.260106068359375,0.399065532714844,-0.14192827441406,0.497043359553778,0.936680000000024,
-0.0422337172851565,0.07584830859375,-0.14192827441406,0.166373939877638,0.939683999999943,
0.0176213242187498,0.2099236015625,0.281845419433598,0.351873940518326,0.942617999999811,
-0.190674220214844,0.140491753417969,0.0113006318359403,0.237112410710375,0.945596999999907,
-0.255317665039063,0.195558391601563,-0.0317949980468715,0.323173508362907,0.948521999999912,
-0.0470221206054689,-0.1348414375,-0.247273147460934,0.285547373562669,0.951393999999937,
0.0367749374999998,-0.2497631171875,-0.158687686035153,0.298187512204212,0.954385999999886,
0.0319865341796873,-0.237792108886719,-0.0198239897460901,0.240751357186361,0.957310000000007,
-0.145184388671875,-0.106111017578125,-0.000670376464841027,0.179829097117502,0.96026599999982,
0.103812583984375,-0.247368915527344,-0.022218191406246,0.269187817317299,0.963186999999834,
0.163667625488281,-0.218638495605469,-0.038977603027341,0.275878844660753,0.966095999999879,
0.278589305175781,-0.309618158691406,-0.309522390624997,0.51892149256703,0.96908899999994,
0.0655053574218748,0.2099236015625,0.24114399121094,0.326357618022133,0.972035999999889,
-0.0398395156250002,0.154856963378906,0.119039706542972,0.199344721139055,0.975044000000025,
-0.0111090957031252,0.03754108203125,-0.182629702636715,0.186778888348211,0.977956999999833,
0.118177793945312,0.0447236870117187,0.0160890351562539,0.127377612687482,0.980885999999828,
0.0583227524414061,0.188375786621094,-0.000670376464841027,0.197198960043054,0.983897999999954,
-0.255317665039063,0.348787297851562,-0.0341891997070274,0.433599574031387,0.986817999999857,
-0.279259681640625,0.233865618164062,-0.168264492675778,0.401238129599767,0.989816999999903,
-0.0446279189453127,0.0519062919921874,-0.14192827441406,0.15757394891263,0.992733999999928,
-0.0494163222656252,0.0638773002929687,-0.0365834013671833,0.0886601807722647,0.995636999999988,
-0.147578590332031,0.121338140136719,-0.00785298144530877,0.191217294965199,0.998695999999882,
-0.185885816894531,0.0950019218749999,0.00172382519531666,0.208762720943647,1.00171599999999,
-0.0158974990234377,-0.165966059082031,-0.225725332519527,0.280623215332359,1.00478299999986,
0.101418382324219,-0.180331269042969,-0.115592056152341,0.236994890901544,1.00776799999994,
0.0200155258789061,-0.0917458076171875,0.0472136567382844,0.105104918410794,1.01068799999985,
0.0798705673828123,-0.0989284125976563,-0.0724964262695273,0.146362120014017,1.0136759999998,
0.106206785644531,-0.0965342109375001,-0.149110879394527,0.20696084062469,1.01658999999995,
0.163667625488281,-0.113293622558594,-0.060525417968746,0.208052548087527,1.01961299999994,
0.0798705673828123,0.0303584770507812,-0.00306457812499694,0.0855005046884483,1.02255599999989,
-0.00632069238281274,0.0926077202148437,-0.0150355864257783,0.0940330253408661,1.02547099999992,
0.0200155258789061,0.0830309135742187,0.0927034882812539,0.126050349561955,1.02849700000002,
-0.037445313964844,-0.0247081611328125,-0.295157180664059,0.298547158857771,1.03138199999989,
-0.226587245117188,0.171616375,0.430285922363284,0.515693644329615,1.03440699999987,
-0.257711866699219,0.0566946953124999,-0.299945583984371,0.39949599255299,1.0373219999999,
-0.205039430175782,0.238654021484375,-0.0198239897460901,0.315261638114958,1.04033499999991,
-0.0542047255859377,0.07584830859375,0.0400310517578166,0.101457396463819,1.04327699999999,
-0.128424977050781,0.166827971679687,0.142981723144535,0.254496208259834,1.0461879999998,
-0.0613873305664064,0.221894609863281,0.296210629394535,0.375161777379777,1.04920399999992,
-0.0996945571289065,-0.00794874951171881,-0.161081887695309,0.189603696913886,1.05210199999988,
0.0463517441406248,0.0399352836914062,0.111857101562503,0.127496361667128,1.05510099999992,
-0.018291700683594,-0.137235639160156,-0.283186172363278,0.315218361120286,1.05799699999989,
0.0607169541015623,0.0231758720703125,-0.0629196196289037,0.0904574380348937,1.06092399999989,
0.0487459458007811,-0.108505219238281,-0.022218191406246,0.121009081739036,1.06392099999994,
0.087053172363281,-0.106111017578125,0.0328484467773471,0.141126975896391,1.06684099999984,
0.0750821640624998,-0.0941400092773438,-0.149110879394527,0.191660447304225,1.06985099999997,
0.0750821640624998,-0.103716815917969,-0.10362104785156,0.164717427196776,1.07277199999999,
-0.0135032973632815,0.0255700737304687,-0.0916500395507782,0.0961035767280387,1.07567599999993,
-0.018291700683594,0.0112048637695312,-0.0940442412109341,0.096459600822999,1.07867599999986,
-0.0230801040039065,0.0255700737304687,-0.0126413847656224,0.0366922945617367,1.081594,
-0.0494163222656252,0.066271501953125,-0.0701022246093714,0.108389145086424,1.08459399999992,
-0.0805409438476564,0.138097551757812,0.0208774384765658,0.161225447354677,1.08753699999988,
0.00325611425781225,0.126126543457031,0.238749789550784,0.27003697756978,1.090461,
-0.0901177504882814,-0.0845632026367188,-0.323887600585934,0.346663124670854,1.09343100000001,
0.0343807358398436,0.106972930175781,0.0831266816406284,0.139768694591686,1.09637499999985,
-0.188280018554688,0.0207816704101562,-0.292762979003903,0.3486995914641,1.09936099999982,
-0.037445313964844,0.0734541069335937,0.0831266816406284,0.117079898205969,1.10229600000002,
-0.0135032973632815,0.0159932670898437,-0.0581312163085901,0.0617848034827689,1.10519499999987,
0.0487459458007811,0.0207816704101562,0.00172382519531666,0.0530190214013146,1.10821499999997,
-0.0709641372070314,0.0135990654296875,-0.120380459472653,0.140400492780283,1.11112600000001,
0.0224097275390623,0.07584830859375,-0.0461602080078087,0.0915747050676763,1.11413799999991,
-0.0230801040039065,0.0303584770507812,-0.09643844287109,0.103704877383248,1.11706099999992,
0.0511401474609373,-0.0199197578125001,-0.0437660063476528,0.0701966861415684,1.11996899999986,
0.0152271225585936,-0.0318907661132813,-0.0317949980468715,0.0475374391980363,1.12296599999991,
0.338444346679687,-0.88183235546875,-2.29192136523437,2.47892646590591,1.12590099999989,
-0.197856825195313,-1.40376831738281,3.49007564404297,3.76700687725761,1.12892099999999,
-0.782042030273438,2.95367870410156,9.07814231884766,9.57854245621066,1.13184899999987,
1.42062349707031,-0.884226557128906,-3.79069160449218,4.14359391894619,1.13484999999991,
-0.645572535644532,-0.211455890625,-6.23995990283203,6.27682858467634,1.13784999999984,
-1.21060412744141,-1.14040613476563,-8.08349518115234,8.25281666155879,1.14083699999992,
-0.841897071777344,1.36871720507813,-4.59753756396484,4.87026992260305,1.14396999999985,
-1.54818656152344,-1.47798856884766,0.830117599609379,2.29574107166016,1.14691599999992,
1.41104669042969,0.0566946953124999,9.2810509095459,9.38787372287421,1.14991399999985,
1.03515702978516,-0.194696479003906,6.09975545361328,6.1900301605998,1.15285199999994,
1.29133660742187,0.751013176757812,1.47894624951172,2.1021068084844,1.15578499999992,
-0.0709641372070314,-0.0582269843750001,-5.70844713427734,5.70918514109659,1.158817,
0.0391691391601561,0.377517717773437,-5.24157781054687,5.25530130370398,1.16173800000001,
0.316896531738281,0.03754108203125,-3.34058169238281,3.3557888473727,1.16476599999987,
0.355203758300781,0.667216118652344,0.772656759765628,1.08090033181234,1.16772399999991,
0.587441319335937,0.530746624023438,5.22108344433594,5.28076619585589,1.17063699999994,
0.314502330078125,0.351181499511719,4.48845773632813,4.51314668629635,1.173675,
-0.121242372070313,0.00881066210937498,-0.151505081054685,0.194245026030085,1.17659099999992,
-0.509103041015625,0.109367131835937,-3.23284261767578,3.27451041631541,1.17962699999998,
-0.6910623671875,-0.103716815917969,-3.97743933398437,4.03835957150586,1.18252899999993,
-0.71021598046875,0.308085869628906,-0.900890200683591,1.18782439597186,1.18543799999998,
-0.425305982910156,-0.673536811035156,1.02404793408203,1.29738629028376,1.18843399999992,
-0.377421949707032,-0.237792108886719,3.24347287304688,3.27400499287347,1.19134699999995,
-0.0661757338867189,-0.568191937988281,2.16608212597657,2.24034217980769,1.19435499999986,
-0.284048084960938,-0.158783454101563,-0.168264492675778,0.36634470019619,1.19724699999983,
-0.401363966308594,0.0447236870117187,-2.1865764921875,2.22355795917666,1.20016099999998,
-0.152366993652344,0.202740996582031,-1.95912733447265,1.97547450632187,1.20315599999981,
0.211551658691406,-0.0558327827148438,-0.637528018066403,0.674027727723752,1.20607499999983,
0.405481993164062,0.0159932670898437,1.4143028046875,1.47136802150905,1.2091019999998,
0.891504930175781,-0.0941400092773438,2.12298649609375,2.30449887057271,1.21203199999991,
0.388722581542969,0.0471178886718749,0.540419198730472,0.66736665423949,1.21496999999999,
0.558710899414062,-0.0151313544921876,-0.826669949218747,0.997882774655503,1.21795099999986,
-0.0470221206054689,0.185981584960938,-1.59281448046875,1.60432484209456,1.22086999999988,
-0.149972791992188,0.250625029785156,-1.01102347705078,1.05236553299725,1.22387099999992,
-0.217010438476563,0.284143853027344,0.657735080078128,0.748629878635896,1.22681499999999,
-0.0733583388671877,0.0255700737304687,1.3161405366211,1.31843133559894,1.22979899999996,
-0.102088758789063,-0.0534385810546876,0.760685751464846,0.769363769031183,1.23272699999984,
-0.499526234375,0.0351468803710937,-0.558519363281247,0.750137081598275,1.2356319999999,
-0.240952455078125,-0.0534385810546876,-1.12115675341797,1.14800097268601,1.238609,
-0.296019093261719,0.00641646044921873,-0.76681490771484,0.821993660093498,1.24152600000002,
-0.0494163222656252,-0.297647150390625,-0.106015249511715,0.319804678156763,1.24448199999983,
-0.336720521484375,0.0519062919921874,0.648158273437504,0.732245942400895,1.2474259999999,
-0.178703211914063,-0.103716815917969,0.679282895019535,0.71001215997945,1.25032199999987,
0.0128329208984373,0.0495120903320312,0.468593148925784,0.471376357243355,1.25334299999986,
0.338444346679687,-0.1731486640625,-0.486693313476559,0.617572195819129,1.25623499999983,
0.13254300390625,-0.0965342109375001,-1.00623507373047,1.01950749157187,1.25923599999987,
0.0846589707031248,0.188375786621094,-0.350223818847653,0.406582465920337,1.26216799999997,
0.206763255371094,0.0782425102539062,0.119039706542972,0.251084419899606,1.26510199999984,
0.429424009765625,0.0255700737304687,0.696042306640628,0.818250390447432,1.26811299999986,
0.257041490234375,-0.0510443793945313,0.260297604492191,0.36936526538652,1.27103599999987,
-0.0206859023437502,0.15246276171875,-0.261638357421871,0.303525007768879,1.27407799999992,
-0.123636573730469,0.0902135185546875,-0.589643984863278,0.609183478255338,1.27709299999992,
-0.0661757338867189,0.0135990654296875,-0.429232473632808,0.434516603545764,1.28008199999999,
-0.145184388671875,-0.0103429511718751,0.052002060058598,0.154562924413677,1.28316399999994,
-0.21222203515625,0.0351468803710937,0.403949704101565,0.457655830127207,1.28609399999982,
-0.25052926171875,0.0519062919921874,0.188471554687503,0.317774607311605,1.28910199999996,
-0.224193043457031,-0.0318907661132813,-0.17305289599609,0.28500323947361,1.29199699999981,
-0.164338001953125,-0.0103429511718751,-0.366983230468747,0.402232080980828,1.29490499999997,
-0.142790187011719,-0.0127371528320313,-0.347829617187497,0.376213656267165,1.29789399999981,
-0.0877235488281252,0.0399352836914062,0.0711556733398471,0.119805583137684,1.3008339999999,
0.0319865341796873,-0.0223139594726563,0.198048361328128,0.201851937273172,1.30383799999981,
0.149302415527344,0.027964275390625,0.159741134765628,0.220432398064878,1.30678899999998,
0.158879222167969,0.0135990654296875,-0.0748906279296833,0.176170792042727,1.30970400000001,
0.0990241806640623,0.0207816704101562,-0.383742642089841,0.396857759832559,1.31272999999987,
0.122966197265625,0.0734541069335937,-0.228119534179685,0.269359821372336,1.31569399999989,
0.120571995605469,0.0686657036132812,-0.0294007963867156,0.141834381604621,1.31873699999983,
0.144514012207031,0.00162805712890618,0.217201974609379,0.260890107264347,1.3216809999999,
0.0487459458007811,-0.0438617744140625,0.111857101562503,0.129661226497079,1.32467499999984,
-0.0925119521484377,0.0495120903320312,-0.120380459472653,0.159691463147562,1.32760899999994,
-0.169126405273438,0.027964275390625,-0.285580374023434,0.33307940747846,1.33052099999986,
-0.183491615234375,0.0710599052734375,-0.259244155761715,0.325463078236832,1.33351099999982,
-0.0829351455078127,-0.0845632026367188,-0.0533428129882783,0.129902383727487,1.3364059999999,
-0.205039430175782,0.027964275390625,0.0208774384765658,0.207988067115098,1.33938499999999,
-0.226587245117188,0.0782425102539062,0.0998860932617216,0.25969386147485,1.34231799999998,
-0.147578590332031,0.0135990654296875,-0.0198239897460901,0.149523795679496,1.34521599999994,
-0.0230801040039065,-0.0271023627929688,-0.129957266113278,0.134744648448205,1.3482019999999,
-0.0135032973632815,-0.00316034619140632,-0.189812307617185,0.190318257008337,1.35108999999989,
-0.018291700683594,0.0614830986328125,-0.0796790312499969,0.102291278965161,1.3541009999999,
0.0271981308593748,0.0830309135742187,0.0400310517578166,0.0961059625416137,1.35704199999986,
0.139725608886719,0.027964275390625,0.0639730683593775,0.156197951177986,1.35997899999984,
0.120571995605469,-0.0199197578125001,-0.0198239897460901,0.123803850687476,1.36297399999989,
0.0559285507812498,0.0255700737304687,-0.09643844287109,0.114377465990784,1.36592699999983,
0.0391691391601561,-0.0342849677734375,-0.189812307617185,0.196820711818483,1.36892199999988,
0.0128329208984373,-0.0414675727539063,-0.0844674345703087,0.0949683681642232,1.37185399999998,
0.0583227524414061,-0.0678037910156251,-0.0509486113281223,0.102930357643876,1.37475499999982,
-0.0781467421875002,-0.0127371528320313,-0.0629196196289037,0.10113370808505,1.37773700000002,
-0.130819178710938,0.0926077202148437,0.0687614716796912,0.174407532376191,1.38066499999991,
-0.128424977050781,0.03754108203125,-0.132351467773434,0.188199943125265,1.38366899999983,
-0.0925119521484377,0.03754108203125,-0.0868616362304646,0.132335701830706,1.38658999999984,
-0.133213380371094,-0.00555454785156256,-0.189812307617185,0.231959845306661,1.38948199999982,
-0.138001783691406,0.102184526855469,-0.0653138212890596,0.18371735106425,1.39248499999985,
-0.0709641372070314,0.085425115234375,-0.0820732329101528,0.138091906506749,1.39540799999986,
0.0128329208984373,0.0782425102539062,0.013694833496098,0.0804619334474633,1.39842699999986,
0.0439575424804686,0.0351468803710937,-0.0653138212890596,0.0862175387732762,1.40135099999998,
0.067899559082031,0.0734541069335937,-0.168264492675778,0.195751872135066,1.40427099999988,
0.0319865341796873,0.0734541069335937,-0.0581312163085901,0.0989842538172421,1.4072799999999,
0.0607169541015623,0.0231758720703125,-0.0581312163085901,0.0871946550604267,1.41021899999987,
0.0894473740234373,-0.0175255561523438,0.0160890351562539,0.0925571979394191,1.41332699999998,
0.110995188964844,-0.0223139594726563,-0.0294007963867156,0.116971157080974,1.41632800000002,
0.0248039291992186,-0.0318907661132813,-0.060525417968746,0.0727707502180873,1.41939499999989,
0.0056503159179685,-0.00555454785156256,-0.0174297880859342,0.0191461898175256,1.4223649999999,
-0.0135032973632815,-0.0654095893554688,-0.10362104785156,0.123280472813773,1.42524099999991,
-0.0805409438476564,-0.0486501777343751,0.00411802685547258,0.0941840834464084,1.42823599999997,
-0.0709641372070314,-0.0271023627929688,-0.0365834013671833,0.0843136530704993,1.43114100000003,
-0.133213380371094,-0.029496564453125,-0.0341891997070274,0.140658285930969,1.43412899999998,
-0.0829351455078127,0.0447236870117187,-0.00306457812499694,0.0942753317650405,1.43705399999999,
-0.00632069238281274,-0.276099335449219,-0.948774233886715,0.988151476786338,1.43996299999981,
0.326473338378906,-0.0654095893554688,0.940250875976567,0.997464267443511,1.442992,
-0.353479933105469,0.241048223144531,2.75026733105469,2.78334739140771,1.44592599999987,
0.309713926757812,1.53391711962891,1.40472599804688,2.10287412269664,1.44897500000002,
-0.805984046875,0.411036541015625,-4.23601311328125,4.33155496533956,1.45190200000002,
-0.521074049316407,-0.742968659179688,-4.07081319873047,4.17073622905506,1.45481899999982,
0.443789219726562,-0.170754462402344,-1.21692481982422,1.30652668364639,1.45782599999984,
-0.00153228906250025,-0.211455890625,0.837300204589848,0.863589934052027,1.46074699999986,
-0.195462623535156,0.68876393359375,5.46289781201172,5.50961467780654,1.46374399999991,
0.527586277832031,-0.38383841015625,4.39508387158203,4.44324672327662,1.46669299999985,
0.336050145019531,0.066271501953125,0.559572812011723,0.656081811881322,1.46960899999999,
0.0631111557617186,-0.410174628417969,-3.46029177539062,3.48508901100322,1.47262599999999,
-0.513891444335938,0.502016204101563,-3.24002522265625,3.31871483095352,1.47553599999992,
-0.398969764648438,0.104578728515625,-1.69576515185546,1.74520286322506,1.47855600000003,
0.156485020507812,0.0135990654296875,2.1588995209961,2.16460611612854,1.48150099999998,
0.43900081640625,-0.0797747993164063,3.12136858837891,3.15309809551334,1.48441600000001,
0.158879222167969,0.0447236870117187,1.34247675488282,1.35258517396034,1.48743399999989,
-0.197856825195313,0.0351468803710937,-1.44437397753906,1.458286259096,1.49034499999993,
-0.305595899902344,-0.0342849677734375,-2.43078506152343,2.45015924551402,1.49331799999982,
-0.0637815322265627,-0.175542865722656,-1.63112170703125,1.64177995014795,1.49620399999981,
0.118177793945312,-0.254551520507813,0.396767099121098,0.485990327598802,1.49911899999984,
0.0343807358398436,-0.0749863959960938,1.97454599316407,1.97626842147053,1.50213099999996,
0.0463517441406248,-0.0510443793945313,1.48852305615235,1.49011908972061,1.50505699999985,
0.0176213242187498,-0.0558327827148438,-0.460357095214841,0.46406515254601,1.50807299999997,
-0.094906153808594,0.00162805712890618,-1.60239128710937,1.60520019486816,1.51099699999986,
-0.152366993652344,0.147674358398437,-1.24326103808593,1.26123805275038,1.51398199999994,
-0.0326569106445315,0.207529399902344,-0.0246123930664037,0.211519964847593,1.51691299999993,
0.115783592285156,0.166827971679687,1.21079566357422,1.22770662265354,1.51984999999991,
0.103812583984375,0.123732341796875,1.08869137890625,1.10060695232442,1.52286499999991,
-0.123636573730469,0.315268474609375,0.212413571289066,0.399749595014312,1.52578699999981,
0.0367749374999998,-0.156389252441406,-0.886524990722654,0.900964235407329,1.52875499999982,
-0.166732203613281,0.111761333496094,-1.03257129199218,1.05190004108422,1.53168399999981,
0.0631111557617186,-0.146812445800781,-0.721325076171871,0.738814440666899,1.53458999999998,
-0.13560758203125,0.0543004936523437,0.540419198730472,0.559813245888069,1.53761299999996,
-0.0254743056640627,-0.149206647460938,0.813358187988285,0.827322854672337,1.54050699999993,
0.0319865341796873,-0.0103429511718751,0.470987350585942,0.472185556132054,1.54352699999981,
0.118177793945312,-0.11568782421875,-0.256849954101559,0.305485781299592,1.54644499999995,
-0.188280018554688,0.0207816704101562,-0.96553364550781,0.98393925819615,1.54934800000001,
-0.257711866699219,0.257807634765625,-0.505846926757808,0.623507254241169,1.55236100000002,
-0.133213380371094,0.138097551757812,0.13340491650391,0.233695550361599,1.55532299999982,
0.122966197265625,-0.0127371528320313,0.741532138183597,0.751766474838678,1.55831899999998,
0.166061827148437,0.0231758720703125,0.430285922363284,0.461800418434327,1.56125599999996,
-0.0973003554687503,0.138097551757812,-0.204177517578122,0.265003304998657,1.56415599999991,
-0.130819178710938,0.0423294853515625,-0.678229446289059,0.692026462400316,1.5671719999998,
0.0463517441406248,0.00881066210937498,-0.355012222167966,0.358133759704836,1.57011399999988,
0.19000384375,-0.0989284125976563,0.114251303222659,0.242779018341665,1.57314799999995,
0.0487459458007811,-0.00555454785156256,0.439862729003909,0.44259037563035,1.57610099999988,
-0.0254743056640627,0.0519062919921874,0.255509201171879,0.261969760241399,1.57902399999989,
0.0224097275390623,-0.0366791694335938,-0.187418105957027,0.19228391456186,1.58201899999995,
-0.0470221206054689,0.03754108203125,-0.390925247070308,0.395528711300828,1.58495499999981,
