X,Y,Z,Magnitude,Seconds,
0.173244432128906,0.01838746875,-0.0198239897460901,0.175341731599048,0.0,
0.1516966171875,0.01838746875,-0.0461602080078087,0.15962683820864,0.00383299999998599,
0.161273423828125,0.0303584770507812,-0.0533428129882783,0.17255784554633,0.00763699999998835,
0.125360398925781,0.0495120903320312,-0.0317949980468715,0.138483206955496,0.0113989999999831,
0.206763255371094,0.0255700737304687,0.0424252534179725,0.212614144801828,0.0151720000000068,
0.137331407226562,0.0686657036132812,-0.00306457812499694,0.15357176141016,0.0189019999999687,
0.158879222167969,0.0471178886718749,-0.0102471831054647,0.166035259602263,0.0227380000000039,
0.166061827148437,0.0303584770507812,0.013694833496098,0.169368580407365,0.0265139999999633,
0.154090818847656,0.0207816704101562,-0.0461602080078087,0.162193165951903,0.030228999999963,
0.182821238769531,0.0447236870117187,-0.0198239897460901,0.189253280274349,0.0339609999999766,
0.161273423828125,-0.00316034619140632,0.0184832368164098,0.162359893645281,0.0377829999999904,
0.1516966171875,0.0112048637695312,-0.0102471831054647,0.15245464046667,0.0417909999999893,
0.1516966171875,0.0159932670898437,0.013694833496098,0.153150895272681,0.0456140000000005,
0.182821238769531,0.00402225878906243,-0.0509486113281223,0.189830305555399,0.0495109999999954,
0.110995188964844,0.03754108203125,-0.0365834013671833,0.122750193763639,0.0533619999999928,
0.122966197265625,0.0135990654296875,-0.038977603027341,0.129710731199413,0.057218999999975,
0.173244432128906,0.0351468803710937,-0.0198239897460901,0.177881778248758,0.0610810000000015,
0.154090818847656,0.0423294853515625,-0.00306457812499694,0.159828525058431,0.0648929999999837,
0.154090818847656,0.0207816704101562,0.00651222851562849,0.155622194427457,0.0687069999999608,
0.161273423828125,0.00641646044921873,0.00890643017578441,0.16164656722745,0.0726009999999633,
0.17085023046875,0.03754108203125,-0.0820732329101528,0.193223056728813,0.0764110000000073,
0.0990241806640623,0.0351468803710937,-0.0317949980468715,0.109781662661892,0.0801639999999679,
0.158879222167969,0.027964275390625,-0.0246123930664037,0.163188166933992,0.0839219999999727,
0.197186448730469,-0.00794874951171881,-0.0102471831054647,0.197612456447792,0.087647000000004,
0.161273423828125,-0.00794874951171881,-0.0413718046874969,0.166685110538243,0.0913630000000012,
0.178032835449219,0.0471178886718749,-0.0317949980468715,0.186886885125159,0.0951119999999719,
0.175638633789062,0.0231758720703125,-0.0294007963867156,0.179584123890952,0.0989649999999642,
0.204369053710937,0.0231758720703125,-0.0509486113281223,0.211895238637369,0.102711999999997,
0.182821238769531,0.0399352836914062,-0.077284829589841,0.202463273492922,0.106456999999978,
0.149302415527344,0.03754108203125,-0.0461602080078087,0.160721214921058,0.110381999999959,
0.106206785644531,0.0255700737304687,0.035242648437503,0.114785688378013,0.114300999999955,
0.122966197265625,0.0782425102539062,-0.00306457812499694,0.145780546438424,0.11803900000001,
0.139725608886719,0.0471178886718749,0.00890643017578441,0.147724966441477,0.121913000000006,
0.144514012207031,0.0207816704101562,-0.0461602080078087,0.153123944412801,0.125679999999988,
0.173244432128906,0.0327526787109375,-0.038977603027341,0.180570276524588,0.129482999999993,
0.156485020507812,0.0255700737304687,-0.0102471831054647,0.15889114221853,0.133330000000001,
0.173244432128906,0.01838746875,0.0376368500976589,0.178236541584415,0.137127999999962,
0.154090818847656,0.0351468803710937,-0.000670376464841027,0.158049780314829,0.140901999999983,
0.156485020507812,0.0255700737304687,-0.0270065947265596,0.160843857428988,0.144780999999966,
0.163667625488281,-0.0103429511718751,-0.00545877978515286,0.164084936995017,0.148554999999988,
0.168456028808594,0.0327526787109375,0.013694833496098,0.172156092164028,0.152319999999975,
0.17085023046875,0.0207816704101562,-0.0581312163085901,0.18166154624955,0.156085999999959,
0.19000384375,0.0135990654296875,0.00411802685547258,0.190534388931546,0.159849000000008,
0.144514012207031,0.0495120903320312,-0.0509486113281223,0.16103262964221,0.163596999999982,
0.154090818847656,0.00881066210937498,0.0232716401367217,0.1560870829204,0.167341999999962,
0.194792247070312,0.03754108203125,-0.0270065947265596,0.2002066645182,0.171183999999982,
0.156485020507812,0.0447236870117187,0.0615788666992216,0.174010708426847,0.174928999999963,
0.149302415527344,0.027964275390625,0.00411802685547258,0.151954500182142,0.178710999999964,
0.19000384375,0.0543004936523437,-0.0892558378906223,0.216833135955323,0.182683999999995,
0.175638633789062,0.0351468803710937,-0.0485544096679646,0.185584922817865,0.186537999999985,
0.149302415527344,0.0303584770507812,0.0232716401367217,0.154124682143372,0.190361999999993,
0.173244432128906,0.027964275390625,-0.0653138212890596,0.187247240869309,0.194248999999957,
0.142119810546875,0.07584830859375,-0.0102471831054647,0.161418744970989,0.198137999999972,
0.17085023046875,0.0471178886718749,-0.0461602080078087,0.183141097210441,0.202028999999982,
0.163667625488281,-0.00794874951171881,-0.0198239897460901,0.165055338663205,0.205847000000006,
0.134937205566406,0.01838746875,-0.0820732329101528,0.159003660377448,0.209699999999998,
0.13254300390625,0.03754108203125,-0.0629196196289037,0.151445895483553,0.213566999999955,
0.197186448730469,0.0207816704101562,-0.0317949980468715,0.200811591519938,0.21741099999997,
0.163667625488281,0.027964275390625,-0.0533428129882783,0.1743976720848,0.221326999999974,
0.122966197265625,0.0327526787109375,-0.0365834013671833,0.132407586218853,0.225129999999979,
0.166061827148437,0.0447236870117187,-0.0126413847656224,0.172442869451283,0.228917999999965,
0.158879222167969,0.0519062919921874,-0.0365834013671833,0.171100016483545,0.232685000000004,
0.149302415527344,0.03754108203125,0.013694833496098,0.15455773221312,0.236418999999955,
0.197186448730469,0.00402225878906243,0.0113006318359403,0.197550951424161,0.240161999999998,
0.146908213867187,0.0303584770507812,-0.0413718046874969,0.155612617269907,0.243934999999965,
0.134937205566406,0.0255700737304687,-0.038977603027341,0.142762500869133,0.247691999999972,
0.156485020507812,0.027964275390625,-0.0677080229492155,0.172782923673448,0.251553000000001,
0.175638633789062,0.0423294853515625,0.0304542451171912,0.183216200307381,0.255537000000004,
0.130148802246094,0.00402225878906243,-0.0150355864257783,0.131076154013711,0.259298999999999,
0.199580650390625,0.0303584770507812,0.00890643017578441,0.20207275332826,0.263120999999956,
0.166061827148437,0.0399352836914062,0.0256658417968776,0.172713904346271,0.266964999999971,
0.166061827148437,-0.0127371528320313,0.00651222851562849,0.166676856876963,0.270782999999994,
0.130148802246094,0.01838746875,-0.0246123930664037,0.133725762759388,0.274609999999996,
0.149302415527344,0.0327526787109375,-0.0198239897460901,0.154132864161069,0.278406999999959,
0.173244432128906,-0.00316034619140632,-0.0102471831054647,0.17357599434632,0.28214399999996,
0.156485020507812,0.0303584770507812,-0.00306457812499694,0.159432087144519,0.285957999999994,
0.144514012207031,0.0782425102539062,-0.0413718046874969,0.16946331862119,0.289715000000001,
0.1516966171875,0.260201836425781,0.334517855957035,0.450132264228606,0.293596999999977,
0.211551658691406,0.0926077202148437,0.233961386230472,0.328737318212217,0.297312999999974,
-0.0111090957031252,-0.197090680664063,-0.800333730957028,0.824319252061701,0.300996999999995,
0.0152271225585936,0.384700322753906,0.336912057617191,0.511601346906186,0.304777999999999,
0.336050145019531,0.0231758720703125,0.0472136567382844,0.34014107425665,0.307710999999983,
0.175638633789062,-0.319194965332031,-0.776391714355466,0.857623722673542,0.310610999999994,
-0.0135032973632815,0.475679985839844,0.581120626953128,0.751102503682867,0.313625000000002,
0.213945860351562,-0.175542865722656,0.00890643017578441,0.276888882705985,0.316567999999961,
0.32407913671875,-0.07738059765625,-0.0413718046874969,0.335747926237987,0.319553999999982,
0.0319865341796873,0.0351468803710937,-0.0413718046874969,0.063008473967782,0.322497999999996,
0.120571995605469,0.205135198242187,0.035242648437503,0.240541264549424,0.325433999999973,
0.295348716796875,-0.235397907226563,-0.307128188964841,0.486796429420994,0.328421999999989,
0.144514012207031,0.205135198242187,0.13340491650391,0.28418589167911,0.331406999999956,
0.199580650390625,-0.0103429511718751,-0.120380459472653,0.233304238435858,0.334493000000009,
0.0319865341796873,0.0878193168945312,0.0591846650390657,0.110626377344812,0.337556000000006,
0.273800901855469,-0.0151313544921876,0.0304542451171912,0.275904608137114,0.340580999999986,
0.204369053710937,-0.0199197578125001,0.0113006318359403,0.205648270466601,0.343600999999978,
0.300137120117187,-0.0630153876953126,0.0448194550781285,0.309938725415412,0.346541000000002,
0.0319865341796873,0.0806367119140625,-0.13474566943359,0.160255462023128,0.349553999999955,
0.180427037109375,0.135703350097656,0.0927034882812539,0.244055837232604,0.352531999999997,
0.0894473740234373,-0.149206647460938,-0.388531045410152,0.425699224351804,0.355457000000001,
0.113389390625,0.15246276171875,0.0639730683593775,0.200485912454044,0.358474000000001,
0.096629979003906,0.0614830986328125,-0.0317949980468715,0.118863140462416,0.361413999999968,
0.130148802246094,-0.0247081611328125,-0.0294007963867156,0.135696760391805,0.36442199999999,
0.213945860351562,0.0806367119140625,0.154952731445317,0.276198224925951,0.367389000000003,
0.175638633789062,-0.0127371528320313,-0.0581312163085901,0.185446496464805,0.370366999999987,
0.137331407226562,0.0950019218749999,-0.0509486113281223,0.174588205692812,0.373342999999977,
0.087053172363281,0.0614830986328125,-0.10362104785156,0.14864638506825,0.376300999999955,
0.199580650390625,0.00402225878906243,-0.149110879394527,0.249163939866748,0.379326999999989,
0.211551658691406,0.0495120903320312,0.0424252534179725,0.221371754096388,0.382296999999994,
0.19000384375,0.0112048637695312,-0.00545877978515286,0.190412205198645,0.385293999999988,
0.2283110703125,0.0231758720703125,0.0400310517578166,0.232949674776111,0.38825700000001,
0.173244432128906,-0.0199197578125001,0.0400310517578166,0.178921533415665,0.391175999999973,
0.178032835449219,0.0351468803710937,-0.0126413847656224,0.181908763688562,0.394198999999958,
0.108600987304687,0.0255700737304687,-0.0294007963867156,0.115379417325221,0.397147999999959,
0.1516966171875,0.0495120903320312,-0.106015249511715,0.19157907997537,0.400157999999976,
0.0846589707031248,-0.0103429511718751,-0.225725332519527,0.241300732905036,0.403084999999976,
0.482096446289062,0.0614830986328125,0.490140963867191,0.690242942305601,0.406044000000009,
0.087053172363281,-0.0941400092773438,-0.338252810546871,0.361739630132098,0.409019999999998,
0.134937205566406,0.0519062919921874,-0.0485544096679646,0.152511780832345,0.411981999999966,
-0.209827833496094,-0.00316034619140632,-0.369377432128903,0.424826311407211,0.414946999999984,
0.0750821640624998,0.219500408203125,0.195654159667972,0.303477034974686,0.417912999999999,
0.122966197265625,-0.0654095893554688,-0.204177517578122,0.24715897461752,0.42080999999996,
0.139725608886719,0.253019231445312,0.492535165527347,0.571080437890313,0.42382699999996,
-0.0589931289062502,0.00402225878906243,-0.350223818847653,0.355180364198458,0.426750999999967,
0.0798705673828123,0.102184526855469,0.0687614716796912,0.146796202438228,0.429794999999956,
0.199580650390625,-0.0247081611328125,-0.244878945800778,0.316873203874058,0.432707999999991,
0.345626951660156,-0.0654095893554688,-0.000670376464841027,0.351762495866384,0.435614999999984,
0.269012498535156,0.00402225878906243,0.312970041015628,0.412715579433607,0.438638999999966,
0.125360398925781,-0.0725921943359376,-0.314310793945308,0.346086884304892,0.441559999999981,
0.0391691391601561,0.262596038085937,0.442256930664065,0.515831458328569,0.444579999999974,
0.237887876953125,-0.137235639160156,-0.28797457568359,0.397936702123724,0.447492000000011,
0.376751573242187,-0.0630153876953126,-0.314310793945308,0.494675613121755,0.450398000000007,
0.338444346679687,-0.029496564453125,-0.144322476074215,0.369111907440237,0.453384999999969,
0.197186448730469,0.0351468803710937,0.102280294921879,0.224897882364553,0.456338999999957,
-0.0135032973632815,0.171616375,0.260297604492191,0.31207268722558,0.459339,
-0.0326569106445315,0.03754108203125,-0.110803652832027,0.121462982566057,0.462266,
0.113389390625,0.0782425102539062,0.150164328125003,0.203785106811992,0.465284999999994,
0.067899559082031,-0.149206647460938,-0.44120348193359,0.470673439064061,0.46820299999996,
0.0104387192382811,0.130914946777344,-0.185023904296871,0.226895428138842,0.471225000000004,
0.252253086914062,-0.000766144531250068,-0.137139871093746,0.287122884979107,0.474320999999975,
0.257041490234375,0.00641646044921873,-0.0317949980468715,0.25907995014552,0.477379999999982,
0.233099473632812,-0.0199197578125001,0.121433908203128,0.263587472048063,0.480447999999967,
0.173244432128906,0.0710599052734375,0.401555502441409,0.44306880384666,0.483412999999985,
-0.126030775390625,-0.0654095893554688,-0.371771633789059,0.39796522262052,0.486289999999997,
0.348021153320312,0.159645366699219,0.413526510742191,0.563568577329804,0.489328,
0.211551658691406,-0.177937067382813,-0.534577346679685,0.601821106166087,0.492274000000009,
0.307319725097656,0.109367131835937,0.0232716401367217,0.327029283390297,0.495304999999973,
0.154090818847656,0.0710599052734375,-0.10362104785156,0.198823570404684,0.498266000000001,
0.254647288574218,-0.00555454785156256,-0.0653138212890596,0.262948644855637,0.501193000000001,
0.213945860351562,0.066271501953125,0.12622231152344,0.257093008576689,0.504229000000009,
0.278589305175781,0.0231758720703125,0.21001936962891,0.349653053216855,0.507205999999996,
0.0846589707031248,-0.0941400092773438,-0.230513735839841,0.262994420241363,0.510191999999961,
0.0487459458007811,0.0973961235351562,-0.0174297880859342,0.110299454325072,0.513198999999986,
0.204369053710937,-0.029496564453125,0.035242648437503,0.209472675301889,0.516140000000007,
0.197186448730469,-0.0247081611328125,-0.0294007963867156,0.200891502104175,0.519146999999975,
0.0726879624023435,-0.00794874951171881,-0.175447097656246,0.190074739439529,0.522087999999997,
-0.00871489404296899,0.188375786621094,-0.0557370146484342,0.196641809301114,0.525103999999999,
0.328867540039062,-0.00794874951171881,0.284239621093754,0.434751887528582,0.528051000000005,
-0.027868507324219,0.066271501953125,-0.0796790312499969,0.107318748094362,0.530974999999955,
0.213945860351562,0.169222173339844,0.310575839355472,0.413359803443424,0.533996000000002,
-0.0111090957031252,-0.0414675727539063,-0.240090542480466,0.243898421860426,0.536909999999978,
0.278589305175781,0.123732341796875,0.226778781250003,0.379934611466368,0.53993399999996,
0.122966197265625,-0.0582269843750001,-0.280791970703122,0.312017945302378,0.542877999999973,
0.288166111816406,0.0997903251953124,0.0998860932617216,0.320897255564863,0.545820999999989,
0.0391691391601561,0.111761333496094,-0.0820732329101528,0.144086198810632,0.548828999999955,
0.187609642089844,-0.03907337109375,-0.0294007963867156,0.19387757209611,0.551763999999991,
-0.276865479980469,-1.99513612744141,3.07587875683594,3.67671766495353,0.554769999999962,
2.68476197363281,-2.52186049267578,9.2810509095459,9.98527081180909,0.557698999999957,
1.82524357763672,-0.714238239257813,0.729561129882816,2.09138944779734,0.560669999999959,
0.714334007324219,0.351181499511719,-5.12186772753906,5.18335128445153,0.563620999999955,
-0.336720521484375,0.844387041503906,-8.32530954882812,8.37479249111625,0.56653799999998,
-0.128424977050781,0.355969902832031,-8.84485130908203,8.85294313921776,0.569526999999994,
0.0224097275390623,0.662427715332031,-8.1457444243164,8.17266571567749,0.572485999999969,
0.0583227524414061,1.75897207568359,-4.16897546679687,4.52523377840761,0.575504999999964,
-1.4572068984375,2.13725593798828,0.183683151367191,2.59327098264261,0.578445999999985,
-3.67663183740234,-0.0678037910156251,0.681677096679691,3.73990677504323,0.581344000000001,
-3.97111864160156,1.7422126640625,8.45325568554688,9.50066418297825,0.584348999999975,
-2.99907276757813,0.870723259765625,8.94167282421876,9.4713309178646,0.587279999999964,
-1.56494597314453,1.13887384570313,5.57063688671875,5.89729470680918,0.59027199999997,
0.412664598144531,0.68876393359375,1.84047070019532,2.00798909983564,0.59323999999998,
0.778977452148438,0.870723259765625,-1.90406069628906,2.23392300700031,0.596181999999999,
0.908264341796875,0.353575701171875,-4.66936361376953,4.77000172417513,0.599207999999976,
1.88749282080078,-0.465241266601563,-4.08757261035156,4.52629301190497,0.602179999999976,
2.5267446640625,-1.15477134472656,-3.70928874804687,4.63430237170138,0.605173999999977,
2.66321415869141,-1.09012789990234,-2.97905724169922,4.14196457523726,0.608155000000011,
2.95051835791016,-1.1691365546875,0.0711556733398471,3.17450814989029,0.611188999999968,
2.79968365332031,-1.39658571240234,2.90110203564453,4.26674035206927,0.614304000000004,
2.31126651464844,-1.87782024609375,3.88033051464844,4.89133179014536,0.617332999999974,
1.82763777929687,-1.77965797802734,3.39670177929688,4.24794366117869,0.620364999999993,
1.24824097753906,-1.19068436962891,1.7375200288086,2.44843024335947,0.623289999999997,
0.759823838867187,-0.0606211860351563,0.470987350585942,0.896011316178062,0.626221999999984,
-0.0158974990234377,-0.0606211860351563,-2.21291271044922,2.21379997351595,0.629214999999988,
-0.149972791992188,0.57384225390625,-1.79632162158203,1.89170773082663,0.632173999999964,
-0.762888416992188,0.626514690429687,-2.0165881743164,2.24524993239012,0.635190999999963,
-1.03103900292969,0.806079814941406,-1.2121364165039,1.78383877798223,0.638137999999969,
-1.76127050927734,0.786926201660156,-0.809910537597652,2.0921954336584,0.641079999999988,
-2.08688193505859,1.07662460253906,0.698436508300786,2.44990005955216,0.644061999999963,
-1.96717185205078,1.06704779589844,1.28022751171875,2.57824331202356,0.64701500000001,
-1.9168936171875,0.877905864746094,0.99531751416016,2.33149239779239,0.650027999999963,
-1.55297496484375,1.04310577929687,0.693648104980472,1.99523146571444,0.652961000000005,
-1.04061580957031,1.00719275439453,-0.0724964262695273,1.45002559958587,0.655962999999986,
-0.310384303222656,0.813262419921875,-0.666258437988278,1.09619089830867,0.658906999999999,
0.0750821640624998,0.470891582519531,-1.00144667041015,1.10917611204156,0.661836999999991,
0.498855857910156,0.22907721484375,-0.685412051269529,0.878136217996588,0.664850000000001,
0.846015098632812,-0.1348414375,-0.276003567382809,0.90005651466438,0.667776000000003,
1.25781778417969,-0.534673114746094,0.236355587890628,1.38702735436548,0.670781999999974,
1.54272778173828,-0.922533783691406,0.530842392089847,1.87426551903373,0.673737999999958,
1.66004366308594,-1.0925221015625,0.68885970166016,2.10330149867432,0.676634999999976,
1.61694803320312,-1.11646411816406,0.466198947265628,2.01949363149748,0.679639000000009,
1.43738290869141,-1.06618588330078,0.0783382783203166,1.79135670646531,0.68258499999996,
1.20275114599609,-0.922533783691406,-0.309522390624997,1.54708855969693,0.685592999999983,
0.86038030859375,-0.685507819335938,-0.450780288574215,1.18885580048786,0.68850900000001,
0.395905186523437,-0.379050006835938,-0.604009194824215,0.815626711082146,0.69144399999999,
0.0702937607421873,-0.1348414375,-0.584855581542966,0.604300816918451,0.694430000000011,
-0.21222203515625,0.0878193168945312,-0.0126413847656224,0.230022236391344,0.697366999999986,
-0.647966737304688,0.38230612109375,0.296210629394535,0.808554017889552,0.700365999999974,
-0.533045057617188,0.485256792480469,0.61224524853516,0.945756539735477,0.703313999999978,
-1.14835488427734,0.858752251464844,0.250720797851566,1.4556906567382,0.706259999999986,
-0.832320265136719,0.988039141113281,0.255509201171879,1.31691431764281,0.709278999999981,
-0.829926063476563,1.01676956103516,-0.106015249511715,1.31675238530802,0.71220999999997,
-0.439671192871094,0.873117461425781,-0.242484744140622,1.00719596426328,0.715216999999996,
-0.382210353027344,0.944943511230469,-0.450780288574215,1.11454289372142,0.718136999999956,
0.0176213242187498,0.619332085449219,-0.343041213867185,0.708209021084575,0.721071999999992,
0.115783592285156,0.353575701171875,-0.0820732329101528,0.380995580370642,0.724091999999985,
0.364780564941406,0.157251165039062,0.427891720703128,0.583852818877667,0.727052999999955,
0.570681907714844,-0.23060950390625,0.327335250976565,0.697141986697711,0.730049000000008,
0.867562913574219,-0.596922357910156,0.461410543945316,1.14973101221387,0.733001000000002,
0.398299388183594,-0.429328241699219,0.0400310517578166,0.586998830367493,0.735924000000011,
0.941783165039062,-0.776487482421875,-0.185023904296871,1.23455343564793,0.738886999999977,
0.929812156738281,-0.826765717285156,-0.371771633789059,1.29857858668104,0.741809999999987,
0.78376585546875,-0.663960004394531,-0.340647012207027,1.08220709227015,0.744804999999985,
0.455760228027343,-0.644806391113281,-0.781180117675778,1.11073626200103,0.747801999999979,
0.640113755859375,-0.517913703125,-0.0868616362304646,0.827964472772642,0.750909999999976,
0.271406700195312,-0.30722395703125,0.159741134765628,0.439960665083889,0.753961000000004,
0.178032835449219,-0.0893516059570313,0.257903402832035,0.325873541696057,0.756957,
-0.142790187011719,0.0423294853515625,-0.0557370146484342,0.159020242858856,0.759950000000003,
-0.226587245117188,0.341604692871094,0.327335250976565,0.52457974834456,0.762894999999958,
-0.298413294921875,0.530746624023438,0.214807772949221,0.645666208514748,0.765885999999966,
-0.3079901015625,0.6696103203125,0.0591846650390657,0.739417817140806,0.768867,
-0.360662538085938,0.734253765136719,-0.295157180664059,0.869668798620253,0.771780999999976,
-0.25052926171875,0.748618975097656,-0.376560037109371,0.874638635323994,0.774795999999981,
-0.169126405273438,0.683975530273438,-0.144322476074215,0.719204591249067,0.777729999999963,
0.0295923325195311,0.502016204101563,0.0759440766601589,0.508589695239937,0.780760999999984,
0.108600987304687,0.300903264648438,0.24114399121094,0.4006087537945,0.78371599999997,
0.20915745703125,0.0878193168945312,0.245932394531254,0.334577071736061,0.786652000000004,
0.257041490234375,-0.158783454101563,0.183683151367191,0.353584520439617,0.789683999999966,
0.216340062011719,-0.393415216796875,-0.0629196196289037,0.453362364751214,0.792656999999963,
0.415058799804687,-0.426934040039063,-0.0533428129882783,0.597822663953857,0.795656000000008,
0.357597959960937,-0.501154291503906,-0.340647012207027,0.703613751845841,0.798612999999989,
0.738276023925781,-0.417357233398438,0.0256658417968776,0.848467608815328,0.801550999999961,
0.539557286132812,-0.551432526367188,-0.673441042968747,1.02407164520337,0.804540999999972,
0.680815184082031,-0.386232611816406,-0.194600710937497,0.806569514675922,0.807489999999973,
0.367174766601562,-0.410174628417969,-0.0126413847656224,0.550654464828465,0.810496000000001,
0.348021153320312,-0.283281940429688,0.26748020947266,0.522410799459149,0.813432999999975,
0.192398045410156,-0.122870429199219,0.236355587890628,0.328600234595737,0.816358999999977,
0.13254300390625,0.03754108203125,0.0591846650390657,0.149932669223074,0.819382999999959,
0.0463517441406248,0.255413433105469,-0.0270065947265596,0.260986325607922,0.822333999999955,
0.0319865341796873,0.370335112792969,0.0328484467773471,0.37316250426844,0.825355000000002,
-0.0637815322265627,0.487650994140625,-0.149110879394527,0.513912084206352,0.828285999999991,
-0.0877235488281252,0.528352422363281,-0.185023904296871,0.566644110882135,0.831201999999962,
-0.0829351455078127,0.521169817382813,-0.0341891997070274,0.528833734067564,0.834197999999958,
-0.0973003554687503,0.451737969238281,0.0783382783203166,0.468691196712785,0.837139999999977,
-0.0973003554687503,0.322451079589844,0.0113006318359403,0.337001130833255,0.840139999999963,
-0.0685699355468752,0.255413433105469,0.183683151367191,0.321989686120234,0.843086999999969,
0.178032835449219,-1.31278865429688,-2.45233287646484,2.78730089483339,0.846078999999975,
1.87073340917969,0.138097551757812,6.9305434296875,7.17991271902432,0.849047999999982,
0.577864512695312,-1.4755943671875,2.18523573925782,2.69936314112009,0.851966000000004,
0.7646122421875,0.0973961235351562,-1.71970716845703,1.88454520535464,0.854961000000003,
-0.207433631835938,0.0112048637695312,-4.48261588427734,4.48742681573352,0.85789299999999,
-0.590505897460938,1.02155796435547,-5.65338049609375,5.77520466503893,0.860887999999989,
0.309713926757812,0.753407378417969,-3.38607152392578,3.48267508668601,0.863840999999979,
0.369568968261719,1.0526825859375,-0.76681490771484,1.35378246100761,0.866769999999974,
-0.0637815322265627,0.537929229003906,2.11101548779297,2.17940871085983,0.869790999999964,
-1.13638387597656,-0.534673114746094,3.68161177685547,3.88992402608235,0.872718999999961,
-0.5378334609375,-0.0414675727539063,5.38149495556641,5.40846303011131,0.875707999999975,
-0.130819178710938,-0.285676142089844,2.67604707958985,2.69442990034243,0.878615999999965,
0.295348716796875,0.233865618164062,0.569149618652347,0.682535918677494,0.881554999999992,
0.331261741699219,0.365546709472656,-1.60957389208984,1.68347463670146,0.884577999999976,
0.642507957519531,0.238654021484375,-2.84498194873047,2.92637907763994,0.887633999999991,
0.642507957519531,-0.0318907661132813,-3.23763102099609,3.30092231422604,0.890734000000009,
0.647296360839844,-0.103716815917969,-2.31346918017578,2.40455596821614,0.893774000000008,
0.558710899414062,-0.398203620117188,-0.862582974121091,1.10216758228597,0.896741999999961,
0.544345689453125,-0.604104962890625,1.18206524365235,1.43475896096388,0.899763000000007,
0.379145774902344,-0.740574457519531,2.45578052685547,2.59288643057099,0.902683999999965,
0.20915745703125,-0.685507819335938,2.525212375,2.62495054259231,0.905675999999971,
0.161273423828125,-0.508336896484375,1.33050574658203,1.43340889464536,0.908649999999966,
0.180427037109375,-0.199484882324219,-0.117986257812497,0.293715663573757,0.911554999999964,
0.168456028808594,0.181193181640625,-1.16904078662109,1.19493295355793,0.914565999999979,
0.20915745703125,0.470891582519531,-1.51141162402343,1.59682523200026,0.917535999999984,
0.2283110703125,0.549900237304688,-1.17622339160156,1.31833898628754,0.920556999999974,
-0.398969764648438,0.473285784179687,-1.32226969287109,1.45999090657977,0.92350799999997,
-0.209827833496094,0.604966875488281,-0.161081887695309,0.660272682072492,0.92643099999998,
-0.303201698242188,0.300903264648438,0.425497519042972,0.602928008310079,0.929477999999961,
-0.221798841796875,0.262596038085937,1.2012188569336,1.24943112963209,0.932411999999999,
0.00325611425781225,0.276961248046875,1.42148540966797,1.44821921859181,0.935440999999969,
0.13254300390625,0.226683013183594,0.916308859375004,0.953191881060475,0.938384999999982,
-0.00153228906250025,0.183587383300781,-0.139534072753904,0.230600157580802,0.941366999999957,
0.0535343491210936,0.171616375,-0.807516335937496,0.82728516214778,0.94431800000001,
0.443789219726562,0.0830309135742187,-0.831458352539059,0.9461321240511,0.947253999999987,
0.529980479492187,-0.132447235839844,-0.833852554199215,0.996860903571275,0.950252999999975,
0.393510984863281,-0.23060950390625,-0.469933901855466,0.654881295055111,0.953184999999962,
0.352809556640625,-0.388626813476563,0.13340491650391,0.541573868606413,0.956201999999962,
0.309713926757812,-0.491577484863281,0.607456845214847,0.840580132319714,0.959156000000007,
0.331261741699219,-0.503548493164063,0.619427853515628,0.864283687334417,0.962067999999988,
0.312108128417969,-0.46045286328125,0.32494104931641,0.644216585209755,0.965090999999973,
0.156485020507812,-0.0678037910156251,0.181288949707035,0.24889877260706,0.968013999999982,
0.245070481933594,-0.07738059765625,-0.436415078613278,0.506463640205134,0.971007999999983,
0.101418382324219,0.0614830986328125,-0.788362722656247,0.797233743744408,0.973957999999982,
0.280983506835937,0.245836626464844,-0.295157180664059,0.47592556069515,0.976891999999964,
0.144514012207031,0.264990239746094,-0.194600710937497,0.35912889549888,0.97992099999999,
-0.00153228906250025,0.298509062988281,-0.0557370146484342,0.303671900902656,0.982877999999971,
-0.2313756484375,0.372729314453125,0.293816427734379,0.528005611475069,0.985893999999973,
0.0415633408203123,0.281749651367187,0.636187265136723,0.697025547356637,0.988851000000011,
0.163667625488281,0.308085869628906,0.490140963867191,0.60161628897382,0.991782999999998,
0.000861912597656,0.212317803222656,-0.137139871093746,0.252758653070928,0.994788999999969,
-0.0613873305664064,0.231471416503906,-0.357406423828122,0.430217122864724,0.997720999999956,
0.142119810546875,0.0734541069335937,-0.338252810546871,0.374177110761934,1.000742,
0.300137120117187,0.0543004936523437,-0.0701022246093714,0.312961908829669,1.00368900000001,
0.276195103515625,-1.17631915966797,-1.17143498828125,1.68293506481309,1.00658899999996,
0.850803501953125,0.0614830986328125,2.43183851025391,2.57710793532346,1.00961599999999,
0.881928123535156,-1.03506126171875,0.715195919921879,1.53644207000002,1.01252499999998,
