X,Y,Z,Magnitude,Seconds,
-0.0494163222656252,-0.0127371528320313,-0.0892558378906223,0.102814456989685,0.0,
-0.00871489404296899,0.0399352836914062,-0.0198239897460901,0.0454287005223169,0.00369699999987461,
-0.0111090957031252,0.0327526787109375,-0.106015249511715,0.111514048886741,0.0075130000000172,
0.0152271225585936,0.0351468803710937,-0.0748906279296833,0.0841176236762348,0.0114579999999478,
-0.0254743056640627,0.027964275390625,-0.0294007963867156,0.0479097878868391,0.0153269999998429,
0.0128329208984373,0.0159932670898437,-0.0317949980468715,0.037833719772092,0.0191099999999551,
-0.0613873305664064,-0.00555454785156256,-0.0940442412109341,0.112443659940634,0.0228219999999055,
-0.00392649072265649,-0.00794874951171881,-0.0653138212890596,0.0659127847960801,0.0265540000000328,
-0.0254743056640627,0.0303584770507812,-0.0748906279296833,0.0847300627263497,0.0304229999999279,
-0.0326569106445315,0.0447236870117187,-0.0150355864257783,0.0573824960413377,0.0342289999998684,
-0.0398395156250002,0.0159932670898437,-0.0748906279296833,0.0863225216797098,0.0379609999999957,
-0.0589931289062502,0.0135990654296875,-0.0270065947265596,0.0662908741640583,0.0417089999998552,
-0.0470221206054689,0.00162805712890618,0.00411802685547258,0.0472301655876056,0.0454889999998613,
-0.00392649072265649,0.0135990654296875,-0.0557370146484342,0.0575062319394672,0.0492349999999533,
-0.037445313964844,0.0231758720703125,-0.0413718046874969,0.0604226679917861,0.0529629999998633,
-0.0254743056640627,0.0423294853515625,-0.10362104785156,0.114795675602565,0.0568289999998797,
-0.00871489404296899,0.0159932670898437,-0.0509486113281223,0.0541063301902035,0.0605349999998452,
-0.0470221206054689,0.01838746875,-0.060525417968746,0.0788194459099967,0.064239999999927,
-0.0302627089843752,0.0423294853515625,-0.09643844287109,0.109580975304118,0.0679219999999532,
-0.0230801040039065,0.0495120903320312,-0.0677080229492155,0.0869972106539621,0.071617999999944,
-0.0637815322265627,0.0135990654296875,-0.108409451171871,0.126513349244715,0.0752840000000106,
-0.0398395156250002,0.0327526787109375,-0.0892558378906223,0.10308505985609,0.0791329999999562,
-0.0230801040039065,0.00402225878906243,-0.0629196196289037,0.0671397669108499,0.0831259999999929,
-0.0158974990234377,-0.000766144531250068,-0.0748906279296833,0.0765632000659927,0.0868789999999535,
-0.0230801040039065,-0.00316034619140632,-0.038977603027341,0.0454085072055629,0.0906469999999899,
-0.0350511123046877,0.00162805712890618,-0.101226846191404,0.107135920370662,0.0944319999998697,
-0.0206859023437502,0.0566946953124999,-0.0892558378906223,0.107744139654598,0.0982209999999668,
-0.0230801040039065,0.0207816704101562,-0.0413718046874969,0.051731955781392,0.102149999999938,
-0.0135032973632815,0.0303584770507812,-0.101226846191404,0.106540370556809,0.105931999999939,
-0.0661757338867189,0.00641646044921873,-0.00306457812499694,0.0665566702834993,0.10971799999993,
-0.0637815322265627,0.0112048637695312,-0.077284829589841,0.100829448624856,0.113503999999921,
-0.0326569106445315,0.0423294853515625,-0.0748906279296833,0.0920155709359851,0.117299999999886,
0.0104387192382811,0.0423294853515625,-0.0653138212890596,0.0785280041822216,0.121054999999842,
-0.0350511123046877,0.0255700737304687,-0.0844674345703087,0.0949587102232692,0.12477100000001,
-0.0350511123046877,0.0303584770507812,-0.038977603027341,0.0605761598353314,0.128590000000031,
-0.0613873305664064,-0.00316034619140632,-0.108409451171871,0.124623437785615,0.132272999999941,
-0.037445313964844,0.00641646044921873,-0.0557370146484342,0.0674532230849045,0.135963999999831,
-0.0350511123046877,0.0519062919921874,-0.0365834013671833,0.07253405322858,0.139668000000029,
-0.0470221206054689,0.00402225878906243,-0.00545877978515286,0.0475084904911138,0.143345999999838,
-0.0302627089843752,0.0399352836914062,-0.0557370146484342,0.0749484705681567,0.147035999999844,
-0.018291700683594,-0.00555454785156256,-0.0748906279296833,0.0772919495642059,0.150914999999941,
0.00325611425781225,-0.00555454785156256,-0.125168862792965,0.125334350817241,0.154857999999876,
-0.037445313964844,0.00881066210937498,-0.0557370146484342,0.0677229215749814,0.158617000000049,
-0.0565989272460939,0.0423294853515625,-0.0916500395507782,0.115736570042472,0.162405999999919,
-0.00392649072265649,0.0351468803710937,-0.113197854492183,0.118593738413327,0.166161999999986,
-0.037445313964844,0.0159932670898437,-0.0365834013671833,0.0547382990759235,0.16994899999986,
-0.0805409438476564,0.0734541069335937,-0.0868616362304646,0.139381825608351,0.173735999999963,
-0.018291700683594,0.0399352836914062,-0.077284829589841,0.0888952084318499,0.177594999999883,
-0.0422337172851565,0.0495120903320312,-0.0701022246093714,0.0956527880406656,0.181315000000041,
-0.0135032973632815,0.03754108203125,-0.0485544096679646,0.0628426811805701,0.185087999999951,
-0.0135032973632815,0.0207816704101562,-0.10362104785156,0.106543598693553,0.188805000000002,
-0.0326569106445315,0.0351468803710937,-0.060525417968746,0.0772340807736862,0.192509999999857,
-0.0111090957031252,0.0327526787109375,-0.0533428129882783,0.0635736239928598,0.196187000000009,
-0.0135032973632815,0.027964275390625,-0.0413718046874969,0.0517297396175963,0.199987999999848,
-0.0326569106445315,0.0159932670898437,-0.0796790312499969,0.087584281843205,0.20369699999992,
-0.0398395156250002,0.0423294853515625,-0.0796790312499969,0.0986292064061186,0.20737999999983,
-0.037445313964844,0.0423294853515625,-0.0581312163085901,0.0810751205831355,0.211071999999831,
-0.027868507324219,0.0327526787109375,-0.115592056152341,0.123332538726598,0.214761999999837,
-0.0446279189453127,-0.00794874951171881,-0.0748906279296833,0.0875410756153459,0.218404999999848,
-0.027868507324219,0.0231758720703125,-0.098832644531246,0.105269494022433,0.222402999999986,
-0.0158974990234377,0.0159932670898437,-0.137139871093746,0.138981507082836,0.226214000000027,
-0.0565989272460939,-0.00316034619140632,-0.0509486113281223,0.0762180250972317,0.229922999999872,
-0.0135032973632815,-0.0175255561523438,-0.101226846191404,0.103616400960409,0.233655999999883,
-0.018291700683594,0.0207816704101562,-0.098832644531246,0.102637009718591,0.237394999999879,
-0.0135032973632815,0.0207816704101562,-0.0509486113281223,0.0566566665184393,0.24118999999996,
-0.0111090957031252,0.00881066210937498,-0.0629196196289037,0.0644974286959774,0.244942999999921,
0.0056503159179685,0.0159932670898437,-0.0365834013671833,0.040324383662647,0.248822000000018,
-0.0302627089843752,0.0207816704101562,-0.0820732329101528,0.0899095375387591,0.252579999999853,
-0.0350511123046877,0.0351468803710937,-0.0294007963867156,0.0576913381868449,0.256363999999849,
-0.0518105239257815,0.0399352836914062,-0.0796790312499969,0.103091732422707,0.260111999999936,
0.00325611425781225,0.0327526787109375,-0.0629196196289037,0.0710085824182383,0.263864999999896,
-0.0398395156250002,-0.00316034619140632,-0.0126413847656224,0.0419163381281891,0.267572999999857,
-0.0350511123046877,0.0135990654296875,-0.0701022246093714,0.0795477023523591,0.271349999999984,
-0.00632069238281274,0.0255700737304687,-0.0701022246093714,0.0748872600511096,0.275095999999849,
-0.0230801040039065,0.0303584770507812,0.00172382519531666,0.0381745976138316,0.27880499999992,
-0.0518105239257815,0.0112048637695312,-0.177841299316404,0.185573185304624,0.282485999999835,
-0.0398395156250002,0.0686657036132812,-0.151505081054685,0.17104372377649,0.286164999999983,
-0.0206859023437502,0.00402225878906243,0.221990377929691,0.222988369685301,0.289955999999847,
-0.00871489404296899,0.0159932670898437,-0.271215164062497,0.271826045823122,0.29392699999994,
-0.0398395156250002,0.00162805712890618,-0.369377432128903,0.371523249530083,0.297782999999981,
-0.0709641372070314,0.0710599052734375,0.0567904633789098,0.115371468040411,0.301623999999947,
0.0463517441406248,-0.0151313544921876,0.154952731445317,0.162443193320036,0.304603999999927,
0.0104387192382811,-0.0318907661132813,-0.022218191406246,0.0402446996757617,0.307497999999896,
-0.104482960449219,0.0710599052734375,-0.355012222167966,0.37682871049104,0.31052499999987,
-0.0973003554687503,0.0950019218749999,-0.266426760742185,0.299125296780232,0.313446999999996,
0.0319865341796873,-0.00794874951171881,-0.0341891997070274,0.0474891815494367,0.316481999999951,
0.0607169541015623,-0.0103429511718751,0.190865756347661,0.200557378574012,0.319414999999935,
-0.0422337172851565,0.0638773002929687,0.052002060058598,0.0925646294152289,0.322318999999879,
-0.0589931289062502,0.0614830986328125,-0.129957266113278,0.155400295016705,0.32532399999991,
-0.0326569106445315,0.00402225878906243,-0.271215164062497,0.273203802308932,0.328246000000036,
0.0559285507812498,-0.0175255561523438,-0.208965920898434,0.217029730700359,0.331240999999864,
-0.0135032973632815,0.0231758720703125,-0.149110879394527,0.151504173010878,0.334153999999899,
-0.0685699355468752,0.0997903251953124,0.0807324799804725,0.14552552486518,0.337080999999898,
-0.0206859023437502,0.0471178886718749,0.00172382519531666,0.0514876059064158,0.340075999999954,
0.0248039291992186,-0.0318907661132813,-0.0868616362304646,0.0957977020373945,0.342991999999867,
-0.0470221206054689,0.0207816704101562,-0.252061550781246,0.257250817362197,0.346007999999983,
-0.0853293471679689,0.0495120903320312,-0.113197854492183,0.150154250152277,0.348921999999902,
-0.0589931289062502,0.0135990654296875,-0.0485544096679646,0.0776057635547445,0.351830999999947,
-0.0111090957031252,0.00881066210937498,-0.0174297880859342,0.0224685844428915,0.354824999999892,
-0.018291700683594,0.0207816704101562,-0.0509486113281223,0.0579846974226703,0.357747000000018,
-0.0613873305664064,0.0423294853515625,-0.120380459472653,0.141603830128441,0.360743999999841,
-0.0446279189453127,0.0255700737304687,-0.153899282714841,0.162266660285203,0.363657999999987,
0.0391691391601561,0.00162805712890618,-0.0940442412109341,0.101888131484992,0.366661000000022,
-0.0111090957031252,0.00881066210937498,-0.0437660063476528,0.0460054679985929,0.369597999999996,
-0.0111090957031252,0.0519062919921874,0.00890643017578441,0.0538237833508157,0.372511999999915,
-0.0494163222656252,0.0590888969726562,-0.0341891997070274,0.0842755719548216,0.375503999999864,
0.0056503159179685,-0.0199197578125001,-0.106015249511715,0.108018313032156,0.378416999999899,
-0.0230801040039065,-0.0223139594726563,-0.168264492675778,0.171299572339266,0.381370999999945,
-0.0565989272460939,0.03754108203125,-0.060525417968746,0.0909730598901514,0.384291999999959,
-0.0589931289062502,0.0303584770507812,-0.0485544096679646,0.082215309311568,0.387203,
-0.0206859023437502,0.01838746875,-0.0581312163085901,0.0643835683410254,0.39020000000005,
0.0176213242187498,0.027964275390625,-0.0581312163085901,0.0668711453084296,0.393141999999898,
-0.0733583388671877,0.01838746875,-0.132351467773434,0.152435087529636,0.396144999999933,
-0.0398395156250002,0.0495120903320312,-0.153899282714841,0.166504124016267,0.399063999999953,
-0.0135032973632815,0.00162805712890618,-0.108409451171871,0.109259318655584,0.401975999999877,
-0.037445313964844,0.01838746875,-0.0365834013671833,0.0554850953009039,0.404976000000033,
-0.0637815322265627,0.027964275390625,-0.0677080229492155,0.0971311532052527,0.407894999999826,
-0.0973003554687503,0.0327526787109375,-0.0892558378906223,0.136039338923137,0.410937999999987,
-0.0470221206054689,-0.0103429511718751,-0.106015249511715,0.116435774546358,0.413945000000012,
-0.0302627089843752,0.0112048637695312,-0.132351467773434,0.136228820551854,0.416956000000027,
-0.037445313964844,-0.00316034619140632,-0.077284829589841,0.0859365126747998,0.420044999999845,
-0.0206859023437502,0.0135990654296875,-0.0629196196289037,0.0676144930512831,0.422979999999825,
-0.0302627089843752,0.0135990654296875,-0.098832644531246,0.104252854928167,0.425983999999971,
-0.0422337172851565,0.0303584770507812,-0.108409451171871,0.120241145653024,0.428900999999996,
-0.0685699355468752,0.0303584770507812,-0.0940442412109341,0.120282137055698,0.43180899999993,
-0.0589931289062502,0.0638773002929687,-0.0653138212890596,0.108749225294927,0.434827000000041,
-0.0158974990234377,0.00881066210937498,0.00172382519531666,0.0182573222382087,0.437758000000031,
-0.0135032973632815,-0.000766144531250068,-0.09643844287109,0.0973822328791267,0.440715999999838,
-0.00871489404296899,0.03754108203125,-0.0629196196289037,0.0737845563278871,0.443645999999944,
-0.027868507324219,0.00162805712890618,-0.0677080229492155,0.0732371534276594,0.446552999999994,
-0.018291700683594,0.0614830986328125,-0.10362104785156,0.121869107198033,0.449572999999873,
-0.0565989272460939,0.00881066210937498,-0.0748906279296833,0.0942850597068086,0.452524999999923,
-0.0135032973632815,0.00641646044921873,-0.0533428129882783,0.055398246379105,0.455556999999999,
-0.0254743056640627,0.0112048637695312,-0.0677080229492155,0.0732042730504944,0.458474000000024,
-0.0302627089843752,0.0207816704101562,-0.0724964262695273,0.0812615604204249,0.461454000000003,
-0.0350511123046877,0.0423294853515625,-0.0437660063476528,0.0702554561265298,0.464375000000018,
-0.00153228906250025,0.0159932670898437,-0.0509486113281223,0.0534218447663707,0.467275999999856,
-0.0230801040039065,0.0231758720703125,-0.0485544096679646,0.0585435132636842,0.470274999999901,
-0.027868507324219,0.01838746875,-0.038977603027341,0.0513225705247628,0.473195999999916,
-0.0470221206054689,0.0351468803710937,-0.0844674345703087,0.102864622338998,0.476169000000027,
-0.00153228906250025,-0.0318907661132813,-0.0102471831054647,0.0335316810592608,0.479074999999966,
0.000861912597656,0.00402225878906243,-0.0892558378906223,0.0893505794981165,0.482019000000037,
-0.0518105239257815,0.0135990654296875,-0.0820732329101528,0.0980065331003453,0.485024999999951,
-0.0422337172851565,0.00881066210937498,-0.0916500395507782,0.101296813336784,0.487948999999844,
-0.0111090957031252,0.0135990654296875,-0.108409451171871,0.109822382469552,0.49096099999997,
0.0056503159179685,-0.00316034619140632,-0.110803652832027,0.110992627408053,0.493876,
-0.0685699355468752,-0.0199197578125001,-0.0437660063476528,0.0837502007390673,0.496758999999884,
0.00325611425781225,0.00402225878906243,-0.0796790312499969,0.0798469089368154,0.499780999999984,
-0.0326569106445315,-0.00555454785156256,-0.0150355864257783,0.0363785056571495,0.502669999999853,
-0.0589931289062502,0.03754108203125,-0.117986257812497,0.137150571018948,0.505674999999883,
-0.0422337172851565,0.00641646044921873,-0.060525417968746,0.074082278992417,0.508608999999979,
-0.027868507324219,0.0255700737304687,-0.0317949980468715,0.0494105684227799,0.511512999999923,
0.0128329208984373,0.01838746875,0.0113006318359403,0.0251095030956258,0.514541000000008,
-0.0302627089843752,0.0471178886718749,-0.038977603027341,0.0682288833685937,0.517445999999836,
-0.0206859023437502,0.0112048637695312,0.0160890351562539,0.028501097875838,0.520461999999952,
-0.0446279189453127,0.0112048637695312,-0.0940442412109341,0.104697275162363,0.523373999999876,
-0.0518105239257815,-0.0175255561523438,-0.0294007963867156,0.0620957513529391,0.526255999999876,
-0.0518105239257815,0.0566946953124999,-0.0270065947265596,0.0814123763611271,0.529246999999941,
-0.00153228906250025,0.0351468803710937,-0.0796790312499969,0.0870999376034737,0.532169999999951,
-0.0326569106445315,0.0351468803710937,-0.0365834013671833,0.0603334257958001,0.535161000000016,
-0.0135032973632815,0.0231758720703125,-0.0485544096679646,0.055470629923458,0.538080000000036,
-0.0135032973632815,0.0303584770507812,-0.09643844287109,0.102001712887208,0.540985999999975,
-0.0398395156250002,0.00402225878906243,-0.0820732329101528,0.0913202120635131,0.543987999999899,
-0.0446279189453127,0.0231758720703125,-0.060525417968746,0.0786898876343097,0.546897999999828,
-0.0230801040039065,0.0327526787109375,-0.0844674345703087,0.0934889119974257,0.549998999999843,
-0.0206859023437502,0.01838746875,-0.113197854492183,0.116532226548886,0.553016999999954,
0.0224097275390623,0.0351468803710937,-0.10362104785156,0.111690736617009,0.556128999999828,
-0.0230801040039065,0.00402225878906243,-0.0820732329101528,0.0853515396868827,0.559115999999904,
-0.0254743056640627,0.0207816704101562,-0.125168862792965,0.12941430480046,0.562027999999827,
-0.027868507324219,0.0303584770507812,-0.00545877978515286,0.0415702911472322,0.565028999999868,
-0.0158974990234377,0.0112048637695312,-0.0844674345703087,0.0866777188796714,0.567965999999842,
-0.0230801040039065,0.00402225878906243,-0.0677080229492155,0.0716466756960072,0.570964999999887,
-0.0518105239257815,0.0231758720703125,-0.144322476074215,0.155082005841671,0.573887000000013,
-0.018291700683594,0.0351468803710937,-0.13474566943359,0.140450293502094,0.576802999999927,
-0.018291700683594,0.0447236870117187,-0.0317949980468715,0.0578421679626631,0.579819000000043,
-0.0326569106445315,0.0231758720703125,0.0472136567382844,0.0619089996823155,0.582750000000033,
0.0056503159179685,-0.0199197578125001,-0.0629196196289037,0.0662389715766136,0.585779000000002,
-0.0494163222656252,-0.0103429511718751,-0.149110879394527,0.157426185556956,0.588672999999972,
-0.0613873305664064,0.0112048637695312,-0.153899282714841,0.166069089677476,0.591621000000032,
-0.0613873305664064,0.0566946953124999,-0.0461602080078087,0.0954644312504434,0.594634000000042,
0.0391691391601561,-0.0199197578125001,0.0615788666992216,0.0756503472418788,0.59756799999991,
0.0367749374999998,0.03754108203125,0.0256658417968776,0.0584847356439976,0.60059699999988,
-0.0422337172851565,0.00881066210937498,-0.101226846191404,0.110037216578693,0.603505000000041,
-0.0542047255859377,0.0590888969726562,-0.201783315917965,0.217131657305288,0.606408999999985,
-0.0302627089843752,0.0255700737304687,-0.115592056152341,0.122193222689233,0.609404999999924,
-0.0254743056640627,0.0159932670898437,-0.0724964262695273,0.0784885766409749,0.612311999999974,
0.0152271225585936,0.0112048637695312,-0.00306457812499694,0.0191521767063797,0.615346999999929,
-0.0398395156250002,0.0686657036132812,-0.0844674345703087,0.11591770080894,0.618254999999863,
-0.0254743056640627,0.0112048637695312,-0.108409451171871,0.111924520658103,0.621179999999868,
-0.0230801040039065,0.00641646044921873,-0.17305289599609,0.174703082337322,0.624178000000029,
-0.0158974990234377,0.0135990654296875,-0.022218191406246,0.0305174226488036,0.627097000000049,
-0.0470221206054689,0.00641646044921873,0.0184832368164098,0.0509301564315597,0.630126000000018,
-0.0470221206054689,-0.00794874951171881,0.0184832368164098,0.0511457963888217,0.633039999999937,
-0.00632069238281274,0.0255700737304687,-0.0485544096679646,0.0552386687111872,0.635955999999851,
-0.0111090957031252,0.0255700737304687,-0.0940442412109341,0.0980895508342411,0.638954000000012,
-0.0254743056640627,0.0255700737304687,-0.0461602080078087,0.0585963627111092,0.641867999999931,
-0.0111090957031252,0.0303584770507812,-0.0150355864257783,0.0356527417648496,0.644878999999946,
-0.0254743056640627,0.0112048637695312,-0.110803652832027,0.114245081741317,0.647793999999976,
-0.0230801040039065,0.0566946953124999,-0.000670376464841027,0.0612162485130619,0.650768999999855,
-0.00871489404296899,0.0566946953124999,-0.00545877978515286,0.0576197546983686,0.653695999999854,
-0.0494163222656252,0.0519062919921874,-0.110803652832027,0.131960924275176,0.656600000000026,
-0.037445313964844,-0.0151313544921876,-0.0748906279296833,0.0850865181941078,0.659568000000036,
-0.037445313964844,-0.0103429511718751,-0.060525417968746,0.0719197775105077,0.662462000000005,
-0.0613873305664064,0.0327526787109375,-0.00785298144530877,0.070020080222687,0.665434999999889,
-0.0446279189453127,0.00641646044921873,-0.0940442412109341,0.104293534886042,0.668357999999898,
-0.00632069238281274,0.00881066210937498,-0.0246123930664037,0.0268951447562359,0.671258999999964,
-0.0302627089843752,0.01838746875,-0.117986257812497,0.123185581927035,0.674258999999893,
-0.0422337172851565,0.00641646044921873,-0.0629196196289037,0.0760508801702178,0.677169999999933,
-0.037445313964844,0.0327526787109375,-0.0485544096679646,0.0695156111882229,0.680168999999978,
-0.0326569106445315,0.0471178886718749,-0.0437660063476528,0.0721251173819697,0.683088999999882,
-0.0111090957031252,0.0423294853515625,-0.0485544096679646,0.0653661076986681,0.686040000000048,
-0.0230801040039065,-0.0199197578125001,-0.077284829589841,0.0830808812957022,0.689118000000008,
-0.0470221206054689,0.0543004936523437,-0.10362104785156,0.12608308766436,0.692137999999886,
0.0056503159179685,0.00162805712890618,-0.0653138212890596,0.0655779832822499,0.695262999999841,
0.000861912597656,0.0112048637695312,-0.10362104785156,0.104228659318227,0.698222999999871,
-0.037445313964844,0.00641646044921873,-0.00785298144530877,0.0387942240572291,0.701129000000037,
-0.0470221206054689,-0.00555454785156256,-0.0748906279296833,0.088603267319963,0.704101999999921,
-0.00871489404296899,0.027964275390625,-0.0533428129882783,0.0608556141519032,0.707043999999996,
0.0056503159179685,0.0303584770507812,-0.077284829589841,0.0832256455880422,0.710088999999925,
-0.0206859023437502,0.01838746875,-0.13474566943359,0.137558718349342,0.713013000000046,
-0.00392649072265649,0.0806367119140625,0.0256658417968776,0.0847138245674752,0.71592499999997,
-0.0350511123046877,-0.0462559760742188,-0.0437660063476528,0.0726887825458463,0.718906999999945,
-0.0302627089843752,-0.0151313544921876,-0.060525417968746,0.0693405773276559,0.721798999999919,
-0.0398395156250002,-0.0127371528320313,-0.060525417968746,0.073571382260989,0.724798999999848,
-0.0494163222656252,0.0399352836914062,-0.0677080229492155,0.0928502889681272,0.727736999999934,
-0.0446279189453127,0.0231758720703125,-0.0868616362304646,0.100367903456446,0.730665000000045,
-0.0518105239257815,0.00881066210937498,-0.09643844287109,0.10982864571536,0.733674999999948,
-0.0111090957031252,-0.0103429511718751,-0.038977603027341,0.0418287243893711,0.736568000000034,
-0.00392649072265649,0.027964275390625,-0.0341891997070274,0.0443432002016636,0.739572999999837,
-0.0302627089843752,0.00881066210937498,-0.0270065947265596,0.0415068124601637,0.742485999999872,
-0.0542047255859377,0.00641646044921873,-0.0653138212890596,0.0851188492163893,0.745465999999851,
-0.00632069238281274,0.0135990654296875,-0.0820732329101528,0.0834320159955593,0.748387999999977,
-0.0398395156250002,-0.00316034619140632,-0.038977603027341,0.0558249794540146,0.751271999999972,
-0.0158974990234377,-0.000766144531250068,-0.0270065947265596,0.0313476252907235,0.754245999999966,
-0.0661757338867189,0.0207816704101562,-0.0581312163085901,0.0905005187277857,0.757172999999966,
-0.0398395156250002,0.0231758720703125,-0.0701022246093714,0.0838965431149394,0.760148999999956,
-0.0542047255859377,0.0207816704101562,-0.022218191406246,0.0621584920203809,0.763080999999829,
-0.0111090957031252,0.0399352836914062,0.013694833496098,0.0436553244786949,0.766002999999955,
0.00325611425781225,-0.000766144531250068,0.0184832368164098,0.0187834847862206,0.769015999999965,
-0.018291700683594,0.0303584770507812,-0.0940442412109341,0.100501456445573,0.771930999999995,
-0.0254743056640627,0.0351468803710937,-0.120380459472653,0.12796756804649,0.774936000000025,
-0.0422337172851565,0.0471178886718749,-0.077284829589841,0.0998835681849046,0.777851999999939,
-0.0206859023437502,-0.00316034619140632,0.0256658417968776,0.0331154009332071,0.780753000000004,
-0.00871489404296899,0.01838746875,-0.038977603027341,0.0439693293440938,0.783768000000009,
-0.0542047255859377,0.0327526787109375,-0.038977603027341,0.074364936471066,0.786683999999923,
-0.0565989272460939,0.0447236870117187,-0.0629196196289037,0.0957210806435904,0.789679999999862,
-0.0302627089843752,-0.00316034619140632,-0.0724964262695273,0.0786228412420687,0.792575999999826,
-0.0518105239257815,0.0231758720703125,-0.0198239897460901,0.0601202295831989,0.795478000000003,
-0.0398395156250002,0.0303584770507812,-0.0485544096679646,0.0697592634155636,0.798473999999942,
-0.037445313964844,0.0351468803710937,0.0184832368164098,0.0545809928542638,0.801412000000028,
-0.0446279189453127,0.0327526787109375,-0.0341891997070274,0.0650637417363795,0.80440899999985,
-0.0206859023437502,0.0303584770507812,-0.0820732329101528,0.0899197377940025,0.807326999999987,
-0.0470221206054689,0.027964275390625,-0.0509486113281223,0.0747585548323538,0.81022599999983,
-0.0111090957031252,0.0614830986328125,-0.0653138212890596,0.0903851684526425,0.813227999999981,
-0.0565989272460939,0.0159932670898437,-0.0557370146484342,0.0810298584444986,0.81613799999991,
0.0224097275390623,0.0327526787109375,-0.00785298144530877,0.0404549523383389,0.819152999999915,
-0.0542047255859377,0.0255700737304687,-0.0509486113281223,0.078662201486435,0.822075999999925,
-0.0542047255859377,0.0231758720703125,-0.0485544096679646,0.0763727963365938,0.825067999999874,
-0.0733583388671877,0.00641646044921873,-0.0820732329101528,0.110266188863013,0.828160999999909,
-0.0302627089843752,0.03754108203125,-0.060525417968746,0.0773853385044055,0.831177999999909,
-0.0302627089843752,0.00162805712890618,-0.0796790312499969,0.0852480506875433,0.834282999999914,
-0.0518105239257815,0.0135990654296875,-0.022218191406246,0.0579906285479773,0.837194999999838,
-0.037445313964844,-0.000766144531250068,-0.0437660063476528,0.0576038351760652,0.840144999999893,
-0.0111090957031252,0.0495120903320312,-0.0653138212890596,0.0827088528983907,0.843080999999984,
-0.0470221206054689,0.0303584770507812,-0.132351467773434,0.143699784192115,0.846015999999963,
-0.027868507324219,0.0566946953124999,-0.0581312163085901,0.0858497553087563,0.849017000000003,
-0.018291700683594,0.0135990654296875,-0.0509486113281223,0.0558147103434497,0.851959999999963,
-0.018291700683594,0.0303584770507812,-0.022218191406246,0.0418314650963313,0.854961000000003,
-0.00392649072265649,0.00162805712890618,-0.0724964262695273,0.0726209317019763,0.857888999999886,
0.0224097275390623,-0.000766144531250068,-0.0868616362304646,0.0897091228050489,0.860805999999911,
-0.0637815322265627,0.00402225878906243,-0.137139871093746,0.151299724595068,0.863807999999835,
-0.0158974990234377,-0.000766144531250068,-0.0341891997070274,0.037712316678374,0.86673699999983,
-0.0565989272460939,-0.00794874951171881,-0.0174297880859342,0.059752980653096,0.86973399999988,
-0.0542047255859377,0.0423294853515625,-0.0365834013671833,0.0778991839595729,0.872650999999905,
-0.0494163222656252,0.0255700737304687,-0.101226846191404,0.115510501542933,0.875564999999824,
-0.0542047255859377,-0.00794874951171881,-0.117986257812497,0.130084941200909,0.878541000000041,
-0.027868507324219,0.0159932670898437,-0.0677080229492155,0.0749454112296318,0.881456999999955,
-0.00871489404296899,0.0255700737304687,-0.00545877978515286,0.0275604122883635,0.884450000000015,
-0.018291700683594,0.0303584770507812,0.0304542451171912,0.0467299099977623,0.887381999999889,
-0.0326569106445315,0.027964275390625,-0.0437660063476528,0.0613509398672132,0.890288999999939,
-0.0589931289062502,-0.0103429511718751,-0.125168862792965,0.138760261278138,0.893252999999959,
-0.0470221206054689,0.00162805712890618,-0.0820732329101528,0.09460309697137,0.896189999999933,
-0.0326569106445315,-0.000766144531250068,-0.0748906279296833,0.0817047547085843,0.899167000000034,
-0.0446279189453127,0.0351468803710937,-0.00306457812499694,0.0568888916071809,0.902078999999958,
-0.0158974990234377,0.0207816704101562,-0.0796790312499969,0.0838651078886478,0.904993999999988,
-0.0158974990234377,0.0399352836914062,-0.122774661132809,0.130081415947818,0.907997999999907,
-0.0230801040039065,0.0303584770507812,-0.0916500395507782,0.0992676084094563,0.910920000000033,
-0.0158974990234377,0.0327526787109375,-0.0940442412109341,0.100845365500267,0.913917999999967,
-0.0326569106445315,0.0159932670898437,-0.0820732329101528,0.0897678893891138,0.916835999999876,
-0.0254743056640627,0.0351468803710937,-0.0270065947265596,0.0511233763322681,0.919744999999921,
-0.0709641372070314,-0.000766144531250068,-0.0365834013671833,0.0798426014266417,0.922714999999926,
-0.0254743056640627,-0.0271023627929688,-0.108409451171871,0.11461277163307,0.925608999999895,
0.00325611425781225,0.0447236870117187,-0.156293484374997,0.16259908892137,0.928632999999991,
-0.0254743056640627,-0.000766144531250068,-0.0533428129882783,0.0591183805936131,0.931529999999839,
0.00325611425781225,0.0159932670898437,-0.038977603027341,0.0422568386184294,0.934526999999889,
-0.00632069238281274,0.0351468803710937,-0.0294007963867156,0.0462564717654862,0.937455,
-0.0254743056640627,0.0159932670898437,-0.10362104785156,0.107898315089386,0.940355999999838,
-0.027868507324219,0.00402225878906243,-0.00545877978515286,0.028681536621824,0.943352999999888,
-0.0565989272460939,0.00641646044921873,-0.0940442412109341,0.109949665006517,0.94626100000005,
-0.0206859023437502,0.0231758720703125,-0.0437660063476528,0.0536702050826848,0.949243000000024,
-0.0613873305664064,0.0327526787109375,-0.0748906279296833,0.102224011213185,0.952160000000049,
-0.0302627089843752,0.03754108203125,-0.0629196196289037,0.0792719555037968,0.955066999999872,
-0.00153228906250025,0.00881066210937498,-0.0724964262695273,0.0730459273226759,0.958067000000028,
-0.0230801040039065,0.0447236870117187,-0.0509486113281223,0.0716146659352495,0.961020999999846,
-0.0518105239257815,0.00881066210937498,-0.00785298144530877,0.0531378158550943,0.964124999999967,
-0.0398395156250002,-0.00794874951171881,-0.163476089355465,0.168448215826083,0.967122999999901,
-0.027868507324219,-0.00794874951171881,-0.108409451171871,0.112216065795707,0.970108999999866,
-0.0230801040039065,0.01838746875,-0.0533428129882783,0.0609610195564821,0.973144000000048,
-0.0518105239257815,0.0231758720703125,-0.0365834013671833,0.0675262666765748,0.976059999999961,
-0.0230801040039065,0.0447236870117187,-0.098832644531246,0.110908931136284,0.979066999999986,
-0.0326569106445315,0.0351468803710937,-0.022218191406246,0.0528717792591612,0.982007999999951,
-0.0254743056640627,0.00162805712890618,-0.0150355864257783,0.0296253215720628,0.984944000000041,
-0.00153228906250025,0.0159932670898437,-0.0317949980468715,0.0356237898430066,0.987944999999854,
-0.00153228906250025,-0.0103429511718751,-0.0701022246093714,0.0708776865021539,0.99083399999995,
-0.027868507324219,0.0471178886718749,-0.0270065947265596,0.0610418323127664,0.99385099999995,
-0.037445313964844,0.0207816704101562,-0.108409451171871,0.116561736716422,0.99676199999999,
-0.0422337172851565,0.00641646044921873,-0.09643844287109,0.105476211080127,0.999692999999979,
0.00325611425781225,0.00402225878906243,-0.0485544096679646,0.0488294126938944,1.00273900000002,
-0.00871489404296899,0.027964275390625,-0.0246123930664037,0.0382585933975368,1.00568799999996,
