X,Y,Z,Magnitude,Seconds,
-0.230130663574219,0.367031114501953,0.00440533105468788,0.433233618583966,0.0,
-0.14633360546875,0.405338341064453,0.0427125576171878,0.433055489983176,0.00385800000003655,
-0.158304613769531,0.414915147705078,0.00201112939453019,0.44409343068468,0.00767099999984566,
-0.194217638671875,0.371819517822266,0.00440533105468788,0.419511205984492,0.0116680000000997,
-0.218159655273438,0.398155736083984,-0.0243250888671884,0.454657382337515,0.0155749999998989,
-0.18464083203125,0.395761534423828,0.0451067592773438,0.439037639292122,0.0194440000000213,
-0.199006041992188,0.395761534423828,-0.0362960971679698,0.444463725796072,0.0233979999998155,
-0.158304613769531,0.407732542724609,-0.0315076938476562,0.43851899834442,0.0274229999999989,
-0.196611840332031,0.383790526123047,-0.0434787021484375,0.433407177191456,0.0313089999999647,
-0.194217638671875,0.374213719482422,-0.014748282226563,0.421869542452145,0.0351690000002236,
-0.189429235351563,0.398155736083984,0.00440533105468788,0.440943116880351,0.0390120000001843,
-0.18464083203125,0.376607921142578,0.00919373437499971,0.419535800465568,0.0428670000001148,
-0.18464083203125,0.398155736083984,-0.00277727392578164,0.438893996632707,0.0467819999998937,
-0.16548721875,0.374213719482422,-0.0410845004882816,0.411229696883446,0.0507659999998396,
-0.16548721875,0.417309349365234,-0.0219308872070325,0.449459760658207,0.0546640000002299,
-0.218159655273438,0.376607921142578,-0.000383072265625728,0.435232476040932,0.0586419999999634,
-0.16548721875,0.414915147705078,0.0115879360351556,0.446849952026731,0.0627580000000307,
-0.213371251953125,0.402944139404297,0.00919373437499971,0.456043633210761,0.0667670000002545,
-0.16548721875,0.376607921142578,-0.0769975253906257,0.418507066551121,0.0706730000001698,
-0.218159655273438,0.395761534423828,-0.0482671054687511,0.454478317182305,0.0746380000000499,
-0.196611840332031,0.388578929443359,-0.0243250888671884,0.436166837476776,0.0788729999999305,
-0.143939403808594,0.359848509521484,-0.0171424838867189,0.3879476337438,0.0831349999998565,
-0.172669823730469,0.462799180908203,0.00201112939453019,0.493965580296701,0.0875099999998383,
-0.213371251953125,0.412520946044922,0.0139821376953115,0.464646448668632,0.0917100000001483,
-0.215765453613281,0.369425316162109,-0.0291134921875003,0.428809270680767,0.0959680000000844,
-0.167881420410156,0.371819517822266,0.0498951625976556,0.411002983448004,0.100213000000167,
-0.196611840332031,0.395761534423828,0.0714429775390624,0.447646631762039,0.104460000000017,
-0.172669823730469,0.395761534423828,-0.00995987890625116,0.431904224735579,0.108549000000039,
-0.189429235351563,0.369425316162109,-0.00517147558593756,0.415193019675293,0.112615000000005,
-0.175064025390625,0.388578929443359,0.0355299526367183,0.427672041321015,0.116677999999865,
-0.201400243652344,0.414915147705078,0.00201112939453019,0.461216524617009,0.120624000000134,
-0.187035033691406,0.412520946044922,-0.0362960971679698,0.454393047287664,0.124427000000196,
-0.175064025390625,0.402944139404297,-0.0171424838867189,0.439664937446739,0.128313000000162,
-0.215765453613281,0.381396324462891,-0.014748282226563,0.438446574984207,0.132261000000199,
-0.189429235351563,0.379002122802734,-0.0291134921875003,0.424704179073162,0.136104000000159,
-0.239707470214844,0.431674559326172,-0.014748282226563,0.493983914996105,0.140017000000171,
-0.189429235351563,0.393367332763672,-0.0243250888671884,0.437279091244802,0.143942000000152,
-0.179852428710938,0.400549937744141,0.0451067592773438,0.441386189716627,0.147868000000017,
-0.227736461914062,0.381396324462891,0.00440533105468788,0.444236940540337,0.151776000000154,
-0.170275622070313,0.376607921142578,-0.050661307128907,0.416405909874939,0.15575200000012,
-0.187035033691406,0.379002122802734,0.0259531459960929,0.423436274667179,0.159642000000076,
-0.187035033691406,0.436462962646484,0.11693280908203,0.489035073823858,0.163507000000209,
-0.194217638671875,0.388578929443359,0.0475009609374997,0.437001621128128,0.167406000000028,
-0.182246630371094,0.424491954345703,0.102567599121093,0.473209642732814,0.171204000000216,
-0.194217638671875,0.374213719482422,0.0786255825195301,0.428880381046607,0.175152000000253,
-0.210977050292969,0.410126744384766,0.0403183559570301,0.462969580034203,0.179254000000128,
-0.187035033691406,0.402944139404297,-0.0362960971679698,0.445716827119912,0.183117999999922,
-0.210977050292969,0.367031114501953,0.0331357509765624,0.42464235864507,0.187103000000207,
-0.196611840332031,0.417309349365234,-0.0434787021484375,0.463350522139445,0.191010000000006,
-0.18464083203125,0.381396324462891,-0.0339018955078121,0.42509379163429,0.194915000000037,
-0.131968395507812,0.369425316162109,0.0139821376953115,0.392538178791454,0.198812999999973,
-0.210977050292969,0.402944139404297,-0.0674207187500002,0.459805228925638,0.202781999999843,
-0.191823437011719,0.419703551025391,0.0427125576171878,0.463434638658477,0.206891000000269,
-0.153516210449219,0.374213719482422,-0.014748282226563,0.404747633159469,0.210794000000078,
-0.191823437011719,0.383790526123047,0.0163763393554675,0.429371148797261,0.214770000000044,
-0.199006041992188,0.395761534423828,0.0259531459960929,0.443738845117253,0.218710999999985,
-0.199006041992188,0.393367332763672,0.0115879360351556,0.440993813444765,0.222595000000183,
-0.158304613769531,0.369425316162109,0.0403183559570301,0.403931906129329,0.226493000000119,
-0.167881420410156,0.376607921142578,0.023558944335937,0.413004505356164,0.230387999999948,
-0.18464083203125,0.371819517822266,0.0786255825195301,0.422520973341336,0.234211999999843,
-0.196611840332031,0.400549937744141,-0.0171424838867189,0.446531446977018,0.238124999999854,
-0.14633360546875,0.419703551025391,0.0379241542968742,0.446097339503319,0.242008000000169,
-0.18464083203125,0.367031114501953,-0.014748282226563,0.411122351246405,0.245856000000003,
-0.172669823730469,0.419703551025391,0.0211647426757811,0.454327948846388,0.249810000000252,
-0.2037944453125,0.414915147705078,-0.0219308872070325,0.462782583454741,0.253939000000173,
-0.179852428710938,0.362242711181641,0.0187705410156251,0.404869128395174,0.257872000000134,
-0.199006041992188,0.362242711181641,0.0666545742187488,0.418647845829767,0.261874000000262,
-0.196611840332031,0.443645567626953,-0.00277727392578164,0.4852682955688,0.265867999999955,
-0.2037944453125,0.407732542724609,-0.0267192905273443,0.456609157620814,0.269764000000123,
-0.172669823730469,0.367031114501953,0.00201112939453019,0.405623904227917,0.273654999999962,
-0.194217638671875,0.386184727783203,-0.0482671054687511,0.434958444698568,0.277634999999918,
-0.206188646972656,0.381396324462891,0.0139821376953115,0.433788444554195,0.281688999999915,
-0.215765453613281,0.429280357666016,0.0187705410156251,0.480820849860763,0.285635000000184,
-0.18464083203125,0.367031114501953,-0.0267192905273443,0.411725632371878,0.289674999999988,
-0.18464083203125,0.398155736083984,-0.053055508789063,0.4420804384302,0.293694999999843,
-0.218159655273438,0.453222374267578,0.0259531459960929,0.503664294458978,0.297700999999961,
-0.189429235351563,0.419703551025391,-0.0386902988281257,0.462094627941734,0.301641000000018,
-0.194217638671875,0.381396324462891,-0.0243250888671884,0.428690281477757,0.305629999999837,
-0.177458227050781,0.405338341064453,-0.053055508789063,0.4456517475538,0.309589999999844,
0.672483362304688,0.960793126220703,6.73929460107422,6.84057373500481,0.313576000000012,
-0.754460827148438,0.314358677978516,-6.74245494726563,6.79181354529323,0.317047000000002,
-1.44159670361328,3.20655428344727,3.57655420800781,5.01517012985413,0.319993000000068,
-0.476733434570313,0.359848509521484,-8.16221653173828,8.18404205930198,0.322962000000189,
1.05555562792969,4.2552146105957,9.32203964196778,10.3015276610947,0.326058999999987,
-0.455185619628906,-0.212365687255859,-1.66195902441406,1.73620302161699,0.329049999999825,
-0.153516210449219,1.50667110473633,0.504793478027343,1.59638388245967,0.332158000000163,
0.377996558105469,-0.142933839111328,0.339593563476562,0.527859137135462,0.335207999999966,
0.0715387456054688,-0.0351947644042969,-0.503165420898439,0.509442739031759,0.338207000000239,
-0.0912669672851563,-0.219548292236328,0.224671883789062,0.327121639924117,0.341275000000223,
-0.486310241210938,0.321541282958984,-0.00995987890625116,0.5830828813654,0.344267999999829,
-0.531800072753906,0.441251365966797,0.0714429775390624,0.69470726524794,0.347360000000208,
-0.345052343261719,0.75249758178711,0.0570777675781251,0.829802146139399,0.350386000000071,
0.0428083256835937,0.553778843994141,0.114538607421874,0.567117847888304,0.353361999999834,
0.128999585449219,0.290416661376953,-0.050661307128907,0.321790767877849,0.356435000000147,
0.0284431157226562,0.206619603271484,0.0283473476562488,0.210485732075175,0.359465999999884,
-0.333081334960938,0.367031114501953,0.0187705410156251,0.495991278070417,0.362559000000147,
-0.522223266113281,0.474770189208984,0.0139821376953115,0.705917397721637,0.365544000000227,
-0.404907384765625,0.429280357666016,0.0259531459960929,0.590681963075473,0.368484999999964,
-0.0769017573242188,0.331118089599609,-0.0195366855468748,0.340491925927481,0.371528000000126,
0.0954807622070313,0.335906492919922,0.0570777675781251,0.353846887069958,0.37451800000008,
-0.0170467158203125,0.383790526123047,-0.0123540805664071,0.384367508731819,0.377543999999943,
-0.251678478515625,0.489135399169922,0.0475009609374997,0.552133893687976,0.380587000000105,
-0.345052343261719,0.491529600830078,-0.0123540805664071,0.600678858783311,0.383658000000196,
-0.345052343261719,0.388578929443359,0.0498951625976556,0.52205768957884,0.386667000000216,
-0.143939403808594,0.240138426513672,0.0307415493164065,0.281655922557309,0.389664000000266,
-0.0146525141601562,0.299993468017578,-0.00995987890625116,0.300516182945702,0.392710000000079,
-0.110420580566406,0.44603976928711,0.0163763393554675,0.459796003559193,0.395716999999877,
-0.266043688476563,0.534625230712891,-0.0195366855468748,0.59748227051117,0.398731000000225,
-0.289985705078125,0.489135399169922,0.0618661708984369,0.571990009504022,0.401741000000129,
-0.210977050292969,0.295205064697266,-0.00517147558593756,0.362883025413114,0.404724999999871,
-0.153516210449219,0.264080443115234,-0.0171424838867189,0.305940471432653,0.407786000000215,
-0.215765453613281,0.388578929443359,0.00919373437499971,0.444559152568081,0.410738000000038,
-0.206188646972656,0.479558592529297,-0.0267192905273443,0.522689317181229,0.41379599999982,
-0.189429235351563,0.510683214111328,0.0642603725585928,0.548461644841573,0.416783000000123,
-0.182246630371094,0.412520946044922,0.0355299526367183,0.452382297113606,0.41972399999986,
-0.143939403808594,0.299993468017578,0.00679953271484379,0.332807551697865,0.422805000000153,
-0.182246630371094,0.307176072998047,0.0163763393554675,0.357546023044314,0.425795000000107,
-0.225342260253906,0.374213719482422,-0.00517147558593756,0.436854422279258,0.428844000000026,
-0.242101671875,0.477164390869141,-0.014748282226563,0.535272442095446,0.431786000000102,
-0.201400243652344,0.431674559326172,-0.050661307128907,0.479031889703261,0.434745000000021,
-0.0840843623046875,0.271263048095703,0.14326902734375,0.318087779460925,0.437815000000228,
-0.139151000488281,0.230561619873047,0.0355299526367183,0.271632175983885,0.440777000000253,
-0.234919066894531,0.405338341064453,0.0522893642578115,0.471402499295418,0.44379200000003,
-0.354629149902344,0.532231029052734,-0.0602381137695325,0.642386435564686,0.446793999999954,
-0.249284276855469,0.460404979248047,-0.108122146972656,0.534608075387685,0.44981000000007,
-0.105632177246094,0.379002122802734,-0.0793917270507816,0.401377393836318,0.452879999999823,
-0.14633360546875,0.357454307861328,0.0427125576171878,0.388601941421175,0.455875000000106,
-0.199006041992188,0.398155736083984,-0.0195366855468748,0.445548063634142,0.458928999999898,
-0.215765453613281,0.357454307861328,-0.00756567724609347,0.417594962438196,0.46186200000011,
-0.249284276855469,0.405338341064453,0.0115879360351556,0.476000106812794,0.464890000000196,
-0.196611840332031,0.419703551025391,-0.0362960971679698,0.464892130683772,0.467947000000095,
-0.153516210449219,0.419703551025391,-0.0243250888671884,0.447560060285106,0.470957999999882,
-0.136756798828125,0.343089097900391,0.00440533105468788,0.369366969375337,0.474028000000089,
-0.218159655273438,0.410126744384766,0.0163763393554675,0.464828749260798,0.477065000000039,
-0.258861083496094,0.436462962646484,0.0522893642578115,0.510140329640192,0.480137999999897,
-0.18464083203125,0.338300694580078,0.0403183559570301,0.387511505162922,0.483150000000023,
-0.151122008789062,0.314358677978516,-0.0817859287109375,0.358257139630116,0.486128999999892,
-0.18464083203125,0.443645567626953,0.0163763393554675,0.480813696787975,0.489320000000134,
-0.208582848632813,0.438857164306641,-0.0339018955078121,0.487084955552999,0.492307999999866,
-0.225342260253906,0.469981785888672,0.112144405761718,0.533140113916683,0.495344999999816,
-0.239707470214844,0.374213719482422,0.023558944335937,0.445028766467846,0.498343000000204,
-0.167881420410156,0.352665904541016,-0.0578439121093748,0.394845956941161,0.501349000000118,
-0.170275622070313,0.369425316162109,0.0738371791992183,0.413425665295472,0.504440000000159,
-0.213371251953125,0.422097752685547,0.0187705410156251,0.473335121443837,0.507403999999951,
-0.210977050292969,0.438857164306641,-0.0243250888671884,0.487543471253574,0.510432999999921,
-0.189429235351563,0.419703551025391,0.00440533105468788,0.460493119265534,0.513418000000001,
-0.163093017089844,0.350271702880859,0.0786255825195301,0.394298846421164,0.516382000000249,
-0.2037944453125,0.367031114501953,0.0451067592773438,0.422230546840562,0.519440999999915,
-0.218159655273438,0.398155736083984,0.00919373437499971,0.454099273416466,0.522500000000036,
-0.239707470214844,0.458010777587891,0.0379241542968742,0.518335591236602,0.525556999999935,
-0.179852428710938,0.407732542724609,0.0570777675781251,0.44927785841459,0.528596999999991,
-0.139151000488281,0.367031114501953,0.0139821376953115,0.39277263158724,0.531577000000198,
-0.148727807128906,0.386184727783203,0.0427125576171878,0.416032411194803,0.53464299999996,
-0.170275622070313,0.376607921142578,0.0546835659179692,0.416914387039199,0.537647000000106,
-0.215765453613281,0.424491954345703,0.00919373437499971,0.47626954031193,0.540696000000025,
-0.208582848632813,0.390973131103516,-0.0339018955078121,0.444427870984357,0.543713999999909,
-0.143939403808594,0.371819517822266,-0.000383072265625728,0.398708480655624,0.54669100000001,
-0.160698815429688,0.398155736083984,0.0570777675781251,0.433139666861379,0.549755000000005,
-0.199006041992188,0.383790526123047,0.00919373437499971,0.432415422300083,0.55271300000004,
-0.258861083496094,0.417309349365234,0.0714429775390624,0.496246161351455,0.555807000000186,
-0.179852428710938,0.424491954345703,0.0307415493164065,0.462044757866411,0.558751000000029,
-0.179852428710938,0.381396324462891,0.0115879360351556,0.421834484944724,0.561745999999857,
-0.16548721875,0.386184727783203,0.0331357509765624,0.421453012250924,0.564836000000014,
-0.177458227050781,0.386184727783203,0.0355299526367183,0.426488503778661,0.567813000000115,
-0.22294805859375,0.422097752685547,-0.0219308872070325,0.477863279052282,0.570862999999918,
-0.227736461914062,0.419703551025391,-0.0243250888671884,0.478128305768289,0.57378800000015,
-0.175064025390625,0.402944139404297,0.0259531459960929,0.440096532880382,0.576817000000119,
-0.187035033691406,0.359848509521484,0.00919373437499971,0.405656971324957,0.579829000000245,
-0.2037944453125,0.381396324462891,0.00679953271484379,0.432483023827725,0.582776000000194,
-0.227736461914062,0.422097752685547,-0.00517147558593756,0.479642734821513,0.585848000000169,
-0.237313268554687,0.44603976928711,0.0211647426757811,0.505684693806664,0.588830000000144,
-0.196611840332031,0.390973131103516,0.0642603725585928,0.442318437875931,0.591863000000103,
-0.182246630371094,0.395761534423828,-0.00517147558593756,0.435738190397464,0.594853999999941,
-0.18464083203125,0.371819517822266,0.0810197841796878,0.42297304419466,0.597847000000002,
-0.208582848632813,0.426886156005859,0.0570777675781251,0.478535752567078,0.600895999999921,
-0.220553856933594,0.419703551025391,0.0498951625976556,0.47674374857176,0.603857999999946,
-0.220553856933594,0.410126744384766,0.0714429775390624,0.471117871989143,0.606968999999935,
-0.177458227050781,0.388578929443359,0.0331357509765624,0.428465850153936,0.609991000000264,
-0.206188646972656,0.347877501220703,-0.0339018955078121,0.405810118793257,0.613002000000051,
-0.199006041992188,0.400549937744141,0.0427125576171878,0.449297251220651,0.616108000000168,
-0.220553856933594,0.412520946044922,0.0307415493164065,0.468788414520298,0.619106999999985,
-0.2037944453125,0.395761534423828,-0.0386902988281257,0.446829170145753,0.622181000000182,
-0.194217638671875,0.383790526123047,-0.00995987890625116,0.430249762697101,0.625167000000147,
-0.189429235351563,0.357454307861328,-0.0219308872070325,0.405139458986886,0.628154999999879,
-0.182246630371094,0.400549937744141,0.0187705410156251,0.440461598914675,0.631315000000086,
-0.208582848632813,0.417309349365234,-0.00995987890625116,0.466640222226118,0.634260000000268,
-0.155910412109375,0.395761534423828,0.0211647426757811,0.425891060091839,0.637333000000126,
-0.22294805859375,0.407732542724609,0.0307415493164065,0.465721704542284,0.640312999999878,
-0.201400243652344,0.362242711181641,-0.00756567724609347,0.414534774680775,0.643305000000055,
-0.234919066894531,0.383790526123047,0.0738371791992183,0.455997878245612,0.646384000000126,
-0.160698815429688,0.417309349365234,-0.0123540805664071,0.447352015369084,0.649319000000105,
-0.182246630371094,0.424491954345703,-0.00517147558593756,0.461989174922518,0.652364000000034,
-0.208582848632813,0.426886156005859,0.0355299526367183,0.476446190526911,0.655342999999903,
-0.134362597167969,0.381396324462891,0.0427125576171878,0.406621232118695,0.658276999999998,
-0.196611840332031,0.383790526123047,0.00440533105468788,0.431243307939097,0.661376000000018,
-0.2037944453125,0.414915147705078,0.0498951625976556,0.464947613163035,0.664392000000134,
-0.158304613769531,0.410126744384766,-0.088968533691407,0.44853059782758,0.667457999999897,
-0.170275622070313,0.379002122802734,0.0139821376953115,0.415730557855616,0.670478000000003,
-0.167881420410156,0.402944139404297,0.0355299526367183,0.437961788668336,0.673487999999907,
-0.189429235351563,0.376607921142578,0.0307415493164065,0.42268428445778,0.676511000000119,
-0.232524865234375,0.405338341064453,0.0403183559570301,0.469033637936796,0.679463999999825,
-0.225342260253906,0.431674559326172,0.0331357509765624,0.488077900973364,0.682540000000245,
-0.155910412109375,0.422097752685547,-0.0315076938476562,0.45107350199042,0.685551999999916,
-0.22294805859375,0.383790526123047,0.0331357509765624,0.445083118939944,0.688595999999961,
-0.182246630371094,0.359848509521484,0.00919373437499971,0.403471571288746,0.691581000000042,
-0.18464083203125,0.390973131103516,0.0355299526367183,0.433837070376019,0.694563000000016,
-0.225342260253906,0.379002122802734,0.0163763393554675,0.441236816047804,0.697642000000087,
-0.179852428710938,0.390973131103516,-0.0267192905273443,0.431185349756221,0.700574999999844,
-0.179852428710938,0.376607921142578,0.0259531459960929,0.418155459330201,0.703692000000046,
-0.215765453613281,0.410126744384766,-0.0554497104492189,0.466726202201563,0.706666000000041,
-0.210977050292969,0.393367332763672,0.0331357509765624,0.447601555212566,0.709652000000006,
-0.191823437011719,0.381396324462891,0.0163763393554675,0.427232456388179,0.712699000000157,
-0.194217638671875,0.374213719482422,0.00201112939453019,0.421616465121548,0.715674999999919,
-0.170275622070313,0.393367332763672,0.0307415493164065,0.429740257378117,0.71874600000001,
-0.218159655273438,0.371819517822266,0.00440533105468788,0.431118076591911,0.721708000000035,
-0.189429235351563,0.386184727783203,0.0259531459960929,0.430924175425282,0.724637000000257,
-0.191823437011719,0.405338341064453,-0.0386902988281257,0.450102589358561,0.727714000000105,
-0.187035033691406,0.412520946044922,0.0211647426757811,0.453435310806597,0.730758000000151,
-0.160698815429688,0.422097752685547,0.0953849941406251,0.46161555347486,0.733842999999979,
-0.218159655273438,0.381396324462891,0.023558944335937,0.440013426341801,0.736805000000004,
-0.2037944453125,0.390973131103516,0.0546835659179692,0.444277455613743,0.739777000000231,
-0.189429235351563,0.436462962646484,0.0259531459960929,0.476504898983335,0.742811999999958,
-0.208582848632813,0.395761534423828,0.0211647426757811,0.447863755182102,0.745837999999821,
-0.187035033691406,0.393367332763672,-0.0123540805664071,0.435743715525757,0.748876999999993,
-0.177458227050781,0.381396324462891,0.0307415493164065,0.421781485506633,0.751892000000225,
-0.187035033691406,0.419703551025391,-0.0362960971679698,0.460923617577679,0.754860000000008,
-0.22294805859375,0.422097752685547,0.0211647426757811,0.477828730807853,0.758002000000033,
-0.210977050292969,0.381396324462891,0.0259531459960929,0.43663261198772,0.761018000000149,
-0.18464083203125,0.390973131103516,0.0307415493164065,0.43347118583875,0.76409700000022,
-0.2037944453125,0.381396324462891,-0.0362960971679698,0.433950157188195,0.767067000000225,
-0.220553856933594,0.371819517822266,0.0498951625976556,0.435181898626899,0.770206000000144,
-0.18464083203125,0.424491954345703,-0.0243250888671884,0.463548666383394,0.773201999999856,
-0.206188646972656,0.386184727783203,-0.00277727392578164,0.437790035706456,0.776165000000219,
-0.177458227050781,0.379002122802734,0.0642603725585928,0.423395119148007,0.779242999999951,
-0.187035033691406,0.434068760986328,0.0163763393554675,0.472933375416492,0.782244999999875,
-0.129574193847656,0.422097752685547,-0.0434787021484375,0.4436737338112,0.785290000000259,
-0.199006041992188,0.367031114501953,0.0187705410156251,0.417932502890074,0.788284000000203,
-0.191823437011719,0.405338341064453,-0.00995987890625116,0.448547211463519,0.791216999999961,
-0.155910412109375,0.379002122802734,-0.0171424838867189,0.410176218772981,0.794267000000218,
-0.175064025390625,0.390973131103516,0.0187705410156251,0.428788683900212,0.797235000000001,
-0.237313268554687,0.359848509521484,-0.0291134921875003,0.432037188982956,0.800289000000248,
-0.182246630371094,0.405338341064453,-0.0554497104492189,0.447870154628999,0.803339999999935,
-0.208582848632813,0.386184727783203,-0.0386902988281257,0.440615918845626,0.806293000000096,
-0.160698815429688,0.369425316162109,0.023558944335937,0.403551976033079,0.809416999999939,
-0.175064025390625,0.388578929443359,0.0187705410156251,0.426606763428964,0.81240200000002,
-0.177458227050781,0.395761534423828,-0.0578439121093748,0.437566603668089,0.815464000000247,
-0.208582848632813,0.402944139404297,-0.0434787021484375,0.455808273032161,0.818452999999863,
-0.215765453613281,0.402944139404297,-0.000383072265625728,0.457076423804133,0.821408000000247,
-0.201400243652344,0.417309349365234,0.0211647426757811,0.463850296478714,0.824515000000247,
-0.194217638671875,0.407732542724609,0.0163763393554675,0.451923115207266,0.827505000000201,
-0.249284276855469,0.374213719482422,-0.0171424838867189,0.449969358167897,0.83055800000011,
-0.201400243652344,0.417309349365234,0.0211647426757811,0.463850296478714,0.833533999999872,
-0.18464083203125,0.410126744384766,0.0139821376953115,0.449990759335533,0.836525000000165,
-0.163093017089844,0.357454307861328,0.0139821376953115,0.393151897625612,0.839567999999872,
-0.187035033691406,0.412520946044922,0.00679953271484379,0.452992128407198,0.842572999999902,
-0.191823437011719,0.388578929443359,0.0618661708984369,0.437741063296523,0.845663999999942,
-0.172669823730469,0.374213719482422,0.0403183559570301,0.41409702450399,0.848652000000129,
-0.175064025390625,0.417309349365234,0.0498951625976556,0.455284562997968,0.851611000000048,
-0.177458227050781,0.383790526123047,-0.0267192905273443,0.423675006079066,0.854625999999826,
-0.179852428710938,0.379002122802734,0.0522893642578115,0.422757238633105,0.857610999999906,
-0.170275622070313,0.395761534423828,-0.0267192905273443,0.431665263934011,0.86067200000025,
-0.220553856933594,0.414915147705078,0.0331357509765624,0.471058978893505,0.863644000000022,
-0.189429235351563,0.362242711181641,0.0211647426757811,0.409330139792607,0.866695000000163,
-0.239707470214844,0.419703551025391,0.0331357509765624,0.484467460220915,0.869680000000244,
-0.167881420410156,0.364636912841797,-0.0243250888671884,0.402164095207571,0.872705000000224,
-0.18464083203125,0.393367332763672,0.00201112939453019,0.434550503371287,0.875766000000112,
-0.210977050292969,0.414915147705078,0.0211647426757811,0.46595476376788,0.87876499999993,
-0.206188646972656,0.417309349365234,0.0618661708984369,0.469561789661046,0.88179799999989,
-0.182246630371094,0.362242711181641,-0.0578439121093748,0.409609001675941,0.884770000000117,
-0.16548721875,0.371819517822266,-0.000383072265625728,0.406983931067988,0.887776000000031,
-0.206188646972656,0.395761534423828,0.0139821376953115,0.446471108185567,0.890871000000061,
-0.187035033691406,0.395761534423828,-0.0171424838867189,0.43806752985271,0.89391599999999,
-0.196611840332031,0.400549937744141,0.0546835659179692,0.449540610809622,0.896995000000061,
-0.172669823730469,0.388578929443359,-0.0602381137695325,0.429461386838176,0.899993999999879,
-0.249284276855469,0.402944139404297,-0.0339018955078121,0.475032597498999,0.902959999999894,
-0.182246630371094,0.402944139404297,0.0379241542968742,0.44386490652114,0.906035999999858,
-0.182246630371094,0.412520946044922,0.0187705410156251,0.451375340949674,0.90907100000004,
-0.2037944453125,0.371819517822266,0.0355299526367183,0.425493016756068,0.912217999999939,
-0.187035033691406,0.381396324462891,0.00679953271484379,0.424842904832937,0.915191999999934,
-0.18464083203125,0.374213719482422,0.0355299526367183,0.418796516504649,0.918157999999949,
-0.18464083203125,0.417309349365234,0.00201112939453019,0.456336909051053,0.921256999999969,
-0.18464083203125,0.405338341064453,0.0307415493164065,0.446471108185567,0.924262999999883,
-0.199006041992188,0.386184727783203,-0.0219308872070325,0.434997715552703,0.92732100000012,
-0.187035033691406,0.400549937744141,0.0115879360351556,0.442217861145765,0.930290000000241,
-0.199006041992188,0.379002122802734,-0.0267192905273443,0.428905507454334,0.933223999999882,
-0.177458227050781,0.388578929443359,-0.0315076938476562,0.428343018534155,0.936301000000185,
-0.158304613769531,0.438857164306641,-0.00995987890625116,0.466642433338218,0.939253999999892,
-0.199006041992188,0.431674559326172,-0.00995987890625116,0.475442456146554,0.942331000000195,
-0.199006041992188,0.402944139404297,0.0546835659179692,0.452722516130102,0.945377999999891,
-0.18464083203125,0.352665904541016,-0.0458729038085934,0.400711617479151,0.948331999999937,
-0.189429235351563,0.367031114501953,0.00679953271484379,0.413087772590237,0.951422999999977,
-0.218159655273438,0.405338341064453,0.0307415493164065,0.461343525781257,0.954388000000108,
-0.206188646972656,0.412520946044922,-0.000383072265625728,0.461180480734574,0.95746599999984,
-0.189429235351563,0.395761534423828,0.00679953271484379,0.438813013686377,0.960450999999921,
-0.201400243652344,0.379002122802734,0.0211647426757811,0.429712245071902,0.963506000000052,
-0.155910412109375,0.414915147705078,0.0475009609374997,0.445779068249315,0.96651699999984,
-0.213371251953125,0.400549937744141,0.104961800781249,0.465815975906925,0.969485000000077,
-0.218159655273438,0.414915147705078,0.0331357509765624,0.469942754999939,0.972537000000102,
-0.155910412109375,0.434068760986328,0.0307415493164065,0.462243213820056,0.975507000000107,
-0.208582848632813,0.417309349365234,-0.014748282226563,0.466766975738482,0.978550000000268,
-0.189429235351563,0.390973131103516,-0.014748282226563,0.434696372516955,0.981498000000101,
-0.196611840332031,0.431674559326172,-0.0123540805664071,0.474501595608312,0.984498000000258,
-0.239707470214844,0.412520946044922,-0.014748282226563,0.47733710732692,0.987578000000212,
-0.208582848632813,0.419703551025391,-0.0267192905273443,0.469437744512929,0.990553000000091,
-0.175064025390625,0.390973131103516,0.0355299526367183,0.429848554452872,0.993601000000126,
-0.143939403808594,0.390973131103516,0.0139821376953115,0.416862137148711,0.996578000000227,
-0.167881420410156,0.398155736083984,-0.0410845004882816,0.434050800800877,0.999542999999903,
-0.201400243652344,0.390973131103516,-0.053055508789063,0.442986381733092,1.00259300000016,
-0.14633360546875,0.398155736083984,-0.0243250888671884,0.424892014769,1.00553100000025,
-0.177458227050781,0.422097752685547,-0.0267192905273443,0.458663117828849,1.00862300000017,
-0.167881420410156,0.390973131103516,-0.0362960971679698,0.427038133231033,1.01164700000027,
-0.227736461914062,0.328723887939453,0.0211647426757811,0.400463777287906,1.01463700000022,
-0.187035033691406,0.405338341064453,-0.0195366855468748,0.446836610683352,1.01769100000001,
-0.206188646972656,0.352665904541016,0.0139821376953115,0.408757261147344,1.02068400000007,
-0.201400243652344,0.412520946044922,-0.00995987890625116,0.4591674947738,1.02370999999994,
-0.208582848632813,0.347877501220703,0.00679953271484379,0.405674492967551,1.02674800000023,
-0.2037944453125,0.407732542724609,0.0211647426757811,0.456317815419732,1.0297129999999,
-0.206188646972656,0.376607921142578,-0.00517147558593756,0.429387969751698,1.03278499999988,
-0.177458227050781,0.376607921142578,-0.014748282226563,0.416584277720578,1.03575799999999,
