X,Y,Z,Magnitude,Seconds,
-0.368946475830078,0.292571442871094,-0.0429040937499998,0.472821649749265,0.0,
-0.390494290771485,0.299754047851563,0.00497993945312558,0.492303849391286,0.00379799999973329,
-0.373734879150391,0.282994636230469,0.0193451494140628,0.469188617545892,0.00760100000024977,
-0.373734879150391,0.290177241210938,-0.0237504804687489,0.473755925063576,0.0113540000002104,
-0.371340677490235,0.287783039550781,0.0576523759765628,0.473325229697019,0.0151690000002418,
-0.349792862548828,0.297359846191406,-0.0117794721679676,0.459256661118417,0.0189709999995102,
-0.428801517333985,0.318907661132813,0.0169509477539069,0.5346589307464,0.0227489999997488,
-0.383311685791016,0.311725056152344,0.0169509477539069,0.494355837152641,0.0266279999996186,
-0.373734879150391,0.290177241210938,-0.0141736738281235,0.473372458261076,0.0303979999998774,
-0.397676895751953,0.287783039550781,-0.00459686718749985,0.490904392377921,0.0341440000001967,
-0.385705887451172,0.306936652832031,0.0193451494140628,0.493308600444062,0.0378959999998187,
-0.388100089111328,0.268629426269531,0.00258573779296967,0.472006497694738,0.0416489999997793,
-0.388100089111328,0.285388837890625,-0.0117794721679676,0.48187884776709,0.0453969999998662,
-0.395282694091797,0.316513459472656,-0.00220266552734216,0.506393157547812,0.0491860000001907,
-0.383311685791016,0.290177241210938,0.00258573779296967,0.480767475834914,0.0529619999997522,
-0.359369669189453,0.29496564453125,0.0193451494140628,0.465323033378883,0.0566939999998795,
-0.36176387084961,0.235110603027344,-0.0357214887695303,0.432927382672759,0.060406999999941,
-0.366552274169922,0.287783039550781,-0.00220266552734216,0.466030577631612,0.0641869999999471,
-0.407253702392578,0.299754047851563,0.014556746093751,0.505885329074384,0.0682049999995797,
-0.397676895751953,0.285388837890625,-0.0285388837890626,0.490314358443027,0.0721100000000661,
-0.404859500732422,0.285388837890625,-0.0141736738281235,0.495538996604358,0.0759339999995063,
-0.352187064208985,0.297359846191406,-0.021356278808593,0.461426805644915,0.079754000000321,
-0.397676895751953,0.273417829589844,-0.0237504804687489,0.483185583678805,0.0835969999998269,
-0.36176387084961,0.304542451171875,0.100748005859376,0.483497014988208,0.0874659999999494,
-0.407253702392578,0.271023627929688,0.0193451494140628,0.489574937894583,0.0912859999998545,
-0.378523282470703,0.311725056152344,-0.0357214887695303,0.49165883574435,0.0950800000000527,
-0.378523282470703,0.261446821289062,0.0337103593750001,0.461270749195895,0.0989989999998215,
-0.349792862548828,0.287783039550781,0.0265277543945324,0.453737640378674,0.102812000000085,
-0.366552274169922,0.290177241210938,-0.0405098920898439,0.46925947233174,0.106573999999455,
-0.390494290771485,0.282994636230469,-0.0165678754882812,0.48254144874667,0.110313999999562,
-0.385705887451172,0.29496564453125,-0.00459686718749985,0.485587164426915,0.114039999999477,
-0.371340677490235,0.330878669433594,-0.00220266552734216,0.497372540838834,0.11777499999971,
-0.385705887451172,0.290177241210938,0.0121625444335951,0.482824803027336,0.12159100000008,
-0.340216055908203,0.271023627929688,0.0121625444335951,0.43514215962258,0.125355000000127,
-0.354581265869141,0.278206232910156,0.0384987626953137,0.452336972692364,0.129084000000148,
-0.366552274169922,0.287783039550781,0.014556746093751,0.466252663701845,0.132808999999725,
-0.385705887451172,0.244687409667969,0.00258573779296967,0.456779647209079,0.136687000000165,
-0.376129080810547,0.292571442871094,0.0193451494140628,0.476912328862353,0.140650000000278,
-0.356975467529297,0.290177241210938,0.00258573779296967,0.460044564987442,0.144412999999986,
-0.38091748413086,0.321301862792969,-0.0476924970703116,0.500607222308685,0.148277999999664,
-0.390494290771485,0.25665841796875,-0.0189620771484371,0.467673919530617,0.15204199999971,
-0.412042105712891,0.282994636230469,0.0432871660156255,0.501735428046688,0.155856999999742,
-0.388100089111328,0.302148249511719,0.0073741411132815,0.491904077852965,0.159676000000218,
-0.38091748413086,0.278206232910156,0.0432871660156255,0.47367775595684,0.163456999999653,
-0.38091748413086,0.29496564453125,-0.0285388837890626,0.482615094105277,0.16719699999976,
-0.376129080810547,0.302148249511719,0.0313161577148442,0.483474251484403,0.171053000000029,
-0.368946475830078,0.282994636230469,-0.0261446821289049,0.465715589782296,0.174818999999843,
-0.385705887451172,0.321301862792969,-0.0476924970703116,0.504260342408095,0.178554999999506,
-0.373734879150391,0.306936652832031,0.00976834277343741,0.483718191993879,0.182299000000057,
-0.409647904052735,0.326090266113281,-0.0117794721679676,0.523722276510351,0.186018000000331,
-0.36176387084961,0.3141192578125,0.00258573779296967,0.479114487800883,0.189744999999675,
-0.368946475830078,0.247081611328125,0.052863972656251,0.447174937008927,0.193543000000318,
-0.368946475830078,0.261446821289062,-0.0572693037109371,0.455802276801164,0.197264999999788,
-0.371340677490235,0.292571442871094,0.00258573779296967,0.472756421408017,0.201003000000128,
-0.359369669189453,0.306936652832031,0.0121625444335951,0.472762726398949,0.204716999999619,
-0.402465299072266,0.338061274414063,0.00976834277343741,0.525698737621014,0.208673999999519,
-0.390494290771485,0.273417829589844,0.0815943925781255,0.483632862368697,0.212537999999768,
-0.340216055908203,0.280600434570313,0.0313161577148442,0.442113413405206,0.216306999999688,
-0.368946475830078,0.306936652832031,-0.00220266552734216,0.479933810659961,0.220202999999856,
-0.376129080810547,0.280600434570313,-0.0141736738281235,0.469479054210325,0.223973000000115,
-0.345004459228516,0.287783039550781,0.0337103593750001,0.450536949727588,0.22783999999956,
-0.371340677490235,0.342849677734375,0.0217393510742188,0.505877850539633,0.231649000000289,
-0.392888492431641,0.299754047851563,-0.0117794721679676,0.494320354277629,0.235402999999678,
-0.356975467529297,0.306936652832031,0.0480755693359374,0.47323657258972,0.239190999999664,
-0.390494290771485,0.27581203125,-0.0333272871093744,0.479237702787924,0.243070999999873,
-0.407253702392578,0.27581203125,0.0289219560546883,0.492711207744195,0.246895999999651,
-0.404859500732422,0.261446821289062,-0.0309330854492185,0.482931166390066,0.250614999999925,
-0.392888492431641,0.338061274414063,0.000191536132813752,0.518311517747539,0.254382000000078,
-0.40007109741211,0.299754047851563,0.0337103593750001,0.501044669183415,0.258119999999508,
-0.36176387084961,0.27581203125,0.0193451494140628,0.455323631761186,0.261875999999575,
-0.371340677490235,0.287783039550781,-0.105153336914062,0.481425176819987,0.265596999999616,
-0.428801517333985,0.287783039550781,0.0313161577148442,0.51736884410934,0.269478000000163,
-0.376129080810547,0.278206232910156,-0.0165678754882812,0.46813063129819,0.273220000000038,
-0.40007109741211,0.299754047851563,-0.0165678754882812,0.50018383289159,0.277046999999584,
-0.366552274169922,0.278206232910156,0.00976834277343741,0.4602767626654,0.28107799999998,
-0.392888492431641,0.282994636230469,0.0241335527343765,0.484798679853819,0.284947999999531,
-0.390494290771485,0.278206232910156,0.00497993945312558,0.479488580627466,0.288778999999522,
-0.364158072509766,0.184832368164063,0.0169509477539069,0.408731501997239,0.292666000000281,
-0.385705887451172,0.527203205566406,-0.323025687988281,0.728737158840067,0.296543999999813,
-0.402465299072266,0.481713374023438,0.646625984375001,0.901194349371606,0.30041699999947,
-0.402465299072266,-1.07212350341797,-0.617512492187499,1.30105680181388,0.304229999999734,
-0.00263362182617211,1.27419412353516,-0.34936190625,1.32122342620546,0.307168999999703,
-0.38091748413086,2.12892411621094,0.352139180175781,2.19121382446259,0.310099000000264,
-0.823844791259766,0.165678754882813,0.689721614257813,1.08714561815783,0.313108000000284,
-0.213323367919922,-1.33787988769531,-0.483437199218749,1.43845089550836,0.31603399999949,
-0.287543619384766,0.168072956542969,-0.593570475585937,0.680628945356646,0.319037000000208,
-0.225294376220703,1.32207815673828,0.632260774414064,1.48270087858065,0.321974999999838,
-0.53414639038086,0.685220515136719,0.129478425781251,0.878410031513713,0.324886999999762,
-0.632308658447266,-0.258094938964844,-0.430764762695311,0.807456201813198,0.327919999999722,
-0.225294376220703,-0.370622416992188,0.1103248125,0.44753781537091,0.330871999999545,
-0.244447989501953,0.596635053710938,0.0983538041992187,0.652228240486916,0.333891000000222,
-0.455137735595703,0.917458076171875,-0.0859997236328116,1.02775270973182,0.336795000000166,
-0.392888492431641,0.290177241210938,0.160603047363281,0.514157113754512,0.339721000000281,
-0.412042105712891,-0.262883342285156,-0.0141736738281235,0.488965480950459,0.342743000000155,
-0.431195718994141,0.0794874951171875,-0.155431571777344,0.465195639988225,0.345671999999468,
-0.373734879150391,0.73549875,0.215669685546876,0.85273066346239,0.348683999999594,
-0.352187064208985,0.625365473632813,0.0456813676757815,0.719169306325614,0.351627000000008,
-0.390494290771485,0.00287304199218749,-0.124306950195312,0.409812473409819,0.354521000000204,
-0.431195718994141,-0.100077629394531,0.0768059892578137,0.449271009492016,0.357559000000037,
-0.402465299072266,0.393127912597656,0.0552581743164069,0.565315255808209,0.360498000000007,
-0.306697232666016,0.622971271972656,-0.0165678754882812,0.694572453187151,0.363491000000067,
-0.352187064208985,0.359609089355469,0.122295820800781,0.517987155370237,0.366418999999951,
-0.500627567138672,0.02681505859375,-0.0309330854492185,0.502298580648981,0.36940499999946,
-0.443166727294922,0.172861359863281,0.00258573779296967,0.475693687108636,0.372336999999789,
-0.330639249267578,0.366791694335938,0.00497993945312558,0.49384538064764,0.375256000000263,
-0.294726224365235,0.522414802246094,0.00497993945312558,0.599837955394095,0.378255999999965,
-0.426407315673828,0.287783039550781,-0.00459686718749985,0.514454476024056,0.381169999999656,
-0.412042105712891,0.0866701000976562,-0.021356278808593,0.421599921460858,0.384159999999611,
-0.337821854248047,0.280600434570313,0.0265277543945324,0.439959010411031,0.387198999999782,
-0.397676895751953,0.44819455078125,0.00497993945312558,0.59920786757341,0.390202999999929,
-0.404859500732422,0.304542451171875,0.0384987626953137,0.50807428062061,0.393307000000277,
-0.402465299072266,0.187226569824219,0.0217393510742188,0.444415014137236,0.396248999999443,
-0.38091748413086,0.199197578125,-0.0548751020507812,0.433346376092535,0.399245999999948,
-0.376129080810547,0.364397492675781,-0.00938527050781168,0.523781157929806,0.402157999999872,
-0.354581265869141,0.431435139160156,0.0217393510742188,0.558870962559904,0.4050900000002,
-0.373734879150391,0.249475812988281,0.0361045610351578,0.45079871393701,0.408110999999735,
-0.383311685791016,0.21835119140625,0.0408929643554696,0.443031969259846,0.411049000000276,
-0.395282694091797,0.299754047851563,0.00976834277343741,0.496181738854228,0.414058999999725,
-0.383311685791016,0.335667072753906,0.00976834277343741,0.509603426907302,0.417021000000204,
-0.378523282470703,0.302148249511719,0.0552581743164069,0.487469902541864,0.41994700000032,
-0.366552274169922,0.244687409667969,0.014556746093751,0.440958498053955,0.422974999999497,
-0.373734879150391,0.266235224609375,0.0265277543945324,0.459633197745309,0.425911000000269,
-0.397676895751953,0.393127912597656,0.0504697709960951,0.561465641747292,0.428963999999723,
-0.390494290771485,0.287783039550781,-0.0309330854492185,0.486067613356023,0.431892999999945,
-0.345004459228516,0.302148249511719,-0.0357214887695303,0.459997463395689,0.434811000000082,
-0.354581265869141,0.278206232910156,0.0337103593750001,0.451954611066879,0.437826000000314,
-0.424013114013672,0.328484467773438,0.0648349809570323,0.54027098865261,0.440768999999818,
-0.414436307373047,0.321301862792969,0.0289219560546883,0.525194077884802,0.443779000000177,
-0.36176387084961,0.304542451171875,0.0073741411132815,0.472941413681468,0.446713000000273,
-0.356975467529297,0.285388837890625,-0.0644519086914048,0.461554245722306,0.44959899999958,
-0.38091748413086,0.306936652832031,0.0169509477539069,0.489485008144346,0.452600999999959,
-0.371340677490235,0.357214887695313,-0.0309330854492185,0.516191079471052,0.455519999999524,
-0.366552274169922,0.3141192578125,0.00258573779296967,0.482740265430336,0.458545999999842,
-0.388100089111328,0.290177241210938,0.0289219560546883,0.485449266172111,0.461465999999746,
-0.40007109741211,0.266235224609375,0.115113215820314,0.494154965839491,0.464452000000165,
-0.368946475830078,0.311725056152344,0.00258573779296967,0.483012110304235,0.467386000000261,
-0.36176387084961,0.299754047851563,-0.00459686718749985,0.469836906429699,0.470290999999634,
-0.354581265869141,0.299754047851563,-0.0285388837890626,0.465182578346056,0.473277999999482,
-0.36176387084961,0.27581203125,-0.0141736738281235,0.455133241879925,0.476190999999744,
-0.373734879150391,0.285388837890625,0.0432871660156255,0.472226987187076,0.479177000000163,
-0.340216055908203,0.326090266113281,0.0121625444335951,0.471412509208934,0.482135000000198,
-0.392888492431641,0.306936652832031,0.0289219560546883,0.499407604947069,0.485051999999996,
-0.383311685791016,0.278206232910156,0.0313161577148442,0.474665417139306,0.488067999999657,
-0.388100089111328,0.318907661132813,-0.00220266552734216,0.502323229835976,0.490998999999647,
-0.404859500732422,0.29496564453125,0.0480755693359374,0.503216858972368,0.494023999999627,
-0.38091748413086,0.292571442871094,0.0337103593750001,0.481489945096935,0.496951000000081,
-0.352187064208985,0.302148249511719,0.0576523759765628,0.467603560010916,0.499888000000283,
-0.359369669189453,0.263841022949219,0.00258573779296967,0.445831056078602,0.502872000000025,
-0.356975467529297,0.285388837890625,-0.0261446821289049,0.457779223659116,0.505806000000121,
-0.397676895751953,0.318907661132813,-0.0740287153320303,0.515101213780187,0.50879199999963,
-0.395282694091797,0.280600434570313,0.0624407792968764,0.488757468534977,0.511733999999706,
-0.409647904052735,0.306936652832031,-0.021356278808593,0.51232568234579,0.514626000000135,
-0.407253702392578,0.316513459472656,0.00258573779296967,0.515793596489667,0.517636999999922,
-0.392888492431641,0.27581203125,0.014556746093751,0.480255705769641,0.52056999999968,
-0.388100089111328,0.280600434570313,0.00258573779296967,0.478920629216578,0.523653000000195,
-0.41922471069336,0.302148249511719,-0.0429040937499998,0.518539954101355,0.52665799999977,
-0.359369669189453,0.280600434570313,-0.0859997236328116,0.46398180511665,0.529663000000255,
-0.397676895751953,0.3141192578125,-0.0261446821289049,0.507445924160602,0.532723999999689,
-0.378523282470703,0.285388837890625,-0.0237504804687489,0.474648026949922,0.535652999999911,
-0.345004459228516,0.278206232910156,-0.00220266552734216,0.443206088240049,0.538644999999633,
-0.364158072509766,0.302148249511719,0.0265277543945324,0.47392867418024,0.541594999999688,
-0.383311685791016,0.27581203125,0.0361045610351578,0.473607078044388,0.544549000000188,
-0.409647904052735,0.282994636230469,0.0265277543945324,0.498599128742952,0.54755699999987,
-0.368946475830078,0.273417829589844,0.00258573779296967,0.459222710245246,0.550470000000132,
-0.404859500732422,0.306936652832031,0.0456813676757815,0.510105980692019,0.553482999999687,
-0.383311685791016,0.309330854492188,-0.00699106884765577,0.492607654273104,0.556400999999823,
-0.407253702392578,0.25665841796875,0.0432871660156255,0.483324839386875,0.559403000000202,
-0.40007109741211,0.285388837890625,0.0504697709960951,0.494015049934199,0.562342999999601,
-0.383311685791016,0.261446821289062,-0.0237504804687489,0.464592697046135,0.56527399999959,
-0.333033450927735,0.29496564453125,0.00976834277343741,0.444984754133342,0.568306000000121,
-0.36176387084961,0.292571442871094,-0.0333272871093744,0.466456702708662,0.571243000000322,
-0.421618912353516,0.304542451171875,-0.0644519086914048,0.524082684653768,0.574203000000125,
-0.385705887451172,0.29496564453125,0.0193451494140628,0.485950612587416,0.57715300000018,
-0.390494290771485,0.285388837890625,0.0289219560546883,0.484529730212415,0.580068999999639,
-0.356975467529297,0.306936652832031,-0.00459686718749985,0.470810709794744,0.583071999999447,
-0.40007109741211,0.268629426269531,0.0744117875976578,0.487602056779815,0.586002000000008,
-0.366552274169922,0.261446821289062,0.0073741411132815,0.450299220539471,0.589009999999689,
-0.366552274169922,0.318907661132813,-0.0261446821289049,0.486565730844214,0.591934999999467,
-0.36176387084961,0.443406147460938,0.014556746093751,0.572445638218234,0.594882999999754,
-0.397676895751953,0.220745393066406,0.0863827958984373,0.46296590522649,0.597883999999794,
-0.356975467529297,-0.0450109912109375,0.000191536132813752,0.359802043398369,0.600844999999936,
-0.347398660888672,0.472136567382813,-0.107547538574218,0.5959574153416,0.603837999999996,
-0.450349332275391,0.804930598144531,0.1103248125,0.928923760684031,0.606778999999733,
-0.443166727294922,0.0507570751953125,0.258765315429688,0.515686452539816,0.609674999999697,
-0.280361014404297,-0.250912333984375,-0.0692403120117184,0.382561783965379,0.612699999999677,
-0.287543619384766,0.450588752441406,-0.1578257734375,0.55733341155608,0.615603000000192,
-0.404859500732422,0.79295958984375,0.107930610839844,0.896852910579397,0.618620999999621,
-0.47668555053711,0.266235224609375,0.0289219560546883,0.54676026598108,0.621544999999969,
-0.335427652587891,-0.0905008227539063,-0.097970731933593,0.360971430109587,0.624480999999832,
-0.337821854248047,0.0124498486328125,-0.0500866987304676,0.341741541707012,0.627478999999767,
-0.409647904052735,0.515232197265625,0.0696233842773442,0.661908632692,0.63040699999965,
-0.428801517333985,0.555933625488281,0.0408929643554696,0.70328171577985,0.633418999999776,
-0.38091748413086,0.170467158203125,0.00258573779296967,0.417329447537993,0.63636200000019,
-0.347398660888672,0.0387860668945312,0.014556746093751,0.349860096937658,0.639259999999922,
-0.383311685791016,0.302148249511719,-0.00699106884765577,0.488129376488016,0.642256000000089,
-0.390494290771485,0.52480900390625,0.0337103593750001,0.655016541802867,0.645187999999507,
-0.340216055908203,0.352426484375,0.0289219560546883,0.490701407302532,0.648204999999507,
-0.311485635986328,0.158496149902344,0.00258573779296967,0.349501097279547,0.6511330000003,
-0.40007109741211,0.170467158203125,-0.021356278808593,0.435398697350979,0.654105999999956,
-0.428801517333985,0.402704719238281,0.0480755693359374,0.590214446224154,0.657048999999461,
-0.402465299072266,0.441011945800781,0.0241335527343765,0.597538518979239,0.659987000000001,
-0.395282694091797,0.235110603027344,-0.00938527050781168,0.460014659773855,0.663064999999733,
-0.378523282470703,0.165678754882813,0.0384987626953137,0.414983710428476,0.666110000000117,
-0.395282694091797,0.326090266113281,-0.00699106884765577,0.51247648233449,0.669173000000228,
-0.40007109741211,0.366791694335938,0.0576523759765628,0.545817576186495,0.672161999999844,
-0.409647904052735,0.304542451171875,0.0313161577148442,0.51140806758849,0.675064999999449,
-0.385705887451172,0.211168586425781,-0.0237504804687489,0.440369491257121,0.678061999999954,
-0.41922471069336,0.223139594726563,0.0193451494140628,0.475305030055982,0.681015999999545,
-0.395282694091797,0.385945307617188,-0.0237504804687489,0.552961367586101,0.684032999999545,
-0.347398660888672,0.350032282714844,0.0241335527343765,0.493751817107937,0.686969000000317,
-0.395282694091797,0.273417829589844,0.0121625444335951,0.480784406229226,0.689898999999969,
-0.40007109741211,0.263841022949219,-0.0261446821289049,0.479950531595748,0.692895000000135,
-0.392888492431641,0.306936652832031,0.0169509477539069,0.498857505673408,0.69587700000011,
-0.373734879150391,0.345243879394531,0.000191536132813752,0.508793801887398,0.698902000000089,
-0.352187064208985,0.27581203125,-0.059663505371093,0.451295622238418,0.70185599999968,
-0.366552274169922,0.27581203125,0.00497993945312558,0.458756630555188,0.704794999999649,
-0.356975467529297,0.27581203125,-0.0429040937499998,0.453149558380586,0.707801999999901,
-0.36176387084961,0.359609089355469,0.0600465776367187,0.513612097681748,0.710723000000144,
-0.325850845947266,0.302148249511719,0.0768059892578137,0.450967292021734,0.713749999999891,
-0.392888492431641,0.263841022949219,0.0313161577148442,0.474293321279268,0.716668000000027,
-0.371340677490235,0.290177241210938,-0.00699106884765577,0.471323249075759,0.719591000000037,
-0.40007109741211,0.292571442871094,0.00258573779296967,0.495642631548314,0.722595999999612,
-0.40007109741211,0.302148249511719,0.0456813676757815,0.503425500963405,0.725518000000193,
-0.383311685791016,0.302148249511719,0.0384987626953137,0.489595310308439,0.728522999999768,
-0.402465299072266,0.27581203125,0.0121625444335951,0.488055858510764,0.731463999999505,
-0.352187064208985,0.292571442871094,0.0265277543945324,0.458625663404299,0.734386000000086,
-0.359369669189453,0.326090266113281,0.0313161577148442,0.486273711525915,0.737379000000146,
-0.347398660888672,0.306936652832031,0.0121625444335951,0.463728224206887,0.740302000000156,
-0.409647904052735,0.251870014648437,0.0241335527343765,0.481489706994226,0.743290000000343,
-0.404859500732422,0.254264216308594,0.0313161577148442,0.479105634241918,0.746202999999696,
-0.428801517333985,0.306936652832031,0.0073741411132815,0.527385274800896,0.74920099999963,
-0.359369669189453,0.302148249511719,-0.0692403120117184,0.474588605661591,0.752126000000317,
-0.349792862548828,0.285388837890625,0.0384987626953137,0.453082763092721,0.755051000000094,
-0.388100089111328,0.223139594726563,-0.00699106884765577,0.447729642693655,0.75804799999969,
-0.371340677490235,0.25665841796875,-0.00220266552734216,0.451411446474891,0.760967000000164,
-0.404859500732422,0.395522114257813,0.00497993945312558,0.566015687059319,0.763958999999886,
-0.409647904052735,0.393127912597656,0.0384987626953137,0.569072153322634,0.766907000000174,
-0.385705887451172,0.192014973144531,0.00497993945312558,0.430886970472708,0.769814000000224,
-0.385705887451172,0.151313544921875,0.0121625444335951,0.414503013232015,0.772832999999991,
-0.414436307373047,0.3907337109375,-0.0524809003906235,0.572000463844049,0.775759999999536,
-0.392888492431641,0.417069929199219,-0.00938527050781168,0.573059138859118,0.778771000000233,
-0.402465299072266,0.278206232910156,0.0696233842773442,0.494190692572836,0.78169699999944,
-0.349792862548828,0.168072956542969,-0.0333272871093744,0.389505164891647,0.784603000000061,
-0.371340677490235,0.251870014648437,-0.021356278808593,0.44920874176986,0.787575000000288,
-0.414436307373047,0.414675727539063,0.014556746093751,0.58645145641894,0.790517999999793,
-0.36176387084961,0.328484467773438,0.0241335527343765,0.489241834053543,0.793507000000318,
-0.349792862548828,0.232716401367187,-0.0141736738281235,0.420372291171984,0.796427999999651,
-0.368946475830078,0.259052619628906,0.0600465776367187,0.454791549228782,0.79939000000013,
-0.388100089111328,0.362003291015625,0.0337103593750001,0.531793616174128,0.80250100000012,
-0.383311685791016,0.354820686035156,-0.0285388837890626,0.523106141801389,0.805515000000014,
-0.371340677490235,0.27581203125,0.0480755693359374,0.465056379064014,0.808613999999579,
-0.352187064208985,0.211168586425781,-0.0117794721679676,0.41081219073168,0.811525999999503,
-0.395282694091797,0.302148249511719,-0.0141736738281235,0.497737748177945,0.814441999999872,
-0.376129080810547,0.318907661132813,0.0073741411132815,0.493183089448276,0.817455000000336,
-0.392888492431641,0.318907661132813,0.00976834277343741,0.506121412642211,0.820431999999528,
-0.390494290771485,0.271023627929688,-0.0309330854492185,0.476336492195069,0.82343899999978,
-0.421618912353516,0.285388837890625,0.000191536132813752,0.509126047981061,0.826395999999477,
-0.373734879150391,0.316513459472656,0.014556746093751,0.48996982435426,0.829321999999593,
-0.373734879150391,0.335667072753906,0.014556746093751,0.502555511840803,0.832346999999572,
-0.373734879150391,0.259052619628906,0.0648349809570323,0.459336036454636,0.835289999999986,
-0.402465299072266,0.263841022949219,0.0480755693359374,0.483633810558353,0.838316000000304,
-0.371340677490235,0.309330854492188,0.0217393510742188,0.483789288518154,0.841293999999834,
-0.392888492431641,0.299754047851563,-0.0285388837890626,0.49500335814672,0.844291999999768,
-0.359369669189453,0.3141192578125,0.0696233842773442,0.482353483350378,0.847240999999485,
-0.349792862548828,0.249475812988281,-0.00220266552734216,0.429648786442709,0.850142999999662,
-0.373734879150391,0.273417829589844,0.0456813676757815,0.465319091359798,0.853153999999449,
-0.378523282470703,0.290177241210938,-0.0285388837890626,0.477804535952843,0.856077999999798,
-0.383311685791016,0.316513459472656,0.0313161577148442,0.498085655510496,0.859072999999626,
-0.356975467529297,0.25665841796875,0.0241335527343765,0.440326533721924,0.862014000000272,
-0.388100089111328,0.27581203125,-0.0165678754882812,0.476412059302309,0.864926999999625,
-0.373734879150391,0.302148249511719,0.0073741411132815,0.480651331563444,0.867959000000155,
-0.404859500732422,0.268629426269531,0.0289219560546883,0.48673346251643,0.870893000000251,
-0.397676895751953,0.292571442871094,-0.0572693037109371,0.497015830478385,0.873900999999933,
-0.38091748413086,0.292571442871094,0.00976834277343741,0.480407742881811,0.876828999999816,
-0.41922471069336,0.311725056152344,0.000191536132813752,0.522419281205435,0.879761999999573,
-0.368946475830078,0.335667072753906,0.014556746093751,0.499004794180826,0.882755999999972,
-0.404859500732422,0.292571442871094,-0.00459686718749985,0.49953017496936,0.885675999999876,
-0.366552274169922,0.290177241210938,-0.00938527050781168,0.467601843792812,0.888659999999618,
-0.383311685791016,0.287783039550781,0.0217393510742188,0.479811969110989,0.89158899999984,
-0.385705887451172,0.299754047851563,-0.00459686718749985,0.488510646768146,0.894510000000082,
-0.373734879150391,0.3141192578125,0.014556746093751,0.488426623843409,0.897543000000042,
-0.383311685791016,0.328484467773438,0.0265277543945324,0.505503329153791,0.900475999999799,
-0.40007109741211,0.29496564453125,-0.00459686718749985,0.497074185234161,0.903479999999945,
-0.376129080810547,0.302148249511719,0.0576523759765628,0.485891393801255,0.906409999999596,
-0.366552274169922,0.285388837890625,0.0361045610351578,0.465951604589194,0.90933700000005,
-0.313879837646485,0.297359846191406,0.0648349809570323,0.437203620025794,0.912328999999772,
-0.407253702392578,0.299754047851563,-0.021356278808593,0.506126622457671,0.915256000000227,
-0.368946475830078,0.287783039550781,0.052863972656251,0.470887650597807,0.918268999999782,
-0.385705887451172,0.326090266113281,0.0193451494140628,0.505448442547981,0.921212999999625,
-0.352187064208985,0.297359846191406,-0.0620577070312489,0.465091136579807,0.924125999999887,
-0.368946475830078,0.290177241210938,0.00976834277343741,0.469488821874136,0.927138999999443,
-0.328245047607422,0.299754047851563,0.0073741411132815,0.444580339690538,0.930070000000342,
-0.390494290771485,0.292571442871094,0.0193451494140628,0.488321692242574,0.93309599999975,
-0.368946475830078,0.309330854492188,-0.0452982954101557,0.483589717772584,0.936028999999508,
-0.330639249267578,0.323696064453125,0.0193451494140628,0.463115201763581,0.93912999999975,
-0.385705887451172,0.27581203125,0.0768059892578137,0.480354523433077,0.94217800000024,
-0.38091748413086,0.292571442871094,0.0121625444335951,0.480462388108951,0.945204999999987,
-0.34261025756836,0.27581203125,0.0241335527343765,0.440495736121125,0.948260999999547,
-0.409647904052735,0.302148249511719,-0.00699106884765577,0.509071551966349,0.951197999999749,
-0.407253702392578,0.290177241210938,-0.0261446821289049,0.500741404152757,0.954176999999618,
-0.402465299072266,0.302148249511719,0.00258573779296967,0.503267888584458,0.957140999999865,
-0.373734879150391,0.29496564453125,0.0121625444335951,0.476267171695039,0.960084999999708,
-0.407253702392578,0.338061274414063,0.0839885942382814,0.53590585678181,0.963103999999475,
-0.392888492431641,0.3141192578125,0.014556746093751,0.503233717541583,0.966053999999531,
-0.392888492431641,0.266235224609375,0.0696233842773442,0.479676951652091,0.969076000000314,
-0.376129080810547,0.261446821289062,0.0337103593750001,0.45930808192621,0.972031000000243,
-0.388100089111328,0.247081611328125,0.0265277543945324,0.460841321474041,0.974987999999939,
-0.366552274169922,0.292571442871094,0.0193451494140628,0.469396265098763,0.978006999999707,
-0.392888492431641,0.299754047851563,0.00976834277343741,0.49427651897409,0.980982999999469,
-0.368946475830078,0.330878669433594,-0.0381156904296862,0.49704627729268,0.983986999999615,
-0.41922471069336,0.278206232910156,-0.00459686718749985,0.503159216624252,0.986918999999943,
-0.366552274169922,0.287783039550781,-0.00938527050781168,0.466119867474808,0.989845000000059,
-0.421618912353516,0.290177241210938,0.0289219560546883,0.512641997999561,0.992878999999448,
-0.376129080810547,0.287783039550781,-0.0285388837890626,0.474454034836252,0.995797999999922,
-0.376129080810547,0.290177241210938,-0.00459686718749985,0.475075833879305,0.998826000000008,
-0.328245047607422,0.299754047851563,-0.0452982954101557,0.446821257382929,1.00175200000012,
-0.376129080810547,0.299754047851563,0.0193451494140628,0.481352063920616,1.00470700000005,
-0.395282694091797,0.3141192578125,0.0217393510742188,0.505363152359047,1.00772200000029,
-0.388100089111328,0.311725056152344,-0.0261446821289049,0.498475409829837,1.01068200000009,
