X,Y,Z,Magnitude,Seconds,
0.102711251220703,0.594240852050781,-0.0309330854492185,0.603844886662767,0.0,
0.160172091064453,0.558327827148438,0.0073741411132815,0.580895377225033,0.0037769999999,
0.145806881103515,0.594240852050781,-0.0572693037109371,0.614541788628494,0.00762600000007296,
0.119470662841797,0.591846650390625,-0.0141736738281235,0.603950817441493,0.0114130000001751,
0.109893856201172,0.60142345703125,-0.0452982954101557,0.613056905894754,0.0151759999998831,
0.114682259521484,0.603817658691406,0.0073741411132815,0.614656134398481,0.0189460000001418,
0.131441671142578,0.587058247070313,-0.00220266552734216,0.601597165968597,0.022668000000067,
0.131441671142578,0.599029255371094,-0.0117794721679676,0.613393607455895,0.0264090000000579,
0.0979228479003904,0.589452448730469,-0.00220266552734216,0.59753487361885,0.0302320000000691,
0.129047469482422,0.58226984375,-0.0716345136718743,0.600685378438224,0.0340169999999489,
0.107499654541016,0.60142345703125,0.00258573779296967,0.610960748685046,0.0377600000001621,
0.13623007446289,0.570298835449219,0.0073741411132815,0.586390461092316,0.041573999999855,
0.126653267822265,0.608606062011719,0.0313161577148442,0.622433201798789,0.0455900000001748,
0.169748897705078,0.551145222167969,0.014556746093751,0.576877493968612,0.0494050000002062,
0.119470662841797,0.570298835449219,0.0073741411132815,0.582724959952594,0.0532119999998031,
0.112288057861328,0.594240852050781,0.0193451494140628,0.605066139351856,0.0571279999999206,
0.119470662841797,0.611000263671875,0.0169509477539069,0.622801650701662,0.0609749999998712,
0.109893856201172,0.591846650390625,-0.0141736738281235,0.602129562668329,0.0648190000001705,
0.145806881103515,0.615788666992188,0.014556746093751,0.632982802159733,0.0686430000000655,
0.160172091064453,0.560722028808594,0.0169509477539069,0.583396629212871,0.0724260000001777,
0.141018477783203,0.589452448730469,0.000191536132813752,0.606086163079746,0.0762359999998807,
0.105105452880859,0.587058247070313,0.0265277543945324,0.596982632437306,0.0801110000002154,
0.15538368774414,0.625365473632813,-0.021356278808593,0.644734175202084,0.0838819999999032,
0.119470662841797,0.570298835449219,-0.0452982954101557,0.584436426450011,0.0876389999998537,
0.150595284423828,0.565510432128906,-0.0429040937499998,0.586789357263596,0.0914299999999457,
0.119470662841797,0.541568415527344,0.000191536132813752,0.554589600211495,0.0952179999999316,
0.131441671142578,0.575087238769531,0.00976834277343741,0.589998021716054,0.098971999999776,
0.119470662841797,0.577481440429688,0.0432871660156255,0.591296737740256,0.102703999999903,
0.124259066162109,0.570298835449219,0.0169509477539069,0.583925005345695,0.10654599999998,
0.129047469482422,0.589452448730469,-0.00220266552734216,0.603417177771389,0.110260999999809,
0.109893856201172,0.603817658691406,-0.0165678754882812,0.613960030520335,0.114172999999937,
0.102711251220703,0.594240852050781,0.0384987626953137,0.604279691949375,0.118121999999858,
0.0955286462402342,0.60142345703125,-0.0261446821289049,0.6095239464726,0.121866999999838,
0.15538368774414,0.6205770703125,-0.0644519086914048,0.642972813693222,0.125641000000087,
0.121864864501953,0.611000263671875,-0.0524809003906235,0.625241243291732,0.129496999999901,
0.112288057861328,0.587058247070313,0.00976834277343741,0.597780406095814,0.133339999999862,
0.121864864501953,0.591846650390625,0.0313161577148442,0.605073718246548,0.137168000000202,
0.121864864501953,0.603817658691406,-0.00938527050781168,0.616064033563197,0.140934000000016,
0.141018477783203,0.577481440429688,0.0337103593750001,0.595405251443275,0.144724000000224,
0.145806881103515,0.551145222167969,-0.00459686718749985,0.570124401936677,0.148489000000154,
0.145806881103515,0.58226984375,0.0337103593750001,0.601193983541898,0.152348000000075,
0.152989486083984,0.594240852050781,-0.0333272871093744,0.614523133140121,0.156112000000121,
0.114682259521484,0.575087238769531,0.0313161577148442,0.587246161825293,0.159884000000147,
0.138624276123047,0.548751020507813,-0.0405098920898439,0.567437594627052,0.163621000000148,
0.131441671142578,0.579875642089844,-0.00220266552734216,0.59459021597844,0.16736899999978,
0.0907402429199217,0.584664045410156,-0.0285388837890626,0.592351505078244,0.1711150000001,
0.119470662841797,0.608606062011719,0.0935654008789069,0.627239238440088,0.174865999999838,
0.160172091064453,0.531991608886719,0.0361045610351578,0.556752826673902,0.178688999999849,
0.162566292724609,0.558327827148438,-0.0476924970703116,0.583465797091244,0.182420999999977,
0.148201082763672,0.613394465332031,-0.00459686718749985,0.631060585221604,0.186388999999963,
0.0883460412597654,0.599029255371094,0.00497993945312558,0.605529414309228,0.190255999999863,
0.133835872802734,0.558327827148438,0.0121625444335951,0.574273393867646,0.19401599999992,
0.0883460412597654,0.560722028808594,0.00258573779296967,0.567645049866051,0.197813000000224,
0.162566292724609,0.555933625488281,-0.00220266552734216,0.579219170275116,0.201658999999836,
0.114682259521484,0.584664045410156,0.00976834277343741,0.595885464804153,0.205527999999958,
0.133835872802734,0.634942280273438,-0.00459686718749985,0.648910526433068,0.209304999999858,
0.138624276123047,0.560722028808594,-0.0692403120117184,0.581738862660339,0.213106000000153,
0.164960494384765,0.613394465332031,-0.021356278808593,0.635547657892141,0.216919999999845,
0.117076461181641,0.594240852050781,0.0169509477539069,0.605901330778049,0.220748000000185,
0.121864864501953,0.58226984375,0.0241335527343765,0.595375213212905,0.224514999999883,
0.121864864501953,0.58226984375,0.00976834277343741,0.594966080261109,0.228400999999849,
0.145806881103515,0.541568415527344,0.0289219560546883,0.561598143529661,0.232180999999855,
0.102711251220703,0.58226984375,-0.0500866987304676,0.593377156164348,0.235945999999785,
0.150595284423828,0.599029255371094,-0.00699106884765577,0.61770855872715,0.239693999999872,
0.133835872802734,0.599029255371094,-0.00220266552734216,0.613802037610452,0.243445999999949,
0.172143099365234,0.608606062011719,-0.0452982954101557,0.634102926143341,0.247174000000086,
0.13623007446289,0.565510432128906,-0.0357214887695303,0.582783584870661,0.250985000000128,
0.117076461181641,0.618182868652344,-0.0189620771484371,0.62945731962369,0.254855000000134,
0.119470662841797,0.589452448730469,0.0169509477539069,0.601676626788809,0.258903999999802,
0.141018477783203,0.587058247070313,0.0337103593750001,0.604698259348207,0.262708000000202,
0.133835872802734,0.594240852050781,0.0265277543945324,0.609703167818673,0.266513999999916,
0.145806881103515,0.606211860351563,-0.0381156904296862,0.624664127403654,0.270329999999831,
0.133835872802734,0.560722028808594,-0.0548751020507812,0.579079019879998,0.274237000000085,
0.114682259521484,0.613394465332031,0.00497993945312558,0.624042939665115,0.278102000000217,
0.100317049560547,0.575087238769531,-0.0381156904296862,0.58501422930133,0.281886000000213,
0.145806881103515,0.577481440429688,-0.0907881269531234,0.602483978719383,0.285671000000093,
0.117076461181641,0.56311623046875,0.0361045610351578,0.576290140560891,0.289490999999998,
0.119470662841797,0.565510432128906,0.0337103593750001,0.578974676869094,0.29329000000007,
0.117076461181641,0.503261188964844,0.0983538041992187,0.52597736917246,0.297098000000005,
0.277487972412109,0.618182868652344,-0.485831400878906,0.833775619701479,0.30083599999989,
-0.210929166259766,0.874362446289063,1.67852689990234,1.90432490777057,0.304673000000093,
0.212844527587891,0.52480900390625,-0.926364506347655,1.0857617059585,0.307611000000179,
0.162566292724609,0.60142345703125,-2.14022474804687,2.22905808501034,0.310539000000063,
0.325372005615234,0.496078583984375,2.26271210498047,2.3391936588387,0.31356599999981,
0.263122762451172,0.567904633789063,-0.255988041503906,0.676224177763581,0.316496999999799,
-0.194169754638672,0.759440766601563,-0.18895039501953,0.806321538451533,0.319488000000092,
0.205661922607422,0.412281525878906,-0.224863419921874,0.512675765577603,0.322427000000062,
0.0739808312988279,0.723527741699219,0.162997249023439,0.745341304099837,0.325359999999819,
0.0715866296386717,0.615788666992188,0.318620356933595,0.697021706829515,0.328375999999935,
0.260728560791015,0.491290180664063,-0.351756107910155,0.658086455932032,0.331305000000157,
0.0308852014160155,0.630153876953125,0.107930610839844,0.640075636985055,0.334335999999894,
0.169748897705078,0.462559760742188,0.167785652343751,0.520507680694893,0.337273000000096,
0.102711251220703,0.656490095214844,-0.0644519086914048,0.667594858260968,0.34024700000009,
0.0907402429199217,0.63973068359375,-0.121912748535156,0.657534681573443,0.343355999999858,
0.19369091430664,0.469742365722656,0.115113215820314,0.520984753036165,0.346390000000156,
0.026096798095703,0.651701691894531,-0.0620577070312489,0.65516967046027,0.349482999999964,
0.167354696044922,0.599029255371094,0.0768059892578137,0.626691952289645,0.352430999999797,
0.119470662841797,0.572693037109375,0.0169509477539069,0.585267365110318,0.355352000000039,
0.0787692346191404,0.625365473632813,-0.0405098920898439,0.631607171659417,0.358365000000049,
0.181719906005859,0.515232197265625,0.0504697709960951,0.548665234111239,0.361323000000084,
0.0811634362792967,0.565510432128906,0.014556746093751,0.571490552058495,0.364363000000139,
0.129047469482422,0.594240852050781,-0.00459686718749985,0.608109012278057,0.367298000000119,
0.114682259521484,0.637336481933594,-0.0476924970703116,0.649326101530845,0.37030999999979,
0.109893856201172,0.663672700195313,0.0792001909179696,0.677355728444622,0.373278000000028,
0.133835872802734,0.541568415527344,-0.0189620771484371,0.558182720903694,0.376223000000209,
0.0979228479003904,0.56311623046875,-0.0500866987304676,0.573757309799164,0.37924299999986,
0.15538368774414,0.558327827148438,-0.0237504804687489,0.580032876919714,0.382214000000204,
0.15538368774414,0.632548078613281,-0.0117794721679676,0.65145983616711,0.385241999999835,
0.0955286462402342,0.615788666992188,0.0217393510742188,0.623533482688488,0.388206000000082,
0.131441671142578,0.5439626171875,0.0504697709960951,0.561889170205857,0.391129999999976,
0.133835872802734,0.579875642089844,-0.0117794721679676,0.595236555583185,0.394146999999975,
0.129047469482422,0.577481440429688,0.0073741411132815,0.591770598608719,0.397096000000147,
0.117076461181641,0.60142345703125,0.0384987626953137,0.613921189697266,0.400119999999788,
0.0835576379394529,0.577481440429688,0.0576523759765628,0.586336498398753,0.40304900000001,
0.131441671142578,0.546356818847656,0.0073741411132815,0.561993829477907,0.405975000000126,
0.117076461181641,0.599029255371094,-0.0165678754882812,0.610587783247797,0.408964000000196,
0.107499654541016,0.575087238769531,-0.0189620771484371,0.585355505903707,0.411916000000019,
0.184114107666015,0.591846650390625,0.119901619140625,0.63131359916669,0.414947000000211,
0.0715866296386717,0.575087238769531,0.052863972656251,0.581931763477118,0.417886000000181,
0.0787692346191404,0.618182868652344,0.0480755693359374,0.625032728570833,0.42080900000019,
0.152989486083984,0.591846650390625,0.0408929643554696,0.612666691574319,0.423823000000084,
0.150595284423828,0.565510432128906,-0.0357214887695303,0.586307950907394,0.4267490000002,
0.152989486083984,0.560722028808594,-0.021356278808593,0.581610752211492,0.429776999999831,
0.129047469482422,0.618182868652344,0.0217393510742188,0.631882827635144,0.432710000000043,
0.126653267822265,0.56311623046875,0.0337103593750001,0.578167214217984,0.435640000000149,
0.131441671142578,0.594240852050781,-0.021356278808593,0.608978812277851,0.438658999999916,
0.162566292724609,0.58226984375,0.0432871660156255,0.606085595615452,0.441604000000098,
0.143412679443359,0.58226984375,-0.0261446821289049,0.600240711689398,0.444611999999779,
0.0979228479003904,0.6205770703125,-0.00938527050781168,0.628325447233417,0.447541999999885,
0.13623007446289,0.60142345703125,-0.0333272871093744,0.617559321783467,0.450467000000117,
0.112288057861328,0.584664045410156,0.0289219560546883,0.596051284266436,0.453487000000223,
0.0620098229980467,0.596635053710938,-0.0117794721679676,0.599964466805709,0.456405999999788,
0.160172091064453,0.529597407226563,-0.0620577070312489,0.556758180450933,0.459432000000106,
0.13623007446289,0.567904633789063,0.0696233842773442,0.588151104653799,0.462378000000172,
0.141018477783203,0.570298835449219,-0.00459686718749985,0.587493067175236,0.465366999999787,
0.133835872802734,0.579875642089844,-0.0237504804687489,0.595593726008321,0.468318000000181,
0.105105452880859,0.584664045410156,0.0265277543945324,0.594628391496636,0.471257000000151,
0.121864864501953,0.599029255371094,-0.00459686718749985,0.61131679608732,0.474268999999822,
0.126653267822265,0.577481440429688,-0.0117794721679676,0.591324462757428,0.477215999999771,
0.138624276123047,0.56311623046875,-0.0333272871093744,0.580884917185877,0.480313000000024,
0.143412679443359,0.60142345703125,0.0576523759765628,0.620967928115685,0.483357000000069,
0.119470662841797,0.553539423828125,-0.0165678754882812,0.566527693506704,0.486366999999973,
0.129047469482422,0.60142345703125,0.0504697709960951,0.617179570167091,0.489438999999948,
0.141018477783203,0.565510432128906,-0.0357214887695303,0.583921471332255,0.492361999999957,
0.148201082763672,0.56311623046875,-0.00220266552734216,0.582295716698212,0.495385000000169,
0.152989486083984,0.584664045410156,-0.0117794721679676,0.604463882140337,0.498340000000098,
0.109893856201172,0.58226984375,0.0121625444335951,0.592674242783093,0.501307999999881,
0.124259066162109,0.555933625488281,-0.00938527050781168,0.569728527260597,0.504311000000143,
0.105105452880859,0.577481440429688,-0.0189620771484371,0.587274663710108,0.507254999999986,
0.131441671142578,0.60142345703125,0.0073741411132815,0.615663435277207,0.510298000000148,
0.141018477783203,0.603817658691406,-0.00220266552734216,0.620070018432829,0.513248000000203,
0.157777889404297,0.611000263671875,-0.0357214887695303,0.632053169719041,0.516195000000153,
0.124259066162109,0.572693037109375,-0.0141736738281235,0.586189835554,0.519226999999773,
0.148201082763672,0.60142345703125,0.0456813676757815,0.621096226805859,0.522214000000076,
0.141018477783203,0.589452448730469,-0.100364933593749,0.614339906147985,0.525230000000192,
0.126653267822265,0.570298835449219,-0.00938527050781168,0.584268684140523,0.528175999999803,
0.121864864501953,0.579875642089844,0.0217393510742188,0.592941316551913,0.531121999999868,
0.160172091064453,0.555933625488281,0.00258573779296967,0.578553351683696,0.534141000000091,
0.13623007446289,0.579875642089844,0.014556746093751,0.595840828018785,0.537075000000186,
0.133835872802734,0.587058247070313,0.0456813676757815,0.603851151903238,0.540085999999974,
0.152989486083984,0.587058247070313,0.0384987626953137,0.607885945745236,0.54302000000007,
0.133835872802734,0.599029255371094,0.0983538041992187,0.621628152869362,0.5459350000001,
0.105105452880859,0.615788666992188,0.0193451494140628,0.624993658709557,0.548947000000226,
0.0811634362792967,0.589452448730469,-0.0165678754882812,0.595244644832026,0.551874000000225,
0.121864864501953,0.60142345703125,-0.0165678754882812,0.613869460362457,0.554900000000089,
0.160172091064453,0.596635053710938,-0.0165678754882812,0.617982993755336,0.557838000000174,
0.143412679443359,0.594240852050781,0.0432871660156255,0.612832085985082,0.560852000000068,
0.129047469482422,0.603817658691406,0.00258573779296967,0.6174590677667,0.563787999999931,
0.119470662841797,0.587058247070313,0.014556746093751,0.599268323532927,0.566711999999825,
0.112288057861328,0.587058247070313,-0.0117794721679676,0.597816651956177,0.569715999999971,
0.143412679443359,0.520020600585938,-0.0333272871093744,0.54046214458087,0.572654000000057,
0.102711251220703,0.603817658691406,0.158208845703125,0.632594186610665,0.575667000000067,
0.164960494384765,0.496078583984375,0.275524727050781,0.590948222276721,0.57861099999991,
0.277487972412109,0.567904633789063,-0.665396525390625,0.917751482654421,0.58151799999996,
0.0332794030761717,0.632548078613281,0.450301448242188,0.777171785846265,0.584566999999879,
0.0979228479003904,0.646913288574219,-0.0620577070312489,0.657219024433111,0.587485000000015,
0.0572214196777342,0.606211860351563,0.15581464404297,0.628526303187922,0.590512000000217,
0.231998140869141,0.460165559082031,-0.165008378417967,0.541112967946752,0.59344400000009,
0.143412679443359,0.651701691894531,0.000191536132813752,0.66729478383201,0.596378000000186,
0.0620098229980467,0.60142345703125,0.103142207519532,0.613346319616961,0.599388999999974,
0.124259066162109,0.56311623046875,-0.0859997236328116,0.583040441998438,0.602319999999963,
0.0979228479003904,0.6205770703125,-0.0189620771484371,0.628541442315741,0.605344999999943,
0.164960494384765,0.548751020507813,0.0289219560546883,0.573738726911528,0.608295999999882,
0.143412679443359,0.603817658691406,0.0193451494140628,0.62091641658,0.611219999999776,
0.179325704345703,0.599029255371094,-0.0452982954101557,0.62693356314413,0.614231999999902,
0.13623007446289,0.575087238769531,0.0504697709960951,0.593153574690507,0.617220000000088,
0.0859518395996092,0.603817658691406,0.00258573779296967,0.609909968534752,0.620327999999972,
0.152989486083984,0.565510432128906,-0.0309330854492185,0.586655510051915,0.623344999999972,
0.129047469482422,0.606211860351563,0.00497993945312558,0.619815189236014,0.626372000000174,
0.176931502685547,0.596635053710938,0.0169509477539069,0.622547571346138,0.629394999999931,
0.117076461181641,0.536780012207031,0.0265277543945324,0.550039454058537,0.632329000000027,
0.109893856201172,0.60142345703125,-0.0357214887695303,0.612423757751196,0.635337000000163,
0.131441671142578,0.575087238769531,0.00976834277343741,0.589998021716054,0.638307000000168,
0.150595284423828,0.589452448730469,-0.0620577070312489,0.611542547994018,0.641242000000148,
0.157777889404297,0.587058247070313,0.0217393510742188,0.60827941541965,0.644268000000011,
0.181719906005859,0.599029255371094,0.0384987626953137,0.627168500291824,0.647209000000203,
0.0931344445800779,0.599029255371094,-0.0381156904296862,0.607423146920348,0.650230000000192,
0.126653267822265,0.534385810546875,0.000191536132813752,0.549189658906638,0.653193000000101,
0.145806881103515,0.591846650390625,-0.00220266552734216,0.609546516593412,0.656196999999793,
0.112288057861328,0.60142345703125,-0.0165678754882812,0.612040257747711,0.65916900000002,
0.0907402429199217,0.589452448730469,0.00976834277343741,0.596475818051371,0.662135999999919,
0.100317049560547,0.572693037109375,0.0241335527343765,0.581913441633441,0.665151000000151,
0.0859518395996092,0.594240852050781,-0.0452982954101557,0.602131085847311,0.66808600000013,
0.143412679443359,0.608606062011719,0.0361045610351578,0.626316273674952,0.671096999999918,
0.0883460412597654,0.618182868652344,0.0600465776367187,0.627344142865298,0.674042999999983,
0.117076461181641,0.558327827148438,0.0624407792968764,0.573877784245316,0.676958000000013,
0.13623007446289,0.603817658691406,-0.0237504804687489,0.619450146063614,0.679963999999927,
0.105105452880859,0.584664045410156,0.00976834277343741,0.594116674350417,0.682912000000215,
0.152989486083984,0.572693037109375,-0.00459686718749985,0.592793580256856,0.685922000000119,
0.0835576379394529,0.558327827148438,-0.0285388837890626,0.565266582520355,0.688865000000078,
0.160172091064453,0.594240852050781,0.0552581743164069,0.617924554319361,0.691809999999805,
0.148201082763672,0.575087238769531,-0.0237504804687489,0.594350888323039,0.694817999999941,
0.105105452880859,0.567904633789063,-0.0261446821289049,0.57814044462224,0.697761999999784,
0.131441671142578,0.594240852050781,-0.0237504804687489,0.609067474489722,0.7007779999999,
0.117076461181641,0.567904633789063,0.0792001909179696,0.585230929704974,0.703723999999966,
0.145806881103515,0.599029255371094,-0.0189620771484371,0.616810550929023,0.706642999999985,
0.143412679443359,0.596635053710938,-0.0141736738281235,0.613792698695222,0.709663000000091,
0.133835872802734,0.546356818847656,0.0935654008789069,0.570238808388057,0.712609000000157,
0.114682259521484,0.58226984375,0.00258573779296967,0.593461774362542,0.715643,
0.129047469482422,0.596635053710938,-0.0237504804687489,0.610893380238292,0.718555999999808,
0.109893856201172,0.615788666992188,0.0169509477539069,0.625747294565893,0.72148900000002,
0.143412679443359,0.567904633789063,0.00258573779296967,0.585738470432109,0.724506999999903,
0.138624276123047,0.572693037109375,0.014556746093751,0.589411489149165,0.727440000000115,
0.160172091064453,0.584664045410156,-0.00938527050781168,0.606279826527185,0.730447999999797,
0.131441671142578,0.591846650390625,-0.0261446821289049,0.606830219167584,0.733389999999872,
0.121864864501953,0.579875642089844,-0.0261446821289049,0.593119170060123,0.736312999999882,
0.114682259521484,0.630153876953125,-0.0333272871093744,0.641370904667555,0.739328999999998,
0.119470662841797,0.565510432128906,-0.0476924970703116,0.579956776323272,0.742271999999957,
0.160172091064453,0.584664045410156,0.00497993945312558,0.606227634266441,0.745304000000033,
0.117076461181641,0.579875642089844,-0.0381156904296862,0.592803056595406,0.748231000000033,
0.124259066162109,0.606211860351563,-0.00699106884765577,0.618855403303562,0.751243000000159,
0.102711251220703,0.606211860351563,0.0432871660156255,0.616373425368006,0.754201000000194,
0.0931344445800779,0.584664045410156,-0.0141736738281235,0.592205170352636,0.757207999999991,
0.112288057861328,0.572693037109375,-0.0117794721679676,0.583716265540361,0.760317000000214,
0.112288057861328,0.594240852050781,-0.0548751020507812,0.607241364705494,0.763351000000057,
0.112288057861328,0.615788666992188,-0.00220266552734216,0.625946596819337,0.766406000000188,
0.131441671142578,0.584664045410156,-0.00938527050781168,0.599330494978044,0.769353000000137,
0.143412679443359,0.572693037109375,-0.0381156904296862,0.591605710955883,0.772285000000011,
0.117076461181641,0.596635053710938,-0.0476924970703116,0.609881020655891,0.77532999999994,
0.0739808312988279,0.591846650390625,0.0217393510742188,0.596848574064977,0.778304999999818,
0.131441671142578,0.551145222167969,-0.0141736738281235,0.566779376707656,0.781315000000177,
0.105105452880859,0.560722028808594,-0.0381156904296862,0.571759700987616,0.784262000000126,
0.145806881103515,0.630153876953125,0.0217393510742188,0.647167794780702,0.787202999999863,
0.164960494384765,0.606211860351563,0.0624407792968764,0.631350643666235,0.790225000000191,
0.145806881103515,0.589452448730469,0.052863972656251,0.609514918190262,0.793177999999898,
0.121864864501953,0.555933625488281,0.0073741411132815,0.569181534403377,0.79618900000014,
0.126653267822265,0.587058247070313,-0.0117794721679676,0.600680607034955,0.799152999999933,
0.0955286462402342,0.579875642089844,0.00258573779296967,0.587697344371688,0.802091000000019,
0.138624276123047,0.58226984375,0.0384987626953137,0.599780806295399,0.805119999999988,
0.131441671142578,0.572693037109375,0.0217393510742188,0.587985396971253,0.808058999999957,
0.133835872802734,0.599029255371094,0.00258573779296967,0.613803531823702,0.811079000000063,
0.124259066162109,0.591846650390625,0.0361045610351578,0.605826965749812,0.814010000000053,
0.150595284423828,0.565510432128906,0.0504697709960951,0.587390999523924,0.816933000000063,
0.160172091064453,0.599029255371094,0.00976834277343741,0.620150439866768,0.819941000000199,
0.129047469482422,0.60142345703125,0.0408929643554696,0.616470322546848,0.822885000000042,
0.145806881103515,0.536780012207031,0.00976834277343741,0.556316320633014,0.825902000000042,
0.160172091064453,0.596635053710938,0.0241335527343765,0.618232087844198,0.828841000000011,
0.112288057861328,0.553539423828125,-0.0620577070312489,0.568212689643779,0.831752999999935,
0.124259066162109,0.560722028808594,0.00258573779296967,0.57433108496288,0.834773000000041,
0.129047469482422,0.625365473632813,-0.0357214887695303,0.639539873465072,0.837700000000041,
0.121864864501953,0.591846650390625,-0.0405098920898439,0.605619149413072,0.840716000000157,
0.157777889404297,0.615788666992188,0.0552581743164069,0.638077589803679,0.84366,
0.148201082763672,0.56311623046875,-0.0668461103515625,0.586115903570951,0.846650999999838,
0.143412679443359,0.584664045410156,-0.00459686718749985,0.602013599355058,0.849591000000146,
0.160172091064453,0.594240852050781,0.0672291826171882,0.619109886851578,0.852528999999777,
0.164960494384765,0.591846650390625,-0.0333272871093744,0.615308971454455,0.855544000000009,
0.117076461181641,0.594240852050781,0.0289219560546883,0.606354325086318,0.858486999999968,
0.138624276123047,0.572693037109375,0.0289219560546883,0.589941085385844,0.861488999999892,
0.143412679443359,0.577481440429688,0.00258573779296967,0.595028315885727,0.86442100000022,
0.133835872802734,0.548751020507813,-0.0907881269531234,0.572085839147319,0.867339999999786,
0.117076461181641,0.603817658691406,-0.0189620771484371,0.615355363249701,0.870367999999871,
0.152989486083984,0.56311623046875,0.0480755693359374,0.585505706408187,0.873316000000159,
0.15538368774414,0.567904633789063,0.0073741411132815,0.588824372332885,0.87633199999982,
0.169748897705078,0.551145222167969,0.0361045610351578,0.577822882480618,0.879272000000128,
0.107499654541016,0.565510432128906,-0.0452982954101557,0.577416799322747,0.882196000000022,
0.15538368774414,0.596635053710938,0.0169509477539069,0.616769659081393,0.885224000000107,
0.117076461181641,0.575087238769531,0.0073741411132815,0.586929815153003,0.888159000000087,
0.157777889404297,0.591846650390625,-0.0381156904296862,0.613701169805313,0.891167000000223,
0.109893856201172,0.606211860351563,0.0337103593750001,0.617013668884943,0.894146999999975,
0.129047469482422,0.575087238769531,0.0241335527343765,0.589882200056048,0.897160999999869,
0.138624276123047,0.60142345703125,-0.0117794721679676,0.617305127601103,0.900260999999773,
0.133835872802734,0.591846650390625,-0.0261446821289049,0.60735330972268,0.903299999999945,
0.148201082763672,0.594240852050781,0.00497993945312558,0.61246269353759,0.90634,
0.160172091064453,0.608606062011719,0.0456813676757815,0.630985914918948,0.909277000000202,
0.121864864501953,0.589452448730469,0.052863972656251,0.604234916335879,0.912208000000192,
0.160172091064453,0.606211860351563,0.00258573779296967,0.627020417870739,0.915238999999929,
0.0931344445800779,0.606211860351563,0.0408929643554696,0.614686162957911,0.918191000000206,
0.145806881103515,0.555933625488281,-0.0405098920898439,0.576162211432518,0.921201999999994,
0.141018477783203,0.584664045410156,0.0265277543945324,0.602014932393606,0.924140000000079,
0.133835872802734,0.58226984375,0.0265277543945324,0.598041748996453,0.927075999999943,
0.138624276123047,0.58226984375,0.0720175859375001,0.602861006829562,0.930083000000195,
0.121864864501953,0.577481440429688,0.000191536132813752,0.590199877945528,0.933039000000008,
0.138624276123047,0.603817658691406,-0.0141736738281235,0.61968810534655,0.936075999999957,
0.119470662841797,0.594240852050781,-0.0189620771484371,0.606428058301791,0.939038999999866,
0.15538368774414,0.579875642089844,-0.0141736738281235,0.600500411103825,0.942039999999906,
0.117076461181641,0.591846650390625,-0.0117794721679676,0.603430287030718,0.944980000000214,
0.13623007446289,0.591846650390625,-0.00699106884765577,0.607363125165169,0.947913999999855,
0.143412679443359,0.529597407226563,0.0313161577148442,0.549564656887834,0.950936000000183,
0.109893856201172,0.587058247070313,0.0121625444335951,0.59737925354931,0.953872000000047,
0.13623007446289,0.611000263671875,-0.0357214887695303,0.627021514906129,0.956854999999905,
0.172143099365234,0.579875642089844,-0.0429040937499998,0.60640726266156,0.959805999999844,
0.126653267822265,0.594240852050781,0.00258573779296967,0.607593553731465,0.96273199999996,
0.133835872802734,0.589452448730469,0.0169509477539069,0.604692950837837,0.965748000000076,
0.126653267822265,0.603817658691406,-0.0357214887695303,0.617990970773475,0.968687999999929,
0.160172091064453,0.555933625488281,0.00258573779296967,0.578553351683696,0.971712000000025,
0.105105452880859,0.553539423828125,0.00258573779296967,0.563435653821443,0.974647000000004,
0.107499654541016,0.548751020507813,0.000191536132813752,0.559181450801878,0.977558000000045,
0.112288057861328,0.575087238769531,0.0432871660156255,0.587543801665456,0.980579000000034,
0.121864864501953,0.589452448730469,0.0217393510742188,0.602310413241838,0.98351300000013,
0.148201082763672,0.570298835449219,0.0241335527343765,0.589734475009425,0.986515000000054,
0.114682259521484,0.606211860351563,-0.059663505371093,0.619842378474578,0.989446999999927,
0.141018477783203,0.567904633789063,-0.0644519086914048,0.588690014090052,0.992388000000119,
0.138624276123047,0.579875642089844,0.0073741411132815,0.596260704874056,0.995417000000089,
0.112288057861328,0.599029255371094,0.00976834277343741,0.609540874141559,0.998348999999962,
0.131441671142578,0.560722028808594,-0.0333272871093744,0.57688544319479,1.00136699999985,
0.119470662841797,0.579875642089844,-0.0141736738281235,0.592224528872921,1.00430899999992,
0.141018477783203,0.613394465332031,-0.0261446821289049,0.629938509364114,1.0072439999999,
0.157777889404297,0.589452448730469,-0.00459686718749985,0.610220601821309,1.01026899999988,
0.121864864501953,0.536780012207031,0.0121625444335951,0.55057402244581,1.01321999999982,
