X,Y,Z,Magnitude,Seconds,
-0.155862528076172,0.606211860351563,-0.0788171186523439,0.630870894464038,0.0,
-0.134314713134766,0.622971271972656,0.052863972656251,0.639474977987962,0.00389600000016799,
-0.146285721435547,0.625365473632813,-0.0309330854492185,0.642991713541721,0.00782600000002276,
-0.177410343017578,0.608606062011719,0.0193451494140628,0.634231821444556,0.0116830000006303,
-0.172621939697266,0.572693037109375,0.00497993945312558,0.598164232143116,0.0154940000002171,
-0.184592947998047,0.596635053710938,0.0408929643554696,0.625875529399449,0.0192870000000767,
-0.110372696533203,0.587058247070313,-0.00699106884765577,0.597384627051041,0.0230799999999363,
-0.186987149658203,0.58226984375,0.0576523759765628,0.614268802344456,0.0269269999998869,
-0.179804544677735,0.579875642089844,0.0121625444335951,0.607234190459476,0.0306980000004842,
-0.148679923095703,0.60142345703125,0.0121625444335951,0.619648143454221,0.034483999999793,
-0.15107412475586,0.611000263671875,0.00258573779296967,0.62940559214054,0.0383840000004056,
-0.129526309814453,0.548751020507813,0.0313161577148442,0.564699432598029,0.0421740000001591,
-0.153468326416016,0.577481440429688,-0.0548751020507812,0.600040513697836,0.0458920000000944,
-0.110372696533203,0.589452448730469,0.0408929643554696,0.601089474195094,0.0496510000002672,
-0.167833536376953,0.551145222167969,-0.021356278808593,0.576528613770318,0.053382000000056,
-0.105584293212891,0.579875642089844,-0.00459686718749985,0.589427632920542,0.0571159999999509,
-0.158256729736328,0.579875642089844,0.00976834277343741,0.601162518223222,0.0609150000000227,
-0.122343704833985,0.606211860351563,-0.00938527050781168,0.618505363797205,0.06464700000015,
-0.167833536376953,0.618182868652344,-0.00699106884765577,0.640598961965806,0.0683530000005703,
-0.15107412475586,0.589452448730469,-0.00699106884765577,0.608544538656562,0.0720790000004854,
-0.141497318115235,0.599029255371094,0.0337103593750001,0.616436475359337,0.0760580000005575,
-0.146285721435547,0.599029255371094,-0.00938527050781168,0.616703854689486,0.0798860000004424,
-0.153468326416016,0.555933625488281,-0.00938527050781168,0.576803958433004,0.0837090000004537,
-0.141497318115235,0.584664045410156,0.000191536132813752,0.601542661592063,0.0875270000005912,
-0.117555301513672,0.589452448730469,0.0456813676757815,0.602793684091868,0.0913160000000062,
-0.179804544677735,0.577481440429688,0.0600465776367187,0.607799374640511,0.095169000000169,
-0.11276689819336,0.608606062011719,0.014556746093751,0.619136181225424,0.098985000000539,
-0.141497318115235,0.622971271972656,-0.0644519086914048,0.642081572131609,0.102746000000479,
-0.165439334716797,0.613394465332031,-0.0237504804687489,0.635757051784722,0.106537000000571,
-0.158256729736328,0.589452448730469,-0.00459686718749985,0.610344585467196,0.11044899999979,
-0.141497318115235,0.577481440429688,-0.0141736738281235,0.594732879622723,0.114246000000094,
-0.177410343017578,0.60142345703125,-0.0237504804687489,0.627493975906965,0.117987999999968,
-0.129526309814453,0.603817658691406,0.00976834277343741,0.617631160485172,0.121783999999934,
-0.134314713134766,0.572693037109375,0.00976834277343741,0.588313842637222,0.125549999999748,
-0.146285721435547,0.584664045410156,-0.00220266552734216,0.602690973905129,0.1292940000003,
-0.155862528076172,0.546356818847656,0.00976834277343741,0.568237909400777,0.133127000000059,
-0.139103116455078,0.589452448730469,0.0384987626953137,0.606865735604616,0.13689500000055,
-0.13192051147461,0.594240852050781,-0.0429040937499998,0.61021797159234,0.140618999999788,
-0.153468326416016,0.632548078613281,-0.0333272871093744,0.651751721928187,0.144432000000052,
-0.0984016882324221,0.551145222167969,0.0337103593750001,0.560874617445613,0.148439000000508,
-0.167833536376953,0.615788666992188,0.014556746093751,0.638416538934924,0.152223000000049,
-0.175016141357422,0.599029255371094,0.00976834277343741,0.624149116034484,0.156020000000353,
-0.103190091552735,0.611000263671875,0.00258573779296967,0.619658134168911,0.159937000000355,
-0.163045133056641,0.615788666992188,-0.0261446821289049,0.637544462930308,0.163776000000325,
-0.153468326416016,0.599029255371094,0.00976834277343741,0.618452905663737,0.167613999999958,
-0.146285721435547,0.56311623046875,-0.0285388837890626,0.582506540050134,0.171398999999838,
-0.158256729736328,0.587058247070313,0.052863972656251,0.610309083633126,0.175197999999909,
-0.153468326416016,0.591846650390625,-0.021356278808593,0.611793327387678,0.178969000000507,
-0.165439334716797,0.606211860351563,0.00497993945312558,0.628400980982204,0.182821000000331,
-0.167833536376953,0.572693037109375,-0.0165678754882812,0.59700913325053,0.186580999999933,
-0.124737906494141,0.577481440429688,-0.0405098920898439,0.592186972766557,0.190317999999934,
-0.124737906494141,0.596635053710938,0.0121625444335951,0.609656345919809,0.194081000000551,
-0.105584293212891,0.613394465332031,-0.0285388837890626,0.623069242509338,0.197804999999789,
-0.110372696533203,0.60142345703125,-0.0237504804687489,0.611928420756813,0.201517000000422,
-0.115161099853516,0.603817658691406,0.000191536132813752,0.61470145644299,0.205339000000095,
-0.119949503173828,0.606211860351563,-0.0716345136718743,0.622103051344033,0.209069999999883,
-0.167833536376953,0.632548078613281,0.0648349809570323,0.657638762882669,0.212825000000521,
-0.163045133056641,0.637336481933594,0.0600465776367187,0.660596017322865,0.216747000000396,
-0.148679923095703,0.611000263671875,0.00497993945312558,0.628849617584206,0.220645000000331,
-0.143891519775391,0.608606062011719,-0.0165678754882812,0.625604190106555,0.22439200000008,
-0.136708914794922,0.608606062011719,-0.0261446821289049,0.62431899739271,0.228146000000379,
-0.134314713134766,0.599029255371094,-0.0644519086914048,0.617276712252201,0.232001999999738,
-0.115161099853516,0.596635053710938,-0.00220266552734216,0.607651477387779,0.235798000000614,
-0.167833536376953,0.591846650390625,-0.0141736738281235,0.615346606833241,0.239577000000281,
-0.13192051147461,0.6205770703125,0.0241335527343765,0.634902630261484,0.243363999999929,
-0.122343704833985,0.584664045410156,-0.0141736738281235,0.597495540684331,0.247099000000162,
-0.141497318115235,0.565510432128906,0.0504697709960951,0.585124548848213,0.250918000000638,
-0.15107412475586,0.599029255371094,0.0313161577148442,0.618579131312411,0.254775000000336,
-0.122343704833985,0.637336481933594,0.00976834277343741,0.649046372639532,0.258571000000302,
-0.127132108154297,0.575087238769531,-0.0644519086914048,0.592487935449562,0.262340000000222,
-0.148679923095703,0.570298835449219,-0.00220266552734216,0.589365194918995,0.266093000000183,
-0.143891519775391,0.570298835449219,0.014556746093751,0.58835145111986,0.269860999999764,
-0.107978494873047,0.591846650390625,0.000191536132813752,0.601616031717691,0.273605000000316,
-0.143891519775391,0.625365473632813,0.0600465776367187,0.644509376627793,0.277358000000277,
-0.146285721435547,0.584664045410156,0.052863972656251,0.605000956938325,0.281216000000313,
-0.167833536376953,0.608606062011719,0.014556746093751,0.631491356636846,0.285026000000471,
-0.13192051147461,0.591846650390625,0.0121625444335951,0.606492709282993,0.289032000000589,
-0.129526309814453,0.611000263671875,0.0672291826171882,0.62818639760554,0.292873999999756,
-0.15107412475586,0.615788666992188,0.0384987626953137,0.635217465357994,0.296677000000273,
-0.122343704833985,0.503261188964844,-0.701309550292969,0.8718227410219,0.300438000000213,
0.0667982263183592,1.02759135253906,1.48459656542969,1.80677418426819,0.304444000000331,
-0.347398660888672,0.500866987304688,-0.358938712890625,0.707382900677204,0.307456999999886,
-0.471897147216797,-0.135990654296875,-1.12029484082031,1.22320926499763,0.3104000000003,
0.265516964111328,0.769017573242188,-0.136277958496093,0.824899368503857,0.313418000000638,
-0.13192051147461,1.20476227539063,1.71204572314453,2.0976071414089,0.316386000000421,
-0.230082779541016,0.362003291015625,-0.607935685546874,0.744023027808152,0.319379000000481,
-0.139103116455078,0.393127912597656,-0.914393498046874,1.00499487657465,0.322317000000112,
-0.335427652587891,0.814507404785156,0.766336067382813,1.1675636987943,0.325248000000101,
-0.177410343017578,0.503261188964844,0.11750741748047,0.546401177973522,0.328260000000228,
0.0237025964355467,0.496078583984375,-0.493014005859374,0.699798960087278,0.331215000000157,
-0.275572611083985,0.73549875,0.423965229980469,0.89254982575966,0.334246999999777,
-0.119949503173828,0.531991608886719,-0.263170646484374,0.60552600638497,0.33717500000057,
-0.0193930334472658,0.452982954101563,-0.172190983398437,0.484994207405187,0.340091000000029,
-0.141497318115235,0.663672700195313,0.352139180175781,0.764516151715065,0.34309900000062,
-0.206140762939453,0.642124885253906,-0.220075016601562,0.709402139367919,0.346027999999933,
-0.0912190832519533,0.481713374023438,0.0600465776367187,0.493937533852464,0.34903900000063,
-0.251630594482422,0.599029255371094,0.0768059892578137,0.654257720516843,0.351982000000135,
-0.134314713134766,0.625365473632813,-0.097970731933593,0.647086301888759,0.354887000000417,
-0.0481234533691408,0.575087238769531,0.0720175859375001,0.581573496339028,0.357898000000205,
-0.203746561279297,0.630153876953125,0.0217393510742188,0.662630492248373,0.360838000000513,
-0.124737906494141,0.56311623046875,0.00497993945312558,0.576787858862192,0.363846000000194,
-0.117555301513672,0.58226984375,-0.0524809003906235,0.596331841142522,0.366772999999739,
-0.210929166259766,0.627759675292969,-0.0476924970703116,0.663963777159398,0.369756000000052,
-0.0888248815917971,0.611000263671875,0.0073741411132815,0.617467051553406,0.372690000000148,
-0.107978494873047,0.603817658691406,-0.0309330854492185,0.614175851102947,0.37559500000043,
-0.148679923095703,0.587058247070313,0.0193451494140628,0.605902087627089,0.378615000000536,
-0.0720654699707033,0.558327827148438,-0.021356278808593,0.56336443371493,0.38153500000044,
-0.146285721435547,0.599029255371094,0.00976834277343741,0.616709803397761,0.384539000000586,
-0.179804544677735,0.670855305175781,0.0121625444335951,0.694639793170789,0.387483999999858,
-0.160650931396485,0.58226984375,-0.0165678754882812,0.604252751087989,0.39039000000048,
-0.167833536376953,0.591846650390625,-0.0357214887695303,0.616219586082193,0.393388999999843,
-0.141497318115235,0.591846650390625,0.0241335527343765,0.609004414581692,0.396332000000257,
-0.119949503173828,0.591846650390625,0.000191536132813752,0.603879439603917,0.399347999999918,
-0.134314713134766,0.60142345703125,-0.0452982954101557,0.61790173361058,0.402369999999792,
-0.136708914794922,0.587058247070313,-0.00699106884765577,0.602806426542805,0.405385000000024,
-0.124737906494141,0.575087238769531,0.0576523759765628,0.59127715495176,0.408495000000585,
-0.194169754638672,0.627759675292969,-0.0285388837890626,0.657722260097909,0.411479999999756,
-0.155862528076172,0.58226984375,0.0504697709960951,0.604878910512958,0.414494999999988,
-0.115161099853516,0.567904633789063,-0.059663505371093,0.582526811290027,0.417422000000442,
-0.172621939697266,0.603817658691406,-0.0309330854492185,0.628769397146384,0.42034700000022,
-0.172621939697266,0.596635053710938,0.0648349809570323,0.624480020606903,0.423381000000518,
-0.163045133056641,0.60142345703125,-0.00220266552734216,0.623136214495918,0.426308000000063,
-0.165439334716797,0.606211860351563,0.000191536132813752,0.628381277401331,0.429342000000361,
-0.129526309814453,0.572693037109375,0.0073741411132815,0.587204187352976,0.432295000000522,
-0.141497318115235,0.618182868652344,-0.0524809003906235,0.636337799470419,0.435223000000406,
-0.100795889892578,0.58226984375,0.0193451494140628,0.591246325287303,0.43826799999988,
-0.136708914794922,0.594240852050781,0.0193451494140628,0.610070284833064,0.441214999999829,
-0.146285721435547,0.630153876953125,-0.0165678754882812,0.647122797800516,0.444247999999789,
-0.160650931396485,0.579875642089844,-0.00938527050781168,0.601791130999927,0.447191000000203,
-0.141497318115235,0.613394465332031,0.052863972656251,0.63171897291341,0.450111000000106,
-0.122343704833985,0.618182868652344,0.0672291826171882,0.633749007260068,0.453118000000359,
-0.179804544677735,0.575087238769531,0.0456813676757815,0.604269636697941,0.456062000000202,
-0.124737906494141,0.572693037109375,0.00497993945312558,0.586141330966396,0.459066000000348,
-0.167833536376953,0.591846650390625,0.00258573779296967,0.615188783668339,0.462003999999979,
-0.17022773803711,0.611000263671875,0.0169509477539069,0.6344967609327,0.464993999999933,
-0.100795889892578,0.603817658691406,0.0313161577148442,0.612973309452238,0.467936000000009,
-0.141497318115235,0.579875642089844,-0.00459686718749985,0.596907348347172,0.470844000000398,
-0.124737906494141,0.572693037109375,0.0289219560546883,0.586833315015542,0.473876000000018,
-0.141497318115235,0.637336481933594,0.0672291826171882,0.656307127214591,0.476819000000432,
-0.103190091552735,0.613394465332031,0.0193451494140628,0.622314389919181,0.479812999999922,
-0.117555301513672,0.596635053710938,0.0217393510742188,0.608494236304463,0.482756000000336,
-0.15107412475586,0.589452448730469,-0.0476924970703116,0.610370506136967,0.485666000000492,
-0.148679923095703,0.589452448730469,0.0289219560546883,0.608601995057623,0.488680999999815,
-0.184592947998047,0.587058247070313,-0.00699106884765577,0.615435469360932,0.491598000000522,
-0.148679923095703,0.613394465332031,-0.0357214887695303,0.632166524257355,0.494598000000224,
-0.160650931396485,0.625365473632813,0.00258573779296967,0.64567591205688,0.497553000000153,
-0.11276689819336,0.606211860351563,0.0456813676757815,0.618300881700636,0.500481000000036,
-0.136708914794922,0.596635053710938,0.0720175859375001,0.616319111650226,0.50348699999995,
-0.136708914794922,0.589452448730469,-0.0141736738281235,0.605263917418292,0.506417000000511,
-0.13192051147461,0.599029255371094,-0.0285388837890626,0.614046853282464,0.509412999999768,
-0.146285721435547,0.577481440429688,0.0408929643554696,0.597123572529542,0.512360000000626,
-0.148679923095703,0.591846650390625,0.0576523759765628,0.61295348401497,0.515292000000045,
-0.122343704833985,0.646913288574219,-0.0381156904296862,0.659482820779546,0.518291999999747,
-0.127132108154297,0.625365473632813,0.0504697709960951,0.640149784285011,0.521244000000479,
-0.119949503173828,0.589452448730469,0.0217393510742188,0.601925802745756,0.524261000000479,
-0.141497318115235,0.577481440429688,0.00258573779296967,0.59456958475395,0.527197999999771,
-0.127132108154297,0.591846650390625,-0.0309330854492185,0.606136854413067,0.53011400000014,
-0.122343704833985,0.584664045410156,0.0792001909179696,0.602555141335063,0.533131000000139,
-0.141497318115235,0.618182868652344,-0.0333272871093744,0.635045083592587,0.536059000000023,
-0.146285721435547,0.60142345703125,-0.00459686718749985,0.618975619997491,0.539099000000533,
-0.13192051147461,0.584664045410156,0.0121625444335951,0.599485608526336,0.542151999999987,
-0.129526309814453,0.603817658691406,0.0121625444335951,0.617673665756296,0.545178000000305,
-0.13192051147461,0.577481440429688,0.0313161577148442,0.593185078303973,0.548286000000189,
-0.158256729736328,0.589452448730469,0.0241335527343765,0.610804232294412,0.551247999999759,
-0.158256729736328,0.575087238769531,0.00976834277343741,0.596545006871184,0.55425699999978,
-0.177410343017578,0.632548078613281,0.0121625444335951,0.657068816071854,0.557206000000406,
-0.134314713134766,0.613394465332031,-0.0189620771484371,0.628213954504535,0.560187000000042,
-0.129526309814453,0.611000263671875,0.00976834277343741,0.624654950882317,0.563156000000163,
-0.11276689819336,0.579875642089844,0.0265277543945324,0.591333962639114,0.566076000000066,
-0.146285721435547,0.575087238769531,0.0121625444335951,0.593525712988563,0.569078000000445,
-0.103190091552735,0.634942280273438,0.0193451494140628,0.643563616963659,0.5720280000005,
-0.18938135131836,0.685220515136719,0.306649348632813,0.774226241875285,0.575018999999884,
-0.256418997802735,0.445800349121094,-0.0883939252929675,0.521825775273076,0.577971000000616,
-0.0648828649902345,0.520020600585938,-0.253593839843749,0.582186436470137,0.580910000000586,
-0.00981622680664085,0.862391437988281,0.0959596025390628,0.867769321849805,0.58395500000006,
-0.184592947998047,0.6205770703125,0.423965229980469,0.773910183988199,0.586887999999817,
-0.186987149658203,0.438617744140625,-0.555263249023437,0.73189274851468,0.58988700000009,
-0.191775552978516,0.6205770703125,0.242005903808595,0.693152667452183,0.592845000000125,
-0.184592947998047,0.594240852050781,0.0432871660156255,0.62375518069056,0.595763000000261,
-0.0457292517089846,0.553539423828125,-0.239228629882811,0.604753995893738,0.598748000000342,
-0.184592947998047,0.651701691894531,0.218063887207032,0.71157677770754,0.601698999999826,
-0.15107412475586,0.625365473632813,-0.0740287153320303,0.647599889960191,0.604691000000457,
-0.143891519775391,0.548751020507813,-0.0859997236328116,0.573784283887732,0.607622000000447,
-0.146285721435547,0.596635053710938,0.088776997558595,0.620688532927821,0.61054299999978,
-0.139103116455078,0.577481440429688,-0.0668461103515625,0.597748185708158,0.613538999999946,
-0.13192051147461,0.570298835449219,-0.0429040937499998,0.586928057195229,0.61646699999983,
-0.172621939697266,0.625365473632813,0.0313161577148442,0.649508284328121,0.619483999999829,
-0.117555301513672,0.584664045410156,-0.0452982954101557,0.598082962870876,0.622405000000072,
-0.0888248815917971,0.587058247070313,0.014556746093751,0.593918465700388,0.625340000000506,
-0.184592947998047,0.6205770703125,0.0265277543945324,0.647992421561759,0.628356000000167,
-0.18938135131836,0.58226984375,-0.0117794721679676,0.612406909768639,0.631288000000495,
-0.155862528076172,0.594240852050781,-0.0309330854492185,0.615119641760644,0.634300000000621,
-0.153468326416016,0.615788666992188,-0.00459686718749985,0.634641111807995,0.637243000000126,
-0.115161099853516,0.579875642089844,-0.021356278808593,0.591585944604104,0.640154000000621,
-0.124737906494141,0.589452448730469,0.0337103593750001,0.603448525526477,0.64315600000009,
-0.177410343017578,0.630153876953125,-0.0381156904296862,0.655759974613883,0.64608700000008,
-0.11276689819336,0.58226984375,0.00976834277343741,0.59316942334323,0.649107000000186,
-0.136708914794922,0.584664045410156,0.00976834277343741,0.600513774946349,0.652041000000281,
-0.124737906494141,0.594240852050781,0.0384987626953137,0.608410955104894,0.655040999999983,
-0.136708914794922,0.613394465332031,-0.0452982954101557,0.630074624986152,0.657965000000331,
-0.155862528076172,0.599029255371094,0.0408929643554696,0.620323634067347,0.660896000000321,
-0.17022773803711,0.584664045410156,-0.0117794721679676,0.609055239495693,0.663887000000614,
-0.115161099853516,0.589452448730469,0.0552581743164069,0.603133263933104,0.666836999999759,
-0.165439334716797,0.625365473632813,-0.00938527050781168,0.646946854375252,0.669813000000431,
-0.127132108154297,0.6205770703125,0.0217393510742188,0.633838364653426,0.672759000000042,
-0.155862528076172,0.587058247070313,-0.00938527050781168,0.607469008603788,0.675661000000218,
-0.136708914794922,0.625365473632813,0.0672291826171882,0.643654461642093,0.678767000000335,
-0.11276689819336,0.58226984375,-0.00220266552734216,0.593093075329856,0.681797000000188,
-0.155862528076172,0.565510432128906,-0.00220266552734216,0.586600399113692,0.684903000000304,
-0.127132108154297,0.618182868652344,0.00258573779296967,0.631125437657944,0.68790700000045,
-0.141497318115235,0.572693037109375,0.00976834277343741,0.589995107020307,0.69083000000046,
-0.134314713134766,0.579875642089844,0.000191536132813752,0.595227888408862,0.693833000000268,
-0.158256729736328,0.627759675292969,-0.00938527050781168,0.647468521036564,0.696756000000278,
-0.141497318115235,0.63973068359375,0.0408929643554696,0.656467115017126,0.699800000000323,
-0.124737906494141,0.611000263671875,-0.0117794721679676,0.62371437652839,0.702728000000207,
-0.127132108154297,0.591846650390625,0.00497993945312558,0.60536751671965,0.705654999999751,
-0.141497318115235,0.627759675292969,0.00258573779296967,0.643514092306976,0.708680000000641,
-0.139103116455078,0.553539423828125,0.00976834277343741,0.570833593317726,0.711616999999933,
-0.141497318115235,0.565510432128906,-0.0333272871093744,0.583895750923482,0.71463600000061,
-0.141497318115235,0.589452448730469,-0.0237504804687489,0.60666281052216,0.717556999999942,
-0.141497318115235,0.632548078613281,-0.0572693037109371,0.650706028816925,0.72050500000023,
-0.134314713134766,0.599029255371094,0.0241335527343765,0.614376854481437,0.723541000000296,
-0.17022773803711,0.58226984375,-0.0261446821289049,0.607206059045446,0.726470000000518,
-0.172621939697266,0.572693037109375,0.0361045610351578,0.599232165480082,0.729487999999947,
-0.15107412475586,0.606211860351563,0.0337103593750001,0.625661728996463,0.732434000000467,
-0.124737906494141,0.58226984375,-0.0333272871093744,0.596412964583485,0.735344000000623,
-0.100795889892578,0.606211860351563,0.0648349809570323,0.617945147894081,0.73835599999984,
-0.136708914794922,0.611000263671875,-0.021356278808593,0.626471659563349,0.741289999999935,
-0.13192051147461,0.608606062011719,0.0289219560546883,0.623410650861183,0.744308000000274,
-0.191775552978516,0.58226984375,0.0121625444335951,0.613159001522415,0.747248000000582,
-0.143891519775391,0.587058247070313,0.0289219560546883,0.605126957306125,0.750267999999778,
-0.15107412475586,0.577481440429688,0.0552581743164069,0.599467823190101,0.753203000000212,
-0.115161099853516,0.611000263671875,-0.0500866987304676,0.623772457324215,0.756124000000455,
-0.13192051147461,0.587058247070313,-0.0237504804687489,0.602166498672491,0.759130000000368,
-0.139103116455078,0.596635053710938,0.0552581743164069,0.615123182909692,0.762077999999747,
-0.148679923095703,0.6205770703125,0.0265277543945324,0.638690333011708,0.76506800000061,
-0.129526309814453,0.575087238769531,0.0313161577148442,0.590324570777581,0.768012999999883,
-0.139103116455078,0.575087238769531,0.0241335527343765,0.592163353789021,0.770935000000463,
-0.158256729736328,0.587058247070313,0.0552581743164069,0.61052112476874,0.773959000000104,
-0.124737906494141,0.611000263671875,0.0408929643554696,0.624942478999003,0.776898000000074,
-0.182198746337891,0.622971271972656,-0.0141736738281235,0.649222983188453,0.779891000000134,
-0.167833536376953,0.599029255371094,-0.00699106884765577,0.622135853143728,0.782820000000356,
-0.141497318115235,0.603817658691406,-0.0189620771484371,0.620465000101665,0.785727999999835,
-0.134314713134766,0.618182868652344,-0.00938527050781168,0.632675734134177,0.788723000000573,
-0.163045133056641,0.618182868652344,-0.0333272871093744,0.64019097351866,0.791651000000456,
-0.163045133056641,0.622971271972656,0.0193451494140628,0.644244639808931,0.794659000000138,
-0.15107412475586,0.6205770703125,-0.0237504804687489,0.639142688834732,0.797579000000042,
-0.143891519775391,0.625365473632813,0.0241335527343765,0.642159772519929,0.800505000000157,
-0.163045133056641,0.579875642089844,0.0193451494140628,0.602672141805492,0.803514000000177,
-0.103190091552735,0.649307490234375,0.0073741411132815,0.657497368683924,0.806441000000632,
-0.13192051147461,0.618182868652344,-0.0117794721679676,0.632211860381882,0.809433999999783,
-0.134314713134766,0.606211860351563,-0.059663505371093,0.6237731924895,0.812362000000576,
-0.100795889892578,0.599029255371094,0.0480755693359374,0.609349752257813,0.81532900000002,
-0.103190091552735,0.579875642089844,0.0121625444335951,0.589111095440299,0.81844000000001,
-0.175016141357422,0.608606062011719,-0.0429040937499998,0.634722576968523,0.82147200000054,
-0.15107412475586,0.608606062011719,0.0217393510742188,0.627453049457319,0.824593000000277,
-0.115161099853516,0.596635053710938,0.0121625444335951,0.607769194450676,0.827557000000525,
-0.15107412475586,0.60142345703125,0.00976834277343741,0.620184638925142,0.83047600000009,
-0.127132108154297,0.567904633789063,0.014556746093751,0.582142718634944,0.833472000000256,
-0.136708914794922,0.60142345703125,0.0217393510742188,0.617148362581441,0.836433000000397,
-0.141497318115235,0.584664045410156,0.0121625444335951,0.601665575312625,0.839464000000589,
-0.158256729736328,0.591846650390625,0.0241335527343765,0.613115061349029,0.842400999999882,
-0.153468326416016,0.6205770703125,0.0480755693359374,0.64107697492388,0.845405000000028,
-0.119949503173828,0.594240852050781,0.00976834277343741,0.606304786454986,0.848356000000422,
-0.153468326416016,0.570298835449219,-0.021356278808593,0.590973247763567,0.851282000000538,
-0.115161099853516,0.579875642089844,0.0073741411132815,0.591246325287302,0.854307999999946,
-0.122343704833985,0.622971271972656,0.000191536132813752,0.63487102981773,0.857273999999961,
-0.184592947998047,0.606211860351563,-0.0500866987304676,0.635669767624062,0.860279999999875,
-0.182198746337891,0.591846650390625,0.0169509477539069,0.619488640231165,0.863240000000587,
-0.179804544677735,0.560722028808594,0.0384987626953137,0.590102552618664,0.866165000000365,
-0.115161099853516,0.58226984375,0.0289219560546883,0.594253085311427,0.869182999999794,
-0.139103116455078,0.594240852050781,0.0361045610351578,0.61137174172601,0.872129999999743,
-0.134314713134766,0.56311623046875,0.0432871660156255,0.580529163714859,0.875148000000081,
-0.148679923095703,0.596635053710938,-0.0548751020507812,0.617325184706959,0.878075000000536,
-0.167833536376953,0.606211860351563,0.00258573779296967,0.629021145593398,0.881003000000419,
-0.158256729736328,0.596635053710938,-0.0165678754882812,0.617489331342401,0.883990000000267,
-0.15107412475586,0.589452448730469,-0.0237504804687489,0.608967705061271,0.886938000000555,
-0.155862528076172,0.594240852050781,-0.0237504804687489,0.614800295402361,0.889939000000595,
-0.107978494873047,0.608606062011719,-0.0500866987304676,0.620136574846362,0.892872000000352,
-0.117555301513672,0.579875642089844,0.0169509477539069,0.591914135523755,0.89579700000013,
-0.110372696533203,0.58226984375,0.014556746093751,0.592817174124956,0.898809000000256,
-0.0984016882324221,0.567904633789063,0.0217393510742188,0.576776529265198,0.90174399999978,
-0.122343704833985,0.594240852050781,-0.0189620771484371,0.607000603565043,0.904744000000392,
-0.143891519775391,0.591846650390625,0.0432871660156255,0.610623456627355,0.907690000000002,
-0.134314713134766,0.594240852050781,0.0792001909179696,0.614357634161045,0.910613000000012,
-0.153468326416016,0.546356818847656,0.000191536132813752,0.567501839116274,0.913637999999992,
-0.160650931396485,0.584664045410156,0.0169509477539069,0.606570772774029,0.916573999999855,
-0.107978494873047,0.587058247070313,-0.0476924970703116,0.598808245672284,0.919566000000486,
-0.146285721435547,0.555933625488281,-0.0261446821289049,0.575452215781714,0.922507000000223,
-0.136708914794922,0.579875642089844,-0.0285388837890626,0.596455828675887,0.925409999999829,
-0.148679923095703,0.625365473632813,-0.0189620771484371,0.643076399437516,0.92840200000046,
-0.17022773803711,0.632548078613281,-0.0357214887695303,0.656026355655393,0.931332000000111,
-0.175016141357422,0.613394465332031,-0.00220266552734216,0.637877944101405,0.934336000000258,
-0.122343704833985,0.58226984375,-0.00220266552734216,0.594988239201902,0.937270999999782,
-0.134314713134766,0.58226984375,0.0361045610351578,0.598650275563843,0.940282000000479,
-0.172621939697266,0.618182868652344,-0.0237504804687489,0.642271343345306,0.943216000000575,
-0.172621939697266,0.594240852050781,0.0744117875976578,0.623263698962457,0.946147000000565,
-0.0840364782714846,0.579875642089844,-0.0117794721679676,0.586051743392969,0.949137000000519,
-0.105584293212891,0.630153876953125,0.0289219560546883,0.639592394540733,0.952089999999771,
-0.172621939697266,0.622971271972656,-0.0333272871093744,0.647303829614924,0.955152999999882,
-0.124737906494141,0.565510432128906,-0.00459686718749985,0.579122375108321,0.95818700000018,
-0.136708914794922,0.603817658691406,0.0169509477539069,0.619332242791971,0.961213999999927,
-0.119949503173828,0.599029255371094,0.0504697709960951,0.613001737262215,0.964302000000316,
-0.124737906494141,0.611000263671875,0.000191536132813752,0.623603162443659,0.967244000000392,
-0.117555301513672,0.594240852050781,0.0313161577148442,0.60656585866172,0.970256999999947,
-0.143891519775391,0.572693037109375,-0.0261446821289049,0.591071593481241,0.973179999999957,
-0.148679923095703,0.60142345703125,-0.0285388837890626,0.620185748052219,0.976130000000012,
-0.100795889892578,0.570298835449219,0.014556746093751,0.579320698741906,0.979139000000032,
-0.146285721435547,0.572693037109375,-0.00938527050781168,0.591155572038345,0.982074999999895,
-0.160650931396485,0.618182868652344,0.00497993945312558,0.638735924033364,0.985101000000213,
-0.136708914794922,0.627759675292969,0.0432871660156255,0.64392958935741,0.988041000000521,
-0.146285721435547,0.555933625488281,-0.0141736738281235,0.575032695830636,0.990972000000511,
-0.107978494873047,0.627759675292969,-0.00220266552734216,0.636982273705013,0.993967000000339,
-0.129526309814453,0.606211860351563,-0.0285388837890626,0.620551651720449,0.99692800000048,
-0.143891519775391,0.608606062011719,0.0217393510742188,0.625762500926519,0.999968000000081,
-0.143891519775391,0.579875642089844,0.0432871660156255,0.599027802772162,1.00290899999982,
-0.143891519775391,0.627759675292969,0.0073741411132815,0.644081793986109,1.00584900000013,
-0.129526309814453,0.615788666992188,0.0624407792968764,0.632354013389151,1.00885300000027,
-0.177410343017578,0.558327827148438,-0.00699106884765577,0.585878201865834,1.0117850000006,
