X,Y,Z,Magnitude,Seconds,
-0.376129080810547,0.278206232910156,0.0169509477539069,0.468144345358569,0.0,
-0.388100089111328,0.328484467773438,-0.0309330854492185,0.509392364010326,0.00388099999963742,
-0.383311685791016,0.29496564453125,0.00258573779296967,0.483672684733819,0.00770899999952235,
-0.414436307373047,0.311725056152344,-0.0141736738281235,0.518778234443172,0.0116379999999481,
-0.383311685791016,0.302148249511719,-0.00938527050781168,0.488169536584834,0.0155409999997573,
-0.376129080810547,0.29496564453125,-0.00220266552734216,0.477998607341641,0.0194030000002385,
-0.371340677490235,0.25665841796875,0.0289219560546883,0.452331650246981,0.0232379999997647,
-0.368946475830078,0.342849677734375,-0.0141736738281235,0.503853447521981,0.0271370000000388,
-0.383311685791016,0.287783039550781,0.014556746093751,0.479540222686142,0.031051999999363,
-0.366552274169922,0.304542451171875,-0.0309330854492185,0.477559975333281,0.0349580000001879,
-0.38091748413086,0.316513459472656,-0.021356278808593,0.495716643243378,0.0388249999996333,
-0.392888492431641,0.318907661132813,0.000191536132813752,0.506027173677954,0.042660999999498,
-0.402465299072266,0.273417829589844,-0.0141736738281235,0.486761255159791,0.0464899999997215,
-0.388100089111328,0.302148249511719,-0.0788171186523439,0.498123862150645,0.0503659999994852,
-0.404859500732422,0.306936652832031,-0.0117794721679676,0.508192955627676,0.0541469999998299,
-0.385705887451172,0.235110603027344,-0.0117794721679676,0.451868103803459,0.0580689999997048,
-0.325850845947266,0.280600434570313,-0.00699106884765577,0.430074705986332,0.0620669999998427,
-0.385705887451172,0.29496564453125,-0.0165678754882812,0.48584797783507,0.065932999999859,
-0.373734879150391,0.316513459472656,0.00976834277343741,0.48985094716806,0.0699379999996381,
-0.38091748413086,0.290177241210938,-0.0572693037109371,0.482266248229036,0.0738119999996343,
-0.414436307373047,0.259052619628906,0.00976834277343741,0.488836509608422,0.0777060000000347,
-0.385705887451172,0.345243879394531,0.0241335527343765,0.518213079959841,0.0816129999993791,
-0.392888492431641,0.278206232910156,0.0337103593750001,0.48259347679435,0.0856359999997949,
-0.404859500732422,0.278206232910156,-0.0333272871093744,0.492362296921116,0.089626999999382,
-0.366552274169922,0.263841022949219,-0.0141736738281235,0.45185567178007,0.0934999999999491,
-0.385705887451172,0.381156904296875,-0.153037370117186,0.563444810039154,0.0974609999993845,
-0.26599580444336,0.122583125,-0.124306950195312,0.318170722070864,0.101386999999704,
-0.409647904052735,0.263841022949219,-0.0859997236328116,0.494792323253513,0.105241999999635,
-0.368946475830078,0.232716401367187,-0.0117794721679676,0.436368171911385,0.109233000000131,
-0.301908829345703,0.25665841796875,0.0241335527343765,0.396994852760962,0.113081999999849,
-0.36176387084961,0.352426484375,0.0935654008789069,0.513645801484492,0.116966999999931,
-0.404859500732422,0.280600434570313,0.014556746093751,0.492807993108059,0.120876999999382,
-0.373734879150391,0.25665841796875,-0.0117794721679676,0.453530659793067,0.124781999999868,
-0.345004459228516,0.232716401367187,0.0337103593750001,0.4175181297645,0.128646999999546,
-0.435984122314453,0.362003291015625,-0.0476924970703116,0.568685424372077,0.132549999999355,
-0.40007109741211,0.263841022949219,-0.00459686718749985,0.479259949884569,0.136607999999796,
-0.385705887451172,0.268629426269531,-0.0620577070312489,0.474111758211469,0.140476999999919,
-0.424013114013672,0.335667072753906,0.0121625444335951,0.540932003188799,0.144489000000249,
-0.376129080810547,0.297359846191406,0.0624407792968764,0.483523333953559,0.148341000000073,
-0.421618912353516,0.304542451171875,0.0504697709960951,0.522547423306568,0.152162999999746,
-0.383311685791016,0.354820686035156,-0.0165678754882812,0.522589764730046,0.155934999999772,
-0.407253702392578,0.278206232910156,0.014556746093751,0.493422927111581,0.160002999999961,
-0.383311685791016,0.266235224609375,0.0696233842773442,0.471864873586693,0.163899999999558,
-0.392888492431641,0.321301862792969,0.0169509477539069,0.507822399219643,0.167734999999993,
-0.359369669189453,0.302148249511719,-0.0429040937499998,0.471466738038689,0.171663000000081,
-0.388100089111328,0.323696064453125,-0.0405098920898439,0.50699297102405,0.175561000000016,
-0.402465299072266,0.263841022949219,0.0073741411132815,0.481294899521465,0.179403999999522,
-0.392888492431641,0.268629426269531,0.0337103593750001,0.477136798488962,0.183344999999463,
-0.373734879150391,0.326090266113281,-0.00220266552734216,0.496001485161903,0.187159999999494,
-0.335427652587891,0.292571442871094,-0.00459686718749985,0.44511896218004,0.190956999999798,
-0.395282694091797,0.345243879394531,0.0432871660156255,0.526607560949821,0.194861999999375,
-0.390494290771485,0.280600434570313,-0.0237504804687489,0.481442084085583,0.198711999999432,
-0.450349332275391,0.306936652832031,-0.0237504804687489,0.545516924810879,0.202556999999615,
-0.349792862548828,0.297359846191406,0.0073741411132815,0.459164788256067,0.206575000000157,
-0.38091748413086,0.292571442871094,0.0073741411132815,0.480365024598394,0.210646999999881,
-0.426407315673828,0.29496564453125,-0.0500866987304676,0.520899805820287,0.2146359999997,
-0.378523282470703,0.280600434570313,0.0552581743164069,0.474415371886522,0.21852299999955,
-0.376129080810547,0.27581203125,-0.0357214887695303,0.467783482792573,0.222452999999405,
-0.347398660888672,0.316513459472656,0.0408929643554696,0.47174021892178,0.226305000000139,
-0.366552274169922,0.266235224609375,-0.0883939252929675,0.461579083744752,0.230233000000226,
-0.354581265869141,0.27581203125,0.0337103593750001,0.450484782225554,0.23426500000005,
-0.34261025756836,0.304542451171875,0.0193451494140628,0.458805108910836,0.238205999999991,
-0.366552274169922,0.292571442871094,0.0384987626953137,0.470574939421858,0.242193000000043,
-0.402465299072266,0.299754047851563,0.0313161577148442,0.50280364745569,0.246184999999969,
-0.404859500732422,0.285388837890625,0.0289219560546883,0.496179890430776,0.250175000000127,
-0.402465299072266,0.278206232910156,0.0384987626953137,0.490774061780427,0.254103999999643,
-0.373734879150391,0.285388837890625,0.0456813676757815,0.472452469608159,0.258130999999594,
-0.373734879150391,0.282994636230469,0.00497993945312558,0.468816087422061,0.262023000000227,
-0.40007109741211,0.297359846191406,-0.00699106884765577,0.498526464849299,0.265921999999591,
-0.371340677490235,0.302148249511719,-0.021356278808593,0.479211387684446,0.269831999999951,
-0.368946475830078,0.251870014648437,-0.00220266552734216,0.446726827089961,0.273653999999624,
-0.412042105712891,0.326090266113281,-0.0165678754882812,0.525726214899294,0.27756700000009,
-0.416830509033203,0.378762702636719,0.0384987626953137,0.564527247259706,0.281632999999601,
-0.318668240966797,0.213562788085938,0.0959596025390628,0.395432367890347,0.285515999999916,
-0.433589920654297,0.306936652832031,0.014556746093751,0.531434122917948,0.28950900000018,
-0.450349332275391,0.323696064453125,0.107930610839844,0.565015645783012,0.293412999999418,
-0.354581265869141,0.21835119140625,-0.0357214887695303,0.417948730891485,0.297270999999455,
-0.388100089111328,0.297359846191406,-0.00220266552734216,0.488926793120016,0.301124999999956,
-0.36176387084961,0.223139594726563,0.00497993945312558,0.425075495393212,0.305105999999796,
0.13623007446289,-1.2181698046875,-5.61899976025391,5.7511437655456,0.309099999999489,
-0.634702860107422,0.919852277832031,4.48692544726563,4.62401080264538,0.312524999999368,
-1.65463276733398,3.29250612304688,1.86288042773438,4.12901073540289,0.31546199999957,
-1.70251680053711,2.04991546142578,-2.26711743603516,3.49864807088084,0.318389999999454,
0.124259066162109,-0.112048637695313,-0.0165678754882812,0.168135978395613,0.32147999999961,
0.476206710205078,-0.655532414550781,1.18771555957031,1.43776348118059,0.324475999999777,
-0.0672770666503908,-0.133596452636719,-0.854538456542969,0.867531088529417,0.327487999999903,
-0.491050760498047,0.292571442871094,-0.186556193359374,0.60127540432827,0.330433999999514,
-1.11354319213867,1.08265799072266,0.462272456542969,1.62043901141397,0.333375999999589,
-0.38091748413086,0.113006318359375,-0.0285388837890626,0.39835038043618,0.336366999999882,
0.0620098229980467,-0.224576115722656,-0.284718461425781,0.367891631024666,0.339402999999947,
-0.0960074865722658,0.113006318359375,0.237217500488281,0.279749902600469,0.342463999999381,
-0.409647904052735,0.48650177734375,0.325802961914063,0.714592859357972,0.345430999999735,
-0.799902774658203,0.802536396484375,-0.15064316845703,1.14306713748178,0.34835000000021,
-0.45753193725586,0.117794721679687,-0.097970731933593,0.482503196238428,0.351349999999911,
-0.177410343017578,-0.116837041015625,0.285101533691407,0.355539320576633,0.354344999999739,
-0.172621939697266,0.127371528320313,-0.0524809003906235,0.220853085098011,0.357336999999461,
-0.385705887451172,0.558327827148438,0.0121625444335951,0.678709747734546,0.3603149999999,
-0.59160723022461,0.567904633789063,0.131872627441407,0.830605308074433,0.363277999999809,
-0.43837832397461,0.163284553222656,0.00976834277343741,0.467902576154962,0.366301000000021,
-0.242053787841797,0.045968671875,-0.0285388837890626,0.24802746398421,0.36927199999991,
-0.325850845947266,0.299754047851563,0.0768059892578137,0.449366691015052,0.372311000000082,
-0.464714542236328,1.06111017578125,0.297072541992188,1.19589569198912,0.37528199999997,
0.224815535888672,0.06512228515625,-5.01566094189453,5.02111916023183,0.378262999999606,
-1.84138049682617,2.54312100341797,-0.768347196777343,3.23241457534658,0.381253999999899,
-1.71209360717773,-5.36732128173828,9.39204609851075,10.9521656387077,0.384227999999894,
1.11785275512695,-2.89171676513672,-9.14087040234375,9.65231227967484,0.387273999999707,
-0.0241814367675783,1.35559697998047,-13.1559465864258,13.225625070253,0.39025700000002,
-0.957920084228516,1.94696479003906,-2.37006810742187,3.21333247816632,0.393332999999984,
0.761116707763672,2.60297604492188,9.39204609851075,9.77575126779651,0.396359999999731,
-1.25001268676758,2.19596176269531,0.447907246582032,2.56620355424906,0.399296999999933,
-0.0361524450683596,0.381156904296875,-7.07946277294922,7.0898082300265,0.402325000000019,
-0.0792480749511721,-0.440054265136719,-0.89763408642578,1.00283346910737,0.405337000000145,
-1.47027923950195,-0.425689055175781,5.78218854541016,5.98135742022489,0.408433999999943,
0.107499654541016,-1.16310316650391,-1.12747744580078,1.62344403736233,0.411415999999917,
-0.543723197021485,0.280600434570313,-2.83214902783203,2.89748850467266,0.414331999999376,
-0.816662186279297,1.32686656005859,1.86048622607422,2.42670991099309,0.41740899999968,
0.186508309326172,0.58226984375,0.876469343750001,1.06865430842809,0.420419000000038,
-0.488656558837891,0.311725056152344,-1.19930349560547,1.33202350493524,0.42342699999972,
-0.347398660888672,0.110612116699219,0.0815943925781255,0.37360208089372,0.426378999999542,
-0.289937821044922,0.0986411083984375,0.522127498046876,0.605319033696315,0.429304999999658,
-0.594001431884766,0.441011945800781,-0.260776444824218,0.78443201846642,0.432366999999431,
-0.313879837646485,0.419464130859375,-0.18895039501953,0.556931738489225,0.435290999999779,
-0.352187064208985,0.37158009765625,0.237217500488281,0.564251397613049,0.438376000000062,
-0.354581265869141,0.0723048901367187,-0.0524809003906235,0.365663938813846,0.441367999999784,
-0.414436307373047,0.175255561523438,-0.105153336914062,0.462092186666324,0.444306999999753,
-0.352187064208985,0.491290180664063,0.1103248125,0.614469961890922,0.447368999999526,
-0.349792862548828,0.397916315917969,0.088776997558595,0.537190651872639,0.450318999999581,
-0.488656558837891,0.18004396484375,-0.0836055219726557,0.527438095966026,0.453357999999753,
-0.337821854248047,0.0962469067382813,0.0792001909179696,0.360082966142137,0.456323999999768,
-0.385705887451172,0.383551105957031,0.00258573779296967,0.543955116287449,0.459316999999828,
-0.404859500732422,0.462559760742188,-0.0740287153320303,0.619155068044256,0.462376999999833,
-0.34261025756836,0.278206232910156,0.0217393510742188,0.441874525183616,0.465320999999676,
-0.424013114013672,0.199197578125,0.0289219560546883,0.469364757441871,0.4683500000001,
-0.376129080810547,0.201591779785156,-0.0524809003906235,0.429961133143619,0.47131999999965,
-0.471897147216797,0.421858332519531,-0.00220266552734216,0.63297410847754,0.474333999999544,
-0.402465299072266,0.369185895996094,0.0432871660156255,0.547859764448377,0.477286999999706,
-0.325850845947266,0.223139594726563,0.0217393510742188,0.39552832000302,0.480262999999468,
-0.354581265869141,0.194409174804688,0.0768059892578137,0.411608990838968,0.483357000000069,
-0.328245047607422,0.290177241210938,0.0265277543945324,0.438920681158687,0.486280999999508,
-0.464714542236328,0.385945307617188,-0.00938527050781168,0.604153514878587,0.489257999999609,
-0.435984122314453,0.268629426269531,0.0432871660156255,0.51392382928783,0.492237999999816,
-0.330639249267578,0.203985981445313,0.0193451494140628,0.388981784391361,0.495199999999386,
-0.347398660888672,0.2375048046875,-0.059663505371093,0.425034228868754,0.498224999999366,
-0.383311685791016,0.194409174804688,0.0720175859375001,0.43578585153313,0.501161000000138,
-0.500627567138672,0.488895979003906,-0.0476924970703116,0.701371380612422,0.504235999999764,
-0.383311685791016,0.297359846191406,0.0696233842773442,0.490100134900163,0.507249999999658,
-0.340216055908203,0.170467158203125,-0.0165678754882812,0.380894357035882,0.510196999999607,
-0.366552274169922,0.203985981445313,-0.00938527050781168,0.419593772150939,0.513264000000163,
-0.373734879150391,0.354820686035156,0.014556746093751,0.515545708922937,0.516214999999647,
-0.443166727294922,0.395522114257813,0.0265277543945324,0.59459079441367,0.519233999999415,
-0.397676895751953,0.299754047851563,-0.00699106884765577,0.498044453499825,0.52220699999998,
-0.388100089111328,0.213562788085938,0.000191536132813752,0.442979435537757,0.525193999999829,
-0.38091748413086,0.263841022949219,0.000191536132813752,0.4633683759101,0.528299999999945,
-0.421618912353516,0.230322199707031,0.143843635742188,0.501499565778056,0.531275999999707,
-0.36176387084961,0.419464130859375,-0.0931823286132811,0.561699387302049,0.534405999999763,
-0.306697232666016,0.208774384765625,0.151026240722658,0.400573166407931,0.537385999999969,
-0.402465299072266,0.299754047851563,-0.0285388837890626,0.502638313351311,0.540364999999838,
-0.435984122314453,0.335667072753906,-0.0357214887695303,0.551389665664303,0.543431000000055,
-0.414436307373047,0.378762702636719,0.0073741411132815,0.561491777085682,0.546502000000146,
-0.368946475830078,0.263841022949219,-0.00459686718749985,0.453601938494826,0.549528999999893,
-0.368946475830078,0.199197578125,-0.0524809003906235,0.422558187784961,0.552493999999569,
-0.402465299072266,0.29496564453125,0.0432871660156255,0.500856094255354,0.555445999999392,
-0.402465299072266,0.354820686035156,-0.0261446821289049,0.537177420038677,0.558512999999948,
-0.409647904052735,0.326090266113281,-0.0189620771484371,0.523933037055703,0.561447000000044,
-0.36176387084961,0.211168586425781,0.0672291826171882,0.424246429732215,0.564481999999771,
-0.318668240966797,0.244687409667969,-0.0548751020507812,0.405502963091488,0.567383999999947,
-0.40007109741211,0.282994636230469,-0.00699106884765577,0.490093585107352,0.570381999999881,
-0.407253702392578,0.338061274414063,0.0073741411132815,0.52933484801974,0.573339999999916,
-0.383311685791016,0.292571442871094,-0.0117794721679676,0.482353245673936,0.576272999999674,
-0.352187064208985,0.266235224609375,-0.00220266552734216,0.441499461782654,0.579375000000255,
-0.373734879150391,0.261446821289062,-0.0165678754882812,0.456406282553064,0.582297999999355,
-0.392888492431641,0.299754047851563,0.0193451494140628,0.49455848136945,0.585403000000042,
-0.345004459228516,0.285388837890625,0.00976834277343741,0.44785074098483,0.588392999999996,
-0.40007109741211,0.304542451171875,0.00976834277343741,0.502890055649187,0.591354000000138,
-0.32345664428711,0.441011945800781,-0.148248966796874,0.566651121263172,0.594403999999486,
-0.447955130615235,0.132159931640625,0.112719014160158,0.480453559388422,0.597357999999986,
-0.455137735595703,0.405098920898438,-0.00459686718749985,0.609324728912427,0.600429000000076,
-0.38091748413086,0.3141192578125,-0.0572693037109371,0.497040049686939,0.603387999999541,
-0.30430303100586,0.290177241210938,0.0552581743164069,0.424095074039921,0.606316999999763,
-0.38091748413086,0.235110603027344,0.0456813676757815,0.44995767881568,0.609373000000232,
-0.469502945556641,0.266235224609375,-0.0429040937499998,0.541437874524562,0.612333999999464,
-0.416830509033203,0.350032282714844,0.0456813676757815,0.546220705902086,0.615346999999929,
-0.256418997802735,0.340455476074219,-0.00699106884765577,0.426273983098563,0.618332999999438,
-0.38091748413086,0.156101948242188,0.0863827958984373,0.420628024968405,0.621299999999792,
-0.433589920654297,0.268629426269531,0.0169509477539069,0.510342358207363,0.624367999999777,
-0.404859500732422,0.309330854492188,-0.0165678754882812,0.509775722619632,0.62731199999962,
-0.424013114013672,0.338061274414063,0.0384987626953137,0.543649428256024,0.63032899999962,
-0.366552274169922,0.232716401367187,0.0384987626953137,0.435889490460031,0.633296999999402,
-0.388100089111328,0.235110603027344,0.0480755693359374,0.456300268673027,0.63623699999971,
-0.407253702392578,0.273417829589844,-0.00220266552734216,0.49052802099932,0.639250000000175,
-0.455137735595703,0.357214887695313,0.0456813676757815,0.580378860492945,0.642217999999957,
-0.385705887451172,0.304542451171875,0.0289219560546883,0.492292205628222,0.645266999999876,
-0.201352359619141,0.247081611328125,0.00976834277343741,0.318884800360942,0.648240999999871,
-0.378523282470703,0.299754047851563,-0.0141736738281235,0.483045813153969,0.651170999999522,
-0.603578238525391,0.364397492675781,-0.00938527050781168,0.705110137490814,0.6542129999998,
-0.409647904052735,0.297359846191406,-0.0405098920898439,0.507814271933062,0.657124999999724,
-0.239659586181641,0.290177241210938,0.0169509477539069,0.376731845209961,0.660181000000193,
-0.318668240966797,0.247081611328125,-0.0429040937499998,0.405511444620105,0.663157999999385,
-0.53414639038086,0.321301862792969,0.0313161577148442,0.624121747037511,0.666239000000132,
-0.459926138916016,0.328484467773438,0.0648349809570323,0.568891618484832,0.66924999999992,
-0.368946475830078,0.196803376464844,0.0289219560546883,0.419153373548904,0.672217999999702,
-0.311485635986328,0.266235224609375,0.0480755693359374,0.412572122925903,0.675279999999475,
-0.333033450927735,0.359609089355469,0.0169509477539069,0.490425642899779,0.678272000000106,
-0.395282694091797,0.242293208007813,-0.330208292968749,0.569202884427443,0.681300999999621,
-0.230082779541016,1.48248966796875,-0.842567448242187,1.72064918153375,0.684293000000253,
-0.862152017822266,0.826478413085938,-0.102759135253905,1.19872103051969,0.687275000000227,
-0.675404288330078,-1.75686517822266,2.25792370166016,2.9395519470941,0.690324000000146,
0.119470662841797,-2.46076046630859,1.31460824755859,2.79245593633565,0.693282000000181,
-0.0361524450683596,0.00766144531249999,-2.67413171826172,2.67438705942915,0.696340999999848,
-0.292332022705078,2.81845419433594,-1.76194088574219,3.33670162614499,0.699364999999489,
-0.586818826904297,2.38031529052734,3.22757537402344,4.05308524619581,0.70230199999969,
-0.929189664306641,0.3141192578125,0.388052205078125,1.05482171680761,0.705320999999458,
-0.395282694091797,-0.861433757324219,-2.08036970654297,2.28610031328633,0.708254999999554,
-0.0217872351074221,-0.81594392578125,0.431147834960939,0.923107593525505,0.711339999999836,
-0.337821854248047,0.297359846191406,0.912382368652345,1.01734363415821,0.714293999999427,
-0.378523282470703,0.867179841308594,-0.591176273925781,1.11569267246727,0.717297000000144,
-0.579636221923828,0.90788126953125,-0.255988041503906,1.10713884708505,0.720406999999796,
-0.47668555053711,0.113006318359375,0.55804052294922,0.74256903203234,0.723367999999937,
-0.254024796142578,-0.214999309082031,-0.45710098095703,0.56541542847088,0.726423000000068,
-0.32345664428711,0.433829340820313,0.0384987626953137,0.542507375451371,0.729397999999492,
-0.36176387084961,0.7738059765625,0.28988993701172,0.902044878704267,0.732364999999845,
-0.567665213623047,0.531991608886719,-0.0261446821289049,0.778423028363884,0.735381999999845,
-0.481473953857422,-0.0138863696289063,-0.176979386718749,0.513158555251605,0.73838699999942,
-0.167833536376953,0.0292092602539062,0.0815943925781255,0.188888648990795,0.741484000000128,
-0.443166727294922,0.608606062011719,-0.0644519086914048,0.755613747514343,0.744415000000117,
-0.53414639038086,0.594240852050781,-0.0452982954101557,0.800303999846312,0.747323999999935,
-0.378523282470703,0.259052619628906,0.100748005859376,0.469615050646416,0.750361999999768,
-0.306697232666016,0.0435744702148437,0.0289219560546883,0.311124422894645,0.753332000000228,
-0.309091434326172,0.189620771484375,-0.0165678754882812,0.36299868629285,0.756341000000248,
-0.407253702392578,0.462559760742188,0.00497993945312558,0.61631315917096,0.759348999999929,
-0.462320340576172,0.3907337109375,0.0217393510742188,0.605710763944794,0.762377999999444,
-0.392888492431641,0.189620771484375,-0.00699106884765577,0.436309843468114,0.76531900000009,
-0.318668240966797,0.124977326660156,-0.0261446821289049,0.343296263282334,0.768238999999994,
-0.373734879150391,0.29496564453125,0.0193451494140628,0.476504696884664,0.771294999999554,
-0.414436307373047,0.436223542480469,-0.0357214887695303,0.602764014057847,0.774233000000095,
-0.431195718994141,0.29496564453125,0.0121625444335951,0.522572872449105,0.777242000000115,
-0.364158072509766,0.194409174804688,0.052863972656251,0.416173796180476,0.780185999999958,
-0.313879837646485,0.227927998046875,-0.0261446821289049,0.388786920019516,0.783134000000246,
-0.36176387084961,0.364397492675781,0.0504697709960951,0.515951382113555,0.786251999999877,
-0.440772525634766,0.350032282714844,-0.0237504804687489,0.563353444668186,0.789189999999508,
-0.414436307373047,0.249475812988281,-0.0237504804687489,0.484313658136612,0.792255999999725,
-0.345004459228516,0.239899006347656,-0.00938527050781168,0.420318561851197,0.795202000000245,
-0.428801517333985,0.29496564453125,-0.0261446821289049,0.521113247888868,0.798106999999618,
-0.414436307373047,0.378762702636719,-0.0165678754882812,0.56168775336113,0.801180999999815,
-0.421618912353516,0.354820686035156,0.0313161577148442,0.551942866813805,0.804165999999896,
-0.371340677490235,0.215956989746094,-0.131489555175781,0.449244725399671,0.807267999999567,
-0.440772525634766,0.0986411083984375,-0.021356278808593,0.452179807449507,0.810209000000214,
-0.407253702392578,0.424252534179688,0.0241335527343765,0.588581531512783,0.813207999999577,
-0.349792862548828,0.491290180664063,-0.109941740234374,0.613032033871635,0.81626899999992,
-0.333033450927735,0.280600434570313,0.0313161577148442,0.43661033548452,0.819273000000067,
-0.364158072509766,0.177649763183594,0.100748005859376,0.417517306010009,0.822336999999607,
-0.404859500732422,0.170467158203125,-0.15064316845703,0.464395985729774,0.825377000000117,
-0.426407315673828,0.27581203125,0.0720175859375001,0.512915205591213,0.828332000000046,
-0.395282694091797,0.44819455078125,0.0600465776367187,0.6006099858347,0.831388999999945,
-0.395282694091797,0.352426484375,-0.00220266552734216,0.529582559071592,0.834358999999495,
-0.368946475830078,0.223139594726563,-0.121912748535156,0.448079790905108,0.837411999999858,
-0.414436307373047,0.0986411083984375,0.0983538041992187,0.437219615222759,0.840373,
-0.388100089111328,0.359609089355469,-0.0524809003906235,0.531690343358896,0.843296000000009,
-0.316274039306641,0.816901606445313,-0.255988041503906,0.912626637757893,0.846300000000156,
-0.459926138916016,0.560722028808594,0.0600465776367187,0.727699689662777,0.849274999999579,
-0.481473953857422,-0.349074602050781,0.285101533691407,0.659509765320577,0.852307999999539,
-0.301908829345703,-0.792001909179688,0.244400105468751,0.882126621826084,0.855284000000211,
-0.270784207763672,0.0579396801757812,0.141449434082032,0.310948606871294,0.858390999999756,
-0.404859500732422,1.03237975585938,-0.0883939252929675,1.11244445329655,0.861335999999937,
-0.424013114013672,1.25982891357422,-0.143460563476562,1.33698801251402,0.86432700000023,
-0.407253702392578,0.177649763183594,0.325802961914063,0.550965140878827,0.867365000000063,
-0.38091748413086,-0.392170231933594,-0.0333272871093744,0.547728334667381,0.87033799999972,
-0.38091748413086,-0.0641646044921875,-0.210498209960937,0.439914449163677,0.873383000000103,
-0.404859500732422,0.701979926757813,0.146237837402344,0.823451600273097,0.876369999999952,
-0.366552274169922,0.740287153320313,0.0792001909179696,0.829854390427427,0.879350000000159,
-0.407253702392578,0.129765729980469,-0.0883939252929675,0.436472460549948,0.882375999999567,
-0.354581265869141,-0.109654436035156,-0.00220266552734216,0.37115606041526,0.885333999999602,
-0.38091748413086,0.268629426269531,0.0337103593750001,0.467328884944717,0.888358000000153,
-0.41922471069336,0.63973068359375,0.00497993945312558,0.764872215068775,0.891352999999981,
-0.376129080810547,0.455377155761719,0.0815943925781255,0.596237439550061,0.894258999999693,
-0.412042105712891,0.093852705078125,-0.0476924970703116,0.425278263502376,0.897335999999996,
-0.424013114013672,0.0627280834960938,-0.0764229169921862,0.435387638267623,0.900267999999414,
-0.395282694091797,0.500866987304688,0.139055232421876,0.653033310700186,0.903352999999697,
-0.366552274169922,0.340455476074219,-0.217680814941406,0.545578076980389,0.906283999999687,
-0.395282694091797,0.316513459472656,0.00497993945312558,0.506412853384247,0.909216000000015,
-0.373734879150391,0.0914585034179687,-0.0165678754882812,0.385119348045781,0.912257999999383,
-0.433589920654297,0.175255561523438,-0.155431571777344,0.492822183594723,0.915202000000136,
-0.407253702392578,0.359609089355469,0.158208845703125,0.565865986005739,0.918231999999989,
-0.38091748413086,0.510443793945313,-0.0668461103515625,0.640405651882462,0.921163999999408,
-0.404859500732422,0.338061274414063,-0.0740287153320303,0.532613266156108,0.924116999999569,
-0.378523282470703,0.148919343261719,0.014556746093751,0.407024256066804,0.927166999999827,
-0.385705887451172,0.153707746582031,-0.00220266552734216,0.415210735301061,0.93011099999967,
-0.433589920654297,0.491290180664063,-0.0572693037109371,0.657758340165643,0.93315100000018,
-0.366552274169922,0.529597407226563,-0.0452982954101557,0.645667034164905,0.936066999999639,
-0.349792862548828,0.172861359863281,0.0169509477539069,0.390542483033078,0.939032999999654,
-0.388100089111328,-0.00670376464843751,-0.0788171186523439,0.396079231747059,0.942095999999765,
-0.414436307373047,0.0962469067382813,0.0241335527343765,0.426149443614886,0.945119999999406,
-0.356975467529297,0.436223542480469,0.0648349809570323,0.567385264337794,0.948190999999497,
-0.349792862548828,0.419464130859375,0.0241335527343765,0.5467061661764,0.951202999999623,
-0.328245047607422,0.1608903515625,-0.131489555175781,0.388484259172786,0.954238999999689,
-0.471897147216797,0.271023627929688,0.0624407792968764,0.547758683515581,0.95723099999941,
-0.433589920654297,0.460165559082031,-0.0165678754882812,0.632476920967456,0.960168999999951,
-0.36176387084961,0.364397492675781,0.0839885942382814,0.520300600501875,0.963259999999536,
-0.349792862548828,0.18004396484375,-0.0237504804687489,0.394125565384,0.966252000000168,
-0.373734879150391,0.170467158203125,-0.0452982954101557,0.413265952488796,0.969239000000016,
-0.428801517333985,0.352426484375,-0.0261446821289049,0.55566060914957,0.97219799999948,
-0.388100089111328,0.457771357421875,-0.0548751020507812,0.602650455628444,0.975166000000172,
-0.385705887451172,0.352426484375,0.0504697709960951,0.524900615629108,0.97827099999995,
-0.354581265869141,0.192014973144531,0.014556746093751,0.403496620647429,0.981213000000025,
-0.354581265869141,0.230322199707031,-0.0237504804687489,0.423485861754255,0.984214000000065,
-0.409647904052735,0.503261188964844,0.194121870605469,0.677323061958231,0.987138999999843,
-0.349792862548828,0.340455476074219,-0.121912748535156,0.503117974370249,0.990116999999373,
-0.359369669189453,0.132159931640625,0.0361045610351578,0.384598941745987,0.993140999999923,
-0.474291348876953,0.21835119140625,0.0672291826171882,0.526449702633997,0.996161000000029,
-0.378523282470703,0.457771357421875,-0.00699106884765577,0.594039869109721,0.999245999999403,
-0.359369669189453,0.431435139160156,0.0073741411132815,0.561548943897715,1.00222399999984,
-0.376129080810547,0.187226569824219,0.0552581743164069,0.423769205710269,1.00519299999996,
-0.445560928955078,0.0890643017578125,-0.0309330854492185,0.455427103974201,1.00823500000024,
-0.414436307373047,0.340455476074219,0.0648349809570323,0.540250829535345,1.01121700000022,
-0.335427652587891,0.493684382324219,0.000191536132813752,0.596855104826589,1.01425699999982,
-0.34261025756836,0.359609089355469,0.0289219560546883,0.497530868670635,1.01724899999954,
-0.421618912353516,0.0818816967773438,-0.0309330854492185,0.430608842566786,1.02022099999976,
-0.471897147216797,0.225533796386719,-0.0524809003906235,0.525648795080677,1.02326499999981,
-0.402465299072266,0.417069929199219,0.0241335527343765,0.580093157317989,1.02618600000005,
