X,Y,Z,Magnitude,Seconds,
0.109893856201172,0.60142345703125,0.0744117875976578,0.615892805958685,0.0,
0.157777889404297,0.596635053710938,0.0073741411132815,0.6171884863303,0.00390699999979915,
0.112288057861328,0.56311623046875,-0.00220266552734216,0.574206712509553,0.00782399999980044,
0.105105452880859,0.599029255371094,0.0073741411132815,0.608224944385625,0.0117529999997714,
0.121864864501953,0.60142345703125,0.0169509477539069,0.613879918630065,0.0157309999999597,
0.112288057861328,0.570298835449219,-0.0333272871093744,0.582202780583428,0.019738999999845,
0.112288057861328,0.603817658691406,-0.0261446821289049,0.614725887928483,0.0236260000001494,
0.102711251220703,0.60142345703125,-0.0644519086914048,0.613525732409577,0.027643999999782,
0.117076461181641,0.60142345703125,-0.0309330854492185,0.613493217734023,0.0315419999997175,
0.157777889404297,0.599029255371094,0.052863972656251,0.621710954367319,0.0354849999998805,
0.0835576379394529,0.575087238769531,0.0217393510742188,0.581532295267178,0.039408000000094,
0.0835576379394529,0.642124885253906,0.0361045610351578,0.648544359660852,0.0433509999998023,
0.112288057861328,0.567904633789063,-0.0117794721679676,0.579019029896181,0.0473739999997633,
0.117076461181641,0.567904633789063,0.00497993945312558,0.579868408036567,0.0513109999997141,
0.133835872802734,0.618182868652344,0.0241335527343765,0.632964871309375,0.0552480000001196,
0.105105452880859,0.603817658691406,-0.0141736738281235,0.613061019966731,0.0592019999999138,
0.105105452880859,0.587058247070313,0.00976834277343741,0.59647293500971,0.0630670000000464,
0.124259066162109,0.608606062011719,0.0241335527343765,0.621630181545647,0.0670769999996992,
0.138624276123047,0.56311623046875,-0.0716345136718743,0.584335590647172,0.0708919999997306,
0.13623007446289,0.560722028808594,0.0456813676757815,0.578839022641114,0.0747609999998531,
0.143412679443359,0.611000263671875,-0.0165678754882812,0.627824030545518,0.078635999999733,
0.102711251220703,0.608606062011719,-0.0476924970703116,0.619052109374919,0.0825190000000475,
0.0931344445800779,0.60142345703125,0.000191536132813752,0.608592011219955,0.0863420000000588,
0.131441671142578,0.603817658691406,-0.0285388837890626,0.618617123710822,0.0903419999999642,
0.102711251220703,0.596635053710938,-0.0237504804687489,0.605877111109565,0.0944079999999303,
0.143412679443359,0.572693037109375,0.0169509477539069,0.59061988284212,0.0982739999999467,
0.126653267822265,0.599029255371094,-0.0524809003906235,0.61451716326423,0.102229999999963,
0.117076461181641,0.567904633789063,-0.059663505371093,0.582908487427548,0.106130000000121,
0.131441671142578,0.577481440429688,0.0265277543945324,0.59284521479617,0.109986999999819,
0.0931344445800779,0.60142345703125,-0.0668461103515625,0.612252073825637,0.113839999999982,
0.0859518395996092,0.630153876953125,0.0456813676757815,0.637627175332373,0.117840999999771,
0.13623007446289,0.579875642089844,-0.0620577070312489,0.598886927958233,0.121780999999828,
0.124259066162109,0.555933625488281,0.0169509477539069,0.569903365582078,0.125676000000112,
0.0931344445800779,0.577481440429688,-0.0165678754882812,0.585178035563692,0.129625000000033,
0.0500388146972655,0.579875642089844,-0.00220266552734216,0.582034788479899,0.133570999999847,
0.0883460412597654,0.579875642089844,-0.0333272871093744,0.587512971228254,0.13750200000004,
0.102711251220703,0.565510432128906,-0.00459686718749985,0.574780637427779,0.141556999999921,
0.129047469482422,0.560722028808594,-0.0357214887695303,0.576488046477075,0.145418999999947,
0.100317049560547,0.575087238769531,0.0217393510742188,0.584175865654535,0.149277999999867,
0.13623007446289,0.577481440429688,-0.0117794721679676,0.593449410812301,0.153230999999778,
0.107499654541016,0.606211860351563,-0.00699106884765577,0.615709241769987,0.157142999999905,
0.117076461181641,0.613394465332031,-0.0165678754882812,0.624687251639554,0.161016000000018,
0.148201082763672,0.551145222167969,0.0217393510742188,0.571136775419017,0.165062000000034,
0.0572214196777342,0.531991608886719,-0.0524809003906235,0.53762775942247,0.169131000000107,
0.133835872802734,0.615788666992188,-0.00459686718749985,0.630181604327534,0.173131999999896,
0.145806881103515,0.618182868652344,-0.0189620771484371,0.6354284114219,0.177036999999928,
0.105105452880859,0.60142345703125,-0.0165678754882812,0.610763313723823,0.180966999999782,
0.0907402429199217,0.529597407226563,0.0408929643554696,0.538868666708356,0.184828999999809,
0.126653267822265,0.58226984375,0.0193451494140628,0.59619917477011,0.188705000000027,
0.138624276123047,0.606211860351563,0.0361045610351578,0.622906934372289,0.192791999999827,
0.0620098229980467,0.589452448730469,-0.0189620771484371,0.593008404520862,0.196684999999889,
0.0404620080566405,0.618182868652344,0.0073741411132815,0.619549522756959,0.200585000000046,
0.162566292724609,0.60142345703125,-0.0189620771484371,0.623295703953931,0.204529000000093,
0.112288057861328,0.584664045410156,-0.0381156904296862,0.596568068027924,0.2084219999997,
0.0811634362792967,0.596635053710938,-0.0524809003906235,0.604413050497032,0.212295999999697,
0.105105452880859,0.536780012207031,-0.00220266552734216,0.546977869265016,0.216186999999991,
0.186508309326172,0.555933625488281,0.00497993945312558,0.586406297027247,0.220014999999876,
0.124259066162109,0.553539423828125,-0.0189620771484371,0.567631720066132,0.223811999999725,
0.105105452880859,0.606211860351563,-0.0524809003906235,0.617490259649497,0.227660999999898,
0.105105452880859,0.632548078613281,0.0217393510742188,0.641589298046478,0.231476999999813,
0.15538368774414,0.615788666992188,0.0121625444335951,0.635206816950261,0.235337999999956,
0.131441671142578,0.503261188964844,0.0361045610351578,0.521394549797563,0.239434000000074,
0.0979228479003904,0.606211860351563,-0.0309330854492185,0.614848403712032,0.243331000000126,
0.13623007446289,0.673249506835938,0.014556746093751,0.687048346551999,0.247320999999829,
0.0811634362792967,0.551145222167969,-0.00699106884765577,0.557133228546706,0.251204000000143,
0.109893856201172,0.488895979003906,0.00497993945312558,0.501119484468433,0.255095999999867,
0.119470662841797,0.618182868652344,-0.021356278808593,0.629983641866715,0.258923999999752,
0.143412679443359,0.666066901855469,0.0121625444335951,0.68143982996268,0.262843999999859,
0.114682259521484,0.527203205566406,0.0073741411132815,0.539582819005207,0.266904999999952,
0.133835872802734,0.515232197265625,-0.0285388837890626,0.533095419072383,0.270803999999771,
0.0907402429199217,0.699585725097656,-0.0524809003906235,0.707395379792228,0.274755999999797,
0.129047469482422,0.577481440429688,0.1103248125,0.601921612565726,0.278698000000077,
0.13623007446289,0.603817658691406,-0.0285388837890626,0.619652213764836,0.282545999999911,
0.145806881103515,0.570298835449219,-0.00220266552734216,0.588646974023731,0.28645299999971,
0.0859518395996092,0.615788666992188,0.014556746093751,0.621928693648565,0.290386000000126,
0.205661922607422,0.558327827148438,0.0265277543945324,0.59559257108538,0.294250999999804,
0.121864864501953,0.560722028808594,-0.021356278808593,0.574209308036586,0.298135000000002,
0.0428562097167967,0.587058247070313,-0.0668461103515625,0.592403952243477,0.30204700000013,
0.129047469482422,0.663672700195313,0.112719014160158,0.685434372144841,0.305919999999787,
0.17453730102539,0.139342536621094,-0.236834428222656,0.325530579750629,0.309847999999874,
0.334948812255859,1.25264630859375,-2.27430004101562,2.61796756240959,0.313619999999901,
-0.378523282470703,0.168072956542969,7.01520240039063,7.02741724337896,0.316602999999759,
0.315795198974609,0.637336481933594,-1.498578703125,1.65881359059983,0.319586999999956,
0.109893856201172,0.393127912597656,-5.05636237011719,5.07281249734615,0.322699999999713,
-0.0960074865722658,0.326090266113281,1.66655589160156,1.70087061205832,0.325746999999865,
0.301429989013672,0.555933625488281,1.19729236621094,1.35404255635202,0.328798000000006,
0.126653267822265,0.625365473632813,-0.217680814941406,0.674172057456852,0.331752999999935,
0.346919820556641,0.599029255371094,-0.366121317871093,0.783092734026542,0.334759999999733,
0.0548272180175779,0.800142194824219,0.268342122070313,0.8457192502544,0.337862999999743,
-0.105584293212891,0.917458076171875,0.421571028320313,1.01518446423559,0.340801999999712,
0.0476446130371092,0.6971915234375,-0.0381156904296862,0.699856296221939,0.343845999999758,
0.109893856201172,0.622971271972656,-0.11233594189453,0.642486754085502,0.346787999999833,
0.0835576379394529,0.5439626171875,-0.129095353515625,0.565281184946766,0.349799000000075,
0.172143099365234,0.338061274414063,0.186939265625,0.422924296949162,0.352853999999752,
0.243969149169922,0.48650177734375,-0.339785099609374,0.641606451823761,0.355847999999696,
0.124259066162109,0.596635053710938,0.122295820800781,0.621586655765284,0.358992999999828,
0.0237025964355467,0.565510432128906,0.0289219560546883,0.566745393864333,0.361949999999979,
0.0763750329589842,0.637336481933594,-0.0836055219726557,0.647318175372279,0.364951999999903,
0.105105452880859,0.630153876953125,0.0576523759765628,0.641455268370358,0.368003000000044,
0.0907402429199217,0.685220515136719,0.0217393510742188,0.691544319212099,0.370970999999827,
0.131441671142578,0.637336481933594,-0.0237504804687489,0.651182608366302,0.374027999999726,
0.102711251220703,0.484107575683594,-0.0333272871093744,0.496004489926895,0.376999999999953,
0.0907402429199217,0.438617744140625,0.0121625444335951,0.448070579984087,0.380096999999751,
0.131441671142578,0.56311623046875,-0.0883939252929675,0.584970330836348,0.383045000000038,
0.112288057861328,0.690008918457031,0.0289219560546883,0.69968378216916,0.385991999999987,
0.0811634362792967,0.656490095214844,0.00976834277343741,0.661560404667932,0.38904599999978,
0.0787692346191404,0.536780012207031,-0.0931823286132811,0.550472815126469,0.392014999999901,
0.124259066162109,0.522414802246094,-0.00459686718749985,0.537009005806462,0.395019999999931,
0.145806881103515,0.615788666992188,-0.0189620771484371,0.633099430850268,0.398029999999835,
0.119470662841797,0.611000263671875,0.0193451494140628,0.62287141232586,0.40099199999986,
0.0691924279785154,0.58226984375,0.0480755693359374,0.588334108646767,0.404039999999895,
0.0572214196777342,0.548751020507813,-0.0189620771484371,0.552052111442466,0.406975999999759,
0.0931344445800779,0.555933625488281,0.0241335527343765,0.564197349411859,0.410027999999784,
0.126653267822265,0.651701691894531,-0.00459686718749985,0.663910593872543,0.412970999999743,
0.129047469482422,0.579875642089844,0.000191536132813752,0.594061483648801,0.415934000000107,
0.0979228479003904,0.546356818847656,-0.00220266552734216,0.555067121506651,0.41895199999999,
0.0787692346191404,0.558327827148438,-0.0285388837890626,0.564578624089423,0.421966999999768,
0.112288057861328,0.622971271972656,0.0121625444335951,0.633126954985015,0.425093999999717,
0.121864864501953,0.565510432128906,0.0480755693359374,0.580486308549716,0.42808500000001,
0.148201082763672,0.589452448730469,-0.0381156904296862,0.60899142531205,0.431023999999979,
0.13623007446289,0.575087238769531,0.0504697709960951,0.593153574690507,0.434097999999722,
0.0620098229980467,0.622971271972656,-0.0117794721679676,0.626160666136124,0.437038999999913,
0.145806881103515,0.558327827148438,-0.0357214887695303,0.578157101405269,0.44012500000008,
0.143412679443359,0.546356818847656,0.0265277543945324,0.565488012144971,0.443112999999812,
0.0380678063964842,0.634942280273438,-0.0740287153320303,0.640375755206569,0.446100000000115,
0.100317049560547,0.637336481933594,0.0241335527343765,0.64563436247121,0.449173999999857,
0.112288057861328,0.527203205566406,-0.0883939252929675,0.54622826174271,0.452233999999862,
0.152989486083984,0.596635053710938,0.0241335527343765,0.616410251810008,0.455341999999746,
0.150595284423828,0.551145222167969,-0.0836055219726557,0.577433874061432,0.458364999999958,
0.112288057861328,0.606211860351563,0.00497993945312558,0.616543775709502,0.461343999999826,
0.0548272180175779,0.599029255371094,0.00497993945312558,0.601553715326363,0.464481999999862,
0.105105452880859,0.60142345703125,-0.0165678754882812,0.610763313723823,0.467482999999902,
0.0907402429199217,0.56311623046875,-0.0381156904296862,0.571652417610065,0.470550999999887,
0.157777889404297,0.60142345703125,-0.0141736738281235,0.62193643572481,0.473552999999811,
0.109893856201172,0.536780012207031,0.000191536132813752,0.5479137503493,0.476643999999851,
0.117076461181641,0.589452448730469,-0.0524809003906235,0.603253953143262,0.479655999999977,
0.133835872802734,0.579875642089844,0.014556746093751,0.59529799260103,0.4826079999998,
0.114682259521484,0.603817658691406,-0.0859997236328116,0.620599498921361,0.485623000000032,
0.105105452880859,0.587058247070313,0.0265277543945324,0.596982632437306,0.488585000000057,
0.107499654541016,0.560722028808594,0.0313161577148442,0.571791982325464,0.491631999999754,
0.13623007446289,0.548751020507813,-0.0261446821289049,0.566012243772299,0.494599000000107,
0.138624276123047,0.606211860351563,-0.0189620771484371,0.622148752254093,0.497661999999764,
0.100317049560547,0.60142345703125,0.0337103593750001,0.61066363362259,0.500733999999738,
0.0907402429199217,0.603817658691406,-0.0500866987304676,0.612648540374051,0.503760000000057,
0.143412679443359,0.567904633789063,-0.0117794721679676,0.585851197548293,0.506833999999799,
0.133835872802734,0.464953962402344,-0.0285388837890626,0.484673803594165,0.509841999999935,
0.107499654541016,0.682826313476563,-0.097970731933593,0.698144837707789,0.51281999999992,
0.006943184814453,0.747469758300781,0.0744117875976578,0.7511966197495,0.515869999999722,
0.164960494384765,0.63973068359375,-0.0692403120117184,0.664275193761195,0.518888999999945,
0.00454898315429675,0.536780012207031,0.493397078125001,0.729105034583501,0.521976999999879,
0.200873519287109,0.376368500976563,-0.0644519086914048,0.431459694307705,0.524922999999944,
0.196085115966797,0.520020600585938,-0.739616776855469,0.925150676562225,0.527866999999787,
0.0548272180175779,0.555933625488281,0.692115815917969,0.889433821275022,0.530949999999848,
0.160172091064453,0.58226984375,-0.267959049804686,0.660677926125006,0.53388700000005,
0.026096798095703,0.73549875,0.112719014160158,0.744543504622563,0.536952999999812,
0.119470662841797,0.611000263671875,0.0241335527343765,0.623038513941588,0.539962999999716,
0.109893856201172,0.615788666992188,-0.100364933593749,0.633518320115572,0.54291400000011,
0.107499654541016,0.634942280273438,0.0720175859375001,0.647992598483606,0.545986999999968,
0.19369091430664,0.496078583984375,-0.0237504804687489,0.533079934996039,0.548911999999746,
0.0883460412597654,0.534385810546875,0.00258573779296967,0.541645551592595,0.551989000000049,
0.162566292724609,0.579875642089844,-0.0500866987304676,0.604311374383313,0.554951000000074,
0.112288057861328,0.596635053710938,0.0480755693359374,0.60901006200382,0.55790799999977,
0.0955286462402342,0.644519086914063,-0.0500866987304676,0.653482404536454,0.560950000000048,
0.172143099365234,0.63973068359375,0.0576523759765628,0.664990519215228,0.563961999999719,
0.0859518395996092,0.606211860351563,-0.00459686718749985,0.612292143955317,0.567058999999972,
0.0907402429199217,0.555933625488281,0.0313161577148442,0.564160162868429,0.570060000000012,
0.121864864501953,0.548751020507813,-0.0165678754882812,0.56236395884395,0.573112000000037,
0.141018477783203,0.587058247070313,-0.00699106884765577,0.603798369965664,0.576101999999992,
0.148201082763672,0.615788666992188,0.00497993945312558,0.633390908622232,0.579056000000037,
0.117076461181641,0.637336481933594,0.0337103593750001,0.648876781288634,0.582163999999921,
0.133835872802734,0.646913288574219,0.014556746093751,0.660772837395438,0.585193999999774,
0.124259066162109,0.594240852050781,-0.00220266552734216,0.607097485997878,0.588291000000027,
0.0835576379394529,0.591846650390625,0.0361045610351578,0.59880537386046,0.591280999999981,
0.107499654541016,0.536780012207031,0.014556746093751,0.547632044431529,0.594274000000041,
0.112288057861328,0.599029255371094,-0.00938527050781168,0.609534855468677,0.597342000000026,
0.0644040246582029,0.594240852050781,0.00258573779296967,0.597726320884522,0.600348999999824,
0.126653267822265,0.622971271972656,-0.0381156904296862,0.636857175362121,0.6034709999999,
0.143412679443359,0.58226984375,0.0241335527343765,0.600156476207127,0.606542999999874,
0.131441671142578,0.606211860351563,-0.0333272871093744,0.621192756404747,0.609492000000046,
0.124259066162109,0.627759675292969,-0.0309330854492185,0.640686648232052,0.612550999999712,
0.114682259521484,0.5439626171875,0.00258573779296967,0.555926286108475,0.615562999999838,
0.200873519287109,0.529597407226563,-0.0141736738281235,0.566590220107683,0.618635999999697,
0.107499654541016,0.615788666992188,-0.0548751020507812,0.627505485989992,0.621614000000136,
0.0524330163574217,0.627759675292969,-0.00459686718749985,0.629962349919589,0.624557999999979,
0.131441671142578,0.625365473632813,-0.0117794721679676,0.639138204529585,0.627595999999812,
0.112288057861328,0.575087238769531,0.0217393510742188,0.586350185059202,0.630596999999852,
0.169748897705078,0.577481440429688,-0.021356278808593,0.602291949935732,0.633617999999842,
0.105105452880859,0.572693037109375,-0.0476924970703116,0.584208049632708,0.636618999999882,
0.102711251220703,0.541568415527344,-0.0524809003906235,0.553714903835837,0.639626000000135,
0.0931344445800779,0.589452448730469,0.0313161577148442,0.597585906640716,0.64268200000015,
0.117076461181641,0.599029255371094,0.00497993945312558,0.610383278236077,0.645689999999831,
0.107499654541016,0.56311623046875,-0.0189620771484371,0.573598836394876,0.648717000000033,
0.100317049560547,0.587058247070313,0.0384987626953137,0.59681073265724,0.651690000000144,
0.0907402429199217,0.555933625488281,0.014556746093751,0.563478381564501,0.654645999999957,
0.114682259521484,0.591846650390625,-0.0189620771484371,0.603153412157586,0.657685000000129,
0.133835872802734,0.572693037109375,-0.0333272871093744,0.589067113042733,0.660691999999926,
0.0931344445800779,0.603817658691406,0.00976834277343741,0.611036177517625,0.663770999999997,
0.109893856201172,0.56311623046875,0.0384987626953137,0.575029306537648,0.666701999999987,
0.112288057861328,0.613394465332031,0.00497993945312558,0.623607390779803,0.669728999999734,
0.105105452880859,0.570298835449219,-0.0141736738281235,0.580076556128423,0.672706999999718,
0.121864864501953,0.6205770703125,0.0384987626953137,0.633600110579848,0.675647000000026,
0.112288057861328,0.599029255371094,-0.00459686718749985,0.609479932333014,0.678723999999875,
0.126653267822265,0.584664045410156,0.0169509477539069,0.598465062368041,0.681710999999723,
0.121864864501953,0.560722028808594,-0.0189620771484371,0.574125246928828,0.684725999999955,
0.129047469482422,0.56311623046875,-0.0285388837890626,0.578418193252146,0.687693999999738,
0.0739808312988279,0.599029255371094,-0.0500866987304676,0.605654926158311,0.690645000000131,
0.117076461181641,0.570298835449219,-0.0117794721679676,0.582311270234492,0.69369400000005,
0.126653267822265,0.599029255371094,-0.0620577070312489,0.615409016868036,0.696637999999894,
0.13623007446289,0.560722028808594,0.0241335527343765,0.577538098437647,0.699689000000035,
0.0979228479003904,0.572693037109375,-0.0931823286132811,0.588429388508321,0.702660999999807,
0.109893856201172,0.575087238769531,-0.0357214887695303,0.586581636761874,0.705642999999782,
0.107499654541016,0.634942280273438,-0.0357214887695303,0.644968138565915,0.708732999999938,
0.112288057861328,0.60142345703125,-0.0620577070312489,0.614955235450244,0.711676999999781,
0.105105452880859,0.60142345703125,0.0265277543945324,0.611114598619545,0.714739000000009,
0.0907402429199217,0.589452448730469,-0.0285388837890626,0.597078260270325,0.717658999999912,
0.152989486083984,0.567904633789063,-0.0429040937499998,0.589713673906108,0.720639000000119,
0.109893856201172,0.553539423828125,-0.0357214887695303,0.565471995878353,0.723720999999841,
0.112288057861328,0.572693037109375,-0.021356278808593,0.583988024993988,0.726708000000144,
0.13623007446289,0.584664045410156,-0.0500866987304676,0.602411285230656,0.729825999999775,
0.105105452880859,0.613394465332031,-0.00938527050781168,0.622405020567608,0.732866999999715,
0.100317049560547,0.553539423828125,-0.0405098920898439,0.564012815033166,0.735839999999826,
0.13623007446289,0.606211860351563,0.000191536132813752,0.621330418944025,0.738922000000002,
0.114682259521484,0.577481440429688,0.0432871660156255,0.590347874927457,0.741880000000037,
0.138624276123047,0.558327827148438,-0.0285388837890626,0.575987083524327,0.745022000000063,
0.112288057861328,0.589452448730469,-0.0405098920898439,0.601418197770691,0.748023000000103,
0.100317049560547,0.565510432128906,-0.0285388837890626,0.575047847719719,0.750978000000032,
0.119470662841797,0.622971271972656,-0.00938527050781168,0.634393039278957,0.754024999999729,
0.133835872802734,0.591846650390625,-0.0285388837890626,0.607461082140575,0.757025999999769,
0.0787692346191404,0.565510432128906,-0.0117794721679676,0.571091408737396,0.760132999999769,
0.114682259521484,0.555933625488281,0.0337103593750001,0.568639257285926,0.763075999999728,
0.0835576379394529,0.575087238769531,-0.0333272871093744,0.582080680936634,0.766082000000097,
0.148201082763672,0.579875642089844,-0.0357214887695303,0.599579307499304,0.769040000000132,
0.133835872802734,0.575087238769531,-0.0261446821289049,0.591033770141821,0.77202299999999,
0.157777889404297,0.575087238769531,-0.00220266552734216,0.596342222482916,0.775067000000035,
0.0907402429199217,0.577481440429688,0.00976834277343741,0.584648634862387,0.778119000000061,
0.145806881103515,0.596635053710938,0.0504697709960951,0.616263118869032,0.781169999999747,
0.117076461181641,0.642124885253906,-0.00220266552734216,0.652714422822557,0.784190999999737,
0.114682259521484,0.579875642089844,0.0480755693359374,0.593059053809177,0.787155999999868,
0.0883460412597654,0.579875642089844,-0.00459686718749985,0.586584959305402,0.790218999999979,
0.102711251220703,0.575087238769531,-0.0141736738281235,0.584359329824272,0.7931880000001,
0.0835576379394529,0.587058247070313,0.0600465776367187,0.596007429313739,0.796237000000019,
0.126653267822265,0.579875642089844,-0.0165678754882812,0.59377715098963,0.799226999999973,
0.114682259521484,0.599029255371094,0.000191536132813752,0.6099082768134,0.802209999999832,
0.126653267822265,0.591846650390625,0.0073741411132815,0.605291570886147,0.805288999999902,
0.0907402429199217,0.558327827148438,-0.0452982954101557,0.56746426303383,0.808230999999978,
0.126653267822265,0.570298835449219,-0.0572693037109371,0.586993684048073,0.811326000000008,
0.145806881103515,0.596635053710938,-0.0405098920898439,0.615527485374064,0.814280000000053,
0.114682259521484,0.594240852050781,-0.0141736738281235,0.605371872426179,0.817231999999876,
0.119470662841797,0.575087238769531,-0.0429040937499998,0.588930668870225,0.820346999999856,
0.100317049560547,0.596635053710938,-0.0117794721679676,0.60512449439247,0.823308999999881,
0.0883460412597654,0.594240852050781,0.014556746093751,0.600948510364364,0.826380999999856,
0.138624276123047,0.591846650390625,0.00976834277343741,0.607942898658896,0.829308999999739,
0.129047469482422,0.584664045410156,-0.021356278808593,0.59911717219567,0.832290999999714,
0.117076461181641,0.594240852050781,-0.0117794721679676,0.605778708748839,0.835353999999825,
0.143412679443359,0.553539423828125,0.00976834277343741,0.571899039059899,0.838308999999754,
0.119470662841797,0.603817658691406,-0.021356278808593,0.615893736672147,0.841350000000148,
0.124259066162109,0.541568415527344,-0.0429040937499998,0.557294738429124,0.844338999999763,
0.13623007446289,0.567904633789063,0.0073741411132815,0.584062226329021,0.847350000000006,
0.100317049560547,0.630153876953125,0.0169509477539069,0.638313993032695,0.850417999999991,
0.0955286462402342,0.596635053710938,-0.0836055219726557,0.609990977698413,0.853397999999743,
0.148201082763672,0.596635053710938,-0.0333272871093744,0.615668462985598,0.85646799999995,
0.0667982263183592,0.603817658691406,-0.0237504804687489,0.607965338904568,0.859410999999909,
0.0859518395996092,0.546356818847656,-0.0500866987304676,0.555339688498494,0.862478999999894,
0.0835576379394529,0.587058247070313,-0.0764229169921862,0.597879357858158,0.865524999999707,
0.148201082763672,0.56311623046875,0.0073741411132815,0.582338241837867,0.868584999999712,
0.143412679443359,0.611000263671875,-0.0333272871093744,0.628489639451833,0.871648999999707,
0.112288057861328,0.58226984375,-0.00699106884765577,0.593039335898177,0.874652999999853,
0.148201082763672,0.56311623046875,-0.0357214887695303,0.583386214020841,0.877697999999782,
0.107499654541016,0.60142345703125,-0.00459686718749985,0.610972570236829,0.880713000000014,
0.117076461181641,0.596635053710938,-0.0333272871093744,0.608926098262786,0.883718999999928,
0.102711251220703,0.615788666992188,-0.0429040937499998,0.625768363521077,0.886887000000115,
0.0620098229980467,0.587058247070313,0.014556746093751,0.590503600715826,0.889827999999852,
0.141018477783203,0.565510432128906,-0.0261446821289049,0.583413921951247,0.892911999999797,
0.105105452880859,0.565510432128906,-0.00459686718749985,0.575213296316986,0.895903999999973,
0.133835872802734,0.567904633789063,0.0073741411132815,0.583508433431015,0.89890800000012,
0.126653267822265,0.606211860351563,0.0241335527343765,0.619771166035129,0.901970999999776,
0.112288057861328,0.565510432128906,-0.0189620771484371,0.576862390137089,0.904909999999745,
0.0931344445800779,0.591846650390625,0.0576523759765628,0.601897232757873,0.907955000000129,
0.100317049560547,0.594240852050781,-0.0117794721679676,0.602764014057847,0.910927999999785,
0.141018477783203,0.584664045410156,-0.0285388837890626,0.602106904926016,0.913862999999765,
0.109893856201172,0.58226984375,0.014556746093751,0.592728208733355,0.916948000000048,
0.100317049560547,0.584664045410156,-0.0357214887695303,0.594282408613796,0.919966999999815,
0.114682259521484,0.589452448730469,0.052863972656251,0.602827346400526,0.923029999999926,
0.119470662841797,0.546356818847656,-0.00938527050781168,0.559345238724434,0.926038999999946,
0.138624276123047,0.606211860351563,0.0169509477539069,0.622090704151169,0.928978999999799,
0.124259066162109,0.608606062011719,-0.0764229169921862,0.625845121801302,0.932033000000047,
0.124259066162109,0.613394465332031,-0.0405098920898439,0.627163564774437,0.934993999999733,
0.105105452880859,0.553539423828125,-0.0237504804687489,0.56393008013384,0.938065999999708,
0.121864864501953,0.606211860351563,-0.0165678754882812,0.618561524287744,0.941064999999981,
0.0691924279785154,0.58226984375,0.00258573779296967,0.586372278565542,0.944027999999889,
0.102711251220703,0.567904633789063,-0.0309330854492185,0.57794647674488,0.947057999999743,
0.0763750329589842,0.589452448730469,-0.0285388837890626,0.595064536719974,0.950019999999768,
0.107499654541016,0.567904633789063,-0.0476924970703116,0.579953811162862,0.953097999999954,
0.0955286462402342,0.599029255371094,-0.0429040937499998,0.608113913920285,0.956034999999702,
0.109893856201172,0.584664045410156,0.0169509477539069,0.595143713951419,0.959097999999813,
0.119470662841797,0.6205770703125,0.0121625444335951,0.632089445383012,0.962073000000146,
0.107499654541016,0.587058247070313,0.0408929643554696,0.598218852689786,0.965020999999979,
0.0859518395996092,0.58226984375,-0.0261446821289049,0.589159939299023,0.968057000000044,
0.133835872802734,0.599029255371094,-0.0165678754882812,0.614021647938826,0.971020999999837,
0.126653267822265,0.608606062011719,-0.0429040937499998,0.623123703792417,0.974020999999993,
0.109893856201172,0.608606062011719,-0.00938527050781168,0.61851926538361,0.976998000000094,
0.114682259521484,0.570298835449219,-0.0429040937499998,0.583295417112287,0.979935999999725,
0.138624276123047,0.567904633789063,-0.0141736738281235,0.584750593021943,0.983020000000124,
0.131441671142578,0.567904633789063,-0.0644519086914048,0.586469636490934,0.985995999999886,
0.112288057861328,0.625365473632813,-0.00220266552734216,0.635370313506766,0.989089000000149,
0.0811634362792967,0.567904633789063,-0.0141736738281235,0.57385021521085,0.99204299999974,
0.157777889404297,0.546356818847656,0.0265277543945324,0.56930076202252,0.995012999999744,
0.100317049560547,0.577481440429688,-0.0357214887695303,0.587217463324441,0.998033999999734,
0.0835576379394529,0.558327827148438,-0.0357214887695303,0.565674699970069,1.00102100000004,
0.107499654541016,0.611000263671875,-0.0548751020507812,0.622807173014748,1.00409200000013,
0.131441671142578,0.6205770703125,0.0193451494140628,0.63463930536664,1.0071109999999,
0.164960494384765,0.587058247070313,-0.0261446821289049,0.610354728469073,1.01008599999977,
0.114682259521484,0.555933625488281,-0.0165678754882812,0.567880895167017,1.01324399999976,
0.112288057861328,0.58226984375,-0.0333272871093744,0.593933907892948,1.01621900000009,
0.105105452880859,0.58226984375,0.0193451494140628,0.591996251653499,1.0193119999999,
0.0859518395996092,0.584664045410156,0.0432871660156255,0.592531470444896,1.02227700000003,
0.0787692346191404,0.575087238769531,-0.0285388837890626,0.581157803359789,1.0252989999999,
0.148201082763672,0.608606062011719,0.0552581743164069,0.628823000118888,1.02843499999972,
0.0955286462402342,0.553539423828125,0.000191536132813752,0.56172204217972,1.031387,
