X,Y,Z,Magnitude,Seconds,
-0.342753909667969,0.139869260986328,-0.00948103857421678,0.370315463968203,0.0,
-0.318811893066406,0.139869260986328,-0.0118752402343745,0.348346744867914,0.00379500000053667,
-0.333177103027344,0.161417075927734,-0.0262404501953117,0.371148239399308,0.00756000000001222,
-0.266139456542969,0.127898252685547,-0.0166636435546863,0.295746260137842,0.0114429999994172,
-0.261351053222656,0.111138841064453,-0.0334230551757795,0.285960339262326,0.0151889999997366,
-0.273322061523437,0.144657664306641,-0.00229843359374904,0.309250823693421,0.0189439999994647,
-0.254168448242187,0.113533042724609,0.0216435830078137,0.279212815890613,0.022714000000633,
-0.270927859863281,0.139869260986328,-0.00948103857421678,0.305049513212864,0.0265259999996488,
-0.251774246582031,0.123109849365234,-0.0358172568359372,0.282540584942998,0.0305420000004233,
-0.311629288085937,0.185359092529297,0.0240377846679696,0.363384949424128,0.0344629999999597,
-0.314023489746094,0.108744639404297,-0.0310288535156236,0.333764795120725,0.0382890000000771,
-0.309235086425781,0.115927244384766,0.0575566079101577,0.335228620170667,0.0421470000001136,
-0.270927859863281,0.218877915771484,-0.0693360800781235,0.355129468311441,0.0460050000001502,
-0.304446683105469,0.0656490095214843,-0.0214520468749981,0.312182263461909,0.0498999999999796,
-0.323600296386719,0.180570689208984,0.0288261879882832,0.371690563152894,0.0537239999994199,
-0.256562649902344,0.113533042724609,0.0288261879882832,0.282037398635636,0.0576189999992494,
-0.263745254882812,0.147051865966797,-0.0477882651367167,0.305727867624614,0.0614719999994122,
-0.27811046484375,0.115927244384766,0.0216435830078137,0.302081117138539,0.0653029999994033,
-0.263745254882812,0.125504051025391,-0.0310288535156236,0.293727111529524,0.0690770000001066,
-0.294869876464844,0.144657664306641,-0.0238462485351558,0.329306433976388,0.0728679999992892,
-0.282898868164062,0.151840269287109,-0.00229843359374904,0.321080238854207,0.0766370000001189,
-0.290081473144531,0.0871968244628907,-0.0358172568359372,0.30501380812246,0.0804000000007363,
-0.261351053222656,0.163811277587891,-0.0501824667968744,0.312500860253837,0.0842290000000503,
-0.325994498046875,0.125504051025391,-0.00948103857421678,0.34944752062801,0.0879960000002029,
-0.294869876464844,0.163811277587891,-0.00469263525390495,0.337349076680217,0.0917520000002696,
-0.290081473144531,0.103956236083984,-0.0477882651367167,0.311829886905068,0.0955140000005485,
-0.297264078125,0.151840269287109,0.0384029946289068,0.336000282019459,0.0994059999993624,
-0.287687271484375,0.151840269287109,0.0144609780273441,0.32562025956137,0.103388999999879,
-0.275716263183594,0.120715647705078,-0.078912886718749,0.311157466686993,0.107256999999663,
-0.2589568515625,0.127898252685547,0.0360087929687509,0.29105540225573,0.111103999999614,
-0.314023489746094,0.130292454345703,-0.0118752402343745,0.340188031979913,0.114874000000782,
-0.266139456542969,0.223666319091797,-0.0214520468749981,0.348305932967251,0.118693000000349,
-0.275716263183594,0.0967736311035157,-0.0238462485351558,0.293177824928975,0.122509999999238,
-0.299658279785156,0.130292454345703,0.00967257470703231,0.326901769656711,0.126280000000406,
-0.270927859863281,0.115927244384766,-0.0549708701171863,0.299771292491765,0.130019000000175,
-0.290081473144531,0.144657664306641,-0.0310288535156236,0.325631525892147,0.133907999999792,
-0.273322061523437,0.127898252685547,-0.0597592734374981,0.307626531881136,0.137674999999945,
-0.292475674804687,0.142263462646484,0.0503740029296882,0.329117689174838,0.141413999999713,
-0.270927859863281,0.163811277587891,-0.0310288535156236,0.318117634949037,0.145152999999482,
-0.285293069824219,0.170993882568359,-0.040605660156249,0.335081875371159,0.148896000000605,
-0.294869876464844,0.166205479248047,0.0384029946289068,0.340657152243914,0.152649999999994,
-0.280504666503906,0.0584664045410156,-0.00469263525390495,0.286571473137239,0.156450000000405,
-0.290081473144531,0.242819932373047,0.033614591308595,0.379787731987483,0.160249000000476,
-0.2589568515625,0.132686656005859,-0.00948103857421678,0.291125900162843,0.163997999999992,
-0.330782901367187,0.106350437744141,-0.0429998618164049,0.350109599356394,0.167735000000903,
-0.280504666503906,0.166205479248047,0.0575566079101577,0.331088949342415,0.171711000000869,
-0.292475674804687,0.132686656005859,-0.00469263525390495,0.321200544613643,0.175552000000607,
-0.290081473144531,0.149446067626953,-0.0238462485351558,0.327185011514986,0.179395999999542,
-0.270927859863281,0.142263462646484,0.0431913979492204,0.309040927566355,0.183242999999493,
-0.321206094726562,0.166205479248047,0.0192493813476577,0.362171444627858,0.187024000000747,
-0.337965506347656,0.0728316145019531,-0.0190578452148422,0.34624894081574,0.190882000000784,
-0.304446683105469,0.163811277587891,-0.0142694418945304,0.34601377789169,0.194679000000178,
-0.268533658203125,0.199724302490234,-0.107643306640623,0.351549717760789,0.198473000000376,
-0.292475674804687,0.0488895979003906,-0.0238462485351558,0.297490935499755,0.202258999999685,
-0.280504666503906,0.211695310791016,0.0120667763671882,0.351629605740569,0.20619699999952,
-0.263745254882812,0.175782285888672,-0.0142694418945304,0.31727683255704,0.20998999999938,
-0.290081473144531,0.0417069929199219,-0.0453940634765608,0.296559193617459,0.213760000000548,
-0.273322061523437,0.147051865966797,-0.0358172568359372,0.312429314384854,0.217538999999306,
-0.287687271484375,0.147051865966797,0.0288261879882832,0.324375039995954,0.221326999999292,
-0.261351053222656,0.123109849365234,-0.0166636435546863,0.289375335935598,0.225098999999318,
-0.287687271484375,0.0991678327636719,-0.0118752402343745,0.304531191439879,0.228912000000491,
-0.280504666503906,0.204512705810547,-0.0501824667968744,0.350751471475514,0.23265899999933,
-0.297264078125,0.144657664306641,-0.0142694418945304,0.330900874822265,0.236397000000579,
-0.292475674804687,0.115927244384766,-0.0142694418945304,0.314936125770106,0.240153000000646,
-0.23980323828125,0.137475059326172,-0.0453940634765608,0.280117129118914,0.243925999999192,
-0.314023489746094,0.118321446044922,-0.0429998618164049,0.33831893949749,0.24767299999985,
-0.266139456542969,0.0800142194824218,-0.0262404501953117,0.279143416320035,0.251459999999497,
-0.27811046484375,0.168599680908203,-0.0286346518554677,0.326483118008938,0.255384000000049,
-0.302052481445312,0.142263462646484,-0.0382114584960931,0.336057599098484,0.259160999999949,
-0.323600296386719,0.132686656005859,-0.00948103857421678,0.349875392955885,0.262899999999718,
-0.309235086425781,0.178176487548828,-0.0190578452148422,0.357402295538558,0.26668299999983,
-0.290081473144531,0.115927244384766,-0.0214520468749981,0.313123900984057,0.270458000000872,
-0.31641769140625,0.154234470947266,0.0216435830078137,0.352671053743655,0.274224000000686,
-0.261351053222656,0.127898252685547,-0.0477882651367167,0.294866163446037,0.278072999999495,
-0.275716263183594,0.159022874267578,0.033614591308595,0.320058858763651,0.281879000000117,
-0.275716263183594,0.118321446044922,0.0192493813476577,0.300649232595651,0.285656000000017,
-0.27811046484375,0.0895910261230469,-0.0118752402343745,0.292426065780756,0.289394999999786,
-0.268533658203125,0.120715647705078,9.57680664068761e-05,0.294419093063496,0.293182999999772,
-0.325994498046875,0.0967736311035157,-0.00469263525390495,0.340087590569576,0.29693000000043,
-0.323600296386719,-0.401220314208984,-0.0932780966796862,0.523827925635617,0.300771000000168,
-0.23980323828125,0.867706565673828,-0.497898177246093,1.02874820636958,0.304634000000078,
-0.328388699707031,1.24599042797852,0.10065223779297,1.29246360013816,0.307689999999639,
-0.220649625,-1.08117358569336,0.842854752441408,1.38853401583351,0.310637000000497,
-0.323600296386719,-1.27749812182617,-0.0621534750976558,1.31931105413306,0.313657000000603,
-0.223043826660156,1.19571219311523,-0.778019771484374,1.44388052213341,0.316649000000325,
-0.211072818359375,1.30823967114258,-0.220170784667967,1.34332347043544,0.319697000000815,
-0.402608951171875,-0.0923683000488281,0.478936100097657,0.632460005371392,0.322677000000112,
-0.369090127929687,-0.808234596435547,0.31134198388672,0.941490582183913,0.325618000000759,
-0.215861221679687,-0.283904432861328,-0.371005489257811,0.51462886343732,0.328632999999172,
-0.223043826660156,1.05924269848633,-0.169892549804686,1.09572219170141,0.331614000000627,
-0.246985843261719,0.822216734130859,0.0910754311523441,0.863329079097944,0.334678999999596,
-0.421762564453125,-0.592756447021484,0.0743160195312509,0.731277469240356,0.337681999999404,
-0.35472491796875,-0.554449220458984,-0.0214520468749981,0.658561990863912,0.340659999999843,
-0.156006180175781,0.573219761474609,-0.0956722983398421,0.601724199170745,0.343713000000207,
-0.215861221679687,0.764755894287109,-0.0597592734374981,0.7968806784166,0.346675000000687,
-0.390637942871094,-0.00138863696289065,0.0120667763671882,0.39082673631044,0.349733999999444,
-0.35472491796875,-0.420373927490234,0.0479798012695323,0.552128669488703,0.352700999999797,
-0.266139456542969,0.156628672607422,0.0144609780273441,0.309147005965215,0.355663000000277,
-0.246985843261719,0.494211106689453,-0.0358172568359372,0.553651063969146,0.358700999999201,
-0.304446683105469,0.192541697509766,0.00488417138672048,0.36025538616931,0.361682999999175,
-0.302052481445312,-0.147434938232422,-0.00229843359374904,0.336122069129437,0.364717000000383,
-0.302052481445312,-0.0373016618652344,0.00488417138672048,0.304386219555541,0.367689999999129,
-0.23980323828125,0.422385056884766,-0.0645476767578117,0.489980746503933,0.370731999999407,
-0.323600296386719,0.226060520751953,9.57680664068761e-05,0.394741079741821,0.373717000000397,
-0.342753909667969,-0.0229364519042969,0.00248996972656279,0.343529508729418,0.376658999999563,
-0.275716263183594,0.0201591779785156,-0.0238462485351558,0.277478816866972,0.379699999999502,
-0.244591641601562,0.194935899169922,0.0072783730468764,0.312854679748829,0.38269500000024,
-0.249380044921875,0.302674973876953,-0.0238462485351558,0.392900992854244,0.385709000000134,
-0.361907522949219,0.144657664306641,-0.0142694418945304,0.390008348605352,0.38867399999981,
-0.318811893066406,-0.00138863696289065,-0.00469263525390495,0.318849450836639,0.391593000000285,
-0.270927859863281,0.130292454345703,0.0838928261718763,0.312115419664953,0.394662000000608,
-0.275716263183594,0.226060520751953,0.0575566079101577,0.361158663111786,0.397621000000072,
-0.290081473144531,0.159022874267578,-0.00469263525390495,0.330843703926264,0.400665999999546,
-0.323600296386719,0.0608606062011718,-0.0214520468749981,0.329971749584526,0.403620999999475,
-0.328388699707031,0.111138841064453,0.00967257470703231,0.346820614712977,0.406571999999869,
-0.244591641601562,0.204512705810547,-0.040605660156249,0.321402143141615,0.409605999999258,
-0.287687271484375,0.151840269287109,0.033614591308595,0.327031151880291,0.412576000000627,
-0.306840884765625,0.115927244384766,0.0216435830078137,0.328723134628235,0.415617000000566,
-0.282898868164062,0.0632548078613281,-0.0334230551757795,0.291804799383705,0.418583000000581,
-0.270927859863281,0.168599680908203,-0.0142694418945304,0.319423503556684,0.421526000000085,
-0.31641769140625,0.185359092529297,-0.0238462485351558,0.367487132002395,0.424564000000828,
-0.294869876464844,0.113533042724609,-0.0477882651367167,0.319564882490985,0.427514000000883,
-0.311629288085937,0.0800142194824218,-0.0166636435546863,0.322168846303995,0.43054999999913,
-0.273322061523437,0.170993882568359,0.0312203896484391,0.323911361210168,0.433521999999357,
-0.282898868164062,0.180570689208984,-0.0214520468749981,0.336300065008977,0.4365600000001,
-0.342753909667969,0.127898252685547,0.00248996972656279,0.365847516845384,0.4396940000006,
-0.285293069824219,0.130292454345703,0.0192493813476577,0.314227303128517,0.442743999999948,
-0.309235086425781,0.113533042724609,-0.0932780966796862,0.342369528123128,0.445814999999129,
-0.292475674804687,0.151840269287109,-0.0597592734374981,0.334915897639119,0.448790000000372,
-0.311629288085937,0.125504051025391,-0.00948103857421678,0.336086253972366,0.451728000000003,
-0.302052481445312,0.103956236083984,0.00967257470703231,0.31958748296747,0.454782000000705,
-0.299658279785156,0.123109849365234,-0.0645476767578117,0.330329414720156,0.457791999999245,
-0.318811893066406,0.147051865966797,-0.00948103857421678,0.351219538945868,0.460831000000326,
-0.249380044921875,0.154234470947266,0.00967257470703231,0.293380704094667,0.463788999999451,
-0.323600296386719,0.115927244384766,0.0264319863281255,0.344753430314286,0.466823999999178,
-0.311629288085937,0.103956236083984,-0.00708683691406087,0.328587789595328,0.469777000000249,
-0.302052481445312,0.118321446044922,-0.0741244833984371,0.332761333662007,0.472764000000097,
-0.330782901367187,0.130292454345703,-0.0621534750976558,0.360910662024602,0.47582599999987,
-0.314023489746094,0.161417075927734,0.00488417138672048,0.35311482501236,0.478827999999339,
-0.314023489746094,0.103956236083984,-0.00948103857421678,0.33091923671118,0.481839000000036,
-0.297264078125,0.108744639404297,-0.0214520468749981,0.317256235648417,0.484807999999248,
-0.249380044921875,0.106350437744141,0.0240377846679696,0.27217391040537,0.487764999999854,
-0.285293069824219,0.156628672607422,-0.0597592734374981,0.330901567742232,0.490803999999116,
-0.309235086425781,0.132686656005859,-0.0358172568359372,0.338400595812166,0.493762000000061,
-0.27811046484375,0.0871968244628907,0.0144609780273441,0.291818156970272,0.496816000000763,
-0.280504666503906,0.142263462646484,0.0168551796875018,0.314969614116875,0.499771999999211,
-0.31641769140625,0.185359092529297,-0.0262404501953117,0.367650254786527,0.502705999999307,
-0.280504666503906,0.180570689208984,-0.0166636435546863,0.334015446870939,0.505745000000388,
-0.273322061523437,0.120715647705078,0.0168551796875018,0.299267963535318,0.508724999999686,
-0.299658279785156,0.0776200178222656,-0.00948103857421678,0.309693141517492,0.511759000000893,
-0.302052481445312,0.154234470947266,9.57680664068761e-05,0.339151857944456,0.514751000000615,
-0.328388699707031,0.135080857666016,0.0312203896484391,0.356455732080242,0.51770199999919,
-0.304446683105469,0.123109849365234,0.0192493813476577,0.328959505937919,0.520754999999554,
-0.266139456542969,0.151840269287109,0.0551624062500018,0.31133353299871,0.523726999999781,
-0.309235086425781,0.130292454345703,0.0264319863281255,0.336602305751814,0.526776000000609,
-0.311629288085937,0.170993882568359,0.0120667763671882,0.355664628773576,0.529742999999144,
-0.27811046484375,0.149446067626953,-0.0501824667968744,0.319683965438659,0.532687000000806,
-0.27811046484375,0.161417075927734,-0.0477882651367167,0.325091712200486,0.535728000000745,
-0.27811046484375,0.142263462646484,-0.0166636435546863,0.312829027547464,0.538683999999193,
-0.268533658203125,0.132686656005859,-0.0477882651367167,0.303314675798497,0.54172699999981,
-0.263745254882812,0.101562034423828,-0.0310288535156236,0.284322345340637,0.544683000000077,
-0.263745254882812,0.137475059326172,0.0455855996093764,0.300896989519138,0.547638000000006,
-0.285293069824219,0.163811277587891,-0.00469263525390495,0.329011080634573,0.550671000000875,
-0.323600296386719,0.125504051025391,0.00248996972656279,0.347094538410784,0.55363799999941,
-0.314023489746094,0.149446067626953,0.0144609780273441,0.348071830412894,0.5566859999999,
-0.268533658203125,0.125504051025391,-0.0765186850585931,0.306131836918071,0.559638000000632,
-0.302052481445312,0.166205479248047,0.0384029946289068,0.346892999173825,0.562678000000233,
-0.268533658203125,0.161417075927734,0.0216435830078137,0.314060890074566,0.565652999999656,
-0.306840884765625,0.113533042724609,-0.0238462485351558,0.328039210953904,0.568599000000177,
-0.337965506347656,0.144657664306641,0.0312203896484391,0.368946115379036,0.571653999999398,
-0.318811893066406,0.156628672607422,-0.0190578452148422,0.355720066495526,0.57466100000056,
-0.275716263183594,0.135080857666016,-0.0884896933593744,0.319525776303802,0.57777999999962,
-0.273322061523437,0.103956236083984,-0.00469263525390495,0.292461739654603,0.580845000000409,
-0.282898868164062,0.149446067626953,-0.0382114584960931,0.322220440534219,0.583862999999837,
-0.2589568515625,0.170993882568359,0.0216435830078137,0.311072344531591,0.586927000000287,
-0.323600296386719,0.0943794294433594,0.0144609780273441,0.337392573138671,0.589900000000853,
-0.263745254882812,0.106350437744141,-0.0166636435546863,0.284867780028012,0.592955000000075,
-0.311629288085937,0.0704374128417968,-0.0429998618164049,0.322371261803877,0.595946999999796,
-0.314023489746094,0.362530015380859,-0.157921541503905,0.504953440858987,0.59891400000015,
-0.292475674804687,0.0441011945800781,0.0216435830078137,0.29657272362991,0.601979999999458,
-0.297264078125,0.142263462646484,0.0623450112304695,0.335397861312503,0.604959000000235,
-0.208678616699219,-0.0875798967285156,0.122200052734376,0.257196143568991,0.607997999999498,
-0.275716263183594,0.125504051025391,-0.222564986328123,0.375906767359869,0.610975999999937,
-0.340359708007812,0.453509678466797,-0.12919112158203,0.581554902991836,0.613953000000038,
-0.299658279785156,0.127898252685547,0.0910754311523441,0.338301318122469,0.617055000000619,
-0.294869876464844,-0.0349074602050781,0.117411649414064,0.319299655875938,0.620032999999239,
-0.220649625,-0.0133596452636719,9.57680664068761e-05,0.221053718145012,0.623085999999603,
-0.314023489746094,0.240425730712891,-0.141162129882812,0.419930983632066,0.62605799999983,
-0.292475674804687,0.360135813720703,0.00488417138672048,0.46396517089849,0.629030000000057,
-0.297264078125,0.0225533796386719,0.00967257470703231,0.29827528522842,0.632089000000633,
-0.304446683105469,-0.0756088884277344,-0.00708683691406087,0.313774935456365,0.63504599999942,
-0.227832229980469,0.168599680908203,-0.0525766684570304,0.288266688131427,0.638103999999657,
-0.270927859863281,0.290703965576172,0.0384029946289068,0.399231124598619,0.64108699999997,
-0.309235086425781,0.123109849365234,0.00248996972656279,0.332849175508563,0.644046999999773,
-0.311629288085937,-0.0516668718261719,0.0192493813476577,0.316469299489726,0.647098999999798,
-0.256562649902344,0.127898252685547,-0.0286346518554677,0.288101196894099,0.650064999999813,
-0.275716263183594,0.266761948974609,-0.0358172568359372,0.385310616375812,0.653116999999838,
-0.309235086425781,0.163811277587891,-0.00229843359374904,0.349951076778915,0.656081999999515,
-0.27811046484375,0.0656490095214843,0.0360087929687509,0.288013639048266,0.659137000000555,
-0.263745254882812,0.118321446044922,0.00488417138672048,0.289111361239049,0.662109000000783,
-0.261351053222656,0.211695310791016,-0.0549708701171863,0.340794768435399,0.665070000000924,
-0.318811893066406,0.221272117431641,0.0527682045898441,0.391646341140707,0.668120000000272,
-0.314023489746094,0.115927244384766,0.0288261879882832,0.335977420695046,0.671105999999781,
-0.31641769140625,0.0800142194824218,0.0288261879882832,0.327648256317927,0.674156999999468,
-0.256562649902344,0.194935899169922,-0.0525766684570304,0.326479255353444,0.677142000000458,
-0.266139456542969,0.151840269287109,-0.0597592734374981,0.312180794521294,0.680112000000008,
-0.2589568515625,0.130292454345703,-0.040605660156249,0.292717601567303,0.683181000000332,
-0.290081473144531,0.0776200178222656,-0.0118752402343745,0.300521462726133,0.686157000000094,
-0.220649625,0.159022874267578,-0.0429998618164049,0.275360708288587,0.689211000000796,
-0.261351053222656,0.182964890869141,9.57680664068761e-05,0.319030615275197,0.692193000000771,
-0.290081473144531,0.142263462646484,-0.0262404501953117,0.324152302309149,0.695157000000108,
-0.270927859863281,0.101562034423828,0.00248996972656279,0.289349187031247,0.698222999999416,
-0.290081473144531,0.106350437744141,0.00967257470703231,0.309113628576184,0.701200999999855,
-0.270927859863281,0.142263462646484,-0.0453940634765608,0.309356459530393,0.704243000000133,
-0.292475674804687,0.111138841064453,-0.0477882651367167,0.316508421105007,0.707221000000573,
-0.311629288085937,0.101562034423828,-0.0142694418945304,0.32807206068368,0.710173999999824,
-0.292475674804687,0.118321446044922,-0.0501824667968744,0.319468722914213,0.7132330000004,
-0.337965506347656,0.118321446044922,-0.0453940634765608,0.360944966821679,0.716292999999496,
-0.282898868164062,0.175782285888672,-0.0501824667968744,0.33682259665078,0.719451000000845,
-0.2589568515625,0.123109849365234,0.0240377846679696,0.287736860818417,0.722508000000744,
-0.256562649902344,0.103956236083984,-0.00948103857421678,0.276985888518003,0.725517999999283,
-0.251774246582031,0.142263462646484,0.00248996972656279,0.289197793897803,0.728586999999607,
-0.256562649902344,0.159022874267578,-0.112431709960937,0.322107990074718,0.731573999999455,
-0.330782901367187,0.147051865966797,-0.00229843359374904,0.362003952904103,0.734637999999904,
-0.282898868164062,0.123109849365234,-0.078912886718749,0.318457294326138,0.737645999999586,
-0.268533658203125,0.159022874267578,-0.0382114584960931,0.314418058782687,0.740590999999768,
-0.325994498046875,0.166205479248047,-0.0525766684570304,0.369676859101225,0.743641999999454,
-0.309235086425781,0.149446067626953,-0.0190578452148422,0.343982074053508,0.746624999999767,
-0.314023489746094,0.142263462646484,-0.0477882651367167,0.348042185950582,0.749680000000808,
-0.275716263183594,0.182964890869141,-0.040605660156249,0.333383305987876,0.752673000000868,
-0.325994498046875,0.142263462646484,-0.0573650717773422,0.36028052545346,0.755720999999539,
-0.304446683105469,0.137475059326172,-0.0525766684570304,0.338158957971982,0.758727000000363,
-0.297264078125,0.135080857666016,0.0647392128906255,0.332872251677712,0.76169900000059,
-0.270927859863281,0.0895910261230469,0.0072783730468764,0.285449526056863,0.764750000000276,
-0.290081473144531,0.118321446044922,-0.0166636435546863,0.313727433726125,0.767727000000377,
-0.314023489746094,0.206906907470703,-0.0166636435546863,0.376429140062141,0.770742999999129,
-0.256562649902344,0.139869260986328,-0.00469263525390495,0.292249592505106,0.773713000000498,
-0.314023489746094,0.108744639404297,0.0503740029296882,0.336115588574297,0.776674999999159,
-0.249380044921875,0.163811277587891,0.00967257470703231,0.298526548520691,0.779720000000452,
-0.31641769140625,0.142263462646484,0.0144609780273441,0.347229273138852,0.782682999999452,
-0.314023489746094,0.115927244384766,-0.0262404501953117,0.335765452852751,0.785724999999729,
-0.294869876464844,0.132686656005859,-0.0501824667968744,0.327218998076562,0.788693000000421,
-0.227832229980469,0.0848026228027344,0.0288261879882832,0.244805961867827,0.791649999999208,
-0.309235086425781,0.154234470947266,-0.0884896933593744,0.356714222503083,0.794686999999612,
-0.297264078125,0.151840269287109,0.0479798012695323,0.337229092532883,0.797665000000052,
-0.31641769140625,0.142263462646484,-0.040605660156249,0.349296246581256,0.800703000000794,
-0.282898868164062,0.113533042724609,0.0144609780273441,0.305173133293747,0.803680000000895,
-0.282898868164062,0.130292454345703,-0.0214520468749981,0.312198788567576,0.806618000000526,
-0.330782901367187,0.137475059326172,0.0503740029296882,0.361737833167598,0.809674000000086,
-0.263745254882812,0.113533042724609,-0.0238462485351558,0.288131835854194,0.812626000000819,
-0.304446683105469,0.161417075927734,-0.0525766684570304,0.348579347238218,0.815671000000293,
-0.256562649902344,0.115927244384766,0.00488417138672048,0.281580138585257,0.818642000000182,
-0.266139456542969,0.108744639404297,-0.00229843359374904,0.287508068973972,0.821594999999434,
-0.256562649902344,0.180570689208984,0.00248996972656279,0.313745704473479,0.824641999999585,
-0.27811046484375,0.0991678327636719,-0.00948103857421678,0.295414251184834,0.827606000000742,
-0.306840884765625,0.120715647705078,-0.0453940634765608,0.332842631229117,0.830646000000343,
-0.27811046484375,0.149446067626953,-0.040605660156249,0.318321185945094,0.833608999999342,
-0.294869876464844,0.0824084211425782,-0.0166636435546863,0.306622029440356,0.836549999999988,
-0.304446683105469,0.106350437744141,-0.0334230551757795,0.324214896449215,0.839587000000392,
-0.292475674804687,0.118321446044922,0.0312203896484391,0.317043684176832,0.842558000000281,
-0.27811046484375,0.149446067626953,-0.00469263525390495,0.315755567821682,0.845590999999331,
-0.294869876464844,0.173388084228516,0.00248996972656279,0.342078750798798,0.848554000000149,
-0.27811046484375,0.139869260986328,-0.00469263525390495,0.311337215331053,0.851575000000594,
-0.285293069824219,0.144657664306641,-0.0501824667968744,0.323784273098924,0.854574999999386,
-0.306840884765625,0.132686656005859,-0.0358172568359372,0.336214147728825,0.857616999999664,
-0.254168448242187,0.0991678327636719,-0.0334230551757795,0.274868986526615,0.860754999999699,
-0.311629288085937,0.139869260986328,-0.0429998618164049,0.344274906837602,0.8637949999993,
-0.268533658203125,0.151840269287109,-0.0908838950195303,0.321598624591362,0.866814000000886,
-0.266139456542969,0.0728316145019531,-0.0573650717773422,0.281825133478133,0.86979699999938,
-0.270927859863281,0.168599680908203,0.0120667763671882,0.319332686620617,0.872762000000876,
-0.297264078125,0.101562034423828,-0.0717302817382794,0.322220440534219,0.87581499999942,
-0.345148111328125,0.135080857666016,0.0120667763671882,0.370836438275763,0.878810000000158,
-0.263745254882812,0.123109849365234,-0.0382114584960931,0.293560402718638,0.881858999999167,
-0.285293069824219,0.115927244384766,0.00488417138672048,0.307985578900225,0.884826999999859,
-0.297264078125,0.161417075927734,0.00248996972656279,0.338271495242808,0.887806000000637,
-0.311629288085937,0.168599680908203,0.0264319863281255,0.35529891006946,0.890855999999985,
-0.287687271484375,0.144657664306641,0.0168551796875018,0.322449845866105,0.893851000000723,
-0.261351053222656,0.118321446044922,-0.0334230551757795,0.288827696442076,0.896918000000369,
-0.251774246582031,0.132686656005859,-0.0214520468749981,0.285405343746563,0.899916000000303,
-0.290081473144531,0.115927244384766,0.00248996972656279,0.312398122596128,0.902873000000909,
-0.282898868164062,0.149446067626953,-0.0142694418945304,0.320264755647025,0.905910999999833,
-0.287687271484375,0.0919852277832032,-0.078912886718749,0.312173816958979,0.908863000000565,
-0.325994498046875,0.120715647705078,0.0072783730468764,0.347703401007094,0.911904000000504,
-0.304446683105469,0.142263462646484,-0.0118752402343745,0.336255404400752,0.914858000000095,
-0.2589568515625,0.139869260986328,0.00488417138672048,0.294356783971695,0.91783199999918,
-0.325994498046875,0.151840269287109,-0.0310288535156236,0.360957989085309,0.920867000000726,
-0.294869876464844,0.118321446044922,-0.0382114584960931,0.320013006299669,0.923824999999852,
-0.270927859863281,0.125504051025391,-0.0238462485351558,0.299536000579366,0.926865999999791,
-0.306840884765625,0.127898252685547,-0.00229843359374904,0.332437324018758,0.929825999999593,
-0.290081473144531,0.135080857666016,0.00967257470703231,0.320136936124139,0.932786999999735,
-0.299658279785156,0.123109849365234,0.0072783730468764,0.32404335260693,0.935829000000012,
-0.275716263183594,0.108744639404297,-0.040605660156249,0.29915493313636,0.93879299999935,
-0.311629288085937,0.130292454345703,0.0527682045898441,0.341867547842744,0.941854999999123,
-0.256562649902344,0.123109849365234,0.0288261879882832,0.286026882389714,0.94482699999935,
-0.321206094726562,0.123109849365234,0.124594254394532,0.365859424544933,0.947861000000557,
-0.261351053222656,0.142263462646484,0.00248996972656279,0.297572622688981,0.95084499999939,
-0.275716263183594,0.142263462646484,0.0575566079101577,0.315548908573958,0.953826999999364,
-0.27811046484375,0.0991678327636719,-0.00948103857421678,0.295414251184834,0.956865000000107,
-0.314023489746094,0.132686656005859,0.00967257470703231,0.341042606569612,0.959850999999617,
-0.285293069824219,0.135080857666016,0.0599508095703136,0.321299040405739,0.962875999999596,
-0.314023489746094,0.154234470947266,-0.0358172568359372,0.351684375581215,0.965847999999824,
-0.280504666503906,0.115927244384766,-0.00708683691406087,0.303598776642066,0.968801000000894,
-0.302052481445312,0.111138841064453,-0.0358172568359372,0.323837026029563,0.971847000000707,
-0.302052481445312,0.154234470947266,0.0312203896484391,0.340585798743069,0.974835000000894,
-0.244591641601562,0.101562034423828,-0.0621534750976558,0.272034873581254,0.977887999999439,
-0.306840884765625,0.170993882568359,-0.0525766684570304,0.355182407370627,0.980852000000596,
-0.27811046484375,0.0919852277832032,-0.0142694418945304,0.29327517753454,0.98381800000061,
-0.285293069824219,0.135080857666016,-0.0334230551757795,0.317420973495445,0.986861999999746,
-0.297264078125,0.118321446044922,-0.0669418784179676,0.326874764739943,0.989826999999423,
-0.268533658203125,0.0943794294433594,-0.0238462485351558,0.285633411664685,0.9928689999997,
-0.280504666503906,0.144657664306641,-0.0573650717773422,0.320779455752921,0.995925999999599,
-0.297264078125,0.106350437744141,9.57680664068761e-05,0.315715626669633,0.998982999999498,
-0.297264078125,0.125504051025391,-0.0358172568359372,0.324653776898624,1.00213099999928,
-0.314023489746094,0.127898252685547,9.57680664068761e-05,0.339070382551844,1.00515599999926,
-0.302052481445312,0.108744639404297,-0.0429998618164049,0.32389826529741,1.00821299999916,
-0.268533658203125,0.151840269287109,-0.00469263525390495,0.308525223913314,1.01119300000028,
-0.285293069824219,0.137475059326172,0.0144609780273441,0.317018370937661,1.01417799999945,
-0.304446683105469,0.125504051025391,0.0503740029296882,0.333131490329068,1.01725099999931,
-0.302052481445312,0.168599680908203,-0.0382114584960931,0.348025386301082,1.02023200000076,
