X,Y,Z,Magnitude,Seconds,
0.224815535888672,0.146525141601563,0.052863972656251,0.273507297714831,0.0,
0.217632930908203,0.156101948242188,0.0241335527343765,0.268913255954935,0.00370899999961694,
0.243969149169922,0.151313544921875,-0.00220266552734216,0.287091599248298,0.0074239999994461,
0.160172091064453,0.165678754882813,-0.021356278808593,0.231431716106563,0.0112760000001799,
0.234392342529297,0.168072956542969,-0.0285388837890626,0.28983229089491,0.0151909999995041,
0.222421334228516,0.156101948242188,-0.00938527050781168,0.271895478939067,0.0191319999994448,
0.239180745849609,0.148919343261719,-0.00459686718749985,0.281789870596188,0.0228829999996378,
0.17453730102539,0.165678754882813,-0.0716345136718743,0.251086086467874,0.026651000000129,
0.239180745849609,0.146525141601563,-0.00459686718749985,0.280531954498009,0.0304249999999229,
0.217632930908203,0.10342951171875,0.0217393510742188,0.241938744096934,0.0343089999996664,
0.234392342529297,0.134554133300781,0.0193451494140628,0.270959074087856,0.0381149999993795,
0.227209737548828,0.14173673828125,-0.00938527050781168,0.267958301080821,0.0418829999998707,
0.200873519287109,0.163284553222656,-0.00220266552734216,0.25887616307288,0.0456580000000031,
0.222421334228516,0.134554133300781,-0.0141736738281235,0.260340080928972,0.0494369999996707,
0.196085115966797,0.139342536621094,0.0576523759765628,0.247365138351094,0.053222999999889,
0.215238729248047,0.139342536621094,0.0073741411132815,0.256512048523015,0.0570339999994758,
0.248757552490234,0.1608903515625,0.000191536132813752,0.296253374382346,0.0608249999995678,
0.239180745849609,0.153707746582031,-0.0405098920898439,0.287183829457078,0.0645889999996143,
0.222421334228516,0.168072956542969,0.103142207519532,0.297250876555629,0.0683389999994688,
0.198479317626953,0.151313544921875,0.0241335527343765,0.250743408228548,0.0720659999997224,
0.198479317626953,0.146525141601563,-0.0141736738281235,0.247112423153521,0.0757960000000821,
0.231998140869141,0.124977326660156,-0.021356278808593,0.264383358384009,0.0795219999999972,
0.246363350830078,0.168072956542969,0.0265277543945324,0.299411324279052,0.0833899999997811,
0.203267720947266,0.134554133300781,-0.0117794721679676,0.244051914829562,0.0873389999997016,
0.263122762451172,0.156101948242188,-0.00459686718749985,0.305978001746664,0.0911820000001171,
0.255940157470703,0.132159931640625,-0.021356278808593,0.288838540333407,0.0949659999996584,
0.205661922607422,0.129765729980469,-0.0141736738281235,0.243591592871616,0.0987660000000687,
0.210450325927734,0.139342536621094,0.00976834277343741,0.252588801643362,0.102578999999423,
0.227209737548828,0.14173673828125,-0.0189620771484371,0.268464389045173,0.106494999999995,
0.243969149169922,0.182438166503906,-0.0189620771484371,0.305228096206404,0.110345999999481,
0.222421334228516,0.201591779785156,-0.0141736738281235,0.300518532917233,0.114147999999659,
0.215238729248047,0.156101948242188,-0.0189620771484371,0.266561604855433,0.117980999999418,
0.200873519287109,0.139342536621094,-0.0309330854492185,0.246421121331346,0.121782000000167,
0.263122762451172,0.151313544921875,-0.00699106884765577,0.303608715356448,0.125590999999986,
0.217632930908203,0.163284553222656,-0.0357214887695303,0.274412030889188,0.129378999999972,
0.200873519287109,0.136948334960938,-0.0405098920898439,0.246467175413872,0.133244999999988,
0.208056124267578,0.175255561523438,-0.0309330854492185,0.273785898953087,0.137017000000014,
0.208056124267578,0.165678754882813,0.0169509477539069,0.266503537114464,0.14078999999947,
0.215238729248047,0.18004396484375,-0.059663505371093,0.286885471430914,0.144510000000082,
0.224815535888672,0.129765729980469,0.0337103593750001,0.261758587602138,0.148239999999532,
0.196085115966797,0.184832368164063,0.0217393510742188,0.270342331886769,0.151954999999361,
0.234392342529297,0.189620771484375,0.00976834277343741,0.301647522342286,0.155863999999383,
0.265516964111328,0.14173673828125,-0.0189620771484371,0.301576062676213,0.159839999999349,
0.196085115966797,0.194409174804688,-0.00699106884765577,0.27621219197491,0.163606000000073,
0.205661922607422,0.14173673828125,0.00976834277343741,0.249963097095807,0.167387999999846,
0.198479317626953,0.158496149902344,-0.0620577070312489,0.261469363523728,0.171183999999812,
0.248757552490234,0.144130939941406,-0.0189620771484371,0.288120822120006,0.174976999999672,
0.246363350830078,0.146525141601563,-0.0117794721679676,0.286885471430914,0.178909999999632,
0.227209737548828,0.18004396484375,0.0313161577148442,0.291583257145684,0.182708999999704,
0.25115175415039,0.151313544921875,-0.0357214887695303,0.295379446220542,0.186468999999306,
0.227209737548828,0.134554133300781,0.0217393510742188,0.264955994479196,0.190257999999631,
0.234392342529297,0.124977326660156,0.0672291826171882,0.274005228802054,0.194023999999445,
0.179325704345703,0.1608903515625,0.0552581743164069,0.247177829292535,0.197740999999951,
0.243969149169922,0.156101948242188,0.0073741411132815,0.289729428862276,0.201442999999927,
0.222421334228516,0.14173673828125,0.000191536132813752,0.263743416192122,0.205277999999453,
0.236786544189453,0.132159931640625,-0.0333272871093744,0.273212047879498,0.208983999999873,
0.227209737548828,0.192014973144531,0.00258573779296967,0.297490673448154,0.212728999999854,
0.200873519287109,0.134554133300781,0.0193451494140628,0.242547356911935,0.216426999999385,
0.210450325927734,0.136948334960938,-0.0141736738281235,0.251485743455665,0.220131000000038,
0.212844527587891,0.165678754882813,0.0600465776367187,0.276329213492736,0.22388299999966,
0.210450325927734,0.136948334960938,-0.00938527050781168,0.251261356826249,0.227866999999605,
0.200873519287109,0.165678754882813,-0.0572693037109371,0.266607189921508,0.23179699999946,
0.210450325927734,0.184832368164063,-0.0429040937499998,0.283360380548753,0.235576999999466,
0.224815535888672,0.144130939941406,-0.021356278808593,0.267902675742245,0.23934300000019,
0.19369091430664,0.148919343261719,0.00497993945312558,0.244372545265217,0.243106999999327,
0.212844527587891,0.153707746582031,-0.0261446821289049,0.263841635620801,0.246894999999313,
0.220027132568359,0.122583125,0.0121625444335951,0.252163615710354,0.250716999999895,
0.253545955810547,0.113006318359375,-0.00699106884765577,0.27767760936139,0.254586999999447,
0.212844527587891,0.199197578125,-0.0476924970703116,0.295393030269469,0.258359999999811,
0.220027132568359,0.146525141601563,0.00258573779296967,0.264363844403024,0.262171999999737,
0.203267720947266,0.127371528320313,-0.021356278808593,0.240826417260021,0.26592299999993,
0.184114107666015,0.175255561523438,0.00976834277343741,0.254377548158417,0.269710999999916,
0.234392342529297,0.144130939941406,0.0289219560546883,0.276676666213097,0.273449999999684,
0.208056124267578,0.146525141601563,-0.0429040937499998,0.258065358440672,0.277289999999994,
0.210450325927734,0.151313544921875,0.0121625444335951,0.259486138448691,0.281092999999601,
0.210450325927734,0.144130939941406,0.0169509477539069,0.255637247210258,0.284818999999516,
0.241574947509765,0.139342536621094,0.0480755693359374,0.282994802325628,0.288556999999855,
0.210450325927734,0.165678754882813,-0.0620577070312489,0.274936262622058,0.292253999999957,
0.212844527587891,0.136948334960938,-0.00220266552734216,0.253105691575892,0.296019999999771,
0.200873519287109,0.326090266113281,0.993785225097657,1.06503244364997,0.300108999999793,
1.09630494018555,-0.277248552246094,-3.26549952832031,3.45575439680802,0.304011000000173,
-0.378523282470703,0.891121857910156,3.72556931933594,3.84931744523557,0.307002999999895,
-0.886094034423828,-0.684262834472656,3.77105915087891,3.93373427977915,0.309941999999864,
-0.833421597900391,1.09223479736328,-7.09861638623047,7.23034736449624,0.312939999999799,
0.121864864501953,1.22631009033203,-0.272747453125,1.26217219745818,0.315891999999621,
1.54162644897461,-0.353863005371094,4.56353990039063,4.82987862758534,0.318940000000111,
0.706050069580078,-0.188663090820313,-0.255988041503906,0.774358017963856,0.321908999999323,
0.868855782470703,-0.674686027832031,-2.20247399121094,2.46191049570149,0.324873999999909,
0.126653267822265,-0.224576115722656,-0.552869047363281,0.610032511867618,0.327932000000146,
-1.33141554321289,0.651701691894531,1.48220236376953,2.0962600723887,0.330874999999651,
0.0572214196777342,0.579875642089844,0.249188508789063,0.633738876881923,0.333886999999777,
0.588734188232422,0.302148249511719,-1.24239912548828,1.40764238927745,0.336821999999302,
0.421140072021484,0.548751020507813,-0.244017033203125,0.733505934034539,0.339750999999524,
0.897586202392578,-0.2221819140625,1.08476488818359,1.42539140459664,0.342783999999483,
0.428322677001953,-0.138384855957031,-0.543292240722655,0.705533232967669,0.345736999999644,
-0.198958157958985,0.170467158203125,-0.373303922851562,0.456069314315978,0.348736999999346,
-0.153468326416016,0.045968671875,0.390446406738281,0.422035593927478,0.351659999999356,
-0.163045133056641,0.4290409375,-0.0117794721679676,0.459128083903493,0.354570999999851,
0.545638558349609,0.249475812988281,-0.255988041503906,0.652295558023362,0.357582999999977,
0.665348641357422,0.115400520019531,0.222852290527344,0.711104238470162,0.360523999999714,
0.196085115966797,0.110612116699219,0.0624407792968764,0.233630614397161,0.363534000000072,
0.172143099365234,-0.0809240161132813,-0.210498209960937,0.28371013277592,0.366474999999809,
-0.0648828649902345,0.170467158203125,-0.0141736738281235,0.182947345498579,0.369460999999319,
-0.0146046301269533,0.242293208007813,0.0863827958984373,0.257645650642687,0.37239099999988,
0.435505281982422,0.199197578125,-0.0117794721679676,0.479044133384399,0.375312000000122,
0.356496627197266,0.311725056152344,-0.0261446821289049,0.474284619442619,0.378307999999379,
0.349314022216797,0.0316034619140625,0.0815943925781255,0.360106525659316,0.381281999999374,
0.145806881103515,0.0387860668945312,-0.0572693037109371,0.161380849885658,0.38426999999956,
0.016519991455078,0.134554133300781,-0.0859997236328116,0.160541824366488,0.38720899999953,
0.17453730102539,0.1608903515625,0.0313161577148442,0.239436163536659,0.390150000000176,
0.220027132568359,0.273417829589844,-0.00220266552734216,0.350961679303169,0.393151999999645,
0.399592257080078,0.120188923339844,0.0121625444335951,0.417453322778776,0.396090999999615,
0.284670577392578,0.105823713378906,0.0432871660156255,0.306773164875921,0.399097999999867,
0.0979228479003904,0.136948334960938,-0.0309330854492185,0.171174140467843,0.402008999999452,
0.126653267822265,0.105823713378906,-0.0500866987304676,0.172477204154856,0.404954999999973,
0.141018477783203,0.156101948242188,-0.138672160156249,0.251960309024455,0.407962999999654,
0.299035787353515,0.14173673828125,-0.00459686718749985,0.330957453888992,0.410901999999624,
0.236786544189453,0.21835119140625,0.0217393510742188,0.322827677999952,0.413927999999942,
0.208056124267578,0.2375048046875,-0.0859997236328116,0.327248889317922,0.416862999999466,
0.224815535888672,0.148919343261719,-0.0117794721679676,0.269921751511374,0.419785999999476,
0.145806881103515,0.148919343261719,-0.0189620771484371,0.209275363443525,0.422848999999587,
0.188902510986328,0.127371528320313,0.0313161577148442,0.22997470864774,0.425878000000012,
0.258334359130859,0.168072956542969,-0.0476924970703116,0.311864929264975,0.428986999999324,
0.246363350830078,0.227927998046875,0.0337103593750001,0.337316559414257,0.432017000000087,
0.215238729248047,0.158496149902344,0.052863972656251,0.2724763103596,0.434943999999632,
0.179325704345703,0.189620771484375,0.0217393510742188,0.261889947501885,0.43794699999944,
0.205661922607422,0.110612116699219,0.0217393510742188,0.234530309675297,0.440896000000066,
0.227209737548828,0.0699106884765625,-0.0285388837890626,0.239428981303851,0.443895999999768,
0.217632930908203,0.163284553222656,-0.0692403120117184,0.280749280932823,0.446867999999995,
0.239180745849609,0.163284553222656,-0.00459686718749985,0.289638405074737,0.449789999999666,
0.253545955810547,0.170467158203125,-0.0165678754882812,0.305972381485532,0.452785999999833,
0.184114107666015,0.1608903515625,-0.0883939252929675,0.259994607436879,0.4557420000001,
0.210450325927734,0.108217915039063,0.0384987626953137,0.239755315994373,0.458767999999509,
0.215238729248047,0.151313544921875,-0.021356278808593,0.263968918794787,0.461709000000155,
0.255940157470703,0.151313544921875,0.0217393510742188,0.298117011369832,0.464739000000009,
0.27030536743164,0.223139594726563,-0.0117794721679676,0.350706467521836,0.467684999999619,
0.179325704345703,0.187226569824219,0.00258573779296967,0.259264696260713,0.470612000000074,
0.217632930908203,0.136948334960938,0.000191536132813752,0.257136103552881,0.473602999999457,
0.17453730102539,0.124977326660156,-0.0764229169921862,0.227866328951738,0.476563000000169,
0.255940157470703,0.134554133300781,0.00976834277343741,0.289319200045541,0.479554999999891,
0.217632930908203,0.168072956542969,-0.0309330854492185,0.276711884660197,0.482497999999396,
0.215238729248047,0.189620771484375,0.0480755693359374,0.290852209745118,0.485419999999976,
0.267911165771484,0.192014973144531,-0.0357214887695303,0.331545121237883,0.488421999999446,
0.25115175415039,0.122583125,0.0504697709960951,0.283991239181743,0.491352000000006,
0.239180745849609,0.127371528320313,0.0169509477539069,0.271511086406399,0.494350999999369,
0.222421334228516,0.168072956542969,-0.0907881269531234,0.293193200188449,0.497284000000036,
0.210450325927734,0.177649763183594,-0.0740287153320303,0.28518244815554,0.500202000000172,
0.239180745849609,0.120188923339844,0.0384987626953137,0.270434763312405,0.503216999999495,
0.265516964111328,0.14173673828125,0.0408929643554696,0.303744622575086,0.506137999999737,
0.227209737548828,0.10342951171875,0.00497993945312558,0.249693268888737,0.509152999999969,
0.229603939208984,0.146525141601563,0.00497993945312558,0.272419503374112,0.51209899999958,
0.179325704345703,0.165678754882813,0.0696233842773442,0.253879053284891,0.515003999999863,
0.272699569091797,0.120188923339844,0.0480755693359374,0.301863698783767,0.518016999999418,
0.220027132568359,0.144130939941406,0.0193451494140628,0.263742112148402,0.520944999999301,
0.229603939208984,0.146525141601563,0.0744117875976578,0.282355627100151,0.523967000000084,
0.217632930908203,0.122583125,0.0456813676757815,0.253924206217505,0.526906000000054,
0.222421334228516,0.189620771484375,-0.0261446821289049,0.293446470931146,0.529816999999639,
0.167354696044922,0.156101948242188,-0.00938527050781168,0.229049112279003,0.532822000000124,
0.19369091430664,0.129765729980469,-0.0261446821289049,0.234603621809058,0.535750999999436,
0.239180745849609,0.177649763183594,-0.00699106884765577,0.298019701677582,0.53877299999931,
0.215238729248047,0.168072956542969,-0.00938527050781168,0.273247712875906,0.541717000000062,
0.217632930908203,0.134554133300781,-0.00699106884765577,0.255964416370033,0.544622999999774,
0.222421334228516,0.151313544921875,0.0193451494140628,0.269705902053829,0.547638000000006,
0.186508309326172,0.172861359863281,-0.0309330854492185,0.256170363150967,0.550558999999339,
0.205661922607422,0.139342536621094,0.0121625444335951,0.248718910438433,0.553562999999485,
0.236786544189453,0.156101948242188,0.0720175859375001,0.292612744832578,0.556505999999899,
0.234392342529297,0.165678754882813,0.0361045610351578,0.289297008943113,0.559494000000086,
0.241574947509765,0.189620771484375,0.0576523759765628,0.312471260595944,0.562520999999833,
0.212844527587891,0.175255561523438,-0.0141736738281235,0.276076434703858,0.565528000000086,
0.222421334228516,0.151313544921875,0.00976834277343741,0.269188520032628,0.568625999999313,
0.236786544189453,0.168072956542969,-0.0285388837890626,0.291771921401296,0.571603999999752,
0.208056124267578,0.1608903515625,-0.0189620771484371,0.263690379879384,0.574595999999474,
0.279882174072265,0.189620771484375,-0.0165678754882812,0.338473873201378,0.577543999999762,
0.241574947509765,0.129765729980469,0.00976834277343741,0.274395736960779,0.58044400000017,
0.217632930908203,0.110612116699219,-0.00220266552734216,0.244139273186027,0.583486999999877,
0.19369091430664,0.196803376464844,0.00976834277343741,0.276302659765419,0.586418999999296,
0.220027132568359,0.139342536621094,0.0337103593750001,0.262611252438746,0.589415999999801,
0.246363350830078,0.158496149902344,-0.0644519086914048,0.299949960326811,0.592361999999412,
0.210450325927734,0.14173673828125,-0.0524809003906235,0.259100149686386,0.5952699999998,
0.275093770751953,0.14173673828125,0.0193451494140628,0.310064703716802,0.598304000000098,
0.200873519287109,0.14173673828125,-0.0357214887695303,0.248426042292888,0.601237999999285,
0.205661922607422,0.168072956542969,0.0121625444335951,0.265882065244678,0.604288999999881,
0.212844527587891,0.144130939941406,0.052863972656251,0.262433077902742,0.607224999999744,
0.236786544189453,0.113006318359375,0.0313161577148442,0.264232846618934,0.610143999999309,
0.217632930908203,0.074699091796875,0.000191536132813752,0.230095813992916,0.613137999999708,
0.236786544189453,0.168072956542969,0.0768059892578137,0.300359028857382,0.616086999999425,
0.224815535888672,0.192014973144531,0.0911711992187509,0.309392893673386,0.619090000000142,
0.413957467041016,0.194409174804688,-0.660608122070311,0.803466740265281,0.622016999999687,
0.208056124267578,0.182438166503906,0.203698677246095,0.343604695186724,0.624957999999424,
0.15538368774414,-0.358651408691406,1.07279387988281,1.14178002788949,0.627978999999868,
-0.0361524450683596,-0.138384855957031,-0.0141736738281235,0.143729818313581,0.630922999999711,
0.124259066162109,0.711556733398438,-1.66617281933594,1.81600802979007,0.633944000000156,
0.167354696044922,0.848026228027344,0.610712959472657,1.0583602395113,0.636895999999979,
0.490571920166015,0.187226569824219,1.33855026416016,1.43785653212925,0.639808999999332,
0.423534273681641,-0.258094938964844,-0.840173246582031,0.975646125792796,0.642816999999923,
0.368467635498047,-0.413718046875,-0.478648795898437,0.732144583080835,0.64578100000017,
-0.194169754638672,0.0723048901367187,0.450301448242188,0.4956826454932,0.648785999999745,
-0.0146046301269533,0.366791694335938,0.1103248125,0.383302760892918,0.651731999999356,
0.337343013916016,0.531991608886719,-0.368515519531249,0.729807556208626,0.654727000000094,
0.318189400634766,0.323696064453125,0.112719014160158,0.467684950551106,0.657679999999345,
0.390015450439453,-0.0330399829101563,0.21327548388672,0.445746703946656,0.660626999999295,
0.236786544189453,-0.135990654296875,-0.299083671386718,0.404984404706446,0.663645999999972,
0.0620098229980467,0.0196324536132812,-0.145854765136718,0.159700544445578,0.666650000000118,
0.121864864501953,0.194409174804688,0.165391450683595,0.282843250595702,0.669677999999294,
0.17453730102539,0.426646735839844,0.0217393510742188,0.461479475206806,0.672617999999602,
0.351708223876953,0.249475812988281,-0.0764229169921862,0.437923872665603,0.675537000000077,
0.337343013916016,0.0986411083984375,0.0576523759765628,0.356165935709405,0.678551999999399,
0.186508309326172,0.0339976635742187,0.000191536132813752,0.18958171658233,0.68149799999992,
0.0859518395996092,0.0699106884765625,-0.0548751020507812,0.123638585882028,0.684500999999727,
0.186508309326172,0.117794721679687,-0.0405098920898439,0.224281067547916,0.687456999999995,
0.296641585693359,0.2375048046875,0.0911711992187509,0.390790161313336,0.690385999999307,
0.279882174072265,0.306936652832031,0.0648349809570323,0.420413742604648,0.693385999999919,
0.287064779052734,0.151313544921875,-0.0189620771484371,0.32505620532333,0.696317999999337,
0.191296712646484,0.10342951171875,-0.0309330854492185,0.219656440695781,0.699365999999827,
0.152989486083984,0.0770932934570313,0.052863972656251,0.17928680473837,0.70240399999966,
0.179325704345703,0.14173673828125,-0.0429040937499998,0.232567780395735,0.705407999999807,
0.224815535888672,0.21835119140625,-0.0500866987304676,0.317376661642214,0.708529999999882,
0.239180745849609,0.249475812988281,0.0121625444335951,0.345822986422879,0.711486999999579,
0.243969149169922,0.122583125,-0.00220266552734216,0.27304289043461,0.71448700000019,
0.198479317626953,0.129765729980469,-0.021356278808593,0.238095096227485,0.717421999999715,
0.19369091430664,0.045968671875,-0.0548751020507812,0.206495922245398,0.720358999999917,
0.15538368774414,0.203985981445313,-0.0165678754882812,0.256960824915727,0.72339699999975,
0.265516964111328,0.156101948242188,-0.0883939252929675,0.320438079048982,0.726341999999931,
0.200873519287109,0.158496149902344,-0.00459686718749985,0.255914695694863,0.729349999999613,
0.224815535888672,0.144130939941406,-0.00459686718749985,0.267089655758592,0.732283999999709,
0.198479317626953,0.156101948242188,-0.0740287153320303,0.263138952769023,0.735232999999425,
0.167354696044922,0.105823713378906,0.014556746093751,0.198540050011143,0.738252000000102,
0.227209737548828,0.0435744702148437,-0.0285388837890626,0.233103983619837,0.741195999999945,
0.227209737548828,0.151313544921875,0.0432871660156255,0.276394342300084,0.744257999999718,
0.203267720947266,0.158496149902344,-0.0524809003906235,0.263045701007966,0.747188999999707,
0.181719906005859,0.232716401367187,0.0169509477539069,0.295747159468739,0.750207000000046,
0.258334359130859,0.0699106884765625,-0.0476924970703116,0.271843189628912,0.753133999999591,
0.208056124267578,0.108217915039063,0.0456813676757815,0.23892520866032,0.756077999999434,
0.143412679443359,0.177649763183594,-0.0381156904296862,0.231472332777035,0.759078999999474,
0.203267720947266,0.206380183105469,0.0361045610351578,0.291914517770671,0.762029999999868,
0.263122762451172,0.136948334960938,-0.0189620771484371,0.297233906104758,0.765004999999292,
0.236786544189453,0.0962469067382813,0.0169509477539069,0.256161412386071,0.767968999999539,
0.222421334228516,0.113006318359375,0.014556746093751,0.249907136284603,0.770897999999761,
0.215238729248047,0.153707746582031,-0.0165678754882812,0.265006181863433,0.773912999999993,
0.152989486083984,0.151313544921875,-0.0524809003906235,0.221485477255003,0.776858999999604,
0.255940157470703,0.18004396484375,-0.00220266552734216,0.312931374614645,0.779883000000154,
0.260728560791015,0.153707746582031,-0.00459686718749985,0.302698835411403,0.782828999999765,
0.215238729248047,0.127371528320313,-0.021356278808593,0.251012564306085,0.785750999999436,
0.208056124267578,0.182438166503906,-0.0452982954101557,0.280397879823687,0.788774999999987,
0.25115175415039,0.175255561523438,-0.0524809003906235,0.310718458356635,0.791720000000169,
0.239180745849609,0.0411802685546875,0.00258573779296967,0.24271367852543,0.794734000000062,
0.196085115966797,0.124977326660156,0.088776997558595,0.248897690182835,0.797698999999739,
0.265516964111328,-0.0474051928710938,0.0289219560546883,0.271261847822489,0.800642000000153,
0.220027132568359,0.211168586425781,-0.186556193359374,0.357501502430489,0.803653999999369,
0.0691924279785154,0.570298835449219,-0.0141736738281235,0.574655763770001,0.806602999999996,
0.291853182373047,0.273417829589844,0.237217500488281,0.464981432034445,0.809621999999763,
0.28945898071289,-0.00909796630859376,-0.136277958496093,0.320063988099506,0.81257800000003,
0.303824190673828,-0.0952892260742188,-0.0836055219726557,0.32920974886651,0.815537999999833,
0.200873519287109,0.045968671875,-0.0548751020507812,0.213247664394768,0.818545999999515,
0.100317049560547,0.27581203125,0.0935654008789069,0.308042645191238,0.821517999999742,
0.160172091064453,0.397916315917969,0.0265277543945324,0.429762975351419,0.824521999999888,
0.229603939208984,0.25665841796875,-0.0333272871093744,0.345980086826648,0.827445999999327,
0.279882174072265,0.153707746582031,-0.00938527050781168,0.319449817694812,0.830377999999655,
0.246363350830078,-0.0162805712890625,-0.0261446821289049,0.248281094804546,0.833401999999296,
0.236786544189453,0.00766144531249999,-0.0285388837890626,0.238623203275343,0.836342999999943,
0.133835872802734,0.182438166503906,0.0672291826171882,0.236041285459879,0.83944799999972,
0.215238729248047,0.254264216308594,0.0121625444335951,0.333355560551248,0.842466000000059,
0.303824190673828,0.136948334960938,-0.0572693037109371,0.338147539447968,0.845558999999412,
0.282276375732422,0.105823713378906,-0.0165678754882812,0.3019157251753,0.848570999999538,
0.184114107666015,0.158496149902344,-0.0165678754882812,0.243502625599221,0.851498999999421,
0.186508309326172,0.148919343261719,0.0073741411132815,0.238781695702093,0.854518000000098,
0.181719906005859,0.105823713378906,-0.00699106884765577,0.210403558895072,0.857442999999876,
0.27030536743164,0.18004396484375,0.000191536132813752,0.324778166792508,0.860482999999476,
0.25115175415039,0.156101948242188,-0.0261446821289049,0.296864558783035,0.863416000000143,
0.19369091430664,0.182438166503906,0.0073741411132815,0.266184584150563,0.866347999999562,
0.215238729248047,0.0962469067382813,0.0217393510742188,0.236777906507616,0.869369999999435,
0.203267720947266,0.0818816967773438,0.0073741411132815,0.219264125208368,0.872292000000016,
0.205661922607422,0.132159931640625,-0.0452982954101557,0.24862624461006,0.875315999999657,
0.210450325927734,0.203985981445313,0.014556746093751,0.293447642972533,0.878278000000137,
0.205661922607422,0.201591779785156,-0.00938527050781168,0.288139125059463,0.881233000000066,
0.241574947509765,0.165678754882813,0.0576523759765628,0.298549328486279,0.884258000000045,
0.25115175415039,0.0794874951171875,0.0169509477539069,0.263974999048355,0.88719299999957,
0.210450325927734,0.129765729980469,0.0600465776367187,0.254428921010046,0.890193000000181,
0.148201082763672,0.165678754882813,0.014556746093751,0.222766491215985,0.893150999999307,
0.217632930908203,0.148919343261719,-0.0405098920898439,0.266799765311604,0.896055999999589,
0.241574947509765,0.215956989746094,-0.0165678754882812,0.324453958494477,0.89906400000018,
0.203267720947266,0.271023627929688,0.0241335527343765,0.339638045046264,0.902019999999538,
0.222421334228516,0.108217915039063,-0.0141736738281235,0.247756453165565,0.905017999999473,
0.220027132568359,0.06512228515625,-0.0572693037109371,0.236500791199019,0.907951999999568,
0.253545955810547,0.074699091796875,-0.00459686718749985,0.264360808765409,0.910898999999517,
0.222421334228516,0.170467158203125,-0.0333272871093744,0.282207388301428,0.913931000000048,
0.229603939208984,0.285388837890625,0.000191536132813752,0.366285127160433,0.916892000000189,
0.231998140869141,0.182438166503906,-0.00220266552734216,0.295146868015688,0.919898000000103,
0.229603939208984,0.117794721679687,0.0169509477539069,0.258613418030917,0.922859999999673,
0.277487972412109,0.0124498486328125,0.000191536132813752,0.277767187137814,0.925795000000107,
0.222421334228516,0.139342536621094,0.0193451494140628,0.263176418468385,0.928804999999556,
0.157777889404297,0.194409174804688,0.0384987626953137,0.253319845969841,0.931759000000056,
0.169748897705078,0.278206232910156,0.0337103593750001,0.327642769844446,0.934782999999697,
0.212844527587891,0.194409174804688,0.00497993945312558,0.288309763916016,0.937728999999308,
0.258334359130859,0.0818816967773438,0.0217393510742188,0.271871022287806,0.940713999999389,
0.227209737548828,0.0818816967773438,-0.0405098920898439,0.244887583313803,0.943643999999949,
0.198479317626953,0.14173673828125,0.0648349809570323,0.252362670099932,0.946578999999474,
0.162566292724609,0.225533796386719,0.0193451494140628,0.278688944252695,0.949593999999706,
0.196085115966797,0.192014973144531,-0.021356278808593,0.275272979531151,0.952535999999782,
0.198479317626953,0.170467158203125,0.0815943925781255,0.274063380355171,0.955543999999463,
0.234392342529297,0.151313544921875,0.014556746093751,0.279369751351204,0.958483999999771,
0.246363350830078,0.120188923339844,-0.0452982954101557,0.277834867309488,0.961398999999801,
0.19369091430664,0.156101948242188,-0.0285388837890626,0.250396598255397,0.964415999999801,
0.210450325927734,0.215956989746094,-0.0548751020507812,0.30649312868051,0.96735499999977,
0.205661922607422,0.163284553222656,0.0241335527343765,0.263706465789685,0.970370999999432,
0.212844527587891,0.132159931640625,0.0217393510742188,0.251478905358869,0.973297999999886,
0.212844527587891,0.120188923339844,-0.0165678754882812,0.244995234067723,0.976257999999689,
0.236786544189453,0.113006318359375,-0.0285388837890626,0.26391809977008,0.979357999999593,
0.208056124267578,0.182438166503906,0.00497993945312558,0.276759526014028,0.982402999999977,
0.205661922607422,0.151313544921875,0.000191536132813752,0.255328517744289,0.985498999999436,
0.229603939208984,0.163284553222656,0.00976834277343741,0.28191352351731,0.988459999999577,
0.229603939208984,0.206380183105469,0.0337103593750001,0.310559394010423,0.991374999999607,
0.229603939208984,0.139342536621094,-0.00459686718749985,0.268617651319163,0.994361000000026,
0.222421334228516,0.156101948242188,-0.0405098920898439,0.274736454665431,0.997330999999576,
0.200873519287109,0.139342536621094,-0.0237504804687489,0.245622878790405,1.00035099999968,
0.212844527587891,0.134554133300781,-0.0117794721679676,0.252084040901031,1.0032940000001,
0.169748897705078,0.127371528320313,-0.0309330854492185,0.214464566476959,1.00622299999941,
0.243969149169922,0.1608903515625,0.052863972656251,0.296986953547797,1.00925800000005,
0.243969149169922,0.120188923339844,0.0169509477539069,0.272495243389755,1.01220599999942,
