X,Y,Z,Magnitude,Seconds,
-0.0195366855468749,0.0153707746582031,-0.0166636435546863,0.029926907830051,0.0,
-0.0434787021484374,0.0584664045410156,0.0120667763671882,0.0738534027134969,0.00385099999948579,
-0.0698149204101561,0.0417069929199219,0.0168551796875018,0.0830523536848705,0.0078109999994922,
-0.0554497104492186,0.0704374128417968,-0.0549708701171863,0.105156531314933,0.0117910000008123,
-0.0458729038085936,0.0153707746582031,0.00248996972656279,0.0484436163665032,0.0157089999993332,
-0.0482671054687498,0.0273417829589844,-0.00229843359374904,0.0555208912274695,0.0196560000003956,
-0.0578439121093749,0.0704374128417968,0.0072783730468764,0.0914347964954935,0.0237440000000788,
-0.0698149204101561,0.0776200178222656,-0.0142694418945304,0.105368910265726,0.027726000000257,
-0.0698149204101561,0.0680432111816406,-0.0238462485351558,0.100362569063303,0.0316370000000461,
-0.0985453403320311,0.0536780012207031,-0.0837012900390608,0.139994349423141,0.0356620000002295,
-0.0602381137695311,0.123109849365234,-0.0525766684570304,0.146795679184648,0.0395540000008623,
-0.0458729038085936,0.0967736311035157,0.00967257470703231,0.10753147298468,0.0434690000001865,
-0.0291134921874999,0.0919852277832032,0.0120667763671882,0.0972341742885449,0.0474730000005366,
-0.0698149204101561,0.0895910261230469,0.033614591308595,0.118450900471464,0.0513929999997345,
-0.0171424838867186,0.0393127912597656,-0.00708683691406087,0.0434693405504018,0.0552989999996498,
-0.0841801303710936,0.130292454345703,9.57680664068761e-05,0.155120685855382,0.0592390000001615,
-0.0458729038085936,0.0967736311035157,-0.0453940634765608,0.116318871984325,0.063270000000557,
-0.0746033237304686,0.0943794294433594,-0.0214520468749981,0.12220197596117,0.0671560000009777,
0.0067995327148439,0.0895910261230469,-0.0286346518554677,0.0943012666606581,0.0710099999996601,
0.00919373437500015,0.0752258161621093,0.0072783730468764,0.0761342425142788,0.0748320000002423,
-0.00517147558593739,0.00818816967773439,-0.0166636435546863,0.019273486942558,0.0786759999991773,
-0.0650265170898436,0.0345243879394531,0.0192493813476577,0.0760980943893941,0.0825810000005731,
-0.0219308872070311,0.0608606062011718,0.0192493813476577,0.0674945618781928,0.0864849999998114,
-0.0722091220703124,0.0704374128417968,-0.0238462485351558,0.103654377655801,0.0904140000002371,
-0.0315076938476561,0.0584664045410156,0.0216435830078137,0.0698534173606949,0.0944610000005923,
-0.00756567724609364,0.0800142194824218,-0.00469263525390495,0.0805079848039896,0.0983579999992799,
-0.0458729038085936,0.0991678327636719,0.0192493813476577,0.11094647827283,0.102358000000095,
-0.0434787021484374,0.135080857666016,0.0384029946289068,0.147010290948514,0.106283000000985,
-0.0769975253906249,0.125504051025391,0.0431913979492204,0.153445047482386,0.110208000000057,
-0.0817859287109374,0.0776200178222656,0.0072783730468764,0.112990176635179,0.114180000000488,
-0.1057279453125,0.0608606062011718,0.0168551796875018,0.123152380770633,0.118101000000024,
-0.122487356933594,0.130292454345703,-0.040605660156249,0.183379649647199,0.122069999999439,
-0.141640970214844,0.154234470947266,-0.0286346518554677,0.211353684043286,0.126001000000542,
-0.127275760253906,0.173388084228516,-0.0238462485351558,0.216405153519608,0.129944000000251,
-0.0865743320312499,0.132686656005859,-0.0166636435546863,0.159306436358334,0.133893000000171,
-0.0530555087890624,0.0656490095214843,0.0168551796875018,0.0860742501931687,0.137871999999334,
-0.0674207187499999,0.106350437744141,-0.0286346518554677,0.129135247752195,0.141838999999891,
-0.0410845004882811,0.0919852277832032,-0.0645476767578117,0.119647903807506,0.145716999999422,
-0.0386902988281249,0.137475059326172,-0.0214520468749981,0.144417871038425,0.149600000000646,
-0.0530555087890624,0.132686656005859,-0.0262404501953117,0.145290044123251,0.153551999999763,
-0.0674207187499999,0.142263462646484,-0.078912886718749,0.176101362320739,0.157499000000826,
-0.0602381137695311,0.0967736311035157,-0.0166636435546863,0.115201749309583,0.161469000000579,
-0.0171424838867186,0.0584664045410156,-0.0142694418945304,0.0625763708259074,0.165485999999873,
-0.0195366855468749,0.00818816967773439,0.0120667763671882,0.0243789929390976,0.169506000000183,
-0.0195366855468749,0.0560722028808593,0.0072783730468764,0.0598226439759997,0.173416999999972,
-0.0339018955078124,0.0129765729980469,0.0144609780273441,0.0390749261202577,0.177453000000241,
-0.0171424838867186,0.0608606062011718,0.0575566079101577,0.0855022880109308,0.181368999999904,
-0.108122146972656,0.0656490095214843,0.0216435830078137,0.128330182741804,0.185278999999355,
-0.0913627353515624,0.149446067626953,0.0216435830078137,0.176492836187466,0.189249999999447,
-0.0698149204101561,0.111138841064453,-0.0645476767578117,0.146261299323701,0.193239000000176,
-0.0530555087890624,0.0512837995605468,0.0288261879882832,0.0792203523355486,0.197163999999248,
-0.00756567724609364,0.0225533796386719,0.0647392128906255,0.0689714440258854,0.20107199999984,
-0.0195366855468749,0.0321301862792969,0.0360087929687509,0.0520640386789783,0.205141000000367,
-0.0722091220703124,0.0632548078613281,0.00248996972656279,0.0960287872305904,0.209118000000672,
-0.0793917270507811,0.0895910261230469,0.0168551796875018,0.120887118288857,0.213157000000137,
-0.0578439121093749,0.0991678327636719,0.0192493813476577,0.116407542304733,0.217053000000305,
-0.0267192905273436,0.111138841064453,0.0479798012695323,0.123967027105187,0.220914999999877,
-0.0530555087890624,0.0177649763183594,-0.040605660156249,0.0691324889844343,0.224786999999196,
-0.0985453403320311,0.0632548078613281,-0.0238462485351558,0.119503131289225,0.228752000000895,
-0.0841801303710936,0.0632548078613281,0.0407971962890645,0.112924205960973,0.232620999999199,
-0.0626323154296874,0.0800142194824218,-0.0549708701171863,0.115528692613158,0.236446999999316,
-0.00277727392578114,0.159022874267578,-0.0286346518554677,0.161604242140065,0.240526999999929,
0.0403183559570314,0.132686656005859,0.0288261879882832,0.141641334443837,0.24451500000032,
0.0451067592773439,0.115927244384766,0.0240377846679696,0.126694754488468,0.248596999999791,
0.0355299526367189,0.118321446044922,0.0791044228515645,0.146696461590619,0.252571000000898,
-0.00995987890624989,0.108744639404297,0.0312203896484391,0.113575122790152,0.256559999999808,
0.0738371791992189,0.142263462646484,0.0575566079101577,0.170304389110759,0.260491000000911,
0.14326902734375,0.103956236083984,0.129382657714844,0.219255069118435,0.264494000000923,
0.148057430664063,0.0608606062011718,0.177266690917969,0.238848269558364,0.268642999999429,
0.157634237304688,0.0919852277832032,0.160507279296876,0.243048187831639,0.272657999999865,
0.140874825683594,0.0800142194824218,0.194026102539064,0.252772863055478,0.276708999999755,
0.0786255825195314,-0.0205422502441406,0.107834842773439,0.135027106862292,0.280845999999656,
-0.110516348632812,-0.0157538469238281,0.0455855996093764,0.120582311720149,0.284691999999268,
-0.199101810058594,0.0728316145019531,0.0240377846679696,0.213363047248846,0.288662000000841,
-0.254168448242187,0.118321446044922,-0.0334230551757795,0.28234494026507,0.292523000000074,
-0.292475674804687,0.211695310791016,-0.0621534750976558,0.366360450144495,0.296361000000616,
-0.330782901367187,0.199724302490234,-0.0573650717773422,0.390637781457612,0.300230000000738,
-0.294869876464844,0.271550352294922,0.0264319863281255,0.401729371317481,0.30415499999981,
-0.249380044921875,0.367318418701172,-0.00948103857421678,0.444075576467353,0.30796299999929,
-0.402608951171875,0.290703965576172,0.0575566079101577,0.499915519142538,0.311927000000651,
-0.481617605957031,0.302674973876953,0.0216435830078137,0.569241691080873,0.315486999999848,
-0.62287550390625,0.269156150634766,0.134171061035158,0.69167969495301,0.318548999999621,
-0.586962479003906,0.206906907470703,0.0384029946289068,0.623546477910002,0.321570000000065,
-0.694701553710937,0.0824084211425782,-0.00229843359374904,0.699576071203545,0.324705000000904,
-0.673153738769531,0.0584664045410156,0.0312203896484391,0.676408892024013,0.327773999999408,
-0.709066763671875,-0.0492726701660157,-0.0382114584960931,0.711803053470406,0.330917999999656,
-0.618087100585937,-0.166588551513672,-0.0190578452148422,0.640426897366426,0.333928000000014,
-0.560626260742187,-0.283904432861328,0.033614591308595,0.629311903574788,0.336907000000792,
-0.455281387695312,-0.406008717529297,-0.0477882651367167,0.611888828935723,0.340030999999726,
-0.390637942871094,-0.449104347412109,-0.0573650717773422,0.597982833144093,0.343080000000555,
-0.287687271484375,-0.590362245361328,-0.0190578452148422,0.657004374708743,0.346163000000161,
-0.297264078125,-0.571208632080078,-0.0286346518554677,0.644565882430325,0.349142000000938,
-0.263745254882812,-0.549660817138672,0.071921817871095,0.6138903169595,0.352130999999645,
-0.151217776855469,-0.410797120849609,0.143747867675783,0.460743464410265,0.355251000000862,
-0.187130801757812,-0.195318971435547,0.0862870278320322,0.283924089751552,0.358213999999862,
-0.00995987890624989,0.00579396801757814,0.0575566079101577,0.0586986572873648,0.361329999999725,
0.684358602539063,0.367318418701172,-0.136373726562498,0.78858563953631,0.364417000000685,
1.74738413964844,0.209301109130859,-0.426072127441405,1.81071691425268,0.367420000000493,
2.85111110498047,1.4494975690918,-0.861816829589843,3.31249241259663,0.370570000000953,
3.13123269921875,1.30345126782227,-0.572118428710937,3.43961086762949,0.373579000000973,
2.54225909082031,1.19092378979492,-0.0549708701171863,2.80791783257977,0.376718999999866,
2.08017817041016,1.15740496655273,0.15811307763672,2.38573410558923,0.379758999999467,
1.64203926660156,1.03530068188477,0.371197025390627,1.97634199637393,0.382856000000174,
1.24939019433594,0.841370347412109,0.330495597167969,1.54211129914626,0.385910999999396,
0.921384566894531,0.530124131591797,0.332889798828127,1.1139105588741,0.388919000000897,
0.432967428222656,0.300280772216797,0.27303475732422,0.593445292147434,0.392008000000715,
-0.115304751953125,-0.00617704028320315,0.462176688476564,0.476382863903389,0.394992999999886,
-0.689913150390625,-0.238414601318359,0.46457089013672,0.865244352287915,0.398038999999699,
-1.25015633886719,-0.496988380615234,0.397533243652346,1.40282607684813,0.401017000000138,
-1.72181406591797,-0.77471577319336,0.220362320800783,1.90089130653393,0.404000000000451,
-2.0210892734375,-0.978222914306641,-0.119614314941405,2.24856165261653,0.407054999999673,
-2.24135582617188,-1.07638518237305,-0.375793892578123,2.51465744188863,0.410009999999602,
-2.28445145605469,-1.11948081225586,-0.737318343261718,2.6486966763655,0.413027000000511,
-2.28684565771484,-1.12666341723633,-0.924066072753906,2.71162896148472,0.415978000000905,
-2.15277036474609,-1.07638518237305,-1.15151523046875,2.66814779016508,0.418906000000788,
-1.80561112402344,-0.906396864501953,-1.00546892919922,2.25671322386367,0.421964999999545,
-1.27170415380859,-0.755562159912109,-0.651127083496092,1.61619061721296,0.424898999999641,
-0.850324661621094,-0.494594178955078,-0.260872212890623,1.01770808362503,0.428006000000096,
-0.323600296386719,-0.269539222900391,0.105440641113283,0.434150058507077,0.431010000000242,
0.0905965908203126,0.00579396801757814,0.359226017089846,0.370519424170833,0.434051000000181,
0.456909444824219,0.214089512451172,0.409504251953127,0.649841744179955,0.437153999999282,
0.780126668945313,0.367318418701172,0.328101395507813,0.922589272672847,0.440187000000151,
0.94772078515625,0.520547324951172,0.31134198388672,1.12520133090106,0.443266000000222,
0.978845406738282,0.582796568115234,0.239515934082032,1.16411256018424,0.446312000000034,
0.954903390136719,0.580402366455078,0.198814505859376,1.135004228724,0.449329999999463,
0.674781795898438,0.537306736572266,0.241910135742188,0.895851279519465,0.452467000000979,
0.375506588378906,0.340982200439453,0.215573917480469,0.551131720036484,0.455512000000454,
0.0379241542968751,0.216483714111328,0.229939127441407,0.318080873808979,0.458706999999777,
-0.237409036621094,0.0441011945800781,0.0814986245117204,0.254852882718733,0.461734000000433,
-0.46964659765625,-0.104339308349609,-0.0813070883789049,0.487919522644484,0.464744000000792,
-0.62287550390625,-0.168982753173828,-0.189046163085937,0.672508376166562,0.467818000000989,
-0.649211722167969,-0.236020399658203,-0.224959187988279,0.726490279023377,0.470906000000468,
-0.632452310546875,-0.271933424560547,-0.16749834814453,0.708519166388922,0.474001000000499,
-0.522319034179688,-0.255174012939453,-0.112431709960937,0.592091073865133,0.47701699999925,
-0.306840884765625,-0.233626197998047,-0.145950533203123,0.412351897166789,0.480072000000291,
-0.132064163574219,-0.164194349853516,-0.0190578452148422,0.211574878680361,0.483120999999301,
0.0714429775390626,-0.0803972917480469,0.0264319863281255,0.11075411261582,0.486171000000468,
0.157634237304688,-0.0229364519042969,-0.0142694418945304,0.159932018584679,0.489245000000665,
0.217489278808594,0.0895910261230469,0.0647392128906255,0.243965784576773,0.492245999999795,
0.18157625390625,0.101562034423828,0.103046439453125,0.232170953185149,0.495307999999568,
0.138480624023438,0.132686656005859,0.0695276162109391,0.204001767952912,0.498364999999467,
-0.00277727392578114,0.149446067626953,0.0743160195312509,0.166927263017723,0.501350000000457,
-0.122487356933594,0.159022874267578,0.0240377846679696,0.202161426193632,0.504525000000285,
-0.280504666503906,0.0441011945800781,-0.0238462485351558,0.284949867280295,0.507548999999926,
-0.290081473144531,0.00579396801757814,-0.0621534750976558,0.296721899417291,0.510683000000427,
-0.297264078125,-0.0588494768066407,-0.0860954916992185,0.315026390568872,0.513660000000527,
-0.237409036621094,-0.0851856950683594,-0.00708683691406087,0.252328905540134,0.516630000000077,
-0.165582986816406,-0.0588494768066407,-0.0669418784179676,0.188048402092609,0.519698000000062,
-0.141640970214844,-0.0899740983886719,-0.0501824667968744,0.175145033609509,0.522666999999274,
-0.0386902988281249,-0.0444842668457031,0.00248996972656279,0.0590083821965026,0.525775000000067,
0.0427125576171876,-0.0325132585449219,-0.00948103857421678,0.0545102252046008,0.528784000000087,
0.00919373437500015,0.0249475812988281,0.0264319863281255,0.0374907517351935,0.531802999999854,
-0.0291134921874999,0.0273417829589844,0.0168551796875018,0.0433504971716104,0.534893000000011,
-0.0674207187499999,0.0177649763183594,0.0288261879882832,0.0754459860714558,0.537915000000794,
-0.144035171875,0.0225533796386719,0.0216435830078137,0.14738802650013,0.54102100000091,
-0.179948196777344,0.0249475812988281,-0.0765186850585931,0.19712646828667,0.544015999999829,
-0.220649625,0.0369185895996094,-0.0429998618164049,0.227811824510702,0.547060000000783,
-0.215861221679687,-0.0301190568847656,-0.0166636435546863,0.218588429769722,0.550149000000602,
-0.136852566894531,0.00100556469726559,0.00488417138672048,0.136943387412892,0.553168000000369,
-0.108122146972656,0.0153707746582031,0.033614591308595,0.114265480913589,0.556243999999424,
-0.0578439121093749,0.0129765729980469,0.0384029946289068,0.0706335586768681,0.55926399999953,
-0.0626323154296874,-0.0229364519042969,-0.0597592734374981,0.0895547794582715,0.562234999999419,
-0.0315076938476561,0.0249475812988281,0.00488417138672048,0.0404842156203393,0.565319999999701,
-0.0339018955078124,-0.0205422502441406,-0.0118752402343745,0.0413804772173984,0.568273999999292,
-0.0722091220703124,-0.0085712419433594,0.0431913979492204,0.0845761216622328,0.57139400000051,
-0.0889685336914061,0.0321301862792969,-0.0190578452148422,0.0964932656809482,0.574441999999181,
-0.134458365234375,0.0273417829589844,0.00248996972656279,0.137232740357817,0.577529000000141,
-0.120093155273437,-0.0109654436035156,0.0814986245117204,0.145549416674387,0.580556000000797,
-0.148823575195312,0.00339976635742184,0.00967257470703231,0.14917631731164,0.583568000000014,
-0.136852566894531,0.00339976635742184,0.0120667763671882,0.137425581930014,0.586671999999453,
-0.148823575195312,0.0249475812988281,0.0072783730468764,0.15107552105085,0.589715000000069,
-0.0722091220703124,-0.0133596452636719,0.0360087929687509,0.0817879612339297,0.592821000000185,
-0.0769975253906249,0.00100556469726559,-0.0118752402343745,0.0779143851112515,0.595869999999195,
-0.110516348632812,-0.00617704028320315,0.00967257470703231,0.11111065584926,0.598923999999897,
-0.112910550292969,0.00818816967773439,-0.0142694418945304,0.114102828457991,0.602037000000564,
-0.132064163574219,0.0249475812988281,-0.0525766684570304,0.144317813104482,0.605069999999614,
-0.129669961914062,0.00100556469726559,-0.0429998618164049,0.136617342601094,0.608185999999478,
-0.0913627353515624,0.0488895979003906,0.0527682045898441,0.116283384924146,0.611311000000569,
-0.120093155273437,-0.0420900651855469,0.0264319863281255,0.129971494690581,0.614300999999614,
-0.0554497104492186,0.00579396801757814,-0.040605660156249,0.0689714440258843,0.617395999999644,
-0.0793917270507811,-0.0037828386230469,-0.00948103857421678,0.080045276466507,0.620387999999366,
-0.139246768554687,-0.00138863696289065,-0.0501824667968744,0.148019832587923,0.623494999999821,
-0.110516348632812,0.00579396801757814,0.00488417138672048,0.110775848047546,0.626527000000351,
-0.0865743320312499,0.0153707746582031,0.0144609780273441,0.0891094583406143,0.629503000000113,
-0.12488155859375,-0.0444842668457031,0.0192493813476577,0.133958173904661,0.632562000000689,
-0.139246768554687,0.0153707746582031,0.033614591308595,0.144068955765494,0.635576000000583,
-0.100939541992187,-0.0253306535644531,0.00488417138672048,0.104183915638307,0.638645999999426,
-0.129669961914062,0.00339976635742184,0.0431913979492204,0.136716327813789,0.641720999999961,
-0.0961511386718749,0.0512837995605468,-0.00708683691406087,0.109202989074068,0.644722999999431,
-0.12488155859375,0.00100556469726559,0.0360087929687509,0.12997325881977,0.647854000000734,
-0.0961511386718749,-0.00617704028320315,0.0240377846679696,0.0993026303090814,0.65083500000037,
-0.153611978515625,0.00339976635742184,-0.0860954916992185,0.176126749943613,0.653941000000486,
-0.112910550292969,-0.0301190568847656,-0.0549708701171863,0.129142349818057,0.656908999999359,
-0.0961511386718749,0.00579396801757814,-0.0214520468749981,0.098685367955001,0.659907999999632,
-0.0889685336914061,-0.0109654436035156,-0.00948103857421678,0.0901417274799331,0.662985000000845,
-0.0746033237304686,-0.0420900651855469,-0.0286346518554677,0.0903170680759762,0.665946000000986,
-0.132064163574219,-0.00138863696289065,-0.0118752402343745,0.132604271966618,0.668992000000799,
-0.0913627353515624,0.0249475812988281,0.0312203896484391,0.0997208300877085,0.672012000000905,
-0.0961511386718749,0.0201591779785156,-0.00948103857421678,0.0986981459659368,0.675038999999742,
-0.0769975253906249,-0.0109654436035156,0.0407971962890645,0.0878252303996424,0.678031999999803,
-0.0985453403320311,-0.0157538469238281,9.57680664068761e-05,0.0997966781289728,0.681055999999444,
-0.120093155273437,-0.00617704028320315,0.0527682045898441,0.131320239056384,0.684133000000656,
-0.108122146972656,0.0129765729980469,-0.0310288535156236,0.11323241524954,0.687100999999529,
-0.0889685336914061,0.0201591779785156,-0.00708683691406087,0.0914987196709048,0.69012500000099,
-0.134458365234375,-0.0109654436035156,0.0407971962890645,0.140938653888743,0.693123000000924,
-0.0722091220703124,0.0105823713378906,0.0384029946289068,0.0824677748564015,0.69611199999963,
-0.112910550292969,-0.00617704028320315,-0.040605660156249,0.120148940198597,0.699157999999443,
-0.129669961914062,0.00339976635742184,0.00967257470703231,0.130074656007781,0.702172999999675,
-0.110516348632812,0.00818816967773439,-0.00708683691406087,0.111045633391175,0.705328000000009,
-0.153611978515625,0.00100556469726559,0.0551624062500018,0.163219306968065,0.708323999999266,
-0.100939541992187,-0.0181480485839844,0.0479798012695323,0.113226340287333,0.711289000000761,
-0.127275760253906,-0.00138863696289065,0.00248996972656279,0.127307687945637,0.714368000000832,
-0.129669961914062,0.0105823713378906,0.0216435830078137,0.131889083291012,0.717330999999831,
-0.0722091220703124,-0.0181480485839844,0.0479798012695323,0.0885752240044345,0.720441999999821,
-0.0746033237304686,-0.0396958635253906,0.0072783730468764,0.0848197630677488,0.723488999999972,
-0.134458365234375,0.0177649763183594,0.0647392128906255,0.150285767958214,0.726528999999573,
-0.122487356933594,0.00579396801757814,-0.0549708701171863,0.134381989996453,0.729643000000578,
-0.108122146972656,0.0249475812988281,-0.0190578452148422,0.112587663368911,0.732654999999795,
-0.110516348632812,-0.0229364519042969,0.0360087929687509,0.118476062190443,0.735753000000841,
-0.0937569370117186,-0.00617704028320315,0.0216435830078137,0.0964207641013895,0.738741999999547,
-0.110516348632812,-0.0037828386230469,0.0384029946289068,0.11705965649892,0.74178799999936,
-0.0650265170898436,0.0177649763183594,-0.0214520468749981,0.0707406009555666,0.744893000000957,
-0.0937569370117186,-0.0109654436035156,0.0168551796875018,0.0958890049668846,0.747880999999325,
-0.0769975253906249,0.00818816967773439,0.0168551796875018,0.0792449501309028,0.750985000000583,
-0.0841801303710936,0.0153707746582031,0.00248996972656279,0.0856081480475239,0.75402000000031,
-0.0913627353515624,-0.0205422502441406,-0.0142694418945304,0.0947246030764653,0.756981000000451,
-0.132064163574219,-0.0157538469238281,0.0168551796875018,0.134064253534473,0.7600450000009,
-0.0793917270507811,0.00100556469726559,0.0120667763671882,0.0803098037375379,0.763011000000915,
-0.12488155859375,-0.0157538469238281,-0.0166636435546863,0.126969541175123,0.76610299999993,
-0.0746033237304686,0.00100556469726559,-0.00708683691406087,0.0749459160290938,0.769061000000875,
-0.132064163574219,0.00579396801757814,-0.0214520468749981,0.133920512547831,0.772162999999637,
-0.117698953613281,-0.0612436784667969,0.0072783730468764,0.132878916868009,0.77519299999949,
-0.110516348632812,0.0177649763183594,0.0384029946289068,0.118339544088986,0.778226000000359,
-0.132064163574219,-0.0085712419433594,-0.0262404501953117,0.134918385387101,0.78130500000043,
-0.134458365234375,-0.00617704028320315,0.0120667763671882,0.135139982610834,0.784278999999515,
-0.134458365234375,-0.0229364519042969,-0.00229843359374904,0.136419997084165,0.787320999999793,
-0.115304751953125,-0.0373016618652344,-0.0549708701171863,0.13307289867708,0.790306999999302,
-0.108122146972656,-0.0277248552246094,0.0407971962890645,0.118842237812365,0.793336000000636,
-0.0937569370117186,0.0153707746582031,0.0479798012695323,0.106436296822449,0.796460999999908,
-0.110516348632812,-0.00138863696289065,-0.0286346518554677,0.114174142933625,0.799387999999453,
-0.0937569370117186,0.0177649763183594,-0.00469263525390495,0.0955404545050809,0.802476000000752,
-0.100939541992187,0.00579396801757814,-0.0765186850585931,0.126796965129602,0.805483000000095,
-0.120093155273437,-0.0277248552246094,-0.0118752402343745,0.123822675109931,0.808430000000953,
-0.110516348632812,-0.00138863696289065,-0.0142694418945304,0.111442400367748,0.81152099999963,
-0.0889685336914061,-0.0133596452636719,0.00488417138672048,0.0900984752307433,0.814519999999902,
-0.110516348632812,0.0153707746582031,-0.0621534750976558,0.12772305389176,0.817602000000988,
-0.0865743320312499,-0.0325132585449219,0.0192493813476577,0.0944603918588822,0.820557999999437,
-0.136852566894531,0.00100556469726559,0.00967257470703231,0.137197649132358,0.823549000000639,
-0.129669961914062,-0.0133596452636719,0.0216435830078137,0.132140924129437,0.826632000000245,
-0.156006180175781,0.0153707746582031,9.57680664068761e-05,0.156761596502951,0.829611999999543,
-0.122487356933594,-0.0253306535644531,0.0192493813476577,0.126551702085936,0.832705000000715,
-0.120093155273437,-0.0133596452636719,0.00488417138672048,0.120932630812515,0.83570200000031,
-0.117698953613281,-0.0085712419433594,-0.00708683691406087,0.118223234296645,0.83866499999931,
-0.127275760253906,-0.0229364519042969,0.0144609780273441,0.130131932513412,0.841765999999552,
-0.0458729038085936,0.0105823713378906,0.00967257470703231,0.0480610922517228,0.844779000000926,
-0.153611978515625,-0.0181480485839844,-0.0142694418945304,0.155337080514837,0.847794999999678,
-0.120093155273437,-0.0109654436035156,-0.0597592734374981,0.134587434995729,0.850800000000163,
-0.127275760253906,0.00579396801757814,-0.0310288535156236,0.13113153306544,0.853815000000395,
-0.1057279453125,-0.0085712419433594,0.0264319863281255,0.109318408832661,0.856965000000855,
-0.0865743320312499,-0.00138863696289065,-0.0238462485351558,0.0898091690668176,0.859952999999223,
-0.0985453403320311,0.0321301862792969,0.0192493813476577,0.105423297490477,0.863091999999597,
-0.110516348632812,0.00579396801757814,-0.0358172568359372,0.116319857581453,0.866104000000632,
-0.0793917270507811,-0.0181480485839844,0.0144609780273441,0.0827134685345725,0.869156999999177,
-0.100939541992187,-0.0133596452636719,0.0192493813476577,0.10362340440958,0.8722259999995,
-0.117698953613281,-0.0157538469238281,-0.0214520468749981,0.120670699383437,0.875217999999222,
-0.139246768554687,0.00100556469726559,0.0216435830078137,0.140922384306749,0.878330999999889,
-0.103333743652344,-0.00138863696289065,-0.00229843359374904,0.103368630090603,0.881294000000707,
-0.0937569370117186,-0.0253306535644531,0.0527682045898441,0.110528225641496,0.884375999999975,
-0.120093155273437,0.00579396801757814,-0.0238462485351558,0.122574791772693,0.887428,
-0.117698953613281,0.0105823713378906,-0.0238462485351558,0.120555687688283,0.890391999999338,
-0.115304751953125,-0.0109654436035156,0.0407971962890645,0.122799991862549,0.893453000000591,
-0.127275760253906,0.0273417829589844,-0.0669418784179676,0.146382742595266,0.896458999999595,
-0.0769975253906249,-0.0133596452636719,0.0264319863281255,0.0824969632113891,0.899497000000338,
-0.115304751953125,0.0129765729980469,-0.0118752402343745,0.11663875256693,0.902540999999474,
-0.0865743320312499,-0.00138863696289065,-0.00708683691406087,0.0868750052472994,0.905538999999408,
-0.115304751953125,0.00100556469726559,0.0407971962890645,0.122313565103714,0.908668000000034,
-0.120093155273437,-0.0612436784667969,-0.0621534750976558,0.148445978599588,0.911646000000474,
-0.127275760253906,-0.0133596452636719,-0.0286346518554677,0.131139401236489,0.914730000000418,
-0.120093155273437,-0.0349074602050781,0.0384029946289068,0.130826934222151,0.917711000000054,
-0.103333743652344,-0.0444842668457031,-0.0286346518554677,0.116088999741112,0.920661000000109,
-0.0985453403320311,0.00100556469726559,0.0240377846679696,0.101439688254942,0.923790000000736,
-0.1057279453125,-0.0229364519042969,-0.0501824667968744,0.119259210209445,0.926781000000119,
-0.1057279453125,0.0225533796386719,0.0599508095703136,0.123616960491937,0.929850000000442,
-0.0698149204101561,-0.0229364519042969,-0.00948103857421678,0.0740951687377817,0.932815000000119,
-0.0746033237304686,0.0105823713378906,-0.0166636435546863,0.0771707166694968,0.93579900000077,
-0.0985453403320311,0.0129765729980469,-0.0262404501953117,0.102801443445032,0.938834000000497,
-0.0961511386718749,-0.0085712419433594,0.0144609780273441,0.0976095668562106,0.941860999999335,
-0.0937569370117186,-0.0133596452636719,0.0575566079101577,0.110822409617884,0.944945999999618,
-0.0889685336914061,0.0249475812988281,0.0503740029296882,0.105239355618612,0.947926000000734,
-0.144035171875,0.0201591779785156,0.0503740029296882,0.153915767109775,0.950898000000961,
-0.0793917270507811,0.00579396801757814,0.0264319863281255,0.0838764942683268,0.953974000000017,
-0.108122146972656,-0.00138863696289065,0.0144609780273441,0.109093752635514,0.956960999999865,
-0.115304751953125,0.0345243879394531,0.0168551796875018,0.121536892620568,0.9600360000004,
-0.122487356933594,-0.0157538469238281,0.0072783730468764,0.123710593789241,0.963017000000036,
-0.132064163574219,0.0129765729980469,0.0168551796875018,0.133766332945288,0.966108000000531,
-0.136852566894531,0.0153707746582031,0.0695276162109391,0.154269164758195,0.969135999999708,
-0.108122146972656,-0.0373016618652344,-0.0669418784179676,0.132525573871653,0.972095000000991,
-0.103333743652344,0.0249475812988281,-0.0310288535156236,0.110738584695507,0.975179000000935,
-0.1057279453125,0.00100556469726559,-0.0477882651367167,0.116030719489024,0.978146999999808,
-0.103333743652344,-0.0205422502441406,0.0288261879882832,0.109228181968927,0.9812409999995,
-0.1057279453125,-0.0085712419433594,-0.00469263525390495,0.10617855449233,0.984241000000111,
-0.0985453403320311,-0.0253306535644531,-0.00948103857421678,0.102189609078438,0.98725899999954,
-0.0937569370117186,0.0201591779785156,-0.0238462485351558,0.0988200347287394,0.990358000000924,
-0.0482671054687498,-0.0109654436035156,0.0312203896484391,0.0585206557854034,0.993414000000485,
-0.0961511386718749,-0.0325132585449219,-0.00229843359374904,0.101525544795839,0.996472999999241,
-0.120093155273437,-0.0085712419433594,0.033614591308595,0.125003091485073,0.999513000000661,
-0.112910550292969,0.0201591779785156,9.57680664068761e-05,0.114696094073656,1.00252999999975,
-0.0841801303710936,-0.0277248552246094,-0.0956722983398421,0.130415300544636,1.00565199999983,
-0.100939541992187,-0.0325132585449219,-0.00229843359374904,0.10607160749129,1.00863200000094,
-0.100939541992187,-0.00138863696289065,0.0240377846679696,0.103771549771365,1.01167700000042,
-0.0985453403320311,0.0129765729980469,0.0455855996093764,0.109350914215089,1.0147479999996,
-0.0769975253906249,-0.0349074602050781,-0.0142694418945304,0.0857366121690752,1.01774699999987,
-0.132064163574219,-0.0229364519042969,-0.0310288535156236,0.137585660143091,1.02078000000074,
-0.0889685336914061,0.0177649763183594,-0.0717302817382794,0.115655642702999,1.02375799999936,
-0.115304751953125,0.0201591779785156,-0.0310288535156236,0.121096523609207,1.02684899999986,
-0.117698953613281,-0.0181480485839844,-0.00708683691406087,0.119300539003453,1.02979699999923,
-0.108122146972656,0.00818816967773439,-0.0190578452148422,0.110093806605462,1.03278099999989,
-0.139246768554687,-0.0540610734863282,0.0120667763671882,0.149859498568868,1.03592899999967,
-0.139246768554687,-0.00138863696289065,-0.0286346518554677,0.142167275251449,1.03889700000036,
