X,Y,Z,Magnitude,Seconds,
-0.00263362182617211,0.168072956542969,-0.00459686718749985,0.168156432743316,0.0,
-0.0193930334472658,0.187226569824219,0.0456813676757815,0.193692192788351,0.00375799999983428,
-0.0169988317871096,0.215956989746094,0.0313161577148442,0.218876868207542,0.00760300000001735,
-0.0313640417480471,0.172861359863281,0.0648349809570323,0.187265393504125,0.0113910000000033,
-0.0122104284667971,0.184832368164063,-0.0189620771484371,0.186203274015957,0.0151099999998223,
0.006943184814453,0.213562788085938,-0.0117794721679676,0.214000065969529,0.0188669999997728,
-0.0074220251464846,0.177649763183594,-0.0165678754882812,0.178574968331671,0.0225740000000769,
-0.0577002600097658,0.187226569824219,0.0552581743164069,0.203559756047506,0.026307000000088,
-0.0122104284667971,0.165678754882813,-0.0524809003906235,0.17422051913788,0.0300919999999678,
-0.0169988317871096,0.170467158203125,0.0121625444335951,0.171743820252942,0.0340099999998529,
0.0021547814941405,0.172861359863281,0.0432871660156255,0.178211872664912,0.0379689999999755,
-0.00981622680664085,0.163284553222656,-0.0189620771484371,0.164674721799143,0.041725999999926,
-0.00502782348632835,0.139342536621094,0.0265277543945324,0.141934292101053,0.0455069999998159,
-0.0313640417480471,0.18004396484375,0.000191536132813752,0.182755489869719,0.0493109999997614,
-0.00502782348632835,0.151313544921875,-0.0165678754882812,0.152300894232533,0.0530929999999898,
-0.0169988317871096,0.151313544921875,-0.00699106884765577,0.152425799005888,0.0570229999998446,
-0.00502782348632835,0.18004396484375,-0.00459686718749985,0.180172804478386,0.0607709999999315,
-0.0146046301269533,0.1608903515625,0.0408929643554696,0.166647037119859,0.0645429999999578,
0.00454898315429675,0.1608903515625,0.0720175859375001,0.176331877883462,0.0683220000000802,
-0.00502782348632835,0.213562788085938,0.0337103593750001,0.216265419781435,0.0720609999998487,
-0.0409408483886721,0.211168586425781,-0.0285388837890626,0.216985697334577,0.0757669999998143,
-0.0289698400878908,0.172861359863281,-0.00459686718749985,0.175332348859075,0.0795539999999164,
-0.0313640417480471,0.211168586425781,0.0073741411132815,0.213612389540014,0.0833179999999629,
-0.0146046301269533,0.18004396484375,0.0720175859375001,0.19446248271085,0.087050999999974,
-0.0169988317871096,0.18004396484375,0.014556746093751,0.181429568746723,0.0907670000001417,
-0.0385466467285158,0.165678754882813,0.00976834277343741,0.170384020125338,0.094485000000077,
-0.00502782348632835,0.201591779785156,-0.0189620771484371,0.20254403238738,0.0981870000000526,
-0.0505176550292971,0.182438166503906,0.0121625444335951,0.189693556965083,0.102006000000074,
0.016519991455078,0.163284553222656,-0.0429040937499998,0.169633477531138,0.105975999999828,
-0.00981622680664085,0.196803376464844,0.0624407792968764,0.206704567477073,0.109867000000122,
-0.0361524450683596,0.163284553222656,-0.0165678754882812,0.168057547000242,0.113620999999966,
-0.0122104284667971,0.1608903515625,0.052863972656251,0.169792224186647,0.117428000000018,
-0.0337582434082033,0.230322199707031,0.0361045610351578,0.235566283672843,0.121200000000044,
-0.0313640417480471,0.215956989746094,0.0576523759765628,0.225709815893573,0.125069000000167,
-0.0122104284667971,0.151313544921875,-0.0261446821289049,0.154040344857406,0.12896099999989,
0.035673604736328,0.163284553222656,0.0768059892578137,0.183939151302483,0.132775000000038,
-0.0169988317871096,0.156101948242188,0.0480755693359374,0.164219483905253,0.136516999999913,
0.006943184814453,0.151313544921875,0.014556746093751,0.152170613289918,0.140326000000186,
-0.0433350500488283,0.184832368164063,0.0337103593750001,0.19281420905385,0.144071000000167,
-0.0289698400878908,0.211168586425781,0.0073741411132815,0.213274005647522,0.147817999999916,
-0.00502782348632835,0.158496149902344,0.0193451494140628,0.159751504996755,0.151620000000094,
-0.0361524450683596,0.203985981445313,-0.00938527050781168,0.207377344985254,0.15537600000016,
-0.0217872351074221,0.151313544921875,0.0169509477539069,0.153810946035079,0.159130000000005,
-0.0337582434082033,0.187226569824219,0.0121625444335951,0.190634034037078,0.162870999999996,
-0.00502782348632835,0.192014973144531,0.0193451494140628,0.19305248956322,0.166589999999815,
-0.0433350500488283,0.175255561523438,0.0624407792968764,0.191026933511563,0.170321999999942,
-0.0217872351074221,0.213562788085938,0.0720175859375001,0.22642941671287,0.174132999999983,
-0.0648828649902345,0.184832368164063,0.0217393510742188,0.197092338449785,0.178257000000031,
-0.0169988317871096,0.182438166503906,0.0289219560546883,0.185496966070776,0.182052999999996,
-0.0289698400878908,0.184832368164063,0.0672291826171882,0.198801456109428,0.185879000000114,
-0.0529118566894533,0.158496149902344,0.00258573779296967,0.167114871127992,0.189664999999877,
-0.0146046301269533,0.1608903515625,0.000191536132813752,0.161551964188431,0.193471999999929,
-0.0361524450683596,0.148919343261719,0.0384987626953137,0.158006723942345,0.197299999999814,
-0.0169988317871096,0.187226569824219,0.0121625444335951,0.188389692439286,0.201145999999881,
-0.0193930334472658,0.172861359863281,-0.0237504804687489,0.175559747102136,0.204905999999937,
-0.0361524450683596,0.199197578125,0.00976834277343741,0.202687184932412,0.208717999999863,
-0.0146046301269533,0.144130939941406,-0.00220266552734216,0.144885730163338,0.212461000000076,
0.00933738647460924,0.213562788085938,-0.00699106884765577,0.213881103150437,0.216243999999733,
0.006943184814453,0.192014973144531,-0.0189620771484371,0.193073866944354,0.219972999999754,
-0.00981622680664085,0.158496149902344,0.0265277543945324,0.161000340359275,0.223810999999841,
-0.0241814367675783,0.172861359863281,0.0313161577148442,0.177331591522628,0.227550000000065,
-0.0289698400878908,0.165678754882813,-0.0333272871093744,0.171462560112427,0.23127199999999,
-0.00263362182617211,0.156101948242188,0.0337103593750001,0.159722079056471,0.235013999999865,
-0.0313640417480471,0.184832368164063,-0.0692403120117184,0.199852266045169,0.238738000000012,
0.0237025964355467,0.177649763183594,0.0863827958984373,0.198955369025831,0.242459999999937,
-0.0146046301269533,0.192014973144531,0.0648349809570323,0.203191092050166,0.246353999999883,
-0.0169988317871096,0.163284553222656,0.052863972656251,0.172468562956412,0.250375000000076,
-0.0074220251464846,0.1608903515625,0.0696233842773442,0.175465687020029,0.254121999999825,
0.0189141931152342,0.187226569824219,0.0337103593750001,0.191175112079306,0.257908000000043,
-0.0074220251464846,0.196803376464844,0.00258573779296967,0.196960253566988,0.261672999999973,
-0.0241814367675783,0.1608903515625,0.0480755693359374,0.169651724061454,0.265477999999803,
-0.0146046301269533,0.189620771484375,-0.0309330854492185,0.192681571445957,0.269261999999799,
0.0141257897949217,0.175255561523438,0.0504697709960951,0.182924157963414,0.273119999999835,
0.0021547814941405,0.165678754882813,0.052863972656251,0.17392151249287,0.276886999999988,
-0.0169988317871096,0.177649763183594,0.0456813676757815,0.184215053657521,0.280655999999908,
-0.0265756384277346,0.182438166503906,0.0361045610351578,0.187865612826537,0.284419000000071,
-0.0241814367675783,0.14173673828125,-0.109941740234374,0.181000638420185,0.288132000000132,
-0.0409408483886721,0.249475812988281,0.376081196777344,0.453157148131228,0.291896000000179,
0.0332794030761717,0.254264216308594,0.364110188476563,0.445347100267384,0.295638999999937,
-0.000239420166015747,-0.0354341845703125,-0.45710098095703,0.458472404349551,0.299489999999878,
-0.119949503173828,0.438617744140625,-0.0524809003906235,0.457741907293258,0.303249999999935,
0.129047469482422,-0.097683427734375,1.11110110644531,1.12282722187243,0.306208999999853,
-0.0169988317871096,0.27581203125,-0.698915348632811,0.751560976514149,0.309114000000136,
-0.153468326416016,0.230322199707031,-0.193738798339844,0.337839554926573,0.312109999999848,
-0.00502782348632835,0.170467158203125,0.457484053222657,0.488237636799838,0.31504700000005,
0.0596156213378904,0.14173673828125,0.0552581743164069,0.163391527059676,0.318050999999741,
-0.0433350500488283,0.203985981445313,-0.136277958496093,0.249118223261175,0.321014999999989,
-0.119949503173828,0.227927998046875,-0.00459686718749985,0.257604710347548,0.324023000000125,
0.0284909997558592,0.074699091796875,0.198910273925781,0.21437581126516,0.327134000000115,
-0.0409408483886721,0.196803376464844,0.00497993945312558,0.20107839727754,0.330175999999938,
-0.0361524450683596,0.239899006347656,-0.097970731933593,0.261642498166138,0.33319500000016,
0.0380678063964842,0.115400520019531,0.0720175859375001,0.141254984297488,0.336138000000119,
-0.0146046301269533,0.168072956542969,0.0384987626953137,0.173043256647897,0.339038999999957,
-0.0672770666503908,0.215956989746094,0.0265277543945324,0.227744038056965,0.342023000000154,
-0.00981622680664085,0.144130939941406,0.0480755693359374,0.152254216769478,0.34498799999983,
-0.00981622680664085,0.175255561523438,0.052863972656251,0.18331794718089,0.347987000000103,
-0.103190091552735,0.201591779785156,0.0241335527343765,0.227749575277741,0.350922000000082,
0.00454898315429675,0.1608903515625,0.00497993945312558,0.161031668533241,0.353877000000011,
-0.0146046301269533,0.184832368164063,0.0624407792968764,0.195640360001411,0.35685199999989,
-0.0169988317871096,0.187226569824219,-0.0357214887695303,0.191360323709439,0.359793000000082,
0.035673604736328,0.156101948242188,0.0552581743164069,0.169392709845119,0.362842999999884,
-0.0744596716308595,0.192014973144531,0.014556746093751,0.206460387163999,0.365795000000162,
0.00933738647460924,0.208774384765625,-0.0117794721679676,0.209314802355202,0.368817000000035,
-0.0529118566894533,0.165678754882813,0.0193451494140628,0.174995283375572,0.371759999999995,
-0.0241814367675783,0.165678754882813,0.0408929643554696,0.172355522793559,0.37469800000008,
-0.0193930334472658,0.208774384765625,0.0480755693359374,0.215114141440135,0.377705999999762,
-0.0385466467285158,0.168072956542969,0.119901619140625,0.210025619788756,0.380653000000166,
-0.00502782348632835,0.14173673828125,-0.0261446821289049,0.144215555302605,0.383613999999852,
-0.0146046301269533,0.175255561523438,0.0241335527343765,0.177511226218579,0.386586999999963,
-0.0289698400878908,0.168072956542969,0.0073741411132815,0.170710715284575,0.389490999999907,
-0.0313640417480471,0.177649763183594,0.00258573779296967,0.180415707503239,0.392514000000119,
0.0021547814941405,0.199197578125,-0.0381156904296862,0.202822888429991,0.395473999999922,
0.006943184814453,0.163284553222656,-0.0429040937499998,0.168969862392673,0.398491999999806,
-0.0361524450683596,0.172861359863281,0.0480755693359374,0.183028165551584,0.401436000000103,
-0.0193930334472658,0.146525141601563,-0.0381156904296862,0.152638503414363,0.404351000000133,
-0.00981622680664085,0.168072956542969,0.0384987626953137,0.172705042656212,0.407358999999815,
-0.0241814367675783,0.170467158203125,0.0576523759765628,0.181569794750494,0.410311999999976,
-0.00981622680664085,0.215956989746094,-0.0189620771484371,0.217009999996998,0.413296000000173,
-0.0193930334472658,0.192014973144531,-0.00220266552734216,0.193004381798464,0.416221999999834,
-0.0217872351074221,0.165678754882813,0.00497993945312558,0.167179344507932,0.41913999999997,
-0.0768538732910158,0.168072956542969,0.0744117875976578,0.199228890210243,0.422145999999884,
-0.00981622680664085,0.175255561523438,0.0480755693359374,0.181994863995085,0.425067000000126,
-0.0074220251464846,0.168072956542969,0.0384987626953137,0.172585514767143,0.428076000000146,
0.00933738647460924,0.151313544921875,0.0456813676757815,0.158334339344725,0.43101200000001,
-0.0217872351074221,0.1608903515625,0.0911711992187509,0.186205736771229,0.43391100000008,
-0.0600944616699221,0.168072956542969,0.0289219560546883,0.180821300146088,0.436910999999782,
-0.000239420166015747,0.189620771484375,-0.00699106884765577,0.189749754529428,0.439828000000034,
-0.00502782348632835,0.18004396484375,0.00497993945312558,0.180182984997541,0.442826999999852,
-0.0169988317871096,0.189620771484375,-0.0381156904296862,0.19415922104651,0.445748999999978,
-0.00263362182617211,0.187226569824219,0.0265277543945324,0.189114902018014,0.448664999999892,
-0.0193930334472658,0.184832368164063,0.0456813676757815,0.191378894918307,0.451656000000185,
-0.0313640417480471,0.156101948242188,-0.0117794721679676,0.159656748445957,0.454560000000129,
-0.0313640417480471,0.170467158203125,-0.0452982954101557,0.179149911268993,0.457547999999861,
-0.0337582434082033,0.168072956542969,0.0121625444335951,0.171860598178295,0.460552000000007,
-0.0409408483886721,0.192014973144531,0.000191536132813752,0.196331198907788,0.463634000000184,
-0.0122104284667971,0.177649763183594,-0.00938527050781168,0.178316057114985,0.466656999999941,
-0.0361524450683596,0.146525141601563,0.00258573779296967,0.150941387451264,0.469657000000097,
-0.0217872351074221,0.146525141601563,-0.0309330854492185,0.151331280673867,0.472633999999744,
-0.0505176550292971,0.177649763183594,-0.00938527050781168,0.184931217298083,0.47555599999987,
-0.00981622680664085,0.211168586425781,0.0121625444335951,0.211746210565576,0.478534999999738,
-0.0289698400878908,0.187226569824219,-0.0261446821289049,0.191250057480991,0.481467000000066,
-0.0768538732910158,0.1608903515625,0.0384987626953137,0.182412657989533,0.484393000000182,
-0.0337582434082033,0.156101948242188,0.0456813676757815,0.166115094424751,0.487387000000126,
-0.0169988317871096,0.132159931640625,0.00976834277343741,0.133606243618779,0.490308999999797,
-0.00981622680664085,0.170467158203125,0.0576523759765628,0.18021988455859,0.493336999999883,
-0.0265756384277346,0.182438166503906,0.0720175859375001,0.19793049749701,0.496285000000171,
-0.0433350500488283,0.165678754882813,0.0384987626953137,0.175526439920952,0.499205000000075,
-0.00263362182617211,0.163284553222656,0.0265277543945324,0.165446375113698,0.50224500000013,
-0.0385466467285158,0.148919343261719,0.000191536132813752,0.153827343010288,0.505195000000185,
-0.00981622680664085,0.168072956542969,0.0552581743164069,0.177195775510017,0.508194000000003,
-0.0433350500488283,0.163284553222656,0.0073741411132815,0.16909804801066,0.511128999999983,
-0.00502782348632835,0.165678754882813,0.014556746093751,0.166392991695464,0.514039000000139,
-0.0337582434082033,0.139342536621094,0.0241335527343765,0.145390473819956,0.517022999999881,
-0.0122104284667971,0.194409174804688,0.0241335527343765,0.196281558428614,0.519971000000169,
-0.0409408483886721,0.182438166503906,0.0073741411132815,0.187120858327579,0.522965999999997,
-0.0265756384277346,0.158496149902344,-0.0405098920898439,0.165735769973892,0.52588199999991,
-0.0193930334472658,0.194409174804688,-0.0237504804687489,0.196812353060022,0.528778999999759,
0.006943184814453,0.227927998046875,-0.0165678754882812,0.228634806202422,0.531794999999875,
-0.0529118566894533,0.189620771484375,-0.0117794721679676,0.19721677799115,0.534713999999894,
-0.0265756384277346,0.144130939941406,0.0289219560546883,0.149386987211953,0.537694000000101,
-0.0074220251464846,0.175255561523438,0.00258573779296967,0.175431708485394,0.540629999999965,
-0.0146046301269533,0.175255561523438,0.0313161577148442,0.178629529473885,0.543542999999772,
-0.0193930334472658,0.153707746582031,0.0600465776367187,0.166155808178635,0.546534000000065,
-0.0217872351074221,0.172861359863281,0.0408929643554696,0.178963593731202,0.549465999999939,
-0.0577002600097658,0.156101948242188,0.0576523759765628,0.176127609152978,0.552462000000105,
-0.0217872351074221,0.220745393066406,0.0073741411132815,0.221940510341909,0.555387999999766,
-0.0337582434082033,0.194409174804688,0.0504697709960951,0.203670675431308,0.558392999999796,
-0.0169988317871096,0.18004396484375,0.0121625444335951,0.181253184926178,0.561327999999776,
-0.0074220251464846,0.144130939941406,-0.00699106884765577,0.144491139345293,0.564218999999866,
-0.00263362182617211,0.196803376464844,0.000191536132813752,0.196821090429802,0.567230000000109,
-0.0241814367675783,0.196803376464844,-0.0165678754882812,0.198974383703789,0.570153000000118,
-0.0313640417480471,0.182438166503906,0.0480755693359374,0.191255452416538,0.573146000000179,
-0.0146046301269533,0.177649763183594,-0.021356278808593,0.179523882046045,0.576064999999744,
0.026096798095703,0.18004396484375,0.0384987626953137,0.185954367726535,0.57898299999988,
-0.00502782348632835,0.21835119140625,-0.0141736738281235,0.218868487515505,0.581979000000047,
-0.00502782348632835,0.230322199707031,0.189333467285158,0.298195835854754,0.58490699999993,
-0.0433350500488283,0.203985981445313,-0.00459686718749985,0.208588921989835,0.587897999999768,
-0.0337582434082033,0.0914585034179687,-0.0644519086914048,0.116868838359193,0.590815999999904,
-0.0672770666503908,0.223139594726563,-0.109941740234374,0.257691033366662,0.593714000000091,
0.016519991455078,0.132159931640625,0.313831953613281,0.340924702474988,0.596729999999752,
-0.0146046301269533,0.201591779785156,-0.100364933593749,0.225667146021236,0.599755000000187,
-0.0361524450683596,0.192014973144531,-0.124306950195312,0.231579288933565,0.602851999999984,
0.006943184814453,0.182438166503906,0.1103248125,0.213315392472824,0.605911999999989,
0.0213083947753905,0.1608903515625,-0.059663505371093,0.17291468065776,0.608865000000151,
-0.00263362182617211,0.158496149902344,0.00258573779296967,0.15853911674323,0.611884999999802,
-0.0433350500488283,0.196803376464844,0.0576523759765628,0.209602700379648,0.614815999999792,
0.0021547814941405,0.175255561523438,0.0792001909179696,0.192332589983148,0.617839000000004,
-0.0553060583496096,0.184832368164063,0.0073741411132815,0.193070304211871,0.620798999999806,
-0.0217872351074221,0.213562788085938,0.0313161577148442,0.216943425350219,0.623716000000059,
-0.0074220251464846,0.146525141601563,0.0504697709960951,0.155151220952435,0.626725000000079,
-0.00502782348632835,0.232716401367187,0.0720175859375001,0.243657003097733,0.629689999999755,
0.006943184814453,0.18004396484375,0.0289219560546883,0.182484291472046,0.632689999999911,
-0.0624886633300783,0.206380183105469,0.000191536132813752,0.215633136854049,0.635639999999967,
-0.0169988317871096,0.206380183105469,0.0648349809570323,0.216991509088425,0.638578000000052,
0.0021547814941405,0.163284553222656,0.0792001909179696,0.181491483673072,0.641624999999749,
-0.000239420166015747,0.196803376464844,-0.0261446821289049,0.198532543210428,0.644550999999865,
-0.00263362182617211,0.156101948242188,0.0217393510742188,0.157630433590909,0.647564999999759,
0.0308852014160155,0.175255561523438,0.0265277543945324,0.1799225646344,0.650529000000006,
0.0213083947753905,0.148919343261719,0.0361045610351578,0.154707975918978,0.65353499999992,
0.0021547814941405,0.18004396484375,0.0480755693359374,0.186364515739771,0.656473000000005,
-0.0241814367675783,0.194409174804688,0.00258573779296967,0.19592436084448,0.659395000000131,
-0.0289698400878908,0.18004396484375,0.0432871660156255,0.187426944842623,0.662400000000162,
-0.0217872351074221,0.194409174804688,0.0193451494140628,0.19658037966114,0.665351999999984,
-0.0481234533691408,0.170467158203125,0.00258573779296967,0.177148538887441,0.668349999999919,
0.0021547814941405,0.184832368164063,-0.00220266552734216,0.184858051325465,0.671311999999944,
-0.00502782348632835,0.165678754882813,0.00497993945312558,0.165829818264043,0.67422600000009,
0.006943184814453,0.18004396484375,-0.0261446821289049,0.182064772802557,0.677239999999983,
-0.0313640417480471,0.175255561523438,0.0744117875976578,0.192964579892652,0.680174000000079,
-0.0265756384277346,0.129765729980469,-0.00938527050781168,0.132791161368935,0.683164000000033,
-0.0361524450683596,0.170467158203125,0.0480755693359374,0.1807686689591,0.686107999999876,
-0.00981622680664085,0.172861359863281,0.0576523759765628,0.182486176183965,0.689029000000119,
-0.00502782348632835,0.175255561523438,0.0504697709960951,0.182447221514342,0.692023999999947,
-0.0217872351074221,0.148919343261719,0.0768059892578137,0.168969862392674,0.694987999999739,
-0.0672770666503908,0.203985981445313,-0.0237504804687489,0.216103145848886,0.697971999999936,
-0.0433350500488283,0.168072956542969,-0.00220266552734216,0.173583688805298,0.700909000000138,
-0.0457292517089846,0.168072956542969,0.0456813676757815,0.18007351425373,0.703832000000148,
-0.00263362182617211,0.165678754882813,0.0504697709960951,0.173215425317264,0.706853000000137,
-0.0074220251464846,0.192014973144531,0.0289219560546883,0.194322710744265,0.709786999999778,
-0.00263362182617211,0.189620771484375,-0.0548751020507812,0.197418970130371,0.712790999999925,
-0.0385466467285158,0.153707746582031,-0.0285388837890626,0.161016717210557,0.715717999999924,
-0.00981622680664085,0.196803376464844,0.0504697709960951,0.203408763530682,0.718648999999914,
0.00454898315429675,0.170467158203125,0.0289219560546883,0.172963073560852,0.72166500000003,
-0.0169988317871096,0.223139594726563,0.0552581743164069,0.230507494120351,0.72459200000003,
-0.00263362182617211,0.156101948242188,0.00258573779296967,0.156145573900972,0.727593999999954,
-0.0337582434082033,0.168072956542969,0.000191536132813752,0.171429794391734,0.730529999999817,
-0.0481234533691408,0.230322199707031,0.0337103593750001,0.237698487103408,0.733451999999943,
-0.0361524450683596,0.187226569824219,0.0169509477539069,0.191436993191806,0.73651400000017,
-0.0433350500488283,0.144130939941406,0.00258573779296967,0.150526876175192,0.739557999999761,
-0.0409408483886721,0.199197578125,0.0408929643554696,0.207432067750932,0.742682000000059,
-0.0122104284667971,0.18004396484375,0.0121625444335951,0.180866943710285,0.745706000000155,
0.016519991455078,0.199197578125,0.0289219560546883,0.201963028276392,0.748720000000048,
-0.0361524450683596,0.148919343261719,0.0408929643554696,0.158607076184198,0.751648999999816,
-0.00502782348632835,0.196803376464844,0.0289219560546883,0.198980721525986,0.754578999999922,
-0.0337582434082033,0.146525141601563,0.0241335527343765,0.152288096996937,0.757599999999911,
-0.0409408483886721,0.146525141601563,0.0337103593750001,0.155827335590819,0.760573000000022,
-0.00263362182617211,0.14173673828125,0.0313161577148442,0.145178995300807,0.763551000000007,
-0.0433350500488283,0.18004396484375,-0.00220266552734216,0.185198832541723,0.76648699999987,
-0.0409408483886721,0.14173673828125,-0.0141736738281235,0.148210489086224,0.76939399999992,
0.0021547814941405,0.208774384765625,-0.0381156904296862,0.212236171927606,0.772452000000158,
-0.0313640417480471,0.201591779785156,-0.0189620771484371,0.204896337599049,0.775385999999799,
-0.0385466467285158,0.168072956542969,0.0815943925781255,0.19076689334185,0.77844099999993,
-0.0241814367675783,0.206380183105469,-0.0189620771484371,0.208655415056917,0.781375999999909,
-0.0313640417480471,0.194409174804688,0.00258573779296967,0.196939880173993,0.784317000000101,
-0.0313640417480471,0.175255561523438,0.0313161577148442,0.180773108325574,0.787330000000111,
-0.00263362182617211,0.194409174804688,0.0241335527343765,0.195919094474596,0.79028500000004,
-0.00502782348632835,0.189620771484375,0.00976834277343741,0.189938770417939,0.793287999999848,
0.00454898315429675,0.165678754882813,0.0217393510742188,0.167160828103911,0.796236000000135,
-0.00981622680664085,0.18004396484375,-0.021356278808593,0.181571688954879,0.799121000000014,
-0.000239420166015747,0.203985981445313,0.0480755693359374,0.209574803626767,0.802130000000034,
-0.0169988317871096,0.139342536621094,-0.00459686718749985,0.140450824070444,0.805027999999766,
-0.0313640417480471,0.146525141601563,0.0217393510742188,0.151413076123759,0.808058999999957,
-0.00502782348632835,0.182438166503906,0.0265277543945324,0.184425283948631,0.810983999999735,
0.00933738647460924,0.177649763183594,0.0121625444335951,0.178310270686975,0.813916000000063,
-0.0433350500488283,0.196803376464844,0.0432871660156255,0.206114711489408,0.816897000000154,
-0.0313640417480471,0.213562788085938,0.0432871660156255,0.220151189666276,0.819832000000133,
-0.00263362182617211,0.201591779785156,0.00976834277343741,0.201845490812675,0.822818999999981,
0.0021547814941405,0.206380183105469,0.0241335527343765,0.207797621327861,0.825770999999804,
-0.0169988317871096,0.194409174804688,0.0408929643554696,0.199389372997017,0.828665000000001,
-0.0289698400878908,0.168072956542969,0.052863972656251,0.178556349539336,0.831654000000071,
0.016519991455078,0.175255561523438,-0.00220266552734216,0.176046226025997,0.834601000000021,
-0.00263362182617211,0.18004396484375,0.0313161577148442,0.182766153799334,0.837605000000167,
-0.0289698400878908,0.18004396484375,0.0217393510742188,0.183650974123481,0.840532000000167,
-0.0241814367675783,0.199197578125,0.0289219560546883,0.202733560509944,0.843519000000015,
0.0213083947753905,0.194409174804688,0.0839885942382814,0.212845152395506,0.8464570000001,
-0.0217872351074221,0.163284553222656,-0.0405098920898439,0.169639559925978,0.849358999999822,
-0.0265756384277346,0.196803376464844,-0.00220266552734216,0.198601825976576,0.852347000000009,
-0.0193930334472658,0.165678754882813,0.0480755693359374,0.17359953897629,0.855282999999872,
-0.0265756384277346,0.175255561523438,-0.00459686718749985,0.177318661146188,0.858263999999963,
-0.0122104284667971,0.194409174804688,0.0911711992187509,0.215072567703479,0.861213000000134,
-0.0146046301269533,0.184832368164063,0.0480755693359374,0.191539969482234,0.864117999999962,
0.0117315881347655,0.172861359863281,0.000191536132813752,0.17325910244497,0.86713299999974,
-0.0361524450683596,0.18004396484375,0.0169509477539069,0.184418445907219,0.870046999999886,
-0.0433350500488283,0.172861359863281,0.0480755693359374,0.184581246781713,0.873054000000138,
0.00454898315429675,0.170467158203125,0.0121625444335951,0.170961027022788,0.876095999999961,
-0.0457292517089846,0.156101948242188,0.0744117875976578,0.178874528204407,0.879104999999981,
-0.0074220251464846,0.194409174804688,0.0337103593750001,0.197449745592913,0.882204999999885,
-0.0289698400878908,0.211168586425781,0.0552581743164069,0.220192845834198,0.885187999999744,
-0.0361524450683596,0.172861359863281,0.0337103593750001,0.179789981220855,0.888182000000143,
0.0189141931152342,0.168072956542969,0.0313161577148442,0.172008625238143,0.891129000000092,
-0.0122104284667971,0.156101948242188,0.0337103593750001,0.160166479444174,0.894017000000076,
0.0141257897949217,0.175255561523438,-0.0141736738281235,0.176394282254306,0.897058000000015,
0.0237025964355467,0.201591779785156,0.0241335527343765,0.204410095451072,0.899992000000111,
-0.00502782348632835,0.196803376464844,0.0217393510742188,0.198064250641303,0.902990000000045,
-0.0169988317871096,0.144130939941406,-0.00938527050781168,0.145433047939677,0.905906999999843,
-0.00263362182617211,0.18004396484375,0.00976834277343741,0.180327994945655,0.908835000000181,
-0.00263362182617211,0.144130939941406,0.0289219560546883,0.147027695875117,0.911846999999852,
-0.0122104284667971,0.175255561523438,-0.0429040937499998,0.180843489428696,0.91479100000015,
-0.000239420166015747,0.168072956542969,0.000191536132813752,0.168073236207317,0.917826999999761,
-0.0193930334472658,0.172861359863281,-0.0764229169921862,0.189993688636397,0.920759999999973,
0.0189141931152342,0.189620771484375,0.00497993945312558,0.190626817306712,0.923678000000109,
-0.0193930334472658,0.124977326660156,-0.00938527050781168,0.126820760240234,0.926656999999977,
-0.0169988317871096,0.163284553222656,-0.00459686718749985,0.164231351425933,0.929567000000134,
-0.0074220251464846,0.213562788085938,-0.0333272871093744,0.216274961515162,0.932553999999982,
0.006943184814453,0.163284553222656,0.000191536132813752,0.163432217823109,0.935488999999961,
-0.0122104284667971,0.136948334960938,0.0456813676757815,0.144881773748963,0.93845999999985,
-0.0265756384277346,0.172861359863281,0.0289219560546883,0.177267576938519,0.941404000000148,
-0.0337582434082033,0.187226569824219,0.00258573779296967,0.190263221580222,0.944321999999829,
-0.0265756384277346,0.151313544921875,-0.0285388837890626,0.156257868034194,0.947318999999879,
-0.0074220251464846,0.196803376464844,-0.00459686718749985,0.196996920364704,0.950256000000081,
-0.0289698400878908,0.189620771484375,0.0361045610351578,0.19518921061521,0.953238000000056,
-0.0217872351074221,0.127371528320313,0.0552581743164069,0.140540583708268,0.956166999999823,
0.0117315881347655,0.1608903515625,0.0289219560546883,0.163889642528434,0.959104999999909,
-0.0193930334472658,0.172861359863281,0.0432871660156255,0.179250992247558,0.962095999999747,
-0.0193930334472658,0.136948334960938,-0.0117794721679676,0.138815316732037,0.96499300000005,
0.006943184814453,0.172861359863281,0.088776997558595,0.194449512328186,0.968019999999797,
-0.0457292517089846,0.156101948242188,0.000191536132813752,0.162662286326488,0.970949000000019,
-0.0122104284667971,0.194409174804688,-0.0476924970703116,0.200545745625241,0.973852999999963,
0.0213083947753905,0.153707746582031,0.00976834277343741,0.155484853177952,0.97685999999976,
-0.0241814367675783,0.170467158203125,-0.0117794721679676,0.172576214683686,0.979770999999801,
-0.0409408483886721,0.14173673828125,-0.0141736738281235,0.148210489086224,0.982739999999922,
-0.0241814367675783,0.182438166503906,0.0432871660156255,0.189056090150822,0.985681999999997,
-0.0409408483886721,0.163284553222656,0.0337103593750001,0.171681061032073,0.988589999999931,
-0.0361524450683596,0.187226569824219,0.0217393510742188,0.191920262394808,0.991586000000098,
-0.0193930334472658,0.146525141601563,0.0504697709960951,0.156182280211434,0.994514999999865,
-0.0265756384277346,0.1608903515625,0.0241335527343765,0.164846589747345,0.997514000000137,
-0.0577002600097658,0.170467158203125,-0.0357214887695303,0.183478600362428,1.00043000000005,
-0.0409408483886721,0.208774384765625,0.0600465776367187,0.221062181946465,1.00335600000017,
-0.00981622680664085,0.14173673828125,0.0456813676757815,0.149239567943816,1.00634300000002,
0.006943184814453,0.196803376464844,0.0384987626953137,0.200653760324597,1.00930999999991,
