X,Y,Z,Magnitude,Seconds,
-0.390494290771485,0.306936652832031,-0.0764229169921862,0.502529961513192,0.0,
-0.404859500732422,0.290177241210938,-0.00699106884765577,0.498159534380031,0.00387700000010227,
-0.383311685791016,0.304542451171875,0.0193451494140628,0.489947127591924,0.00782099999923958,
-0.392888492431641,0.263841022949219,-0.0692403120117184,0.478296637750651,0.0116250000000946,
-0.373734879150391,0.292571442871094,0.0121625444335951,0.474788096485506,0.0154199999997218,
-0.390494290771485,0.266235224609375,-0.00938527050781168,0.472710343921554,0.0191549999999552,
-0.397676895751953,0.25665841796875,0.00258573779296967,0.473315056774096,0.0229499999995824,
-0.364158072509766,0.330878669433594,0.0361045610351578,0.493351127481953,0.0267659999999523,
-0.364158072509766,0.208774384765625,-0.00459686718749985,0.419784440750527,0.0305060000000594,
-0.435984122314453,0.266235224609375,0.0504697709960951,0.51333278437823,0.0343219999995199,
-0.402465299072266,0.338061274414063,0.00497993945312558,0.525631564893838,0.0381309999993391,
-0.335427652587891,0.321301862792969,0.0408929643554696,0.466281922970034,0.0418989999998303,
-0.392888492431641,0.290177241210938,-0.0237504804687489,0.489007447923336,0.0456369999992603,
-0.404859500732422,0.290177241210938,0.0408929643554696,0.499786235488608,0.0493879999994533,
-0.38091748413086,0.266235224609375,-0.0237504804687489,0.465342250243715,0.0531049999999595,
-0.354581265869141,0.292571442871094,-0.00699106884765577,0.45975515041451,0.0568239999993239,
-0.383311685791016,0.297359846191406,0.000191536132813752,0.485129635537778,0.0606689999995069,
-0.404859500732422,0.311725056152344,0.0073741411132815,0.511016735463377,0.0644029999994018,
-0.368946475830078,0.282994636230469,-0.0189620771484371,0.465367625144287,0.0680959999999686,
-0.356975467529297,0.299754047851563,-0.0524809003906235,0.469082315299743,0.0718149999993329,
-0.40007109741211,0.299754047851563,-0.0141736738281235,0.500110253061975,0.0757699999994657,
-0.345004459228516,0.321301862792969,-0.00699106884765577,0.47149956412008,0.07962199999929,
-0.395282694091797,0.321301862792969,-0.00220266552734216,0.509399790948255,0.0834580000000642,
-0.36176387084961,0.259052619628906,-0.00938527050781168,0.445049931233785,0.0872749999998632,
-0.378523282470703,0.297359846191406,0.0241335527343765,0.481959730544945,0.0910979999998744,
-0.376129080810547,0.3141192578125,0.0121625444335951,0.490195798683712,0.0949749999999767,
-0.313879837646485,0.299754047851563,-0.0500866987304676,0.436900124827285,0.0987809999996898,
-0.392888492431641,0.273417829589844,0.0073741411132815,0.478720226207319,0.102603999999701,
-0.368946475830078,0.271023627929688,0.0792001909179696,0.464594424380068,0.106421999999839,
-0.368946475830078,0.302148249511719,0.00497993945312558,0.476906559513902,0.110326999999415,
-0.404859500732422,0.292571442871094,0.0384987626953137,0.500990438278067,0.114101999999548,
-0.407253702392578,0.271023627929688,0.0289219560546883,0.490046798327121,0.117865999999594,
-0.402465299072266,0.304542451171875,-0.0165678754882812,0.504974173618114,0.121607999999469,
-0.385705887451172,0.304542451171875,0.0384987626953137,0.492947553913538,0.125357999999324,
-0.414436307373047,0.266235224609375,0.0600465776367187,0.496230026477332,0.129092000000128,
-0.32345664428711,0.302148249511719,0.0313161577148442,0.443732427427267,0.132918999999674,
-0.373734879150391,0.3141192578125,-0.0476924970703116,0.490533630140722,0.136657000000014,
-0.376129080810547,0.311725056152344,0.0169509477539069,0.488807662270473,0.140400999999656,
-0.392888492431641,0.268629426269531,-0.0141736738281235,0.47615546743988,0.144214999999349,
-0.392888492431641,0.261446821289062,-0.0452982954101557,0.474096765876364,0.148224999999911,
-0.359369669189453,0.254264216308594,0.0432871660156255,0.442346730032025,0.152008000000023,
-0.38091748413086,0.271023627929688,-0.00938527050781168,0.467589584908879,0.155898999999408,
-0.309091434326172,0.311725056152344,-0.00220266552734216,0.438993026302717,0.159701999999925,
-0.407253702392578,0.330878669433594,0.0768059892578137,0.530316350855298,0.163551999999981,
-0.40007109741211,0.249475812988281,0.0696233842773442,0.47659467043697,0.167386000000079,
-0.378523282470703,0.316513459472656,0.000191536132813752,0.493417350815549,0.171202999999878,
-0.376129080810547,0.309330854492188,0.00258573779296967,0.486996251538128,0.17498599999999,
-0.38091748413086,0.354820686035156,0.0839885942382814,0.527304402520181,0.17880199999945,
-0.412042105712891,0.318907661132813,0.0313161577148442,0.521978442987385,0.182692999999745,
-0.371340677490235,0.263841022949219,0.0313161577148442,0.456603422987408,0.186419999999998,
-0.424013114013672,0.345243879394531,-0.0381156904296862,0.548117927978906,0.190165999999408,
-0.359369669189453,0.29496564453125,0.0121625444335951,0.465079797533899,0.193907999999283,
-0.414436307373047,0.263841022949219,0.0432871660156255,0.493197036691788,0.197607999999491,
-0.407253702392578,0.29496564453125,0.0600465776367187,0.506424625242573,0.201355999999578,
-0.333033450927735,0.335667072753906,0.0073741411132815,0.472903839194789,0.205167000000074,
-0.388100089111328,0.268629426269531,-0.0165678754882812,0.472290103987278,0.208885000000009,
-0.402465299072266,0.278206232910156,-0.0237504804687489,0.489837840830907,0.212614000000031,
-0.36176387084961,0.340455476074219,0.0648349809570323,0.500985632724846,0.216534999999567,
-0.390494290771485,0.282994636230469,-0.0285388837890626,0.48310063459725,0.220413000000008,
-0.435984122314453,0.263841022949219,0.0073741411132815,0.509655391670051,0.224180999999589,
-0.390494290771485,0.278206232910156,0.0552581743164069,0.482636472910997,0.22795700000006,
-0.390494290771485,0.352426484375,0.0265277543945324,0.52668201010407,0.231842999999571,
-0.38091748413086,0.266235224609375,-0.0524809003906235,0.467689608014972,0.23562899999979,
-0.368946475830078,0.3141192578125,0.0193451494140628,0.484939836435369,0.239459999999781,
-0.397676895751953,0.323696064453125,0.0384987626953137,0.514206388803583,0.243224999999256,
-0.376129080810547,0.285388837890625,-0.0165678754882812,0.472434512628093,0.246962999999596,
-0.421618912353516,0.292571442871094,0.0648349809570323,0.51726601588886,0.250741999999263,
-0.407253702392578,0.287783039550781,0.0384987626953137,0.500156786112734,0.254575999999361,
-0.376129080810547,0.306936652832031,0.0744117875976578,0.491141841443586,0.258326999999554,
-0.426407315673828,0.282994636230469,-0.0309330854492185,0.512704611614508,0.262080999999853,
-0.390494290771485,0.27581203125,-0.00220266552734216,0.478082544591205,0.265821999999389,
-0.366552274169922,0.304542451171875,-0.0141736738281235,0.476767833745841,0.269555999999284,
-0.373734879150391,0.29496564453125,-0.0261446821289049,0.476829147337822,0.273268999999345,
-0.385705887451172,0.290177241210938,0.014556746093751,0.482891045462768,0.277091999999357,
-0.395282694091797,0.347638081054688,-0.0165678754882812,0.526664160681216,0.280825999999252,
-0.330639249267578,0.278206232910156,0.0480755693359374,0.434778428113979,0.284599999999955,
-0.407253702392578,0.3141192578125,0.0720175859375001,0.51933902118501,0.28859999999986,
-0.378523282470703,0.318907661132813,0.0792001909179696,0.501253071754218,0.292438999999831,
-0.395282694091797,0.292571442871094,0.0361045610351578,0.493102420151924,0.29624799999965,
-0.443166727294922,0.297359846191406,0.560434724609376,0.773890629776751,0.300043999999616,
0.0141257897949217,0.527203205566406,-3.47618927441406,3.51596851940517,0.304037999999309,
-1.53971108764648,1.98048361328125,2.70324521044922,3.68789374083822,0.30705399999988,
-0.0840364782714846,-2.52540391113281,8.28891768359375,8.66549960529907,0.309987999999976,
0.751539901123047,-1.28281324951172,-8.13769990673828,8.2723987952849,0.313022999999703,
-0.222900174560547,2.41862251708984,-6.65329487744141,7.08277855747172,0.315976999999293,
-1.08002436889648,2.11216470458984,6.00006089648438,6.45200923265352,0.318959999999606,
-0.866940421142578,0.247081611328125,4.39115738085938,4.48273333580564,0.321900999999343,
-0.158256729736328,-0.552581743164063,-4.46020615673828,4.49709136398085,0.324813999999606,
-0.392888492431641,-0.672291826171875,-2.82975482617187,2.93493612251881,0.327841999999691,
-0.234871182861328,-0.262883342285156,4.07512276171875,4.09034199636998,0.330805999999939,
-0.191775552978516,0.565510432128906,0.323408760253907,0.679097296251286,0.333819999999832,
-0.459926138916016,0.644519086914063,-2.66694911328125,2.78200547797562,0.33675299999959,
-0.555694205322266,1.40108681152344,0.929141780273438,1.77063399693538,0.339683999999579,
-0.230082779541016,0.0124498486328125,1.10152429980469,1.12536610364473,0.342681999999513,
-0.608366641845703,-0.325132585449219,-1.56801055126953,1.71303189051579,0.345657999999275,
-0.220505972900391,-0.0234631762695313,0.32819716357422,0.39608936227014,0.348684999999932,
-0.237265384521485,0.690008918457031,0.668173799316406,0.98937525557055,0.351633999999649,
-0.594001431884766,0.618182868652344,-0.564840055664062,1.02666062974041,0.354542999999467,
-0.392888492431641,0.302148249511719,0.103142207519532,0.50625413296111,0.357559999999467,
-0.32345664428711,0.0986411083984375,0.299466743652344,0.451701892350794,0.360502999999881,
-0.318668240966797,0.0316034619140625,-0.210498209960937,0.38322020171513,0.363526000000093,
-0.45753193725586,0.548751020507813,0.052863972656251,0.716420097235181,0.366477999999915,
-0.464714542236328,0.388339509277344,0.0648349809570323,0.609073686008013,0.369485999999597,
-0.167833536376953,0.263841022949219,-0.021356278808593,0.313426661227526,0.372391999999309,
-0.562876810302735,0.254264216308594,-0.0907881269531234,0.624278046440254,0.375352000000021,
-0.38091748413086,0.151313544921875,0.0241335527343765,0.410580499976546,0.378404000000046,
-0.335427652587891,0.3907337109375,0.0337103593750001,0.516062914103314,0.381362000000081,
-0.385705887451172,0.44819455078125,-0.0524809003906235,0.593634257662336,0.384360000000015,
-0.306697232666016,0.302148249511719,0.014556746093751,0.430776805393264,0.38732600000003,
-0.519781180419922,0.211168586425781,-0.00938527050781168,0.561117394770734,0.390237999999954,
-0.40007109741211,0.213562788085938,-0.0333272871093744,0.454727012069483,0.393248999999741,
-0.333033450927735,0.316513459472656,0.0313161577148442,0.460513573305072,0.396200000000135,
-0.359369669189453,0.419464130859375,0.00497993945312558,0.552378055327965,0.39922899999965,
-0.402465299072266,0.223139594726563,-0.021356278808593,0.460679591838637,0.40224599999965,
-0.459926138916016,0.273417829589844,0.0839885942382814,0.541611896802441,0.405288999999357,
-0.352187064208985,0.239899006347656,0.0768059892578137,0.432997022424644,0.40840500000013,
-0.34261025756836,0.405098920898438,-0.0165678754882812,0.530812037167896,0.411405999999261,
-0.388100089111328,0.311725056152344,0.0911711992187509,0.506069538075933,0.414425999999366,
-0.428801517333985,0.172861359863281,-0.0117794721679676,0.462483023435743,0.417378000000099,
-0.390494290771485,0.33327287109375,0.0456813676757815,0.515406039045844,0.420341000000008,
-0.328245047607422,0.393127912597656,0.052863972656251,0.51486791174746,0.423393000000033,
-0.38091748413086,0.29496564453125,0.0480755693359374,0.484163321139978,0.426346999999623,
-0.36176387084961,0.175255561523438,-0.00459686718749985,0.402005897077304,0.429358999999749,
-0.464714542236328,0.311725056152344,-0.0668461103515625,0.563560572492643,0.432299000000057,
-0.397676895751953,0.383551105957031,-0.00220266552734216,0.552506304064666,0.435228999999708,
-0.376129080810547,0.505655390625,0.127084224121095,0.642892572301134,0.438258000000133,
-0.371340677490235,0.1608903515625,-0.0500866987304676,0.407784601688842,0.441232999999556,
-0.402465299072266,0.199197578125,0.0121625444335951,0.449228137559629,0.4442939999999,
-0.412042105712891,0.366791694335938,0.0121625444335951,0.551781452570889,0.447258999999576,
-0.397676895751953,0.493684382324219,-0.0165678754882812,0.63414957010468,0.45017899999948,
-0.349792862548828,0.369185895996094,-0.0141736738281235,0.508777127554225,0.453196999999818,
-0.385705887451172,0.101035310058594,-0.00220266552734216,0.39872549106943,0.456150999999409,
-0.40007109741211,0.247081611328125,0.0337103593750001,0.471426127797584,0.459198999999899,
-0.392888492431641,0.309330854492188,-0.0452982954101557,0.502094493689325,0.462146999999277,
-0.347398660888672,0.383551105957031,-0.0309330854492185,0.518415023165333,0.465171999999257,
-0.330639249267578,0.352426484375,-0.021356278808593,0.483717717981986,0.468117999999777,
-0.36176387084961,0.0962469067382813,-0.0189620771484371,0.374828128184857,0.471055999999408,
-0.505415970458985,0.156101948242188,-0.0405098920898439,0.530522546926268,0.474068999999872,
-0.376129080810547,0.400310517578125,0.0289219560546883,0.550052793336315,0.477042999999867,
-0.36176387084961,0.419464130859375,-0.0237504804687489,0.554425234501642,0.480044999999336,
-0.330639249267578,0.290177241210938,0.00976834277343741,0.440023368690298,0.483014999999796,
-0.407253702392578,0.170467158203125,0.0432871660156255,0.443608395862811,0.48594999999932,
-0.517386978759766,0.309330854492188,0.00976834277343741,0.602884967345815,0.488978999999745,
-0.287543619384766,0.397916315917969,0.0337103593750001,0.492092588698318,0.491919999999482,
-0.364158072509766,0.354820686035156,0.0672291826171882,0.512863124047598,0.494942999999694,
-0.435984122314453,0.247081611328125,-0.00699106884765577,0.501178962657492,0.497892999999749,
-0.433589920654297,0.239899006347656,0.0241335527343765,0.496119119675079,0.500860999999531,
-0.404859500732422,0.292571442871094,0.000191536132813752,0.499509060181164,0.503885999999511,
-0.299514627685547,0.280600434570313,-0.0500866987304676,0.413466193863993,0.506841999999779,
-0.421618912353516,0.340455476074219,0.00976834277343741,0.542003559917851,0.509864999999991,
-0.388100089111328,0.290177241210938,0.000191536132813752,0.484586986175962,0.512829999999667,
-0.38091748413086,0.21835119140625,-0.00699106884765577,0.439117578273456,0.515758999999889,
-0.337821854248047,0.225533796386719,0.0313161577148442,0.407393912883116,0.518796999999722,
-0.32345664428711,0.405098920898438,0.0504697709960951,0.520842139453937,0.521761999999399,
-0.45753193725586,0.3907337109375,0.0169509477539069,0.60190999418671,0.524797000000035,
-0.385705887451172,0.235110603027344,0.0720175859375001,0.457419457341555,0.527751999999964,
-0.368946475830078,0.232716401367187,-0.0165678754882812,0.436523676323431,0.530684999999721,
-0.321062442626953,0.369185895996094,0.0265277543945324,0.489982693185424,0.533708999999362,
-0.41922471069336,0.369185895996094,0.0361045610351578,0.559777744453914,0.53667299999961,
-0.428801517333985,0.2375048046875,0.00258573779296967,0.49018971792308,0.539725999999973,
-0.373734879150391,0.201591779785156,0.0337103593750001,0.425973466192081,0.542805000000044,
-0.366552274169922,0.318907661132813,0.0241335527343765,0.486461811857751,0.545851999999286,
-0.38091748413086,0.342849677734375,-0.00459686718749985,0.512508694977059,0.548962999999276,
-0.412042105712891,0.299754047851563,-0.0357214887695303,0.510790770123758,0.551928999999291,
-0.409647904052735,0.215956989746094,0.0193451494140628,0.463490087834514,0.554952999999841,
-0.371340677490235,0.285388837890625,0.014556746093751,0.468564388753889,0.557901000000129,
-0.397676895751953,0.338061274414063,0.0624407792968764,0.525672131268694,0.560915000000023,
-0.409647904052735,0.3141192578125,0.0456813676757815,0.518236529758569,0.563904999999977,
-0.38091748413086,0.271023627929688,0.0600465776367187,0.471335897315954,0.566851999999926,
-0.354581265869141,0.261446821289062,0.0217393510742188,0.441083794593097,0.569861999999375,
-0.395282694091797,0.309330854492188,0.0313161577148442,0.502906241284951,0.572857999999542,
-0.412042105712891,0.338061274414063,0.0576523759765628,0.536085738100275,0.575866000000133,
-0.395282694091797,0.282994636230469,-0.0261446821289049,0.486844859053997,0.578840999999557,
-0.368946475830078,0.263841022949219,0.0073741411132815,0.453638584531214,0.581797999999253,
-0.347398660888672,0.287783039550781,0.0408929643554696,0.452964835251156,0.584863000000041,
-0.364158072509766,0.362003291015625,0.0863827958984373,0.520691340342244,0.587818999999399,
-0.383311685791016,0.335667072753906,-0.0524809003906235,0.512205502802281,0.590825999999652,
-0.366552274169922,0.285388837890625,0.0432871660156255,0.46656311173663,0.593785000000025,
-0.402465299072266,0.247081611328125,-0.0524809003906235,0.475165112902496,0.596701999999823,
-0.402465299072266,0.323696064453125,-0.0117794721679676,0.516619990964661,0.599701999999525,
-0.349792862548828,0.3141192578125,-0.00938527050781168,0.470227644998977,0.602632999999514,
-0.325850845947266,0.292571442871094,0.0169509477539069,0.438251249419757,0.605649000000085,
-0.378523282470703,0.27581203125,0.0193451494140628,0.468749812544495,0.60860700000012,
-0.402465299072266,0.58226984375,-0.126701151855467,0.71907556611213,0.611524999999347,
-0.349792862548828,0.531991608886719,-0.34217930126953,0.722811727100001,0.614539999999579,
-0.622731851806641,0.02681505859375,-0.0476924970703116,0.625130851021381,0.61748499999976,
-0.421618912353516,-0.411323845214844,1.32179085253906,1.44709393985063,0.620535000000018,
0.0404620080566405,-0.559764348144531,-0.0668461103515625,0.565191739163605,0.623506999999336,
-0.256418997802735,1.48009546630859,-1.72123945751953,2.28453464888225,0.626435000000129,
-0.66822168334961,1.83204311035156,0.728028840820313,2.08156867995062,0.629453999999896,
-0.737653531494141,-0.00191536132812501,1.00336203173828,1.24534002098574,0.632410999999593,
-0.239659586181641,-1.14634375488281,-0.811442826660155,1.42477373029748,0.635425999999825,
-0.206140762939453,-0.140779057617187,-0.53371543408203,0.589207027950459,0.638411999999335,
-0.127132108154297,0.996466730957031,0.773518672363283,1.26784843546956,0.64133799999945,
-0.589213028564453,0.943794294433594,0.0935654008789069,1.11654563161437,0.644349999999577,
-0.62991445678711,0.0914585034179687,-0.363727116210937,0.733112744251509,0.647291999999652,
-0.182198746337891,-0.305978972167969,0.134266829101563,0.380587829512524,0.650329000000056,
-0.22768857788086,0.268629426269531,0.0384987626953137,0.354240048391449,0.653268000000025,
-0.447955130615235,0.625365473632813,-0.100364933593749,0.775769872160412,0.656281999999919,
-0.424013114013672,0.512837995605469,0.129478425781251,0.677904560638883,0.659246999999596,
-0.500627567138672,0.0962469067382813,-0.0189620771484371,0.510148006372324,0.662196999999651,
-0.325850845947266,-0.0186747729492188,-0.0309330854492185,0.32784810007786,0.66523799999959,
-0.273178409423828,0.3141192578125,0.0504697709960951,0.419338227792801,0.66820800000005,
-0.433589920654297,0.551145222167969,0.107930610839844,0.709514123867764,0.671229999999923,
-0.440772525634766,0.421858332519531,-0.0333272871093744,0.611028297328921,0.674188999999387,
-0.414436307373047,0.0699106884765625,0.0169509477539069,0.420633203470707,0.677133999999569,
-0.313879837646485,0.113006318359375,-0.0189620771484371,0.334141498230775,0.680241000000024,
-0.38091748413086,0.421858332519531,-0.00220266552734216,0.568390212941926,0.683293000000049,
-0.390494290771485,0.443406147460938,-0.0237504804687489,0.591319615820219,0.686421999999766,
-0.447955130615235,0.261446821289062,-0.00220266552734216,0.51867435944154,0.689422999999806,
-0.390494290771485,0.168072956542969,0.0265277543945324,0.425955433818417,0.692374999999629,
-0.352187064208985,0.282994636230469,0.0408929643554696,0.453645155231638,0.695400999999947,
-0.364158072509766,0.402704719238281,0.0504697709960951,0.545279185789453,0.698362999999517,
-0.440772525634766,0.397916315917969,0.0121625444335951,0.593940856748615,0.70140899999933,
-0.416830509033203,0.203985981445313,-0.0429040937499998,0.466045829449847,0.704359999999724,
-0.333033450927735,0.223139594726563,0.052863972656251,0.404347817820959,0.707316999999421,
-0.352187064208985,0.369185895996094,0.0073741411132815,0.510282600091107,0.710347999999613,
-0.421618912353516,0.388339509277344,0.0073741411132815,0.573257760241489,0.713306999999986,
-0.376129080810547,0.268629426269531,0.0432871660156255,0.464229073659706,0.716335000000072,
-0.376129080810547,0.21835119140625,-0.021356278808593,0.435438191784398,0.719311999999263,
-0.378523282470703,0.268629426269531,-0.0452982954101557,0.466362069209492,0.722273999999743,
-0.364158072509766,0.340455476074219,0.0313161577148442,0.499501486180944,0.725337999999283,
-0.440772525634766,0.306936652832031,0.0289219560546883,0.537891260152283,0.728307999999743,
-0.373734879150391,0.220745393066406,0.0121625444335951,0.434228299331928,0.731353000000126,
-0.333033450927735,0.29496564453125,0.0337103593750001,0.446152887718732,0.734325999999783,
-0.36176387084961,0.311725056152344,0.0935654008789069,0.486621098111154,0.737269999999626,
-0.412042105712891,0.328484467773438,0.00258573779296967,0.526960556862319,0.740288999999393,
-0.359369669189453,0.254264216308594,0.0384987626953137,0.441903841980844,0.743249999999534,
-0.364158072509766,0.235110603027344,-0.021356278808593,0.4339863915775,0.746276999999282,
-0.371340677490235,0.273417829589844,-0.021356278808593,0.461635461095741,0.749229999999443,
-0.414436307373047,0.321301862792969,0.0241335527343765,0.524952158078069,0.752257999999529,
-0.412042105712891,0.338061274414063,-0.0668461103515625,0.537152235970313,0.755205999999816,
-0.335427652587891,0.242293208007813,-0.00459686718749985,0.413810149652325,0.758143000000018,
-0.459926138916016,0.278206232910156,-0.0716345136718743,0.542275082257391,0.761165999999321,
-0.321062442626953,0.33327287109375,0.0169509477539069,0.46307583968764,0.764138999999886,
-0.443166727294922,0.328484467773438,-0.0237504804687489,0.552143893448245,0.767154999999548,
-0.34261025756836,0.3907337109375,0.00976834277343741,0.519759600175492,0.770120000000134,
-0.383311685791016,0.359609089355469,-0.102759135253905,0.535542701835391,0.77305399999932,
-0.433589920654297,0.14173673828125,0.0337103593750001,0.45741218895084,0.77609399999983,
-0.388100089111328,0.211168586425781,0.00976834277343741,0.441938085688282,0.779078999999911,
-0.371340677490235,0.247081611328125,0.131872627441407,0.46511677166461,0.78211199999987,
-0.340216055908203,0.280600434570313,0.052863972656251,0.444160070451839,0.785076999999546,
-0.383311685791016,0.496078583984375,-0.145854765136718,0.643657845803949,0.788011999999981,
-0.450349332275391,0.539174213867188,-0.0476924970703116,0.704129198554492,0.791041999999834,
-0.421618912353516,0.25665841796875,0.124690022460939,0.509100827410144,0.793984999999338,
-0.373734879150391,-0.021068974609375,-0.00699106884765577,0.374393558475944,0.797024999999849,
-0.318668240966797,0.220745393066406,-0.0500866987304676,0.390879334003003,0.799979999999778,
-0.404859500732422,0.534385810546875,0.1103248125,0.679449022444147,0.802912999999535,
-0.407253702392578,0.40988732421875,0.0935654008789069,0.585335528487123,0.805927999999767,
-0.340216055908203,0.120188923339844,0.0289219560546883,0.361979034659956,0.808880999999928,
-0.335427652587891,0.136948334960938,0.0384987626953137,0.364346965540082,0.811901000000034,
-0.40007109741211,0.376368500976563,-0.0141736738281235,0.549464306885953,0.814857999999731,
-0.426407315673828,0.44819455078125,0.0169509477539069,0.618860960830397,0.817830999999387,
-0.354581265869141,0.292571442871094,0.014556746093751,0.459932410410349,0.82096300000012,
-0.366552274169922,0.177649763183594,-0.0333272871093744,0.408693914958859,0.824004000000059,
-0.333033450927735,0.268629426269531,-0.0141736738281235,0.428105058513117,0.827115000000049,
-0.397676895751953,0.381156904296875,0.014556746093751,0.551034842786665,0.830114999999751,
-0.368946475830078,0.362003291015625,0.0217393510742188,0.517339814936668,0.833048999999846,
-0.373734879150391,0.2375048046875,0.00258573779296967,0.442823868127203,0.836064999999508,
-0.385705887451172,0.282994636230469,0.0217393510742188,0.478881608683023,0.839019999999437,
-0.318668240966797,0.328484467773438,0.0576523759765628,0.461275719960431,0.842085999999654,
-0.500627567138672,0.3141192578125,-0.0644519086914048,0.594519064153393,0.845021999999517,
-0.349792862548828,0.383551105957031,-0.0261446821289049,0.519759600175492,0.848011999999471,
-0.364158072509766,0.225533796386719,-0.00220266552734216,0.428347343661729,0.850963999999294,
-0.412042105712891,0.359609089355469,0.0480755693359374,0.549006971171002,0.853892999999516,
-0.371340677490235,0.261446821289062,-0.0165678754882812,0.454447833771112,0.85689899999943,
-0.443166727294922,0.369185895996094,0.00258573779296967,0.57680296464535,0.859891000000061,
-0.340216055908203,0.259052619628906,-0.00938527050781168,0.427718725024796,0.862901999999849,
-0.41922471069336,0.227927998046875,-0.0524809003906235,0.480057054166896,0.865860999999313,
-0.459926138916016,0.266235224609375,0.0624407792968764,0.53508139474308,0.86877800000002,
-0.390494290771485,0.309330854492188,0.0337103593750001,0.499307277130209,0.871811999999409,
-0.373734879150391,0.330878669433594,0.0289219560546883,0.49999493329606,0.874770999999782,
-0.352187064208985,0.184832368164063,0.0217393510742188,0.398335702520383,0.87778999999955,
-0.426407315673828,0.520020600585938,-0.0117794721679676,0.672594513699357,0.880723999999645,
-0.368946475830078,0.170467158203125,-0.0788171186523439,0.413996005108674,0.883644999999888,
-0.366552274169922,0.172861359863281,0.088776997558595,0.414877059776078,0.886654999999337,
-0.383311685791016,0.208774384765625,-0.0548751020507812,0.439915752188188,0.889593999999306,
-0.371340677490235,0.388339509277344,-0.0788171186523439,0.543059491600444,0.892613999999412,
-0.388100089111328,0.369185895996094,0.115113215820314,0.547878597343566,0.895555999999488,
-0.41922471069336,0.194409174804688,0.0193451494140628,0.462513264793587,0.898486999999477,
-0.366552274169922,0.239899006347656,0.00497993945312558,0.438106040522944,0.901495000000068,
-0.383311685791016,0.366791694335938,-0.0285388837890626,0.531298845646877,0.904429999999593,
-0.407253702392578,0.364397492675781,0.0169509477539069,0.546743491420442,0.907459999999446,
-0.390494290771485,0.316513459472656,0.0361045610351578,0.503954462704732,0.910401999999522,
-0.376129080810547,0.201591779785156,0.0432871660156255,0.428936020695393,0.913343999999597,
-0.392888492431641,0.268629426269531,-0.0141736738281235,0.47615546743988,0.916363999999703,
-0.404859500732422,0.299754047851563,-0.00699106884765577,0.503798153609494,0.919317999999294,
-0.395282694091797,0.3141192578125,0.00258573779296967,0.504901973077031,0.92232999999942,
-0.354581265869141,0.273417829589844,0.0193451494140628,0.448173424523181,0.925292999999328,
-0.390494290771485,0.268629426269531,0.0648349809570323,0.478383877799745,0.928210000000036,
-0.412042105712891,0.309330854492188,0.0265277543945324,0.515914717927679,0.931238000000121,
-0.402465299072266,0.299754047851563,-0.0285388837890626,0.502638313351311,0.934175999999752,
-0.373734879150391,0.306936652832031,-0.0237504804687489,0.484202389572568,0.937179999999898,
-0.390494290771485,0.263841022949219,0.00497993945312558,0.471298924582872,0.940131999999721,
-0.407253702392578,0.249475812988281,0.0193451494140628,0.477983257221923,0.943161999999575,
-0.383311685791016,0.316513459472656,-0.0309330854492185,0.498061717326987,0.94609599999967,
-0.404859500732422,0.287783039550781,0.0073741411132815,0.496774265782308,0.949037999999746,
-0.368946475830078,0.280600434570313,-0.0237504804687489,0.464135962010034,0.952037999999447,
-0.366552274169922,0.27581203125,0.0456813676757815,0.460998518038966,0.954990999999609,
-0.383311685791016,0.304542451171875,0.0073741411132815,0.489620599022225,0.958064999999806,
-0.41922471069336,0.290177241210938,0.000191536132813752,0.5098551030036,0.961123000000043,
-0.371340677490235,0.263841022949219,0.0193451494140628,0.455938832471691,0.964145999999346,
-0.36176387084961,0.280600434570313,0.0456813676757815,0.46010486792238,0.967252999999801,
-0.376129080810547,0.282994636230469,0.0121625444335951,0.470857703615117,0.970209000000068,
-0.409647904052735,0.273417829589844,0.0169509477539069,0.49280427094555,0.973234000000048,
-0.385705887451172,0.357214887695313,0.0432871660156255,0.527489607809799,0.976192999999512,
-0.368946475830078,0.261446821289062,0.0456813676757815,0.454491726813943,0.979139999999461,
-0.38091748413086,0.29496564453125,-0.0237504804687489,0.482355622433092,0.982162999999673,
-0.373734879150391,0.323696064453125,0.00976834277343741,0.494522317551532,0.985133999999562,
-0.407253702392578,0.345243879394531,0.0600465776367187,0.537265768365835,0.98815999999988,
-0.385705887451172,0.247081611328125,0.00976834277343741,0.458163480421059,0.991119999999682,
-0.333033450927735,0.263841022949219,0.000191536132813752,0.424880455556403,0.99405299999944,
-0.416830509033203,0.297359846191406,-0.0500866987304676,0.514469852156152,0.997083999999631,
-0.409647904052735,0.323696064453125,0.00258573779296967,0.522108449919338,1.00007499999992,
-0.359369669189453,0.271023627929688,0.0552581743164069,0.453490718602144,1.00311199999942,
-0.359369669189453,0.292571442871094,-0.00699106884765577,0.46345817865331,1.00604799999928,
-0.356975467529297,0.278206232910156,0.0289219560546883,0.453504875376053,1.00898699999925,
-0.366552274169922,0.338061274414063,-0.0476924970703116,0.500919723343375,1.01198899999963,
-0.395282694091797,0.273417829589844,0.00497993945312558,0.480656340416983,1.01494099999945,
