X,Y,Z,Magnitude,Seconds,
0.0163763393554689,-0.0277248552246094,-0.0429998618164049,0.0537200167920762,0.0,
-0.00995987890624989,0.0297359846191406,-0.0190578452148422,0.0366964498736569,0.00387699999919278,
0.0283473476562501,0.0321301862792969,-0.0238462485351558,0.0490363595578531,0.00774199999978009,
-0.00277727392578114,0.0249475812988281,-0.0525766684570304,0.058261489245993,0.0117169999994076,
0.0211647426757814,0.00100556469726559,-0.0286346518554677,0.0356216335921904,0.0156960000003892,
0.0187705410156251,0.00818816967773439,0.0192493813476577,0.0281054801588265,0.0195979999989504,
-0.0171424838867186,-0.0325132585449219,0.0360087929687509,0.0514549308237967,0.0235300000003917,
-0.0123540805664061,0.00100556469726559,-0.0190578452148422,0.022734025847494,0.0275519999995595,
0.00919373437500015,-0.0157538469238281,-0.0118752402343745,0.0217653342561417,0.0314689999995608,
-0.0243250888671874,-0.0037828386230469,0.033614591308595,0.0416648600776296,0.0353569999988395,
0.0235589443359376,0.00339976635742184,0.0120667763671882,0.0266868762016951,0.0392099999990023,
0.0067995327148439,-0.0181480485839844,-0.00229843359374904,0.0195158425268233,0.0430280000000494,
-0.00756567724609364,0.00579396801757814,0.00967257470703231,0.0135782266531347,0.0470279999990453,
0.0139821376953126,0.0201591779785156,-0.0142694418945304,0.0283815010751992,0.0510130000002391,
0.0522893642578126,-0.0037828386230469,-0.00469263525390495,0.0526356182462068,0.054920000000493,
-0.0219308872070311,0.0608606062011718,-0.00708683691406087,0.0650784177612527,0.0589099999997416,
-0.0219308872070311,0.00579396801757814,-0.0573650717773422,0.0616869948943524,0.06297799999993,
-0.0674207187499999,-0.0133596452636719,-0.0382114584960931,0.0786393603657633,0.0669340000004013,
-0.0195366855468749,0.0273417829589844,-0.0813070883789049,0.087977825605028,0.0707979999988311,
-0.0362960971679686,-0.00617704028320315,0.0551624062500018,0.0663208380494183,0.0747520000004442,
-0.0315076938476561,0.0417069929199219,-0.0549708701171863,0.0758551553387151,0.0785839999989548,
0.0307415493164064,0.0177649763183594,-0.12919112158203,0.133981279041469,0.082445000000007,
0.0642603725585939,0.0393127912597656,-0.0286346518554677,0.0805905349584368,0.0864089999995485,
0.0379241542968751,-0.0780030900878906,0.138959464355469,0.163806154574093,0.0902929999992921,
-0.00277727392578114,-0.0540610734863282,-0.00708683691406087,0.0545942870124658,0.0941590000002179,
-0.00995987890624989,0.0177649763183594,-0.145950533203123,0.14736468950768,0.0980550000003859,
0.0283473476562501,0.111138841064453,-0.0669418784179676,0.132802971346352,0.102085999998963,
0.0211647426757814,0.00579396801757814,0.0360087929687509,0.0421681108064747,0.105960999999297,
-0.0147482822265624,-0.0780030900878906,0.0264319863281255,0.0836698499648716,0.109755999999834,
0.0067995327148439,-0.0133596452636719,-0.00708683691406087,0.0165812250499738,0.113584999999148,
0.0235589443359376,0.0249475812988281,-0.0310288535156236,0.046262246177412,0.11743000000024,
0.00919373437500015,0.0464953962402344,0.0479798012695323,0.0674418857473475,0.121306999999433,
0.0163763393554689,0.0297359846191406,0.0407971962890645,0.0530737646771332,0.125249999999141,
-0.0243250888671874,-0.0133596452636719,0.0072783730468764,0.02869084843948,0.129122999998799,
0.0139821376953126,0.00100556469726559,-0.0358172568359372,0.0384628030978315,0.133149999999659,
0.0211647426757814,-0.0109654436035156,-0.0334230551757795,0.0410522581989971,0.137053000000378,
-0.000383072265624895,-0.00138863696289065,0.0120667763671882,0.0121524544381425,0.141110999999,
0.00201112939453141,0.00579396801757814,0.0168551796875018,0.0179363259651535,0.14506799999981,
-0.00517147558593739,-0.0277248552246094,-0.00229843359374904,0.0282965466788153,0.148978999999599,
0.0451067592773439,-0.00138863696289065,0.00248996972656279,0.0451967697336674,0.153002999999444,
0.00201112939453141,0.0297359846191406,9.57680664068761e-05,0.0298040700951038,0.157004999999117,
0.0139821376953126,0.0273417829589844,0.0431913979492204,0.0529959444364832,0.161024999999427,
0.0139821376953126,0.0321301862792969,-0.0453940634765608,0.0573451832657899,0.164983999999095,
0.0187705410156251,0.0249475812988281,0.00488417138672048,0.0316001606454107,0.169006000000081,
-0.00277727392578114,0.0297359846191406,-0.0262404501953117,0.0397555437414863,0.17293299999983,
-0.0123540805664061,0.0584664045410156,0.033614591308595,0.0685629966923764,0.176915000000008,
0.0379241542968751,-0.00617704028320315,-0.0429998618164049,0.0576661549093003,0.180843000000095,
-0.287687271484375,0.0273417829589844,0.0264319863281255,0.290189919140467,0.184739000000263,
0.179182052246094,0.0321301862792969,0.0503740029296882,0.188881171344908,0.18862099999933,
0.0331357509765626,0.0153707746582031,0.0144609780273441,0.0392856028575528,0.192542999999205,
-0.153611978515625,-0.137858131591797,-0.0214520468749981,0.207513119355363,0.196404000000257,
-0.0602381137695311,-0.0037828386230469,-0.122008516601561,0.136121336835458,0.20034300000043,
-0.0530555087890624,0.173388084228516,-0.0190578452148422,0.182322560944975,0.204352999999173,
0.160028438964844,-0.0468784685058594,0.184449295898439,0.248652840008735,0.208378999999695,
0.174393648925781,0.0129765729980469,-0.160315743164061,0.237239696801921,0.212309999998979,
0.1241154140625,-0.0732146867675781,-0.0525766684570304,0.153392739177645,0.216317999998864,
-0.0578439121093749,-0.111521913330078,0.162901480957032,0.205718127103357,0.220203999999285,
-0.129669961914062,0.0345243879394531,-0.0190578452148422,0.135533884507237,0.224065999998857,
0.0475009609375001,0.0967736311035157,-0.20580557470703,0.232330393077265,0.228048999999373,
0.193547262207031,0.0201591779785156,0.0838928261718763,0.211907860750165,0.232083999999304,
-0.0195366855468749,-0.0349074602050781,0.0958638344726577,0.103875346545404,0.235983000000488,
-0.0602381137695311,-0.0205422502441406,-0.0358172568359372,0.0730307488860368,0.239822999999888,
-0.0410845004882811,0.0249475812988281,0.00488417138672048,0.0483132810225932,0.243825999999899,
0.0882023891601564,0.00339976635742184,0.0743160195312509,0.115386700376664,0.247800999999527,
0.0522893642578126,0.0417069929199219,-0.0142694418945304,0.0683905537694352,0.251793999999791,
0.00440533105468766,0.0345243879394531,-0.0262404501953117,0.0435878599009849,0.255736999999499,
-0.0698149204101561,0.0273417829589844,0.0288261879882832,0.0803283593831499,0.259615999999369,
-0.0195366855468749,-0.00138863696289065,-0.00948103857421678,0.0217600663422234,0.263461999998981,
-0.00756567724609364,-0.00617704028320315,-0.0597592734374981,0.0605521763492448,0.267380999999659,
0.0331357509765626,0.0632548078613281,-0.0669418784179676,0.0978793328363054,0.271371999999246,
-0.0243250888671874,0.0369185895996094,0.00248996972656279,0.0442819619671503,0.275250000000597,
-0.0291134921874999,0.00339976635742184,-0.0118752402343745,0.0316255461496047,0.279379999999946,
0.00201112939453141,-0.0037828386230469,-0.0310288535156236,0.0313232223754771,0.2834129999992,
0.00440533105468766,0.0153707746582031,0.0264319863281255,0.0308920306316187,0.287474999999176,
0.0570777675781252,-0.0851856950683594,0.253881144042969,0.273806700970865,0.291404999999941,
-0.00277727392578114,0.221272117431641,-0.222564986328123,0.313853845511535,0.295377999998891,
0.0475009609375001,0.127898252685547,-0.0334230551757795,0.140468519417288,0.299263999999312,
0.0905965908203126,-0.166588551513672,0.258669547363283,0.320732633975422,0.30322200000046,
-0.184736600097656,-0.113916114990234,0.033614591308595,0.219623389963258,0.307225000000471,
-0.0530555087890624,0.154234470947266,-0.313544649414061,0.353430907275291,0.311125000000175,
0.131298019042969,0.305069175537109,-0.00708683691406087,0.332199631133067,0.31514099999913,
0.195941463867188,0.0201591779785156,0.304159378906251,0.362370497551639,0.318213000000469,
0.114538607421875,-0.236020399658203,0.11980585107422,0.288406247499215,0.321186999999554,
-0.115304751953125,-0.161800148193359,-0.296785237792967,0.357149760114987,0.324235000000044,
-0.129669961914062,0.0177649763183594,-0.172286751464842,0.216362238241091,0.327239000000191,
-0.0410845004882811,0.0991678327636719,0.148536270996095,0.183262704980693,0.330313000000388,
0.0786255825195314,0.0512837995605468,0.184449295898439,0.206962685238987,0.333321000000069,
0.119327010742188,0.0919852277832032,-0.0501824667968744,0.158803329929864,0.336373000000094,
0.0163763393554689,-0.0181480485839844,-0.12919112158203,0.131483390790301,0.339447000000291,
-0.0195366855468749,-0.0564552751464844,0.0455855996093764,0.07514603825731,0.342423000000053,
-0.0362960971679686,0.0105823713378906,0.0192493813476577,0.0424256047102122,0.345483999999487,
-0.0123540805664061,0.0895910261230469,-0.0980664999999981,0.13340245009246,0.348453999999037,
0.0211647426757814,0.0967736311035157,-0.0501824667968744,0.111046665791057,0.351470999999947,
0.0307415493164064,-0.0444842668457031,0.00488417138672048,0.0542931669854285,0.35454000000027,
0.0546835659179689,-0.0373016618652344,0.0503740029296882,0.0831820084547937,0.357528000000457,
0.0115879360351564,0.00818816967773439,-0.0262404501953117,0.0298309840715804,0.360661999999138,
-0.0434787021484374,0.0225533796386719,-0.0645476767578117,0.0810274956324675,0.363710999999967,
-0.0195366855468749,0.00100556469726559,0.136565262695314,0.137959284637018,0.366710000000239,
0.0522893642578126,-0.0109654436035156,0.0886812294921882,0.103531536413569,0.369769999999335,
0.112144405761719,0.0153707746582031,-0.0190578452148422,0.114786017970288,0.372760000000198,
-0.0123540805664061,0.0153707746582031,-0.00469263525390495,0.0202707879930876,0.375847999999678,
-0.00995987890624989,0.0321301862792969,0.00488417138672048,0.0339912222243381,0.378856999999698,
-0.0219308872070311,0.0201591779785156,0.00248996972656279,0.0298924107374462,0.38192700000036,
-0.0171424838867186,-0.00138863696289065,-0.0525766684570304,0.0553181627719288,0.384995999998864,
0.0163763393554689,-0.0085712419433594,-0.0741244833984371,0.0763943042263117,0.388022999999521,
-0.00517147558593739,-0.0444842668457031,0.0288261879882832,0.0532592083162293,0.391148999999132,
0.0067995327148439,-0.00617704028320315,0.0216435830078137,0.0235124255919432,0.394183000000339,
0.0139821376953126,-0.0157538469238281,0.0360087929687509,0.0417171072642442,0.397267999998803,
-0.0602381137695311,-0.00138863696289065,0.0120667763671882,0.061450514684756,0.400299999999334,
-0.0243250888671874,-0.0157538469238281,0.0360087929687509,0.0462225790319227,0.403388999999152,
0.00440533105468766,0.0225533796386719,-0.00708683691406087,0.0240475597987395,0.40647700000045,
0.0403183559570314,0.0153707746582031,-0.0477882651367167,0.0643859365502148,0.409497999999076,
-0.000383072265624895,-0.0037828386230469,0.0862870278320322,0.0863707576931835,0.412603999999192,
0.0163763393554689,-0.0325132585449219,-0.0118752402343745,0.0382925293303866,0.415617000000566,
-0.0937569370117186,0.0895910261230469,-0.217776583007812,0.253463124154497,0.418609999998807,
0.133692220703125,0.111138841064453,0.237121732421876,0.294027495068803,0.421698000000106,
-0.0674207187499999,-0.101945106689453,0.184449295898439,0.221268842931219,0.424651999999696,
0.0355299526367189,-0.0349074602050781,-0.0956722983398421,0.107861471258111,0.427752999999939,
-0.0554497104492186,-0.0684262834472657,-0.131585323242186,0.158339900050677,0.430699999998978,
0.00440533105468766,0.127898252685547,-0.141162129882812,0.190536392573097,0.433734000000186,
0.107356002441406,0.00100556469726559,0.0743160195312509,0.130572559060198,0.43692799999917,
0.100173397460938,-0.0803972917480469,0.261063749023439,0.290951396514024,0.439919999998892,
-0.0458729038085936,-0.118704518310547,0.110229044433595,0.168361302584397,0.443035000000236,
-0.117698953613281,0.0153707746582031,-0.220170784667967,0.250128924390129,0.446013999999195,
-0.0650265170898436,0.0608606062011718,-0.0741244833984371,0.115874502592654,0.449001999999382,
0.0594719692382814,0.0345243879394531,0.136565262695314,0.152901665990639,0.452126000000135,
0.112144405761719,-0.00617704028320315,0.0384029946289068,0.118698414339776,0.455153999999311,
0.00919373437500015,-0.0109654436035156,-0.117220113281249,0.118090307234966,0.458258000000569,
0.0235589443359376,-0.0205422502441406,-0.0908838950195303,0.0961087419397305,0.461263999999574,
-0.0219308872070311,-0.0181480485839844,0.0288261879882832,0.0405125239281635,0.464226000000053,
-0.0458729038085936,0.0297359846191406,-0.00708683691406087,0.0551250881409612,0.467286999999487,
-0.00995987890624989,0.0369185895996094,-0.0597592734374981,0.0709461218646179,0.470321999999214,
0.0762313808593751,0.0871968244628907,0.0120667763671882,0.116447914176403,0.473382000000129,
0.0642603725585939,-0.0564552751464844,0.00967257470703231,0.0860822413433669,0.476420999999391,
0.0163763393554689,-0.0612436784667969,0.0623450112304695,0.088914976624623,0.479508000000351,
-0.0386902988281249,-0.00138863696289065,-0.0142694418945304,0.0412611743410883,0.482488999999987,
-0.0315076938476561,0.0608606062011718,0.00967257470703231,0.069212042739937,0.485459999999875,
0.0451067592773439,0.0225533796386719,0.0479798012695323,0.0696084477308187,0.488562999998976,
0.0451067592773439,0.0177649763183594,-0.0166636435546863,0.0512629606305933,0.491581000000224,
0.00440533105468766,0.0225533796386719,-0.0573650717773422,0.0617965479201474,0.494656999999279,
0.0115879360351564,-0.00138863696289065,0.0288261879882832,0.0310991589613839,0.497644999999466,
-0.00756567724609364,-0.0301190568847656,0.0695276162109391,0.0761477936370808,0.500643999999738,
-0.0291134921874999,0.0345243879394531,0.00967257470703231,0.0461853601415924,0.503751000000193,
0.0307415493164064,0.0895910261230469,-0.201017171386718,0.222214981512208,0.506782999998904,
0.0067995327148439,-0.0660320817871094,0.134171061035158,0.149694165182146,0.509901999999784,
-0.0769975253906249,-0.0301190568847656,0.115017447753907,0.14165023752797,0.512908999999127,
-0.0386902988281249,0.0321301862792969,-0.0118752402343745,0.0516750367622126,0.515870999999606,
0.0331357509765626,0.0752258161621093,-0.16749834814453,0.186581344301038,0.519006999998965,
0.193547262207031,0.0656490095214843,-0.0501824667968744,0.210448604492424,0.522057000000132,
0.131298019042969,-0.0396958635253906,0.148536270996095,0.202182974523226,0.525179000000207,
-0.122487356933594,-0.0396958635253906,0.0360087929687509,0.133699466568384,0.528220000000147,
-0.175159793457031,-0.0492726701660157,-0.0980664999999981,0.206702171472504,0.531227999999828,
-0.0674207187499999,0.0441011945800781,-0.162709944824218,0.181562647107979,0.53433799999948,
0.0235589443359376,0.0584664045410156,0.0360087929687509,0.0725946106074264,0.537384999999631,
0.109750204101563,0.0584664045410156,0.0862870278320322,0.151356793479428,0.540485999999873,
0.0714429775390626,0.00818816967773439,-0.00708683691406087,0.0722590369418585,0.543562999999267,
0.00440533105468766,0.0656490095214843,-0.172286751464842,0.184423220130117,0.546618999998827,
-0.0506613071289062,-0.0516668718261719,-0.0621534750976558,0.0953891406346988,0.549662999999782,
-0.0578439121093749,0.0225533796386719,0.0216435830078137,0.065749659973716,0.552669999999125,
0.0163763393554689,-0.0301190568847656,0.0479798012695323,0.0589695125312821,0.555806999998822,
-0.000383072265624895,-0.0085712419433594,0.00248996972656279,0.00893380557497719,0.558852000000115,
0.0067995327148439,0.0129765729980469,-0.0741244833984371,0.0755583491812722,0.561848999999711,
0.00440533105468766,-0.0109654436035156,-0.0310288535156236,0.0332029764571989,0.564904999999271,
0.0475009609375001,-0.0133596452636719,0.134171061035158,0.142956969158055,0.567904999999882,
-0.00995987890624989,-0.0133596452636719,0.00248996972656279,0.0168487168246579,0.5709939999997,
-0.00517147558593739,0.0393127912597656,0.0168551796875018,0.0430852271511689,0.574000999999043,
-0.0219308872070311,0.00100556469726559,-0.0118752402343745,0.0249598939234928,0.577132999998867,
0.0570777675781252,0.0297359846191406,-0.0166636435546863,0.0664814060432681,0.580216000000291,
0.0451067592773439,0.00579396801757814,-0.0477882651367167,0.0659689933428584,0.583262000000104,
0.0355299526367189,0.0177649763183594,-0.0286346518554677,0.0489685123813578,0.586379999998826,
-0.0123540805664061,0.00339976635742184,0.0264319863281255,0.0293739956283874,0.589418999999907,
-0.0147482822265624,-0.00138863696289065,9.57680664068761e-05,0.0148138216801602,0.592475999999806,
-0.0171424838867186,-0.0085712419433594,0.0240377846679696,0.0307432274493373,0.595446999999695,
-0.0171424838867186,0.0441011945800781,-0.0238462485351558,0.0529851270301085,0.598470999999336,
0.0163763393554689,0.0249475812988281,-0.0382114584960931,0.0484838309516251,0.601591000000553,
0.0810197841796876,0.0153707746582031,-0.0741244833984371,0.110882393468042,0.60461099999884,
-0.0123540805664061,-0.0157538469238281,-0.0645476767578117,0.0675811332723239,0.607661000000007,
-0.100939541992187,-0.0277248552246094,0.00967257470703231,0.105123819547623,0.610674999999901,
-0.0817859287109374,0.00339976635742184,0.0264319863281255,0.0860182913550705,0.61365300000034,
0.0307415493164064,0.00818816967773439,0.00967257470703231,0.033251280855142,0.616739999999481,
0.0642603725585939,0.00579396801757814,0.0264319863281255,0.0697252855713637,0.619791999999507,
0.0618661708984377,0.0656490095214843,0.0264319863281255,0.0939992843272588,0.622889000000214,
-0.0195366855468749,0.00100556469726559,-0.0334230551757795,0.0387271721121108,0.625878999999259,
-0.0267192905273436,-0.0181480485839844,-0.0310288535156236,0.0447890824217831,0.628840999999738,
0.0067995327148439,-0.0468784685058594,0.0240377846679696,0.0531191071681251,0.631932000000234,
-0.0123540805664061,-0.0181480485839844,-0.00708683691406087,0.0230694220017409,0.634916999999405,
0.0067995327148439,0.0441011945800781,0.0312203896484391,0.0544597258378199,0.637999000000491,
-0.00277727392578114,0.0297359846191406,0.0958638344726577,0.100408250614826,0.640975000000253,
0.0451067592773439,0.0536780012207031,-0.00469263525390495,0.070270679327727,0.64402599999994,
0.0882023891601564,0.0249475812988281,-0.0429998618164049,0.101247377163318,0.647184999999808,
0.00919373437500015,0.0153707746582031,-0.0501824667968744,0.0532828812956913,0.650212000000465,
-0.0410845004882811,-0.00617704028320315,-0.0741244833984371,0.0849737079696836,0.65325699999994,
-0.0171424838867186,-0.0229364519042969,9.57680664068761e-05,0.0286348520388542,0.656246000000465,
-0.0123540805664061,0.0488895979003906,-0.0573650717773422,0.076377794872088,0.659212999998999,
0.0403183559570314,0.0321301862792969,0.00488417138672048,0.0517858458225321,0.662347999999838,
0.0929907924804689,0.0297359846191406,-0.0238462485351558,0.100499551424948,0.665372999999818,
0.0618661708984377,-0.0133596452636719,-0.0525766684570304,0.0822812815240887,0.668534000000363,
-0.00995987890624989,0.00818816967773439,0.0216435830078137,0.0251930545173596,0.671559999998863,
-0.0147482822265624,-0.00138863696289065,-0.0717302817382794,0.0732439312127769,0.674645999999484,
-0.0147482822265624,-0.0205422502441406,-0.0166636435546863,0.0302848623943526,0.677674999998999,
0.0427125576171876,0.0129765729980469,-0.0142694418945304,0.0468654563293327,0.68072199999915,
0.0403183559570314,-0.0157538469238281,-0.00469263525390495,0.0435404908746271,0.683850999999777,
0.0307415493164064,0.0105823713378906,0.0144609780273441,0.0355829920469511,0.686996000000363,
-0.0171424838867186,0.00339976635742184,-0.00708683691406087,0.0188585901524467,0.690040999999837,
-0.000383072265624895,-0.0444842668457031,9.57680664068761e-05,0.0444860192946386,0.693072000000029,
0.0451067592773439,0.00339976635742184,-0.0382114584960931,0.0592139654489374,0.696114000000307,
0.0475009609375001,0.00579396801757814,-0.0813070883789049,0.0943438073009017,0.699258999999074,
0.0331357509765626,0.0441011945800781,-0.0286346518554677,0.0621517227681946,0.702299000000494,
-0.0362960971679686,-0.00617704028320315,0.00488417138672048,0.0371405119299908,0.705367999998998,
-0.00517147558593739,0.00339976635742184,-0.0621534750976558,0.0624608440363715,0.708344000000579,
-0.00995987890624989,0.0201591779785156,-0.0142694418945304,0.0266309710032888,0.711369999999079,
0.0067995327148439,0.00100556469726559,-0.00469263525390495,0.00832259761894151,0.714437000000544,
0.0355299526367189,-0.00617704028320315,-0.00229843359374904,0.0361360783430172,0.717440999998871,
0.0666545742187501,0.0680432111816406,-0.0501824667968744,0.107661463978582,0.720642000000225,
0.0187705410156251,0.0393127912597656,0.0288261879882832,0.0522377055448362,0.723665999999866,
0.0187705410156251,0.0345243879394531,-0.0142694418945304,0.0418076971931545,0.726700999999593,
-0.0123540805664061,0.0105823713378906,-0.00469263525390495,0.0169301717475179,0.729760000000169,
-0.0147482822265624,0.0129765729980469,0.00967257470703231,0.0218966202157113,0.732774000000063,
-0.00995987890624989,0.0249475812988281,-0.0597592734374981,0.0655190946386354,0.735866999999416,
0.0403183559570314,-0.0396958635253906,-0.0166636435546863,0.0589831198278114,0.738879999998971,
0.0115879360351564,-0.00138863696289065,0.0384029946289068,0.0401372466748459,0.741922999999588,
-0.00517147558593739,0.0345243879394531,-0.00708683691406087,0.0356216335921908,0.745034999999916,
0.0666545742187501,-0.00138863696289065,-0.0358172568359372,0.0756811499922475,0.748012000000017,
0.00919373437500015,0.0297359846191406,0.0575566079101577,0.0654332992225782,0.751127999999881,
-0.00277727392578114,0.0201591779785156,-0.0118752402343745,0.0235611340527658,0.754154000000199,
0.0115879360351564,-0.0085712419433594,0.0072783730468764,0.016146862364434,0.757132999999158,
-0.00995987890624989,0.0249475812988281,0.0264319863281255,0.0376859509862629,0.760245999999825,
0.0403183559570314,-0.0181480485839844,-0.0118752402343745,0.0457814681405987,0.763251000000309,
0.0331357509765626,-0.0396958635253906,-0.0573650717773422,0.0772301174013534,0.766362000000299,
-0.0291134921874999,-0.0109654436035156,0.0120667763671882,0.0333683004162518,0.769324999999299,
-0.00517147558593739,0.0369185895996094,-0.0429998618164049,0.0569097050949155,0.772386000000552,
0.0331357509765626,0.0153707746582031,-0.0429998618164049,0.0564200923661416,0.775405000000319,
-0.0362960971679686,0.0105823713378906,0.0312203896484391,0.0490316834563121,0.778420999999071,
0.0211647426757814,0.0201591779785156,-0.040605660156249,0.0500315742909045,0.781498000000283,
-0.0386902988281249,0.0153707746582031,-0.0190578452148422,0.0457864761827741,0.784515999999712,
0.0498951625976564,-0.0133596452636719,-0.0190578452148422,0.0550564150344953,0.787570000000414,
0.00201112939453141,0.0297359846191406,-0.0597592734374981,0.066779069958251,0.79062200000044,
-0.0267192905273436,0.0632548078613281,-0.0334230551757795,0.0763687882655036,0.793646000000081,
-0.0362960971679686,0.0129765729980469,-0.00229843359374904,0.0386145168736465,0.796744999999646,
0.0283473476562501,-0.0444842668457031,0.0144609780273441,0.0546949906431234,0.799729999998817,
0.0786255825195314,-0.0157538469238281,-0.0477882651367167,0.0933481880071177,0.802826999999525,
0.0379241542968751,-0.00617704028320315,-0.0166636435546863,0.041881670481383,0.805844999998953,
-0.0267192905273436,0.0536780012207031,0.00248996972656279,0.0600120675412337,0.808884000000035,
-0.0722091220703124,0.0464953962402344,0.0407971962890645,0.0950809676367996,0.81202200000007,
-0.00756567724609364,-0.0205422502441406,0.184449295898439,0.185743818940806,0.815071999999418,
0.1241154140625,0.0441011945800781,-0.198622969726561,0.238328838947984,0.818217000000004,
0.224671883789063,0.0967736311035157,-0.105249104980468,0.266308026806319,0.821264000000156,
0.0690487758789064,0.0967736311035157,0.071921817871095,0.138944654496737,0.82429299999967,
-0.0722091220703124,0.0297359846191406,0.122200052734376,0.145021512127406,0.827439000000595,
-0.290081473144531,-0.0253306535644531,-0.0573650717773422,0.296782166802056,0.83046800000011,
-0.170371390136719,0.00100556469726559,-0.0597592734374981,0.180550803097788,0.833550999999716,
0.157634237304688,-0.00617704028320315,-0.126796919921874,0.202396065917708,0.836515999999392,
0.392266,0.0680432111816406,0.0168551796875018,0.398480351367803,0.839574999999968,
0.179182052246094,0.142263462646484,0.0743160195312509,0.240557625965711,0.842740000000049,
-0.153611978515625,0.00818816967773439,0.0407971962890645,0.159148035775515,0.845728000000236,
-0.337965506347656,-0.0588494768066407,-0.0717302817382794,0.350469938396285,0.848761999999624,
-0.227832229980469,-0.0971567033691406,-0.0238462485351558,0.248828442097427,0.851720999999088,
0.0858081875000001,-0.0803972917480469,0.0288261879882832,0.121069065728582,0.854737999999998,
0.162422640625,0.0991678327636719,0.0479798012695323,0.196258591079487,0.857813000000533,
0.171999447265625,0.139869260986328,0.0455855996093764,0.226329995626493,0.860872999999629,
0.0187705410156251,0.0704374128417968,0.0144609780273441,0.0743160966639955,0.864041999999245,
-0.100939541992187,-0.00617704028320315,-0.0334230551757795,0.106508439015583,0.867033000000447,
-0.0578439121093749,-0.0827914934082031,0.0551624062500018,0.115079279682173,0.870108999999502,
-0.0123540805664061,-0.0851856950683594,-0.00469263525390495,0.0862046795513269,0.873105000000578,
0.0738371791992189,-0.0516668718261719,0.0384029946289068,0.097960117766709,0.876116999999795,
0.0858081875000001,0.0488895979003906,0.0216435830078137,0.10110233681925,0.879203999998936,
0.0259531459960939,0.0752258161621093,-0.0358172568359372,0.0872660592189284,0.882235999999466,
-0.0482671054687498,0.0177649763183594,0.0120667763671882,0.0528291107801279,0.885360000000219,
-0.0458729038085936,-0.0947625017089844,0.0527682045898441,0.117765608093422,0.888348000000406,
-0.0650265170898436,-0.106733510009766,-0.00708683691406087,0.125182719819019,0.891282000000501,
-0.000383072265624895,-0.0253306535644531,-0.040605660156249,0.0478603007835076,0.894357999999556,
0.0475009609375001,0.0560722028808593,-0.0597592734374981,0.0947185514441381,0.897359000000506,
0.0714429775390626,0.0871968244628907,0.0288261879882832,0.116354348221263,0.900438999999096,
0.0403183559570314,0.0536780012207031,0.0072783730468764,0.0675268269381672,0.903478000000177,
0.00919373437500015,0.00339976635742184,0.0216435830078137,0.0237597947899227,0.906487000000197,
-0.00756567724609364,-0.0827914934082031,-0.0118752402343745,0.0839803083084166,0.909537999999884,
-0.0219308872070311,-0.0732146867675781,-0.0286346518554677,0.0816167719224789,0.912500999998883,
0.0115879360351564,-0.0349074602050781,-0.00948103857421678,0.0379829057862846,0.915569999999207,
-0.0315076938476561,0.0225533796386719,0.00967257470703231,0.0399368051574836,0.918601999999737,
0.0235589443359376,0.0441011945800781,0.0384029946289068,0.0630454535877217,0.921592000000601,
0.0762313808593751,0.00818816967773439,0.0168551796875018,0.0785007428799018,0.924646999999823,
0.0067995327148439,-0.0516668718261719,0.00248996972656279,0.052171824183955,0.927695000000313,
0.0115879360351564,-0.0540610734863282,-0.0190578452148422,0.0584814619540409,0.930817999998908,
0.00201112939453141,0.0369185895996094,-0.110037508300779,0.116083074272307,0.933850999999777,
-0.115304751953125,0.0488895979003906,0.0240377846679696,0.127527227279421,0.936851000000388,
0.0858081875000001,-0.0492726701660157,0.117411649414064,0.153545877461609,0.939940000000206,
0.160028438964844,-0.0780030900878906,0.0910754311523441,0.1999707916181,0.942908999999418,
0.0834139858398439,-0.0827914934082031,-0.078912886718749,0.141561181489617,0.946034999999029,
-0.0291134921874999,0.00100556469726559,-0.124402718261718,0.127767925938463,0.949064000000362,
-0.0937569370117186,0.0752258161621093,-0.0286346518554677,0.123568725581996,0.95210699999916,
-0.165582986816406,0.125504051025391,-0.0238462485351558,0.209135448731262,0.955212999999276,
0.0858081875000001,0.0273417829589844,0.177266690917969,0.19883183308117,0.95833599999969,
0.157634237304688,-0.0851856950683594,-0.0932780966796862,0.202004848296012,0.961444999999003,
0.107356002441406,-0.0037828386230469,-0.222564986328123,0.2471331508873,0.964474000000337,
0.00919373437500015,0.0369185895996094,-0.0334230551757795,0.050641955205794,0.967609999999695,
-0.0865743320312499,0.0345243879394531,0.182055094238283,0.204526540251775,0.970751999999266,
-0.100939541992187,0.0105823713378906,0.0407971962890645,0.109385506104667,0.973742000000129,
-0.0243250888671874,-0.0468784685058594,-0.0477882651367167,0.0712251292917644,0.976811000000453,
0.0115879360351564,0.0249475812988281,-0.150738936523437,0.15322822539739,0.979852999998911,
0.138480624023438,-0.0037828386230469,-0.00469263525390495,0.138611738044059,0.982942999999068,
0.00440533105468766,0.0345243879394531,0.0743160195312509,0.0820622389608309,0.986001999999644,
-0.00756567724609364,0.00579396801757814,0.0838928261718763,0.0844323150262116,0.988984999999957,
-0.0434787021484374,0.0249475812988281,-0.0525766684570304,0.0726435504309547,0.992048000000068,
-0.0602381137695311,0.00579396801757814,-0.0813070883789049,0.101356021215095,0.995053000000553,
0.0331357509765626,-0.0564552751464844,0.0503740029296882,0.082599735204214,0.998121999999057,
0.0355299526367189,0.0393127912597656,0.0623450112304695,0.0818215956598792,1.00113899999997,
-0.0147482822265624,0.0512837995605468,0.0647392128906255,0.0838969940563928,1.00421599999936,
-0.0291134921874999,0.00339976635742184,-0.0645476767578117,0.0708911589231522,1.00728499999968,
0.0666545742187501,0.0464953962402344,9.57680664068761e-05,0.0812690796511306,1.01037700000052,
-0.00756567724609364,-0.0516668718261719,0.0360087929687509,0.063429790221634,1.01343499999894,
0.0211647426757814,0.0105823713378906,0.0599508095703136,0.0644517841785707,1.01648399999976,
-0.0195366855468749,0.0417069929199219,-0.0813070883789049,0.0934451601809047,1.01947999999902,
0.0690487758789064,0.118321446044922,-0.110037508300779,0.175715540796996,1.02258699999948,
0.107356002441406,0.0512837995605468,0.0503740029296882,0.129200926965428,1.02564200000052,
-0.0195366855468749,-0.0181480485839844,0.0527682045898441,0.0591228988227047,1.02872199999911,
-0.0626323154296874,-0.0636378801269531,-0.0262404501953117,0.0930652886396907,1.03166299999975,
-0.0913627353515624,-0.0780030900878906,-0.0765186850585931,0.142431529645916,1.03464299999905,
-0.0195366855468749,0.0441011945800781,-0.00708683691406087,0.0487526481639088,1.03776800000014,
0.0475009609375001,0.0345243879394531,-0.040605660156249,0.0713939373427783,1.04074600000058,
