X,Y,Z,Magnitude,Seconds,
0.0739808312988279,0.584664045410156,-0.00699106884765577,0.589367529168911,0.0,
0.105105452880859,0.589452448730469,-0.0620577070312489,0.601957228166265,0.00375300000041534,
0.0859518395996092,0.558327827148438,-0.0285388837890626,0.565625449557194,0.0074930000000677,
0.0644040246582029,0.611000263671875,-0.00459686718749985,0.614402418441867,0.0112230000004274,
0.0404620080566405,0.570298835449219,-0.0452982954101557,0.57352408090487,0.0150520000001961,
0.100317049560547,0.579875642089844,0.00258573779296967,0.588494653129131,0.0190360000001419,
0.129047469482422,0.560722028808594,-0.0500866987304676,0.577556162083618,0.022867000000133,
0.124259066162109,0.58226984375,-0.0524809003906235,0.597689494110395,0.026651000000129,
0.0620098229980467,0.575087238769531,0.000191536132813752,0.578420769881151,0.0304780000001301,
0.0667982263183592,0.599029255371094,-0.0668461103515625,0.606437510629792,0.0342620000001261,
0.133835872802734,0.587058247070313,-0.0165678754882812,0.602348670456184,0.0382100000001628,
0.124259066162109,0.553539423828125,-0.059663505371093,0.570443637118181,0.0420430000003762,
0.0931344445800779,0.565510432128906,-0.0141736738281235,0.573303555408169,0.0458490000000893,
0.035673604736328,0.572693037109375,0.0241335527343765,0.574310324821021,0.0496620000003531,
0.0931344445800779,0.591846650390625,-0.021356278808593,0.599510277635332,0.0534720000000561,
0.0811634362792967,0.611000263671875,0.0241335527343765,0.616839731180918,0.0572730000003503,
0.117076461181641,0.587058247070313,-0.0309330854492185,0.599417332908795,0.0610280000000785,
0.105105452880859,0.508049592285156,-0.0237504804687489,0.519351162287041,0.0649220000000241,
0.0763750329589842,0.553539423828125,-0.0189620771484371,0.559105177727091,0.0687200000002122,
0.100317049560547,0.6205770703125,0.000191536132813752,0.628632998908162,0.0724760000002789,
0.0883460412597654,0.572693037109375,-0.00220266552734216,0.579471474272252,0.0762120000003961,
0.129047469482422,0.567904633789063,-0.0357214887695303,0.583476603831565,0.0799440000000686,
0.100317049560547,0.565510432128906,-0.0189620771484371,0.5746521727523,0.0836840000001757,
0.105105452880859,0.646913288574219,0.0792001909179696,0.660164092783487,0.0876120000002629,
0.114682259521484,0.615788666992188,0.0552581743164069,0.628809326325358,0.0916290000000117,
0.100317049560547,0.572693037109375,0.0815943925781255,0.587110270806334,0.0954100000003564,
0.0787692346191404,0.60142345703125,-0.0261446821289049,0.607122978805387,0.0991880000001402,
0.0931344445800779,0.551145222167969,0.0169509477539069,0.559215893296654,0.103004000000055,
0.0739808312988279,0.606211860351563,0.0504697709960951,0.612791302822557,0.106817000000319,
0.117076461181641,0.584664045410156,0.0217393510742188,0.596667028704715,0.110649000000194,
0.129047469482422,0.555933625488281,-0.0548751020507812,0.573346947452801,0.114533000000392,
0.0691924279785154,0.591846650390625,0.0217393510742188,0.596273971470576,0.118322000000262,
0.0715866296386717,0.611000263671875,-0.00220266552734216,0.615183565682269,0.122098000000278,
0.0811634362792967,0.575087238769531,-0.0405098920898439,0.582197463874035,0.125891000000138,
0.121864864501953,0.555933625488281,-0.00938527050781168,0.569211142240846,0.129660000000058,
0.0644040246582029,0.60142345703125,0.0313161577148442,0.605672151244892,0.133396000000175,
0.109893856201172,0.572693037109375,-0.0740287153320303,0.587821592898759,0.137195000000247,
0.0787692346191404,0.567904633789063,-0.0381156904296862,0.574606884102954,0.140963000000284,
0.117076461181641,0.60142345703125,0.0289219560546883,0.61339510266407,0.144724000000224,
0.105105452880859,0.579875642089844,-0.0764229169921862,0.594258680000548,0.148452000000361,
0.0667982263183592,0.579875642089844,-0.15064316845703,0.602835904314898,0.15218300000015,
0.0667982263183592,0.500866987304688,-0.0668461103515625,0.509703977304559,0.155918000000383,
0.0931344445800779,0.493684382324219,-0.00699106884765577,0.502441209657128,0.159940000000006,
0.045250411376953,0.73549875,0.0361045610351578,0.737773373271825,0.163868999999977,
0.124259066162109,0.670855305175781,-0.0381156904296862,0.683330053387747,0.16762800000015,
0.0859518395996092,0.608606062011719,0.0121625444335951,0.614765796816209,0.171424999999999,
0.0691924279785154,0.484107575683594,-0.0261446821289049,0.489725720508358,0.17515800000001,
0.117076461181641,0.558327827148438,0.0217393510742188,0.570884804243588,0.178968000000168,
0.121864864501953,0.591846650390625,-0.0381156904296862,0.605463713723303,0.18276700000024,
0.0428562097167967,0.572693037109375,0.0504697709960951,0.576507733902372,0.186646999999994,
0.035673604736328,0.555933625488281,-0.0764229169921862,0.562294641860496,0.190393000000313,
0.0596156213378904,0.527203205566406,0.0432871660156255,0.53232604765187,0.194186000000172,
0.107499654541016,0.565510432128906,-0.0141736738281235,0.575811703252761,0.197955999999976,
0.0787692346191404,0.596635053710938,0.00976834277343741,0.601891518597561,0.201721000000362,
0.0620098229980467,0.630153876953125,-0.0357214887695303,0.634204345260433,0.20547600000009,
0.0739808312988279,0.594240852050781,0.00497993945312558,0.598849023913925,0.20932700000003,
-0.00502782348632835,0.594240852050781,0.00258573779296967,0.594267747143476,0.21307300000035,
0.205661922607422,0.472136567382813,0.0983538041992187,0.524293081654779,0.21682200000032,
0.0644040246582029,0.555933625488281,0.0169509477539069,0.55990839337384,0.220559000000321,
0.0787692346191404,0.553539423828125,-0.00459686718749985,0.559134704022561,0.224261000000297,
0.0476446130371092,0.611000263671875,0.014556746093751,0.613027919605131,0.228056000000379,
0.102711251220703,0.599029255371094,-0.059663505371093,0.610692544404249,0.232040000000325,
0.0931344445800779,0.599029255371094,0.00258573779296967,0.606231605574652,0.236030000000028,
0.0691924279785154,0.579875642089844,-0.0429040937499998,0.585563074005849,0.239828000000216,
0.0931344445800779,0.551145222167969,-0.00220266552734216,0.558963265717207,0.243645000000015,
-0.0313640417480471,0.642124885253906,-0.0812113203124998,0.647999498397966,0.247481000000334,
0.160172091064453,0.546356818847656,0.0480755693359374,0.571377399469269,0.251357000000098,
0.133835872802734,0.541568415527344,-0.0476924970703116,0.559895493661513,0.255173000000013,
0.0787692346191404,0.529597407226563,-0.0189620771484371,0.53575886967307,0.259105000000091,
0.026096798095703,0.615788666992188,-0.0620577070312489,0.619457734045544,0.262978000000203,
0.107499654541016,0.622971271972656,-0.0285388837890626,0.632822130869009,0.266817000000174,
0.131441671142578,0.515232197265625,0.0073741411132815,0.531785208490304,0.270617000000129,
0.124259066162109,0.508049592285156,-0.0740287153320303,0.528237592791637,0.274393000000146,
0.0596156213378904,0.551145222167969,-0.0165678754882812,0.554607584445324,0.278173000000152,
0.0380678063964842,0.599029255371094,-0.00459686718749985,0.600255227267724,0.282044000000042,
0.0524330163574217,0.591846650390625,-0.0285388837890626,0.594849684097475,0.285806000000321,
0.0859518395996092,0.505655390625,0.0217393510742188,0.513368963011796,0.289544000000205,
0.138624276123047,0.52480900390625,-0.0429040937499998,0.544501553507626,0.293264000000363,
0.0524330163574217,0.551145222167969,0.000191536132813752,0.553633736155057,0.297011999999995,
-0.115161099853516,0.718739338378906,-1.65420181103516,1.80727196267878,0.300844000000325,
0.533667550048828,0.196803376464844,-3.99094263134766,4.03127221974295,0.304883000000245,
-0.416830509033203,-0.610042583007813,9.39204609851075,9.4210630792334,0.307842000000164,
0.236786544189453,-0.112048637695313,4.63536595019531,4.64276213658945,0.310789000000113,
0.129047469482422,0.90788126953125,-6.16487773876953,6.23270560695126,0.313847000000351,
-0.163045133056641,0.826478413085938,-6.53597899609375,6.59004337770922,0.316767000000254,
0.0404620080566405,0.950976899414063,-0.516956022460937,1.08316100671774,0.319789000000128,
0.0787692346191404,0.970130512695313,3.5747346147461,3.70487319214152,0.322749000000385,
0.100317049560547,0.934217487792969,1.53008639697266,1.79554732801213,0.325671000000057,
0.327766207275391,0.836055219726563,-1.35492660351562,1.6254984214013,0.328699000000142,
0.411563265380859,0.766623371582031,-0.382880729492188,0.950627881078199,0.33166300000039,
0.287064779052734,0.558327827148438,0.620289766113283,0.882550589986637,0.334711000000425,
0.306218392333984,0.357214887695313,0.186939265625,0.506279042453072,0.337655000000268,
0.188902510986328,0.350032282714844,-0.334996696289062,0.520028407035703,0.340568000000076,
-0.103190091552735,0.431435139160156,-0.117124345214844,0.458805608661022,0.343571000000338,
-0.0577002600097658,0.426646735839844,0.25158271044922,0.498648791640935,0.346504000000095,
0.102711251220703,0.630153876953125,-0.239228629882811,0.681816578796661,0.349512000000232,
0.0859518395996092,0.812113203125,0.0768059892578137,0.82025284724064,0.352459000000181,
0.181719906005859,0.618182868652344,0.158208845703125,0.663477371274058,0.355375000000095,
0.143412679443359,0.56311623046875,-0.0309330854492185,0.58191403266966,0.358360000000175,
0.0524330163574217,0.541568415527344,0.0289219560546883,0.54486883691689,0.361310000000231,
0.100317049560547,0.567904633789063,0.0480755693359374,0.578697195326361,0.36433100000022,
0.0620098229980467,0.603817658691406,0.0361045610351578,0.608066215492492,0.367255999999998,
0.100317049560547,0.548751020507813,0.0361045610351578,0.55901228275275,0.370254000000386,
0.0739808312988279,0.539174213867188,0.0265277543945324,0.544872203413041,0.373187000000144,
0.0883460412597654,0.644519086914063,-0.0716345136718743,0.654477944587757,0.37610500000028,
0.150595284423828,0.658884296875,-0.0836055219726557,0.681026680581221,0.379123000000163,
0.114682259521484,0.555933625488281,-0.00699106884765577,0.567682210079839,0.382069000000229,
0.0620098229980467,0.517626398925781,-0.0452982954101557,0.523291737542441,0.385079000000133,
0.0476446130371092,0.508049592285156,-0.0117794721679676,0.510414687618926,0.38804300000038,
0.138624276123047,0.572693037109375,0.00976834277343741,0.589312671851487,0.390990000000329,
0.119470662841797,0.634942280273438,-0.0189620771484371,0.646362513554487,0.394000000000233,
0.117076461181641,0.615788666992188,0.014556746093751,0.626988420160747,0.396956000000046,
0.0715866296386717,0.622971271972656,-0.0141736738281235,0.6272310134839,0.399971000000278,
0.0548272180175779,0.558327827148438,-0.0548751020507812,0.563690751413331,0.402917000000343,
0.0811634362792967,0.553539423828125,-0.0261446821289049,0.560068693576295,0.405853000000207,
0.102711251220703,0.567904633789063,-0.00938527050781168,0.577194384509167,0.4088670000001,
0.0739808312988279,0.596635053710938,0.0217393510742188,0.601597165968597,0.411824000000252,
0.0859518395996092,0.591846650390625,0.0384987626953137,0.599293192884943,0.414840000000368,
0.15538368774414,0.575087238769531,0.00258573779296967,0.595714788008881,0.417777999999998,
0.138624276123047,0.599029255371094,-0.0476924970703116,0.616706829050796,0.420688000000155,
0.0835576379394529,0.577481440429688,-0.0620577070312489,0.586786035877426,0.423703000000387,
0.0883460412597654,0.5439626171875,0.0169509477539069,0.551350783561158,0.42664700000023,
0.0691924279785154,0.579875642089844,0.000191536132813752,0.583989202866595,0.429735000000164,
0.0787692346191404,0.587058247070313,-0.0788171186523439,0.597540053861171,0.43275500000027,
0.0907402429199217,0.591846650390625,0.00497993945312558,0.598782973255524,0.435782000000017,
0.0763750329589842,0.615788666992188,-0.00699106884765577,0.620546294082185,0.438850000000002,
0.124259066162109,0.579875642089844,-0.0500866987304676,0.595151033942061,0.441800000000057,
0.188902510986328,0.558327827148438,0.000191536132813752,0.589418491321171,0.444821000000047,
0.100317049560547,0.551145222167969,-0.0405098920898439,0.561663260066246,0.447747000000163,
0.035673604736328,0.565510432128906,0.014556746093751,0.56682144788138,0.450712000000294,
0.016519991455078,0.632548078613281,0.00497993945312558,0.632783360773643,0.453711999999996,
0.045250411376953,0.656490095214844,0.0408929643554696,0.659317131112757,0.456650000000081,
0.0596156213378904,0.673249506835938,0.0361045610351578,0.676847442257025,0.45966800000042,
0.107499654541016,0.570298835449219,-0.0429040937499998,0.581925853267993,0.462594000000081,
0.129047469482422,0.541568415527344,0.0313161577148442,0.557611244336621,0.46563500000002,
0.138624276123047,0.4673481640625,-0.0788171186523439,0.493804753496649,0.46856600000001,
0.0691924279785154,0.536780012207031,-0.0452982954101557,0.543113532478807,0.471533000000363,
0.0644040246582029,0.584664045410156,0.0361045610351578,0.58930761382752,0.474567000000206,
0.0620098229980467,0.642124885253906,-0.0357214887695303,0.646100310455353,0.477498000000196,
0.121864864501953,0.634942280273438,-0.00699106884765577,0.646569114265865,0.480507000000216,
0.0883460412597654,0.58226984375,-0.021356278808593,0.589321036949702,0.483448000000408,
0.102711251220703,0.551145222167969,-0.00938527050781168,0.560712707496813,0.486371000000418,
0.107499654541016,0.541568415527344,-0.021356278808593,0.55254738716945,0.489385000000311,
0.112288057861328,0.534385810546875,-0.0261446821289049,0.546681211361549,0.492327000000387,
0.119470662841797,0.589452448730469,0.0600465776367187,0.604427845222312,0.495347000000038,
0.13623007446289,0.618182868652344,0.0504697709960951,0.635024322422223,0.49827200000027,
0.0500388146972655,0.630153876953125,-0.021356278808593,0.632498128265936,0.501200000000154,
0.0907402429199217,0.553539423828125,0.000191536132813752,0.560927555129207,0.504220000000259,
0.0763750329589842,0.493684382324219,-0.00699106884765577,0.499606134924266,0.507151000000249,
0.0787692346191404,0.534385810546875,-0.0237504804687489,0.540681858544211,0.510166000000027,
0.0763750329589842,0.546356818847656,-0.145854765136718,0.570624685475404,0.513119000000188,
0.0739808312988279,0.807324799804688,-0.133883756835937,0.821688113656178,0.51604800000041,
0.0763750329589842,0.675643708496094,-0.148248966796874,0.695920485864715,0.519075000000157,
0.0572214196777342,0.56311623046875,-0.282324259765625,0.632519697352958,0.522016000000349,
-0.00981622680664085,0.381156904296875,0.304255146972658,0.48779928091506,0.525043000000096,
0.0548272180175779,0.182438166503906,1.76232395800781,1.77259003760068,0.527994000000035,
0.196085115966797,0.419464130859375,0.332985566894532,0.570332286953313,0.530918000000383,
0.0763750329589842,0.843237824707031,-1.6901148359375,1.89033630164904,0.533926000000065,
0.0620098229980467,0.864785639648438,0.222852290527344,0.895188563423199,0.536874000000353,
0.28945898071289,0.529597407226563,0.581982539550783,0.838429240662813,0.539882000000034,
0.0883460412597654,0.603817658691406,-0.275141654785156,0.669405496057328,0.542823000000226,
0.00933738647460924,0.555933625488281,-0.0644519086914048,0.559735143857062,0.545745000000352,
0.0500388146972655,0.383551105957031,0.014556746093751,0.387075228752767,0.548758000000362,
-0.0146046301269533,0.589452448730469,-0.0620577070312489,0.592890077111658,0.551668000000063,
0.100317049560547,0.656490095214844,-0.0405098920898439,0.665344878168352,0.554680000000189,
0.186508309326172,0.558327827148438,0.014556746093751,0.588835470121188,0.557632000000012,
0.100317049560547,0.630153876953125,-0.0333272871093744,0.63895862709385,0.560629000000063,
0.0907402429199217,0.577481440429688,0.0073741411132815,0.584613533612652,0.563575000000128,
0.0476446130371092,0.541568415527344,-0.0788171186523439,0.549343695732381,0.56651200000033,
-0.0146046301269533,0.577481440429688,-0.0429040937499998,0.579257171317197,0.56960300000037,
0.0691924279785154,0.572693037109375,-0.0237504804687489,0.577346509615862,0.572644000000309,
0.0979228479003904,0.637336481933594,-0.0572693037109371,0.647353418537315,0.575737000000117,
0.102711251220703,0.531991608886719,0.0265277543945324,0.542465109298671,0.578708000000006,
0.150595284423828,0.548751020507813,-0.021356278808593,0.569440701779922,0.581614000000172,
0.0835576379394529,0.572693037109375,0.0432871660156255,0.580373132004959,0.584650000000238,
0.100317049560547,0.587058247070313,0.00258573779296967,0.595573322039978,0.587581000000228,
0.0691924279785154,0.603817658691406,-0.0189620771484371,0.608064895719953,0.590613000000303,
0.0907402429199217,0.591846650390625,-0.0189620771484371,0.599062442182409,0.593547000000399,
0.150595284423828,0.60142345703125,0.0169509477539069,0.620222902663123,0.596480000000156,
0.0644040246582029,0.60142345703125,0.014556746093751,0.605037149203611,0.599501000000146,
0.117076461181641,0.539174213867188,-0.0333272871093744,0.552744460603801,0.602436000000125,
0.0715866296386717,0.565510432128906,0.000191536132813752,0.570023447829769,0.605461999999989,
0.0739808312988279,0.591846650390625,-0.0141736738281235,0.596620913150096,0.608413000000382,
0.0979228479003904,0.577481440429688,-0.0237504804687489,0.586206263617309,0.611358999999993,
0.102711251220703,0.60142345703125,-0.0524809003906235,0.612383883442856,0.614389000000301,
0.0691924279785154,0.546356818847656,-0.0620577070312489,0.554206211254321,0.617325000000164,
0.0787692346191404,0.565510432128906,0.0384987626953137,0.572266367960041,0.62035700000024,
0.107499654541016,0.555933625488281,0.014556746093751,0.566418811950857,0.623285000000124,
0.160172091064453,0.474530769042969,0.0289219560546883,0.501668246021711,0.626206000000366,
0.109893856201172,0.496078583984375,0.0983538041992187,0.517536560949238,0.629213000000163,
0.148201082763672,0.606211860351563,-0.059663505371093,0.626909973151164,0.632145000000037,
0.0500388146972655,0.718739338378906,-0.0859997236328116,0.725593599733746,0.635159000000385,
0.0404620080566405,0.634942280273438,-0.00220266552734216,0.636234017567619,0.638108999999986,
0.0667982263183592,0.56311623046875,-0.0859997236328116,0.573548467456355,0.64104400000042,
0.045250411376953,0.548751020507813,-0.0405098920898439,0.552101742068688,0.644052000000102,
0.15538368774414,0.527203205566406,-0.00938527050781168,0.549704824136525,0.647005000000263,
0.179325704345703,0.551145222167969,-0.0524809003906235,0.58195619170473,0.650025000000369,
0.0979228479003904,0.536780012207031,-0.0261446821289049,0.546264780165741,0.65297099999998,
0.0859518395996092,0.558327827148438,-0.0333272871093744,0.565887258528519,0.655986000000212,
0.0787692346191404,0.613394465332031,0.0241335527343765,0.618902084977936,0.658931000000393,
0.045250411376953,0.630153876953125,0.0169509477539069,0.632003831474615,0.661863000000267,
0.0955286462402342,0.60142345703125,-0.0309330854492185,0.60974810593828,0.664888000000246,
0.121864864501953,0.589452448730469,-0.0668461103515625,0.60561839221044,0.667838000000302,
0.112288057861328,0.5439626171875,0.0169509477539069,0.555689905851725,0.670848000000206,
0.0715866296386717,0.603817658691406,-0.0117794721679676,0.608160477551075,0.673787000000175,
0.0428562097167967,0.613394465332031,0.0193451494140628,0.615194001610151,0.676712000000407,
0.0500388146972655,0.565510432128906,0.014556746093751,0.567906533401199,0.679720000000088,
0.0715866296386717,0.558327827148438,0.0121625444335951,0.563029782159362,0.682656000000406,
0.0883460412597654,0.5439626171875,-0.00938527050781168,0.551170060150451,0.685660999999982,
0.114682259521484,0.572693037109375,-0.0357214887695303,0.585154133679687,0.68860100000029,
0.0979228479003904,0.541568415527344,0.0073741411132815,0.550399501085238,0.691541000000143,
0.0955286462402342,0.560722028808594,0.0193451494140628,0.56913017021554,0.694549000000279,
0.109893856201172,0.642124885253906,-0.0620577070312489,0.654409800427135,0.697477000000163,
0.119470662841797,0.634942280273438,0.00497993945312558,0.646103504367255,0.700497000000269,
0.0907402429199217,0.611000263671875,-0.0500866987304676,0.619728804625042,0.703432000000248,
0.0811634362792967,0.536780012207031,-0.021356278808593,0.543301367141842,0.70641999999998,
0.129047469482422,0.522414802246094,-0.021356278808593,0.538541145717012,0.709530000000086,
0.0667982263183592,0.575087238769531,-0.0476924970703116,0.580914717933402,0.712560000000394,
0.105105452880859,0.534385810546875,-0.00220266552734216,0.544628499506367,0.715652000000318,
0.0883460412597654,0.579875642089844,-0.0141736738281235,0.586738166753422,0.718593000000055,
0.102711251220703,0.575087238769531,0.000191536132813752,0.584187444241124,0.721525000000383,
0.0787692346191404,0.58226984375,-0.0189620771484371,0.587879514554571,0.724523000000318,
0.0572214196777342,0.567904633789063,-0.0405098920898439,0.572215881731847,0.727489000000332,
0.0931344445800779,0.575087238769531,0.0648349809570323,0.586176536308391,0.730504999999994,
0.114682259521484,0.577481440429688,0.0073741411132815,0.588804902023462,0.733446000000185,
0.0907402429199217,0.594240852050781,-0.0237504804687489,0.601597928232554,0.736358000000109,
0.0859518395996092,0.632548078613281,0.000191536132813752,0.638361047663468,0.739368000000013,
0.100317049560547,0.546356818847656,-0.0452982954101557,0.557334028658694,0.742309000000205,
0.0691924279785154,0.577481440429688,0.0193451494140628,0.581933536528151,0.745331000000078,
0.107499654541016,0.527203205566406,-0.00938527050781168,0.538133328263951,0.748297000000093,
0.114682259521484,0.572693037109375,-0.0500866987304676,0.586206459186718,0.751319000000422,
0.121864864501953,0.622971271972656,-0.021356278808593,0.635138049204942,0.754267000000254,
0.105105452880859,0.577481440429688,-0.00459686718749985,0.58698645764104,0.757203000000118,
0.0667982263183592,0.587058247070313,0.0265277543945324,0.591441552687807,0.760228999999981,
0.100317049560547,0.599029255371094,-0.0357214887695303,0.60842056505586,0.763164000000415,
0.0811634362792967,0.591846650390625,-0.0429040937499998,0.598924638187289,0.766164000000117,
0.0667982263183592,0.548751020507813,-0.0165678754882812,0.553049889291951,0.769109000000299,
0.0907402429199217,0.560722028808594,0.000191536132813752,0.568016744438474,0.772044000000278,
0.119470662841797,0.58226984375,-0.0261446821289049,0.594974751249269,0.775050000000192,
0.0859518395996092,0.60142345703125,-0.0716345136718743,0.611742917365606,0.778016000000207,
0.119470662841797,0.536780012207031,-0.0333272871093744,0.550923523595526,0.781037000000197,
0.0763750329589842,0.591846650390625,-0.0429040937499998,0.598294546606099,0.78398100000004,
0.124259066162109,0.58226984375,-0.0189620771484371,0.595682840808691,0.786917000000358,
0.105105452880859,0.599029255371094,-0.0309330854492185,0.60896638724247,0.789940000000115,
0.0835576379394529,0.579875642089844,-0.100364933593749,0.59439949448364,0.79289000000017,
0.0739808312988279,0.603817658691406,0.00497993945312558,0.60835329221119,0.795906000000286,
0.0644040246582029,0.613394465332031,0.0432871660156255,0.618283452175301,0.79884600000014,
0.121864864501953,0.551145222167969,-0.0476924970703116,0.566468600537983,0.801759000000402,
0.0931344445800779,0.555933625488281,0.0217393510742188,0.564100008953122,0.804786000000149,
0.102711251220703,0.560722028808594,-0.0668461103515625,0.573957487265112,0.807708000000275,
0.0835576379394529,0.606211860351563,-0.0500866987304676,0.613989719684817,0.810730000000149,
0.102711251220703,0.596635053710938,0.0217393510742188,0.605801607648167,0.813676000000214,
0.102711251220703,0.615788666992188,-0.0812113203124998,0.629555845076699,0.81659000000036,
0.0931344445800779,0.589452448730469,-0.00938527050781168,0.596838585703112,0.819610000000011,
0.100317049560547,0.56311623046875,-0.0309330854492185,0.572817820275588,0.822552000000087,
0.0811634362792967,0.594240852050781,-0.0261446821289049,0.600327608925596,0.825567000000319,
0.105105452880859,0.551145222167969,0.0408929643554696,0.562565948736366,0.828521000000364,
0.0859518395996092,0.618182868652344,-0.0117794721679676,0.624240765883128,0.831432000000405,
0.112288057861328,0.560722028808594,0.00497993945312558,0.57187638640396,0.834443000000192,
0.0931344445800779,0.56311623046875,-0.0357214887695303,0.571882801406447,0.837371000000076,
0.0979228479003904,0.627759675292969,-0.0285388837890626,0.635991793935097,0.840385000000424,
0.0859518395996092,0.553539423828125,-0.0141736738281235,0.560352126338712,0.843336000000363,
0.131441671142578,0.577481440429688,-0.00220266552734216,0.592255501189247,0.846428000000287,
0.0883460412597654,0.560722028808594,-0.102759135253905,0.576865371187791,0.849460000000363,
0.107499654541016,0.587058247070313,-0.0117794721679676,0.596935773047873,0.852481000000353,
0.119470662841797,0.565510432128906,-0.0261446821289049,0.578583470667891,0.855530000000272,
0.0859518395996092,0.558327827148438,0.0217393510742188,0.565323164821663,0.858476000000337,
0.102711251220703,0.570298835449219,-0.0309330854492185,0.580299249196021,0.861464000000069,
0.0667982263183592,0.579875642089844,0.0384987626953137,0.584978562049463,0.864412000000357,
0.109893856201172,0.599029255371094,-0.00699106884765577,0.60906615688679,0.867358000000422,
0.13623007446289,0.551145222167969,0.00258573779296967,0.567737945840049,0.870375000000422,
0.13623007446289,0.534385810546875,0.0289219560546883,0.552234829799819,0.873307000000295,
0.105105452880859,0.579875642089844,-0.00459686718749985,0.589342046440213,0.876326000000063,
0.105105452880859,0.625365473632813,0.0289219560546883,0.634795724134396,0.879263000000265,
0.105105452880859,0.577481440429688,-0.0261446821289049,0.587550435851816,0.882195000000138,
0.124259066162109,0.555933625488281,-0.0405098920898439,0.571089802771118,0.885224000000107,
0.0883460412597654,0.603817658691406,-0.0237504804687489,0.610708501067686,0.888194999999996,
0.114682259521484,0.591846650390625,-0.0405098920898439,0.604214804175375,0.891215000000102,
0.105105452880859,0.63973068359375,-0.0452982954101557,0.649888020603306,0.894156000000294,
0.0883460412597654,0.584664045410156,-0.0309330854492185,0.5921097235961,0.897093000000041,
0.117076461181641,0.587058247070313,0.014556746093751,0.598795609597233,0.900113000000147,
0.0955286462402342,0.577481440429688,-0.059663505371093,0.588362362975747,0.903044000000136,
0.0979228479003904,0.570298835449219,-0.021356278808593,0.579038631267559,0.906057000000146,
0.121864864501953,0.560722028808594,0.0217393510742188,0.574223683050806,0.909014000000298,
0.100317049560547,0.56311623046875,-0.059663505371093,0.575085326993338,0.911938000000191,
0.109893856201172,0.603817658691406,0.0169509477539069,0.613970487245186,0.914964000000055,
0.0691924279785154,0.565510432128906,-0.0429040937499998,0.571340880907968,0.91790200000014,
0.0931344445800779,0.520020600585938,0.0169509477539069,0.528566726564163,0.920931999999993,
0.0883460412597654,0.548751020507813,-0.0548751020507812,0.558519455650134,0.923871000000418,
0.0787692346191404,0.548751020507813,-0.0189620771484371,0.554699770326827,0.926796000000195,
0.0715866296386717,0.56311623046875,-0.00459686718749985,0.567666861590756,0.929810000000089,
0.0883460412597654,0.584664045410156,-0.0261446821289049,0.591878884067731,0.932750000000397,
0.117076461181641,0.587058247070313,-0.0237504804687489,0.599089616450311,0.935761000000184,
0.0979228479003904,0.603817658691406,0.00497993945312558,0.611726612863501,0.938708000000133,
0.0667982263183592,0.608606062011719,-0.0261446821289049,0.612818803693484,0.941720000000259,
0.0572214196777342,0.555933625488281,0.0121625444335951,0.559003053932248,0.944668000000092,
0.105105452880859,0.558327827148438,-0.0165678754882812,0.568376295504819,0.947587000000112,
0.105105452880859,0.551145222167969,-0.0572693037109371,0.563992894717128,0.950602000000345,
0.105105452880859,0.589452448730469,-0.0381156904296862,0.599961791613906,0.953542000000198,
0.0859518395996092,0.587058247070313,0.0480755693359374,0.595261593377903,0.956548999999995,
0.0787692346191404,0.611000263671875,0.00976834277343741,0.616134185912554,0.959489000000303,
0.138624276123047,0.594240852050781,0.0073741411132815,0.610240328177216,0.962402000000111,
0.124259066162109,0.553539423828125,-0.0548751020507812,0.569962705868143,0.965405000000374,
0.0644040246582029,0.587058247070313,0.0456813676757815,0.592344537577728,0.968356000000313,
0.0931344445800779,0.596635053710938,0.0217393510742188,0.604251612715284,0.971366000000216,
0.0787692346191404,0.584664045410156,-0.00459686718749985,0.589964210360081,0.974294999999984,
0.105105452880859,0.587058247070313,-0.0141736738281235,0.596561341949296,0.977217999999993,
0.126653267822265,0.555933625488281,-0.00938527050781168,0.570255494932848,0.980233000000226,
0.0979228479003904,0.577481440429688,0.00258573779296967,0.585730641354543,0.98324300000013,
0.0763750329589842,0.637336481933594,0.0313161577148442,0.642659815607758,0.986339000000044,
0.124259066162109,0.589452448730469,-0.0405098920898439,0.603767799899064,0.989363000000139,
0.0859518395996092,0.591846650390625,0.0217393510742188,0.598450311800644,0.992371000000276,
0.100317049560547,0.606211860351563,-0.0309330854492185,0.615234252816636,0.995379000000412,
0.117076461181641,0.570298835449219,-0.0381156904296862,0.583438484618973,0.998314000000391,
0.0644040246582029,0.555933625488281,0.0217393510742188,0.560073810962312,1.00133300000016,
0.0739808312988279,0.565510432128906,-0.0644519086914048,0.573959284949946,1.00427800000034,
0.109893856201172,0.546356818847656,-0.00938527050781168,0.557378252566961,1.00720900000033,
0.102711251220703,0.587058247070313,-0.0165678754882812,0.596205904934517,1.01022899999998,
0.0955286462402342,0.577481440429688,-0.021356278808593,0.585718897541977,1.01316900000029,
